F S UID        PID  PPID  C PRI  NI ADDR SZ WCHAN    RSS PSR STIME TTY          TIME CMD
4 S root         1     0  0  80   0 -  8478 poll_s  3196   1 12:04 ?        00:00:00 /sbin/init
1 S root         2     0  0  80   0 -     0 kthrea     0   2 12:04 ?        00:00:00 [kthreadd]
1 S root         3     2  0  80   0 -     0 smpboo     0   0 12:04 ?        00:00:00 [ksoftirqd/0]
1 S root         5     2  0  60 -20 -     0 worker     0   0 12:04 ?        00:00:00 [kworker/0:0H]
1 S root         7     2  0  80   0 -     0 rcu_gp     0   0 12:04 ?        00:00:06 [rcu_sched]
1 S root         8     2  0  80   0 -     0 rcu_no     0   1 12:04 ?        00:00:01 [rcuos/0]
1 S root         9     2  0  80   0 -     0 rcu_no     0   2 12:04 ?        00:00:01 [rcuos/1]
1 S root        10     2  0  80   0 -     0 rcu_no     0   1 12:04 ?        00:00:01 [rcuos/2]
1 S root        11     2  0  80   0 -     0 rcu_no     0   0 12:04 ?        00:00:10 [rcuos/3]
1 S root        12     2  0  80   0 -     0 rcu_gp     0   0 12:04 ?        00:00:00 [rcu_bh]
1 S root        13     2  0  80   0 -     0 rcu_no     0   0 12:04 ?        00:00:00 [rcuob/0]
1 S root        14     2  0  80   0 -     0 rcu_no     0   0 12:04 ?        00:00:00 [rcuob/1]
1 S root        15     2  0  80   0 -     0 rcu_no     0   0 12:04 ?        00:00:00 [rcuob/2]
1 S root        16     2  0  80   0 -     0 rcu_no     0   0 12:04 ?        00:00:00 [rcuob/3]
1 S root        17     2  0 -40   - -     0 smpboo     0   0 12:04 ?        00:00:00 [migration/0]
5 S root        18     2  0 -40   - -     0 smpboo     0   0 12:04 ?        00:00:00 [watchdog/0]
5 S root        19     2  0 -40   - -     0 smpboo     0   1 12:04 ?        00:00:00 [watchdog/1]
1 S root        20     2  0 -40   - -     0 smpboo     0   1 12:04 ?        00:00:00 [migration/1]
1 S root        21     2  0  80   0 -     0 smpboo     0   1 12:04 ?        00:00:00 [ksoftirqd/1]
1 S root        23     2  0  60 -20 -     0 worker     0   1 12:04 ?        00:00:00 [kworker/1:0H]
5 S root        24     2  0 -40   - -     0 smpboo     0   2 12:04 ?        00:00:00 [watchdog/2]
1 S root        25     2  0 -40   - -     0 smpboo     0   2 12:04 ?        00:00:00 [migration/2]
1 S root        26     2  0  80   0 -     0 smpboo     0   2 12:04 ?        00:00:00 [ksoftirqd/2]
1 S root        28     2  0  60 -20 -     0 worker     0   2 12:04 ?        00:00:00 [kworker/2:0H]
5 S root        29     2  0 -40   - -     0 smpboo     0   3 12:04 ?        00:00:00 [watchdog/3]
1 S root        30     2  0 -40   - -     0 smpboo     0   3 12:04 ?        00:00:00 [migration/3]
1 S root        31     2  0  80   0 -     0 smpboo     0   3 12:04 ?        00:00:00 [ksoftirqd/3]
1 S root        33     2  0  60 -20 -     0 worker     0   3 12:04 ?        00:00:00 [kworker/3:0H]
1 S root        34     2  0  60 -20 -     0 rescue     0   3 12:04 ?        00:00:00 [khelper]
5 S root        35     2  0  80   0 -     0 devtmp     0   0 12:04 ?        00:00:00 [kdevtmpfs]
1 S root        36     2  0  60 -20 -     0 rescue     0   3 12:04 ?        00:00:00 [netns]
1 S root        37     2  0  60 -20 -     0 rescue     0   3 12:04 ?        00:00:00 [writeback]
1 S root        38     2  0  60 -20 -     0 rescue     0   1 12:04 ?        00:00:00 [kintegrityd]
1 S root        39     2  0  60 -20 -     0 rescue     0   1 12:04 ?        00:00:00 [bioset]
1 S root        40     2  0  60 -20 -     0 worker     0   1 12:04 ?        00:00:00 [kworker/u9:0]
1 S root        41     2  0  60 -20 -     0 rescue     0   2 12:04 ?        00:00:00 [kblockd]
1 S root        42     2  0  60 -20 -     0 rescue     0   2 12:04 ?        00:00:00 [ata_sff]
1 S root        43     2  0  80   0 -     0 hub_th     0   1 12:04 ?        00:00:00 [khubd]
1 S root        44     2  0  60 -20 -     0 rescue     0   2 12:04 ?        00:00:00 [md]
1 S root        45     2  0  60 -20 -     0 rescue     0   3 12:04 ?        00:00:00 [devfreq_wq]
1 S root        48     2  0  80   0 -     0 watchd     0   0 12:04 ?        00:00:00 [khungtaskd]
1 S root        49     2  0  80   0 -     0 kswapd     0   3 12:04 ?        00:00:00 [kswapd0]
1 S root        50     2  0  85   5 -     0 ksm_sc     0   3 12:04 ?        00:00:00 [ksmd]
1 S root        51     2  0  99  19 -     0 khugep     0   0 12:04 ?        00:00:00 [khugepaged]
1 S root        52     2  0  80   0 -     0 fsnoti     0   1 12:04 ?        00:00:00 [fsnotify_mark]
1 S root        53     2  0  80   0 -     0 ecrypt     0   3 12:04 ?        00:00:00 [ecryptfs-kthrea]
1 S root        54     2  0  60 -20 -     0 rescue     0   1 12:04 ?        00:00:00 [crypto]
1 S root        66     2  0  60 -20 -     0 rescue     0   1 12:04 ?        00:00:00 [kthrotld]
1 S root        68     2  0  80   0 -     0 worker     0   2 12:04 ?        00:00:00 [kworker/2:1]
1 S root        87     2  0  60 -20 -     0 rescue     0   2 12:04 ?        00:00:00 [deferwq]
1 S root        88     2  0  60 -20 -     0 rescue     0   2 12:04 ?        00:00:00 [charger_manager]
1 S root        94     2  0  80   0 -     0 worker     0   0 12:04 ?        00:00:06 [kworker/0:2]
1 S root       136     2  0  60 -20 -     0 rescue     0   3 12:04 ?        00:00:00 [kpsmoused]
1 S root       137     2  0  80   0 -     0 scsi_e     0   0 12:04 ?        00:00:00 [scsi_eh_0]
1 S root       146     2  0  80   0 -     0 scsi_e     0   0 12:04 ?        00:00:00 [scsi_eh_1]
1 S root       156     2  0  80   0 -     0 scsi_e     0   2 12:04 ?        00:00:00 [scsi_eh_2]
1 S root       157     2  0  80   0 -     0 scsi_e     0   3 12:04 ?        00:00:00 [scsi_eh_3]
1 S root       163     2  0  80   0 -     0 scsi_e     0   3 12:04 ?        00:00:00 [scsi_eh_4]
1 S root       165     2  0  80   0 -     0 scsi_e     0   0 12:04 ?        00:00:00 [scsi_eh_5]
1 S root       173     2  0  80   0 -     0 worker     0   2 12:04 ?        00:00:05 [kworker/2:2]
1 S root       174     2  0  80   0 -     0 worker     0   3 12:04 ?        00:00:05 [kworker/3:1]
1 S root       176     2  0  80   0 -     0 worker     0   1 12:04 ?        00:00:05 [kworker/1:1]
1 S root       189     2  0  60 -20 -     0 rescue     0   3 12:04 ?        00:00:00 [kdmflush]
1 S root       190     2  0  60 -20 -     0 rescue     0   1 12:04 ?        00:00:00 [bioset]
1 S root       192     2  0  60 -20 -     0 rescue     0   0 12:04 ?        00:00:00 [kdmflush]
1 S root       194     2  0  60 -20 -     0 rescue     0   0 12:04 ?        00:00:00 [bioset]
1 S root       285     2  0  80   0 -     0 kjourn     0   0 12:04 ?        00:00:00 [jbd2/dm-0-8]
1 S root       286     2  0  60 -20 -     0 rescue     0   0 12:04 ?        00:00:00 [ext4-rsv-conver]
1 S root       453     1  0  80   0 -  4935 poll_s   912   2 12:04 ?        00:00:00 upstart-udev-bridge --daemon
5 S root       459     1  0  80   0 - 12937 ep_pol  1980   2 12:04 ?        00:00:00 /lib/systemd/systemd-udevd --daemon
1 S root       495     2  0   9   - -     0 irq_th     0   1 12:04 ?        00:00:00 [irq/46-mei_me]
1 S root       509     2  0  60 -20 -     0 worker     0   1 12:04 ?        00:00:00 [kworker/u9:1]
1 S root       574     2  0  60 -20 -     0 rescue     0   0 12:04 ?        00:00:00 [kvm-irqfd-clean]
1 S root       582     2  0  60 -20 -     0 rescue     0   0 12:04 ?        00:00:00 [kmpathd]
1 S root       583     2  0  60 -20 -     0 rescue     0   0 12:04 ?        00:00:00 [kmpath_handlerd]
1 S root       608     2  0  60 -20 -     0 rescue     0   2 12:04 ?        00:00:00 [hd-audio0]
1 S root       665     1  0  80   0 -  3848 poll_s   724   1 12:04 ?        00:00:00 upstart-socket-bridge --daemon
1 S root       780     2  0  60 -20 -     0 rescue     0   3 12:04 ?        00:00:00 [ext4-rsv-conver]
1 S root       785     2  0  80   0 -     0 kaudit     0   3 12:04 ?        00:00:00 [kauditd]
1 S root       917     1  0  80   0 -  3819 poll_s   632   3 12:04 ?        00:00:00 upstart-file-bridge --daemon
5 S message+   926     1  0  80   0 -  9891 ep_pol  1708   1 12:04 ?        00:00:00 dbus-daemon --system --fork
5 S syslog     928     1  0  80   0 - 63961 poll_s  1344   2 12:04 ?        00:00:00 rsyslogd
4 S root       965     1  0  80   0 - 82566 poll_s  4920   3 12:04 ?        00:00:00 /usr/sbin/ModemManager
5 S root      1009     2  0  70 -10 -     0 rfcomm     0   1 12:04 ?        00:00:00 [krfcommd]
4 S root      1016     1  0  80   0 - 10863 ep_pol  1868   3 12:04 ?        00:00:00 /lib/systemd/systemd-logind
5 S root      1027     1  0  80   0 - 88100 poll_s  8796   2 12:04 ?        00:00:00 NetworkManager
4 S root      1051     1  0  80   0 - 73631 poll_s  4220   3 12:04 ?        00:00:00 /usr/lib/policykit-1/polkitd --no-debug
4 S root      1322     1  0  80   0 -  3955 n_tty_   964   2 12:04 tty4     00:00:00 /sbin/getty -8 38400 tty4
4 S root      1324     1  0  80   0 -  3955 n_tty_   964   3 12:04 tty5     00:00:00 /sbin/getty -8 38400 tty5
4 S root      1331     1  0  80   0 -  3955 n_tty_   964   3 12:04 tty2     00:00:00 /sbin/getty -8 38400 tty2
4 S root      1332     1  0  80   0 -  3955 n_tty_   968   3 12:04 tty3     00:00:00 /sbin/getty -8 38400 tty3
4 S root      1335     1  0  80   0 -  3955 n_tty_   964   3 12:04 tty6     00:00:00 /sbin/getty -8 38400 tty6
4 S root      1366     1  0  80   0 - 15341 poll_s  3060   1 12:04 ?        00:00:00 /usr/sbin/sshd -D
1 S root      1372     1  0  80   0 -  1092 poll_s   692   2 12:04 ?        00:00:00 acpid -c /etc/acpi/events -s /var/run/acpid.socket
5 S root      1400     1  0  80   0 -  4797 hrtime   744   3 12:04 ?        00:00:00 /usr/sbin/irqbalance
1 S kernoops  1558     1  0  80   0 -  9286 poll_s  1012   3 12:04 ?        00:00:00 /usr/sbin/kerneloops
1 S root      1579     2  0  60 -20 -     0 rescue     0   0 12:04 ?        00:00:00 [iprt]
4 S root      1662     1  0  80   0 -  3955 n_tty_   948   3 12:04 tty1     00:00:00 /sbin/getty -8 38400 tty1
4 S root      1682  1027  0  80   0 -  2558 poll_s  3708   3 12:04 ?        00:00:00 /sbin/dhclient -d -sf /usr/lib/NetworkManager/nm-dhcp-client.action -pf /run/sendsigs.omit.d/network-manager.dhclient-eth0.pid -lf /var/lib/NetworkManager/dhclient-8cd707a4-3e4b-48bd-a950-7a0030d9a6f8-eth0.lease -cf /var/lib/NetworkManager/dhclient-eth0.conf eth0
4 S nobody    1691  1027  0  80   0 -  7758 poll_s  1536   1 12:04 ?        00:00:00 /usr/sbin/dnsmasq --no-resolv --keep-in-foreground --no-hosts --bind-interfaces --pid-file=/run/sendsigs.omit.d/network-manager.dnsmasq.pid --listen-address=127.0.1.1 --conf-file=/var/run/NetworkManager/dnsmasq.conf --cache-size=0 --proxy-dnssec --enable-dbus=org.freedesktop.NetworkManager.dnsmasq --conf-dir=/etc/NetworkManager/dnsmasq.d
4 S root      1928     1  0  80   0 - 525657 poll_s 4212   2 12:04 ?        00:00:00 /usr/sbin/console-kit-daemon --no-daemon
4 S colord    2261     1  0  80   0 - 77748 poll_s  6304   2 12:05 ?        00:00:00 /usr/lib/colord/colord
1 S callum    2356     1  0  80   0 -  6799 poll_s  1512   1 12:05 ?        00:00:00 SCREEN
0 S callum    2357  2356  0  80   0 - 11681 sigsus  6536   2 12:05 pts/1    00:00:00 /bin/zsh
0 S callum    2503  2357  0  80   0 - 56409 futex_ 51060   0 12:05 pts/1    00:00:06 ./gc_factor +RTS -K80M -RTS gcFactorInput.csv ../../data/saved/min_heaps.csv factors.txt
1 S root      7533     2  0  80   0 -     0 worker     0   0 14:31 ?        00:00:00 [kworker/u8:1]
1 S root      7766     2  0  80   0 -     0 worker     0   0 14:47 ?        00:00:00 [kworker/0:0]
1 S root      7787     2  0  80   0 -     0 worker     0   3 14:47 ?        00:00:00 [kworker/3:0]
1 S root      8044     2  0  80   0 -     0 worker     0   1 14:47 ?        00:00:00 [kworker/1:2]
1 S root     16747     2  0  80   0 -     0 worker     0   0 16:23 ?        00:00:00 [kworker/u8:2]
0 R callum   17079  2503  0  80   0 -  4615 -       1296   2 16:36 pts/1    00:00:00 ps -elFww
