1414734178694 0 TOTAL_MEM 1049
1414734198740 8694 CREATION
1414734198740 8694 READING 9 0.991295
1414734198740 8694 MINHEAP 2
1414734198740 8694 MINHEAP 276
1414734198749 8695 CREATION
1414734198749 8695 READING 9 0.954794
1414734198749 8695 MINHEAP 2
1414734198749 8695 MINHEAP 276
1414734198788 8694 READING 9 0.975902
1414734198800 8695 READING 9 0.980770
1414734198816 8694 READING 9 0.960384
1414734198840 8694 READING 9 0.953697
1414734198854 8695 READING 11 0.974576
1414734198938 8694 READING 11 0.982285
1414734198952 8695 READING 11 0.985925
1414734199079 8694 READING 11 0.984019
1414734199170 8695 READING 15 0.852437
1414734199196 8694 READING 17 0.963779
1414734199263 8695 READING 18 0.965565
1414734199350 8694 READING 17 0.599656
1414734199453 8695 READING 23 0.792557
1414734199564 8694 READING 30 0.931086
1414734199669 8694 READING 31 0.807560
1414734199688 8695 READING 28 0.624185
1414734199771 8695 READING 37 0.888666
1414734199884 8695 READING 38 0.942001
1414734199941 8694 READING 34 0.440037
1414734199998 8695 READING 42 0.710670
1414734200021 8694 READING 44 0.766197
1414734200144 8694 READING 49 0.887965
1414734200262 8695 READING 43 0.240629
1414734200373 8695 READING 60 0.862614
1414734200382 8694 READING 50 0.207556
1414734200445 8695 READING 63 0.731299
1414734200454 8694 READING 68 0.711915
1414734200703 8694 READING 70 0.253596
1414734200743 8695 READING 70 0.213845
1414734200775 8694 READING 91 0.780690
1414734200877 8694 READING 94 0.691509
1414734200987 8694 READING 96 0.816537
1414734201031 8695 READING 91 0.369356
1414734201173 8695 READING 118 0.711957
1414734201321 8695 READING 121 0.836610
1414734201356 8694 READING 98 0.262306
1414734201417 8695 READING 122 0.779681
1414734201473 8694 READING 129 0.812113
1414734201514 8695 READING 125 0.828288
1414734201559 8694 READING 130 0.701539
1414734201657 8694 READING 134 0.597898
1414734201768 8694 READING 139 0.655047
1414734201871 8694 READING 143 0.571081
1414734201921 8695 READING 128 0.194048
1414734202053 8695 READING 164 0.641828
1414734202169 8695 READING 168 0.714638
1414734202309 8694 READING 148 0.176694
1414734202420 8694 READING 181 0.500204
1414734202533 8694 READING 187 0.626159
1414734202562 8695 READING 171 0.199552
1414734202622 8694 READING 190 0.721746
1414734202678 8695 READING 215 0.768282
1414734202761 8694 READING 195 0.754818
1414734202824 8695 READING 217 0.687994
1414734203193 8694 READING 199 0.869251
1414734203382 8695 READING 219 0.906521
1414734203613 8694 READING 206 0.857049
1414734203837 8694 READING 210 0.725616
1414734203941 8695 READING 223 0.914308
1414734204049 8694 READING 220 0.533870
1414734204093 8695 READING 234 0.717902
1414734204148 8694 READING 225 0.599913
1414734204345 8694 READING 231 0.571865
1414734204355 8695 READING 238 0.865614
1414734204447 8694 READING 237 0.620752
1414734204518 8695 READING 244 0.762946
1414734204753 8695 READING 247 0.874554
1414734204980 8695 READING 253 0.805169
1414734205009 8694 READING 239 0.042227
1414734205134 8695 READING 255 0.631746
1414734205161 8694 READING 267 0.691742
1414734205285 8695 READING 261 0.701619
1414734205449 8695 READING 265 0.611652
1414734205512 8694 READING 270 0.158056
1414734205595 8695 READING 273 0.796269
1414734205612 8694 READING 308 0.562222
1414734205730 8694 READING 310 0.888673
1414734205880 8694 READING 312 0.909689
1414734205947 8694 READING 235 0.796668
1414734206021 8694 READING 305 0.807103
1414734206057 8695 READING 275 0.930980
1414734206097 8694 READING 238 0.809053
1414734206170 8694 READING 303 0.858634
1414734206271 8694 READING 305 0.644074
1414734206271 8695 READING 283 0.758514
1414734206348 8694 READING 303 0.885875
1414734206457 8694 READING 305 0.674882
1414734206839 8695 READING 284 0.145395
1414734206980 8695 READING 328 0.642826
1414734206980 8694 READING 301 0.939414
1414734207049 8694 READING 243 0.818917
1414734207133 8694 READING 295 0.752493
1414734207218 8694 READING 299 0.739572
1414734207311 8694 READING 293 0.743829
1414734207396 8694 READING 296 0.802967
1414734207434 8695 READING 329 0.201693
1414734207601 8694 READING 292 0.842483
1414734207809 8695 READING 376 0.873550
1414734207809 8694 READING 295 0.913023
1414734207905 8694 READING 294 0.715518
1414734207996 8694 READING 296 0.657670
1414734207996 8695 READING 376 0.775830
1414734208083 8694 READING 301 0.580259
1414734208083 8695 READING 379 0.784980
1414734208173 8694 READING 301 0.563486
1414734208177 8695 READING 381 0.737919
1414734208257 8694 READING 307 0.666726
1414734208298 8695 READING 379 0.740328
1414734208341 8694 READING 308 0.690049
1414734208421 8695 READING 382 0.724533
1414734208436 8694 READING 315 0.652960
1414734208533 8695 READING 381 0.780868
1414734208695 8694 FUNCTION lru lambda h: 0.769145 * (h ** 0.001)
1414734208695 8695 FUNCTION lru lambda h: 0.888388 * (h ** 0.001)
1414734208695 8694 RECOMMEND 524
1414734208695 8695 RECOMMEND 524
1414734210632 8695 READING 384 0.974503
1414734210889 8694 READING 316 0.422329
1414734212224 8695 READING 388 0.976781
1414734212293 8694 READING 363 0.984496
1414734213303 8694 READING 364 0.984498
1414734213821 8695 READING 391 0.972655
1414734214392 8694 READING 369 0.991219
1414734215042 8695 READING 389 0.972659
1414734215694 8694 READING 370 0.988251
1414734216481 8695 READING 393 0.977448
1414734216913 8694 READING 368 0.985852
1414734217948 8695 READING 389 0.974871
1414734218024 8694 READING 371 0.983860
1414734218695 8694 FUNCTION lru lambda h: 0.62314 * (h ** 0.0044904)
1414734218695 8695 FUNCTION lru lambda h: 0.735427 * (h ** 0.001)
1414734218695 8694 RECOMMEND 524
1414734218695 8695 RECOMMEND 524
1414734219086 8694 READING 366 0.982476
1414734219314 8695 READING 392 0.973671
1414734220221 8694 READING 333 0.980544
1414734220815 8695 READING 391 0.973151
1414734221282 8694 READING 362 0.977269
1414734222492 8695 READING 392 0.974626
1414734222578 8694 READING 365 0.980092
1414734223770 8694 READING 365 0.982654
1414734224119 8695 READING 395 0.957651
1414734225046 8694 READING 366 0.976720
1414734225693 8695 READING 395 0.973828
1414734226164 8694 READING 367 0.979003
1414734227093 8695 READING 398 0.974426
1414734227245 8694 READING 368 0.976951
1414734228393 8694 READING 370 0.964371
1414734228695 8694 FUNCTION lru lambda h: 0.547987 * (h ** 0.0360238)
1414734228695 8695 FUNCTION lru lambda h: 0.678056 * (h ** 0.00105795)
1414734228696 8694 RECOMMEND 524
1414734228696 8695 RECOMMEND 524
1414734229254 8695 READING 399 0.986200
1414734230022 8695 READING 399 0.963275
1414734230181 8695 READING 401 0.829755
1414734230314 8695 READING 397 0.743204
1414734230453 8694 READING 372 0.971311
1414734230453 8695 READING 402 0.749641
1414734230657 8694 READING 376 0.894567
1414734230708 8695 READING 410 0.928851
1414734230775 8694 READING 376 0.762509
1414734230884 8694 READING 379 0.753324
1414734230994 8694 READING 383 0.778540
1414734231101 8694 READING 391 0.832755
1414734232202 8694 READING 393 0.969730
1414734232241 8695 READING 412 0.984569
1414734233812 8694 READING 393 0.986439
1414734233957 8695 READING 413 0.982862
1414734235250 8694 READING 396 0.981020
1414734235755 8695 READING 416 0.986729
1414734236848 8694 READING 394 0.981352
1414734237586 8695 READING 415 0.984307
1414734238193 8694 READING 397 0.980728
1414734238696 8694 FUNCTION lru lambda h: 0.478893 * (h ** 0.0682867)
1414734238696 8695 FUNCTION lru lambda h: 0.593272 * (h ** 0.0350741)
1414734238696 8694 RECOMMEND 524
1414734238696 8695 RECOMMEND 524
1414734239287 8695 READING 417 0.980180
1414734239977 8694 READING 393 0.986144
1414734240957 8695 READING 414 0.981139
1414734241300 8694 READING 396 0.978201
1414734242612 8695 READING 417 0.985146
1414734243328 8694 READING 392 0.988621
1414734244624 8695 READING 414 0.984537
1414734244898 8694 READING 394 0.980913
1414734246324 8695 READING 416 0.980612
1414734246421 8694 READING 393 0.979712
1414734248018 8694 READING 394 0.980276
1414734248056 8695 READING 417 0.979345
1414734248696 8694 FUNCTION lru lambda h: 0.470715 * (h ** 0.072397)
1414734248696 8695 FUNCTION lru lambda h: 0.575757 * (h ** 0.0426664)
1414734248696 8694 RECOMMEND 524
1414734248696 8695 RECOMMEND 524
1414734249514 8694 READING 393 0.978936
1414734250133 8695 READING 417 0.990743
1414734250376 8695 READING 417 0.914109
1414734250516 8695 READING 418 0.846990
1414734250661 8695 READING 421 0.831565
1414734251130 8695 READING 422 0.970576
1414734251551 8694 READING 394 0.989041
1414734252066 8694 READING 396 0.959120
1414734252197 8694 READING 396 0.833053
1414734252325 8694 READING 397 0.813186
1414734252459 8694 READING 400 0.794023
1414734252977 8695 READING 429 0.991713
1414734253606 8694 READING 407 0.980025
1414734255087 8695 READING 430 0.988998
1414734255242 8694 READING 408 0.986610
1414734256905 8694 READING 413 0.989855
1414734257001 8695 READING 431 0.988052
1414734258696 8694 FUNCTION lru lambda h: 0.450284 * (h ** 0.0828257)
1414734258696 8695 FUNCTION lru lambda h: 0.541878 * (h ** 0.0578865)
1414734258696 8694 RECOMMEND 524
1414734258696 8695 RECOMMEND 524
1414734258703 8694 READING 414 0.986616
1414734258920 8695 READING 433 0.989974
1414734260732 8694 READING 414 0.985158
1414734261017 8695 READING 431 0.985747
1414734262485 8694 READING 416 0.982740
1414734263008 8695 READING 433 0.985262
1414734264357 8694 READING 414 0.984345
1414734265086 8695 READING 431 0.985678
1414734266230 8694 READING 416 0.982504
1414734267161 8695 READING 433 0.985084
1414734267876 8694 READING 415 0.979287
1414734268696 8694 FUNCTION lru lambda h: 0.431385 * (h ** 0.0928718)
1414734268696 8695 FUNCTION lru lambda h: 0.535795 * (h ** 0.0607045)
1414734268696 8694 RECOMMEND 524
1414734268696 8695 RECOMMEND 524
1414734269294 8695 READING 434 0.983539
1414734269600 8694 READING 416 0.980785
1414734270552 8695 READING 434 0.979917
1414734270738 8695 READING 438 0.842849
1414734270899 8695 READING 440 0.823825
1414734271338 8695 READING 445 0.956445
1414734271843 8694 READING 417 0.992559
1414734272584 8694 READING 418 0.966437
1414734272723 8694 READING 417 0.862792
1414734272863 8694 READING 419 0.855652
1414734273113 8694 READING 424 0.931727
1414734273371 8695 READING 449 0.988062
1414734274901 8694 READING 425 0.984541
1414734275840 8695 READING 449 0.984201
1414734277186 8694 READING 430 0.991737
1414734278054 8695 READING 452 0.986442
1414734278697 8694 FUNCTION lru lambda h: 0.405769 * (h ** 0.107129)
1414734278697 8695 FUNCTION lru lambda h: 0.512396 * (h ** 0.0717448)
1414734278697 8694 RECOMMEND 524
1414734278697 8695 RECOMMEND 524
1414734279020 8694 READING 431 0.986998
1414734280163 8695 READING 450 0.981791
1414734281093 8694 READING 431 0.988057
1414734282317 8695 READING 452 0.983606
1414734283197 8694 READING 433 0.985361
1414734284630 8695 READING 451 0.984886
1414734284943 8694 READING 431 0.982459
1414734286833 8694 READING 433 0.969926
1414734287175 8695 READING 453 0.804870
1414734288697 8694 FUNCTION lru lambda h: 0.397061 * (h ** 0.112143)
1414734288697 8695 FUNCTION lru lambda h: 0.503453 * (h ** 0.0760741)
1414734288697 8694 RECOMMEND 524
1414734288697 8695 RECOMMEND 524
1414734289020 8694 READING 434 0.985487
1414734289158 8695 READING 477 0.996046
1414734290760 8694 READING 434 0.981580
1414734291075 8695 READING 478 0.988788
1414734291269 8695 READING 484 0.912347
1414734291437 8695 READING 484 0.873008
1414734292295 8695 READING 489 0.983580
1414734292773 8694 READING 435 0.989171
1414734292952 8694 READING 436 0.879905
1414734293104 8694 READING 437 0.877338
1414734293580 8694 READING 439 0.969683
1414734294585 8695 READING 489 0.989870
1414734295763 8694 READING 446 0.993142
1414734297195 8695 READING 492 0.990409
1414734297807 8694 READING 446 0.989017
1414734298697 8694 FUNCTION lru lambda h: 0.378406 * (h ** 0.123214)
1414734298697 8695 FUNCTION lru lambda h: 0.484784 * (h ** 0.0851201)
1414734298697 8694 RECOMMEND 524
1414734298697 8695 RECOMMEND 524
1414734300145 8695 READING 494 0.993898
1414734300261 8694 READING 446 0.990405
1414734302313 8695 READING 491 0.988031
1414734302472 8694 READING 448 0.987503
1414734304563 8695 READING 494 0.989028
1414734304748 8694 READING 447 0.990867
1414734306957 8695 READING 493 0.989500
1414734307177 8694 READING 448 0.987567
1414734308697 8694 FUNCTION lru lambda h: 0.371673 * (h ** 0.127313)
1414734308697 8695 FUNCTION lru lambda h: 0.474203 * (h ** 0.0903686)
1414734308697 8694 RECOMMEND 524
1414734308697 8695 RECOMMEND 524
1414734309462 8694 READING 449 0.985791
1414734309502 8695 READING 494 0.985834
1414734311415 8695 READING 496 0.988769
1414734311637 8695 READING 497 0.855765
1414734311694 8694 READING 449 0.985214
1414734311824 8695 READING 496 0.868411
1414734313303 8695 READING 499 0.987828
1414734313905 8694 READING 451 0.989393
1414734314099 8694 READING 452 0.886276
1414734314266 8694 READING 451 0.878921
1414734315251 8694 READING 454 0.977235
1414734316090 8695 READING 507 0.991628
1414734317438 8694 READING 461 0.992371
1414734318628 8695 READING 508 0.991065
1414734318698 8694 FUNCTION lru lambda h: 0.218227 * (h ** 0.222724)
1414734318698 8695 FUNCTION lru lambda h: 0.46267 * (h ** 0.0961802)
1414734318698 8694 RECOMMEND 524
1414734318698 8695 RECOMMEND 524
1414734319598 8694 READING 461 0.990066
1414734321165 8695 READING 508 0.989521
1414734321884 8694 READING 462 0.987337
1414734323864 8695 READING 511 0.989403
1414734324222 8694 READING 464 0.988482
1414734326417 8695 READING 510 0.987628
1414734327169 8694 READING 461 0.989687
1414734328698 8694 FUNCTION lru lambda h: 0.131835 * (h ** 0.311046)
1414734328698 8695 FUNCTION lru lambda h: 0.457254 * (h ** 0.0989439)
1414734328698 8694 RECOMMEND 524
1414734328698 8695 RECOMMEND 524
1414734328703 8695 READING 512 0.985310
1414734329516 8694 READING 463 0.986102
1414734331104 8695 READING 514 0.992186
1414734331341 8695 READING 515 0.881933
1414734331540 8695 READING 515 0.891423
1414734331777 8694 READING 465 0.984648
1414734333616 8695 READING 518 0.991164
1414734334218 8694 READING 465 0.990640
1414734334430 8694 READING 466 0.902022
1414734334620 8694 READING 467 0.851434
1414734335963 8694 READING 473 0.986030
1414734336555 8695 READING 525 0.992663
1414734338320 8694 READING 474 0.990818
1414734338698 8694 FUNCTION lru lambda h: 0.043342 * (h ** 0.50285)
1414734338698 8695 FUNCTION lru lambda h: 0.446829 * (h ** 0.104331)
1414734338698 8694 RECOMMEND 524
1414734338698 8695 RECOMMEND 524
1414734339142 8695 READING 493 0.993009
1414734341189 8694 READING 478 0.991576
1414734342291 8695 READING 522 0.991747
1414734343744 8694 READING 479 0.990146
1414734345161 8695 READING 520 0.990172
1414734346480 8694 READING 478 0.988720
1414734348108 8695 READING 520 0.989399
1414734348698 8694 FUNCTION lru lambda h: 0.0396236 * (h ** 0.518062)
1414734348698 8695 FUNCTION lru lambda h: 0.386092 * (h ** 0.130095)
1414734348698 8694 RECOMMEND 524
1414734348698 8695 RECOMMEND 524
1414734349054 8694 READING 480 0.988494
1414734351061 8695 READING 521 0.992348
1414734351555 8694 READING 482 0.985830
1414734351849 8695 READING 522 0.974961
1414734352050 8695 READING 523 0.912357
1414734353228 8695 READING 527 0.987582
1414734354597 8694 READING 482 0.992700
1414734354906 8694 READING 484 0.887127
1414734355110 8694 READING 485 0.871176
1414734356061 8695 READING 493 0.992567
1414734356446 8694 READING 490 0.982569
1414734358698 8694 FUNCTION lru lambda h: 0.0150527 * (h ** 0.680901)
1414734358698 8695 FUNCTION lru lambda h: 0.224049 * (h ** 0.223608)
1414734358699 8694 RECOMMEND 524
1414734358699 8695 RECOMMEND 524
1414734358918 8695 READING 524 0.991288
1414734359203 8694 READING 492 0.992113
1414734361614 8695 READING 494 0.992224
1414734362364 8694 READING 495 0.868986
1414734364161 8695 READING 519 0.984804
1414734364961 8694 READING 512 0.995167
1414734366728 8695 READING 518 0.988307
1414734367627 8694 READING 512 0.994682
1414734368699 8694 FUNCTION lru lambda h: 0.00781181 * (h ** 0.790333)
1414734368699 8695 FUNCTION lru lambda h: 0.164167 * (h ** 0.276614)
1414734368699 8694 RECOMMEND 524
1414734368699 8695 RECOMMEND 524
1414734369692 8695 READING 519 0.988787
1414734370627 8694 READING 515 0.992792
1414734371980 8695 READING 519 0.989326
1414734372192 8695 READING 521 0.910693
1414734372397 8695 READING 522 0.925969
1414734373443 8694 READING 516 0.989894
1414734375161 8695 READING 529 0.994631
1414734375669 8694 READING 517 0.986821
1414734375879 8694 READING 512 0.869591
1414734376182 8694 READING 518 0.950547
1414734378271 8695 READING 496 0.992652
1414734378699 8694 FUNCTION lru lambda h: 0.011983 * (h ** 0.717499)
1414734378699 8695 FUNCTION lru lambda h: 0.129566 * (h ** 0.316518)
1414734378699 8694 RECOMMEND 524
1414734378699 8695 RECOMMEND 524
1414734379277 8694 READING 522 0.992713
1414734381198 8695 READING 524 0.990123
1414734382040 8694 READING 492 0.988968
1414734383876 8695 READING 497 0.989180
1414734384920 8694 READING 520 0.989776
1414734386452 8695 READING 519 0.988867
1414734387716 8694 READING 518 0.991449
1414734388699 8694 FUNCTION lru lambda h: 0.00694992 * (h ** 0.807574)
1414734388699 8695 FUNCTION lru lambda h: 0.129008 * (h ** 0.317396)
1414734388699 8694 RECOMMEND 524
1414734388699 8695 RECOMMEND 524
1414734389118 8695 READING 517 0.988002
1414734390566 8694 READING 522 0.988446
1414734392278 8695 READING 520 0.995554
1414734392560 8695 READING 520 0.933895
1414734392763 8695 READING 521 0.908621
1414734393220 8694 READING 522 0.985997
1414734394313 8695 READING 523 0.986135
1414734396027 8694 READING 519 0.991509
1414734396259 8694 READING 522 0.885127
1414734396457 8694 READING 516 0.908293
1414734397289 8695 READING 531 0.992432
1414734398473 8694 READING 509 0.987954
1414734398699 8694 FUNCTION lru lambda h: 0.00408683 * (h ** 0.894833)
1414734398699 8695 FUNCTION lru lambda h: 0.0709541 * (h ** 0.417979)
1414734398699 8694 RECOMMEND 524
1414734398699 8695 RECOMMEND 524
1414734399918 8695 READING 498 0.993161
1414734401931 8694 READING 518 0.993245
1414734402737 8695 READING 526 0.989702
1414734404643 8694 READING 485 0.990319
1414734405429 8695 READING 501 0.988992
1414734407381 8694 READING 517 0.990121
1414734408246 8695 READING 519 0.988819
1414734408700 8694 FUNCTION lru lambda h: 0.00400195 * (h ** 0.898488)
1414734408700 8695 FUNCTION lru lambda h: 0.041299 * (h ** 0.50834)
1414734408700 8694 RECOMMEND 524
1414734408700 8695 RECOMMEND 524
1414734410008 8694 READING 515 0.988406
1414734411529 8695 READING 518 0.994075
1414734412415 8695 READING 520 0.976560
1414734412617 8695 READING 521 0.897979
1414734412684 8694 READING 513 0.987646
1414734413417 8695 READING 524 0.979741
1414734415650 8694 READING 515 0.990050
1414734416052 8695 READING 491 0.992307
1414734416526 8694 READING 516 0.972978
1414734416727 8694 READING 517 0.899908
1414734417809 8694 READING 521 0.981704
1414734418577 8695 READING 522 0.990466
1414734418700 8694 FUNCTION lru lambda h: 0.00379143 * (h ** 0.90679)
1414734418700 8695 FUNCTION lru lambda h: 0.0412717 * (h ** 0.508464)
1414734418700 8694 RECOMMEND 524
1414734418700 8695 RECOMMEND 524
1414734420753 8694 READING 522 0.993026
1414734421693 8695 READING 521 0.992000
1414734423611 8694 READING 522 0.991920
1414734424558 8695 READING 519 0.989281
1414734426101 8694 READING 522 0.986490
1414734427871 8695 READING 522 0.990961
1414734428700 8694 FUNCTION lru lambda h: 0.00372827 * (h ** 0.909682)
1414734428700 8695 FUNCTION lru lambda h: 0.041053 * (h ** 0.509454)
1414734428701 8694 RECOMMEND 524
1414734428701 8695 RECOMMEND 524
1414734429179 8694 READING 521 0.991049
1414734430596 8695 READING 523 0.986946
1414734432129 8694 READING 522 0.989689
1414734432818 8695 READING 524 0.990328
1414734433041 8695 READING 524 0.898203
1414734433241 8695 READING 515 0.934114
1414734434778 8694 READING 523 0.987412
1414734435845 8695 READING 522 0.991728
1414734436641 8694 READING 523 0.983501
1414734436850 8694 READING 523 0.898729
1414734437677 8694 READING 514 0.979936
1414734438559 8695 READING 522 0.991720
1414734438701 8694 FUNCTION lru lambda h: 0.00345559 * (h ** 0.921553)
1414734438701 8695 FUNCTION lru lambda h: 0.0410173 * (h ** 0.509619)
1414734438701 8694 RECOMMEND 524
1414734438701 8695 RECOMMEND 524
1414734440664 8694 READING 523 0.993022
1414734441643 8695 READING 524 0.992220
1414734443624 8694 READING 523 0.992374
1414734444511 8695 READING 500 0.989519
1414734446486 8694 READING 521 0.990659
1414734447269 8695 READING 521 0.989329
1414734448701 8694 FUNCTION lru lambda h: 0.00340301 * (h ** 0.924182)
1414734448701 8695 FUNCTION lru lambda h: 0.0553516 * (h ** 0.459835)
1414734448701 8694 RECOMMEND 524
1414734448701 8695 RECOMMEND 524
1414734449213 8694 READING 522 0.991623
1414734449955 8695 READING 519 0.987583
1414734452091 8694 READING 519 0.989661
1414734452880 8695 READING 521 0.993001
1414734453156 8695 READING 522 0.928370
1414734453357 8695 READING 521 0.907357
1414734454549 8694 READING 522 0.986685
1414734455510 8695 READING 524 0.991702
1414734456571 8694 READING 524 0.987610
1414734456774 8694 READING 512 0.907956
1414734457307 8694 READING 520 0.967388
1414734458397 8695 READING 531 0.992583
1414734458701 8694 FUNCTION lru lambda h: 0.0262859 * (h ** 0.587383)
1414734458701 8695 FUNCTION lru lambda h: 0.05565 * (h ** 0.458845)
1414734458701 8694 RECOMMEND 524
1414734458701 8695 RECOMMEND 524
1414734460418 8694 READING 521 0.992841
1414734461141 8695 READING 500 0.990464
1414734463331 8694 READING 524 0.990680
1414734464032 8695 READING 527 0.990482
1414734465947 8694 READING 497 0.990045
1414734466719 8695 READING 503 0.990792
1414734468701 8694 FUNCTION lru lambda h: 0.0265936 * (h ** 0.585441)
1414734468701 8695 FUNCTION lru lambda h: 0.0614253 * (h ** 0.442516)
1414734468702 8694 RECOMMEND 524
1414734468702 8695 RECOMMEND 524
1414734468823 8694 READING 525 0.992617
1414734469474 8695 READING 520 0.988540
1414734471522 8694 READING 499 0.988681
1414734472455 8695 READING 519 0.990952
1414734473113 8695 READING 521 0.967834
1414734473317 8695 READING 522 0.897513
1414734473443 8695 DEATH 192
1414734473989 8694 READING 516 0.989824
1414734476229 8694 READING 516 0.993086
1414734476449 8694 READING 519 0.932492
1414734476647 8694 READING 519 0.948577
1414734476665 8694 DEATH 220
