MemTotal:       16388228 kB
MemFree:        14222324 kB
Buffers:          605476 kB
Cached:          1005868 kB
SwapCached:            0 kB
Active:           942592 kB
Inactive:         820072 kB
Active(anon):     152172 kB
Inactive(anon):      344 kB
Active(file):     790420 kB
Inactive(file):   819728 kB
Unevictable:           0 kB
Mlocked:               0 kB
SwapTotal:      16728060 kB
SwapFree:       16728060 kB
Dirty:               408 kB
Writeback:             0 kB
AnonPages:        151328 kB
Mapped:            16752 kB
Shmem:              1188 kB
Slab:             266736 kB
SReclaimable:     245340 kB
SUnreclaim:        21396 kB
KernelStack:        1592 kB
PageTables:         3212 kB
NFS_Unstable:          0 kB
Bounce:                0 kB
WritebackTmp:          0 kB
CommitLimit:    24922172 kB
Committed_AS:     318832 kB
VmallocTotal:   34359738367 kB
VmallocUsed:      114436 kB
VmallocChunk:   34359598892 kB
HardwareCorrupted:     0 kB
AnonHugePages:    131072 kB
HugePages_Total:       0
HugePages_Free:        0
HugePages_Rsvd:        0
HugePages_Surp:        0
Hugepagesize:       2048 kB
DirectMap4k:       82884 kB
DirectMap2M:    16648192 kB
