1424226132993 0 TOTAL_MEM 432
1424226153017 26541 CREATION
1424226153017 26541 READING 9 0.981225
1424226153017 26541 MINHEAP 2
1424226153017 26541 MINHEAP 12
1424226153047 26540 CREATION
1424226153047 26540 READING 9 0.992228
1424226153047 26540 MINHEAP 2
1424226153047 26540 MINHEAP 276
1424226153114 26540 READING 9 0.989947
1424226153122 26541 READING 9 0.985631
1424226153142 26540 READING 9 0.982999
1424226153164 26540 READING 9 0.974754
1424226153190 26541 READING 11 0.985358
1424226153262 26540 READING 11 0.980010
1424226153275 26541 READING 11 0.973649
1424226153357 26540 READING 11 0.972366
1424226153452 26541 READING 15 0.965620
1424226153452 26540 READING 17 0.963097
1424226153633 26540 READING 17 0.890218
1424226153643 26541 READING 15 0.977944
1424226153760 26540 READING 30 0.817513
1424226153843 26540 READING 31 0.545403
1424226153913 26540 READING 33 0.920979
1424226154125 26541 READING 24 0.943402
1424226154174 26540 READING 34 0.580405
1424226154255 26540 READING 50 0.080788
1424226154456 26540 READING 51 0.470338
1424226154475 26541 READING 29 0.936456
1424226154547 26540 READING 66 0.228286
1424226154602 26540 READING 68 0.319074
1424226154751 26541 READING 35 0.897553
1424226154901 26540 READING 69 0.362350
1424226155027 26541 READING 40 0.935455
1424226155058 26540 READING 91 0.317308
1424226155136 26540 READING 105 0.721108
1424226155219 26540 READING 107 0.779446
1424226155274 26541 READING 42 0.403299
1424226155310 26540 READING 107 0.603859
1424226155440 26540 READING 109 0.448019
1424226155518 26541 READING 45 0.559093
1424226155537 26540 READING 114 0.565938
1424226155613 26540 READING 115 0.468010
1424226155767 26541 READING 50 0.913429
1424226156041 26541 READING 51 0.948929
1424226156137 26540 READING 117 0.458529
1424226156293 26540 READING 153 0.468033
1424226156326 26541 READING 59 0.960979
1424226156398 26540 READING 155 0.438885
1424226156504 26540 READING 158 0.048829
1424226156513 26541 READING 59 0.965617
1424226156593 26540 READING 163 0.650477
1424226156644 26541 READING 69 0.962232
1424226156689 26540 READING 166 0.594826
1424226156797 26540 READING 168 0.591674
1424226156853 26541 READING 73 0.977927
1424226157289 26541 READING 82 0.989489
1424226157358 26540 READING 174 0.384781
1424226157516 26540 READING 222 0.662105
1424226157951 26540 READING 222 0.869446
1424226158080 26541 READING 82 0.994327
1424226158193 26540 READING 224 0.890098
1424226158306 26540 READING 225 0.857114
1424226158432 26540 READING 223 0.850441
1424226158657 26540 READING 225 0.898771
1424226158756 26540 READING 225 0.895546
1424226158869 26540 READING 226 0.884787
1424226158997 26540 READING 228 0.880722
1424226158999 26541 READING 90 0.996200
1424226159149 26540 READING 228 0.878459
1424226159226 26540 READING 228 0.831409
1424226159683 26541 READING 91 0.996161
1424226160124 26540 READING 231 0.610834
1424226160234 26540 READING 292 0.689226
1424226160308 26540 READING 292 0.756480
1424226160383 26540 READING 293 0.819062
1424226160386 26541 READING 98 0.996213
1424226160814 26540 READING 293 0.955049
1424226160999 26540 READING 293 0.923220
1424226161044 26541 READING 99 0.995987
1424226161080 26540 READING 294 0.475860
1424226161160 26540 READING 293 0.596224
1424226161242 26540 READING 295 0.703127
1424226161328 26540 READING 293 0.433934
1424226161497 26540 READING 295 0.553331
1424226161636 26540 READING 297 0.572882
1424226161745 26540 READING 297 0.528265
1424226161821 26540 READING 298 0.536604
1424226161870 26541 READING 105 0.996135
1424226161898 26540 READING 296 0.541776
1424226161977 26540 READING 294 0.524842
1424226162049 26540 READING 288 0.486474
1424226162117 26540 READING 294 0.528544
1424226162185 26540 READING 294 0.023721
1424226162267 26540 READING 294 0.043703
1424226162349 26540 READING 294 0.083089
1424226162693 26541 READING 106 0.996485
1424226162994 26541 FUNCTION lru lambda h: 0.818205 * (h ** 0.0257664)
1424226162994 26540 FUNCTION lru lambda h: 0.711465 * (h ** 0.001)
1424226162995 26541 RECOMMEND 156
1424226162995 26540 RECOMMEND 276
1424226163259 26540 READING 294 0.444886
1424226163522 26541 READING 109 0.996526
1424226164141 26540 READING 294 0.511966
1424226164314 26541 READING 110 0.996499
1424226164810 26540 READING 294 0.484201
1424226165101 26541 READING 114 0.996503
1424226165494 26540 READING 294 0.511283
1424226165844 26541 READING 114 0.995947
1424226166136 26540 READING 294 0.520413
1424226166661 26541 READING 117 0.996480
1424226166929 26540 READING 294 0.513561
1424226167434 26541 READING 117 0.996503
1424226167749 26540 READING 294 0.459629
1424226168214 26541 READING 120 0.994300
1424226168324 26540 READING 294 0.595232
1424226168955 26541 READING 120 0.993435
1424226168985 26540 READING 291 0.818485
1424226169652 26540 READING 254 0.915940
1424226169723 26541 READING 123 0.994997
1424226170372 26540 READING 290 0.958924
1424226170468 26541 READING 123 0.995897
1424226171111 26540 READING 259 0.973776
1424226171257 26541 READING 125 0.996804
1424226171750 26540 READING 285 0.976417
1424226172015 26541 READING 126 0.997063
1424226172355 26540 READING 262 0.977831
1424226172813 26541 READING 128 0.997479
1424226172995 26541 FUNCTION lru lambda h: 0.750592 * (h ** 0.0519874)
1424226172995 26540 FUNCTION lru lambda h: 0.468886 * (h ** 0.0397351)
1424226172996 26541 RECOMMEND 156
1424226172996 26540 RECOMMEND 276
1424226173083 26540 READING 283 0.976301
1424226173603 26541 READING 128 0.997444
1424226173678 26540 READING 266 0.975876
1424226174432 26541 READING 130 0.997705
1424226174530 26540 READING 283 0.978789
1424226175248 26541 READING 130 0.997621
1424226175294 26540 READING 269 0.977150
1424226175879 26540 READING 282 0.932463
1424226176080 26541 READING 132 0.997804
1424226176622 26540 READING 282 0.892893
1424226176715 26541 READING 132 0.996637
1424226177095 26541 READING 134 0.989824
1424226177382 26540 READING 282 0.891902
1424226177479 26541 READING 134 0.989302
1424226178167 26540 READING 282 0.898831
1424226178240 26541 READING 138 0.992718
1424226179144 26541 READING 139 0.995038
1424226179197 26540 READING 282 0.917531
1424226179854 26540 READING 282 0.908647
1424226180074 26541 READING 143 0.996377
1424226180626 26540 READING 281 0.909783
1424226180979 26541 READING 143 0.996529
1424226181237 26540 READING 282 0.897731
1424226181910 26540 READING 282 0.893497
1424226181921 26541 READING 147 0.996846
1424226182716 26540 READING 271 0.902343
1424226182857 26541 READING 147 0.996932
1424226182996 26541 FUNCTION lru lambda h: 0.735653 * (h ** 0.0578299)
1424226182996 26540 FUNCTION lru lambda h: 0.394976 * (h ** 0.0854231)
1424226182997 26541 RECOMMEND 156
1424226182997 26540 RECOMMEND 276
1424226183564 26540 READING 281 0.906987
1424226183813 26541 READING 150 0.997494
1424226184702 26541 READING 150 0.996844
1424226184775 26540 READING 271 0.935351
1424226185622 26541 READING 153 0.997070
1424226185908 26540 READING 326 0.940007
1424226186587 26541 READING 153 0.997192
1424226186604 26540 READING 326 0.952057
1424226186728 26540 READING 325 0.941290
1424226186816 26540 READING 326 0.917937
1424226186898 26540 READING 327 0.413842
1424226186961 26540 READING 328 0.259845
1424226187020 26540 READING 332 0.181306
1424226187076 26540 READING 334 0.080689
1424226187128 26540 READING 334 0.748020
1424226187183 26540 READING 336 0.725362
1424226187234 26540 READING 336 0.727061
1424226187287 26540 READING 337 0.734465
1424226187338 26540 READING 336 0.730399
1424226187461 26540 READING 322 0.844835
1424226187613 26541 READING 153 0.997258
1424226188033 26540 READING 336 0.963540
1424226188566 26541 READING 154 0.997136
1424226188813 26540 READING 309 0.979218
1424226189375 26540 READING 335 0.980044
1424226189544 26541 READING 155 0.989710
1424226189933 26540 READING 336 0.984301
1424226190496 26541 READING 155 0.987387
1424226190555 26540 READING 336 0.982357
1424226191204 26540 READING 336 0.984808
1424226191462 26541 READING 155 0.987769
1424226191819 26540 READING 336 0.985311
1424226192423 26541 READING 155 0.991015
1424226192548 26540 READING 298 0.981246
1424226192997 26541 FUNCTION lru lambda h: 0.732013 * (h ** 0.0592229)
1424226192997 26540 FUNCTION lru lambda h: 0.40611 * (h ** 0.078851)
1424226192997 26541 RECOMMEND 156
1424226192997 26540 RECOMMEND 276
1424226193075 26540 READING 332 0.971466
1424226193377 26541 READING 155 0.994629
1424226193629 26540 READING 300 0.926006
1424226194205 26540 READING 328 0.967715
1424226194330 26541 READING 155 0.996466
1424226194842 26540 READING 303 0.951920
1424226195034 26541 READING 155 0.995523
1424226195459 26540 READING 324 0.954355
1424226195466 26541 READING 155 0.992565
1424226195902 26541 READING 154 0.990829
1424226196114 26540 READING 305 0.967148
1424226196692 26540 READING 321 0.959206
1424226196877 26541 READING 154 0.995254
1424226197236 26540 READING 307 0.914510
1424226197840 26541 READING 154 0.996464
1424226197919 26540 READING 320 0.905610
1424226198529 26540 READING 307 0.903443
1424226198806 26541 READING 154 0.996051
1424226199092 26540 READING 319 0.891470
1424226199682 26540 READING 307 0.897740
1424226199797 26541 READING 154 0.996818
1424226200234 26540 READING 317 0.900836
1424226200757 26541 READING 154 0.996950
1424226200835 26540 READING 307 0.906606
1424226201422 26540 READING 316 0.911341
1424226201712 26541 READING 153 0.997159
1424226202107 26540 READING 308 0.921260
1424226202659 26541 READING 154 0.997426
1424226202708 26540 READING 315 0.919321
1424226202997 26541 FUNCTION lru lambda h: 0.731679 * (h ** 0.0593505)
1424226202997 26540 FUNCTION lru lambda h: 0.308879 * (h ** 0.148125)
1424226202999 26541 RECOMMEND 124
1424226202999 26540 RECOMMEND 308
1424226203349 26540 READING 308 0.918203
1424226203623 26541 READING 155 0.997426
1424226203935 26540 READING 315 0.914810
1424226204556 26541 READING 146 0.997132
1424226204769 26540 READING 308 0.955171
1424226205421 26540 READING 326 0.974811
1424226205422 26541 READING 139 0.995786
1424226206084 26540 READING 326 0.980486
1424226206258 26541 READING 134 0.996064
1424226206732 26540 READING 326 0.986115
1424226207019 26541 READING 129 0.996209
1424226207206 26540 READING 328 0.986691
1424226207747 26541 READING 124 0.989993
1424226207768 26540 READING 328 0.985134
1424226208442 26541 READING 119 0.984913
1424226208541 26540 READING 309 0.986467
1424226209094 26540 READING 324 0.982938
1424226209195 26540 READING 326 0.967766
1424226209248 26541 READING 121 0.995087
1424226209263 26540 READING 324 0.947785
1424226209344 26540 READING 328 0.692679
1424226209385 26540 READING 321 0.623773
1424226209428 26540 READING 328 0.590501
1424226209469 26540 READING 329 0.571900
1424226209509 26540 READING 332 0.574720
1424226209551 26540 READING 333 0.459564
1424226209589 26540 READING 333 0.411777
1424226209627 26540 READING 333 0.104777
1424226209664 26540 READING 333 0.091757
1424226209694 26540 READING 333 0.062448
1424226209723 26540 READING 333 0.123203
1424226209751 26540 READING 333 0.216439
1424226209778 26540 READING 333 0.352807
1424226209804 26540 READING 333 0.510202
1424226209843 26540 READING 333 0.705816
1424226210036 26541 READING 126 0.991111
1424226210270 26540 READING 333 0.965682
1424226210779 26541 READING 125 0.994495
1424226210934 26540 READING 287 0.988612
1424226211489 26541 READING 118 0.996344
1424226211540 26540 READING 331 0.991622
1424226211945 26540 READING 290 0.987983
1424226212190 26541 READING 124 0.997320
1424226212397 26540 READING 326 0.985849
1424226212818 26541 READING 122 0.997211
1424226212932 26540 READING 293 0.981549
1424226212999 26541 FUNCTION lru lambda h: 0.725934 * (h ** 0.0617995)
1424226212999 26540 FUNCTION lru lambda h: 0.301678 * (h ** 0.154384)
1424226213000 26541 RECOMMEND 123
1424226213000 26540 RECOMMEND 309
1424226213095 26541 READING 128 0.995065
1424226213308 26540 READING 323 0.977605
1424226213376 26541 READING 123 0.993490
1424226213671 26541 READING 128 0.975198
1424226213798 26540 READING 296 0.982042
1424226214316 26540 READING 319 0.983448
1424226214398 26541 READING 123 0.985885
1424226214817 26540 READING 299 0.980201
1424226215149 26541 READING 128 0.992276
1424226215250 26540 READING 317 0.978750
1424226215667 26540 READING 302 0.978484
1424226215862 26541 READING 124 0.994776
1424226216109 26540 READING 317 0.971260
1424226216520 26540 READING 304 0.973489
1424226216551 26541 READING 120 0.995451
1424226217068 26540 READING 316 0.975940
1424226217284 26541 READING 125 0.995429
1424226217672 26540 READING 316 0.969643
1424226217981 26541 READING 120 0.995620
1424226218160 26540 READING 317 0.965833
1424226218668 26540 READING 317 0.958719
1424226218702 26541 READING 123 0.996278
1424226219203 26540 READING 317 0.958693
1424226219431 26541 READING 124 0.995724
1424226219951 26540 READING 317 0.967484
1424226220127 26541 READING 118 0.995636
1424226220483 26540 READING 317 0.965527
1424226220838 26541 READING 121 0.995336
1424226221000 26540 READING 307 0.959492
1424226221557 26541 READING 124 0.996039
1424226221572 26540 READING 316 0.962247
1424226222128 26540 READING 316 0.961937
1424226222299 26541 READING 119 0.990922
1424226222908 26540 READING 315 0.961720
1424226223000 26541 FUNCTION lru lambda h: 0.726183 * (h ** 0.0616987)
1424226223000 26540 FUNCTION lru lambda h: 0.284824 * (h ** 0.169309)
1424226223002 26541 RECOMMEND 115
1424226223002 26540 RECOMMEND 317
1424226223008 26541 READING 121 0.986568
1424226223426 26540 READING 312 0.978524
1424226223675 26541 READING 116 0.986817
1424226223902 26540 READING 311 0.984481
1424226224322 26541 READING 112 0.986379
1424226224467 26540 READING 312 0.987051
1424226224981 26541 READING 117 0.991633
1424226225057 26540 READING 313 0.989114
1424226225616 26540 READING 313 0.988844
1424226225626 26541 READING 110 0.994839
1424226226108 26540 READING 312 0.983784
1424226226276 26541 READING 115 0.996342
1424226226686 26540 READING 313 0.984914
1424226226928 26541 READING 116 0.997228
1424226227121 26540 READING 310 0.982585
1424226227561 26541 READING 109 0.997362
1424226227729 26540 READING 311 0.983883
1424226228193 26541 READING 113 0.997687
1424226228340 26540 READING 309 0.981733
1424226228824 26541 READING 113 0.997842
1424226228854 26540 READING 310 0.981543
1424226229319 26540 READING 311 0.979793
1424226229470 26541 READING 114 0.998036
1424226229905 26540 READING 311 0.963795
1424226230105 26541 READING 114 0.998200
1424226230434 26540 READING 312 0.969674
1424226230608 26541 READING 116 0.997211
1424226230824 26541 READING 112 0.982795
1424226230923 26540 READING 313 0.951270
1424226231064 26541 READING 113 0.978026
1424226231271 26541 READING 115 0.979931
1424226231414 26540 READING 314 0.955584
1424226231855 26541 READING 112 0.990244
1424226232333 26540 READING 315 0.973055
1424226232505 26541 READING 116 0.994054
1424226232928 26540 READING 317 0.966101
1424226233002 26541 FUNCTION lru lambda h: 0.724629 * (h ** 0.0624516)
1424226233002 26540 FUNCTION lru lambda h: 0.273169 * (h ** 0.180003)
1424226233003 26541 RECOMMEND 111
1424226233003 26540 RECOMMEND 321
1424226233075 26540 READING 318 0.947878
1424226233142 26541 READING 113 0.995748
1424226233165 26540 READING 319 0.934458
1424226233243 26540 READING 323 0.726158
1424226233288 26540 READING 319 0.641300
1424226233334 26540 READING 326 0.605912
1424226233377 26540 READING 330 0.523548
1424226233420 26540 READING 333 0.490881
1424226233463 26540 READING 333 0.481343
1424226233503 26540 READING 333 0.417224
1424226233545 26540 READING 333 0.098155
1424226233579 26540 READING 333 0.173233
1424226233795 26541 READING 109 0.995478
1424226233820 26540 READING 333 0.947687
1424226233856 26540 READING 352 0.472860
1424226233888 26540 READING 352 0.629347
1424226233919 26540 READING 352 0.762655
1424226233955 26540 READING 352 0.857908
1424226234406 26540 READING 352 0.982160
1424226234431 26541 READING 114 0.995652
1424226234879 26540 READING 352 0.988893
1424226235026 26541 READING 108 0.996002
1424226235329 26540 READING 306 0.989552
1424226235644 26541 READING 110 0.995435
1424226235969 26540 READING 350 0.991069
1424226236276 26541 READING 112 0.995552
1424226236537 26540 READING 311 0.990806
1424226236876 26541 READING 107 0.995786
1424226236988 26540 READING 346 0.986181
1424226237505 26541 READING 110 0.995918
1424226237564 26540 READING 314 0.987164
1424226238139 26541 READING 112 0.995089
1424226238186 26540 READING 343 0.987390
1424226238745 26541 READING 107 0.989657
1424226238809 26540 READING 318 0.987055
1424226239365 26541 READING 109 0.986552
1424226239397 26540 READING 339 0.986562
1424226239872 26540 READING 321 0.976731
1424226239990 26541 READING 110 0.984723
1424226240415 26540 READING 339 0.977875
1424226240621 26541 READING 113 0.985683
1424226241122 26540 READING 324 0.981955
1424226241250 26541 READING 106 0.991303
1424226241694 26540 READING 337 0.980289
1424226241869 26541 READING 110 0.994747
1424226242328 26540 READING 338 0.981181
1424226242468 26541 READING 110 0.996446
1424226242902 26540 READING 338 0.974396
1424226243003 26541 FUNCTION lru lambda h: 0.723861 * (h ** 0.0628765)
1424226243003 26540 FUNCTION lru lambda h: 0.264015 * (h ** 0.188247)
1424226243004 26541 RECOMMEND 108
1424226243004 26540 RECOMMEND 324
1424226243098 26541 READING 111 0.997280
1424226243413 26540 READING 338 0.969337
1424226243687 26541 READING 105 0.997501
1424226243948 26540 READING 339 0.965729
1424226244292 26541 READING 109 0.996755
1424226244528 26540 READING 339 0.964132
1424226244874 26541 READING 102 0.997427
1424226245083 26540 READING 339 0.965486
1424226245469 26541 READING 106 0.997526
1424226245615 26540 READING 328 0.965618
1424226246055 26541 READING 106 0.997352
1424226246139 26540 READING 339 0.964942
1424226246682 26541 READING 108 0.997049
1424226246918 26540 READING 339 0.971159
1424226247277 26541 READING 108 0.997501
1424226247424 26540 READING 339 0.963904
1424226247883 26541 READING 109 0.997680
1424226247951 26540 READING 329 0.959306
1424226248158 26541 READING 103 0.995219
1424226248353 26541 READING 107 0.992946
1424226248464 26540 READING 338 0.956612
1424226248534 26541 READING 107 0.989316
1424226248741 26541 READING 112 0.988874
1424226248941 26540 READING 329 0.956012
1424226249336 26541 READING 108 0.989895
1424226249710 26540 READING 338 0.966604
1424226249969 26541 READING 109 0.993448
1424226250240 26540 READING 329 0.964878
1424226250563 26541 READING 106 0.995462
1424226250940 26540 READING 337 0.968216
1424226251180 26541 READING 108 0.995945
1424226251482 26540 READING 329 0.965697
1424226251778 26541 READING 109 0.995644
1424226252006 26540 READING 336 0.963335
1424226252386 26541 READING 104 0.994968
1424226252694 26540 READING 336 0.967615
1424226253000 26541 READING 108 0.995840
1424226253004 26541 FUNCTION lru lambda h: 0.722558 * (h ** 0.0637001)
1424226253004 26540 FUNCTION lru lambda h: 0.258102 * (h ** 0.193861)
1424226253005 26541 RECOMMEND 107
1424226253005 26540 RECOMMEND 325
1424226253274 26540 READING 335 0.962693
1424226253614 26540 READING 329 0.955204
1424226253623 26541 READING 110 0.996072
1424226253949 26540 READING 334 0.949829
1424226254195 26541 READING 105 0.996253
1424226254523 26540 READING 335 0.954633
1424226254788 26541 READING 107 0.996184
1424226255267 26540 READING 333 0.968592
1424226255377 26541 READING 108 0.995659
1424226255822 26540 READING 326 0.969741
1424226255910 26540 READING 333 0.936291
1424226255948 26541 READING 104 0.987399
1424226255997 26540 READING 334 0.913430
1424226256068 26540 READING 337 0.749059
1424226256124 26540 READING 337 0.695929
1424226256169 26540 READING 340 0.659792
1424226256213 26540 READING 343 0.629426
1424226256253 26540 READING 344 0.607105
1424226256299 26540 READING 345 0.485090
1424226256555 26540 READING 345 0.963492
1424226256579 26541 READING 106 0.987007
1424226256586 26540 READING 342 0.597002
1424226256619 26540 READING 341 0.666884
1424226256650 26540 READING 343 0.790965
1424226256685 26540 READING 343 0.841206
1424226256713 26540 READING 344 0.893813
1424226256747 26540 READING 343 0.937626
1424226256781 26540 READING 297 0.950098
1424226257068 26540 READING 344 0.988015
1424226257200 26541 READING 108 0.986790
1424226257486 26540 READING 299 0.991617
1424226257766 26541 READING 102 0.987425
1424226257935 26540 READING 342 0.989601
1424226258341 26541 READING 105 0.992015
1424226258490 26540 READING 303 0.991005
1424226258918 26541 READING 105 0.994951
1424226259100 26540 READING 340 0.991668
1424226259500 26541 READING 107 0.996214
1424226259583 26540 READING 307 0.982577
1424226260003 26540 READING 337 0.980762
1424226260083 26541 READING 107 0.996818
1424226260664 26541 READING 101 0.997088
1424226260696 26540 READING 311 0.986165
1424226261251 26541 READING 106 0.997319
1424226261322 26540 READING 334 0.986582
1424226261814 26540 READING 315 0.983396
1424226261830 26541 READING 106 0.997292
1424226262393 26540 READING 333 0.982775
1424226262415 26541 READING 106 0.997574
1424226262863 26540 READING 318 0.980423
1424226263005 26541 FUNCTION lru lambda h: 0.722445 * (h ** 0.0638079)
1424226263005 26540 FUNCTION lru lambda h: 0.0783136 * (h ** 0.41163)
1424226263006 26541 RECOMMEND 58
1424226263006 26540 RECOMMEND 374
1424226263017 26541 READING 107 0.997353
1424226263511 26540 READING 333 0.983141
1424226263589 26541 READING 99 0.997583
1424226264050 26540 READING 332 0.981524
1424226264103 26541 READING 94 0.997709
1424226264601 26541 READING 92 0.996553
1424226264786 26540 READING 333 0.981174
1424226265077 26541 READING 86 0.995769
1424226265408 26540 READING 334 0.979294
1424226265519 26541 READING 84 0.995570
1424226265652 26541 READING 80 0.980405
1424226265766 26541 READING 78 0.980773
1424226265900 26541 READING 76 0.982062
1424226265958 26540 READING 335 0.973285
1424226266093 26541 READING 73 0.995084
1424226266201 26541 READING 70 0.982611
1424226266312 26541 READING 68 0.981711
1424226266488 26540 READING 336 0.968890
1424226266638 26541 READING 67 0.991960
1424226266944 26541 READING 65 0.994045
1424226267052 26540 READING 337 0.965401
1424226267265 26541 READING 63 0.993585
1424226267569 26541 READING 64 0.994293
1424226267766 26540 READING 338 0.966572
1424226267866 26541 READING 61 0.994800
1424226268130 26541 READING 60 0.994279
1424226268326 26540 READING 339 0.965793
1424226268408 26541 READING 59 0.994875
1424226268667 26541 READING 60 0.993342
1424226268927 26541 READING 57 0.994203
1424226269008 26540 READING 340 0.961964
1424226269203 26541 READING 59 0.994715
1424226269470 26541 READING 58 0.993796
1424226269631 26540 READING 342 0.963176
1424226269745 26541 READING 57 0.994401
1424226270020 26541 READING 60 0.994259
1424226270264 26540 READING 342 0.964741
1424226270303 26541 READING 59 0.988651
1424226270562 26541 READING 57 0.986612
1424226270843 26541 READING 61 0.990630
1424226270920 26540 READING 344 0.966131
1424226271120 26541 READING 59 0.993182
1424226271373 26541 READING 59 0.994100
1424226271628 26540 READING 344 0.967704
1424226271658 26541 READING 57 0.995253
1424226271928 26541 READING 60 0.995425
1424226272198 26541 READING 58 0.994762
1424226272418 26540 READING 346 0.969109
1424226272500 26541 READING 61 0.995354
1424226272773 26541 READING 59 0.994655
1424226273006 26541 FUNCTION lru lambda h: 0.751031 * (h ** 0.0573755)
1424226273006 26540 FUNCTION lru lambda h: 0.075464 * (h ** 0.419861)
1424226273008 26541 RECOMMEND 52
1424226273008 26540 RECOMMEND 380
1424226273058 26541 READING 59 0.994223
1424226273270 26540 READING 346 0.970638
1424226273320 26541 READING 57 0.995112
1424226273581 26541 READING 57 0.995418
1424226273816 26541 READING 55 0.995404
1424226274060 26541 READING 55 0.995233
1424226274128 26540 READING 348 0.971464
1424226274296 26541 READING 53 0.995271
1424226274515 26541 READING 53 0.993585
1424226274741 26541 READING 51 0.993517
1424226274806 26540 READING 348 0.968417
1424226274980 26541 READING 54 0.993873
1424226275198 26541 READING 52 0.994148
1424226275438 26541 READING 52 0.994736
1424226275606 26540 READING 351 0.968687
1424226275677 26541 READING 53 0.995088
1424226275911 26541 READING 53 0.994788
1424226276126 26541 READING 51 0.993575
1424226276357 26541 READING 54 0.994000
1424226276411 26540 READING 351 0.968064
1424226276600 26541 READING 52 0.994519
1424226276815 26541 READING 52 0.993875
1424226277042 26541 READING 53 0.994606
1424226277139 26540 READING 353 0.967171
1424226277277 26541 READING 53 0.994830
1424226277485 26541 READING 51 0.994695
1424226277708 26541 READING 54 0.994111
1424226277932 26540 READING 353 0.965623
1424226277943 26541 READING 52 0.994706
1424226278154 26541 READING 51 0.994592
1424226278375 26541 READING 53 0.994638
1424226278588 26541 READING 52 0.994778
1424226278803 26541 READING 51 0.994937
1424226278840 26540 READING 355 0.971798
1424226279039 26541 READING 53 0.994667
1424226279256 26541 READING 52 0.994874
1424226279377 26540 READING 356 0.968875
1424226279479 26541 READING 51 0.995061
1424226279491 26540 READING 360 0.953972
1424226279597 26540 READING 360 0.784590
1424226279660 26540 READING 357 0.724230
1424226279721 26540 READING 365 0.687495
1424226279734 26541 READING 53 0.995345
1424226279779 26540 READING 364 0.657418
1424226279839 26540 READING 352 0.641568
1424226279902 26540 READING 364 0.612470
1424226279963 26541 READING 52 0.994494
1424226280179 26540 READING 349 0.966062
1424226280194 26541 READING 51 0.995053
1424226280236 26540 READING 367 0.769097
1424226280438 26541 READING 53 0.995379
1424226280647 26540 READING 324 0.961109
1424226280663 26541 READING 52 0.994905
1424226280882 26541 READING 51 0.994935
1424226281124 26541 READING 53 0.994832
1424226281340 26541 READING 52 0.994646
1424226281419 26540 READING 363 0.984979
1424226281565 26541 READING 51 0.994552
1424226281802 26541 READING 53 0.993430
1424226282034 26541 READING 52 0.993939
1424226282201 26540 READING 364 0.989112
1424226282258 26541 READING 51 0.994281
1424226282497 26541 READING 53 0.993262
1424226282723 26541 READING 52 0.993803
1424226282898 26540 READING 364 0.987908
1424226282946 26541 READING 51 0.991978
1424226283008 26541 FUNCTION lru lambda h: 0.767967 * (h ** 0.0530412)
1424226283008 26540 FUNCTION lru lambda h: 0.0109838 * (h ** 0.75971)
1424226283009 26541 RECOMMEND 28
1424226283009 26540 RECOMMEND 404
1424226283035 26541 READING 54 0.965343
1424226283117 26541 READING 52 0.948532
1424226283186 26541 READING 51 0.933699
1424226283262 26541 READING 49 0.944795
1424226283338 26541 READING 49 0.926340
1424226283397 26541 READING 47 0.936614
1424226283449 26541 READING 47 0.902375
1424226283502 26541 READING 45 0.913042
1424226283548 26540 READING 322 0.988915
1424226283564 26541 READING 45 0.892892
1424226283610 26541 READING 44 0.881145
1424226283661 26541 READING 43 0.890210
1424226283706 26541 READING 42 0.899969
1424226283799 26541 READING 42 0.940035
1424226283946 26541 READING 41 0.964231
1424226284084 26541 READING 40 0.974608
1424226284169 26540 READING 365 0.988700
1424226284230 26541 READING 40 0.981664
1424226284366 26541 READING 42 0.984338
1424226284503 26541 READING 39 0.986373
1424226284630 26541 READING 41 0.987299
1424226284759 26541 READING 38 0.988936
1424226284858 26540 READING 363 0.988602
1424226284884 26541 READING 40 0.988915
1424226285007 26541 READING 37 0.990182
1424226285123 26541 READING 38 0.989569
1424226285238 26541 READING 36 0.989007
1424226285352 26541 READING 38 0.989158
1424226285462 26541 READING 36 0.989593
1424226285553 26540 READING 363 0.987842
1424226285586 26541 READING 38 0.989864
1424226285704 26541 READING 36 0.990319
1424226285820 26541 READING 38 0.990069
1424226285932 26541 READING 37 0.988867
1424226286048 26541 READING 38 0.989147
1424226286161 26541 READING 37 0.988999
1424226286187 26540 READING 363 0.985947
1424226286292 26541 READING 37 0.987731
1424226286407 26541 READING 37 0.988773
1424226286528 26541 READING 37 0.987639
1424226286649 26541 READING 37 0.987125
1424226286767 26541 READING 36 0.988186
1424226286901 26541 READING 37 0.987346
1424226287015 26541 READING 37 0.988723
1424226287094 26540 READING 360 0.987388
1424226287143 26541 READING 37 0.987345
1424226287258 26541 READING 37 0.988942
1424226287374 26541 READING 37 0.988848
1424226287490 26541 READING 37 0.989110
1424226287614 26541 READING 37 0.988852
1424226287730 26541 READING 37 0.989401
1424226287840 26541 READING 37 0.989454
1424226287960 26541 READING 37 0.989081
1424226288002 26540 READING 362 0.986815
1424226288095 26541 READING 36 0.987528
1424226288218 26541 READING 36 0.988500
1424226288334 26541 READING 36 0.986177
1424226288450 26541 READING 36 0.987983
1424226288564 26541 READING 36 0.986990
1424226288675 26541 READING 36 0.986648
1424226288789 26541 READING 36 0.988272
1424226288902 26541 READING 36 0.969843
1424226288909 26540 READING 359 0.985859
1424226289023 26541 READING 36 0.980491
1424226289152 26541 READING 36 0.983419
1424226289273 26541 READING 36 0.986499
1424226289385 26541 READING 36 0.988440
1424226289496 26541 READING 36 0.989240
1424226289613 26541 READING 36 0.989826
1424226289733 26541 READING 36 0.989938
1424226289838 26540 READING 360 0.985496
1424226289857 26541 READING 36 0.990845
1424226289971 26541 READING 36 0.990835
1424226290090 26541 READING 36 0.990332
1424226290209 26541 READING 36 0.990686
1424226290326 26541 READING 36 0.987931
1424226290454 26541 READING 36 0.989355
1424226290562 26541 READING 36 0.989149
1424226290682 26541 READING 36 0.989366
1424226290720 26540 READING 362 0.983174
1424226290807 26541 READING 36 0.987643
1424226290918 26541 READING 36 0.988516
1424226291042 26541 READING 36 0.986303
1424226291161 26541 READING 36 0.988036
1424226291275 26541 READING 36 0.988336
1424226291395 26541 READING 36 0.989143
1424226291512 26541 READING 36 0.988709
1424226291604 26540 READING 362 0.983070
1424226291642 26541 READING 36 0.971449
1424226291761 26541 READING 36 0.977680
1424226291889 26541 READING 36 0.982357
1424226292009 26541 READING 36 0.984063
1424226292134 26541 READING 36 0.986828
1424226292262 26541 READING 36 0.987777
1424226292381 26541 READING 36 0.988153
1424226292500 26541 READING 36 0.989469
1424226292613 26541 READING 36 0.989836
1424226292725 26540 READING 363 0.982194
1424226292741 26541 READING 36 0.990532
1424226292853 26541 READING 36 0.990681
1424226292973 26541 READING 36 0.989391
1424226293009 26541 FUNCTION lru lambda h: 0.875399 * (h ** 0.0261581)
1424226293009 26540 FUNCTION lru lambda h: 0.00646957 * (h ** 0.85293)
1424226293010 26541 RECOMMEND 13
1424226293010 26540 RECOMMEND 419
1424226293092 26541 READING 36 0.990085
1424226293199 26541 READING 35 0.990073
1424226293300 26541 READING 35 0.988822
1424226293403 26541 READING 34 0.988882
1424226293480 26540 READING 364 0.974952
1424226293511 26541 READING 34 0.988440
1424226293610 26541 READING 33 0.985525
1424226293709 26541 READING 33 0.986665
1424226293807 26541 READING 32 0.984737
1424226293899 26541 READING 32 0.983397
1424226293987 26541 READING 31 0.984849
1424226294058 26541 READING 31 0.984777
1424226294134 26541 READING 31 0.985439
1424226294210 26541 READING 31 0.985937
1424226294293 26541 READING 31 0.986202
1424226294371 26541 READING 31 0.985936
1424226294446 26541 READING 31 0.985293
1424226294521 26540 READING 366 0.973083
1424226294532 26541 READING 31 0.985977
1424226294608 26541 READING 31 0.985631
1424226294687 26541 READING 31 0.985177
1424226294765 26541 READING 31 0.985032
1424226294838 26541 READING 31 0.985134
1424226294916 26541 READING 31 0.981562
1424226295005 26541 READING 31 0.980509
1424226295082 26541 READING 31 0.983006
1424226295159 26541 READING 31 0.981573
1424226295239 26541 READING 31 0.981300
1424226295320 26541 READING 31 0.980118
1424226295406 26541 READING 31 0.981505
1424226295486 26541 READING 31 0.980298
1424226295564 26541 READING 31 0.983706
1424226295597 26540 READING 367 0.973653
1424226295653 26541 READING 31 0.985042
1424226295725 26541 READING 31 0.983997
1424226295806 26541 READING 31 0.982972
1424226295881 26541 READING 31 0.983541
1424226295959 26541 READING 31 0.981749
1424226296038 26541 READING 31 0.982876
1424226296111 26541 READING 31 0.983804
1424226296186 26541 READING 31 0.981676
1424226296262 26541 READING 31 0.982244
1424226296341 26541 READING 31 0.983759
1424226296406 26540 READING 370 0.969980
1424226296431 26541 READING 31 0.985035
1424226296509 26541 READING 31 0.985052
1424226296584 26541 READING 31 0.979453
1424226296664 26541 READING 31 0.981946
1424226296739 26541 READING 31 0.982348
1424226296815 26541 READING 31 0.982889
1424226296889 26541 READING 31 0.981924
1424226296968 26541 READING 31 0.977288
1424226297057 26541 READING 31 0.976750
1424226297140 26541 READING 31 0.979241
1424226297217 26541 READING 31 0.980668
1424226297291 26541 READING 31 0.977750
1424226297374 26541 READING 31 0.977123
1424226297468 26540 READING 370 0.970598
1424226297473 26541 READING 31 0.975198
1424226297551 26541 READING 31 0.976749
1424226297637 26541 READING 31 0.981103
1424226297716 26541 READING 31 0.982778
1424226297790 26541 READING 31 0.981572
1424226297867 26541 READING 31 0.982731
1424226297944 26541 READING 31 0.983422
1424226298019 26541 READING 31 0.982920
1424226298101 26541 READING 31 0.983650
1424226298173 26541 READING 31 0.983717
1424226298251 26541 READING 31 0.980739
1424226298326 26541 READING 31 0.982514
1424226298418 26541 READING 31 0.983983
1424226298422 26540 READING 373 0.969000
1424226298492 26541 READING 31 0.984001
1424226298567 26541 READING 31 0.979280
1424226298645 26541 READING 31 0.982725
1424226298722 26541 READING 31 0.983948
1424226298796 26541 READING 31 0.984092
1424226298873 26541 READING 31 0.984602
1424226298950 26541 READING 31 0.985000
1424226299027 26541 READING 31 0.984198
1424226299110 26541 READING 31 0.982238
1424226299190 26541 READING 31 0.982403
1424226299273 26541 READING 31 0.981713
1424226299279 26540 READING 374 0.963892
1424226299356 26541 READING 31 0.979630
1424226299443 26541 READING 31 0.982950
1424226299517 26541 READING 31 0.983540
1424226299594 26541 READING 31 0.984110
1424226299669 26541 READING 31 0.983438
1424226299743 26541 READING 31 0.983051
1424226299819 26541 READING 31 0.982414
1424226299893 26541 READING 31 0.982673
1424226299972 26541 READING 31 0.983920
1424226300046 26541 READING 31 0.983243
1424226300125 26540 READING 374 0.963572
1424226300130 26541 READING 31 0.984122
1424226300206 26541 READING 31 0.983384
1424226300279 26541 READING 31 0.983161
1424226300354 26541 READING 31 0.983659
1424226300429 26541 READING 31 0.982979
1424226300500 26541 READING 31 0.982832
1424226300573 26541 READING 31 0.982838
1424226300675 26541 READING 31 0.976147
1424226300691 26540 READING 364 0.949768
1424226300712 26541 READING 31 0.952288
1424226300730 26541 READING 31 0.934922
1424226300759 26541 READING 31 0.904059
1424226300786 26541 READING 31 0.914917
1424226300813 26541 READING 31 0.921614
1424226300836 26541 READING 31 0.917297
1424226300917 26541 READING 31 0.988030
1424226300948 26541 READING 30 0.900746
1424226300971 26541 READING 30 0.842294
1424226300996 26541 READING 30 0.880142
1424226301026 26541 READING 30 0.907596
1424226301055 26541 READING 30 0.919017
1424226301083 26541 READING 30 0.917870
1424226301133 26541 READING 30 0.947599
1424226301159 26541 READING 30 0.932376
1424226301185 26541 READING 30 0.936396
1424226301209 26541 READING 30 0.926534
1424226301226 26540 READING 373 0.936944
1424226301238 26541 READING 30 0.930230
1424226301273 26541 READING 30 0.945823
1424226301295 26541 READING 30 0.935010
1424226301317 26541 READING 30 0.924871
1424226301340 26541 READING 30 0.926148
1424226301373 26541 READING 30 0.928142
1424226301398 26541 READING 30 0.928906
1424226301422 26541 READING 30 0.931548
1424226301445 26541 READING 30 0.925246
1424226301473 26541 READING 30 0.935305
1424226301496 26541 READING 30 0.928482
1424226301521 26541 READING 30 0.931551
1424226301577 26541 READING 30 0.958281
1424226301653 26541 READING 30 0.974150
1424226301720 26541 READING 30 0.978202
1424226301767 26541 READING 30 0.974886
1424226301845 26541 READING 30 0.981025
1424226301923 26541 READING 30 0.983082
1424226301997 26541 READING 30 0.983895
1424226302069 26541 READING 30 0.984287
1424226302145 26541 READING 30 0.984498
1424226302222 26541 READING 30 0.984966
1424226302296 26541 READING 30 0.985410
1424226302370 26541 READING 30 0.985282
1424226302442 26541 READING 30 0.984607
1424226302470 26540 READING 374 0.964781
1424226302527 26541 READING 30 0.985529
1424226302603 26541 READING 30 0.985603
1424226302678 26541 READING 30 0.984980
1424226302753 26541 READING 30 0.983626
1424226302826 26541 READING 30 0.983663
1424226302900 26541 READING 30 0.983535
1424226302984 26540 READING 372 0.963804
1424226302988 26541 READING 30 0.986199
1424226303010 26541 FUNCTION lru lambda h: 0.89343 * (h ** 0.0218559)
1424226303010 26540 FUNCTION lru lambda h: 0.057692 * (h ** 0.473796)
1424226303011 26541 RECOMMEND 19
1424226303011 26540 RECOMMEND 413
1424226303065 26541 READING 30 0.985553
1424226303102 26540 READING 365 0.946973
1424226303150 26541 READING 30 0.986324
1424226303191 26540 READING 370 0.854775
1424226303231 26541 READING 30 0.986190
1424226303260 26540 READING 371 0.804326
1424226303310 26541 READING 30 0.985140
1424226303318 26540 READING 358 0.702125
1424226303374 26540 READING 364 0.648666
1424226303397 26541 READING 30 0.986385
1424226303428 26540 READING 364 0.607886
1424226303481 26541 READING 30 0.986191
1424226303482 26540 READING 364 0.581198
1424226303544 26540 READING 364 0.232479
1424226303561 26541 READING 30 0.985375
1424226303592 26540 READING 364 0.265554
1424226303645 26541 READING 30 0.940025
1424226303717 26541 READING 30 0.958158
1424226303798 26541 READING 30 0.972307
1424226303815 26540 READING 364 0.968735
1424226303878 26541 READING 30 0.979424
1424226303961 26541 READING 30 0.978537
1424226304045 26541 READING 30 0.982491
1424226304114 26541 READING 30 0.983566
1424226304196 26541 READING 30 0.981340
1424226304276 26541 READING 30 0.983230
1424226304356 26541 READING 30 0.983410
1424226304429 26540 READING 351 0.900651
1424226304435 26541 READING 30 0.984912
1424226304510 26541 READING 30 0.984468
1424226304589 26541 READING 30 0.985506
1424226304669 26541 READING 30 0.985260
1424226304744 26541 READING 30 0.985651
1424226304818 26541 READING 30 0.985663
1424226304893 26541 READING 30 0.983991
1424226304966 26541 READING 30 0.984637
1424226305022 26540 READING 351 0.958456
1424226305049 26541 READING 30 0.986029
1424226305125 26541 READING 30 0.985640
1424226305207 26541 READING 30 0.981937
1424226305293 26541 READING 30 0.980795
1424226305367 26541 READING 30 0.982771
1424226305444 26541 READING 30 0.983753
1424226305520 26541 READING 30 0.984989
1424226305597 26541 READING 30 0.983542
1424226305678 26541 READING 30 0.984692
1424226305760 26541 READING 30 0.981277
1424226305844 26541 READING 30 0.982845
1424226305852 26540 READING 351 0.981386
1424226305923 26541 READING 30 0.984235
1424226305999 26541 READING 30 0.983974
1424226306078 26541 READING 30 0.984906
1424226306151 26541 READING 30 0.982641
1424226306228 26541 READING 30 0.984267
1424226306314 26541 READING 30 0.981655
1424226306399 26541 READING 30 0.984821
1424226306473 26541 READING 30 0.985366
1424226306539 26540 READING 351 0.980401
1424226306553 26541 READING 30 0.984048
1424226306632 26541 READING 30 0.984361
1424226306708 26541 READING 30 0.985045
1424226306791 26541 READING 30 0.980813
1424226306873 26541 READING 30 0.980802
1424226306960 26541 READING 30 0.979081
1424226307043 26541 READING 30 0.978151
1424226307125 26541 READING 30 0.978015
1424226307207 26541 READING 30 0.977571
1424226307293 26541 READING 30 0.981279
1424226307371 26541 READING 30 0.982477
1424226307444 26541 READING 30 0.977753
1424226307491 26540 READING 351 0.973546
1424226307529 26541 READING 30 0.981797
1424226307606 26541 READING 30 0.983006
1424226307686 26541 READING 30 0.981089
1424226307773 26541 READING 30 0.978624
1424226307852 26541 READING 30 0.981802
1424226307934 26541 READING 30 0.983399
1424226308012 26541 READING 30 0.983859
1424226308089 26541 READING 30 0.982306
1424226308169 26541 READING 30 0.983703
1424226308222 26540 READING 351 0.968671
1424226308250 26541 READING 30 0.982987
1424226308325 26541 READING 30 0.983184
1424226308407 26541 READING 30 0.984203
1424226308480 26541 READING 30 0.984305
1424226308554 26541 READING 30 0.984445
1424226308629 26541 READING 30 0.982248
1424226308711 26541 READING 30 0.980965
1424226308796 26541 READING 30 0.981259
1424226308873 26541 READING 30 0.982452
1424226308948 26541 READING 30 0.983475
1424226309034 26541 READING 30 0.980145
1424226309062 26540 READING 351 0.974375
1424226309118 26541 READING 30 0.982915
1424226309196 26541 READING 30 0.983716
1424226309270 26541 READING 30 0.983949
1424226309353 26541 READING 30 0.984766
1424226309427 26541 READING 30 0.982030
1424226309504 26541 READING 30 0.981854
1424226309581 26541 READING 30 0.983157
1424226309655 26541 READING 30 0.984249
1424226309693 26540 READING 351 0.972946
1424226309734 26541 READING 30 0.984637
1424226309813 26541 READING 30 0.985196
1424226309888 26541 READING 30 0.984732
1424226309967 26541 READING 30 0.985008
1424226310045 26541 READING 30 0.985178
1424226310122 26541 READING 30 0.982376
1424226310200 26541 READING 30 0.983549
1424226310278 26541 READING 30 0.984545
1424226310310 26540 READING 351 0.971300
1424226310359 26541 READING 30 0.985024
1424226310436 26541 READING 30 0.984997
1424226310515 26541 READING 30 0.985111
1424226310595 26541 READING 30 0.981118
1424226310674 26541 READING 30 0.983601
1424226310750 26541 READING 30 0.984301
1424226310826 26541 READING 30 0.985370
1424226310902 26541 READING 30 0.984033
1424226310980 26541 READING 30 0.984589
1424226310986 26540 READING 351 0.974745
1424226311055 26541 READING 30 0.985300
1424226311134 26541 READING 30 0.985866
1424226311211 26541 READING 30 0.981926
1424226311292 26541 READING 30 0.983575
1424226311369 26541 READING 30 0.984546
1424226311442 26541 READING 30 0.982203
1424226311519 26541 READING 30 0.983527
1424226311605 26541 READING 30 0.980768
1424226311684 26540 READING 305 0.984571
1424226311685 26541 READING 30 0.982875
1424226311761 26541 READING 30 0.982411
1424226311840 26541 READING 30 0.980652
1424226311921 26541 READING 30 0.982153
1424226312002 26541 READING 30 0.983618
1424226312077 26541 READING 30 0.983792
1424226312155 26541 READING 30 0.980897
1424226312241 26541 READING 30 0.979504
1424226312317 26541 READING 30 0.981749
1424226312391 26541 READING 30 0.982298
1424226312467 26541 READING 30 0.983666
1424226312490 26540 READING 349 0.988183
1424226312550 26541 READING 30 0.984383
1424226312624 26541 READING 30 0.982415
1424226312701 26541 READING 30 0.977348
1424226312782 26541 READING 30 0.981497
1424226312858 26541 READING 30 0.983186
1424226312935 26541 READING 30 0.982567
1424226313012 26541 FUNCTION lru lambda h: 0.893122 * (h ** 0.0219296)
1424226313012 26540 FUNCTION lru lambda h: 0.088406 * (h ** 0.398158)
1424226313012 26541 RECOMMEND 23
1424226313012 26540 RECOMMEND 409
1424226313013 26541 READING 30 0.976284
1424226313086 26541 READING 30 0.978976
1424226313162 26541 READING 30 0.981071
1424226313188 26540 READING 349 0.988782
1424226313245 26541 READING 30 0.983653
1424226313323 26541 READING 30 0.984369
1424226313396 26541 READING 30 0.983561
1424226313475 26541 READING 30 0.979565
1424226313555 26541 READING 30 0.980909
1424226313634 26541 READING 30 0.982480
1424226313708 26541 READING 30 0.983324
1424226313790 26541 READING 30 0.980051
1424226313874 26541 READING 30 0.981413
1424226313949 26541 READING 30 0.981146
1424226314028 26541 READING 30 0.981812
1424226314065 26540 READING 343 0.989865
1424226314115 26541 READING 30 0.981125
1424226314205 26541 READING 30 0.982887
1424226314284 26541 READING 30 0.983633
1424226314354 26541 READING 30 0.982656
1424226314430 26541 READING 30 0.980938
1424226314508 26541 READING 30 0.982344
1424226314584 26541 READING 30 0.983692
1424226314658 26541 READING 30 0.983082
1424226314738 26541 READING 30 0.979918
1424226314820 26541 READING 30 0.982464
1424226314898 26541 READING 30 0.982629
1424226314923 26540 READING 315 0.989961
1424226314979 26541 READING 30 0.984152
1424226315055 26541 READING 30 0.984328
1424226315127 26541 READING 30 0.984092
1424226315199 26541 READING 30 0.983607
1424226315278 26541 READING 30 0.984113
1424226315352 26541 READING 30 0.984131
1424226315433 26541 READING 30 0.983289
1424226315509 26541 READING 30 0.983157
1424226315549 26540 READING 340 0.988226
1424226315588 26541 READING 30 0.980791
1424226315667 26541 READING 30 0.980322
1424226315744 26541 READING 30 0.982043
1424226315820 26541 READING 30 0.983292
1424226315894 26541 READING 30 0.978605
1424226315973 26541 READING 30 0.977773
1424226316059 26541 READING 30 0.981882
1424226316137 26541 READING 30 0.982959
1424226316212 26541 READING 30 0.983233
1424226316298 26541 READING 30 0.983413
1424226316342 26540 READING 343 0.986764
1424226316380 26541 READING 30 0.984327
1424226316456 26541 READING 30 0.984274
1424226316533 26541 READING 30 0.984328
1424226316611 26541 READING 30 0.984328
1424226316689 26541 READING 30 0.983907
1424226316766 26541 READING 30 0.983445
1424226316841 26541 READING 30 0.983917
1424226316916 26541 READING 30 0.983415
1424226316994 26541 READING 30 0.983889
1424226317046 26540 READING 340 0.985959
1424226317078 26541 READING 30 0.985223
1424226317153 26541 READING 30 0.983092
1424226317229 26541 READING 30 0.983998
1424226317306 26541 READING 30 0.981466
1424226317392 26541 READING 30 0.979551
1424226317474 26541 READING 30 0.981748
1424226317558 26541 READING 30 0.981663
1424226317639 26541 READING 30 0.982322
1424226317718 26541 READING 30 0.979771
1424226317794 26541 READING 30 0.981918
1424226317873 26541 READING 30 0.981600
1424226317952 26540 READING 342 0.983698
1424226317952 26541 READING 30 0.980743
1424226318028 26541 READING 30 0.982250
1424226318104 26541 READING 30 0.981395
1424226318178 26541 READING 30 0.982590
1424226318257 26541 READING 30 0.984056
1424226318353 26541 READING 30 0.985736
1424226318393 26541 READING 30 0.956930
1424226318418 26541 READING 30 0.901392
1424226318455 26541 READING 30 0.877086
1424226318481 26541 READING 30 0.881547
1424226318507 26541 READING 30 0.900708
1424226318544 26541 READING 30 0.925163
1424226318586 26541 READING 30 0.943543
1424226318605 26541 READING 30 0.930396
1424226318625 26541 READING 30 0.925510
1424226318651 26541 READING 30 0.931261
1424226318673 26541 READING 30 0.926334
1424226318703 26541 READING 30 0.927841
1424226318730 26541 READING 30 0.927377
1424226318734 26540 READING 344 0.980576
1424226318767 26541 READING 30 0.938651
1424226318792 26541 READING 30 0.921084
1424226318822 26541 READING 30 0.925339
1424226318847 26541 READING 30 0.922891
1424226318871 26541 READING 30 0.921417
1424226318908 26541 READING 30 0.931183
1424226318937 26541 READING 30 0.931806
1424226318958 26541 READING 30 0.927504
1424226318982 26541 READING 30 0.928192
1424226319015 26541 READING 30 0.929097
1424226319036 26541 READING 30 0.920053
1424226319061 26541 READING 30 0.929528
1424226319086 26541 READING 30 0.932766
1424226319108 26541 READING 30 0.924226
1424226319136 26541 READING 30 0.935080
1424226319161 26541 READING 30 0.924893
1424226319187 26541 READING 30 0.925918
1424226319243 26541 READING 30 0.956980
1424226319325 26541 READING 30 0.972578
1424226319404 26541 READING 30 0.979499
1424226319479 26541 READING 30 0.980086
1424226319522 26540 READING 344 0.980973
1424226319574 26541 READING 30 0.979967
1424226319664 26541 READING 30 0.982988
1424226319739 26541 READING 30 0.983602
1424226319819 26541 READING 30 0.980131
1424226319907 26541 READING 30 0.980781
1424226319977 26541 READING 30 0.981811
1424226320055 26541 READING 30 0.983723
1424226320129 26541 READING 30 0.984166
1424226320210 26541 READING 30 0.980757
1424226320290 26541 READING 30 0.981903
1424226320360 26541 READING 30 0.981886
1424226320435 26541 READING 30 0.982787
1424226320476 26540 READING 347 0.982888
1424226320525 26541 READING 30 0.984612
1424226320601 26541 READING 30 0.984578
1424226320682 26541 READING 30 0.981656
1424226320761 26541 READING 30 0.980935
1424226320839 26541 READING 30 0.980417
1424226320918 26541 READING 30 0.982750
1424226320995 26541 READING 30 0.983954
1424226321073 26541 READING 30 0.981451
1424226321149 26541 READING 30 0.982638
1424226321223 26541 READING 30 0.982639
1424226321330 26540 READING 347 0.978989
1424226321371 26541 READING 30 0.977875
1424226321448 26541 READING 30 0.983863
1424226321523 26541 READING 30 0.983581
1424226321596 26541 READING 30 0.983372
1424226321667 26541 READING 30 0.982931
1424226321748 26541 READING 30 0.984466
1424226321824 26541 READING 30 0.984147
1424226321904 26541 READING 30 0.985160
1424226321982 26541 READING 30 0.985421
1424226322055 26541 READING 30 0.984630
1424226322133 26541 READING 30 0.984026
1424226322150 26540 READING 350 0.978739
1424226322227 26541 READING 30 0.985228
1424226322311 26541 READING 30 0.985422
1424226322391 26541 READING 30 0.984907
1424226322468 26541 READING 30 0.983561
1424226322543 26541 READING 30 0.984357
1424226322622 26541 READING 30 0.984815
1424226322701 26541 READING 30 0.983734
1424226322780 26541 READING 30 0.982115
1424226322855 26541 READING 30 0.983759
1424226322929 26541 READING 30 0.983481
1424226323007 26541 READING 30 0.985022
1424226323013 26541 FUNCTION lru lambda h: 0.893345 * (h ** 0.0218763)
1424226323013 26540 FUNCTION lru lambda h: 0.104851 * (h ** 0.369245)
1424226323013 26541 RECOMMEND 24
1424226323013 26540 RECOMMEND 408
1424226323029 26540 READING 352 0.975562
1424226323101 26541 READING 30 0.985919
1424226323176 26541 READING 30 0.985817
1424226323250 26541 READING 30 0.985217
1424226323329 26541 READING 30 0.983445
1424226323405 26541 READING 30 0.983794
1424226323485 26541 READING 30 0.980905
1424226323570 26541 READING 30 0.982874
1424226323656 26541 READING 30 0.980847
1424226323740 26541 READING 30 0.981386
1424226323815 26541 READING 30 0.982590
1424226323890 26541 READING 30 0.983473
1424226323964 26541 READING 30 0.984111
1424226324022 26540 READING 355 0.972535
1424226324059 26541 READING 30 0.982935
1424226324133 26541 READING 30 0.982980
1424226324208 26541 READING 30 0.983456
1424226324291 26541 READING 30 0.984626
1424226324366 26541 READING 30 0.984384
1424226324442 26541 READING 30 0.984771
1424226324520 26541 READING 30 0.980660
1424226324596 26541 READING 30 0.982650
1424226324674 26541 READING 30 0.982217
1424226324752 26541 READING 30 0.983496
1424226324825 26541 READING 30 0.983801
1424226324889 26540 READING 357 0.971036
1424226324920 26541 READING 30 0.986440
1424226324996 26541 READING 30 0.984755
1424226325071 26541 READING 30 0.984757
1424226325145 26541 READING 30 0.984229
1424226325219 26541 READING 30 0.984573
1424226325296 26541 READING 30 0.985199
1424226325375 26541 READING 30 0.981253
1424226325456 26541 READING 30 0.983248
1424226325532 26541 READING 30 0.983688
1424226325613 26541 READING 30 0.984727
1424226325688 26541 READING 30 0.984428
1424226325723 26540 READING 359 0.969813
1424226325779 26541 READING 30 0.986336
1424226325853 26541 READING 30 0.985371
1424226325926 26541 READING 30 0.983592
1424226326003 26541 READING 30 0.983514
1424226326078 26541 READING 30 0.983476
1424226326153 26541 READING 30 0.983635
1424226326226 26541 READING 30 0.983932
1424226326296 26541 READING 30 0.982331
1424226326371 26541 READING 30 0.983038
1424226326446 26541 READING 30 0.983987
1424226326521 26541 READING 30 0.983875
1424226326594 26541 READING 30 0.984142
1424226326665 26541 READING 30 0.984139
1424226326738 26541 READING 30 0.983930
1424226326816 26541 READING 30 0.985208
1424226326890 26541 READING 30 0.985488
1424226326929 26540 READING 346 0.977293
1424226326979 26541 READING 30 0.986910
1424226327051 26541 READING 30 0.985705
1424226327119 26541 READING 30 0.984728
1424226327197 26541 READING 30 0.985115
1424226327272 26541 READING 30 0.984897
1424226327347 26541 READING 30 0.981774
1424226327419 26541 READING 30 0.983170
1424226327454 26540 READING 356 0.973668
1424226327502 26541 READING 30 0.985149
1424226327569 26540 READING 345 0.957679
1424226327589 26541 READING 30 0.986088
1424226327664 26540 READING 357 0.895912
1424226327683 26541 READING 30 0.986687
1424226327732 26540 READING 357 0.846655
1424226327765 26541 READING 30 0.986460
1424226327788 26540 READING 345 0.773632
1424226327842 26541 READING 30 0.985336
1424226327844 26540 READING 351 0.714050
1424226327898 26540 READING 351 0.674563
1424226327922 26541 READING 30 0.984674
1424226327952 26540 READING 351 0.651172
1424226328001 26541 READING 30 0.983464
1424226328006 26540 READING 351 0.330786
1424226328057 26540 READING 351 0.415361
1424226328080 26541 READING 30 0.984351
1424226328164 26541 READING 30 0.985002
1424226328242 26541 READING 30 0.982433
1424226328278 26540 READING 351 0.973411
1424226328320 26541 READING 30 0.982417
1424226328397 26541 READING 30 0.982616
1424226328472 26541 READING 30 0.983736
1424226328551 26541 READING 30 0.984687
1424226328627 26541 READING 30 0.980260
1424226328645 26540 READING 354 0.880282
1424226328706 26541 READING 30 0.982094
1424226328788 26541 READING 30 0.981631
1424226328862 26541 READING 30 0.983339
1424226328939 26541 READING 30 0.984828
1424226329015 26541 READING 30 0.985554
1424226329092 26541 READING 30 0.985980
1424226329170 26541 READING 30 0.983342
1424226329248 26541 READING 30 0.980666
1424226329333 26541 READING 30 0.983445
1424226329380 26540 READING 354 0.967692
1424226329412 26541 READING 30 0.984105
1424226329489 26541 READING 30 0.983543
1424226329562 26541 READING 30 0.984439
1424226329635 26541 READING 30 0.984494
1424226329713 26541 READING 30 0.984751
1424226329794 26541 READING 30 0.984024
1424226329871 26541 READING 30 0.983748
1424226329945 26541 READING 30 0.984227
1424226329970 26540 READING 354 0.980746
1424226330025 26541 READING 30 0.984702
1424226330102 26541 READING 30 0.985057
1424226330178 26541 READING 30 0.984291
1424226330254 26541 READING 30 0.981358
1424226330329 26541 READING 30 0.982815
1424226330404 26541 READING 30 0.982349
1424226330480 26541 READING 30 0.984098
1424226330557 26541 READING 30 0.982508
1424226330572 26540 READING 354 0.980134
1424226330641 26541 READING 30 0.985048
1424226330712 26541 READING 30 0.984465
1424226330790 26541 READING 30 0.980558
1424226330867 26541 READING 30 0.982630
1424226330943 26541 READING 30 0.983473
1424226331016 26541 READING 30 0.983003
1424226331088 26541 READING 30 0.983900
1424226331114 26540 READING 354 0.966210
1424226331171 26541 READING 30 0.984904
1424226331245 26541 READING 30 0.981536
1424226331331 26541 READING 30 0.980015
1424226331412 26541 READING 30 0.981148
1424226331487 26541 READING 30 0.983355
1424226331562 26541 READING 30 0.984365
1424226331634 26541 READING 30 0.984681
1424226331713 26541 READING 30 0.981882
1424226331785 26540 READING 354 0.963628
1424226331794 26541 READING 30 0.983875
1424226331869 26541 READING 30 0.984246
1424226331945 26541 READING 30 0.983926
1424226332023 26541 READING 30 0.983624
1424226332099 26541 READING 30 0.984337
1424226332175 26541 READING 30 0.982553
1424226332251 26541 READING 30 0.981993
1424226332337 26541 READING 30 0.980458
1424226332417 26541 READING 30 0.982429
1424226332495 26541 READING 30 0.982830
1424226332521 26540 READING 354 0.973081
1424226332573 26541 READING 30 0.984355
1424226332649 26541 READING 30 0.984607
1424226332724 26541 READING 30 0.981912
1424226332803 26541 READING 30 0.980025
1424226332883 26541 READING 30 0.980896
1424226332962 26541 READING 30 0.982646
1424226333014 26541 FUNCTION lru lambda h: 0.89308 * (h ** 0.0219397)
1424226333014 26540 FUNCTION lru lambda h: 0.34598 * (h ** 0.162947)
1424226333014 26541 RECOMMEND 51
1424226333014 26540 RECOMMEND 381
1424226333038 26541 READING 30 0.981978
1424226333116 26541 READING 31 0.983792
1424226333150 26540 READING 354 0.973047
1424226333198 26541 READING 31 0.982643
1424226333292 26541 READING 33 0.984700
1424226333385 26541 READING 33 0.985419
1424226333493 26541 READING 35 0.984636
1424226333599 26541 READING 35 0.986996
1424226333709 26540 READING 354 0.972772
1424226333724 26541 READING 37 0.987557
1424226333847 26541 READING 37 0.989036
1424226333991 26541 READING 40 0.990441
1424226334131 26541 READING 40 0.990246
1424226334294 26541 READING 42 0.989203
1424226334397 26540 READING 353 0.983136
1424226334464 26541 READING 42 0.991239
1424226334638 26541 READING 45 0.992213
1424226334816 26541 READING 45 0.993372
1424226335016 26540 READING 309 0.986621
1424226335025 26541 READING 48 0.993692
1424226335217 26541 READING 48 0.994179
1424226335430 26541 READING 50 0.994386
1424226335639 26541 READING 51 0.994232
1424226335671 26540 READING 350 0.986367
1424226335961 26541 READING 53 0.995652
1424226336048 26541 READING 52 0.974225
1424226336114 26541 READING 51 0.964781
1424226336178 26541 READING 51 0.957594
1424226336261 26541 READING 52 0.954903
1424226336356 26541 READING 52 0.946030
1424226336428 26541 READING 51 0.938270
1424226336509 26541 READING 51 0.936439
1424226336582 26541 READING 51 0.933850
1424226336610 26540 READING 351 0.987412
1424226336647 26541 READING 50 0.942691
1424226336710 26541 READING 51 0.952364
1424226336826 26541 READING 50 0.967521
1424226337054 26541 READING 51 0.980735
1424226337267 26541 READING 51 0.986753
1424226337535 26541 READING 54 0.988846
1424226337671 26540 READING 347 0.990361
1424226337774 26541 READING 52 0.990158
1424226338003 26541 READING 51 0.992496
1424226338222 26541 READING 51 0.992716
1424226338440 26541 READING 50 0.991721
1424226338577 26540 READING 321 0.986725
1424226338663 26541 READING 52 0.992780
1424226338875 26541 READING 50 0.993629
1424226339109 26541 READING 53 0.993558
1424226339356 26541 READING 51 0.991994
1424226339522 26540 READING 346 0.985879
1424226339583 26541 READING 51 0.992124
1424226339790 26541 READING 50 0.993016
1424226340017 26541 READING 52 0.993472
1424226340234 26541 READING 50 0.994294
1424226340270 26540 READING 347 0.985673
1424226340472 26541 READING 53 0.994717
1424226340708 26541 READING 52 0.994489
1424226340939 26541 READING 51 0.994667
1424226341122 26540 READING 348 0.986299
1424226341158 26541 READING 50 0.994978
1424226341385 26541 READING 53 0.993132
1424226341603 26541 READING 51 0.994007
1424226341823 26541 READING 51 0.994117
1424226341942 26540 READING 348 0.984810
1424226342064 26541 READING 53 0.994856
1424226342286 26541 READING 51 0.993956
1424226342510 26541 READING 50 0.994144
1424226342732 26541 READING 52 0.994228
1424226342841 26540 READING 351 0.984783
1424226342962 26541 READING 50 0.993374
1424226343014 26541 FUNCTION lru lambda h: 0.922137 * (h ** 0.0155565)
1424226343014 26540 FUNCTION lru lambda h: 0.310866 * (h ** 0.182142)
1424226343016 26541 RECOMMEND 34
1424226343016 26540 RECOMMEND 398
1424226343208 26541 READING 53 0.994115
1424226343433 26541 READING 52 0.994539
1424226343650 26541 READING 50 0.994315
1424226343773 26540 READING 351 0.980551
1424226343871 26541 READING 49 0.994525
1424226344086 26541 READING 48 0.992854
1424226344282 26541 READING 47 0.993171
1424226344480 26541 READING 46 0.993655
1424226344657 26541 READING 45 0.991944
1424226344717 26540 READING 355 0.982200
1424226344846 26541 READING 45 0.991958
1424226345020 26541 READING 44 0.992303
1424226345202 26541 READING 44 0.993026
1424226345368 26541 READING 43 0.992915
1424226345524 26540 READING 356 0.979578
1424226345545 26541 READING 43 0.992917
1424226345704 26541 READING 42 0.992872
1424226345865 26541 READING 42 0.993068
1424226346018 26541 READING 41 0.993071
1424226346158 26541 READING 41 0.992497
1424226346311 26541 READING 40 0.991842
1424226346464 26541 READING 40 0.989175
1424226346597 26540 READING 360 0.979168
1424226346623 26541 READING 39 0.990958
1424226346761 26541 READING 39 0.990530
1424226346887 26541 READING 38 0.989806
1424226347010 26541 READING 38 0.989905
1424226347139 26541 READING 37 0.986940
1424226347273 26541 READING 37 0.989175
1424226347394 26541 READING 37 0.989178
1424226347511 26540 READING 361 0.975685
1424226347534 26541 READING 37 0.990123
1424226347662 26541 READING 37 0.990847
1424226347786 26541 READING 37 0.990626
1424226347913 26541 READING 37 0.990106
1424226348050 26541 READING 37 0.981032
1424226348178 26541 READING 37 0.985397
1424226348301 26541 READING 37 0.987092
1424226348394 26540 READING 362 0.974041
1424226348441 26541 READING 37 0.989926
1424226348564 26541 READING 37 0.990079
1424226348687 26541 READING 37 0.990083
1424226348808 26541 READING 37 0.989892
1424226348934 26541 READING 37 0.989987
1424226349062 26541 READING 37 0.990310
1424226349182 26541 READING 37 0.990115
1424226349256 26540 READING 350 0.969757
1424226349315 26541 READING 37 0.989891
1424226349443 26541 READING 37 0.989874
1424226349566 26541 READING 37 0.989369
1424226349689 26541 READING 37 0.989697
1424226349811 26541 READING 37 0.989644
1424226349931 26541 READING 37 0.989483
1424226350053 26541 READING 37 0.990330
1424226350174 26541 READING 37 0.990211
1424226350293 26541 READING 37 0.989878
1424226350413 26541 READING 37 0.990298
1424226350528 26540 READING 360 0.978427
1424226350551 26541 READING 37 0.991561
1424226350672 26541 READING 37 0.991196
1424226350794 26541 READING 37 0.990918
1424226350912 26541 READING 37 0.990707
1424226351032 26541 READING 37 0.990515
1424226351152 26541 READING 37 0.990435
1424226351244 26540 READING 339 0.976757
1424226351283 26541 READING 37 0.991635
1424226351384 26540 READING 358 0.961999
1424226351417 26541 READING 37 0.992081
1424226351485 26540 READING 360 0.893510
1424226351544 26540 READING 347 0.835268
1424226351556 26541 READING 37 0.992456
1424226351600 26540 READING 346 0.786890
1424226351655 26540 READING 354 0.734276
1424226351703 26541 READING 37 0.989821
1424226351709 26540 READING 354 0.691600
1424226351764 26540 READING 354 0.660319
1424226351817 26540 READING 354 0.482935
1424226351833 26541 READING 37 0.990905
1424226351868 26540 READING 354 0.377235
1424226351956 26541 READING 37 0.991335
1424226352080 26541 READING 37 0.990851
1424226352135 26540 READING 354 0.970360
1424226352182 26540 READING 376 0.520922
1424226352206 26541 READING 37 0.990486
1424226352333 26541 READING 37 0.990299
1424226352455 26541 READING 37 0.990470
1424226352580 26541 READING 37 0.987898
1424226352705 26540 READING 376 0.926189
1424226352710 26541 READING 37 0.988567
1424226352835 26541 READING 37 0.989565
1424226352960 26541 READING 37 0.989724
1424226353016 26541 FUNCTION lru lambda h: 0.944798 * (h ** 0.0106973)
1424226353016 26540 FUNCTION lru lambda h: 0.398345 * (h ** 0.138338)
1424226353017 26541 RECOMMEND 31
1424226353017 26540 RECOMMEND 401
1424226353083 26541 READING 37 0.990264
1424226353206 26541 READING 37 0.990069
1424226353323 26540 READING 376 0.971357
1424226353329 26541 READING 37 0.987698
1424226353457 26541 READING 37 0.988002
1424226353563 26541 READING 37 0.966123
1424226353602 26541 READING 37 0.954258
1424226353638 26541 READING 37 0.925009
1424226353677 26541 READING 37 0.916879
1424226353721 26541 READING 38 0.842141
1424226353817 26541 READING 37 0.986877
1424226353866 26541 READING 37 0.870207
1424226353908 26541 READING 37 0.897775
1424226353957 26541 READING 37 0.926133
1424226353993 26541 READING 37 0.928303
1424226354005 26540 READING 376 0.982308
1424226354038 26541 READING 36 0.934294
1424226354081 26541 READING 37 0.942144
1424226354117 26541 READING 36 0.939838
1424226354154 26541 READING 36 0.940336
1424226354198 26541 READING 37 0.937383
1424226354242 26541 READING 36 0.929095
1424226354283 26541 READING 37 0.941441
1424226354321 26541 READING 36 0.946435
1424226354360 26541 READING 37 0.942947
1424226354457 26541 READING 37 0.966584
1424226354586 26541 READING 36 0.981221
1424226354706 26540 READING 376 0.969707
1424226354722 26541 READING 36 0.986495
1424226354844 26541 READING 37 0.988019
1424226354962 26541 READING 36 0.988606
1424226355087 26541 READING 37 0.985763
1424226355216 26541 READING 36 0.986464
1424226355346 26541 READING 37 0.988235
1424226355464 26540 READING 376 0.964117
1424226355472 26541 READING 36 0.988282
1424226355590 26541 READING 37 0.988815
1424226355716 26541 READING 36 0.988641
1424226355841 26541 READING 37 0.988890
1424226355969 26541 READING 36 0.989464
1424226356089 26541 READING 37 0.987960
1424226356112 26540 READING 376 0.969561
1424226356224 26541 READING 36 0.986884
1424226356352 26541 READING 37 0.987577
1424226356474 26541 READING 36 0.988874
1424226356595 26541 READING 37 0.989472
1424226356714 26541 READING 37 0.989115
1424226356851 26541 READING 37 0.989761
1424226356981 26541 READING 37 0.974019
1424226356981 26540 READING 376 0.976205
1424226357101 26541 READING 37 0.981784
1424226357223 26541 READING 37 0.985871
1424226357341 26541 READING 37 0.985834
1424226357460 26541 READING 36 0.987792
1424226357555 26540 READING 376 0.983138
1424226357590 26541 READING 36 0.989458
1424226357713 26541 READING 36 0.990008
1424226357829 26541 READING 36 0.989712
1424226357951 26541 READING 36 0.989992
1424226358070 26541 READING 36 0.989701
1424226358124 26540 READING 331 0.987148
1424226358199 26541 READING 36 0.989914
1424226358325 26541 READING 36 0.988096
1424226358457 26541 READING 36 0.986313
1424226358594 26541 READING 36 0.986320
1424226358720 26541 READING 36 0.986501
1424226358847 26541 READING 36 0.986552
1424226358970 26541 READING 36 0.988116
1424226359038 26540 READING 375 0.990885
1424226359097 26541 READING 36 0.989436
1424226359213 26541 READING 36 0.989482
1424226359341 26541 READING 36 0.989148
1424226359463 26541 READING 36 0.989801
1424226359584 26541 READING 36 0.988892
1424226359705 26541 READING 36 0.988601
1424226359747 26540 READING 374 0.988974
1424226359834 26541 READING 36 0.989392
1424226359959 26541 READING 36 0.987074
1424226360090 26541 READING 36 0.988191
1424226360209 26541 READING 36 0.987668
1424226360328 26541 READING 36 0.988606
1424226360462 26541 READING 36 0.989978
1424226360581 26541 READING 36 0.990043
1424226360694 26540 READING 370 0.990252
1424226360712 26541 READING 36 0.990116
1424226360834 26541 READING 36 0.990369
1424226360956 26541 READING 36 0.990170
1424226361081 26541 READING 36 0.988971
1424226361201 26541 READING 36 0.989773
1424226361321 26541 READING 36 0.989363
1424226361417 26540 READING 372 0.989033
1424226361450 26541 READING 36 0.989289
1424226361574 26541 READING 36 0.989795
1424226361694 26541 READING 36 0.989531
1424226361826 26541 READING 36 0.989837
1424226361951 26541 READING 36 0.990360
1424226362070 26541 READING 36 0.990037
1424226362194 26541 READING 36 0.990528
1424226362313 26540 READING 368 0.988304
1424226362325 26541 READING 36 0.990719
1424226362446 26541 READING 36 0.989636
1424226362559 26541 READING 36 0.988883
1424226362685 26541 READING 36 0.989444
1424226362814 26541 READING 36 0.989524
1424226362934 26541 READING 36 0.988960
1424226363017 26541 FUNCTION lru lambda h: 0.937556 * (h ** 0.0122933)
1424226363017 26540 FUNCTION lru lambda h: 0.245357 * (h ** 0.223155)
1424226363018 26541 RECOMMEND 23
1424226363018 26540 RECOMMEND 409
1424226363065 26541 READING 36 0.989782
1424226363173 26540 READING 370 0.985011
1424226363192 26541 READING 36 0.990028
1424226363305 26541 READING 35 0.989571
1424226363420 26541 READING 35 0.989629
1424226363527 26541 READING 34 0.989552
1424226363628 26541 READING 34 0.988453
1424226363730 26541 READING 34 0.987414
1424226363842 26541 READING 34 0.987931
1424226363945 26541 READING 34 0.988199
1424226364040 26540 READING 371 0.983915
1424226364061 26541 READING 34 0.989029
1424226364161 26541 READING 34 0.988147
1424226364263 26541 READING 34 0.988073
1424226364365 26541 READING 34 0.987022
1424226364472 26541 READING 34 0.987377
1424226364581 26541 READING 34 0.987075
1424226364687 26541 READING 34 0.985202
1424226364800 26541 READING 34 0.986781
1424226364848 26540 READING 371 0.981823
1424226364911 26541 READING 34 0.987358
1424226365017 26541 READING 34 0.987853
1424226365118 26541 READING 34 0.987380
1424226365217 26541 READING 34 0.987435
1424226365320 26541 READING 34 0.986322
1424226365440 26541 READING 34 0.986370
1424226365542 26541 READING 34 0.987157
1424226365648 26541 READING 34 0.987219
1424226365713 26540 READING 374 0.982716
1424226365763 26541 READING 34 0.987695
1424226365865 26541 READING 34 0.986491
1424226365969 26541 READING 34 0.987017
1424226366074 26541 READING 34 0.985487
1424226366178 26541 READING 34 0.986888
1424226366281 26541 READING 34 0.985982
1424226366389 26541 READING 34 0.987458
1424226366488 26541 READING 34 0.986388
1424226366543 26540 READING 375 0.982420
1424226366605 26541 READING 34 0.988037
1424226366711 26541 READING 34 0.988498
1424226366811 26541 READING 34 0.987484
1424226366920 26541 READING 34 0.986004
1424226367037 26541 READING 34 0.985554
1424226367142 26541 READING 34 0.987332
1424226367245 26541 READING 34 0.987677
1424226367349 26541 READING 34 0.987534
1424226367448 26541 READING 34 0.984686
1424226367518 26540 READING 378 0.982990
1424226367568 26541 READING 34 0.987580
1424226367670 26541 READING 34 0.987408
1424226367774 26541 READING 34 0.988133
1424226367879 26541 READING 34 0.988070
1424226367979 26541 READING 34 0.988209
1424226368095 26541 READING 34 0.986722
1424226368211 26541 READING 34 0.986542
1424226368312 26541 READING 34 0.987369
1424226368427 26541 READING 34 0.985829
1424226368533 26541 READING 34 0.987072
1424226368581 26540 READING 379 0.982523
1424226368653 26541 READING 34 0.988182
1424226368759 26541 READING 34 0.988346
1424226368864 26541 READING 34 0.988180
1424226368967 26541 READING 34 0.987893
1424226369077 26541 READING 34 0.987511
1424226369180 26541 READING 34 0.987881
1424226369285 26541 READING 34 0.988507
1424226369384 26541 READING 34 0.987397
1424226369483 26540 READING 384 0.977247
1424226369504 26541 READING 34 0.988295
1424226369604 26541 READING 34 0.987892
1424226369702 26541 READING 34 0.987848
1424226369810 26541 READING 34 0.987696
1424226369909 26541 READING 34 0.982686
1424226370016 26541 READING 34 0.985576
1424226370121 26541 READING 34 0.986830
1424226370221 26541 READING 34 0.985575
1424226370333 26541 READING 34 0.986542
1424226370341 26540 READING 385 0.972329
1424226370446 26541 READING 34 0.987726
1424226370549 26541 READING 34 0.988003
1424226370656 26541 READING 34 0.987752
1424226370770 26541 READING 34 0.985246
1424226370874 26541 READING 34 0.986638
1424226370978 26541 READING 34 0.987372
1424226371078 26541 READING 34 0.987564
1424226371165 26541 READING 34 0.973246
1424226371194 26541 READING 34 0.939745
1424226371235 26541 READING 34 0.922417
1424226371265 26540 READING 384 0.959086
1424226371266 26541 READING 34 0.928133
1424226371301 26541 READING 34 0.931735
1424226371333 26541 READING 34 0.935521
1424226371358 26541 READING 34 0.930641
1424226371388 26541 READING 34 0.935092
1424226371422 26541 READING 34 0.930042
1424226371461 26541 READING 34 0.937293
1424226371503 26541 READING 34 0.947504
1424226371534 26541 READING 34 0.929749
1424226371567 26541 READING 34 0.933326
1424226371600 26541 READING 34 0.939876
1424226371632 26541 READING 34 0.941786
1424226371661 26541 READING 34 0.935271
1424226371701 26541 READING 34 0.946442
1424226371728 26541 READING 34 0.941667
1424226371761 26541 READING 34 0.944288
1424226371792 26541 READING 34 0.944728
1424226371824 26541 READING 34 0.945519
1424226371855 26541 READING 34 0.941779
1424226371921 26541 READING 34 0.962683
1424226372024 26541 READING 34 0.976339
1424226372138 26540 READING 373 0.962468
1424226372150 26541 READING 34 0.983820
1424226372259 26541 READING 34 0.986097
1424226372364 26541 READING 34 0.986924
1424226372465 26541 READING 34 0.986840
1424226372563 26541 READING 34 0.987097
1424226372667 26541 READING 34 0.987685
1424226372765 26541 READING 34 0.987453
1424226372856 26540 READING 382 0.961823
1424226372881 26541 READING 34 0.988368
1424226372982 26541 READING 34 0.988177
1424226373018 26541 FUNCTION lru lambda h: 0.938154 * (h ** 0.0121595)
1424226373018 26540 FUNCTION lru lambda h: 0.351086 * (h ** 0.163255)
1424226373019 26541 RECOMMEND 30
1424226373019 26540 RECOMMEND 402
1424226373083 26541 READING 34 0.988157
1424226373185 26541 READING 34 0.987883
1424226373286 26541 READING 34 0.988155
1424226373386 26541 READING 34 0.987422
1424226373493 26541 READING 34 0.987947
1424226373591 26541 READING 34 0.987581
1424226373690 26541 READING 34 0.987293
1424226373792 26541 READING 34 0.987962
1424226373877 26540 READING 369 0.957680
1424226373909 26541 READING 34 0.989148
1424226374011 26541 READING 34 0.988923
1424226374111 26541 READING 34 0.988566
1424226374207 26541 READING 34 0.988046
1424226374311 26541 READING 34 0.989246
1424226374410 26541 READING 34 0.989135
1424226374510 26541 READING 34 0.988682
1424226374610 26540 READING 372 0.958263
1424226374630 26541 READING 34 0.989071
1424226374729 26541 READING 34 0.988613
1424226374832 26541 READING 34 0.988205
1424226374933 26541 READING 34 0.988170
1424226374981 26540 READING 366 0.947953
1424226375044 26541 READING 34 0.988494
1424226375079 26540 READING 376 0.927149
1424226375164 26541 READING 34 0.989762
1424226375168 26540 READING 353 0.878013
1424226375225 26540 READING 374 0.815440
1424226375285 26541 READING 34 0.986866
1424226375286 26540 READING 375 0.728483
1424226375340 26540 READING 376 0.682451
1424226375395 26540 READING 376 0.485997
1424226375401 26541 READING 34 0.974222
1424226375449 26540 READING 376 0.354816
1424226375521 26541 READING 34 0.980353
1424226375625 26541 READING 34 0.981932
1424226375703 26540 READING 376 0.968390
1424226375732 26541 READING 34 0.985673
1424226375750 26540 READING 379 0.545649
1424226375790 26540 READING 379 0.694455
1424226375835 26541 READING 34 0.986681
1424226375841 26540 READING 379 0.824030
1424226375943 26541 READING 34 0.984969
1424226376054 26541 READING 34 0.986802
1424226376156 26541 READING 34 0.987708
1424226376254 26541 READING 34 0.986308
1424226376370 26541 READING 34 0.984774
1424226376477 26541 READING 34 0.984540
1424226376477 26540 READING 379 0.981777
1424226376580 26541 READING 34 0.986549
1424226376687 26541 READING 34 0.987559
1424226376784 26541 READING 34 0.987597
1424226376895 26541 READING 34 0.986546
1424226376999 26541 READING 34 0.987500
1424226377099 26540 READING 379 0.977023
1424226377103 26541 READING 34 0.985717
1424226377209 26541 READING 34 0.987112
1424226377312 26541 READING 34 0.987747
1424226377417 26541 READING 34 0.985931
1424226377522 26541 READING 34 0.987154
1424226377623 26541 READING 34 0.987223
1424226377709 26540 READING 379 0.975808
1424226377735 26541 READING 34 0.986545
1424226377838 26541 READING 34 0.987537
1424226377940 26541 READING 34 0.986352
1424226378046 26541 READING 34 0.987534
1424226378147 26541 READING 34 0.987594
1424226378254 26541 READING 34 0.984926
1424226378371 26541 READING 34 0.986841
1424226378406 26540 READING 379 0.977281
1424226378472 26541 READING 34 0.987392
1424226378581 26541 READING 34 0.988005
1424226378686 26541 READING 34 0.988280
1424226378788 26541 READING 34 0.987311
1424226378891 26541 READING 34 0.987997
1424226378967 26540 READING 379 0.974509
1424226378994 26541 READING 34 0.988295
1424226379106 26541 READING 34 0.985527
1424226379211 26541 READING 34 0.987477
1424226379317 26541 READING 34 0.987697
1424226379423 26541 READING 34 0.988269
1424226379529 26541 READING 34 0.987916
1424226379631 26541 READING 34 0.987012
1424226379682 26540 READING 379 0.975802
1424226379740 26541 READING 34 0.986695
1424226379843 26541 READING 34 0.987183
1424226379950 26541 READING 34 0.987802
1424226380050 26541 READING 34 0.984175
1424226380167 26541 READING 34 0.986632
1424226380279 26541 READING 34 0.986906
1424226380391 26541 READING 34 0.984531
1424226380459 26540 READING 379 0.979148
1424226380505 26541 READING 34 0.986658
1424226380609 26541 READING 34 0.987449
1424226380710 26541 READING 34 0.986358
1424226380817 26541 READING 34 0.987543
1424226380918 26541 READING 34 0.987757
1424226381018 26541 READING 34 0.987906
1424226381140 26541 READING 34 0.987592
1424226381152 26540 READING 377 0.985881
1424226381247 26541 READING 34 0.988377
1424226381354 26541 READING 34 0.985316
1424226381463 26541 READING 34 0.986183
1424226381576 26541 READING 34 0.985569
1424226381682 26541 READING 34 0.986674
1424226381784 26541 READING 34 0.987362
1424226381884 26541 READING 34 0.987683
1424226381923 26540 READING 378 0.988284
1424226381992 26541 READING 34 0.988519
1424226382103 26541 READING 34 0.985523
1424226382214 26541 READING 34 0.986273
1424226382330 26541 READING 34 0.984552
1424226382431 26541 READING 34 0.986244
1424226382536 26541 READING 34 0.987429
1424226382638 26541 READING 34 0.987620
1424226382716 26540 READING 374 0.990161
1424226382747 26541 READING 34 0.986514
1424226382854 26541 READING 34 0.987759
1424226382957 26541 READING 34 0.986890
1424226383019 26541 FUNCTION lru lambda h: 0.938064 * (h ** 0.0121796)
1424226383019 26540 FUNCTION lru lambda h: 1.06787 * (h ** 0.001)
1424226383020 26541 RECOMMEND 156
1424226383020 26540 RECOMMEND 276
1424226383072 26541 READING 34 0.984823
1424226383182 26541 READING 34 0.986909
1424226383302 26541 READING 36 0.988030
1424226383415 26541 READING 36 0.987172
1424226383518 26540 READING 376 0.990420
1424226383559 26541 READING 38 0.988546
1424226383704 26541 READING 38 0.989727
1424226383856 26541 READING 41 0.990555
1424226384006 26541 READING 41 0.989666
1424226384180 26541 READING 44 0.991424
1424226384334 26540 READING 364 0.987519
1424226384362 26541 READING 44 0.991736
1424226384563 26541 READING 47 0.992620
1424226384754 26541 READING 47 0.993072
1424226384966 26541 READING 50 0.992952
1424226385050 26540 READING 343 0.987471
1424226385194 26541 READING 50 0.991736
1424226385432 26541 READING 53 0.991448
1424226385692 26541 READING 53 0.992851
1424226385933 26540 READING 364 0.987560
1424226385952 26541 READING 57 0.993356
1424226386207 26541 READING 57 0.994412
1424226386513 26541 READING 61 0.994653
1424226386626 26540 READING 346 0.985748
1424226386820 26541 READING 61 0.994916
1424226387159 26541 READING 65 0.995785
1424226387465 26540 READING 364 0.984011
1424226387493 26541 READING 65 0.996113
1424226387851 26541 READING 69 0.995300
1424226388192 26541 READING 69 0.995888
1424226388267 26540 READING 364 0.984313
1424226388581 26541 READING 73 0.995826
1424226388712 26541 READING 73 0.965663
1424226388820 26541 READING 78 0.964236
1424226388884 26540 READING 364 0.973710
1424226389036 26541 READING 79 0.985944
1424226389178 26541 READING 89 0.965347
1424226389338 26541 READING 89 0.976484
1424226389665 26540 READING 364 0.976457
1424226389745 26541 READING 99 0.989084
1424226390263 26541 READING 99 0.993832
1424226390305 26540 READING 364 0.977166
1424226390864 26541 READING 109 0.990450
1424226390952 26540 READING 365 0.975384
1424226391466 26541 READING 109 0.991252
1424226391574 26540 READING 365 0.967371
1424226392149 26541 READING 118 0.994946
1424226392309 26540 READING 366 0.966938
1424226392828 26541 READING 119 0.996307
1424226392978 26540 READING 366 0.967177
1424226393021 26541 FUNCTION lru lambda h: 0.946752 * (h ** 0.0102352)
1424226393021 26540 FUNCTION lru lambda h: 0.711856 * (h ** 0.0436395)
1424226393022 26541 RECOMMEND 82
1424226393022 26540 RECOMMEND 350
1424226393547 26541 READING 125 0.997175
1424226393647 26540 READING 367 0.966543
1424226394235 26541 READING 120 0.996966
1424226394375 26540 READING 367 0.966337
1424226394893 26541 READING 113 0.997548
1424226395021 26540 READING 367 0.964028
1424226395487 26541 READING 110 0.997385
1424226395585 26540 READING 366 0.962267
1424226396068 26541 READING 104 0.997702
1424226396282 26540 READING 367 0.962758
1424226396607 26541 READING 101 0.997754
1424226396808 26540 READING 366 0.957466
1424226397116 26541 READING 96 0.997802
1424226397595 26540 READING 352 0.944635
1424226397595 26541 READING 95 0.997718
1424226398058 26541 READING 90 0.997639
1424226398185 26540 READING 362 0.952378
1424226398513 26541 READING 89 0.997392
1424226398624 26540 READING 366 0.955615
1424226398736 26540 READING 367 0.941537
1424226398805 26540 READING 351 0.906395
1424226398868 26540 READING 363 0.842627
1424226398922 26540 READING 366 0.756428
1424226398971 26540 READING 370 0.699498
1424226398980 26541 READING 85 0.997459
1424226399020 26540 READING 371 0.501321
1424226399069 26540 READING 371 0.344474
1424226399110 26540 READING 371 0.303226
1424226399351 26540 READING 371 0.967292
1424226399390 26540 READING 368 0.455406
1424226399400 26541 READING 84 0.997238
1424226399424 26540 READING 368 0.610129
1424226399462 26540 READING 368 0.758921
1424226399501 26540 READING 368 0.851358
1424226399803 26541 READING 81 0.997190
1424226399815 26540 READING 368 0.971948
1424226400207 26541 READING 80 0.996184
1424226400461 26540 READING 368 0.981798
1424226400589 26541 READING 77 0.995902
1424226400959 26541 READING 76 0.995236
1424226401089 26540 READING 368 0.977310
1424226401320 26541 READING 73 0.994800
1424226401653 26541 READING 71 0.995672
1424226401667 26540 READING 368 0.976655
1424226401976 26541 READING 69 0.995439
1424226402158 26540 READING 322 0.973677
1424226402291 26541 READING 68 0.995801
1424226402596 26541 READING 66 0.995751
1424226402757 26540 READING 368 0.976764
1424226402905 26541 READING 65 0.995166
1424226403022 26541 FUNCTION lru lambda h: 0.955282 * (h ** 0.00855628)
1424226403022 26540 FUNCTION lru lambda h: 1.04743 * (h ** 0.001)
1424226403023 26541 RECOMMEND 156
1424226403023 26540 RECOMMEND 276
1424226403183 26541 READING 63 0.995238
1424226403412 26540 READING 324 0.979924
1424226403461 26541 READING 62 0.995323
1424226403742 26541 READING 60 0.995491
1424226404000 26541 READING 59 0.994653
1424226404210 26540 READING 360 0.987197
1424226404284 26541 READING 62 0.995069
1424226404579 26541 READING 66 0.994949
1424226404727 26540 READING 325 0.988043
1424226404898 26541 READING 69 0.995630
1424226405255 26541 READING 74 0.996076
1424226405335 26540 READING 355 0.989513
1424226405597 26541 READING 71 0.996010
1424226405908 26541 READING 69 0.991517
1424226405945 26540 READING 327 0.987622
1424226406010 26541 READING 68 0.977188
1424226406115 26541 READING 74 0.960230
1424226406256 26541 READING 81 0.948477
1424226406394 26541 READING 90 0.935188
1424226406548 26540 READING 350 0.979679
1424226406571 26541 READING 99 0.956021
1424226407079 26541 READING 112 0.986282
1424226407148 26540 READING 330 0.981844
1424226407700 26541 READING 113 0.991985
1424226407827 26540 READING 348 0.985050
1424226408328 26541 READING 113 0.991144
1424226408498 26540 READING 332 0.983634
1424226409034 26541 READING 122 0.989639
1424226409135 26540 READING 347 0.980059
1424226409757 26541 READING 124 0.988617
1424226409873 26540 READING 334 0.981402
1424226410472 26540 READING 347 0.978667
1424226410532 26541 READING 133 0.992656
1424226410930 26540 READING 347 0.977164
1424226411291 26541 READING 134 0.995394
1424226411574 26540 READING 347 0.976131
1424226412013 26541 READING 126 0.996586
1424226412083 26540 READING 348 0.974023
1424226412543 26540 READING 348 0.965332
1424226412731 26541 READING 125 0.997344
1424226413023 26541 FUNCTION lru lambda h: 0.957405 * (h ** 0.00781059)
1424226413023 26540 FUNCTION lru lambda h: 1.03141 * (h ** 0.001)
1424226413023 26541 RECOMMEND 156
1424226413023 26540 RECOMMEND 276
1424226413247 26540 READING 349 0.969670
1424226413418 26541 READING 117 0.997710
1424226413778 26540 READING 349 0.967621
1424226414057 26541 READING 116 0.997907
1424226414500 26540 READING 349 0.968678
1424226414686 26541 READING 109 0.997621
1424226415209 26540 READING 350 0.971060
1424226415311 26541 READING 108 0.997728
1424226415687 26540 READING 350 0.967342
1424226415867 26541 READING 102 0.997309
1424226416391 26540 READING 350 0.967743
1424226416424 26541 READING 101 0.997236
1424226416935 26541 READING 96 0.997540
1424226416966 26540 READING 338 0.967701
1424226417432 26541 READING 95 0.996824
1424226417491 26540 READING 348 0.966159
1424226417901 26541 READING 90 0.996951
1424226417974 26540 READING 349 0.961907
1424226418358 26541 READING 89 0.997014
1424226418489 26540 READING 348 0.961280
1424226418810 26541 READING 85 0.997206
1424226419026 26540 READING 337 0.963369
1424226419240 26541 READING 84 0.996858
1424226419527 26540 READING 347 0.963546
1424226419655 26541 READING 80 0.996820
1424226420043 26541 READING 79 0.995695
1424226420135 26540 READING 337 0.967296
1424226420436 26541 READING 76 0.996470
1424226420705 26540 READING 345 0.967542
1424226420800 26541 READING 75 0.996683
1424226421143 26541 READING 72 0.996572
1424226421256 26540 READING 337 0.962462
1424226421480 26541 READING 71 0.995962
1424226421790 26541 READING 68 0.996141
1424226422094 26540 READING 345 0.975197
1424226422103 26541 READING 68 0.996095
1424226422390 26541 READING 65 0.996213
1424226422604 26540 READING 337 0.941274
1424226422679 26541 READING 65 0.996052
1424226422834 26540 READING 340 0.933147
1424226422935 26540 READING 345 0.916837
1424226422973 26541 READING 62 0.995047
1424226422981 26540 READING 346 0.874245
1424226423023 26541 FUNCTION lru lambda h: 0.957574 * (h ** 0.00791985)
1424226423023 26540 FUNCTION lru lambda h: 1.0158 * (h ** 0.001)
1424226423024 26541 RECOMMEND 156
1424226423024 26540 RECOMMEND 276
1424226423065 26540 READING 346 0.667800
1424226423103 26540 READING 339 0.626521
1424226423144 26540 READING 346 0.586293
1424226423181 26540 READING 347 0.403988
1424226423275 26541 READING 61 0.994423
1424226423427 26540 READING 329 0.966300
1424226423459 26540 READING 344 0.528311
1424226423482 26540 READING 344 0.649753
1424226423503 26540 READING 345 0.745966
1424226423525 26540 READING 346 0.837841
1424226423545 26540 READING 347 0.893541
1424226423566 26540 READING 304 0.928977
1424226423587 26540 READING 344 0.947459
1424226423608 26540 READING 304 0.957879
1424226423631 26540 READING 342 0.962408
1424226423655 26540 READING 304 0.967047
1424226423676 26540 READING 339 0.965921
1424226423706 26540 READING 304 0.962067
1424226423866 26540 READING 335 0.983196
1424226424177 26540 READING 304 0.983273
1424226424480 26540 READING 332 0.977608
1424226424795 26540 READING 305 0.976199
1424226425177 26540 READING 328 0.978693
1424226425271 26541 DEATH 1414
1424226425456 26540 READING 305 0.983388
1424226425832 26540 READING 325 0.985666
1424226426183 26540 READING 306 0.986055
1424226426434 26540 READING 322 0.983497
1424226426721 26540 READING 307 0.982009
1424226427040 26540 READING 320 0.981700
1424226427382 26540 READING 309 0.982054
1424226427686 26540 READING 319 0.979890
1424226428058 26540 READING 319 0.980436
1424226428416 26540 READING 319 0.980346
1424226428785 26540 READING 319 0.979201
1424226429056 26540 READING 319 0.969442
1424226429373 26540 READING 319 0.968436
1424226429644 26540 READING 319 0.964314
1424226430049 26540 READING 319 0.965421
1424226430363 26540 READING 318 0.962199
1424226430777 26540 READING 310 0.965915
1424226431064 26540 READING 316 0.966188
1424226431381 26540 READING 310 0.966789
1424226431776 26540 READING 315 0.971930
1424226432111 26540 READING 310 0.970075
1424226432405 26540 READING 314 0.968959
1424226432802 26540 READING 310 0.971189
1424226433024 26540 FUNCTION lru lambda h: 1.29008 * (h ** 0.001)
1424226433024 26540 RECOMMEND 432
1424226433100 26540 READING 314 0.969055
1424226433475 26540 READING 314 0.971046
1424226433869 26540 READING 316 0.971819
1424226434221 26540 READING 316 0.971941
1424226434680 26540 READING 319 0.974708
1424226435218 26540 READING 319 0.978134
1424226435634 26540 READING 323 0.979379
1424226436024 26540 READING 323 0.978128
1424226436447 26540 READING 326 0.974740
1424226437039 26540 READING 327 0.976627
1424226437495 26540 READING 331 0.974668
1424226438030 26540 READING 331 0.974970
1424226438582 26540 READING 335 0.975090
1424226439085 26540 READING 336 0.973113
1424226439663 26540 READING 341 0.974774
1424226440316 26540 READING 342 0.975395
1424226441104 26540 READING 346 0.978011
1424226441701 26540 READING 347 0.977278
1424226442324 26540 READING 353 0.974979
1424226443024 26540 FUNCTION lru lambda h: 1.17233 * (h ** 0.001)
1424226443024 26540 RECOMMEND 432
1424226443134 26540 READING 354 0.939043
1424226443899 26540 READING 354 0.922501
1424226444182 26540 READING 361 0.913177
1424226444282 26540 READING 371 0.888848
1424226444364 26540 READING 374 0.830968
1424226444419 26540 READING 368 0.757650
1424226444473 26540 READING 367 0.578883
1424226444710 26540 READING 373 0.966563
1424226444751 26540 READING 374 0.659085
1424226444797 26540 READING 374 0.783726
1424226444842 26540 READING 374 0.866627
1424226444886 26540 READING 374 0.917828
1424226444937 26540 READING 374 0.944437
1424226445321 26540 READING 374 0.987523
1424226446005 26540 READING 374 0.982618
1424226446635 26540 READING 371 0.978854
1424226447322 26540 READING 372 0.978414
1424226447913 26540 READING 372 0.977932
1424226448786 26540 READING 373 0.981531
1424226449615 26540 READING 373 0.982748
1424226450544 26540 READING 375 0.989402
1424226451262 26540 READING 373 0.990757
1424226452031 26540 READING 376 0.990481
1424226453024 26540 FUNCTION lru lambda h: 0.989686 * (h ** 0.001)
1424226453025 26540 RECOMMEND 432
1424226453110 26540 READING 373 0.991120
1424226453951 26540 READING 376 0.990111
1424226454866 26540 READING 379 0.988729
1424226455886 26540 READING 379 0.988774
1424226456934 26540 READING 385 0.988090
1424226457789 26540 READING 385 0.985595
1424226458787 26540 READING 389 0.985288
1424226459908 26540 READING 382 0.984957
1424226460708 26540 READING 384 0.982336
1424226461504 26540 READING 377 0.980253
1424226462124 26540 READING 379 0.969639
1424226462788 26540 READING 369 0.957016
1424226463025 26540 FUNCTION lru lambda h: 0.977912 * (h ** 0.001)
1424226463025 26540 RECOMMEND 432
1424226463413 26540 READING 377 0.946157
1424226464288 26540 READING 378 0.945453
1424226464923 26540 READING 372 0.946468
1424226465303 26540 READING 360 0.943564
1424226465401 26540 READING 376 0.923959
1424226465483 26540 READING 350 0.889015
1424226465532 26540 READING 368 0.827429
1424226465581 26540 READING 372 0.469610
1424226465625 26540 READING 374 0.504867
1424226465859 26540 READING 348 0.973326
1424226465897 26540 READING 379 0.646719
1424226465940 26540 READING 380 0.777163
1424226465983 26540 READING 380 0.865800
1424226466022 26540 READING 380 0.916809
1424226466071 26540 READING 380 0.946227
1424226466093 26540 DEATH 679
