1413400573799 0 TOTAL_MEM 5948
1413400593849 924 CREATION
1413400593849 924 READING 9 0.993012
1413400593849 924 MINHEAP 2
1413400593849 924 MINHEAP 276
1413400593850 923 CREATION
1413400593850 923 READING 9 0.990471
1413400593850 923 MINHEAP 2
1413400593850 923 MINHEAP 1211
1413400593894 923 READING 9 0.987062
1413400593898 924 READING 9 0.987799
1413400593922 923 READING 9 0.980877
1413400593926 924 READING 9 0.979913
1413400593947 923 READING 9 0.974404
1413400593952 924 READING 9 0.973715
1413400594046 924 READING 11 0.978014
1413400594054 923 READING 11 0.982835
1413400594176 923 READING 11 0.980575
1413400594224 924 READING 11 0.977507
1413400594306 923 READING 17 0.972740
1413400594312 924 READING 17 0.966970
1413400594414 924 READING 17 0.920353
1413400594430 923 READING 17 0.898658
1413400594548 924 READING 29 0.786613
1413400594594 923 READING 30 0.785411
1413400594633 924 READING 30 0.905932
1413400594758 923 READING 31 0.264524
1413400594877 924 READING 35 0.611291
1413400594950 924 READING 46 0.262712
1413400595082 923 READING 34 0.619910
1413400595153 923 READING 47 0.384525
1413400595263 924 READING 48 0.566018
1413400595280 923 READING 48 0.371230
1413400595374 924 READING 63 0.370776
1413400595506 923 READING 51 0.548360
1413400595613 924 READING 69 0.507572
1413400595633 923 READING 75 0.512424
1413400595693 924 READING 85 0.360249
1413400595818 923 READING 75 0.528379
1413400595831 924 READING 92 0.458127
1413400595926 923 READING 102 0.734493
1413400596009 923 READING 102 0.604994
1413400596113 923 READING 104 0.393845
1413400596199 923 READING 107 0.273810
1413400596242 924 READING 93 0.487330
1413400596354 924 READING 124 0.576298
1413400596649 923 READING 111 0.464091
1413400596789 923 READING 147 0.329363
1413400596797 924 READING 124 0.494522
1413400596897 924 READING 161 0.785033
1413400596901 923 READING 152 0.181232
1413400597009 923 READING 154 0.671131
1413400597013 924 READING 161 0.726223
1413400597130 924 READING 161 0.444371
1413400597131 923 READING 165 0.696216
1413400597243 924 READING 164 0.374508
1413400597564 923 READING 167 0.430171
1413400597711 923 READING 213 0.700127
1413400597747 924 READING 167 0.438872
1413400597827 923 READING 215 0.738997
1413400597862 924 READING 211 0.402022
1413400597946 923 READING 219 0.731644
1413400597968 924 READING 216 0.485883
1413400598514 923 READING 224 0.403445
1413400598670 923 READING 277 0.707510
1413400598772 924 READING 217 0.347827
1413400598859 923 READING 281 0.681168
1413400599040 923 READING 284 0.649894
1413400599234 923 READING 291 0.643497
1413400599404 923 READING 295 0.576157
1413400599593 923 READING 306 0.545925
1413400599644 924 READING 218 0.569696
1413400599746 924 READING 275 0.292455
1413400599917 924 READING 273 0.467172
1413400600049 924 READING 275 0.594371
1413400600346 924 READING 274 0.817072
1413400600363 923 READING 313 0.397905
1413400600481 924 READING 276 0.828457
1413400600497 923 READING 372 0.533819
1413400600614 923 READING 373 0.610714
1413400600645 924 READING 274 0.851530
1413400600739 924 READING 276 0.811564
1413400600898 924 READING 280 0.834262
1413400600997 924 READING 282 0.794498
1413400601096 924 READING 287 0.795583
1413400601273 923 READING 379 0.258096
1413400601429 923 READING 426 0.576361
1413400601559 923 READING 430 0.639921
1413400601630 924 READING 288 0.931334
1413400601697 923 READING 426 0.660442
1413400601725 924 READING 291 0.902229
1413400601849 924 READING 294 0.782551
1413400601861 923 READING 428 0.637373
1413400601954 924 READING 299 0.013867
1413400602024 923 READING 430 0.632917
1413400602049 924 READING 301 0.072620
1413400602201 923 READING 435 0.605397
1413400602254 924 READING 299 0.344982
1413400602396 923 READING 438 0.531510
1413400602470 924 READING 302 0.372402
1413400602585 923 READING 450 0.543627
1413400602597 924 READING 304 0.451404
1413400602701 924 READING 305 0.182878
1413400602742 923 READING 457 0.538668
1413400602803 924 READING 312 0.037028
1413400602909 923 READING 469 0.507138
1413400602909 924 READING 314 0.673726
1413400603014 924 READING 321 0.652119
1413400603145 924 READING 323 0.579911
1413400603800 924 FUNCTION lru lambda h: 1.3013 * (h ** 0.001)
1413400603800 923 FUNCTION lru lambda h: 0.695302 * (h ** 0.001)
1413400603802 924 RECOMMEND 2974
1413400603802 923 RECOMMEND 2974
1413400603889 924 READING 331 0.894817
1413400604340 923 READING 474 0.330557
1413400604586 923 READING 537 0.366480
1413400604798 923 READING 539 0.397897
1413400605553 924 READING 333 0.952182
1413400605750 923 READING 544 0.176286
1413400605923 923 READING 593 0.439251
1413400606066 923 READING 601 0.487515
1413400606218 923 READING 589 0.562801
1413400606377 923 READING 596 0.603108
1413400606562 923 READING 597 0.615706
1413400606727 923 READING 599 0.638100
1413400606925 923 READING 601 0.559535
1413400606990 924 READING 334 0.966393
1413400607131 923 READING 611 0.556434
1413400608275 923 READING 618 0.351768
1413400608394 924 READING 337 0.969554
1413400608734 923 READING 696 0.682550
1413400609333 923 READING 705 0.807179
1413400609606 924 READING 339 0.971867
1413400609874 923 READING 707 0.817496
1413400610405 923 READING 706 0.832302
1413400610618 923 READING 717 0.750305
1413400610850 924 READING 341 0.958527
1413400610882 923 READING 725 0.681441
1413400611365 923 READING 730 0.749682
1413400612446 924 READING 340 0.692173
1413400613393 923 READING 738 0.549650
1413400613731 924 READING 342 0.788420
1413400613802 924 FUNCTION lru lambda h: 0.885486 * (h ** 0.001)
1413400613802 923 FUNCTION lru lambda h: 0.606004 * (h ** 0.001)
1413400613803 924 RECOMMEND 2974
1413400613803 923 RECOMMEND 2974
1413400613943 923 READING 725 0.751577
1413400614467 923 READING 793 0.787243
1413400615032 923 READING 799 0.796234
1413400615032 924 READING 341 0.862012
1413400615478 923 READING 794 0.817567
1413400616322 924 READING 343 0.873742
1413400617229 923 READING 797 0.450615
1413400617401 923 READING 871 0.616160
1413400617524 923 READING 873 0.615332
1413400617524 924 READING 346 0.756346
1413400617752 923 READING 878 0.740812
1413400617882 923 READING 880 0.729444
1413400618745 923 READING 884 0.405612
1413400618973 923 READING 973 0.702205
1413400619091 924 READING 346 0.713579
1413400619156 923 READING 977 0.821215
1413400619286 923 READING 981 0.877420
1413400619686 923 READING 983 0.912745
1413400619813 923 READING 820 0.871657
1413400619947 923 READING 960 0.838244
1413400620083 923 READING 825 0.817464
1413400620227 923 READING 946 0.806802
1413400620346 924 READING 349 0.554648
1413400620383 923 READING 830 0.829690
1413400620534 923 READING 935 0.813370
1413400620686 923 READING 835 0.798418
1413400620846 923 READING 927 0.797445
1413400621002 923 READING 934 0.803362
1413400621166 923 READING 922 0.817416
1413400621333 923 READING 928 0.810619
1413400621630 924 READING 350 0.971755
1413400622653 923 READING 918 0.962365
1413400622809 924 READING 353 0.971612
1413400623249 923 READING 924 0.946148
1413400623448 923 READING 924 0.893549
1413400623634 923 READING 926 0.854247
1413400623803 924 FUNCTION lru lambda h: 0.777924 * (h ** 0.001)
1413400623803 923 FUNCTION lru lambda h: 0.402437 * (h ** 0.067389)
1413400623804 924 RECOMMEND 276
1413400623804 923 RECOMMEND 5672
1413400623833 923 READING 934 0.812773
1413400624024 923 READING 934 0.798122
1413400624226 923 READING 943 0.798648
1413400624428 923 READING 943 0.801519
1413400624603 924 READING 354 0.976553
1413400624644 923 READING 948 0.816340
1413400624862 923 READING 950 0.803898
1413400625245 923 READING 955 0.855936
1413400625308 924 READING 350 0.970234
1413400625452 924 READING 332 0.955502
1413400625558 924 READING 345 0.929606
1413400625673 923 READING 957 0.857749
1413400625675 924 READING 349 0.883763
1413400625779 924 READING 349 0.854776
1413400625893 924 READING 350 0.826676
1413400625893 923 READING 959 0.807202
1413400626137 923 READING 961 0.751504
1413400627376 924 READING 348 0.961105
1413400627858 923 READING 951 0.702465
1413400628137 923 READING 1077 0.567334
1413400628332 923 READING 1081 0.630062
1413400628534 923 READING 1082 0.645470
1413400628746 924 READING 312 0.959510
1413400628752 923 READING 1090 0.652998
1413400628950 923 READING 1092 0.686134
1413400629205 923 READING 1097 0.665006
1413400629454 923 READING 1101 0.662382
1413400629725 923 READING 1109 0.536266
1413400630023 923 READING 1112 0.615900
1413400630119 924 READING 343 0.959974
1413400631943 924 READING 310 0.928183
1413400632246 923 READING 1130 0.916823
1413400633076 924 READING 367 0.976219
1413400633804 924 FUNCTION lru lambda h: 0.594126 * (h ** 0.00842837)
1413400633804 923 FUNCTION lru lambda h: 0.157778 * (h ** 0.2169)
1413400633804 924 RECOMMEND 276
1413400633804 923 RECOMMEND 5672
1413400634008 923 READING 1131 0.481218
1413400634171 924 READING 368 0.983712
1413400635156 924 READING 369 0.986647
1413400635922 923 READING 1150 0.939499
1413400636300 924 READING 315 0.987559
1413400637353 924 READING 366 0.987303
1413400637721 923 READING 1152 0.947595
1413400638359 924 READING 318 0.985888
1413400639522 924 READING 359 0.984865
1413400639704 923 READING 1168 0.951940
1413400640517 924 READING 321 0.982265
1413400641620 923 READING 1173 0.954290
1413400641786 924 READING 350 0.982549
1413400642889 924 READING 323 0.980510
1413400643669 923 READING 1177 0.955850
1413400643804 924 FUNCTION lru lambda h: 0.520032 * (h ** 0.0433336)
1413400643804 923 FUNCTION lru lambda h: 0.0943281 * (h ** 0.296795)
1413400643805 924 RECOMMEND 758
1413400643805 923 RECOMMEND 5190
1413400643847 924 READING 344 0.975976
1413400644867 924 READING 347 0.975224
1413400645665 923 READING 1181 0.956416
1413400645780 924 READING 348 0.971938
1413400647359 924 READING 348 0.980866
1413400647716 923 READING 1184 0.956382
1413400648109 924 READING 346 0.978267
1413400648271 924 READING 348 0.962834
1413400648367 924 READING 345 0.930677
1413400648454 924 READING 350 0.892756
1413400648539 924 READING 356 0.856174
1413400648624 924 READING 360 0.818484
1413400648714 924 READING 367 0.802877
1413400648884 924 READING 369 0.875959
1413400649843 923 READING 1186 0.958943
1413400650139 924 READING 373 0.975684
1413400651335 924 READING 375 0.981944
1413400652036 923 READING 1194 0.954902
1413400652556 924 READING 375 0.982220
1413400653805 924 FUNCTION lru lambda h: 0.482549 * (h ** 0.0624813)
1413400653805 923 FUNCTION lru lambda h: 0.131993 * (h ** 0.248328)
1413400653806 924 RECOMMEND 1196
1413400653806 923 RECOMMEND 4752
1413400653808 924 READING 377 0.983011
1413400654185 923 READING 1196 0.954469
1413400655056 924 READING 375 0.983281
1413400656399 923 READING 1203 0.954496
1413400656541 924 READING 378 0.983409
1413400657713 924 READING 374 0.981806
1413400658583 923 READING 1207 0.954712
1413400659051 924 READING 377 0.982709
1413400660219 924 READING 376 0.981821
1413400660829 923 READING 1215 0.955838
1413400661614 924 READING 377 0.981929
1413400663038 923 READING 1220 0.959443
1413400663088 924 READING 372 0.979743
1413400663806 924 FUNCTION lru lambda h: 0.451288 * (h ** 0.0791312)
1413400663807 923 FUNCTION lru lambda h: 0.0574931 * (h ** 0.373721)
1413400663807 924 RECOMMEND 1039
1413400663807 923 RECOMMEND 4909
1413400664475 924 READING 375 0.978184
1413400665360 923 READING 1228 0.957314
1413400666006 924 READING 376 0.979110
1413400667375 924 READING 376 0.977952
1413400669381 923 READING 1234 0.898291
1413400669418 924 READING 377 0.985114
1413400670200 924 READING 379 0.981443
1413400670350 924 READING 376 0.964971
1413400670464 924 READING 378 0.941878
1413400670576 924 READING 384 0.913405
1413400670689 924 READING 387 0.884656
1413400671159 924 READING 395 0.940571
1413400671576 923 READING 1314 0.972868
1413400672679 924 READING 397 0.978056
1413400673807 924 FUNCTION lru lambda h: 0.429508 * (h ** 0.0911923)
1413400673808 923 FUNCTION lru lambda h: 0.0355252 * (h ** 0.445375)
1413400673809 924 RECOMMEND 1011
1413400673809 923 RECOMMEND 4937
1413400673839 923 READING 1319 0.979051
1413400674257 924 READING 400 0.983004
1413400676043 924 READING 402 0.985520
1413400676155 923 READING 1331 0.981038
1413400677783 924 READING 401 0.986031
1413400678454 923 READING 1336 0.979640
1413400679219 924 READING 403 0.984332
1413400680712 924 READING 401 0.982909
1413400680793 923 READING 1338 0.977209
1413400682206 924 READING 403 0.981646
1413400683197 923 READING 1340 0.975338
1413400683809 924 FUNCTION lru lambda h: 0.411003 * (h ** 0.101747)
1413400683809 923 FUNCTION lru lambda h: 0.0121295 * (h ** 0.60348)
1413400683810 924 RECOMMEND 858
1413400683810 923 RECOMMEND 5090
1413400683901 924 READING 404 0.981834
1413400685607 923 READING 1329 0.973188
1413400685892 924 READING 404 0.974300
1413400687553 924 READING 423 0.988571
1413400688138 923 READING 1248 0.971263
1413400689096 924 READING 424 0.990329
1413400690592 923 READING 1323 0.968684
1413400691296 924 READING 428 0.989514
1413400691526 924 READING 429 0.980966
1413400691656 924 READING 427 0.967553
1413400691786 924 READING 430 0.945864
1413400691922 924 READING 437 0.935098
1413400693108 923 READING 1328 0.967305
1413400693503 924 READING 439 0.980373
1413400693810 924 FUNCTION lru lambda h: 0.377816 * (h ** 0.121358)
1413400693810 923 FUNCTION lru lambda h: 0.0110752 * (h ** 0.617115)
1413400693811 924 RECOMMEND 977
1413400693811 923 RECOMMEND 4971
1413400695598 923 READING 1331 0.963800
1413400695599 924 READING 441 0.982797
1413400697476 924 READING 444 0.986035
1413400698169 923 READING 1332 0.963575
1413400699532 924 READING 442 0.986790
1413400700782 923 READING 1337 0.961561
1413400701366 924 READING 445 0.986166
1413400703371 923 READING 1343 0.958474
1413400703675 924 READING 444 0.987006
1413400703811 924 FUNCTION lru lambda h: 0.36514 * (h ** 0.129169)
1413400703811 923 FUNCTION lru lambda h: 0.00648348 * (h ** 0.69444)
1413400703812 924 RECOMMEND 933
1413400703812 923 RECOMMEND 5015
1413400705435 924 READING 446 0.984971
1413400705960 923 READING 1349 0.955753
1413400707358 924 READING 450 0.984214
1413400708597 923 READING 1358 0.954245
1413400709475 924 READING 450 0.983889
1413400711173 923 READING 1369 0.951778
1413400712077 924 READING 454 0.988991
1413400712992 924 READING 455 0.986471
1413400713158 924 READING 457 0.975639
1413400713315 924 READING 457 0.959797
1413400713761 924 READING 464 0.937872
1413400713812 924 FUNCTION lru lambda h: 0.0957736 * (h ** 0.363415)
1413400713812 923 FUNCTION lru lambda h: 0.00416985 * (h ** 0.75781)
1413400713813 924 RECOMMEND 1928
1413400713813 923 RECOMMEND 4020
1413400713859 923 READING 1377 0.953412
1413400716131 924 READING 466 0.981842
1413400716602 923 READING 1388 0.959082
1413400718374 924 READING 470 0.986565
1413400719378 923 READING 1393 0.958155
1413400720696 924 READING 473 0.987765
1413400722207 923 READING 1403 0.954947
1413400722894 924 READING 472 0.988250
1413400723813 924 FUNCTION lru lambda h: 0.0249727 * (h ** 0.594583)
1413400723813 923 FUNCTION lru lambda h: 0.0050711 * (h ** 0.72945)
1413400723814 924 RECOMMEND 2671
1413400723814 923 RECOMMEND 3277
1413400725286 924 READING 475 0.989081
1413400727572 924 READING 475 0.988250
1413400729817 924 READING 477 0.987065
1413400732311 924 READING 480 0.985517
1413400733814 924 FUNCTION lru lambda h: 0.0118151 * (h ** 0.721907)
1413400733815 923 FUNCTION lru lambda h: 0.0050711 * (h ** 0.72945)
1413400733815 924 RECOMMEND 2959
1413400733815 923 RECOMMEND 2989
1413400733968 924 READING 481 0.985955
1413400734167 924 READING 483 0.977073
1413400734347 924 READING 485 0.963775
1413400735834 924 READING 493 0.981585
1413400738373 924 READING 494 0.984942
1413400739029 923 READING 1406 0.932998
1413400741004 924 READING 499 0.988054
1413400743588 924 READING 501 0.989122
1413400743815 924 FUNCTION lru lambda h: 0.00172038 * (h ** 0.999)
1413400743815 923 FUNCTION lru lambda h: 0.00606665 * (h ** 0.703693)
1413400743816 924 RECOMMEND 3490
1413400743816 923 RECOMMEND 2458
1413400746172 924 READING 501 0.989257
1413400748915 924 READING 503 0.988909
1413400751352 923 READING 1527 0.982253
1413400751365 924 READING 505 0.975530
1413400753816 924 FUNCTION lru lambda h: 0.00273356 * (h ** 0.967826)
1413400753816 923 FUNCTION lru lambda h: 0.0131789 * (h ** 0.592856)
1413400753817 924 RECOMMEND 3689
1413400753817 923 RECOMMEND 2259
1413400754396 924 READING 506 0.985053
1413400754715 924 READING 509 0.980262
1413400754914 924 READING 510 0.970448
1413400756253 923 READING 1576 0.982645
1413400756284 924 READING 517 0.981224
1413400756825 923 READING 1584 0.973481
1413400757195 923 READING 1586 0.949697
1413400757540 923 READING 1604 0.921554
1413400757909 923 READING 1617 0.868067
1413400758277 923 READING 1648 0.827554
1413400758664 923 READING 1653 0.784048
1413400759366 924 READING 519 0.989840
1413400759551 923 READING 1689 0.877265
1413400762449 924 READING 524 0.984922
1413400762500 923 READING 1689 0.950738
1413400763817 924 FUNCTION lru lambda h: 0.00350243 * (h ** 0.92417)
1413400763817 923 FUNCTION lru lambda h: 0.0490683 * (h ** 0.404159)
1413400763818 924 RECOMMEND 4138
1413400763818 923 RECOMMEND 1810
1413400765532 924 READING 525 0.988180
1413400765632 923 READING 1703 0.962336
1413400768301 924 READING 525 0.988421
1413400768734 923 READING 1713 0.966234
1413400771295 924 READING 527 0.988940
1413400772028 923 READING 1714 0.969057
1413400773818 924 FUNCTION lru lambda h: 0.00315338 * (h ** 0.94056)
1413400773818 923 FUNCTION lru lambda h: 0.0427982 * (h ** 0.423096)
1413400773819 924 RECOMMEND 4103
1413400773819 923 RECOMMEND 1845
1413400774105 924 READING 530 0.988246
1413400775355 923 READING 1725 0.967669
1413400776216 924 READING 531 0.987949
1413400776434 924 READING 533 0.980940
1413400777039 924 READING 536 0.977741
1413400778837 923 READING 1719 0.968946
1413400779928 924 READING 544 0.988828
1413400782341 923 READING 1730 0.967844
1413400782980 924 READING 545 0.990618
1413400783819 924 FUNCTION lru lambda h: 0.0447211 * (h ** 0.503412)
1413400783819 923 FUNCTION lru lambda h: 0.0360543 * (h ** 0.446803)
1413400783820 924 RECOMMEND 3151
1413400783820 923 RECOMMEND 2797
1413400786097 923 READING 1733 0.970224
1413400786165 924 READING 546 0.991258
1413400789227 924 READING 548 0.990940
1413400789864 923 READING 1738 0.971094
1413400792215 924 READING 548 0.989863
1413400793755 923 READING 1735 0.970284
1413400793820 924 FUNCTION lru lambda h: 0.185105 * (h ** 0.270801)
1413400793820 923 FUNCTION lru lambda h: 0.0408475 * (h ** 0.429085)
1413400793821 924 RECOMMEND 2301
1413400793821 923 RECOMMEND 3647
1413400795821 924 READING 550 0.991942
1413400796626 924 READING 550 0.988317
1413400796859 924 READING 552 0.980187
1413400797685 923 READING 1743 0.970230
1413400798782 924 READING 557 0.985716
1413400801709 923 READING 1729 0.971746
1413400802212 924 READING 559 0.990409
1413400803821 924 FUNCTION lru lambda h: 0.220105 * (h ** 0.242104)
1413400803821 923 FUNCTION lru lambda h: 0.0369182 * (h ** 0.442943)
1413400803822 924 RECOMMEND 2102
1413400803822 923 RECOMMEND 3846
1413400805318 924 READING 562 0.990724
1413400805774 923 READING 1739 0.968334
1413400808614 924 READING 564 0.990710
1413400809877 923 READING 1748 0.966208
1413400811888 924 READING 563 0.990192
1413400813822 924 FUNCTION lru lambda h: 0.243519 * (h ** 0.225477)
1413400813822 923 FUNCTION lru lambda h: 0.0550187 * (h ** 0.387524)
1413400813823 924 RECOMMEND 2188
1413400813823 923 RECOMMEND 3760
1413400813979 923 READING 1749 0.964090
1413400815244 924 READING 565 0.988655
1413400816590 924 READING 564 0.986821
1413400816835 924 READING 569 0.978977
1413400818179 923 READING 1760 0.962048
1413400818859 924 READING 574 0.985529
1413400822057 924 READING 576 0.989385
1413400823558 923 READING 1767 0.949829
1413400823823 924 FUNCTION lru lambda h: 0.264204 * (h ** 0.211869)
1413400823823 923 FUNCTION lru lambda h: 0.0666102 * (h ** 0.3609)
1413400823824 924 RECOMMEND 2200
1413400823824 923 RECOMMEND 3748
1413400825450 924 READING 578 0.989397
1413400827604 923 READING 1739 0.976694
1413400829069 924 READING 580 0.990411
1413400831802 923 READING 1745 0.982688
1413400832395 924 READING 580 0.989610
1413400833824 924 FUNCTION lru lambda h: 0.282295 * (h ** 0.201062)
1413400833824 923 FUNCTION lru lambda h: 0.0907972 * (h ** 0.318331)
1413400833825 924 RECOMMEND 2303
1413400833825 923 RECOMMEND 3645
1413400836129 923 READING 1769 0.983733
1413400836528 924 READING 582 0.990853
1413400837011 924 READING 584 0.986760
1413400837268 924 READING 585 0.981052
1413400840485 923 READING 1775 0.983469
1413400840732 924 READING 594 0.989175
1413400843825 924 FUNCTION lru lambda h: 0.441056 * (h ** 0.128689)
1413400843825 923 FUNCTION lru lambda h: 0.0951562 * (h ** 0.311953)
1413400843826 924 RECOMMEND 1737
1413400843826 923 RECOMMEND 4211
1413400844529 924 READING 594 0.990849
1413400844938 923 READING 1777 0.985037
1413400848460 924 READING 596 0.991730
1413400849453 923 READING 1783 0.982851
1413400852011 924 READING 598 0.990934
1413400853827 924 FUNCTION lru lambda h: 0.415834 * (h ** 0.138078)
1413400853827 923 FUNCTION lru lambda h: 0.0890128 * (h ** 0.321035)
1413400853827 924 RECOMMEND 1789
1413400853827 923 RECOMMEND 4159
1413400854061 923 READING 1765 0.979385
1413400855438 924 READING 598 0.990071
1413400857652 924 READING 600 0.989465
1413400857921 924 READING 603 0.984439
1413400860728 924 READING 605 0.989421
1413400863827 924 FUNCTION lru lambda h: 0.434446 * (h ** 0.130866)
1413400863828 923 FUNCTION lru lambda h: 0.0823093 * (h ** 0.331793)
1413400863829 924 RECOMMEND 1682
1413400863829 923 RECOMMEND 4266
1413400864670 924 READING 612 0.992094
1413400868765 924 READING 613 0.992216
1413400872484 924 READING 614 0.991548
1413400873829 924 FUNCTION lru lambda h: 0.484081 * (h ** 0.113374)
1413400873829 923 FUNCTION lru lambda h: 0.0823093 * (h ** 0.331793)
1413400873830 924 RECOMMEND 1515
1413400873830 923 RECOMMEND 4433
1413400876159 924 READING 616 0.990373
1413400878086 924 READING 618 0.989613
1413400878368 924 READING 619 0.986198
1413400878411 924 DEATH 220
1413400881043 923 READING 1776 0.994584
1413400883830 923 FUNCTION lru lambda h: 0.0805641 * (h ** 0.334739)
1413400883830 923 RECOMMEND 5948
1413400888874 923 READING 1750 0.992853
1413400889531 923 READING 1763 0.984918
1413400890043 923 READING 1746 0.973863
1413400890572 923 READING 1784 0.953213
1413400890978 923 DEATH 198
