Using scaled threading model. 4 processors detected, 2 threads used to drive the workload, in a possible range of [1,1000]
===== DaCapo 9.12 xalan starting warmup 1 =====
Normal completion.
===== DaCapo 9.12 xalan completed warmup 1 in 18413 msec =====
===== DaCapo 9.12 xalan starting warmup 2 =====
Normal completion.
===== DaCapo 9.12 xalan completed warmup 2 in 12462 msec =====
===== DaCapo 9.12 xalan starting warmup 3 =====
Normal completion.
===== DaCapo 9.12 xalan completed warmup 3 in 12970 msec =====
===== DaCapo 9.12 xalan starting warmup 4 =====
Normal completion.
===== DaCapo 9.12 xalan completed warmup 4 in 10637 msec =====
===== DaCapo 9.12 xalan starting warmup 5 =====
Normal completion.
===== DaCapo 9.12 xalan completed warmup 5 in 10891 msec =====
===== DaCapo 9.12 xalan starting warmup 6 =====
Normal completion.
===== DaCapo 9.12 xalan completed warmup 6 in 10474 msec =====
===== DaCapo 9.12 xalan starting warmup 7 =====
Normal completion.
===== DaCapo 9.12 xalan completed warmup 7 in 10481 msec =====
===== DaCapo 9.12 xalan starting warmup 8 =====
Normal completion.
===== DaCapo 9.12 xalan completed warmup 8 in 11272 msec =====
===== DaCapo 9.12 xalan starting warmup 9 =====
Normal completion.
===== DaCapo 9.12 xalan completed warmup 9 in 10386 msec =====
===== DaCapo 9.12 xalan starting warmup 10 =====
Normal completion.
===== DaCapo 9.12 xalan completed warmup 10 in 11120 msec =====
===== DaCapo 9.12 xalan starting warmup 11 =====
Normal completion.
===== DaCapo 9.12 xalan completed warmup 11 in 10486 msec =====
===== DaCapo 9.12 xalan starting warmup 12 =====
Normal completion.
===== DaCapo 9.12 xalan completed warmup 12 in 10438 msec =====
===== DaCapo 9.12 xalan starting warmup 13 =====
Normal completion.
===== DaCapo 9.12 xalan completed warmup 13 in 10456 msec =====
===== DaCapo 9.12 xalan starting warmup 14 =====
Normal completion.
===== DaCapo 9.12 xalan completed warmup 14 in 10547 msec =====
===== DaCapo 9.12 xalan starting warmup 15 =====
Normal completion.
===== DaCapo 9.12 xalan completed warmup 15 in 10482 msec =====
===== DaCapo 9.12 xalan starting warmup 16 =====
Normal completion.
===== DaCapo 9.12 xalan completed warmup 16 in 10562 msec =====
===== DaCapo 9.12 xalan starting warmup 17 =====
Normal completion.
===== DaCapo 9.12 xalan completed warmup 17 in 10394 msec =====
===== DaCapo 9.12 xalan starting warmup 18 =====
Normal completion.
===== DaCapo 9.12 xalan completed warmup 18 in 10137 msec =====
===== DaCapo 9.12 xalan starting warmup 19 =====
Normal completion.
===== DaCapo 9.12 xalan completed warmup 19 in 11255 msec =====
===== DaCapo 9.12 xalan starting warmup 20 =====
Normal completion.
===== DaCapo 9.12 xalan completed warmup 20 in 10302 msec =====
===== DaCapo 9.12 xalan starting warmup 21 =====
Normal completion.
===== DaCapo 9.12 xalan completed warmup 21 in 11071 msec =====
===== DaCapo 9.12 xalan starting warmup 22 =====
Normal completion.
===== DaCapo 9.12 xalan completed warmup 22 in 10529 msec =====
===== DaCapo 9.12 xalan starting warmup 23 =====
Normal completion.
===== DaCapo 9.12 xalan completed warmup 23 in 10668 msec =====
===== DaCapo 9.12 xalan starting warmup 24 =====
Normal completion.
===== DaCapo 9.12 xalan completed warmup 24 in 10950 msec =====
===== DaCapo 9.12 xalan starting warmup 25 =====
Normal completion.
===== DaCapo 9.12 xalan completed warmup 25 in 10542 msec =====
===== DaCapo 9.12 xalan starting warmup 26 =====
Normal completion.
===== DaCapo 9.12 xalan completed warmup 26 in 11473 msec =====
===== DaCapo 9.12 xalan starting =====
Normal completion.
===== DaCapo 9.12 xalan PASSED in 10774 msec =====
