MemTotal:       16318588 kB
MemFree:        15248376 kB
Buffers:          138400 kB
Cached:           683292 kB
SwapCached:            0 kB
Active:           420564 kB
Inactive:         461772 kB
Active(anon):      61448 kB
Inactive(anon):      748 kB
Active(file):     359116 kB
Inactive(file):   461024 kB
Unevictable:           0 kB
Mlocked:               0 kB
SwapTotal:      16728060 kB
SwapFree:       16728060 kB
Dirty:                 0 kB
Writeback:             0 kB
AnonPages:         60664 kB
Mapped:            17124 kB
Shmem:              1552 kB
Slab:              60528 kB
SReclaimable:      43404 kB
SUnreclaim:        17124 kB
KernelStack:        1584 kB
PageTables:         3096 kB
NFS_Unstable:          0 kB
Bounce:                0 kB
WritebackTmp:          0 kB
CommitLimit:    24887352 kB
Committed_AS:     234132 kB
VmallocTotal:   34359738367 kB
VmallocUsed:      370636 kB
VmallocChunk:   34359363072 kB
HardwareCorrupted:     0 kB
AnonHugePages:     40960 kB
HugePages_Total:       0
HugePages_Free:        0
HugePages_Rsvd:        0
HugePages_Surp:        0
Hugepagesize:       2048 kB
DirectMap4k:       68544 kB
DirectMap2M:    16592896 kB
