MemTotal:       16388228 kB
MemFree:        14165196 kB
Buffers:          580000 kB
Cached:          1022712 kB
SwapCached:            0 kB
Active:          1062908 kB
Inactive:         710680 kB
Active(anon):     171636 kB
Inactive(anon):    24628 kB
Active(file):     891272 kB
Inactive(file):   686052 kB
Unevictable:           0 kB
Mlocked:               0 kB
SwapTotal:      16728060 kB
SwapFree:       16728060 kB
Dirty:                 0 kB
Writeback:             0 kB
AnonPages:        170708 kB
Mapped:            93928 kB
Shmem:             25528 kB
Slab:             302976 kB
SReclaimable:     280592 kB
SUnreclaim:        22384 kB
KernelStack:        2208 kB
PageTables:         7676 kB
NFS_Unstable:          0 kB
Bounce:                0 kB
WritebackTmp:          0 kB
CommitLimit:    24922172 kB
Committed_AS:     520784 kB
VmallocTotal:   34359738367 kB
VmallocUsed:      114404 kB
VmallocChunk:   34359564312 kB
HardwareCorrupted:     0 kB
AnonHugePages:    143360 kB
HugePages_Total:       0
HugePages_Free:        0
HugePages_Rsvd:        0
HugePages_Surp:        0
Hugepagesize:       2048 kB
DirectMap4k:       72644 kB
DirectMap2M:    16658432 kB
