economemd
    total memory: 864 MB
    timer interval: 10 s
    timer start state: running
    utility model: root

    caches:
        lru

    force utility function validity: yes
    make recommendations: yes
    equal recommendations: no

    reading receiver name: vengerov
    command receiver name: vengerov

    dump file: economemd.dump.log
    log file: /home/callum/economics_memory_code/dynamic_sizing/data/output/timerComparisonMany_2014_10_07_10_29_12/sub36_timerComparisonSingle/sub3_timeBenchmarkDaemon/daemon_run09_log.txt
    log readings: yes
    log functions: yes

PyOptimiser: initialising...
PyOptimiser: initialised
ReadingThread: starting
TimerThread: starting
CommandThread: starting
Recommendation: no clients; no recommendation
Recommendation: no clients; no recommendation
Reading from 19793: heap size 9 MB, throughput 0.982215
Clients: 1
Client 19793 has a minimum heap size of 12 MB
Reading from 19792: heap size 9 MB, throughput 0.99148
Clients: 2
Client 19792 has a minimum heap size of 276 MB
Reading from 19793: heap size 9 MB, throughput 0.982771
Reading from 19792: heap size 9 MB, throughput 0.988891
Reading from 19792: heap size 9 MB, throughput 0.984202
Reading from 19793: heap size 11 MB, throughput 0.983337
Reading from 19792: heap size 9 MB, throughput 0.978607
Reading from 19793: heap size 11 MB, throughput 0.967529
Reading from 19792: heap size 11 MB, throughput 0.961519
Reading from 19792: heap size 11 MB, throughput 0.970925
Reading from 19793: heap size 15 MB, throughput 0.977231
Reading from 19792: heap size 17 MB, throughput 0.941664
Reading from 19793: heap size 15 MB, throughput 0.954211
Reading from 19792: heap size 17 MB, throughput 0.904734
Reading from 19792: heap size 30 MB, throughput 0.842562
Reading from 19792: heap size 31 MB, throughput 0.490138
Reading from 19792: heap size 34 MB, throughput 0.668387
Reading from 19793: heap size 24 MB, throughput 0.941289
Reading from 19792: heap size 46 MB, throughput 0.502331
Reading from 19792: heap size 47 MB, throughput 0.535448
Reading from 19792: heap size 50 MB, throughput 0.613663
Reading from 19793: heap size 30 MB, throughput 0.950816
Reading from 19792: heap size 72 MB, throughput 0.561517
Reading from 19792: heap size 72 MB, throughput 0.418187
Reading from 19793: heap size 37 MB, throughput 0.894057
Reading from 19792: heap size 97 MB, throughput 0.721028
Reading from 19792: heap size 98 MB, throughput 0.659329
Reading from 19792: heap size 100 MB, throughput 0.434986
Reading from 19792: heap size 102 MB, throughput 0.317579
Reading from 19793: heap size 43 MB, throughput 0.94121
Reading from 19793: heap size 44 MB, throughput 0.989011
Reading from 19792: heap size 105 MB, throughput 0.420044
Reading from 19793: heap size 45 MB, throughput 0.969225
Reading from 19792: heap size 135 MB, throughput 0.156891
Reading from 19793: heap size 51 MB, throughput 0.968634
Reading from 19792: heap size 141 MB, throughput 0.250441
Reading from 19792: heap size 142 MB, throughput 0.0602294
Reading from 19793: heap size 51 MB, throughput 0.946978
Reading from 19793: heap size 60 MB, throughput 0.964666
Reading from 19793: heap size 60 MB, throughput 0.966118
Reading from 19792: heap size 146 MB, throughput 0.312682
Reading from 19793: heap size 72 MB, throughput 0.958507
Reading from 19792: heap size 183 MB, throughput 0.0450627
Reading from 19793: heap size 75 MB, throughput 0.914226
Reading from 19792: heap size 188 MB, throughput 0.706215
Reading from 19792: heap size 190 MB, throughput 0.754326
Reading from 19793: heap size 87 MB, throughput 0.969386
Reading from 19792: heap size 198 MB, throughput 0.853038
Reading from 19793: heap size 87 MB, throughput 0.989049
Reading from 19792: heap size 201 MB, throughput 0.615975
Reading from 19792: heap size 240 MB, throughput 0.84953
Reading from 19792: heap size 249 MB, throughput 0.826289
Reading from 19793: heap size 97 MB, throughput 0.99343
Reading from 19792: heap size 249 MB, throughput 0.82134
Reading from 19792: heap size 250 MB, throughput 0.837185
Reading from 19792: heap size 252 MB, throughput 0.809317
Reading from 19792: heap size 253 MB, throughput 0.873402
Reading from 19792: heap size 256 MB, throughput 0.87485
Reading from 19793: heap size 98 MB, throughput 0.994335
Reading from 19792: heap size 256 MB, throughput 0.822652
Reading from 19792: heap size 261 MB, throughput 0.821566
Reading from 19792: heap size 264 MB, throughput 0.788614
Reading from 19792: heap size 270 MB, throughput 0.784584
Reading from 19793: heap size 107 MB, throughput 0.995552
Reading from 19792: heap size 271 MB, throughput 0.915163
Reading from 19792: heap size 274 MB, throughput 0.879773
Reading from 19793: heap size 108 MB, throughput 0.995656
Reading from 19792: heap size 277 MB, throughput 0.708807
Reading from 19792: heap size 317 MB, throughput 0.758734
Reading from 19792: heap size 320 MB, throughput 0.787424
Reading from 19792: heap size 327 MB, throughput 0.830443
Reading from 19792: heap size 327 MB, throughput 0.842194
Reading from 19792: heap size 329 MB, throughput 0.818685
Reading from 19793: heap size 115 MB, throughput 0.99619
Reading from 19792: heap size 330 MB, throughput 0.792457
Reading from 19792: heap size 336 MB, throughput 0.774324
Reading from 19792: heap size 336 MB, throughput 0.71444
Reading from 19792: heap size 343 MB, throughput 0.699721
Reading from 19792: heap size 343 MB, throughput 0.743896
Numeric result:
Recommendation: 2 clients, utility 0.580518:
    h1: 476.06 MB (U(h) = 0.932705*h^0.00907404)
    h2: 387.94 MB (U(h) = 0.563162*h^0.0073939)
Recommendation: 2 clients, utility 0.580518:
    h1: 476.075 MB (U(h) = 0.932705*h^0.00907404)
    h2: 387.925 MB (U(h) = 0.563162*h^0.0073939)
Reading from 19793: heap size 116 MB, throughput 0.996486
Reading from 19793: heap size 121 MB, throughput 0.99698
Reading from 19792: heap size 351 MB, throughput 0.964812
Reading from 19793: heap size 122 MB, throughput 0.997234
Reading from 19793: heap size 125 MB, throughput 0.99749
Reading from 19792: heap size 352 MB, throughput 0.964092
Reading from 19793: heap size 126 MB, throughput 0.997138
Reading from 19793: heap size 129 MB, throughput 0.996659
Reading from 19792: heap size 353 MB, throughput 0.970344
Reading from 19793: heap size 129 MB, throughput 0.996991
Reading from 19793: heap size 131 MB, throughput 0.994275
Reading from 19792: heap size 356 MB, throughput 0.978304
Reading from 19793: heap size 132 MB, throughput 0.992492
Reading from 19793: heap size 135 MB, throughput 0.99437
Reading from 19792: heap size 356 MB, throughput 0.979898
Reading from 19793: heap size 135 MB, throughput 0.995869
Reading from 19793: heap size 138 MB, throughput 0.996836
Reading from 19792: heap size 359 MB, throughput 0.977864
Numeric result:
Recommendation: 2 clients, utility 0.66827:
    h1: 198.128 MB (U(h) = 0.908367*h^0.0171657)
    h2: 665.872 MB (U(h) = 0.46172*h^0.0576906)
Recommendation: 2 clients, utility 0.66827:
    h1: 198.128 MB (U(h) = 0.908367*h^0.0171657)
    h2: 665.872 MB (U(h) = 0.46172*h^0.0576906)
Reading from 19793: heap size 138 MB, throughput 0.997221
Reading from 19793: heap size 140 MB, throughput 0.997727
Reading from 19792: heap size 356 MB, throughput 0.979547
Reading from 19793: heap size 140 MB, throughput 0.997661
Reading from 19793: heap size 143 MB, throughput 0.997569
Reading from 19792: heap size 359 MB, throughput 0.980658
Reading from 19793: heap size 143 MB, throughput 0.996472
Reading from 19793: heap size 144 MB, throughput 0.994784
Reading from 19793: heap size 145 MB, throughput 0.990149
Reading from 19792: heap size 359 MB, throughput 0.971386
Reading from 19793: heap size 148 MB, throughput 0.993388
Reading from 19792: heap size 360 MB, throughput 0.976578
Reading from 19793: heap size 149 MB, throughput 0.994394
Reading from 19793: heap size 153 MB, throughput 0.995396
Reading from 19792: heap size 362 MB, throughput 0.979135
Reading from 19793: heap size 153 MB, throughput 0.995684
Reading from 19793: heap size 157 MB, throughput 0.996244
Reading from 19792: heap size 364 MB, throughput 0.978771
Numeric result:
Recommendation: 2 clients, utility 0.709561:
    h1: 161.056 MB (U(h) = 0.904541*h^0.0183954)
    h2: 702.944 MB (U(h) = 0.422055*h^0.0802951)
Recommendation: 2 clients, utility 0.709561:
    h1: 161.045 MB (U(h) = 0.904541*h^0.0183954)
    h2: 702.955 MB (U(h) = 0.422055*h^0.0802951)
Reading from 19793: heap size 157 MB, throughput 0.996432
Reading from 19793: heap size 160 MB, throughput 0.996911
Reading from 19792: heap size 366 MB, throughput 0.98022
Reading from 19793: heap size 160 MB, throughput 0.997054
Reading from 19793: heap size 163 MB, throughput 0.997043
Reading from 19792: heap size 368 MB, throughput 0.985198
Reading from 19793: heap size 155 MB, throughput 0.997128
Reading from 19792: heap size 367 MB, throughput 0.980956
Reading from 19792: heap size 369 MB, throughput 0.967073
Reading from 19793: heap size 158 MB, throughput 0.996675
Reading from 19792: heap size 364 MB, throughput 0.947407
Reading from 19792: heap size 409 MB, throughput 0.907019
Reading from 19792: heap size 415 MB, throughput 0.906078
Reading from 19793: heap size 160 MB, throughput 0.996588
Reading from 19793: heap size 163 MB, throughput 0.986249
Reading from 19792: heap size 417 MB, throughput 0.981754
Reading from 19793: heap size 154 MB, throughput 0.988284
Reading from 19792: heap size 422 MB, throughput 0.986737
Reading from 19793: heap size 158 MB, throughput 0.983917
Numeric result:
Recommendation: 2 clients, utility 0.788866:
    h1: 113.156 MB (U(h) = 0.904532*h^0.0183981)
    h2: 750.844 MB (U(h) = 0.356244*h^0.12208)
Recommendation: 2 clients, utility 0.788866:
    h1: 113.156 MB (U(h) = 0.904532*h^0.0183981)
    h2: 750.844 MB (U(h) = 0.356244*h^0.12208)
Reading from 19793: heap size 160 MB, throughput 0.990679
Reading from 19792: heap size 423 MB, throughput 0.98857
Reading from 19793: heap size 147 MB, throughput 0.994436
Reading from 19793: heap size 144 MB, throughput 0.993668
Reading from 19793: heap size 136 MB, throughput 0.99244
Reading from 19793: heap size 130 MB, throughput 0.992881
Reading from 19792: heap size 421 MB, throughput 0.988542
Reading from 19793: heap size 125 MB, throughput 0.994634
Reading from 19793: heap size 119 MB, throughput 0.995814
Reading from 19792: heap size 424 MB, throughput 0.988212
Reading from 19793: heap size 114 MB, throughput 0.995372
Reading from 19793: heap size 110 MB, throughput 0.995666
Reading from 19793: heap size 113 MB, throughput 0.995701
Reading from 19792: heap size 419 MB, throughput 0.986952
Reading from 19793: heap size 115 MB, throughput 0.995115
Reading from 19793: heap size 111 MB, throughput 0.995016
Reading from 19793: heap size 114 MB, throughput 0.995123
Reading from 19792: heap size 422 MB, throughput 0.986998
Reading from 19793: heap size 110 MB, throughput 0.995572
Reading from 19793: heap size 112 MB, throughput 0.995948
Numeric result:
Recommendation: 2 clients, utility 0.823337:
    h1: 103.542 MB (U(h) = 0.903436*h^0.0189134)
    h2: 760.458 MB (U(h) = 0.332181*h^0.138904)
Recommendation: 2 clients, utility 0.823337:
    h1: 103.544 MB (U(h) = 0.903436*h^0.0189134)
    h2: 760.456 MB (U(h) = 0.332181*h^0.138904)
Reading from 19793: heap size 115 MB, throughput 0.99607
Reading from 19792: heap size 423 MB, throughput 0.984294
Reading from 19793: heap size 110 MB, throughput 0.995749
Reading from 19793: heap size 106 MB, throughput 0.984377
Reading from 19793: heap size 102 MB, throughput 0.995165
Reading from 19792: heap size 424 MB, throughput 0.984099
Reading from 19793: heap size 107 MB, throughput 0.990555
Reading from 19793: heap size 103 MB, throughput 0.994085
Reading from 19793: heap size 105 MB, throughput 0.99608
Reading from 19792: heap size 426 MB, throughput 0.983365
Reading from 19793: heap size 105 MB, throughput 0.996981
Reading from 19793: heap size 99 MB, throughput 0.997298
Reading from 19793: heap size 104 MB, throughput 0.997585
Reading from 19792: heap size 428 MB, throughput 0.981292
Reading from 19793: heap size 98 MB, throughput 0.997586
Reading from 19793: heap size 103 MB, throughput 0.997716
Reading from 19793: heap size 102 MB, throughput 0.997931
Reading from 19793: heap size 107 MB, throughput 0.997884
Reading from 19792: heap size 429 MB, throughput 0.980607
Reading from 19792: heap size 433 MB, throughput 0.974982
Reading from 19793: heap size 100 MB, throughput 0.997994
Reading from 19792: heap size 431 MB, throughput 0.960425
Reading from 19792: heap size 434 MB, throughput 0.936272
Reading from 19792: heap size 440 MB, throughput 0.913261
Reading from 19793: heap size 105 MB, throughput 0.997976
Reading from 19793: heap size 99 MB, throughput 0.995789
Numeric result:
Recommendation: 2 clients, utility 0.864758:
    h1: 93.2835 MB (U(h) = 0.903388*h^0.0191747)
    h2: 770.717 MB (U(h) = 0.306135*h^0.158419)
Recommendation: 2 clients, utility 0.864758:
    h1: 93.2859 MB (U(h) = 0.903388*h^0.0191747)
    h2: 770.714 MB (U(h) = 0.306135*h^0.158419)
Reading from 19793: heap size 105 MB, throughput 0.993772
Reading from 19793: heap size 101 MB, throughput 0.992163
Reading from 19792: heap size 442 MB, throughput 0.970372
Reading from 19793: heap size 98 MB, throughput 0.976869
Reading from 19793: heap size 95 MB, throughput 0.984648
Reading from 19793: heap size 92 MB, throughput 0.991054
Reading from 19793: heap size 96 MB, throughput 0.993707
Reading from 19792: heap size 450 MB, throughput 0.985875
Reading from 19793: heap size 93 MB, throughput 0.994464
Reading from 19793: heap size 98 MB, throughput 0.995164
Reading from 19793: heap size 92 MB, throughput 0.995443
Reading from 19793: heap size 94 MB, throughput 0.995623
Reading from 19792: heap size 450 MB, throughput 0.988348
Reading from 19793: heap size 91 MB, throughput 0.995853
Reading from 19793: heap size 93 MB, throughput 0.995714
Reading from 19793: heap size 93 MB, throughput 0.995109
Reading from 19793: heap size 89 MB, throughput 0.993973
Reading from 19792: heap size 450 MB, throughput 0.987996
Reading from 19793: heap size 92 MB, throughput 0.980592
Reading from 19793: heap size 94 MB, throughput 0.980672
Reading from 19793: heap size 89 MB, throughput 0.980218
Reading from 19793: heap size 91 MB, throughput 0.982509
Reading from 19792: heap size 450 MB, throughput 0.989046
Reading from 19793: heap size 91 MB, throughput 0.989218
Reading from 19793: heap size 94 MB, throughput 0.992599
Reading from 19793: heap size 88 MB, throughput 0.995114
Numeric result:
Recommendation: 2 clients, utility 0.875731:
    h1: 90.6816 MB (U(h) = 0.903973*h^0.0191598)
    h2: 773.318 MB (U(h) = 0.299751*h^0.163397)
Recommendation: 2 clients, utility 0.875731:
    h1: 90.6788 MB (U(h) = 0.903973*h^0.0191598)
    h2: 773.321 MB (U(h) = 0.299751*h^0.163397)
Reading from 19793: heap size 91 MB, throughput 0.995797
Reading from 19793: heap size 85 MB, throughput 0.995874
Reading from 19792: heap size 447 MB, throughput 0.989171
Reading from 19793: heap size 89 MB, throughput 0.996611
Reading from 19793: heap size 89 MB, throughput 0.996342
Reading from 19793: heap size 90 MB, throughput 0.996467
Reading from 19793: heap size 90 MB, throughput 0.996894
Reading from 19792: heap size 450 MB, throughput 0.988763
Reading from 19793: heap size 92 MB, throughput 0.997279
Reading from 19793: heap size 87 MB, throughput 0.99664
Reading from 19793: heap size 90 MB, throughput 0.996717
Reading from 19793: heap size 90 MB, throughput 0.997092
Reading from 19792: heap size 446 MB, throughput 0.988227
Reading from 19793: heap size 92 MB, throughput 0.997303
Reading from 19793: heap size 87 MB, throughput 0.996953
Reading from 19793: heap size 90 MB, throughput 0.996542
Reading from 19793: heap size 90 MB, throughput 0.996354
Reading from 19793: heap size 92 MB, throughput 0.990505
Reading from 19792: heap size 449 MB, throughput 0.987933
Reading from 19793: heap size 88 MB, throughput 0.992024
Reading from 19793: heap size 90 MB, throughput 0.989668
Reading from 19793: heap size 91 MB, throughput 0.988135
Reading from 19793: heap size 95 MB, throughput 0.981081
Reading from 19793: heap size 92 MB, throughput 0.952964
Reading from 19793: heap size 89 MB, throughput 0.978038
Reading from 19792: heap size 446 MB, throughput 0.986871
Reading from 19793: heap size 93 MB, throughput 0.988264
Reading from 19793: heap size 89 MB, throughput 0.992299
Numeric result:
Recommendation: 2 clients, utility 0.890806:
    h1: 87.0125 MB (U(h) = 0.904501*h^0.0190785)
    h2: 776.988 MB (U(h) = 0.291026*h^0.170369)
Recommendation: 2 clients, utility 0.890806:
    h1: 87.0097 MB (U(h) = 0.904501*h^0.0190785)
    h2: 776.99 MB (U(h) = 0.291026*h^0.170369)
Reading from 19793: heap size 95 MB, throughput 0.994109
Reading from 19793: heap size 90 MB, throughput 0.994908
Reading from 19792: heap size 448 MB, throughput 0.990115
Reading from 19793: heap size 88 MB, throughput 0.994999
Reading from 19792: heap size 449 MB, throughput 0.984617
Reading from 19792: heap size 449 MB, throughput 0.973758
Reading from 19793: heap size 85 MB, throughput 0.995362
Reading from 19792: heap size 454 MB, throughput 0.956731
Reading from 19793: heap size 90 MB, throughput 0.991927
Reading from 19793: heap size 86 MB, throughput 0.99381
Reading from 19793: heap size 89 MB, throughput 0.99466
Reading from 19792: heap size 454 MB, throughput 0.984085
Reading from 19793: heap size 85 MB, throughput 0.985988
Reading from 19793: heap size 89 MB, throughput 0.984564
Reading from 19793: heap size 84 MB, throughput 0.98225
Reading from 19793: heap size 87 MB, throughput 0.984053
Reading from 19793: heap size 82 MB, throughput 0.985048
Reading from 19792: heap size 461 MB, throughput 0.988801
Reading from 19793: heap size 86 MB, throughput 0.989825
Reading from 19793: heap size 88 MB, throughput 0.992939
Reading from 19793: heap size 82 MB, throughput 0.995084
Reading from 19793: heap size 85 MB, throughput 0.996097
Reading from 19792: heap size 462 MB, throughput 0.989596
Reading from 19793: heap size 85 MB, throughput 0.996791
Reading from 19793: heap size 87 MB, throughput 0.996183
Reading from 19793: heap size 87 MB, throughput 0.996666
Reading from 19793: heap size 87 MB, throughput 0.996929
Reading from 19793: heap size 83 MB, throughput 0.996935
Reading from 19793: heap size 87 MB, throughput 0.996974
Reading from 19792: heap size 463 MB, throughput 0.988736
Numeric result:
Recommendation: 2 clients, utility 0.911843:
    h1: 82.4643 MB (U(h) = 0.905271*h^0.018988)
    h2: 781.536 MB (U(h) = 0.279355*h^0.179955)
Recommendation: 2 clients, utility 0.911843:
    h1: 82.4643 MB (U(h) = 0.905271*h^0.018988)
    h2: 781.536 MB (U(h) = 0.279355*h^0.179955)
Reading from 19793: heap size 87 MB, throughput 0.997073
Reading from 19793: heap size 82 MB, throughput 0.997014
Reading from 19793: heap size 86 MB, throughput 0.997063
Reading from 19793: heap size 81 MB, throughput 0.997239
Reading from 19793: heap size 85 MB, throughput 0.997217
Reading from 19793: heap size 80 MB, throughput 0.99691
Reading from 19792: heap size 464 MB, throughput 0.990758
Reading from 19793: heap size 83 MB, throughput 0.996724
Reading from 19793: heap size 79 MB, throughput 0.996073
Reading from 19793: heap size 82 MB, throughput 0.996175
Reading from 19793: heap size 79 MB, throughput 0.996549
Reading from 19793: heap size 81 MB, throughput 0.996554
Reading from 19793: heap size 81 MB, throughput 0.992216
Reading from 19793: heap size 82 MB, throughput 0.987875
Reading from 19792: heap size 463 MB, throughput 0.988043
Reading from 19793: heap size 85 MB, throughput 0.987083
Reading from 19793: heap size 83 MB, throughput 0.994479
Reading from 19793: heap size 80 MB, throughput 0.982682
Reading from 19793: heap size 83 MB, throughput 0.991962
Reading from 19793: heap size 79 MB, throughput 0.994396
Reading from 19793: heap size 86 MB, throughput 0.995655
Reading from 19793: heap size 81 MB, throughput 0.995464
Reading from 19793: heap size 84 MB, throughput 0.996182
Reading from 19792: heap size 464 MB, throughput 0.989674
Reading from 19793: heap size 80 MB, throughput 0.996463
Reading from 19793: heap size 85 MB, throughput 0.996284
Reading from 19793: heap size 81 MB, throughput 0.996354
Reading from 19793: heap size 84 MB, throughput 0.996346
Reading from 19793: heap size 80 MB, throughput 0.99567
Numeric result:
Recommendation: 2 clients, utility 0.916223:
    h1: 80.8883 MB (U(h) = 0.906708*h^0.0187697)
    h2: 783.112 MB (U(h) = 0.277255*h^0.181712)
Recommendation: 2 clients, utility 0.916223:
    h1: 80.8901 MB (U(h) = 0.906708*h^0.0187697)
    h2: 783.11 MB (U(h) = 0.277255*h^0.181712)
Reading from 19792: heap size 463 MB, throughput 0.989213
Reading from 19793: heap size 84 MB, throughput 0.995795
Reading from 19793: heap size 81 MB, throughput 0.996199
Reading from 19793: heap size 84 MB, throughput 0.996231
Reading from 19793: heap size 81 MB, throughput 0.996327
Reading from 19793: heap size 84 MB, throughput 0.992589
Reading from 19792: heap size 464 MB, throughput 0.986743
Reading from 19793: heap size 80 MB, throughput 0.99348
Reading from 19793: heap size 83 MB, throughput 0.995049
Reading from 19793: heap size 80 MB, throughput 0.995944
Reading from 19793: heap size 83 MB, throughput 0.996584
Reading from 19792: heap size 464 MB, throughput 0.988284
Reading from 19793: heap size 79 MB, throughput 0.996949
Reading from 19792: heap size 467 MB, throughput 0.981918
Reading from 19792: heap size 466 MB, throughput 0.970426
Reading from 19793: heap size 82 MB, throughput 0.997138
Reading from 19793: heap size 79 MB, throughput 0.996215
Reading from 19792: heap size 456 MB, throughput 0.981614
Reading from 19793: heap size 82 MB, throughput 0.995963
Reading from 19793: heap size 79 MB, throughput 0.996455
Reading from 19793: heap size 81 MB, throughput 0.996854
Reading from 19793: heap size 78 MB, throughput 0.996316
Reading from 19793: heap size 82 MB, throughput 0.996802
Reading from 19793: heap size 79 MB, throughput 0.996933
Reading from 19792: heap size 466 MB, throughput 0.990203
Reading from 19793: heap size 81 MB, throughput 0.996159
Reading from 19793: heap size 82 MB, throughput 0.996771
Reading from 19793: heap size 79 MB, throughput 0.996386
Reading from 19793: heap size 82 MB, throughput 0.996277
Reading from 19793: heap size 79 MB, throughput 0.996436
Numeric result:
Recommendation: 2 clients, utility 0.926544:
    h1: 78.6155 MB (U(h) = 0.907474*h^0.0186476)
    h2: 785.384 MB (U(h) = 0.271861*h^0.186295)
Recommendation: 2 clients, utility 0.926544:
    h1: 78.615 MB (U(h) = 0.907474*h^0.0186476)
    h2: 785.385 MB (U(h) = 0.271861*h^0.186295)
Reading from 19793: heap size 81 MB, throughput 0.996726
Reading from 19792: heap size 466 MB, throughput 0.991783
Reading from 19793: heap size 79 MB, throughput 0.996733
Reading from 19793: heap size 81 MB, throughput 0.996555
Reading from 19793: heap size 78 MB, throughput 0.996751
Reading from 19793: heap size 80 MB, throughput 0.99692
Reading from 19793: heap size 78 MB, throughput 0.986111
Reading from 19793: heap size 79 MB, throughput 0.98151
Reading from 19793: heap size 78 MB, throughput 0.948989
Reading from 19793: heap size 78 MB, throughput 0.955962
Reading from 19792: heap size 464 MB, throughput 0.990567
Reading from 19793: heap size 80 MB, throughput 0.96947
Reading from 19793: heap size 77 MB, throughput 0.957432
Reading from 19793: heap size 84 MB, throughput 0.986257
Reading from 19793: heap size 81 MB, throughput 0.990275
Reading from 19793: heap size 79 MB, throughput 0.992981
Reading from 19793: heap size 82 MB, throughput 0.993067
Reading from 19793: heap size 79 MB, throughput 0.993151
Reading from 19792: heap size 465 MB, throughput 0.991073
Reading from 19793: heap size 80 MB, throughput 0.994022
Reading from 19793: heap size 77 MB, throughput 0.993645
Reading from 19793: heap size 78 MB, throughput 0.994496
Reading from 19793: heap size 79 MB, throughput 0.99389
Reading from 19793: heap size 76 MB, throughput 0.991355
Reading from 19793: heap size 79 MB, throughput 0.992026
Reading from 19793: heap size 77 MB, throughput 0.9913
Reading from 19792: heap size 463 MB, throughput 0.991176
Reading from 19793: heap size 79 MB, throughput 0.986958
Reading from 19793: heap size 75 MB, throughput 0.988034
Reading from 19793: heap size 80 MB, throughput 0.988289
Reading from 19793: heap size 77 MB, throughput 0.992159
Reading from 19793: heap size 79 MB, throughput 0.993763
Numeric result:
Recommendation: 2 clients, utility 0.930257:
    h1: 77.3096 MB (U(h) = 0.908375*h^0.0184651)
    h2: 786.69 MB (U(h) = 0.269996*h^0.187897)
Recommendation: 2 clients, utility 0.930257:
    h1: 77.3096 MB (U(h) = 0.908375*h^0.0184651)
    h2: 786.69 MB (U(h) = 0.269996*h^0.187897)
Reading from 19793: heap size 82 MB, throughput 0.995299
Reading from 19792: heap size 465 MB, throughput 0.990919
Reading from 19793: heap size 77 MB, throughput 0.996185
Reading from 19793: heap size 75 MB, throughput 0.996463
Reading from 19793: heap size 78 MB, throughput 0.995669
Reading from 19793: heap size 74 MB, throughput 0.99613
Reading from 19793: heap size 78 MB, throughput 0.995577
Reading from 19793: heap size 74 MB, throughput 0.996025
Reading from 19792: heap size 464 MB, throughput 0.99017
Reading from 19793: heap size 76 MB, throughput 0.996567
Reading from 19793: heap size 78 MB, throughput 0.996653
Reading from 19793: heap size 75 MB, throughput 0.996813
Reading from 19793: heap size 77 MB, throughput 0.996885
Reading from 19793: heap size 77 MB, throughput 0.996425
Reading from 19793: heap size 79 MB, throughput 0.995418
Reading from 19792: heap size 465 MB, throughput 0.989494
Reading from 19793: heap size 76 MB, throughput 0.996393
Reading from 19793: heap size 78 MB, throughput 0.996588
Reading from 19793: heap size 75 MB, throughput 0.996646
Reading from 19793: heap size 77 MB, throughput 0.996479
Reading from 19793: heap size 77 MB, throughput 0.996313
Reading from 19792: heap size 466 MB, throughput 0.988333
Reading from 19792: heap size 468 MB, throughput 0.981328
Reading from 19793: heap size 79 MB, throughput 0.996704
Reading from 19792: heap size 467 MB, throughput 0.970682
Reading from 19793: heap size 76 MB, throughput 0.996893
Reading from 19793: heap size 78 MB, throughput 0.997049
Reading from 19793: heap size 75 MB, throughput 0.996298
Reading from 19792: heap size 459 MB, throughput 0.981665
Reading from 19793: heap size 78 MB, throughput 0.994243
Reading from 19793: heap size 75 MB, throughput 0.993614
Reading from 19793: heap size 77 MB, throughput 0.98808
Reading from 19793: heap size 77 MB, throughput 0.985836
Reading from 19793: heap size 76 MB, throughput 0.978586
Numeric result:
Recommendation: 2 clients, utility 0.937052:
    h1: 74.3309 MB (U(h) = 0.911391*h^0.0179343)
    h2: 789.669 MB (U(h) = 0.266967*h^0.190527)
Recommendation: 2 clients, utility 0.937052:
    h1: 74.3311 MB (U(h) = 0.911391*h^0.0179343)
    h2: 789.669 MB (U(h) = 0.266967*h^0.190527)
Reading from 19793: heap size 81 MB, throughput 0.976496
Reading from 19793: heap size 79 MB, throughput 0.979674
Reading from 19793: heap size 78 MB, throughput 0.959569
Reading from 19793: heap size 74 MB, throughput 0.977809
Reading from 19793: heap size 78 MB, throughput 0.986526
Reading from 19792: heap size 467 MB, throughput 0.990635
Reading from 19793: heap size 73 MB, throughput 0.989934
Reading from 19793: heap size 79 MB, throughput 0.993015
Reading from 19793: heap size 75 MB, throughput 0.994163
Reading from 19793: heap size 73 MB, throughput 0.993849
Reading from 19793: heap size 77 MB, throughput 0.994842
Reading from 19792: heap size 437 MB, throughput 0.991605
Reading from 19793: heap size 74 MB, throughput 0.995271
Reading from 19793: heap size 75 MB, throughput 0.991083
Reading from 19793: heap size 72 MB, throughput 0.99206
Reading from 19793: heap size 74 MB, throughput 0.992695
Reading from 19793: heap size 74 MB, throughput 0.993734
Reading from 19793: heap size 70 MB, throughput 0.994613
Reading from 19793: heap size 75 MB, throughput 0.995702
Reading from 19792: heap size 468 MB, throughput 0.991079
Reading from 19793: heap size 71 MB, throughput 0.996418
Reading from 19793: heap size 73 MB, throughput 0.996095
Reading from 19793: heap size 76 MB, throughput 0.996565
Reading from 19793: heap size 72 MB, throughput 0.996713
Reading from 19793: heap size 74 MB, throughput 0.996913
Reading from 19793: heap size 74 MB, throughput 0.99647
Reading from 19792: heap size 443 MB, throughput 0.991446
Reading from 19793: heap size 76 MB, throughput 0.996593
Reading from 19793: heap size 72 MB, throughput 0.996169
Reading from 19793: heap size 74 MB, throughput 0.994953
Reading from 19793: heap size 71 MB, throughput 0.995764
Numeric result:
Recommendation: 2 clients, utility 0.944182:
    h1: 71.3719 MB (U(h) = 0.914105*h^0.017406)
    h2: 792.628 MB (U(h) = 0.263878*h^0.193301)
Recommendation: 2 clients, utility 0.944182:
    h1: 71.373 MB (U(h) = 0.914105*h^0.017406)
    h2: 792.627 MB (U(h) = 0.263878*h^0.193301)
Reading from 19793: heap size 73 MB, throughput 0.994957
Reading from 19793: heap size 70 MB, throughput 0.995407
Reading from 19793: heap size 72 MB, throughput 0.995809
Reading from 19792: heap size 466 MB, throughput 0.990952
Reading from 19793: heap size 69 MB, throughput 0.996051
Reading from 19793: heap size 71 MB, throughput 0.995502
Reading from 19793: heap size 71 MB, throughput 0.996385
Reading from 19793: heap size 74 MB, throughput 0.996628
Reading from 19793: heap size 71 MB, throughput 0.995641
Reading from 19793: heap size 73 MB, throughput 0.995447
Reading from 19793: heap size 70 MB, throughput 0.995661
Reading from 19792: heap size 466 MB, throughput 0.991111
Reading from 19793: heap size 72 MB, throughput 0.996245
Reading from 19793: heap size 70 MB, throughput 0.995842
Reading from 19793: heap size 72 MB, throughput 0.996204
Reading from 19793: heap size 70 MB, throughput 0.996455
Reading from 19793: heap size 71 MB, throughput 0.996594
Reading from 19793: heap size 69 MB, throughput 0.996592
Reading from 19792: heap size 467 MB, throughput 0.989963
Reading from 19793: heap size 71 MB, throughput 0.995876
Reading from 19793: heap size 71 MB, throughput 0.996127
Reading from 19793: heap size 74 MB, throughput 0.996724
Reading from 19793: heap size 71 MB, throughput 0.985983
Reading from 19793: heap size 70 MB, throughput 0.983541
Reading from 19793: heap size 73 MB, throughput 0.976565
Reading from 19793: heap size 71 MB, throughput 0.969068
Reading from 19793: heap size 75 MB, throughput 0.961995
Reading from 19793: heap size 73 MB, throughput 0.972158
Reading from 19793: heap size 72 MB, throughput 0.942391
Reading from 19793: heap size 69 MB, throughput 0.968703
Reading from 19793: heap size 74 MB, throughput 0.979909
Reading from 19792: heap size 467 MB, throughput 0.986465
Reading from 19793: heap size 69 MB, throughput 0.988304
Reading from 19793: heap size 74 MB, throughput 0.992225
Reading from 19793: heap size 70 MB, throughput 0.994089
Reading from 19793: heap size 74 MB, throughput 0.994945
Reading from 19792: heap size 464 MB, throughput 0.986131
Numeric result:
Recommendation: 2 clients, utility 0.943316:
    h1: 73.658 MB (U(h) = 0.910779*h^0.0180201)
    h2: 790.342 MB (U(h) = 0.263832*h^0.193342)
Recommendation: 2 clients, utility 0.943316:
    h1: 73.662 MB (U(h) = 0.910779*h^0.0180201)
    h2: 790.338 MB (U(h) = 0.263832*h^0.193342)
Reading from 19792: heap size 459 MB, throughput 0.979759
Reading from 19792: heap size 466 MB, throughput 0.969228
Reading from 19793: heap size 70 MB, throughput 0.995662
Reading from 19793: heap size 74 MB, throughput 0.995811
Reading from 19793: heap size 71 MB, throughput 0.995799
Reading from 19793: heap size 74 MB, throughput 0.99283
Reading from 19792: heap size 455 MB, throughput 0.981656
Reading from 19793: heap size 76 MB, throughput 0.99215
Reading from 19793: heap size 72 MB, throughput 0.990332
Reading from 19793: heap size 74 MB, throughput 0.991249
Reading from 19793: heap size 74 MB, throughput 0.991003
Reading from 19793: heap size 71 MB, throughput 0.992228
Reading from 19793: heap size 76 MB, throughput 0.993969
Reading from 19792: heap size 465 MB, throughput 0.990248
Reading from 19793: heap size 72 MB, throughput 0.99548
Reading from 19793: heap size 74 MB, throughput 0.995682
Reading from 19793: heap size 71 MB, throughput 0.996328
Reading from 19793: heap size 75 MB, throughput 0.99673
Reading from 19793: heap size 72 MB, throughput 0.996125
Reading from 19793: heap size 74 MB, throughput 0.996539
Reading from 19793: heap size 71 MB, throughput 0.996152
Reading from 19792: heap size 465 MB, throughput 0.991002
Reading from 19793: heap size 75 MB, throughput 0.996445
Reading from 19793: heap size 71 MB, throughput 0.99653
Reading from 19793: heap size 74 MB, throughput 0.996439
Reading from 19793: heap size 71 MB, throughput 0.996577
Reading from 19793: heap size 74 MB, throughput 0.995885
Reading from 19793: heap size 71 MB, throughput 0.996288
Reading from 19792: heap size 464 MB, throughput 0.991448
Reading from 19793: heap size 74 MB, throughput 0.99579
Reading from 19793: heap size 75 MB, throughput 0.996126
Reading from 19793: heap size 72 MB, throughput 0.995982
Numeric result:
Recommendation: 2 clients, utility 0.946619:
    h1: 71.3303 MB (U(h) = 0.913596*h^0.0174983)
    h2: 792.67 MB (U(h) = 0.262608*h^0.194435)
Recommendation: 2 clients, utility 0.946619:
    h1: 71.3363 MB (U(h) = 0.913596*h^0.0174983)
    h2: 792.664 MB (U(h) = 0.262608*h^0.194435)
Reading from 19793: heap size 75 MB, throughput 0.996297
Reading from 19793: heap size 72 MB, throughput 0.995859
Reading from 19793: heap size 70 MB, throughput 0.996078
Reading from 19792: heap size 465 MB, throughput 0.990525
Reading from 19793: heap size 73 MB, throughput 0.995625
Reading from 19793: heap size 71 MB, throughput 0.996075
Reading from 19793: heap size 73 MB, throughput 0.995122
Reading from 19793: heap size 70 MB, throughput 0.995844
Reading from 19793: heap size 74 MB, throughput 0.995286
Reading from 19793: heap size 71 MB, throughput 0.996119
Reading from 19793: heap size 70 MB, throughput 0.996274
Reading from 19792: heap size 463 MB, throughput 0.991057
Reading from 19793: heap size 73 MB, throughput 0.996627
Reading from 19793: heap size 71 MB, throughput 0.994316
Reading from 19793: heap size 73 MB, throughput 0.979501
Reading from 19793: heap size 71 MB, throughput 0.957603
Reading from 19793: heap size 71 MB, throughput 0.964263
Reading from 19793: heap size 71 MB, throughput 0.960803
Reading from 19793: heap size 69 MB, throughput 0.969314
Reading from 19793: heap size 72 MB, throughput 0.974735
Reading from 19793: heap size 70 MB, throughput 0.989666
Reading from 19793: heap size 76 MB, throughput 0.992836
Reading from 19793: heap size 73 MB, throughput 0.992201
Reading from 19792: heap size 464 MB, throughput 0.989607
Reading from 19793: heap size 71 MB, throughput 0.992359
Reading from 19793: heap size 70 MB, throughput 0.993651
Reading from 19793: heap size 73 MB, throughput 0.992805
Reading from 19793: heap size 71 MB, throughput 0.993628
Reading from 19793: heap size 74 MB, throughput 0.993915
Reading from 19793: heap size 71 MB, throughput 0.990688
Reading from 19793: heap size 69 MB, throughput 0.991119
Reading from 19792: heap size 463 MB, throughput 0.988124
Reading from 19793: heap size 74 MB, throughput 0.991537
Reading from 19793: heap size 71 MB, throughput 0.988197
Reading from 19793: heap size 72 MB, throughput 0.987371
Numeric result:
Recommendation: 2 clients, utility 0.946506:
    h1: 71.6162 MB (U(h) = 0.913215*h^0.0175722)
    h2: 792.384 MB (U(h) = 0.262616*h^0.194428)
Recommendation: 2 clients, utility 0.946506:
    h1: 71.6149 MB (U(h) = 0.913215*h^0.0175722)
    h2: 792.385 MB (U(h) = 0.262616*h^0.194428)
Reading from 19793: heap size 69 MB, throughput 0.993409
Reading from 19793: heap size 73 MB, throughput 0.99239
Reading from 19793: heap size 70 MB, throughput 0.994301
Reading from 19792: heap size 464 MB, throughput 0.987965
Reading from 19793: heap size 72 MB, throughput 0.994958
Reading from 19793: heap size 68 MB, throughput 0.995633
Reading from 19793: heap size 71 MB, throughput 0.996169
Reading from 19793: heap size 71 MB, throughput 0.995916
Reading from 19793: heap size 74 MB, throughput 0.996336
Reading from 19793: heap size 71 MB, throughput 0.996624
Reading from 19793: heap size 73 MB, throughput 0.99652
Reading from 19792: heap size 466 MB, throughput 0.990286
Reading from 19792: heap size 467 MB, throughput 0.984884
Reading from 19793: heap size 69 MB, throughput 0.996679
Reading from 19792: heap size 467 MB, throughput 0.975438
Reading from 19793: heap size 72 MB, throughput 0.995661
Reading from 19793: heap size 71 MB, throughput 0.994839
Reading from 19792: heap size 459 MB, throughput 0.981519
Reading from 19793: heap size 74 MB, throughput 0.995582
Reading from 19793: heap size 71 MB, throughput 0.996176
Reading from 19793: heap size 73 MB, throughput 0.995382
Reading from 19793: heap size 70 MB, throughput 0.995921
Reading from 19793: heap size 72 MB, throughput 0.995975
Reading from 19793: heap size 71 MB, throughput 0.995817
Reading from 19793: heap size 75 MB, throughput 0.9953
Reading from 19792: heap size 468 MB, throughput 0.991472
Reading from 19793: heap size 72 MB, throughput 0.995964
Reading from 19793: heap size 71 MB, throughput 0.996235
Reading from 19793: heap size 73 MB, throughput 0.994825
Reading from 19793: heap size 70 MB, throughput 0.995737
Reading from 19793: heap size 74 MB, throughput 0.994953
Reading from 19793: heap size 71 MB, throughput 0.99556
Reading from 19793: heap size 74 MB, throughput 0.996204
Reading from 19793: heap size 72 MB, throughput 0.996292
Reading from 19792: heap size 468 MB, throughput 0.99286
Reading from 19793: heap size 75 MB, throughput 0.996607
Numeric result:
Recommendation: 2 clients, utility 0.947204:
    h1: 69.947 MB (U(h) = 0.915542*h^0.0171291)
    h2: 794.053 MB (U(h) = 0.262578*h^0.194461)
Recommendation: 2 clients, utility 0.947204:
    h1: 69.9443 MB (U(h) = 0.915542*h^0.0171291)
    h2: 794.056 MB (U(h) = 0.262578*h^0.194461)
Reading from 19793: heap size 73 MB, throughput 0.996751
Reading from 19793: heap size 72 MB, throughput 0.995869
Reading from 19793: heap size 70 MB, throughput 0.996237
Reading from 19793: heap size 73 MB, throughput 0.996614
Reading from 19793: heap size 71 MB, throughput 0.986715
Reading from 19793: heap size 70 MB, throughput 0.978637
Reading from 19793: heap size 69 MB, throughput 0.972924
Reading from 19793: heap size 74 MB, throughput 0.965463
Reading from 19793: heap size 73 MB, throughput 0.971522
Reading from 19793: heap size 72 MB, throughput 0.938244
Reading from 19792: heap size 465 MB, throughput 0.990855
Reading from 19793: heap size 69 MB, throughput 0.957762
Reading from 19793: heap size 72 MB, throughput 0.979579
Reading from 19793: heap size 69 MB, throughput 0.981779
Reading from 19793: heap size 76 MB, throughput 0.985122
Reading from 19793: heap size 72 MB, throughput 0.988453
Reading from 19793: heap size 70 MB, throughput 0.988609
Reading from 19793: heap size 73 MB, throughput 0.992717
Reading from 19792: heap size 466 MB, throughput 0.990763
Reading from 19793: heap size 69 MB, throughput 0.994703
Reading from 19793: heap size 72 MB, throughput 0.995608
Reading from 19793: heap size 68 MB, throughput 0.995919
Reading from 19793: heap size 71 MB, throughput 0.995986
Reading from 19793: heap size 67 MB, throughput 0.99579
Reading from 19793: heap size 69 MB, throughput 0.995761
Reading from 19793: heap size 69 MB, throughput 0.995954
Reading from 19792: heap size 465 MB, throughput 0.991082
Reading from 19793: heap size 72 MB, throughput 0.996316
Reading from 19793: heap size 69 MB, throughput 0.996266
Reading from 19793: heap size 71 MB, throughput 0.995635
Reading from 19793: heap size 68 MB, throughput 0.995863
Reading from 19793: heap size 69 MB, throughput 0.996157
Reading from 19793: heap size 69 MB, throughput 0.995894
Reading from 19793: heap size 72 MB, throughput 0.995864
Reading from 19793: heap size 69 MB, throughput 0.996335
Reading from 19792: heap size 466 MB, throughput 0.990786
Reading from 19793: heap size 71 MB, throughput 0.996636
Numeric result:
Recommendation: 2 clients, utility 0.947063:
    h1: 70.3195 MB (U(h) = 0.914906*h^0.0172328)
    h2: 793.681 MB (U(h) = 0.262528*h^0.194505)
Recommendation: 2 clients, utility 0.947063:
    h1: 70.3184 MB (U(h) = 0.914906*h^0.0172328)
    h2: 793.682 MB (U(h) = 0.262528*h^0.194505)
Reading from 19793: heap size 69 MB, throughput 0.995637
Reading from 19793: heap size 70 MB, throughput 0.996125
Reading from 19793: heap size 68 MB, throughput 0.996331
Reading from 19793: heap size 69 MB, throughput 0.995229
Reading from 19793: heap size 69 MB, throughput 0.995821
Reading from 19793: heap size 72 MB, throughput 0.995995
Reading from 19792: heap size 467 MB, throughput 0.989427
Reading from 19793: heap size 70 MB, throughput 0.996037
Reading from 19793: heap size 71 MB, throughput 0.996204
Reading from 19793: heap size 69 MB, throughput 0.996377
Reading from 19793: heap size 71 MB, throughput 0.99659
Reading from 19793: heap size 69 MB, throughput 0.996466
Reading from 19793: heap size 70 MB, throughput 0.996247
Reading from 19793: heap size 68 MB, throughput 0.996095
Reading from 19792: heap size 467 MB, throughput 0.987774
Reading from 19793: heap size 70 MB, throughput 0.996482
Reading from 19793: heap size 70 MB, throughput 0.995956
Reading from 19793: heap size 72 MB, throughput 0.996139
Reading from 19793: heap size 71 MB, throughput 0.996434
Reading from 19793: heap size 69 MB, throughput 0.996439
Reading from 19792: heap size 466 MB, throughput 0.987582
Reading from 19792: heap size 470 MB, throughput 0.981066
Reading from 19793: heap size 72 MB, throughput 0.99688
Reading from 19792: heap size 467 MB, throughput 0.970391
Reading from 19793: heap size 71 MB, throughput 0.99687
Reading from 19793: heap size 69 MB, throughput 0.996732
Reading from 19793: heap size 72 MB, throughput 0.996721
Reading from 19792: heap size 460 MB, throughput 0.985905
Reading from 19793: heap size 71 MB, throughput 0.996892
Reading from 19793: heap size 69 MB, throughput 0.996736
Reading from 19793: heap size 72 MB, throughput 0.996459
Reading from 19793: heap size 71 MB, throughput 0.996341
Reading from 19793: heap size 69 MB, throughput 0.976516
Reading from 19793: heap size 72 MB, throughput 0.96539
Reading from 19793: heap size 71 MB, throughput 0.939583
Reading from 19793: heap size 69 MB, throughput 0.954716
Reading from 19793: heap size 71 MB, throughput 0.965741
Reading from 19793: heap size 70 MB, throughput 0.960104
Reading from 19793: heap size 77 MB, throughput 0.977124
Reading from 19792: heap size 460 MB, throughput 0.991469
Reading from 19793: heap size 75 MB, throughput 0.989753
Numeric result:
Recommendation: 2 clients, utility 0.951053:
    h1: 72.4789 MB (U(h) = 0.910751*h^0.018017)
    h2: 791.521 MB (U(h) = 0.259973*h^0.196781)
Recommendation: 2 clients, utility 0.951053:
    h1: 72.4716 MB (U(h) = 0.910751*h^0.018017)
    h2: 791.528 MB (U(h) = 0.259973*h^0.196781)
Reading from 19793: heap size 73 MB, throughput 0.931865
Reading from 19793: heap size 71 MB, throughput 0.966882
Reading from 19793: heap size 75 MB, throughput 0.974017
Reading from 19793: heap size 71 MB, throughput 0.981624
Reading from 19793: heap size 78 MB, throughput 0.989125
Reading from 19792: heap size 412 MB, throughput 0.991884
Reading from 19793: heap size 73 MB, throughput 0.993051
Reading from 19793: heap size 74 MB, throughput 0.994173
Reading from 19793: heap size 70 MB, throughput 0.995156
Reading from 19793: heap size 76 MB, throughput 0.995677
Reading from 19793: heap size 72 MB, throughput 0.996187
Reading from 19793: heap size 73 MB, throughput 0.994958
Reading from 19792: heap size 455 MB, throughput 0.993247
Reading from 19793: heap size 69 MB, throughput 0.995704
Reading from 19793: heap size 73 MB, throughput 0.995854
Reading from 19793: heap size 70 MB, throughput 0.995424
Reading from 19793: heap size 74 MB, throughput 0.99537
Reading from 19793: heap size 71 MB, throughput 0.995591
Reading from 19793: heap size 74 MB, throughput 0.995516
Reading from 19793: heap size 71 MB, throughput 0.995673
Reading from 19792: heap size 456 MB, throughput 0.99196
Reading from 19793: heap size 74 MB, throughput 0.996174
Reading from 19793: heap size 71 MB, throughput 0.995153
Reading from 19793: heap size 74 MB, throughput 0.996027
Reading from 19793: heap size 72 MB, throughput 0.996457
Reading from 19793: heap size 75 MB, throughput 0.996742
Reading from 19793: heap size 73 MB, throughput 0.99566
Reading from 19792: heap size 453 MB, throughput 0.991755
Reading from 19793: heap size 72 MB, throughput 0.995788
Reading from 19793: heap size 70 MB, throughput 0.996137
Reading from 19793: heap size 74 MB, throughput 0.996012
Numeric result:
Recommendation: 2 clients, utility 0.957897:
    h1: 68.7895 MB (U(h) = 0.914986*h^0.0172238)
    h2: 795.211 MB (U(h) = 0.257477*h^0.199111)
Recommendation: 2 clients, utility 0.957897:
    h1: 68.7886 MB (U(h) = 0.914986*h^0.0172238)
    h2: 795.211 MB (U(h) = 0.257477*h^0.199111)
Reading from 19793: heap size 72 MB, throughput 0.995294
Reading from 19793: heap size 71 MB, throughput 0.995881
Reading from 19793: heap size 69 MB, throughput 0.995934
Reading from 19793: heap size 73 MB, throughput 0.995365
Reading from 19792: heap size 455 MB, throughput 0.990928
Reading from 19793: heap size 71 MB, throughput 0.996119
Reading from 19793: heap size 70 MB, throughput 0.996195
Reading from 19793: heap size 68 MB, throughput 0.99597
Reading from 19793: heap size 71 MB, throughput 0.995617
Reading from 19793: heap size 69 MB, throughput 0.99582
Reading from 19793: heap size 68 MB, throughput 0.996025
Reading from 19793: heap size 71 MB, throughput 0.99618
Reading from 19792: heap size 451 MB, throughput 0.990489
Reading from 19793: heap size 69 MB, throughput 0.996615
Reading from 19793: heap size 68 MB, throughput 0.996492
Reading from 19793: heap size 71 MB, throughput 0.996426
Reading from 19793: heap size 69 MB, throughput 0.996511
Reading from 19793: heap size 68 MB, throughput 0.996606
Reading from 19793: heap size 71 MB, throughput 0.996619
Reading from 19793: heap size 69 MB, throughput 0.996569
Reading from 19792: heap size 453 MB, throughput 0.989753
Reading from 19793: heap size 68 MB, throughput 0.993314
Reading from 19793: heap size 73 MB, throughput 0.986498
Reading from 19793: heap size 71 MB, throughput 0.979782
Reading from 19793: heap size 70 MB, throughput 0.965552
Reading from 19793: heap size 69 MB, throughput 0.961035
Reading from 19793: heap size 73 MB, throughput 0.964577
Reading from 19793: heap size 72 MB, throughput 0.963619
Reading from 19793: heap size 71 MB, throughput 0.958804
Reading from 19793: heap size 68 MB, throughput 0.977203
Reading from 19793: heap size 73 MB, throughput 0.983775
Reading from 19793: heap size 69 MB, throughput 0.985118
Reading from 19792: heap size 455 MB, throughput 0.990252
Reading from 19793: heap size 74 MB, throughput 0.990265
Reading from 19792: heap size 456 MB, throughput 0.981531
Reading from 19792: heap size 450 MB, throughput 0.967507
Reading from 19793: heap size 70 MB, throughput 0.993061
Reading from 19792: heap size 450 MB, throughput 0.967341
Reading from 19793: heap size 71 MB, throughput 0.994624
Reading from 19793: heap size 67 MB, throughput 0.995595
Reading from 19793: heap size 71 MB, throughput 0.995918
Numeric result:
Recommendation: 2 clients, utility 0.959379:
    h1: 70.1685 MB (U(h) = 0.912554*h^0.017682)
    h2: 793.831 MB (U(h) = 0.256463*h^0.200041)
Recommendation: 2 clients, utility 0.959379:
    h1: 70.1684 MB (U(h) = 0.912554*h^0.017682)
    h2: 793.832 MB (U(h) = 0.256463*h^0.200041)
Reading from 19793: heap size 67 MB, throughput 0.995975
Reading from 19793: heap size 71 MB, throughput 0.996121
Reading from 19793: heap size 67 MB, throughput 0.99603
Reading from 19793: heap size 71 MB, throughput 0.994613
Reading from 19793: heap size 67 MB, throughput 0.994489
Reading from 19792: heap size 454 MB, throughput 0.986854
Reading from 19793: heap size 71 MB, throughput 0.99487
Reading from 19793: heap size 67 MB, throughput 0.99557
Reading from 19793: heap size 71 MB, throughput 0.995392
Reading from 19793: heap size 68 MB, throughput 0.995606
Reading from 19793: heap size 72 MB, throughput 0.994833
Reading from 19793: heap size 69 MB, throughput 0.994989
Reading from 19793: heap size 71 MB, throughput 0.994885
Reading from 19792: heap size 424 MB, throughput 0.990059
Reading from 19793: heap size 68 MB, throughput 0.995338
Reading from 19793: heap size 73 MB, throughput 0.99588
Reading from 19793: heap size 71 MB, throughput 0.996292
Reading from 19793: heap size 70 MB, throughput 0.995392
Reading from 19793: heap size 68 MB, throughput 0.995827
Reading from 19793: heap size 71 MB, throughput 0.99615
Reading from 19792: heap size 450 MB, throughput 0.989767
Reading from 19793: heap size 69 MB, throughput 0.996198
Reading from 19793: heap size 72 MB, throughput 0.996196
Reading from 19793: heap size 70 MB, throughput 0.99598
Reading from 19793: heap size 72 MB, throughput 0.995006
Reading from 19793: heap size 70 MB, throughput 0.99597
Reading from 19793: heap size 69 MB, throughput 0.995559
Reading from 19793: heap size 73 MB, throughput 0.996173
Reading from 19792: heap size 449 MB, throughput 0.989909
Reading from 19793: heap size 71 MB, throughput 0.996044
Reading from 19793: heap size 70 MB, throughput 0.996093
Reading from 19793: heap size 72 MB, throughput 0.995742
Reading from 19793: heap size 70 MB, throughput 0.995532
Reading from 19793: heap size 69 MB, throughput 0.995641
Reading from 19793: heap size 72 MB, throughput 0.996082
Numeric result:
Recommendation: 2 clients, utility 0.960703:
    h1: 67.9764 MB (U(h) = 0.915627*h^0.0170994)
    h2: 796.024 MB (U(h) = 0.256248*h^0.200238)
Recommendation: 2 clients, utility 0.960703:
    h1: 67.9765 MB (U(h) = 0.915627*h^0.0170994)
    h2: 796.024 MB (U(h) = 0.256248*h^0.200238)
Reading from 19793: heap size 71 MB, throughput 0.996206
Reading from 19792: heap size 451 MB, throughput 0.989355
Reading from 19793: heap size 69 MB, throughput 0.996486
Reading from 19793: heap size 68 MB, throughput 0.996448
Reading from 19793: heap size 71 MB, throughput 0.996451
Reading from 19793: heap size 70 MB, throughput 0.99648
Reading from 19793: heap size 68 MB, throughput 0.996475
Reading from 19793: heap size 67 MB, throughput 0.996247
Reading from 19792: heap size 452 MB, throughput 0.987681
Reading from 19793: heap size 70 MB, throughput 0.996154
Reading from 19793: heap size 69 MB, throughput 0.995304
Reading from 19793: heap size 67 MB, throughput 0.99569
Reading from 19793: heap size 71 MB, throughput 0.993368
Reading from 19793: heap size 69 MB, throughput 0.982702
Reading from 19793: heap size 68 MB, throughput 0.971488
Reading from 19793: heap size 67 MB, throughput 0.963348
Reading from 19793: heap size 72 MB, throughput 0.962404
Reading from 19793: heap size 71 MB, throughput 0.968851
Reading from 19793: heap size 70 MB, throughput 0.943983
Reading from 19793: heap size 67 MB, throughput 0.954104
Reading from 19793: heap size 71 MB, throughput 0.976636
Reading from 19792: heap size 455 MB, throughput 0.9878
Reading from 19793: heap size 68 MB, throughput 0.984028
Reading from 19793: heap size 74 MB, throughput 0.985831
Reading from 19793: heap size 70 MB, throughput 0.988296
Reading from 19793: heap size 71 MB, throughput 0.991166
Reading from 19793: heap size 67 MB, throughput 0.993495
Reading from 19793: heap size 71 MB, throughput 0.994443
Reading from 19793: heap size 67 MB, throughput 0.995402
Reading from 19793: heap size 72 MB, throughput 0.995627
Reading from 19792: heap size 455 MB, throughput 0.987406
Reading from 19793: heap size 68 MB, throughput 0.996183
Reading from 19793: heap size 71 MB, throughput 0.996194
Reading from 19793: heap size 67 MB, throughput 0.996137
Reading from 19793: heap size 72 MB, throughput 0.996199
Reading from 19793: heap size 68 MB, throughput 0.996282
Reading from 19793: heap size 69 MB, throughput 0.995877
Reading from 19793: heap size 66 MB, throughput 0.99589
Reading from 19793: heap size 69 MB, throughput 0.9958
Reading from 19792: heap size 458 MB, throughput 0.989014
Reading from 19793: heap size 66 MB, throughput 0.996209
Numeric result:
Recommendation: 2 clients, utility 0.965103:
    h1: 67.889 MB (U(h) = 0.91482*h^0.0172459)
    h2: 796.111 MB (U(h) = 0.254076*h^0.202237)
Recommendation: 2 clients, utility 0.965103:
    h1: 67.889 MB (U(h) = 0.91482*h^0.0172459)
    h2: 796.111 MB (U(h) = 0.254076*h^0.202237)
Reading from 19793: heap size 69 MB, throughput 0.996109
Reading from 19793: heap size 67 MB, throughput 0.996031
Reading from 19792: heap size 459 MB, throughput 0.985789
Reading from 19793: heap size 70 MB, throughput 0.996191
Reading from 19792: heap size 457 MB, throughput 0.978275
Reading from 19792: heap size 447 MB, throughput 0.967008
Reading from 19793: heap size 67 MB, throughput 0.996204
Reading from 19793: heap size 70 MB, throughput 0.996035
Reading from 19793: heap size 68 MB, throughput 0.995961
Reading from 19793: heap size 70 MB, throughput 0.995839
Reading from 19792: heap size 457 MB, throughput 0.982605
Reading from 19793: heap size 68 MB, throughput 0.996124
Reading from 19793: heap size 71 MB, throughput 0.995251
Reading from 19793: heap size 69 MB, throughput 0.9957
Reading from 19793: heap size 68 MB, throughput 0.995982
Reading from 19793: heap size 71 MB, throughput 0.996253
Reading from 19793: heap size 69 MB, throughput 0.995912
Reading from 19793: heap size 68 MB, throughput 0.995527
Reading from 19792: heap size 424 MB, throughput 0.990132
Reading from 19793: heap size 70 MB, throughput 0.995549
Reading from 19793: heap size 68 MB, throughput 0.994888
Reading from 19793: heap size 67 MB, throughput 0.994663
Reading from 19793: heap size 71 MB, throughput 0.995493
Reading from 19793: heap size 69 MB, throughput 0.995966
Reading from 19793: heap size 68 MB, throughput 0.995245
Reading from 19793: heap size 71 MB, throughput 0.996062
Reading from 19793: heap size 69 MB, throughput 0.996108
Reading from 19793: heap size 68 MB, throughput 0.995724
Reading from 19792: heap size 457 MB, throughput 0.992125
Reading from 19793: heap size 71 MB, throughput 0.996313
Reading from 19793: heap size 70 MB, throughput 0.99638
Reading from 19793: heap size 68 MB, throughput 0.996203
Reading from 19793: heap size 67 MB, throughput 0.996313
Reading from 19793: heap size 70 MB, throughput 0.996114
Reading from 19793: heap size 69 MB, throughput 0.996271
Reading from 19793: heap size 67 MB, throughput 0.995124
Reading from 19792: heap size 427 MB, throughput 0.991446
Reading from 19793: heap size 71 MB, throughput 0.99595
Numeric result:
Recommendation: 2 clients, utility 0.969911:
    h1: 66.3636 MB (U(h) = 0.916214*h^0.0169781)
    h2: 797.636 MB (U(h) = 0.252134*h^0.20407)
Recommendation: 2 clients, utility 0.969911:
    h1: 66.3613 MB (U(h) = 0.916214*h^0.0169781)
    h2: 797.639 MB (U(h) = 0.252134*h^0.20407)
Reading from 19793: heap size 69 MB, throughput 0.996152
Reading from 19793: heap size 68 MB, throughput 0.996186
Reading from 19793: heap size 66 MB, throughput 0.988144
Reading from 19793: heap size 65 MB, throughput 0.97328
Reading from 19793: heap size 70 MB, throughput 0.973698
Reading from 19793: heap size 70 MB, throughput 0.993181
Reading from 19793: heap size 69 MB, throughput 0.976995
Reading from 19793: heap size 69 MB, throughput 0.978713
Reading from 19793: heap size 67 MB, throughput 0.980126
Reading from 19793: heap size 66 MB, throughput 0.980399
Reading from 19793: heap size 65 MB, throughput 0.9901
Reading from 19793: heap size 69 MB, throughput 0.991076
Reading from 19792: heap size 457 MB, throughput 0.991562
Reading from 19793: heap size 67 MB, throughput 0.984534
Reading from 19793: heap size 66 MB, throughput 0.986964
Reading from 19793: heap size 70 MB, throughput 0.991168
Reading from 19793: heap size 67 MB, throughput 0.992845
Reading from 19793: heap size 67 MB, throughput 0.992903
Reading from 19793: heap size 65 MB, throughput 0.99338
Reading from 19793: heap size 67 MB, throughput 0.993288
Reading from 19793: heap size 64 MB, throughput 0.994657
Reading from 19793: heap size 65 MB, throughput 0.994982
Reading from 19792: heap size 456 MB, throughput 0.991623
Reading from 19793: heap size 65 MB, throughput 0.995243
Reading from 19793: heap size 69 MB, throughput 0.995789
Reading from 19793: heap size 67 MB, throughput 0.994456
Reading from 19793: heap size 66 MB, throughput 0.995092
Reading from 19793: heap size 66 MB, throughput 0.99542
Reading from 19793: heap size 64 MB, throughput 0.99576
Reading from 19793: heap size 64 MB, throughput 0.995818
Reading from 19792: heap size 456 MB, throughput 0.990137
Reading from 19793: heap size 62 MB, throughput 0.996064
Reading from 19793: heap size 62 MB, throughput 0.994763
Reading from 19793: heap size 65 MB, throughput 0.995001
Reading from 19793: heap size 63 MB, throughput 0.995291
Reading from 19793: heap size 62 MB, throughput 0.995385
Reading from 19793: heap size 62 MB, throughput 0.993367
Reading from 19793: heap size 64 MB, throughput 0.994026
Reading from 19793: heap size 64 MB, throughput 0.994309
Reading from 19793: heap size 68 MB, throughput 0.993603
Reading from 19792: heap size 456 MB, throughput 0.989512
Reading from 19793: heap size 66 MB, throughput 0.994445
Reading from 19793: heap size 65 MB, throughput 0.994638
Reading from 19793: heap size 67 MB, throughput 0.994044
Numeric result:
Recommendation: 2 clients, utility 0.970507:
    h1: 64.7828 MB (U(h) = 0.918296*h^0.0165466)
    h2: 799.217 MB (U(h) = 0.252067*h^0.204132)
Recommendation: 2 clients, utility 0.970507:
    h1: 64.7833 MB (U(h) = 0.918296*h^0.0165466)
    h2: 799.217 MB (U(h) = 0.252067*h^0.204132)
Reading from 19793: heap size 65 MB, throughput 0.994336
Reading from 19793: heap size 65 MB, throughput 0.994884
Reading from 19793: heap size 68 MB, throughput 0.995331
Reading from 19792: heap size 458 MB, throughput 0.988012
Reading from 19793: heap size 68 MB, throughput 0.995705
Reading from 19793: heap size 66 MB, throughput 0.995887
Reading from 19793: heap size 65 MB, throughput 0.996022
Reading from 19793: heap size 64 MB, throughput 0.995846
Reading from 19793: heap size 63 MB, throughput 0.995687
Reading from 19793: heap size 62 MB, throughput 0.995574
Reading from 19793: heap size 61 MB, throughput 0.995664
Reading from 19793: heap size 60 MB, throughput 0.995331
Reading from 19792: heap size 458 MB, throughput 0.990303
Reading from 19793: heap size 59 MB, throughput 0.99528
Reading from 19792: heap size 461 MB, throughput 0.984466
Reading from 19792: heap size 461 MB, throughput 0.973917
Reading from 19793: heap size 58 MB, throughput 0.995297
Reading from 19793: heap size 57 MB, throughput 0.994584
Reading from 19793: heap size 60 MB, throughput 0.994899
Reading from 19793: heap size 63 MB, throughput 0.995463
Reading from 19792: heap size 459 MB, throughput 0.982834
Reading from 19793: heap size 62 MB, throughput 0.995279
Reading from 19793: heap size 61 MB, throughput 0.995521
Reading from 19793: heap size 60 MB, throughput 0.995431
Reading from 19793: heap size 59 MB, throughput 0.995164
Reading from 19793: heap size 58 MB, throughput 0.993251
Reading from 19793: heap size 62 MB, throughput 0.993579
Reading from 19793: heap size 66 MB, throughput 0.994482
Reading from 19793: heap size 65 MB, throughput 0.995213
Reading from 19793: heap size 69 MB, throughput 0.994984
Reading from 19792: heap size 428 MB, throughput 0.990589
Reading from 19793: heap size 67 MB, throughput 0.995814
Reading from 19793: heap size 66 MB, throughput 0.994729
Reading from 19793: heap size 65 MB, throughput 0.995388
Reading from 19793: heap size 64 MB, throughput 0.995672
Reading from 19792: heap size 460 MB, throughput 0.99107
Numeric result:
Recommendation: 2 clients, utility 0.971665:
    h1: 60.58 MB (U(h) = 0.923854*h^0.01539)
    h2: 803.42 MB (U(h) = 0.252096*h^0.204106)
Recommendation: 2 clients, utility 0.971665:
    h1: 60.5795 MB (U(h) = 0.923854*h^0.01539)
    h2: 803.42 MB (U(h) = 0.252096*h^0.204106)
Client 19793 died
Clients: 1
Reading from 19792: heap size 432 MB, throughput 0.991585
Reading from 19792: heap size 460 MB, throughput 0.991494
Reading from 19792: heap size 459 MB, throughput 0.991633
Reading from 19792: heap size 458 MB, throughput 0.991423
Recommendation: one client; give it all the memory
Reading from 19792: heap size 459 MB, throughput 0.990368
Reading from 19792: heap size 461 MB, throughput 0.988201
Reading from 19792: heap size 461 MB, throughput 0.988697
Reading from 19792: heap size 464 MB, throughput 0.982308
Reading from 19792: heap size 456 MB, throughput 0.971917
Reading from 19792: heap size 459 MB, throughput 0.984078
Reading from 19792: heap size 429 MB, throughput 0.990846
Reading from 19792: heap size 461 MB, throughput 0.991812
Recommendation: one client; give it all the memory
Reading from 19792: heap size 434 MB, throughput 0.991817
Reading from 19792: heap size 461 MB, throughput 0.991502
Reading from 19792: heap size 440 MB, throughput 0.990871
Reading from 19792: heap size 460 MB, throughput 0.989795
Recommendation: one client; give it all the memory
Reading from 19792: heap size 459 MB, throughput 0.990095
Reading from 19792: heap size 461 MB, throughput 0.991603
Reading from 19792: heap size 462 MB, throughput 0.988103
Reading from 19792: heap size 460 MB, throughput 0.980079
Reading from 19792: heap size 454 MB, throughput 0.968184
Client 19792 died
Clients: 0
Recommendation: no clients; no recommendation
Recommendation: no clients; no recommendation
ReadingThread: finished
TimerThread: finished
CommandThread: finished
Main: All threads killed, cleaning up
