Using scaled threading model. 4 processors detected, 1 threads used to drive the workload, in a possible range of [1,100]
===== DaCapo 9.12 xalan starting warmup 1 =====
Normal completion.
===== DaCapo 9.12 xalan completed warmup 1 in 7030 msec =====
===== DaCapo 9.12 xalan starting warmup 2 =====
Normal completion.
===== DaCapo 9.12 xalan completed warmup 2 in 4186 msec =====
===== DaCapo 9.12 xalan starting warmup 3 =====
Normal completion.
===== DaCapo 9.12 xalan completed warmup 3 in 3752 msec =====
===== DaCapo 9.12 xalan starting warmup 4 =====
Normal completion.
===== DaCapo 9.12 xalan completed warmup 4 in 3486 msec =====
===== DaCapo 9.12 xalan starting warmup 5 =====
Normal completion.
===== DaCapo 9.12 xalan completed warmup 5 in 3347 msec =====
===== DaCapo 9.12 xalan starting warmup 6 =====
Normal completion.
===== DaCapo 9.12 xalan completed warmup 6 in 3581 msec =====
===== DaCapo 9.12 xalan starting warmup 7 =====
Normal completion.
===== DaCapo 9.12 xalan completed warmup 7 in 3253 msec =====
===== DaCapo 9.12 xalan starting warmup 8 =====
Normal completion.
===== DaCapo 9.12 xalan completed warmup 8 in 3206 msec =====
===== DaCapo 9.12 xalan starting warmup 9 =====
Normal completion.
===== DaCapo 9.12 xalan completed warmup 9 in 3160 msec =====
===== DaCapo 9.12 xalan starting warmup 10 =====
Normal completion.
===== DaCapo 9.12 xalan completed warmup 10 in 3143 msec =====
===== DaCapo 9.12 xalan starting warmup 11 =====
Normal completion.
===== DaCapo 9.12 xalan completed warmup 11 in 3124 msec =====
===== DaCapo 9.12 xalan starting warmup 12 =====
Normal completion.
===== DaCapo 9.12 xalan completed warmup 12 in 3067 msec =====
===== DaCapo 9.12 xalan starting warmup 13 =====
Normal completion.
===== DaCapo 9.12 xalan completed warmup 13 in 3132 msec =====
===== DaCapo 9.12 xalan starting warmup 14 =====
Normal completion.
===== DaCapo 9.12 xalan completed warmup 14 in 3132 msec =====
===== DaCapo 9.12 xalan starting warmup 15 =====
Normal completion.
===== DaCapo 9.12 xalan completed warmup 15 in 3170 msec =====
===== DaCapo 9.12 xalan starting warmup 16 =====
Normal completion.
===== DaCapo 9.12 xalan completed warmup 16 in 3053 msec =====
===== DaCapo 9.12 xalan starting warmup 17 =====
Normal completion.
===== DaCapo 9.12 xalan completed warmup 17 in 3110 msec =====
===== DaCapo 9.12 xalan starting warmup 18 =====
Normal completion.
===== DaCapo 9.12 xalan completed warmup 18 in 3090 msec =====
===== DaCapo 9.12 xalan starting warmup 19 =====
Normal completion.
===== DaCapo 9.12 xalan completed warmup 19 in 3042 msec =====
===== DaCapo 9.12 xalan starting warmup 20 =====
Normal completion.
===== DaCapo 9.12 xalan completed warmup 20 in 3055 msec =====
===== DaCapo 9.12 xalan starting warmup 21 =====
Normal completion.
===== DaCapo 9.12 xalan completed warmup 21 in 3104 msec =====
===== DaCapo 9.12 xalan starting warmup 22 =====
Normal completion.
===== DaCapo 9.12 xalan completed warmup 22 in 3043 msec =====
===== DaCapo 9.12 xalan starting warmup 23 =====
Normal completion.
===== DaCapo 9.12 xalan completed warmup 23 in 3213 msec =====
===== DaCapo 9.12 xalan starting warmup 24 =====
Normal completion.
===== DaCapo 9.12 xalan completed warmup 24 in 3227 msec =====
===== DaCapo 9.12 xalan starting warmup 25 =====
Normal completion.
===== DaCapo 9.12 xalan completed warmup 25 in 3166 msec =====
===== DaCapo 9.12 xalan starting warmup 26 =====
Normal completion.
===== DaCapo 9.12 xalan completed warmup 26 in 3025 msec =====
===== DaCapo 9.12 xalan starting warmup 27 =====
Normal completion.
===== DaCapo 9.12 xalan completed warmup 27 in 3067 msec =====
===== DaCapo 9.12 xalan starting warmup 28 =====
Normal completion.
===== DaCapo 9.12 xalan completed warmup 28 in 3151 msec =====
===== DaCapo 9.12 xalan starting warmup 29 =====
Normal completion.
===== DaCapo 9.12 xalan completed warmup 29 in 3058 msec =====
===== DaCapo 9.12 xalan starting warmup 30 =====
Normal completion.
===== DaCapo 9.12 xalan completed warmup 30 in 3176 msec =====
===== DaCapo 9.12 xalan starting warmup 31 =====
Normal completion.
===== DaCapo 9.12 xalan completed warmup 31 in 3165 msec =====
===== DaCapo 9.12 xalan starting warmup 32 =====
Normal completion.
===== DaCapo 9.12 xalan completed warmup 32 in 3132 msec =====
===== DaCapo 9.12 xalan starting warmup 33 =====
Normal completion.
===== DaCapo 9.12 xalan completed warmup 33 in 3104 msec =====
===== DaCapo 9.12 xalan starting warmup 34 =====
Normal completion.
===== DaCapo 9.12 xalan completed warmup 34 in 3095 msec =====
===== DaCapo 9.12 xalan starting warmup 35 =====
Normal completion.
===== DaCapo 9.12 xalan completed warmup 35 in 3163 msec =====
===== DaCapo 9.12 xalan starting warmup 36 =====
Normal completion.
===== DaCapo 9.12 xalan completed warmup 36 in 3270 msec =====
===== DaCapo 9.12 xalan starting warmup 37 =====
Normal completion.
===== DaCapo 9.12 xalan completed warmup 37 in 3089 msec =====
===== DaCapo 9.12 xalan starting warmup 38 =====
Normal completion.
===== DaCapo 9.12 xalan completed warmup 38 in 3036 msec =====
===== DaCapo 9.12 xalan starting warmup 39 =====
Normal completion.
===== DaCapo 9.12 xalan completed warmup 39 in 3056 msec =====
===== DaCapo 9.12 xalan starting warmup 40 =====
Normal completion.
===== DaCapo 9.12 xalan completed warmup 40 in 3128 msec =====
===== DaCapo 9.12 xalan starting warmup 41 =====
Normal completion.
===== DaCapo 9.12 xalan completed warmup 41 in 3082 msec =====
===== DaCapo 9.12 xalan starting warmup 42 =====
Normal completion.
===== DaCapo 9.12 xalan completed warmup 42 in 3031 msec =====
===== DaCapo 9.12 xalan starting warmup 43 =====
Normal completion.
===== DaCapo 9.12 xalan completed warmup 43 in 3060 msec =====
===== DaCapo 9.12 xalan starting warmup 44 =====
Normal completion.
===== DaCapo 9.12 xalan completed warmup 44 in 3270 msec =====
===== DaCapo 9.12 xalan starting warmup 45 =====
Normal completion.
===== DaCapo 9.12 xalan completed warmup 45 in 3097 msec =====
===== DaCapo 9.12 xalan starting warmup 46 =====
Normal completion.
===== DaCapo 9.12 xalan completed warmup 46 in 3144 msec =====
===== DaCapo 9.12 xalan starting warmup 47 =====
Normal completion.
===== DaCapo 9.12 xalan completed warmup 47 in 3099 msec =====
===== DaCapo 9.12 xalan starting warmup 48 =====
Normal completion.
===== DaCapo 9.12 xalan completed warmup 48 in 3040 msec =====
===== DaCapo 9.12 xalan starting warmup 49 =====
Normal completion.
===== DaCapo 9.12 xalan completed warmup 49 in 3133 msec =====
===== DaCapo 9.12 xalan starting warmup 50 =====
Normal completion.
===== DaCapo 9.12 xalan completed warmup 50 in 3104 msec =====
===== DaCapo 9.12 xalan starting warmup 51 =====
Normal completion.
===== DaCapo 9.12 xalan completed warmup 51 in 3138 msec =====
===== DaCapo 9.12 xalan starting warmup 52 =====
Normal completion.
===== DaCapo 9.12 xalan completed warmup 52 in 3139 msec =====
===== DaCapo 9.12 xalan starting warmup 53 =====
Normal completion.
===== DaCapo 9.12 xalan completed warmup 53 in 3150 msec =====
===== DaCapo 9.12 xalan starting warmup 54 =====
Normal completion.
===== DaCapo 9.12 xalan completed warmup 54 in 3199 msec =====
===== DaCapo 9.12 xalan starting warmup 55 =====
Normal completion.
===== DaCapo 9.12 xalan completed warmup 55 in 3153 msec =====
===== DaCapo 9.12 xalan starting warmup 56 =====
Normal completion.
===== DaCapo 9.12 xalan completed warmup 56 in 3184 msec =====
===== DaCapo 9.12 xalan starting warmup 57 =====
Normal completion.
===== DaCapo 9.12 xalan completed warmup 57 in 3061 msec =====
===== DaCapo 9.12 xalan starting warmup 58 =====
Normal completion.
===== DaCapo 9.12 xalan completed warmup 58 in 3180 msec =====
===== DaCapo 9.12 xalan starting warmup 59 =====
Normal completion.
===== DaCapo 9.12 xalan completed warmup 59 in 3157 msec =====
===== DaCapo 9.12 xalan starting warmup 60 =====
Normal completion.
===== DaCapo 9.12 xalan completed warmup 60 in 3058 msec =====
===== DaCapo 9.12 xalan starting warmup 61 =====
Normal completion.
===== DaCapo 9.12 xalan completed warmup 61 in 3287 msec =====
===== DaCapo 9.12 xalan starting warmup 62 =====
Normal completion.
===== DaCapo 9.12 xalan completed warmup 62 in 3043 msec =====
===== DaCapo 9.12 xalan starting warmup 63 =====
Normal completion.
===== DaCapo 9.12 xalan completed warmup 63 in 3136 msec =====
===== DaCapo 9.12 xalan starting warmup 64 =====
Normal completion.
===== DaCapo 9.12 xalan completed warmup 64 in 3136 msec =====
===== DaCapo 9.12 xalan starting warmup 65 =====
Normal completion.
===== DaCapo 9.12 xalan completed warmup 65 in 3179 msec =====
===== DaCapo 9.12 xalan starting warmup 66 =====
Normal completion.
===== DaCapo 9.12 xalan completed warmup 66 in 3204 msec =====
===== DaCapo 9.12 xalan starting warmup 67 =====
Normal completion.
===== DaCapo 9.12 xalan completed warmup 67 in 3133 msec =====
===== DaCapo 9.12 xalan starting warmup 68 =====
Normal completion.
===== DaCapo 9.12 xalan completed warmup 68 in 3084 msec =====
===== DaCapo 9.12 xalan starting warmup 69 =====
Normal completion.
===== DaCapo 9.12 xalan completed warmup 69 in 3039 msec =====
===== DaCapo 9.12 xalan starting warmup 70 =====
Normal completion.
===== DaCapo 9.12 xalan completed warmup 70 in 3071 msec =====
===== DaCapo 9.12 xalan starting warmup 71 =====
Normal completion.
===== DaCapo 9.12 xalan completed warmup 71 in 3102 msec =====
===== DaCapo 9.12 xalan starting warmup 72 =====
Normal completion.
===== DaCapo 9.12 xalan completed warmup 72 in 3093 msec =====
===== DaCapo 9.12 xalan starting warmup 73 =====
Normal completion.
===== DaCapo 9.12 xalan completed warmup 73 in 3044 msec =====
===== DaCapo 9.12 xalan starting warmup 74 =====
Normal completion.
===== DaCapo 9.12 xalan completed warmup 74 in 3061 msec =====
===== DaCapo 9.12 xalan starting warmup 75 =====
Normal completion.
===== DaCapo 9.12 xalan completed warmup 75 in 3203 msec =====
===== DaCapo 9.12 xalan starting warmup 76 =====
Normal completion.
===== DaCapo 9.12 xalan completed warmup 76 in 3185 msec =====
===== DaCapo 9.12 xalan starting warmup 77 =====
Normal completion.
===== DaCapo 9.12 xalan completed warmup 77 in 3253 msec =====
===== DaCapo 9.12 xalan starting warmup 78 =====
Normal completion.
===== DaCapo 9.12 xalan completed warmup 78 in 3081 msec =====
===== DaCapo 9.12 xalan starting warmup 79 =====
Normal completion.
===== DaCapo 9.12 xalan completed warmup 79 in 3074 msec =====
===== DaCapo 9.12 xalan starting warmup 80 =====
Normal completion.
===== DaCapo 9.12 xalan completed warmup 80 in 3094 msec =====
===== DaCapo 9.12 xalan starting warmup 81 =====
Normal completion.
===== DaCapo 9.12 xalan completed warmup 81 in 3206 msec =====
===== DaCapo 9.12 xalan starting warmup 82 =====
Normal completion.
===== DaCapo 9.12 xalan completed warmup 82 in 3106 msec =====
===== DaCapo 9.12 xalan starting warmup 83 =====
Normal completion.
===== DaCapo 9.12 xalan completed warmup 83 in 3188 msec =====
===== DaCapo 9.12 xalan starting warmup 84 =====
Normal completion.
===== DaCapo 9.12 xalan completed warmup 84 in 3252 msec =====
===== DaCapo 9.12 xalan starting warmup 85 =====
Normal completion.
===== DaCapo 9.12 xalan completed warmup 85 in 3071 msec =====
===== DaCapo 9.12 xalan starting warmup 86 =====
Normal completion.
===== DaCapo 9.12 xalan completed warmup 86 in 3032 msec =====
===== DaCapo 9.12 xalan starting warmup 87 =====
Normal completion.
===== DaCapo 9.12 xalan completed warmup 87 in 3098 msec =====
===== DaCapo 9.12 xalan starting warmup 88 =====
Normal completion.
===== DaCapo 9.12 xalan completed warmup 88 in 3161 msec =====
===== DaCapo 9.12 xalan starting warmup 89 =====
Normal completion.
===== DaCapo 9.12 xalan completed warmup 89 in 3101 msec =====
===== DaCapo 9.12 xalan starting warmup 90 =====
Normal completion.
===== DaCapo 9.12 xalan completed warmup 90 in 3065 msec =====
===== DaCapo 9.12 xalan starting warmup 91 =====
Normal completion.
===== DaCapo 9.12 xalan completed warmup 91 in 3029 msec =====
===== DaCapo 9.12 xalan starting warmup 92 =====
Normal completion.
===== DaCapo 9.12 xalan completed warmup 92 in 3058 msec =====
===== DaCapo 9.12 xalan starting warmup 93 =====
Normal completion.
===== DaCapo 9.12 xalan completed warmup 93 in 3085 msec =====
===== DaCapo 9.12 xalan starting warmup 94 =====
Normal completion.
===== DaCapo 9.12 xalan completed warmup 94 in 3103 msec =====
===== DaCapo 9.12 xalan starting warmup 95 =====
Normal completion.
===== DaCapo 9.12 xalan completed warmup 95 in 3045 msec =====
===== DaCapo 9.12 xalan starting warmup 96 =====
Normal completion.
===== DaCapo 9.12 xalan completed warmup 96 in 3108 msec =====
===== DaCapo 9.12 xalan starting warmup 97 =====
Normal completion.
===== DaCapo 9.12 xalan completed warmup 97 in 3115 msec =====
===== DaCapo 9.12 xalan starting warmup 98 =====
Normal completion.
===== DaCapo 9.12 xalan completed warmup 98 in 3243 msec =====
===== DaCapo 9.12 xalan starting warmup 99 =====
Normal completion.
===== DaCapo 9.12 xalan completed warmup 99 in 3123 msec =====
===== DaCapo 9.12 xalan starting warmup 100 =====
Normal completion.
===== DaCapo 9.12 xalan completed warmup 100 in 3091 msec =====
===== DaCapo 9.12 xalan starting warmup 101 =====
Normal completion.
===== DaCapo 9.12 xalan completed warmup 101 in 3127 msec =====
===== DaCapo 9.12 xalan starting warmup 102 =====
Normal completion.
===== DaCapo 9.12 xalan completed warmup 102 in 3197 msec =====
===== DaCapo 9.12 xalan starting warmup 103 =====
Normal completion.
===== DaCapo 9.12 xalan completed warmup 103 in 3147 msec =====
===== DaCapo 9.12 xalan starting warmup 104 =====
Normal completion.
===== DaCapo 9.12 xalan completed warmup 104 in 3152 msec =====
===== DaCapo 9.12 xalan starting warmup 105 =====
Normal completion.
===== DaCapo 9.12 xalan completed warmup 105 in 3120 msec =====
===== DaCapo 9.12 xalan starting warmup 106 =====
Normal completion.
===== DaCapo 9.12 xalan completed warmup 106 in 3204 msec =====
===== DaCapo 9.12 xalan starting warmup 107 =====
Normal completion.
===== DaCapo 9.12 xalan completed warmup 107 in 3070 msec =====
===== DaCapo 9.12 xalan starting warmup 108 =====
Normal completion.
===== DaCapo 9.12 xalan completed warmup 108 in 3103 msec =====
===== DaCapo 9.12 xalan starting warmup 109 =====
Normal completion.
===== DaCapo 9.12 xalan completed warmup 109 in 3154 msec =====
===== DaCapo 9.12 xalan starting warmup 110 =====
Normal completion.
===== DaCapo 9.12 xalan completed warmup 110 in 3279 msec =====
===== DaCapo 9.12 xalan starting warmup 111 =====
Normal completion.
===== DaCapo 9.12 xalan completed warmup 111 in 3108 msec =====
===== DaCapo 9.12 xalan starting warmup 112 =====
Normal completion.
===== DaCapo 9.12 xalan completed warmup 112 in 3121 msec =====
===== DaCapo 9.12 xalan starting warmup 113 =====
Normal completion.
===== DaCapo 9.12 xalan completed warmup 113 in 3109 msec =====
===== DaCapo 9.12 xalan starting warmup 114 =====
Normal completion.
===== DaCapo 9.12 xalan completed warmup 114 in 3291 msec =====
===== DaCapo 9.12 xalan starting warmup 115 =====
Normal completion.
===== DaCapo 9.12 xalan completed warmup 115 in 3074 msec =====
===== DaCapo 9.12 xalan starting warmup 116 =====
Normal completion.
===== DaCapo 9.12 xalan completed warmup 116 in 3141 msec =====
===== DaCapo 9.12 xalan starting warmup 117 =====
Normal completion.
===== DaCapo 9.12 xalan completed warmup 117 in 3118 msec =====
===== DaCapo 9.12 xalan starting warmup 118 =====
Normal completion.
===== DaCapo 9.12 xalan completed warmup 118 in 3180 msec =====
===== DaCapo 9.12 xalan starting warmup 119 =====
Normal completion.
===== DaCapo 9.12 xalan completed warmup 119 in 3058 msec =====
===== DaCapo 9.12 xalan starting warmup 120 =====
Normal completion.
===== DaCapo 9.12 xalan completed warmup 120 in 3144 msec =====
===== DaCapo 9.12 xalan starting warmup 121 =====
Normal completion.
===== DaCapo 9.12 xalan completed warmup 121 in 3184 msec =====
===== DaCapo 9.12 xalan starting warmup 122 =====
Normal completion.
===== DaCapo 9.12 xalan completed warmup 122 in 3106 msec =====
===== DaCapo 9.12 xalan starting warmup 123 =====
Normal completion.
===== DaCapo 9.12 xalan completed warmup 123 in 3117 msec =====
===== DaCapo 9.12 xalan starting warmup 124 =====
Normal completion.
===== DaCapo 9.12 xalan completed warmup 124 in 3108 msec =====
===== DaCapo 9.12 xalan starting warmup 125 =====
Normal completion.
===== DaCapo 9.12 xalan completed warmup 125 in 3137 msec =====
===== DaCapo 9.12 xalan starting warmup 126 =====
Normal completion.
===== DaCapo 9.12 xalan completed warmup 126 in 3187 msec =====
===== DaCapo 9.12 xalan starting warmup 127 =====
Normal completion.
===== DaCapo 9.12 xalan completed warmup 127 in 3159 msec =====
===== DaCapo 9.12 xalan starting warmup 128 =====
Normal completion.
===== DaCapo 9.12 xalan completed warmup 128 in 3084 msec =====
===== DaCapo 9.12 xalan starting warmup 129 =====
Normal completion.
===== DaCapo 9.12 xalan completed warmup 129 in 3118 msec =====
===== DaCapo 9.12 xalan starting warmup 130 =====
Normal completion.
===== DaCapo 9.12 xalan completed warmup 130 in 3071 msec =====
===== DaCapo 9.12 xalan starting warmup 131 =====
Normal completion.
===== DaCapo 9.12 xalan completed warmup 131 in 3437 msec =====
===== DaCapo 9.12 xalan starting warmup 132 =====
Normal completion.
===== DaCapo 9.12 xalan completed warmup 132 in 3152 msec =====
===== DaCapo 9.12 xalan starting warmup 133 =====
Normal completion.
===== DaCapo 9.12 xalan completed warmup 133 in 3076 msec =====
===== DaCapo 9.12 xalan starting warmup 134 =====
Normal completion.
===== DaCapo 9.12 xalan completed warmup 134 in 3038 msec =====
===== DaCapo 9.12 xalan starting warmup 135 =====
Normal completion.
===== DaCapo 9.12 xalan completed warmup 135 in 3241 msec =====
===== DaCapo 9.12 xalan starting warmup 136 =====
Normal completion.
===== DaCapo 9.12 xalan completed warmup 136 in 3098 msec =====
===== DaCapo 9.12 xalan starting warmup 137 =====
Normal completion.
===== DaCapo 9.12 xalan completed warmup 137 in 3255 msec =====
===== DaCapo 9.12 xalan starting warmup 138 =====
Normal completion.
===== DaCapo 9.12 xalan completed warmup 138 in 3100 msec =====
===== DaCapo 9.12 xalan starting warmup 139 =====
Normal completion.
===== DaCapo 9.12 xalan completed warmup 139 in 3126 msec =====
===== DaCapo 9.12 xalan starting warmup 140 =====
Normal completion.
===== DaCapo 9.12 xalan completed warmup 140 in 3130 msec =====
===== DaCapo 9.12 xalan starting warmup 141 =====
Normal completion.
===== DaCapo 9.12 xalan completed warmup 141 in 3084 msec =====
===== DaCapo 9.12 xalan starting warmup 142 =====
Normal completion.
===== DaCapo 9.12 xalan completed warmup 142 in 3301 msec =====
===== DaCapo 9.12 xalan starting warmup 143 =====
Normal completion.
===== DaCapo 9.12 xalan completed warmup 143 in 3073 msec =====
===== DaCapo 9.12 xalan starting warmup 144 =====
Normal completion.
===== DaCapo 9.12 xalan completed warmup 144 in 3196 msec =====
===== DaCapo 9.12 xalan starting warmup 145 =====
Normal completion.
===== DaCapo 9.12 xalan completed warmup 145 in 3056 msec =====
===== DaCapo 9.12 xalan starting warmup 146 =====
Normal completion.
===== DaCapo 9.12 xalan completed warmup 146 in 3065 msec =====
===== DaCapo 9.12 xalan starting warmup 147 =====
Normal completion.
===== DaCapo 9.12 xalan completed warmup 147 in 3088 msec =====
===== DaCapo 9.12 xalan starting warmup 148 =====
Normal completion.
===== DaCapo 9.12 xalan completed warmup 148 in 3112 msec =====
===== DaCapo 9.12 xalan starting warmup 149 =====
Normal completion.
===== DaCapo 9.12 xalan completed warmup 149 in 3295 msec =====
===== DaCapo 9.12 xalan starting warmup 150 =====
Normal completion.
===== DaCapo 9.12 xalan completed warmup 150 in 3117 msec =====
===== DaCapo 9.12 xalan starting warmup 151 =====
Normal completion.
===== DaCapo 9.12 xalan completed warmup 151 in 3091 msec =====
===== DaCapo 9.12 xalan starting warmup 152 =====
Normal completion.
===== DaCapo 9.12 xalan completed warmup 152 in 3050 msec =====
===== DaCapo 9.12 xalan starting warmup 153 =====
Normal completion.
===== DaCapo 9.12 xalan completed warmup 153 in 3181 msec =====
===== DaCapo 9.12 xalan starting warmup 154 =====
Normal completion.
===== DaCapo 9.12 xalan completed warmup 154 in 3270 msec =====
===== DaCapo 9.12 xalan starting warmup 155 =====
Normal completion.
===== DaCapo 9.12 xalan completed warmup 155 in 3051 msec =====
===== DaCapo 9.12 xalan starting warmup 156 =====
Normal completion.
===== DaCapo 9.12 xalan completed warmup 156 in 3169 msec =====
===== DaCapo 9.12 xalan starting warmup 157 =====
Normal completion.
===== DaCapo 9.12 xalan completed warmup 157 in 3067 msec =====
===== DaCapo 9.12 xalan starting warmup 158 =====
Normal completion.
===== DaCapo 9.12 xalan completed warmup 158 in 3051 msec =====
===== DaCapo 9.12 xalan starting warmup 159 =====
Normal completion.
===== DaCapo 9.12 xalan completed warmup 159 in 3141 msec =====
===== DaCapo 9.12 xalan starting warmup 160 =====
Normal completion.
===== DaCapo 9.12 xalan completed warmup 160 in 3051 msec =====
===== DaCapo 9.12 xalan starting warmup 161 =====
Normal completion.
===== DaCapo 9.12 xalan completed warmup 161 in 3184 msec =====
===== DaCapo 9.12 xalan starting warmup 162 =====
Normal completion.
===== DaCapo 9.12 xalan completed warmup 162 in 3150 msec =====
===== DaCapo 9.12 xalan starting warmup 163 =====
Normal completion.
===== DaCapo 9.12 xalan completed warmup 163 in 3066 msec =====
===== DaCapo 9.12 xalan starting warmup 164 =====
Normal completion.
===== DaCapo 9.12 xalan completed warmup 164 in 3107 msec =====
===== DaCapo 9.12 xalan starting warmup 165 =====
Normal completion.
===== DaCapo 9.12 xalan completed warmup 165 in 3039 msec =====
===== DaCapo 9.12 xalan starting warmup 166 =====
Normal completion.
===== DaCapo 9.12 xalan completed warmup 166 in 3306 msec =====
===== DaCapo 9.12 xalan starting warmup 167 =====
Normal completion.
===== DaCapo 9.12 xalan completed warmup 167 in 3100 msec =====
===== DaCapo 9.12 xalan starting warmup 168 =====
Normal completion.
===== DaCapo 9.12 xalan completed warmup 168 in 3269 msec =====
===== DaCapo 9.12 xalan starting warmup 169 =====
Normal completion.
===== DaCapo 9.12 xalan completed warmup 169 in 3179 msec =====
===== DaCapo 9.12 xalan starting warmup 170 =====
Normal completion.
===== DaCapo 9.12 xalan completed warmup 170 in 3123 msec =====
===== DaCapo 9.12 xalan starting warmup 171 =====
Normal completion.
===== DaCapo 9.12 xalan completed warmup 171 in 3105 msec =====
===== DaCapo 9.12 xalan starting warmup 172 =====
Normal completion.
===== DaCapo 9.12 xalan completed warmup 172 in 3187 msec =====
===== DaCapo 9.12 xalan starting warmup 173 =====
Normal completion.
===== DaCapo 9.12 xalan completed warmup 173 in 3151 msec =====
===== DaCapo 9.12 xalan starting warmup 174 =====
Normal completion.
===== DaCapo 9.12 xalan completed warmup 174 in 3080 msec =====
===== DaCapo 9.12 xalan starting warmup 175 =====
Normal completion.
===== DaCapo 9.12 xalan completed warmup 175 in 3270 msec =====
===== DaCapo 9.12 xalan starting warmup 176 =====
Normal completion.
===== DaCapo 9.12 xalan completed warmup 176 in 3174 msec =====
===== DaCapo 9.12 xalan starting warmup 177 =====
Normal completion.
===== DaCapo 9.12 xalan completed warmup 177 in 3186 msec =====
===== DaCapo 9.12 xalan starting warmup 178 =====
Normal completion.
===== DaCapo 9.12 xalan completed warmup 178 in 3096 msec =====
===== DaCapo 9.12 xalan starting warmup 179 =====
Normal completion.
===== DaCapo 9.12 xalan completed warmup 179 in 3226 msec =====
===== DaCapo 9.12 xalan starting warmup 180 =====
Normal completion.
===== DaCapo 9.12 xalan completed warmup 180 in 3078 msec =====
===== DaCapo 9.12 xalan starting warmup 181 =====
Normal completion.
===== DaCapo 9.12 xalan completed warmup 181 in 3040 msec =====
===== DaCapo 9.12 xalan starting warmup 182 =====
Normal completion.
===== DaCapo 9.12 xalan completed warmup 182 in 3136 msec =====
===== DaCapo 9.12 xalan starting warmup 183 =====
Normal completion.
===== DaCapo 9.12 xalan completed warmup 183 in 3158 msec =====
===== DaCapo 9.12 xalan starting warmup 184 =====
Normal completion.
===== DaCapo 9.12 xalan completed warmup 184 in 3176 msec =====
===== DaCapo 9.12 xalan starting warmup 185 =====
Normal completion.
===== DaCapo 9.12 xalan completed warmup 185 in 3241 msec =====
===== DaCapo 9.12 xalan starting warmup 186 =====
Normal completion.
===== DaCapo 9.12 xalan completed warmup 186 in 3104 msec =====
===== DaCapo 9.12 xalan starting warmup 187 =====
Normal completion.
===== DaCapo 9.12 xalan completed warmup 187 in 3125 msec =====
===== DaCapo 9.12 xalan starting warmup 188 =====
Normal completion.
===== DaCapo 9.12 xalan completed warmup 188 in 3086 msec =====
===== DaCapo 9.12 xalan starting warmup 189 =====
Normal completion.
===== DaCapo 9.12 xalan completed warmup 189 in 3091 msec =====
===== DaCapo 9.12 xalan starting warmup 190 =====
Normal completion.
===== DaCapo 9.12 xalan completed warmup 190 in 3086 msec =====
===== DaCapo 9.12 xalan starting warmup 191 =====
Normal completion.
===== DaCapo 9.12 xalan completed warmup 191 in 3087 msec =====
===== DaCapo 9.12 xalan starting warmup 192 =====
Normal completion.
===== DaCapo 9.12 xalan completed warmup 192 in 3174 msec =====
===== DaCapo 9.12 xalan starting warmup 193 =====
Normal completion.
===== DaCapo 9.12 xalan completed warmup 193 in 3059 msec =====
===== DaCapo 9.12 xalan starting warmup 194 =====
Normal completion.
===== DaCapo 9.12 xalan completed warmup 194 in 3222 msec =====
===== DaCapo 9.12 xalan starting warmup 195 =====
Normal completion.
===== DaCapo 9.12 xalan completed warmup 195 in 3109 msec =====
===== DaCapo 9.12 xalan starting warmup 196 =====
Normal completion.
===== DaCapo 9.12 xalan completed warmup 196 in 3249 msec =====
===== DaCapo 9.12 xalan starting warmup 197 =====
Normal completion.
===== DaCapo 9.12 xalan completed warmup 197 in 3107 msec =====
===== DaCapo 9.12 xalan starting warmup 198 =====
Normal completion.
===== DaCapo 9.12 xalan completed warmup 198 in 3190 msec =====
===== DaCapo 9.12 xalan starting warmup 199 =====
Normal completion.
===== DaCapo 9.12 xalan completed warmup 199 in 3093 msec =====
===== DaCapo 9.12 xalan starting warmup 200 =====
Normal completion.
===== DaCapo 9.12 xalan completed warmup 200 in 3109 msec =====
===== DaCapo 9.12 xalan starting warmup 201 =====
Normal completion.
===== DaCapo 9.12 xalan completed warmup 201 in 3145 msec =====
===== DaCapo 9.12 xalan starting warmup 202 =====
Normal completion.
===== DaCapo 9.12 xalan completed warmup 202 in 3093 msec =====
===== DaCapo 9.12 xalan starting warmup 203 =====
Normal completion.
===== DaCapo 9.12 xalan completed warmup 203 in 3166 msec =====
===== DaCapo 9.12 xalan starting warmup 204 =====
Normal completion.
===== DaCapo 9.12 xalan completed warmup 204 in 3243 msec =====
===== DaCapo 9.12 xalan starting warmup 205 =====
Normal completion.
===== DaCapo 9.12 xalan completed warmup 205 in 3065 msec =====
===== DaCapo 9.12 xalan starting warmup 206 =====
Normal completion.
===== DaCapo 9.12 xalan completed warmup 206 in 3078 msec =====
===== DaCapo 9.12 xalan starting warmup 207 =====
Normal completion.
===== DaCapo 9.12 xalan completed warmup 207 in 3076 msec =====
===== DaCapo 9.12 xalan starting warmup 208 =====
Normal completion.
===== DaCapo 9.12 xalan completed warmup 208 in 3089 msec =====
===== DaCapo 9.12 xalan starting warmup 209 =====
Normal completion.
===== DaCapo 9.12 xalan completed warmup 209 in 3215 msec =====
===== DaCapo 9.12 xalan starting warmup 210 =====
Normal completion.
===== DaCapo 9.12 xalan completed warmup 210 in 3136 msec =====
===== DaCapo 9.12 xalan starting warmup 211 =====
Normal completion.
===== DaCapo 9.12 xalan completed warmup 211 in 3120 msec =====
===== DaCapo 9.12 xalan starting warmup 212 =====
Normal completion.
===== DaCapo 9.12 xalan completed warmup 212 in 3133 msec =====
===== DaCapo 9.12 xalan starting warmup 213 =====
Normal completion.
===== DaCapo 9.12 xalan completed warmup 213 in 3133 msec =====
===== DaCapo 9.12 xalan starting warmup 214 =====
Normal completion.
===== DaCapo 9.12 xalan completed warmup 214 in 3085 msec =====
===== DaCapo 9.12 xalan starting warmup 215 =====
Normal completion.
===== DaCapo 9.12 xalan completed warmup 215 in 3084 msec =====
===== DaCapo 9.12 xalan starting warmup 216 =====
Normal completion.
===== DaCapo 9.12 xalan completed warmup 216 in 3093 msec =====
===== DaCapo 9.12 xalan starting warmup 217 =====
Normal completion.
===== DaCapo 9.12 xalan completed warmup 217 in 3065 msec =====
===== DaCapo 9.12 xalan starting warmup 218 =====
Normal completion.
===== DaCapo 9.12 xalan completed warmup 218 in 3124 msec =====
===== DaCapo 9.12 xalan starting warmup 219 =====
Normal completion.
===== DaCapo 9.12 xalan completed warmup 219 in 3293 msec =====
===== DaCapo 9.12 xalan starting warmup 220 =====
Normal completion.
===== DaCapo 9.12 xalan completed warmup 220 in 3094 msec =====
===== DaCapo 9.12 xalan starting warmup 221 =====
Normal completion.
===== DaCapo 9.12 xalan completed warmup 221 in 3072 msec =====
===== DaCapo 9.12 xalan starting warmup 222 =====
Normal completion.
===== DaCapo 9.12 xalan completed warmup 222 in 3021 msec =====
===== DaCapo 9.12 xalan starting warmup 223 =====
Normal completion.
===== DaCapo 9.12 xalan completed warmup 223 in 3116 msec =====
===== DaCapo 9.12 xalan starting warmup 224 =====
Normal completion.
===== DaCapo 9.12 xalan completed warmup 224 in 3069 msec =====
===== DaCapo 9.12 xalan starting warmup 225 =====
Normal completion.
===== DaCapo 9.12 xalan completed warmup 225 in 3034 msec =====
===== DaCapo 9.12 xalan starting warmup 226 =====
Normal completion.
===== DaCapo 9.12 xalan completed warmup 226 in 3084 msec =====
===== DaCapo 9.12 xalan starting warmup 227 =====
Normal completion.
===== DaCapo 9.12 xalan completed warmup 227 in 3077 msec =====
===== DaCapo 9.12 xalan starting warmup 228 =====
Normal completion.
===== DaCapo 9.12 xalan completed warmup 228 in 3085 msec =====
===== DaCapo 9.12 xalan starting warmup 229 =====
Normal completion.
===== DaCapo 9.12 xalan completed warmup 229 in 3025 msec =====
===== DaCapo 9.12 xalan starting warmup 230 =====
Normal completion.
===== DaCapo 9.12 xalan completed warmup 230 in 3054 msec =====
===== DaCapo 9.12 xalan starting warmup 231 =====
Normal completion.
===== DaCapo 9.12 xalan completed warmup 231 in 3075 msec =====
===== DaCapo 9.12 xalan starting warmup 232 =====
Normal completion.
===== DaCapo 9.12 xalan completed warmup 232 in 3054 msec =====
===== DaCapo 9.12 xalan starting warmup 233 =====
Normal completion.
===== DaCapo 9.12 xalan completed warmup 233 in 3083 msec =====
===== DaCapo 9.12 xalan starting warmup 234 =====
Normal completion.
===== DaCapo 9.12 xalan completed warmup 234 in 3092 msec =====
===== DaCapo 9.12 xalan starting warmup 235 =====
Normal completion.
===== DaCapo 9.12 xalan completed warmup 235 in 3045 msec =====
===== DaCapo 9.12 xalan starting warmup 236 =====
Normal completion.
===== DaCapo 9.12 xalan completed warmup 236 in 3042 msec =====
===== DaCapo 9.12 xalan starting warmup 237 =====
Normal completion.
===== DaCapo 9.12 xalan completed warmup 237 in 3046 msec =====
===== DaCapo 9.12 xalan starting warmup 238 =====
Normal completion.
===== DaCapo 9.12 xalan completed warmup 238 in 3067 msec =====
===== DaCapo 9.12 xalan starting warmup 239 =====
Normal completion.
===== DaCapo 9.12 xalan completed warmup 239 in 3030 msec =====
===== DaCapo 9.12 xalan starting warmup 240 =====
Normal completion.
===== DaCapo 9.12 xalan completed warmup 240 in 3129 msec =====
===== DaCapo 9.12 xalan starting warmup 241 =====
Normal completion.
===== DaCapo 9.12 xalan completed warmup 241 in 3100 msec =====
===== DaCapo 9.12 xalan starting warmup 242 =====
Normal completion.
===== DaCapo 9.12 xalan completed warmup 242 in 3043 msec =====
===== DaCapo 9.12 xalan starting warmup 243 =====
Normal completion.
===== DaCapo 9.12 xalan completed warmup 243 in 3166 msec =====
===== DaCapo 9.12 xalan starting warmup 244 =====
Normal completion.
===== DaCapo 9.12 xalan completed warmup 244 in 3173 msec =====
===== DaCapo 9.12 xalan starting warmup 245 =====
Normal completion.
===== DaCapo 9.12 xalan completed warmup 245 in 3183 msec =====
===== DaCapo 9.12 xalan starting warmup 246 =====
Normal completion.
===== DaCapo 9.12 xalan completed warmup 246 in 3127 msec =====
===== DaCapo 9.12 xalan starting warmup 247 =====
Normal completion.
===== DaCapo 9.12 xalan completed warmup 247 in 3033 msec =====
===== DaCapo 9.12 xalan starting warmup 248 =====
Normal completion.
===== DaCapo 9.12 xalan completed warmup 248 in 3099 msec =====
===== DaCapo 9.12 xalan starting warmup 249 =====
Normal completion.
===== DaCapo 9.12 xalan completed warmup 249 in 3077 msec =====
===== DaCapo 9.12 xalan starting warmup 250 =====
Normal completion.
===== DaCapo 9.12 xalan completed warmup 250 in 3119 msec =====
===== DaCapo 9.12 xalan starting warmup 251 =====
Normal completion.
===== DaCapo 9.12 xalan completed warmup 251 in 3199 msec =====
===== DaCapo 9.12 xalan starting warmup 252 =====
Normal completion.
===== DaCapo 9.12 xalan completed warmup 252 in 3068 msec =====
===== DaCapo 9.12 xalan starting warmup 253 =====
Normal completion.
===== DaCapo 9.12 xalan completed warmup 253 in 3102 msec =====
===== DaCapo 9.12 xalan starting warmup 254 =====
Normal completion.
===== DaCapo 9.12 xalan completed warmup 254 in 3052 msec =====
===== DaCapo 9.12 xalan starting warmup 255 =====
Normal completion.
===== DaCapo 9.12 xalan completed warmup 255 in 3108 msec =====
===== DaCapo 9.12 xalan starting warmup 256 =====
Normal completion.
===== DaCapo 9.12 xalan completed warmup 256 in 3087 msec =====
===== DaCapo 9.12 xalan starting warmup 257 =====
Normal completion.
===== DaCapo 9.12 xalan completed warmup 257 in 3098 msec =====
===== DaCapo 9.12 xalan starting warmup 258 =====
Normal completion.
===== DaCapo 9.12 xalan completed warmup 258 in 3170 msec =====
===== DaCapo 9.12 xalan starting warmup 259 =====
Normal completion.
===== DaCapo 9.12 xalan completed warmup 259 in 3023 msec =====
===== DaCapo 9.12 xalan starting warmup 260 =====
Normal completion.
===== DaCapo 9.12 xalan completed warmup 260 in 3081 msec =====
===== DaCapo 9.12 xalan starting warmup 261 =====
Normal completion.
===== DaCapo 9.12 xalan completed warmup 261 in 3120 msec =====
===== DaCapo 9.12 xalan starting warmup 262 =====
Normal completion.
===== DaCapo 9.12 xalan completed warmup 262 in 3136 msec =====
===== DaCapo 9.12 xalan starting warmup 263 =====
Normal completion.
===== DaCapo 9.12 xalan completed warmup 263 in 3136 msec =====
===== DaCapo 9.12 xalan starting warmup 264 =====
Normal completion.
===== DaCapo 9.12 xalan completed warmup 264 in 3123 msec =====
===== DaCapo 9.12 xalan starting warmup 265 =====
Normal completion.
===== DaCapo 9.12 xalan completed warmup 265 in 3166 msec =====
===== DaCapo 9.12 xalan starting warmup 266 =====
Normal completion.
===== DaCapo 9.12 xalan completed warmup 266 in 3103 msec =====
===== DaCapo 9.12 xalan starting warmup 267 =====
Normal completion.
===== DaCapo 9.12 xalan completed warmup 267 in 3148 msec =====
===== DaCapo 9.12 xalan starting warmup 268 =====
Normal completion.
===== DaCapo 9.12 xalan completed warmup 268 in 3097 msec =====
===== DaCapo 9.12 xalan starting warmup 269 =====
Normal completion.
===== DaCapo 9.12 xalan completed warmup 269 in 3192 msec =====
===== DaCapo 9.12 xalan starting warmup 270 =====
Normal completion.
===== DaCapo 9.12 xalan completed warmup 270 in 3173 msec =====
===== DaCapo 9.12 xalan starting warmup 271 =====
Normal completion.
===== DaCapo 9.12 xalan completed warmup 271 in 3294 msec =====
===== DaCapo 9.12 xalan starting warmup 272 =====
Normal completion.
===== DaCapo 9.12 xalan completed warmup 272 in 3087 msec =====
===== DaCapo 9.12 xalan starting warmup 273 =====
Normal completion.
===== DaCapo 9.12 xalan completed warmup 273 in 3184 msec =====
===== DaCapo 9.12 xalan starting warmup 274 =====
Normal completion.
===== DaCapo 9.12 xalan completed warmup 274 in 3169 msec =====
===== DaCapo 9.12 xalan starting warmup 275 =====
Normal completion.
===== DaCapo 9.12 xalan completed warmup 275 in 3113 msec =====
===== DaCapo 9.12 xalan starting warmup 276 =====
Normal completion.
===== DaCapo 9.12 xalan completed warmup 276 in 3079 msec =====
===== DaCapo 9.12 xalan starting warmup 277 =====
Normal completion.
===== DaCapo 9.12 xalan completed warmup 277 in 3138 msec =====
===== DaCapo 9.12 xalan starting warmup 278 =====
Normal completion.
===== DaCapo 9.12 xalan completed warmup 278 in 3060 msec =====
===== DaCapo 9.12 xalan starting warmup 279 =====
Normal completion.
===== DaCapo 9.12 xalan completed warmup 279 in 3121 msec =====
===== DaCapo 9.12 xalan starting warmup 280 =====
Normal completion.
===== DaCapo 9.12 xalan completed warmup 280 in 3135 msec =====
===== DaCapo 9.12 xalan starting warmup 281 =====
Normal completion.
===== DaCapo 9.12 xalan completed warmup 281 in 3110 msec =====
===== DaCapo 9.12 xalan starting warmup 282 =====
Normal completion.
===== DaCapo 9.12 xalan completed warmup 282 in 3086 msec =====
===== DaCapo 9.12 xalan starting warmup 283 =====
Normal completion.
===== DaCapo 9.12 xalan completed warmup 283 in 3051 msec =====
===== DaCapo 9.12 xalan starting warmup 284 =====
Normal completion.
===== DaCapo 9.12 xalan completed warmup 284 in 3132 msec =====
===== DaCapo 9.12 xalan starting warmup 285 =====
Normal completion.
===== DaCapo 9.12 xalan completed warmup 285 in 3042 msec =====
===== DaCapo 9.12 xalan starting warmup 286 =====
Normal completion.
===== DaCapo 9.12 xalan completed warmup 286 in 3090 msec =====
===== DaCapo 9.12 xalan starting warmup 287 =====
Normal completion.
===== DaCapo 9.12 xalan completed warmup 287 in 3115 msec =====
===== DaCapo 9.12 xalan starting warmup 288 =====
Normal completion.
===== DaCapo 9.12 xalan completed warmup 288 in 3105 msec =====
===== DaCapo 9.12 xalan starting warmup 289 =====
Normal completion.
===== DaCapo 9.12 xalan completed warmup 289 in 3096 msec =====
===== DaCapo 9.12 xalan starting warmup 290 =====
Normal completion.
===== DaCapo 9.12 xalan completed warmup 290 in 3074 msec =====
===== DaCapo 9.12 xalan starting warmup 291 =====
Normal completion.
===== DaCapo 9.12 xalan completed warmup 291 in 3129 msec =====
===== DaCapo 9.12 xalan starting warmup 292 =====
Normal completion.
===== DaCapo 9.12 xalan completed warmup 292 in 3035 msec =====
===== DaCapo 9.12 xalan starting warmup 293 =====
Normal completion.
===== DaCapo 9.12 xalan completed warmup 293 in 3124 msec =====
===== DaCapo 9.12 xalan starting warmup 294 =====
Normal completion.
===== DaCapo 9.12 xalan completed warmup 294 in 3204 msec =====
===== DaCapo 9.12 xalan starting warmup 295 =====
Normal completion.
===== DaCapo 9.12 xalan completed warmup 295 in 3057 msec =====
===== DaCapo 9.12 xalan starting warmup 296 =====
Normal completion.
===== DaCapo 9.12 xalan completed warmup 296 in 3152 msec =====
===== DaCapo 9.12 xalan starting warmup 297 =====
Normal completion.
===== DaCapo 9.12 xalan completed warmup 297 in 3056 msec =====
===== DaCapo 9.12 xalan starting warmup 298 =====
Normal completion.
===== DaCapo 9.12 xalan completed warmup 298 in 3059 msec =====
===== DaCapo 9.12 xalan starting warmup 299 =====
Normal completion.
===== DaCapo 9.12 xalan completed warmup 299 in 3117 msec =====
===== DaCapo 9.12 xalan starting warmup 300 =====
Normal completion.
===== DaCapo 9.12 xalan completed warmup 300 in 3175 msec =====
===== DaCapo 9.12 xalan starting warmup 301 =====
Normal completion.
===== DaCapo 9.12 xalan completed warmup 301 in 3051 msec =====
===== DaCapo 9.12 xalan starting warmup 302 =====
Normal completion.
===== DaCapo 9.12 xalan completed warmup 302 in 3166 msec =====
===== DaCapo 9.12 xalan starting warmup 303 =====
Normal completion.
===== DaCapo 9.12 xalan completed warmup 303 in 3079 msec =====
===== DaCapo 9.12 xalan starting warmup 304 =====
Normal completion.
===== DaCapo 9.12 xalan completed warmup 304 in 3043 msec =====
===== DaCapo 9.12 xalan starting warmup 305 =====
Normal completion.
===== DaCapo 9.12 xalan completed warmup 305 in 3125 msec =====
===== DaCapo 9.12 xalan starting warmup 306 =====
Normal completion.
===== DaCapo 9.12 xalan completed warmup 306 in 3297 msec =====
===== DaCapo 9.12 xalan starting warmup 307 =====
Normal completion.
===== DaCapo 9.12 xalan completed warmup 307 in 3084 msec =====
===== DaCapo 9.12 xalan starting warmup 308 =====
Normal completion.
===== DaCapo 9.12 xalan completed warmup 308 in 3035 msec =====
===== DaCapo 9.12 xalan starting warmup 309 =====
Normal completion.
===== DaCapo 9.12 xalan completed warmup 309 in 3071 msec =====
===== DaCapo 9.12 xalan starting warmup 310 =====
Normal completion.
===== DaCapo 9.12 xalan completed warmup 310 in 3247 msec =====
===== DaCapo 9.12 xalan starting warmup 311 =====
Normal completion.
===== DaCapo 9.12 xalan completed warmup 311 in 3200 msec =====
===== DaCapo 9.12 xalan starting warmup 312 =====
Normal completion.
===== DaCapo 9.12 xalan completed warmup 312 in 3190 msec =====
===== DaCapo 9.12 xalan starting warmup 313 =====
Normal completion.
===== DaCapo 9.12 xalan completed warmup 313 in 3131 msec =====
===== DaCapo 9.12 xalan starting warmup 314 =====
Normal completion.
===== DaCapo 9.12 xalan completed warmup 314 in 3336 msec =====
===== DaCapo 9.12 xalan starting warmup 315 =====
Normal completion.
===== DaCapo 9.12 xalan completed warmup 315 in 3062 msec =====
===== DaCapo 9.12 xalan starting warmup 316 =====
Normal completion.
===== DaCapo 9.12 xalan completed warmup 316 in 3108 msec =====
===== DaCapo 9.12 xalan starting warmup 317 =====
Normal completion.
===== DaCapo 9.12 xalan completed warmup 317 in 3096 msec =====
===== DaCapo 9.12 xalan starting warmup 318 =====
Normal completion.
===== DaCapo 9.12 xalan completed warmup 318 in 3105 msec =====
===== DaCapo 9.12 xalan starting warmup 319 =====
Normal completion.
===== DaCapo 9.12 xalan completed warmup 319 in 3097 msec =====
===== DaCapo 9.12 xalan starting warmup 320 =====
Normal completion.
===== DaCapo 9.12 xalan completed warmup 320 in 3115 msec =====
===== DaCapo 9.12 xalan starting warmup 321 =====
Normal completion.
===== DaCapo 9.12 xalan completed warmup 321 in 3203 msec =====
===== DaCapo 9.12 xalan starting warmup 322 =====
Normal completion.
===== DaCapo 9.12 xalan completed warmup 322 in 3085 msec =====
===== DaCapo 9.12 xalan starting warmup 323 =====
Normal completion.
===== DaCapo 9.12 xalan completed warmup 323 in 3185 msec =====
===== DaCapo 9.12 xalan starting warmup 324 =====
Normal completion.
===== DaCapo 9.12 xalan completed warmup 324 in 3087 msec =====
===== DaCapo 9.12 xalan starting warmup 325 =====
Normal completion.
===== DaCapo 9.12 xalan completed warmup 325 in 3193 msec =====
===== DaCapo 9.12 xalan starting warmup 326 =====
Normal completion.
===== DaCapo 9.12 xalan completed warmup 326 in 3065 msec =====
===== DaCapo 9.12 xalan starting warmup 327 =====
Normal completion.
===== DaCapo 9.12 xalan completed warmup 327 in 3044 msec =====
===== DaCapo 9.12 xalan starting warmup 328 =====
Normal completion.
===== DaCapo 9.12 xalan completed warmup 328 in 3039 msec =====
===== DaCapo 9.12 xalan starting warmup 329 =====
Normal completion.
===== DaCapo 9.12 xalan completed warmup 329 in 3056 msec =====
===== DaCapo 9.12 xalan starting warmup 330 =====
Normal completion.
===== DaCapo 9.12 xalan completed warmup 330 in 3065 msec =====
===== DaCapo 9.12 xalan starting warmup 331 =====
Normal completion.
===== DaCapo 9.12 xalan completed warmup 331 in 3184 msec =====
===== DaCapo 9.12 xalan starting warmup 332 =====
Normal completion.
===== DaCapo 9.12 xalan completed warmup 332 in 3102 msec =====
===== DaCapo 9.12 xalan starting warmup 333 =====
Normal completion.
===== DaCapo 9.12 xalan completed warmup 333 in 3064 msec =====
===== DaCapo 9.12 xalan starting warmup 334 =====
Normal completion.
===== DaCapo 9.12 xalan completed warmup 334 in 3109 msec =====
===== DaCapo 9.12 xalan starting warmup 335 =====
Normal completion.
===== DaCapo 9.12 xalan completed warmup 335 in 3073 msec =====
===== DaCapo 9.12 xalan starting warmup 336 =====
Normal completion.
===== DaCapo 9.12 xalan completed warmup 336 in 3060 msec =====
===== DaCapo 9.12 xalan starting warmup 337 =====
Normal completion.
===== DaCapo 9.12 xalan completed warmup 337 in 3054 msec =====
===== DaCapo 9.12 xalan starting warmup 338 =====
Normal completion.
===== DaCapo 9.12 xalan completed warmup 338 in 3030 msec =====
===== DaCapo 9.12 xalan starting warmup 339 =====
Normal completion.
===== DaCapo 9.12 xalan completed warmup 339 in 3141 msec =====
===== DaCapo 9.12 xalan starting warmup 340 =====
Normal completion.
===== DaCapo 9.12 xalan completed warmup 340 in 3026 msec =====
===== DaCapo 9.12 xalan starting warmup 341 =====
Normal completion.
===== DaCapo 9.12 xalan completed warmup 341 in 3124 msec =====
===== DaCapo 9.12 xalan starting warmup 342 =====
Normal completion.
===== DaCapo 9.12 xalan completed warmup 342 in 3030 msec =====
===== DaCapo 9.12 xalan starting warmup 343 =====
Normal completion.
===== DaCapo 9.12 xalan completed warmup 343 in 3030 msec =====
===== DaCapo 9.12 xalan starting warmup 344 =====
Normal completion.
===== DaCapo 9.12 xalan completed warmup 344 in 3105 msec =====
===== DaCapo 9.12 xalan starting warmup 345 =====
Normal completion.
===== DaCapo 9.12 xalan completed warmup 345 in 3102 msec =====
===== DaCapo 9.12 xalan starting warmup 346 =====
Normal completion.
===== DaCapo 9.12 xalan completed warmup 346 in 3119 msec =====
===== DaCapo 9.12 xalan starting warmup 347 =====
Normal completion.
===== DaCapo 9.12 xalan completed warmup 347 in 3075 msec =====
===== DaCapo 9.12 xalan starting warmup 348 =====
Normal completion.
===== DaCapo 9.12 xalan completed warmup 348 in 3068 msec =====
===== DaCapo 9.12 xalan starting warmup 349 =====
Normal completion.
===== DaCapo 9.12 xalan completed warmup 349 in 3062 msec =====
===== DaCapo 9.12 xalan starting warmup 350 =====
Normal completion.
===== DaCapo 9.12 xalan completed warmup 350 in 3105 msec =====
===== DaCapo 9.12 xalan starting warmup 351 =====
Normal completion.
===== DaCapo 9.12 xalan completed warmup 351 in 3039 msec =====
===== DaCapo 9.12 xalan starting warmup 352 =====
Normal completion.
===== DaCapo 9.12 xalan completed warmup 352 in 3072 msec =====
===== DaCapo 9.12 xalan starting warmup 353 =====
Normal completion.
===== DaCapo 9.12 xalan completed warmup 353 in 3095 msec =====
===== DaCapo 9.12 xalan starting warmup 354 =====
Normal completion.
===== DaCapo 9.12 xalan completed warmup 354 in 3036 msec =====
===== DaCapo 9.12 xalan starting warmup 355 =====
Normal completion.
===== DaCapo 9.12 xalan completed warmup 355 in 3019 msec =====
===== DaCapo 9.12 xalan starting warmup 356 =====
Normal completion.
===== DaCapo 9.12 xalan completed warmup 356 in 3166 msec =====
===== DaCapo 9.12 xalan starting warmup 357 =====
Normal completion.
===== DaCapo 9.12 xalan completed warmup 357 in 3084 msec =====
===== DaCapo 9.12 xalan starting warmup 358 =====
Normal completion.
===== DaCapo 9.12 xalan completed warmup 358 in 3069 msec =====
===== DaCapo 9.12 xalan starting warmup 359 =====
Normal completion.
===== DaCapo 9.12 xalan completed warmup 359 in 3050 msec =====
===== DaCapo 9.12 xalan starting warmup 360 =====
Normal completion.
===== DaCapo 9.12 xalan completed warmup 360 in 3059 msec =====
===== DaCapo 9.12 xalan starting warmup 361 =====
Normal completion.
===== DaCapo 9.12 xalan completed warmup 361 in 3022 msec =====
===== DaCapo 9.12 xalan starting warmup 362 =====
Normal completion.
===== DaCapo 9.12 xalan completed warmup 362 in 3036 msec =====
===== DaCapo 9.12 xalan starting warmup 363 =====
Normal completion.
===== DaCapo 9.12 xalan completed warmup 363 in 3067 msec =====
===== DaCapo 9.12 xalan starting warmup 364 =====
Normal completion.
===== DaCapo 9.12 xalan completed warmup 364 in 3052 msec =====
===== DaCapo 9.12 xalan starting warmup 365 =====
Normal completion.
===== DaCapo 9.12 xalan completed warmup 365 in 3102 msec =====
===== DaCapo 9.12 xalan starting warmup 366 =====
Normal completion.
===== DaCapo 9.12 xalan completed warmup 366 in 3064 msec =====
===== DaCapo 9.12 xalan starting warmup 367 =====
Normal completion.
===== DaCapo 9.12 xalan completed warmup 367 in 3048 msec =====
===== DaCapo 9.12 xalan starting warmup 368 =====
Normal completion.
===== DaCapo 9.12 xalan completed warmup 368 in 3144 msec =====
===== DaCapo 9.12 xalan starting warmup 369 =====
Normal completion.
===== DaCapo 9.12 xalan completed warmup 369 in 3051 msec =====
===== DaCapo 9.12 xalan starting warmup 370 =====
Normal completion.
===== DaCapo 9.12 xalan completed warmup 370 in 3064 msec =====
===== DaCapo 9.12 xalan starting warmup 371 =====
Normal completion.
===== DaCapo 9.12 xalan completed warmup 371 in 3118 msec =====
===== DaCapo 9.12 xalan starting warmup 372 =====
Normal completion.
===== DaCapo 9.12 xalan completed warmup 372 in 3115 msec =====
===== DaCapo 9.12 xalan starting warmup 373 =====
Normal completion.
===== DaCapo 9.12 xalan completed warmup 373 in 3041 msec =====
===== DaCapo 9.12 xalan starting warmup 374 =====
Normal completion.
===== DaCapo 9.12 xalan completed warmup 374 in 3055 msec =====
===== DaCapo 9.12 xalan starting warmup 375 =====
Normal completion.
===== DaCapo 9.12 xalan completed warmup 375 in 3050 msec =====
===== DaCapo 9.12 xalan starting warmup 376 =====
Normal completion.
===== DaCapo 9.12 xalan completed warmup 376 in 3023 msec =====
===== DaCapo 9.12 xalan starting warmup 377 =====
Normal completion.
===== DaCapo 9.12 xalan completed warmup 377 in 3054 msec =====
===== DaCapo 9.12 xalan starting warmup 378 =====
Normal completion.
===== DaCapo 9.12 xalan completed warmup 378 in 3098 msec =====
===== DaCapo 9.12 xalan starting warmup 379 =====
Normal completion.
===== DaCapo 9.12 xalan completed warmup 379 in 3215 msec =====
===== DaCapo 9.12 xalan starting warmup 380 =====
Normal completion.
===== DaCapo 9.12 xalan completed warmup 380 in 3210 msec =====
===== DaCapo 9.12 xalan starting warmup 381 =====
