Using scaled threading model. 4 processors detected, 1 threads used to drive the workload, in a possible range of [1,256]
===== DaCapo 9.12 sunflow starting warmup 1 =====
===== DaCapo 9.12 sunflow completed warmup 1 in 10981 msec =====
===== DaCapo 9.12 sunflow starting warmup 2 =====
===== DaCapo 9.12 sunflow completed warmup 2 in 9072 msec =====
===== DaCapo 9.12 sunflow starting warmup 3 =====
===== DaCapo 9.12 sunflow completed warmup 3 in 8916 msec =====
===== DaCapo 9.12 sunflow starting warmup 4 =====
===== DaCapo 9.12 sunflow completed warmup 4 in 8836 msec =====
===== DaCapo 9.12 sunflow starting warmup 5 =====
===== DaCapo 9.12 sunflow completed warmup 5 in 8989 msec =====
===== DaCapo 9.12 sunflow starting warmup 6 =====
===== DaCapo 9.12 sunflow completed warmup 6 in 8757 msec =====
===== DaCapo 9.12 sunflow starting warmup 7 =====
===== DaCapo 9.12 sunflow completed warmup 7 in 8850 msec =====
===== DaCapo 9.12 sunflow starting warmup 8 =====
===== DaCapo 9.12 sunflow completed warmup 8 in 8802 msec =====
===== DaCapo 9.12 sunflow starting warmup 9 =====
===== DaCapo 9.12 sunflow completed warmup 9 in 8761 msec =====
===== DaCapo 9.12 sunflow starting warmup 10 =====
===== DaCapo 9.12 sunflow completed warmup 10 in 8790 msec =====
===== DaCapo 9.12 sunflow starting warmup 11 =====
===== DaCapo 9.12 sunflow completed warmup 11 in 8729 msec =====
===== DaCapo 9.12 sunflow starting warmup 12 =====
===== DaCapo 9.12 sunflow completed warmup 12 in 8792 msec =====
===== DaCapo 9.12 sunflow starting warmup 13 =====
===== DaCapo 9.12 sunflow completed warmup 13 in 8778 msec =====
===== DaCapo 9.12 sunflow starting warmup 14 =====
===== DaCapo 9.12 sunflow completed warmup 14 in 8790 msec =====
===== DaCapo 9.12 sunflow starting warmup 15 =====
===== DaCapo 9.12 sunflow completed warmup 15 in 8807 msec =====
===== DaCapo 9.12 sunflow starting warmup 16 =====
===== DaCapo 9.12 sunflow completed warmup 16 in 8730 msec =====
===== DaCapo 9.12 sunflow starting warmup 17 =====
===== DaCapo 9.12 sunflow completed warmup 17 in 8928 msec =====
===== DaCapo 9.12 sunflow starting warmup 18 =====
===== DaCapo 9.12 sunflow completed warmup 18 in 8840 msec =====
===== DaCapo 9.12 sunflow starting warmup 19 =====
===== DaCapo 9.12 sunflow completed warmup 19 in 8761 msec =====
===== DaCapo 9.12 sunflow starting warmup 20 =====
===== DaCapo 9.12 sunflow completed warmup 20 in 8783 msec =====
===== DaCapo 9.12 sunflow starting warmup 21 =====
===== DaCapo 9.12 sunflow completed warmup 21 in 9013 msec =====
===== DaCapo 9.12 sunflow starting warmup 22 =====
===== DaCapo 9.12 sunflow completed warmup 22 in 8815 msec =====
===== DaCapo 9.12 sunflow starting warmup 23 =====
===== DaCapo 9.12 sunflow completed warmup 23 in 8868 msec =====
===== DaCapo 9.12 sunflow starting warmup 24 =====
===== DaCapo 9.12 sunflow completed warmup 24 in 8865 msec =====
===== DaCapo 9.12 sunflow starting warmup 25 =====
===== DaCapo 9.12 sunflow completed warmup 25 in 8920 msec =====
===== DaCapo 9.12 sunflow starting warmup 26 =====
===== DaCapo 9.12 sunflow completed warmup 26 in 8873 msec =====
===== DaCapo 9.12 sunflow starting warmup 27 =====
===== DaCapo 9.12 sunflow completed warmup 27 in 8773 msec =====
===== DaCapo 9.12 sunflow starting warmup 28 =====
===== DaCapo 9.12 sunflow completed warmup 28 in 8803 msec =====
===== DaCapo 9.12 sunflow starting warmup 29 =====
===== DaCapo 9.12 sunflow completed warmup 29 in 8810 msec =====
===== DaCapo 9.12 sunflow starting warmup 30 =====
===== DaCapo 9.12 sunflow completed warmup 30 in 8796 msec =====
===== DaCapo 9.12 sunflow starting warmup 31 =====
===== DaCapo 9.12 sunflow completed warmup 31 in 8812 msec =====
===== DaCapo 9.12 sunflow starting warmup 32 =====
===== DaCapo 9.12 sunflow completed warmup 32 in 8881 msec =====
===== DaCapo 9.12 sunflow starting warmup 33 =====
===== DaCapo 9.12 sunflow completed warmup 33 in 8854 msec =====
===== DaCapo 9.12 sunflow starting warmup 34 =====
===== DaCapo 9.12 sunflow completed warmup 34 in 8782 msec =====
===== DaCapo 9.12 sunflow starting warmup 35 =====
===== DaCapo 9.12 sunflow completed warmup 35 in 8772 msec =====
===== DaCapo 9.12 sunflow starting warmup 36 =====
===== DaCapo 9.12 sunflow completed warmup 36 in 8885 msec =====
===== DaCapo 9.12 sunflow starting warmup 37 =====
===== DaCapo 9.12 sunflow completed warmup 37 in 8782 msec =====
===== DaCapo 9.12 sunflow starting warmup 38 =====
===== DaCapo 9.12 sunflow completed warmup 38 in 8992 msec =====
===== DaCapo 9.12 sunflow starting warmup 39 =====
===== DaCapo 9.12 sunflow completed warmup 39 in 8855 msec =====
===== DaCapo 9.12 sunflow starting warmup 40 =====
===== DaCapo 9.12 sunflow completed warmup 40 in 8916 msec =====
===== DaCapo 9.12 sunflow starting warmup 41 =====
===== DaCapo 9.12 sunflow completed warmup 41 in 8852 msec =====
===== DaCapo 9.12 sunflow starting warmup 42 =====
===== DaCapo 9.12 sunflow completed warmup 42 in 8714 msec =====
===== DaCapo 9.12 sunflow starting warmup 43 =====
===== DaCapo 9.12 sunflow completed warmup 43 in 8732 msec =====
===== DaCapo 9.12 sunflow starting warmup 44 =====
===== DaCapo 9.12 sunflow completed warmup 44 in 8726 msec =====
===== DaCapo 9.12 sunflow starting warmup 45 =====
===== DaCapo 9.12 sunflow completed warmup 45 in 8826 msec =====
===== DaCapo 9.12 sunflow starting warmup 46 =====
===== DaCapo 9.12 sunflow completed warmup 46 in 8918 msec =====
===== DaCapo 9.12 sunflow starting warmup 47 =====
===== DaCapo 9.12 sunflow completed warmup 47 in 8837 msec =====
===== DaCapo 9.12 sunflow starting warmup 48 =====
===== DaCapo 9.12 sunflow completed warmup 48 in 8757 msec =====
===== DaCapo 9.12 sunflow starting warmup 49 =====
===== DaCapo 9.12 sunflow completed warmup 49 in 8860 msec =====
===== DaCapo 9.12 sunflow starting warmup 50 =====
===== DaCapo 9.12 sunflow completed warmup 50 in 8831 msec =====
===== DaCapo 9.12 sunflow starting warmup 51 =====
===== DaCapo 9.12 sunflow completed warmup 51 in 8776 msec =====
===== DaCapo 9.12 sunflow starting warmup 52 =====
===== DaCapo 9.12 sunflow completed warmup 52 in 8728 msec =====
===== DaCapo 9.12 sunflow starting warmup 53 =====
===== DaCapo 9.12 sunflow completed warmup 53 in 8869 msec =====
===== DaCapo 9.12 sunflow starting warmup 54 =====
===== DaCapo 9.12 sunflow completed warmup 54 in 8947 msec =====
===== DaCapo 9.12 sunflow starting warmup 55 =====
===== DaCapo 9.12 sunflow completed warmup 55 in 9041 msec =====
===== DaCapo 9.12 sunflow starting warmup 56 =====
===== DaCapo 9.12 sunflow completed warmup 56 in 8968 msec =====
===== DaCapo 9.12 sunflow starting warmup 57 =====
===== DaCapo 9.12 sunflow completed warmup 57 in 8754 msec =====
===== DaCapo 9.12 sunflow starting warmup 58 =====
===== DaCapo 9.12 sunflow completed warmup 58 in 8807 msec =====
===== DaCapo 9.12 sunflow starting warmup 59 =====
===== DaCapo 9.12 sunflow completed warmup 59 in 8940 msec =====
===== DaCapo 9.12 sunflow starting warmup 60 =====
===== DaCapo 9.12 sunflow completed warmup 60 in 8727 msec =====
===== DaCapo 9.12 sunflow starting warmup 61 =====
===== DaCapo 9.12 sunflow completed warmup 61 in 8915 msec =====
===== DaCapo 9.12 sunflow starting warmup 62 =====
===== DaCapo 9.12 sunflow completed warmup 62 in 8852 msec =====
===== DaCapo 9.12 sunflow starting warmup 63 =====
===== DaCapo 9.12 sunflow completed warmup 63 in 8922 msec =====
===== DaCapo 9.12 sunflow starting warmup 64 =====
===== DaCapo 9.12 sunflow completed warmup 64 in 8786 msec =====
===== DaCapo 9.12 sunflow starting warmup 65 =====
===== DaCapo 9.12 sunflow completed warmup 65 in 8882 msec =====
===== DaCapo 9.12 sunflow starting warmup 66 =====
===== DaCapo 9.12 sunflow completed warmup 66 in 8776 msec =====
===== DaCapo 9.12 sunflow starting warmup 67 =====
===== DaCapo 9.12 sunflow completed warmup 67 in 8716 msec =====
===== DaCapo 9.12 sunflow starting warmup 68 =====
===== DaCapo 9.12 sunflow completed warmup 68 in 8830 msec =====
===== DaCapo 9.12 sunflow starting warmup 69 =====
===== DaCapo 9.12 sunflow completed warmup 69 in 8863 msec =====
===== DaCapo 9.12 sunflow starting warmup 70 =====
===== DaCapo 9.12 sunflow completed warmup 70 in 8887 msec =====
===== DaCapo 9.12 sunflow starting warmup 71 =====
===== DaCapo 9.12 sunflow completed warmup 71 in 8764 msec =====
===== DaCapo 9.12 sunflow starting warmup 72 =====
===== DaCapo 9.12 sunflow completed warmup 72 in 8761 msec =====
===== DaCapo 9.12 sunflow starting warmup 73 =====
===== DaCapo 9.12 sunflow completed warmup 73 in 8813 msec =====
===== DaCapo 9.12 sunflow starting warmup 74 =====
===== DaCapo 9.12 sunflow completed warmup 74 in 8785 msec =====
===== DaCapo 9.12 sunflow starting warmup 75 =====
===== DaCapo 9.12 sunflow completed warmup 75 in 8853 msec =====
===== DaCapo 9.12 sunflow starting warmup 76 =====
===== DaCapo 9.12 sunflow completed warmup 76 in 8787 msec =====
===== DaCapo 9.12 sunflow starting warmup 77 =====
===== DaCapo 9.12 sunflow completed warmup 77 in 8775 msec =====
===== DaCapo 9.12 sunflow starting warmup 78 =====
===== DaCapo 9.12 sunflow completed warmup 78 in 8862 msec =====
===== DaCapo 9.12 sunflow starting warmup 79 =====
===== DaCapo 9.12 sunflow completed warmup 79 in 8834 msec =====
===== DaCapo 9.12 sunflow starting warmup 80 =====
===== DaCapo 9.12 sunflow completed warmup 80 in 8834 msec =====
===== DaCapo 9.12 sunflow starting warmup 81 =====
===== DaCapo 9.12 sunflow completed warmup 81 in 8858 msec =====
===== DaCapo 9.12 sunflow starting warmup 82 =====
===== DaCapo 9.12 sunflow completed warmup 82 in 8793 msec =====
===== DaCapo 9.12 sunflow starting warmup 83 =====
===== DaCapo 9.12 sunflow completed warmup 83 in 8778 msec =====
===== DaCapo 9.12 sunflow starting warmup 84 =====
===== DaCapo 9.12 sunflow completed warmup 84 in 8779 msec =====
===== DaCapo 9.12 sunflow starting warmup 85 =====
===== DaCapo 9.12 sunflow completed warmup 85 in 8987 msec =====
===== DaCapo 9.12 sunflow starting warmup 86 =====
===== DaCapo 9.12 sunflow completed warmup 86 in 8786 msec =====
===== DaCapo 9.12 sunflow starting warmup 87 =====
===== DaCapo 9.12 sunflow completed warmup 87 in 8904 msec =====
===== DaCapo 9.12 sunflow starting warmup 88 =====
===== DaCapo 9.12 sunflow completed warmup 88 in 8906 msec =====
===== DaCapo 9.12 sunflow starting warmup 89 =====
===== DaCapo 9.12 sunflow completed warmup 89 in 8893 msec =====
===== DaCapo 9.12 sunflow starting warmup 90 =====
===== DaCapo 9.12 sunflow completed warmup 90 in 8917 msec =====
===== DaCapo 9.12 sunflow starting warmup 91 =====
===== DaCapo 9.12 sunflow completed warmup 91 in 8859 msec =====
===== DaCapo 9.12 sunflow starting warmup 92 =====
===== DaCapo 9.12 sunflow completed warmup 92 in 8925 msec =====
===== DaCapo 9.12 sunflow starting warmup 93 =====
===== DaCapo 9.12 sunflow completed warmup 93 in 8855 msec =====
===== DaCapo 9.12 sunflow starting warmup 94 =====
===== DaCapo 9.12 sunflow completed warmup 94 in 8809 msec =====
===== DaCapo 9.12 sunflow starting warmup 95 =====
===== DaCapo 9.12 sunflow completed warmup 95 in 8838 msec =====
===== DaCapo 9.12 sunflow starting warmup 96 =====
===== DaCapo 9.12 sunflow completed warmup 96 in 8881 msec =====
===== DaCapo 9.12 sunflow starting warmup 97 =====
===== DaCapo 9.12 sunflow completed warmup 97 in 8896 msec =====
===== DaCapo 9.12 sunflow starting warmup 98 =====
===== DaCapo 9.12 sunflow completed warmup 98 in 8728 msec =====
===== DaCapo 9.12 sunflow starting warmup 99 =====
===== DaCapo 9.12 sunflow completed warmup 99 in 8843 msec =====
===== DaCapo 9.12 sunflow starting warmup 100 =====
===== DaCapo 9.12 sunflow completed warmup 100 in 8894 msec =====
===== DaCapo 9.12 sunflow starting warmup 101 =====
===== DaCapo 9.12 sunflow completed warmup 101 in 8828 msec =====
===== DaCapo 9.12 sunflow starting warmup 102 =====
===== DaCapo 9.12 sunflow completed warmup 102 in 8766 msec =====
===== DaCapo 9.12 sunflow starting warmup 103 =====
===== DaCapo 9.12 sunflow completed warmup 103 in 8706 msec =====
===== DaCapo 9.12 sunflow starting warmup 104 =====
===== DaCapo 9.12 sunflow completed warmup 104 in 8857 msec =====
===== DaCapo 9.12 sunflow starting warmup 105 =====
===== DaCapo 9.12 sunflow completed warmup 105 in 8745 msec =====
===== DaCapo 9.12 sunflow starting warmup 106 =====
===== DaCapo 9.12 sunflow completed warmup 106 in 9028 msec =====
===== DaCapo 9.12 sunflow starting warmup 107 =====
===== DaCapo 9.12 sunflow completed warmup 107 in 8908 msec =====
===== DaCapo 9.12 sunflow starting warmup 108 =====
===== DaCapo 9.12 sunflow completed warmup 108 in 8790 msec =====
===== DaCapo 9.12 sunflow starting warmup 109 =====
===== DaCapo 9.12 sunflow completed warmup 109 in 8963 msec =====
===== DaCapo 9.12 sunflow starting warmup 110 =====
===== DaCapo 9.12 sunflow completed warmup 110 in 8870 msec =====
===== DaCapo 9.12 sunflow starting warmup 111 =====
===== DaCapo 9.12 sunflow completed warmup 111 in 8920 msec =====
===== DaCapo 9.12 sunflow starting warmup 112 =====
===== DaCapo 9.12 sunflow completed warmup 112 in 8812 msec =====
===== DaCapo 9.12 sunflow starting warmup 113 =====
===== DaCapo 9.12 sunflow completed warmup 113 in 8832 msec =====
===== DaCapo 9.12 sunflow starting warmup 114 =====
===== DaCapo 9.12 sunflow completed warmup 114 in 8791 msec =====
===== DaCapo 9.12 sunflow starting warmup 115 =====
===== DaCapo 9.12 sunflow completed warmup 115 in 8820 msec =====
===== DaCapo 9.12 sunflow starting warmup 116 =====
===== DaCapo 9.12 sunflow completed warmup 116 in 8867 msec =====
===== DaCapo 9.12 sunflow starting warmup 117 =====
===== DaCapo 9.12 sunflow completed warmup 117 in 9102 msec =====
===== DaCapo 9.12 sunflow starting warmup 118 =====
===== DaCapo 9.12 sunflow completed warmup 118 in 9055 msec =====
===== DaCapo 9.12 sunflow starting warmup 119 =====
===== DaCapo 9.12 sunflow completed warmup 119 in 8743 msec =====
===== DaCapo 9.12 sunflow starting warmup 120 =====
===== DaCapo 9.12 sunflow completed warmup 120 in 8979 msec =====
===== DaCapo 9.12 sunflow starting warmup 121 =====
===== DaCapo 9.12 sunflow completed warmup 121 in 8751 msec =====
===== DaCapo 9.12 sunflow starting warmup 122 =====
===== DaCapo 9.12 sunflow completed warmup 122 in 8777 msec =====
===== DaCapo 9.12 sunflow starting warmup 123 =====
===== DaCapo 9.12 sunflow completed warmup 123 in 8841 msec =====
===== DaCapo 9.12 sunflow starting warmup 124 =====
===== DaCapo 9.12 sunflow completed warmup 124 in 8800 msec =====
===== DaCapo 9.12 sunflow starting warmup 125 =====
===== DaCapo 9.12 sunflow completed warmup 125 in 8882 msec =====
===== DaCapo 9.12 sunflow starting warmup 126 =====
===== DaCapo 9.12 sunflow completed warmup 126 in 8987 msec =====
===== DaCapo 9.12 sunflow starting warmup 127 =====
===== DaCapo 9.12 sunflow completed warmup 127 in 8944 msec =====
===== DaCapo 9.12 sunflow starting warmup 128 =====
===== DaCapo 9.12 sunflow completed warmup 128 in 8992 msec =====
===== DaCapo 9.12 sunflow starting warmup 129 =====
===== DaCapo 9.12 sunflow completed warmup 129 in 8822 msec =====
===== DaCapo 9.12 sunflow starting warmup 130 =====
===== DaCapo 9.12 sunflow completed warmup 130 in 8786 msec =====
===== DaCapo 9.12 sunflow starting warmup 131 =====
===== DaCapo 9.12 sunflow completed warmup 131 in 8843 msec =====
===== DaCapo 9.12 sunflow starting warmup 132 =====
===== DaCapo 9.12 sunflow completed warmup 132 in 8789 msec =====
===== DaCapo 9.12 sunflow starting warmup 133 =====
===== DaCapo 9.12 sunflow completed warmup 133 in 8707 msec =====
===== DaCapo 9.12 sunflow starting warmup 134 =====
===== DaCapo 9.12 sunflow completed warmup 134 in 8970 msec =====
===== DaCapo 9.12 sunflow starting warmup 135 =====
