Using scaled threading model. 4 processors detected, 1 threads used to drive the workload, in a possible range of [1,256]
===== DaCapo 9.12 sunflow starting warmup 1 =====
===== DaCapo 9.12 sunflow completed warmup 1 in 10858 msec =====
===== DaCapo 9.12 sunflow starting warmup 2 =====
===== DaCapo 9.12 sunflow completed warmup 2 in 9268 msec =====
===== DaCapo 9.12 sunflow starting warmup 3 =====
===== DaCapo 9.12 sunflow completed warmup 3 in 9119 msec =====
===== DaCapo 9.12 sunflow starting warmup 4 =====
===== DaCapo 9.12 sunflow completed warmup 4 in 9061 msec =====
===== DaCapo 9.12 sunflow starting warmup 5 =====
===== DaCapo 9.12 sunflow completed warmup 5 in 9000 msec =====
===== DaCapo 9.12 sunflow starting warmup 6 =====
===== DaCapo 9.12 sunflow completed warmup 6 in 8981 msec =====
===== DaCapo 9.12 sunflow starting warmup 7 =====
===== DaCapo 9.12 sunflow completed warmup 7 in 8960 msec =====
===== DaCapo 9.12 sunflow starting warmup 8 =====
===== DaCapo 9.12 sunflow completed warmup 8 in 9054 msec =====
===== DaCapo 9.12 sunflow starting warmup 9 =====
===== DaCapo 9.12 sunflow completed warmup 9 in 8995 msec =====
===== DaCapo 9.12 sunflow starting warmup 10 =====
===== DaCapo 9.12 sunflow completed warmup 10 in 9029 msec =====
===== DaCapo 9.12 sunflow starting warmup 11 =====
===== DaCapo 9.12 sunflow completed warmup 11 in 9023 msec =====
===== DaCapo 9.12 sunflow starting warmup 12 =====
===== DaCapo 9.12 sunflow completed warmup 12 in 9005 msec =====
===== DaCapo 9.12 sunflow starting warmup 13 =====
===== DaCapo 9.12 sunflow completed warmup 13 in 9086 msec =====
===== DaCapo 9.12 sunflow starting warmup 14 =====
===== DaCapo 9.12 sunflow completed warmup 14 in 8975 msec =====
===== DaCapo 9.12 sunflow starting warmup 15 =====
===== DaCapo 9.12 sunflow completed warmup 15 in 8997 msec =====
===== DaCapo 9.12 sunflow starting warmup 16 =====
===== DaCapo 9.12 sunflow completed warmup 16 in 9019 msec =====
===== DaCapo 9.12 sunflow starting warmup 17 =====
===== DaCapo 9.12 sunflow completed warmup 17 in 8997 msec =====
===== DaCapo 9.12 sunflow starting warmup 18 =====
===== DaCapo 9.12 sunflow completed warmup 18 in 8976 msec =====
===== DaCapo 9.12 sunflow starting warmup 19 =====
===== DaCapo 9.12 sunflow completed warmup 19 in 9042 msec =====
===== DaCapo 9.12 sunflow starting warmup 20 =====
===== DaCapo 9.12 sunflow completed warmup 20 in 8978 msec =====
===== DaCapo 9.12 sunflow starting warmup 21 =====
===== DaCapo 9.12 sunflow completed warmup 21 in 8966 msec =====
===== DaCapo 9.12 sunflow starting warmup 22 =====
===== DaCapo 9.12 sunflow completed warmup 22 in 9001 msec =====
===== DaCapo 9.12 sunflow starting warmup 23 =====
===== DaCapo 9.12 sunflow completed warmup 23 in 8994 msec =====
===== DaCapo 9.12 sunflow starting warmup 24 =====
===== DaCapo 9.12 sunflow completed warmup 24 in 9035 msec =====
===== DaCapo 9.12 sunflow starting warmup 25 =====
===== DaCapo 9.12 sunflow completed warmup 25 in 9073 msec =====
===== DaCapo 9.12 sunflow starting warmup 26 =====
===== DaCapo 9.12 sunflow completed warmup 26 in 9006 msec =====
===== DaCapo 9.12 sunflow starting warmup 27 =====
===== DaCapo 9.12 sunflow completed warmup 27 in 9035 msec =====
===== DaCapo 9.12 sunflow starting warmup 28 =====
===== DaCapo 9.12 sunflow completed warmup 28 in 8994 msec =====
===== DaCapo 9.12 sunflow starting warmup 29 =====
===== DaCapo 9.12 sunflow completed warmup 29 in 8981 msec =====
===== DaCapo 9.12 sunflow starting warmup 30 =====
===== DaCapo 9.12 sunflow completed warmup 30 in 9007 msec =====
===== DaCapo 9.12 sunflow starting warmup 31 =====
===== DaCapo 9.12 sunflow completed warmup 31 in 8981 msec =====
===== DaCapo 9.12 sunflow starting warmup 32 =====
===== DaCapo 9.12 sunflow completed warmup 32 in 8965 msec =====
===== DaCapo 9.12 sunflow starting warmup 33 =====
===== DaCapo 9.12 sunflow completed warmup 33 in 8981 msec =====
===== DaCapo 9.12 sunflow starting warmup 34 =====
===== DaCapo 9.12 sunflow completed warmup 34 in 9050 msec =====
===== DaCapo 9.12 sunflow starting warmup 35 =====
===== DaCapo 9.12 sunflow completed warmup 35 in 9010 msec =====
===== DaCapo 9.12 sunflow starting warmup 36 =====
===== DaCapo 9.12 sunflow completed warmup 36 in 8949 msec =====
===== DaCapo 9.12 sunflow starting warmup 37 =====
===== DaCapo 9.12 sunflow completed warmup 37 in 9016 msec =====
===== DaCapo 9.12 sunflow starting warmup 38 =====
===== DaCapo 9.12 sunflow completed warmup 38 in 9021 msec =====
===== DaCapo 9.12 sunflow starting warmup 39 =====
===== DaCapo 9.12 sunflow completed warmup 39 in 9031 msec =====
===== DaCapo 9.12 sunflow starting warmup 40 =====
===== DaCapo 9.12 sunflow completed warmup 40 in 9003 msec =====
===== DaCapo 9.12 sunflow starting warmup 41 =====
===== DaCapo 9.12 sunflow completed warmup 41 in 9018 msec =====
===== DaCapo 9.12 sunflow starting warmup 42 =====
===== DaCapo 9.12 sunflow completed warmup 42 in 9000 msec =====
===== DaCapo 9.12 sunflow starting warmup 43 =====
===== DaCapo 9.12 sunflow completed warmup 43 in 9000 msec =====
===== DaCapo 9.12 sunflow starting warmup 44 =====
===== DaCapo 9.12 sunflow completed warmup 44 in 9016 msec =====
===== DaCapo 9.12 sunflow starting warmup 45 =====
===== DaCapo 9.12 sunflow completed warmup 45 in 9020 msec =====
===== DaCapo 9.12 sunflow starting warmup 46 =====
===== DaCapo 9.12 sunflow completed warmup 46 in 9002 msec =====
===== DaCapo 9.12 sunflow starting warmup 47 =====
===== DaCapo 9.12 sunflow completed warmup 47 in 9014 msec =====
===== DaCapo 9.12 sunflow starting warmup 48 =====
===== DaCapo 9.12 sunflow completed warmup 48 in 9007 msec =====
===== DaCapo 9.12 sunflow starting warmup 49 =====
===== DaCapo 9.12 sunflow completed warmup 49 in 9062 msec =====
===== DaCapo 9.12 sunflow starting warmup 50 =====
===== DaCapo 9.12 sunflow completed warmup 50 in 9022 msec =====
===== DaCapo 9.12 sunflow starting warmup 51 =====
===== DaCapo 9.12 sunflow completed warmup 51 in 9024 msec =====
===== DaCapo 9.12 sunflow starting warmup 52 =====
===== DaCapo 9.12 sunflow completed warmup 52 in 8998 msec =====
===== DaCapo 9.12 sunflow starting warmup 53 =====
===== DaCapo 9.12 sunflow completed warmup 53 in 9017 msec =====
===== DaCapo 9.12 sunflow starting warmup 54 =====
===== DaCapo 9.12 sunflow completed warmup 54 in 9035 msec =====
===== DaCapo 9.12 sunflow starting warmup 55 =====
===== DaCapo 9.12 sunflow completed warmup 55 in 9077 msec =====
===== DaCapo 9.12 sunflow starting warmup 56 =====
===== DaCapo 9.12 sunflow completed warmup 56 in 9046 msec =====
===== DaCapo 9.12 sunflow starting warmup 57 =====
===== DaCapo 9.12 sunflow completed warmup 57 in 9024 msec =====
===== DaCapo 9.12 sunflow starting warmup 58 =====
===== DaCapo 9.12 sunflow completed warmup 58 in 9060 msec =====
===== DaCapo 9.12 sunflow starting warmup 59 =====
===== DaCapo 9.12 sunflow completed warmup 59 in 9015 msec =====
===== DaCapo 9.12 sunflow starting warmup 60 =====
===== DaCapo 9.12 sunflow completed warmup 60 in 9070 msec =====
===== DaCapo 9.12 sunflow starting warmup 61 =====
===== DaCapo 9.12 sunflow completed warmup 61 in 9044 msec =====
===== DaCapo 9.12 sunflow starting warmup 62 =====
===== DaCapo 9.12 sunflow completed warmup 62 in 9030 msec =====
===== DaCapo 9.12 sunflow starting warmup 63 =====
===== DaCapo 9.12 sunflow completed warmup 63 in 9037 msec =====
===== DaCapo 9.12 sunflow starting warmup 64 =====
===== DaCapo 9.12 sunflow completed warmup 64 in 9068 msec =====
===== DaCapo 9.12 sunflow starting warmup 65 =====
===== DaCapo 9.12 sunflow completed warmup 65 in 9035 msec =====
===== DaCapo 9.12 sunflow starting warmup 66 =====
===== DaCapo 9.12 sunflow completed warmup 66 in 9030 msec =====
===== DaCapo 9.12 sunflow starting warmup 67 =====
===== DaCapo 9.12 sunflow completed warmup 67 in 8964 msec =====
===== DaCapo 9.12 sunflow starting warmup 68 =====
===== DaCapo 9.12 sunflow completed warmup 68 in 8986 msec =====
===== DaCapo 9.12 sunflow starting warmup 69 =====
===== DaCapo 9.12 sunflow completed warmup 69 in 9005 msec =====
===== DaCapo 9.12 sunflow starting warmup 70 =====
===== DaCapo 9.12 sunflow completed warmup 70 in 9006 msec =====
===== DaCapo 9.12 sunflow starting warmup 71 =====
===== DaCapo 9.12 sunflow completed warmup 71 in 9021 msec =====
===== DaCapo 9.12 sunflow starting warmup 72 =====
===== DaCapo 9.12 sunflow completed warmup 72 in 8989 msec =====
===== DaCapo 9.12 sunflow starting warmup 73 =====
===== DaCapo 9.12 sunflow completed warmup 73 in 8999 msec =====
===== DaCapo 9.12 sunflow starting warmup 74 =====
===== DaCapo 9.12 sunflow completed warmup 74 in 9024 msec =====
===== DaCapo 9.12 sunflow starting warmup 75 =====
===== DaCapo 9.12 sunflow completed warmup 75 in 9026 msec =====
===== DaCapo 9.12 sunflow starting warmup 76 =====
===== DaCapo 9.12 sunflow completed warmup 76 in 9046 msec =====
===== DaCapo 9.12 sunflow starting warmup 77 =====
===== DaCapo 9.12 sunflow completed warmup 77 in 9045 msec =====
===== DaCapo 9.12 sunflow starting warmup 78 =====
===== DaCapo 9.12 sunflow completed warmup 78 in 9067 msec =====
===== DaCapo 9.12 sunflow starting warmup 79 =====
===== DaCapo 9.12 sunflow completed warmup 79 in 8989 msec =====
===== DaCapo 9.12 sunflow starting warmup 80 =====
===== DaCapo 9.12 sunflow completed warmup 80 in 9065 msec =====
===== DaCapo 9.12 sunflow starting warmup 81 =====
===== DaCapo 9.12 sunflow completed warmup 81 in 9020 msec =====
===== DaCapo 9.12 sunflow starting warmup 82 =====
===== DaCapo 9.12 sunflow completed warmup 82 in 9017 msec =====
===== DaCapo 9.12 sunflow starting warmup 83 =====
===== DaCapo 9.12 sunflow completed warmup 83 in 8981 msec =====
===== DaCapo 9.12 sunflow starting warmup 84 =====
===== DaCapo 9.12 sunflow completed warmup 84 in 9120 msec =====
===== DaCapo 9.12 sunflow starting warmup 85 =====
===== DaCapo 9.12 sunflow completed warmup 85 in 8990 msec =====
===== DaCapo 9.12 sunflow starting warmup 86 =====
===== DaCapo 9.12 sunflow completed warmup 86 in 8999 msec =====
===== DaCapo 9.12 sunflow starting warmup 87 =====
===== DaCapo 9.12 sunflow completed warmup 87 in 9026 msec =====
===== DaCapo 9.12 sunflow starting warmup 88 =====
===== DaCapo 9.12 sunflow completed warmup 88 in 8982 msec =====
===== DaCapo 9.12 sunflow starting warmup 89 =====
===== DaCapo 9.12 sunflow completed warmup 89 in 9051 msec =====
===== DaCapo 9.12 sunflow starting warmup 90 =====
===== DaCapo 9.12 sunflow completed warmup 90 in 9001 msec =====
===== DaCapo 9.12 sunflow starting warmup 91 =====
===== DaCapo 9.12 sunflow completed warmup 91 in 8978 msec =====
===== DaCapo 9.12 sunflow starting warmup 92 =====
===== DaCapo 9.12 sunflow completed warmup 92 in 8979 msec =====
===== DaCapo 9.12 sunflow starting warmup 93 =====
===== DaCapo 9.12 sunflow completed warmup 93 in 9012 msec =====
===== DaCapo 9.12 sunflow starting warmup 94 =====
===== DaCapo 9.12 sunflow completed warmup 94 in 9026 msec =====
===== DaCapo 9.12 sunflow starting warmup 95 =====
===== DaCapo 9.12 sunflow completed warmup 95 in 8992 msec =====
===== DaCapo 9.12 sunflow starting warmup 96 =====
===== DaCapo 9.12 sunflow completed warmup 96 in 8960 msec =====
===== DaCapo 9.12 sunflow starting warmup 97 =====
===== DaCapo 9.12 sunflow completed warmup 97 in 9091 msec =====
===== DaCapo 9.12 sunflow starting warmup 98 =====
===== DaCapo 9.12 sunflow completed warmup 98 in 8990 msec =====
===== DaCapo 9.12 sunflow starting warmup 99 =====
===== DaCapo 9.12 sunflow completed warmup 99 in 8995 msec =====
===== DaCapo 9.12 sunflow starting warmup 100 =====
===== DaCapo 9.12 sunflow completed warmup 100 in 9024 msec =====
===== DaCapo 9.12 sunflow starting warmup 101 =====
===== DaCapo 9.12 sunflow completed warmup 101 in 9018 msec =====
===== DaCapo 9.12 sunflow starting warmup 102 =====
===== DaCapo 9.12 sunflow completed warmup 102 in 8999 msec =====
===== DaCapo 9.12 sunflow starting warmup 103 =====
===== DaCapo 9.12 sunflow completed warmup 103 in 8986 msec =====
===== DaCapo 9.12 sunflow starting warmup 104 =====
===== DaCapo 9.12 sunflow completed warmup 104 in 9093 msec =====
===== DaCapo 9.12 sunflow starting warmup 105 =====
===== DaCapo 9.12 sunflow completed warmup 105 in 9048 msec =====
===== DaCapo 9.12 sunflow starting warmup 106 =====
===== DaCapo 9.12 sunflow completed warmup 106 in 8968 msec =====
===== DaCapo 9.12 sunflow starting warmup 107 =====
===== DaCapo 9.12 sunflow completed warmup 107 in 8991 msec =====
===== DaCapo 9.12 sunflow starting warmup 108 =====
===== DaCapo 9.12 sunflow completed warmup 108 in 8993 msec =====
===== DaCapo 9.12 sunflow starting warmup 109 =====
===== DaCapo 9.12 sunflow completed warmup 109 in 8998 msec =====
===== DaCapo 9.12 sunflow starting warmup 110 =====
===== DaCapo 9.12 sunflow completed warmup 110 in 9023 msec =====
===== DaCapo 9.12 sunflow starting warmup 111 =====
===== DaCapo 9.12 sunflow completed warmup 111 in 9015 msec =====
===== DaCapo 9.12 sunflow starting warmup 112 =====
===== DaCapo 9.12 sunflow completed warmup 112 in 8983 msec =====
===== DaCapo 9.12 sunflow starting warmup 113 =====
===== DaCapo 9.12 sunflow completed warmup 113 in 9038 msec =====
===== DaCapo 9.12 sunflow starting warmup 114 =====
===== DaCapo 9.12 sunflow completed warmup 114 in 8989 msec =====
===== DaCapo 9.12 sunflow starting warmup 115 =====
===== DaCapo 9.12 sunflow completed warmup 115 in 9001 msec =====
===== DaCapo 9.12 sunflow starting warmup 116 =====
===== DaCapo 9.12 sunflow completed warmup 116 in 8997 msec =====
===== DaCapo 9.12 sunflow starting warmup 117 =====
===== DaCapo 9.12 sunflow completed warmup 117 in 9003 msec =====
===== DaCapo 9.12 sunflow starting warmup 118 =====
===== DaCapo 9.12 sunflow completed warmup 118 in 9042 msec =====
===== DaCapo 9.12 sunflow starting warmup 119 =====
===== DaCapo 9.12 sunflow completed warmup 119 in 9012 msec =====
===== DaCapo 9.12 sunflow starting warmup 120 =====
===== DaCapo 9.12 sunflow completed warmup 120 in 9033 msec =====
===== DaCapo 9.12 sunflow starting warmup 121 =====
===== DaCapo 9.12 sunflow completed warmup 121 in 9001 msec =====
===== DaCapo 9.12 sunflow starting warmup 122 =====
===== DaCapo 9.12 sunflow completed warmup 122 in 8995 msec =====
===== DaCapo 9.12 sunflow starting warmup 123 =====
===== DaCapo 9.12 sunflow completed warmup 123 in 9031 msec =====
===== DaCapo 9.12 sunflow starting warmup 124 =====
===== DaCapo 9.12 sunflow completed warmup 124 in 9052 msec =====
===== DaCapo 9.12 sunflow starting warmup 125 =====
===== DaCapo 9.12 sunflow completed warmup 125 in 9050 msec =====
===== DaCapo 9.12 sunflow starting warmup 126 =====
===== DaCapo 9.12 sunflow completed warmup 126 in 8966 msec =====
===== DaCapo 9.12 sunflow starting warmup 127 =====
===== DaCapo 9.12 sunflow completed warmup 127 in 9033 msec =====
===== DaCapo 9.12 sunflow starting warmup 128 =====
===== DaCapo 9.12 sunflow completed warmup 128 in 8987 msec =====
===== DaCapo 9.12 sunflow starting warmup 129 =====
===== DaCapo 9.12 sunflow completed warmup 129 in 8995 msec =====
===== DaCapo 9.12 sunflow starting warmup 130 =====
===== DaCapo 9.12 sunflow completed warmup 130 in 9008 msec =====
===== DaCapo 9.12 sunflow starting warmup 131 =====
===== DaCapo 9.12 sunflow completed warmup 131 in 9050 msec =====
===== DaCapo 9.12 sunflow starting warmup 132 =====
===== DaCapo 9.12 sunflow completed warmup 132 in 9043 msec =====
===== DaCapo 9.12 sunflow starting warmup 133 =====
