F S UID        PID  PPID  C PRI  NI ADDR SZ WCHAN  STIME TTY          TIME CMD
4 S root         1     0  0  80   0 -  5900 poll_s  2013 ?        00:00:00 /sbin/init
1 S root         2     0  0  80   0 -     0 kthrea  2013 ?        00:00:00 [kthreadd]
1 S root         3     2  0 -40   - -     0 migrat  2013 ?        00:00:00 [migration/0]
1 S root         4     2  0  80   0 -     0 ksofti  2013 ?        00:00:03 [ksoftirqd/0]
1 S root         5     2  0 -40   - -     0 cpu_st  2013 ?        00:00:00 [migration/0]
5 S root         6     2  0 -40   - -     0 watchd  2013 ?        00:00:03 [watchdog/0]
1 S root         7     2  0 -40   - -     0 migrat  2013 ?        00:00:00 [migration/1]
1 S root         8     2  0 -40   - -     0 cpu_st  2013 ?        00:00:00 [migration/1]
1 S root         9     2  0  80   0 -     0 ksofti  2013 ?        00:00:07 [ksoftirqd/1]
5 S root        10     2  0 -40   - -     0 watchd  2013 ?        00:00:03 [watchdog/1]
1 S root        11     2  0 -40   - -     0 migrat  2013 ?        00:00:00 [migration/2]
1 S root        12     2  0 -40   - -     0 cpu_st  2013 ?        00:00:00 [migration/2]
1 S root        13     2  0  80   0 -     0 ksofti  2013 ?        00:00:00 [ksoftirqd/2]
5 S root        14     2  0 -40   - -     0 watchd  2013 ?        00:00:03 [watchdog/2]
1 S root        15     2  0 -40   - -     0 migrat  2013 ?        00:00:00 [migration/3]
1 S root        16     2  0 -40   - -     0 cpu_st  2013 ?        00:00:00 [migration/3]
1 S root        17     2  0  80   0 -     0 ksofti  2013 ?        00:00:03 [ksoftirqd/3]
5 S root        18     2  0 -40   - -     0 watchd  2013 ?        00:00:03 [watchdog/3]
1 S root        19     2  0  80   0 -     0 worker  2013 ?        00:02:36 [events/0]
1 S root        20     2  0  80   0 -     0 worker  2013 ?        00:01:22 [events/1]
1 S root        21     2  0  80   0 -     0 worker  2013 ?        00:01:35 [events/2]
1 S root        22     2  0  80   0 -     0 worker  2013 ?        00:01:21 [events/3]
1 S root        23     2  0  80   0 -     0 worker  2013 ?        00:00:00 [cgroup]
1 S root        24     2  0  80   0 -     0 worker  2013 ?        00:00:00 [khelper]
1 S root        25     2  0  80   0 -     0 worker  2013 ?        00:00:00 [netns]
1 S root        26     2  0  80   0 -     0 async_  2013 ?        00:00:00 [async/mgr]
1 S root        27     2  0  80   0 -     0 worker  2013 ?        00:00:00 [pm]
1 S root        28     2  0  80   0 -     0 bdi_sy  2013 ?        00:00:11 [sync_supers]
1 S root        29     2  0  80   0 -     0 bdi_fo  2013 ?        00:00:11 [bdi-default]
1 S root        30     2  0  80   0 -     0 worker  2013 ?        00:00:00 [kintegrityd/0]
1 S root        31     2  0  80   0 -     0 worker  2013 ?        00:00:00 [kintegrityd/1]
1 S root        32     2  0  80   0 -     0 worker  2013 ?        00:00:00 [kintegrityd/2]
1 S root        33     2  0  80   0 -     0 worker  2013 ?        00:00:00 [kintegrityd/3]
1 S root        34     2  0  80   0 -     0 worker  2013 ?        00:00:01 [kblockd/0]
1 S root        35     2  0  80   0 -     0 worker  2013 ?        00:00:00 [kblockd/1]
1 S root        36     2  0  80   0 -     0 worker  2013 ?        00:00:00 [kblockd/2]
1 S root        37     2  0  80   0 -     0 worker  2013 ?        00:00:29 [kblockd/3]
1 S root        38     2  0  80   0 -     0 worker  2013 ?        00:00:00 [kacpid]
1 S root        39     2  0  80   0 -     0 worker  2013 ?        00:00:00 [kacpi_notify]
1 S root        40     2  0  80   0 -     0 worker  2013 ?        00:00:00 [kacpi_hotplug]
1 S root        41     2  0  80   0 -     0 worker  2013 ?        00:00:00 [ata/0]
1 S root        42     2  0  80   0 -     0 worker  2013 ?        00:00:00 [ata/1]
1 S root        43     2  0  80   0 -     0 worker  2013 ?        00:00:00 [ata/2]
1 S root        44     2  0  80   0 -     0 worker  2013 ?        00:00:00 [ata/3]
1 S root        45     2  0  80   0 -     0 worker  2013 ?        00:00:00 [ata_aux]
1 S root        46     2  0  80   0 -     0 worker  2013 ?        00:00:00 [ksuspend_usbd]
5 S root        47     2  0  80   0 -     0 hub_th  2013 ?        00:00:00 [khubd]
1 S root        48     2  0  80   0 -     0 serio_  2013 ?        00:00:00 [kseriod]
1 S root        49     2  0  80   0 -     0 worker  2013 ?        00:00:00 [md/0]
1 S root        50     2  0  80   0 -     0 worker  2013 ?        00:00:00 [md/1]
1 S root        51     2  0  80   0 -     0 worker  2013 ?        00:00:00 [md/2]
1 S root        52     2  0  80   0 -     0 worker  2013 ?        00:00:00 [md/3]
1 S root        53     2  0  80   0 -     0 worker  2013 ?        00:00:00 [md_misc/0]
1 S root        54     2  0  80   0 -     0 worker  2013 ?        00:00:00 [md_misc/1]
1 S root        55     2  0  80   0 -     0 worker  2013 ?        00:00:00 [md_misc/2]
1 S root        56     2  0  80   0 -     0 worker  2013 ?        00:00:00 [md_misc/3]
1 S root        57     2  0  80   0 -     0 watchd  2013 ?        00:00:01 [khungtaskd]
1 S root        58     2  0  80   0 -     0 kswapd  2013 ?        00:00:00 [kswapd0]
1 S root        59     2  0  85   5 -     0 ksm_sc  2013 ?        00:00:00 [ksmd]
1 S root        60     2  0  99  19 -     0 khugep  2013 ?        00:00:09 [khugepaged]
1 S root        61     2  0  80   0 -     0 worker  2013 ?        00:00:00 [aio/0]
1 S root        62     2  0  80   0 -     0 worker  2013 ?        00:00:00 [aio/1]
1 S root        63     2  0  80   0 -     0 worker  2013 ?        00:00:00 [aio/2]
1 S root        64     2  0  80   0 -     0 worker  2013 ?        00:00:00 [aio/3]
1 S root        65     2  0  80   0 -     0 worker  2013 ?        00:00:00 [crypto/0]
1 S root        66     2  0  80   0 -     0 worker  2013 ?        00:00:00 [crypto/1]
1 S root        67     2  0  80   0 -     0 worker  2013 ?        00:00:00 [crypto/2]
1 S root        68     2  0  80   0 -     0 worker  2013 ?        00:00:00 [crypto/3]
1 S root        73     2  0  80   0 -     0 worker  2013 ?        00:00:00 [kthrotld/0]
1 S root        74     2  0  80   0 -     0 worker  2013 ?        00:00:00 [kthrotld/1]
1 S root        75     2  0  80   0 -     0 worker  2013 ?        00:00:00 [kthrotld/2]
1 S root        76     2  0  80   0 -     0 worker  2013 ?        00:00:00 [kthrotld/3]
1 S root        78     2  0  80   0 -     0 worker  2013 ?        00:00:00 [kpsmoused]
1 S root        79     2  0  80   0 -     0 worker  2013 ?        00:00:00 [usbhid_resumer]
1 S root       109     2  0  80   0 -     0 worker  2013 ?        00:00:00 [kstriped]
1 S root       136     2  0  80   0 -     0 worker  2013 ?        00:00:49 [i915]
1 S root       138     2  0  75  -5 -     0 slow_w  2013 ?        00:00:00 [kslowd000]
1 S root       139     2  0  75  -5 -     0 slow_w  2013 ?        00:00:00 [kslowd001]
1 S root       329     2  0  80   0 -     0 scsi_e  2013 ?        00:00:00 [scsi_eh_0]
1 S root       330     2  0  80   0 -     0 scsi_e  2013 ?        00:08:48 [scsi_eh_1]
1 S root       331     2  0  80   0 -     0 scsi_e  2013 ?        00:00:00 [scsi_eh_2]
1 S root       332     2  0  80   0 -     0 scsi_e  2013 ?        00:00:00 [scsi_eh_3]
1 S root       333     2  0  80   0 -     0 scsi_e  2013 ?        00:00:00 [scsi_eh_4]
1 S root       334     2  0  80   0 -     0 scsi_e  2013 ?        00:00:00 [scsi_eh_5]
1 S root       425     2  0  80   0 -     0 kjourn  2013 ?        00:00:28 [jbd2/sda1-8]
1 S root       426     2  0  80   0 -     0 worker  2013 ?        00:00:00 [ext4-dio-unwrit]
1 S root       427     2  0  80   0 -     0 worker  2013 ?        00:00:00 [ext4-dio-unwrit]
1 S root       428     2  0  80   0 -     0 worker  2013 ?        00:00:00 [ext4-dio-unwrit]
1 S root       429     2  0  80   0 -     0 worker  2013 ?        00:00:00 [ext4-dio-unwrit]
1 S root       455     2  0  80   0 -     0 bdi_wr  2013 ?        00:00:32 [flush-8:0]
5 S root       522     1  0  76  -4 -  2811 poll_s  2013 ?        00:00:00 /sbin/udevd -d
1 S root       732     2  0  80   0 -     0 worker  2013 ?        00:00:00 [hd-audio0]
1 S root      1492     2  0  80   0 -     0 kjourn  2013 ?        00:00:00 [jbd2/sda3-8]
1 S root      1493     2  0  80   0 -     0 worker  2013 ?        00:00:00 [ext4-dio-unwrit]
1 S root      1494     2  0  80   0 -     0 worker  2013 ?        00:00:00 [ext4-dio-unwrit]
1 S root      1495     2  0  80   0 -     0 worker  2013 ?        00:00:00 [ext4-dio-unwrit]
1 S root      1496     2  0  80   0 -     0 worker  2013 ?        00:00:00 [ext4-dio-unwrit]
1 S root      1598     2  0  80   0 -     0 kaudit  2013 ?        00:00:00 [kauditd]
1 S root      1824     1  0  80   0 -  3340 poll_s  2013 ?        00:00:33 /sbin/dhclient -1 -q -cf /etc/dhcp/dhclient-em1.conf -lf /var/lib/dhclient/dhclient-em1.leases -pf /var/run/dhclient-em1.pid em1
5 S root      1870     1  0  80   0 -  2600 poll_s  2013 ?        00:00:00 /sbin/portreserve
5 S root      1877     1  0  80   0 - 63861 poll_s  2013 ?        00:00:00 /sbin/rsyslogd -i /var/run/syslogd.pid -c 5
5 S root      1889     1  0  80   0 -  2705 hrtime  2013 ?        00:01:46 irqbalance
5 S rpc       1903     1  0  80   0 -  4761 poll_s  2013 ?        00:02:04 rpcbind
5 S dbus      1913     1  0  80   0 -  6612 poll_s  2013 ?        00:00:00 dbus-daemon --system
5 S rpcuser   1931     1  0  80   0 -  6472 poll_s  2013 ?        00:00:00 rpc.statd
5 S root      1966     2  0  80   0 -     0 worker  2013 ?        00:00:00 [rpciod/0]
5 S root      1967     2  0  80   0 -     0 worker  2013 ?        00:00:01 [rpciod/1]
5 S root      1968     2  0  80   0 -     0 worker  2013 ?        00:00:00 [rpciod/2]
5 S root      1969     2  0  80   0 -     0 worker  2013 ?        00:00:00 [rpciod/3]
1 S root      1973     1  0  80   0 -  6296 ep_pol  2013 ?        00:00:00 rpc.idmapd
5 S root      1987     1  0  80   0 - 53901 poll_s  2013 ?        00:00:15 /usr/sbin/ypbind
1 S root      2043     1  0  80   0 -  1020 poll_s  2013 ?        00:00:00 /usr/sbin/acpid
5 S 68        2052     1  0  80   0 - 10793 poll_s  2013 ?        00:00:12 hald
0 S root      2053  2052  0  80   0 -  5082 poll_s  2013 ?        00:00:00 hald-runner
0 S root      2097  2053  0  80   0 -  5610 poll_s  2013 ?        00:00:00 /usr/libexec/hald-addon-generic-backlight
0 S root      2099  2053  0  80   0 -  5612 poll_s  2013 ?        00:00:00 hald-addon-input: Listening on /dev/input/event4 /dev/input/event10 /dev/input/event0 /dev/input/event3 /dev/input/event1
4 S 68        2103  2053  0  80   0 -  4484 unix_s  2013 ?        00:00:00 hald-addon-acpi: listening on acpid socket /var/run/acpid.socket
0 S root      2104  2053  0  80   0 -  5611 poll_s  2013 ?        00:13:10 hald-addon-storage: polling /dev/sr0 (every 2 sec)
5 S root      2127     1  0  80   0 - 152661 rt_sig 2013 ?        00:00:49 automount --pid-file /var/run/autofs.pid
5 S nscd      2146     1  0  80   0 - 275832 ep_pol 2013 ?        00:00:07 /usr/sbin/nscd
1 S root      2204     1  0  80   0 -  1218 poll_s  2013 ?        00:00:00 /usr/sbin/mcelog --daemon
5 S root      2216     1  0  80   0 - 16166 poll_s  2013 ?        00:00:00 /usr/sbin/sshd
5 S root      2224     1  0  80   0 -  6216 poll_s  2013 ?        00:00:00 xinetd -stayalive -pidfile /var/run/xinetd.pid
5 S ntp       2232     1  0  80   0 -  6240 poll_s  2013 ?        00:00:03 ntpd -u ntp:ntp -p /var/run/ntpd.pid -g
4 S qmails    2244     1  0  80   0 -   511 poll_s  2013 ?        00:00:00 qmail-send
4 S qmaill    2251  2244  0  80   0 -   503 pipe_w  2013 ?        00:00:00 splogger qmail
0 S root      2252  2244  0  80   0 -   504 poll_s  2013 ?        00:00:00 qmail-lspawn ./Mailbox
4 S qmailr    2253  2244  0  80   0 -   503 poll_s  2013 ?        00:00:00 qmail-rspawn
4 S qmailq    2254  2244  0  80   0 -   501 pipe_w  2013 ?        00:00:00 qmail-clean
1 S root      2269     1  0  80   0 - 27626 poll_s  2013 ?        00:00:00 /usr/sbin/abrtd
1 S root      2277     1  0  80   0 - 28839 hrtime  2013 ?        00:00:03 crond
5 S root      2288     1  0  80   0 -  4954 hrtime  2013 ?        00:00:00 /usr/sbin/atd
1 S root      2310     1  0  80   0 - 15565 ep_pol  2013 ?        00:00:05 /usr/sbin/certmonger -S -p /var/run/certmonger.pid
4 S root      2333     1  0  80   0 - 33602 poll_s  2013 ?        00:00:00 /usr/sbin/gdm-binary -nodaemon
4 S root      2338     1  0  80   0 -  1016 n_tty_  2013 tty2     00:00:00 /sbin/mingetty /dev/tty2
4 S root      2340     1  0  80   0 -  1016 n_tty_  2013 tty3     00:00:00 /sbin/mingetty /dev/tty3
4 S root      2342     1  0  80   0 -  1016 n_tty_  2013 tty4     00:00:00 /sbin/mingetty /dev/tty4
4 S root      2344     1  0  80   0 -  1016 n_tty_  2013 tty5     00:00:00 /sbin/mingetty /dev/tty5
4 S root      2346     1  0  80   0 -  1016 n_tty_  2013 tty6     00:00:00 /sbin/mingetty /dev/tty6
5 S root      2348   522  0  78  -2 -  2810 poll_s  2013 ?        00:00:00 /sbin/udevd -d
5 S root      2349   522  0  78  -2 -  2810 poll_s  2013 ?        00:00:00 /sbin/udevd -d
4 S root      2397     1  0  80   0 - 521809 poll_s 2013 ?        00:00:00 /usr/sbin/console-kit-daemon --no-daemon
4 S root      2474     1  0  80   0 - 12470 poll_s  2013 ?        00:00:00 /usr/libexec/devkit-power-daemon
4 S root      2546     1  0  80   0 - 12712 poll_s  2013 ?        00:00:00 /usr/libexec/polkit-1/polkitd
4 S rtkit     2552     1  0  81   1 - 41641 poll_s  2013 ?        00:00:45 /usr/libexec/rtkit-daemon
4 S root     13259     1  0  80   0 - 13920 poll_s Jan13 ?        00:00:16 /usr/libexec/udisks-daemon
1 S root     13270 13259  0  80   0 - 11277 poll_s Jan13 ?        00:00:00 udisks-daemon: not polling any devices
1 S root     17686     2  0  80   0 -     0 worker  2013 ?        00:00:00 [nfsiod]
0 S jenkins  25750     1  0  80   0 - 874232 futex_ Jan14 ?       00:21:37 /etc/alternatives/java -Dcom.sun.akuma.Daemon=daemonized -Djava.awt.headless=true -DJENKINS_HOME=/var/lib/jenkins -jar /usr/lib/jenkins/jenkins.war --logfile=/var/log/jenkins/jenkins.log --webroot=/var/cache/jenkins/war --daemon --httpPort=8080 --ajp13Port=8009 --debug=5 --handlerCountMax=100 --handlerCountMaxIdle=20
0 S 1104699s 26296     1  0  80   0 - 210125 poll_s Jan17 ?       00:00:00 /usr/libexec/e-calendar-factory
0 S root     27139  2333  0  80   0 - 41307 poll_s Jan17 ?        00:00:00 /usr/libexec/gdm-simple-slave --display-id /org/gnome/DisplayManager/Display1
4 S root     27141 27139  0  80   0 - 25026 poll_s Jan17 tty7     00:00:08 /usr/bin/Xorg :0 -br -verbose -audit 4 -auth /var/run/gdm/auth-for-gdm-Cd5hsz/database -nolisten tcp
1 S gdm      27160     1  0  80   0 -  4537 poll_s Jan17 ?        00:00:00 /usr/bin/dbus-launch --exit-with-session
1 S gdm      27161     1  0  80   0 -  4964 poll_s Jan17 ?        00:00:00 /bin/dbus-daemon --fork --print-pid 5 --print-address 7 --session
4 S gdm      27162 27139  0  80   0 - 67464 poll_s Jan17 ?        00:00:00 /usr/bin/gnome-session --autostart=/usr/share/gdm/autostart/LoginWindow/
0 S gdm      27165     1  0  80   0 - 33471 poll_s Jan17 ?        00:00:00 /usr/libexec/gconfd-2
0 S gdm      27168 27162  0  80   0 - 29625 poll_s Jan17 ?        00:00:00 /usr/libexec/at-spi-registryd
1 S gdm      27170     1  0  80   0 - 92409 poll_s Jan17 ?        00:01:10 /usr/libexec/gnome-settings-daemon --gconf-prefix=/apps/gdm/simple-greeter/settings-manager-plugins
0 S gdm      27172     1  0  80   0 - 89679 poll_s Jan17 ?        00:00:00 /usr/libexec/bonobo-activation-server --ac-activate --ior-output-fd=12
0 S gdm      27179     1  0  80   0 - 33826 poll_s Jan17 ?        00:00:00 /usr/libexec/gvfsd
0 S gdm      27180 27162  0  80   0 - 76321 poll_s Jan17 ?        00:00:00 metacity
0 S gdm      27183 27162  0  80   0 - 100915 poll_s Jan17 ?       00:00:02 /usr/libexec/gdm-simple-greeter
0 S gdm      27184 27162  0  80   0 - 68606 poll_s Jan17 ?        00:00:01 gnome-power-manager
0 S gdm      27185 27162  0  80   0 - 62206 poll_s Jan17 ?        00:00:00 /usr/libexec/polkit-gnome-authentication-agent-1
1 S gdm      27194     1  0  69 -11 - 107441 poll_s Jan17 ?       00:00:00 /usr/bin/pulseaudio --start --log-target=syslog
4 S root     27198 27139  0  80   0 - 45436 poll_s Jan17 ?        00:00:00 pam: gdm-password
1 S root     30632     2  0  80   0 -     0 svc_re 12:29 ?        00:00:00 [lockd]
1 S callumc  30738     1  0  80   0 - 29816 poll_s 12:35 ?        00:00:00 SCREEN -d -m bash -l -- bash_stub distribute_run --email cjcameron7@gmail.com --senderConfig economics_memory_code/email.conf --name UtilitySpace 2014_01_19_12_34_07 callum@CallumHD2 27 43 economics_memory_code/fixed_time/utilitySpace_remoteHarness.py 20m 5 economics_memory_code/fixed_time/utilitySpace_20m_lusearch_20m_default_1_sunflow_20m_default_1_xalan_20m_default_1_callum@CallumHD2_2014_01_19_12_34_07 --benchmark lusearch 20m default 1 902 --benchmark sunflow 20m default 1 902 --benchmark xalan 20m default 1 996
0 S callumc  30739 30738  1  80   0 - 27040 wait   12:35 pts/0    00:00:00 bash -l -- bash_stub distribute_run --email cjcameron7@gmail.com --senderConfig economics_memory_code/email.conf --name UtilitySpace 2014_01_19_12_34_07 callum@CallumHD2 27 43 economics_memory_code/fixed_time/utilitySpace_remoteHarness.py 20m 5 economics_memory_code/fixed_time/utilitySpace_20m_lusearch_20m_default_1_sunflow_20m_default_1_xalan_20m_default_1_callum@CallumHD2_2014_01_19_12_34_07 --benchmark lusearch 20m default 1 902 --benchmark sunflow 20m default 1 902 --benchmark xalan 20m default 1 996
0 S callumc  30762 30739  2  80   0 - 45854 wait   12:35 pts/0    00:00:00 python /users/staff/callumc/linuxconfig/LinuxBin/distribute_run --email cjcameron7@gmail.com --senderConfig economics_memory_code/email.conf --name UtilitySpace 2014_01_19_12_34_07 callum@CallumHD2 27 43 economics_memory_code/fixed_time/utilitySpace_remoteHarness.py 20m 5 economics_memory_code/fixed_time/utilitySpace_20m_lusearch_20m_default_1_sunflow_20m_default_1_xalan_20m_default_1_callum@CallumHD2_2014_01_19_12_34_07 --benchmark lusearch 20m default 1 902 --benchmark sunflow 20m default 1 902 --benchmark xalan 20m default 1 996
0 S callumc  30765 30762  4  80   0 - 46182 wait   12:35 pts/0    00:00:00 python economics_memory_code/fixed_time/utilitySpace_remoteHarness.py 20m 5 economics_memory_code/fixed_time/utilitySpace_20m_lusearch_20m_default_1_sunflow_20m_default_1_xalan_20m_default_1_callum@CallumHD2_2014_01_19_12_34_07 --benchmark lusearch 20m default 1 902 --benchmark sunflow 20m default 1 902 --benchmark xalan 20m default 1 996
0 S callumc  30770 30765  0  80   0 - 27038 wait   12:35 pts/0    00:00:00 /bin/bash /users/staff/callumc/economics_memory_code/machineInfo.sh economics_memory_code/fixed_time/utilitySpace_20m_lusearch_20m_default_1_sunflow_20m_default_1_xalan_20m_default_1_callum@CallumHD2_2014_01_19_12_34_07
0 R callumc  30792 30770  0  80   0 - 27335 -      12:35 pts/0    00:00:00 ps -elf
