BENCHMARK,SIZE,THREADS,SECONDS
avrora,large,1,24.77327727
h2,large,4,27.6101272
jython,large,1,10.791035159999998
pmd,large,1,3.3466648799999996
sunflow,large,4,5.570669239999999
tomcat,large,4,10.869813609999998
tomcat,huge,4,77.82597426
xalan,large,4,6.67234824
