economemd
    total memory: 432 MB
    timer interval: 10 s
    timer start state: running
    utility model: root

    caches:
        lru

    force utility function validity: yes
    always use numeric optimisation: yes
    make recommendations: yes
    equal recommendations: no
    random recommendations: no

    reading receiver name: vengerov
    command receiver name: vengerov

    dump file: economemd.dump.log
    log file: /home/callum/economics_memory_code/dynamic_sizing/data/output/timerComparisonMany_2015_02_17_13_34_51/sub13_timerComparisonSingle/sub1_timeBenchmarkDaemon/daemon_run10_log.txt
    log readings: yes
    log functions: yes

PyOptimiser: initialising...
PyOptimiser: initialised
ReadingThread: starting
TimerThread: starting
CommandThread: starting
Recommendation: no clients; no recommendation
Recommendation: no clients; no recommendation
Reading from 26676: heap size 9 MB, throughput 0.988135
Clients: 1
Client 26676 has a minimum heap size of 12 MB
Reading from 26675: heap size 9 MB, throughput 0.989805
Clients: 2
Client 26675 has a minimum heap size of 276 MB
Reading from 26676: heap size 9 MB, throughput 0.985796
Reading from 26675: heap size 9 MB, throughput 0.979665
Reading from 26675: heap size 9 MB, throughput 0.967612
Reading from 26675: heap size 9 MB, throughput 0.963851
Reading from 26676: heap size 11 MB, throughput 0.98616
Reading from 26675: heap size 11 MB, throughput 0.974776
Reading from 26676: heap size 11 MB, throughput 0.981574
Reading from 26675: heap size 11 MB, throughput 0.960678
Reading from 26675: heap size 17 MB, throughput 0.95466
Reading from 26676: heap size 15 MB, throughput 0.983241
Reading from 26675: heap size 17 MB, throughput 0.908505
Reading from 26676: heap size 15 MB, throughput 0.97492
Reading from 26675: heap size 30 MB, throughput 0.855646
Reading from 26675: heap size 31 MB, throughput 0.509044
Reading from 26675: heap size 35 MB, throughput 0.689758
Reading from 26675: heap size 48 MB, throughput 0.510505
Reading from 26676: heap size 24 MB, throughput 0.93527
Reading from 26675: heap size 50 MB, throughput 0.449519
Reading from 26676: heap size 30 MB, throughput 0.934103
Reading from 26675: heap size 66 MB, throughput 0.39847
Reading from 26675: heap size 73 MB, throughput 0.361381
Reading from 26676: heap size 35 MB, throughput 0.891459
Reading from 26675: heap size 73 MB, throughput 0.445419
Reading from 26675: heap size 102 MB, throughput 0.51904
Reading from 26676: heap size 40 MB, throughput 0.923665
Reading from 26676: heap size 42 MB, throughput 0.601649
Reading from 26675: heap size 102 MB, throughput 0.313521
Reading from 26675: heap size 135 MB, throughput 0.659191
Reading from 26676: heap size 45 MB, throughput 0.720203
Reading from 26675: heap size 135 MB, throughput 0.595779
Reading from 26676: heap size 50 MB, throughput 0.901659
Reading from 26675: heap size 137 MB, throughput 0.338644
Reading from 26675: heap size 140 MB, throughput 0.29173
Reading from 26676: heap size 50 MB, throughput 0.943782
Reading from 26676: heap size 57 MB, throughput 0.964307
Reading from 26676: heap size 57 MB, throughput 0.969031
Reading from 26675: heap size 143 MB, throughput 0.420293
Reading from 26676: heap size 64 MB, throughput 0.959074
Reading from 26675: heap size 181 MB, throughput 0.362136
Reading from 26675: heap size 186 MB, throughput 0.197465
Reading from 26676: heap size 69 MB, throughput 0.968597
Reading from 26675: heap size 189 MB, throughput 0.697621
Reading from 26676: heap size 75 MB, throughput 0.977558
Reading from 26675: heap size 197 MB, throughput 0.696645
Reading from 26676: heap size 75 MB, throughput 0.992521
Reading from 26676: heap size 81 MB, throughput 0.995045
Reading from 26675: heap size 201 MB, throughput 0.595915
Reading from 26675: heap size 249 MB, throughput 0.861203
Reading from 26675: heap size 253 MB, throughput 0.853286
Reading from 26676: heap size 83 MB, throughput 0.994864
Reading from 26675: heap size 253 MB, throughput 0.433507
Reading from 26675: heap size 300 MB, throughput 0.0669913
Reading from 26676: heap size 88 MB, throughput 0.992042
Reading from 26675: heap size 300 MB, throughput 0.103937
Reading from 26675: heap size 300 MB, throughput 0.111425
Reading from 26675: heap size 296 MB, throughput 0.459653
Reading from 26676: heap size 89 MB, throughput 0.993558
Reading from 26675: heap size 264 MB, throughput 0.752583
Reading from 26675: heap size 293 MB, throughput 0.871956
Reading from 26675: heap size 266 MB, throughput 0.9277
Reading from 26676: heap size 94 MB, throughput 0.994785
Reading from 26675: heap size 290 MB, throughput 0.951875
Reading from 26675: heap size 292 MB, throughput 0.975483
Reading from 26676: heap size 95 MB, throughput 0.994849
Reading from 26675: heap size 291 MB, throughput 0.956566
Reading from 26675: heap size 292 MB, throughput 0.939048
Reading from 26675: heap size 293 MB, throughput 0.902031
Reading from 26675: heap size 293 MB, throughput 0.876133
Reading from 26675: heap size 295 MB, throughput 0.865618
Reading from 26675: heap size 295 MB, throughput 0.915839
Reading from 26676: heap size 98 MB, throughput 0.995434
Reading from 26675: heap size 295 MB, throughput 0.921646
Reading from 26675: heap size 297 MB, throughput 0.67129
Reading from 26675: heap size 293 MB, throughput 0.638578
Reading from 26675: heap size 298 MB, throughput 0.605166
Reading from 26675: heap size 302 MB, throughput 0.608787
Reading from 26675: heap size 297 MB, throughput 0.5664
Reading from 26675: heap size 297 MB, throughput 0.465295
Reading from 26675: heap size 300 MB, throughput 0.0149511
Reading from 26675: heap size 300 MB, throughput 0.0284273
Reading from 26676: heap size 99 MB, throughput 0.995907
Reading from 26675: heap size 279 MB, throughput 0.109698
Analytic result (unused):
Recommendation: 2 clients, utility 0.983114:
    h1: 156 MB (U(h) = 0.859975*h^0.0217324)
    h2: 276 MB (U(h) = 1.01863*h^0.001)
Recommendation: 2 clients, utility 0.983114:
    h1: 156 MB (U(h) = 0.859975*h^0.0217324)
    h2: 276 MB (U(h) = 1.01863*h^0.001)
Reading from 26676: heap size 101 MB, throughput 0.996303
Reading from 26675: heap size 299 MB, throughput 0.6788
Reading from 26676: heap size 102 MB, throughput 0.995044
Reading from 26675: heap size 299 MB, throughput 0.824146
Reading from 26676: heap size 105 MB, throughput 0.995375
Reading from 26675: heap size 297 MB, throughput 0.911192
Reading from 26675: heap size 266 MB, throughput 0.936454
Reading from 26676: heap size 105 MB, throughput 0.995252
Reading from 26675: heap size 298 MB, throughput 0.838304
Reading from 26676: heap size 107 MB, throughput 0.992025
Reading from 26675: heap size 269 MB, throughput 0.900181
Reading from 26676: heap size 107 MB, throughput 0.992102
Reading from 26675: heap size 296 MB, throughput 0.924703
Reading from 26676: heap size 110 MB, throughput 0.994059
Reading from 26676: heap size 110 MB, throughput 0.995212
Reading from 26675: heap size 273 MB, throughput 0.907628
Reading from 26676: heap size 111 MB, throughput 0.996186
Reading from 26675: heap size 294 MB, throughput 0.898595
Reading from 26676: heap size 112 MB, throughput 0.996857
Reading from 26675: heap size 274 MB, throughput 0.921774
Reading from 26676: heap size 114 MB, throughput 0.997347
Reading from 26675: heap size 292 MB, throughput 0.926679
Reading from 26676: heap size 114 MB, throughput 0.997131
Reading from 26675: heap size 276 MB, throughput 0.946125
Reading from 26676: heap size 116 MB, throughput 0.997609
Reading from 26675: heap size 290 MB, throughput 0.94786
Reading from 26676: heap size 116 MB, throughput 0.997789
Reading from 26675: heap size 278 MB, throughput 0.944431
Analytic result (unused):
Recommendation: 2 clients, utility 0.735554:
    h1: 156 MB (U(h) = 0.81818*h^0.0369902)
    h2: 276 MB (U(h) = 0.741653*h^0.001)
Recommendation: 2 clients, utility 0.735554:
    h1: 156 MB (U(h) = 0.81818*h^0.0369902)
    h2: 276 MB (U(h) = 0.741653*h^0.001)
Reading from 26676: heap size 117 MB, throughput 0.997885
Reading from 26675: heap size 286 MB, throughput 0.950514
Reading from 26676: heap size 117 MB, throughput 0.997017
Reading from 26675: heap size 279 MB, throughput 0.94599
Reading from 26676: heap size 118 MB, throughput 0.997568
Reading from 26675: heap size 286 MB, throughput 0.935234
Reading from 26676: heap size 118 MB, throughput 0.997512
Reading from 26675: heap size 278 MB, throughput 0.914535
Reading from 26675: heap size 286 MB, throughput 0.902668
Reading from 26676: heap size 119 MB, throughput 0.996572
Reading from 26676: heap size 119 MB, throughput 0.986679
Reading from 26675: heap size 278 MB, throughput 0.902951
Reading from 26676: heap size 121 MB, throughput 0.985216
Reading from 26676: heap size 122 MB, throughput 0.981404
Reading from 26675: heap size 285 MB, throughput 0.908109
Reading from 26676: heap size 126 MB, throughput 0.989549
Reading from 26675: heap size 278 MB, throughput 0.90653
Reading from 26675: heap size 285 MB, throughput 0.921989
Reading from 26676: heap size 127 MB, throughput 0.993464
Reading from 26675: heap size 285 MB, throughput 0.931562
Reading from 26676: heap size 131 MB, throughput 0.995481
Reading from 26675: heap size 284 MB, throughput 0.929979
Reading from 26676: heap size 132 MB, throughput 0.995894
Reading from 26675: heap size 284 MB, throughput 0.920906
Reading from 26676: heap size 135 MB, throughput 0.996601
Reading from 26675: heap size 284 MB, throughput 0.921661
Reading from 26676: heap size 135 MB, throughput 0.996458
Reading from 26675: heap size 279 MB, throughput 0.925764
Analytic result (unused):
Recommendation: 2 clients, utility 0.630195:
    h1: 156 MB (U(h) = 0.806717*h^0.0411076)
    h2: 276 MB (U(h) = 0.62084*h^0.00394106)
Recommendation: 2 clients, utility 0.630195:
    h1: 156 MB (U(h) = 0.806717*h^0.0411076)
    h2: 276 MB (U(h) = 0.62084*h^0.00394106)
Reading from 26676: heap size 138 MB, throughput 0.996681
Reading from 26675: heap size 283 MB, throughput 0.928018
Reading from 26676: heap size 138 MB, throughput 0.996734
Reading from 26675: heap size 283 MB, throughput 0.934821
Reading from 26676: heap size 140 MB, throughput 0.996561
Reading from 26675: heap size 321 MB, throughput 0.858792
Reading from 26676: heap size 141 MB, throughput 0.996736
Reading from 26675: heap size 325 MB, throughput 0.901202
Reading from 26675: heap size 325 MB, throughput 0.894038
Reading from 26675: heap size 325 MB, throughput 0.773422
Reading from 26675: heap size 322 MB, throughput 0.309943
Reading from 26675: heap size 325 MB, throughput 0.840344
Reading from 26675: heap size 326 MB, throughput 0.793308
Reading from 26675: heap size 329 MB, throughput 0.743371
Reading from 26675: heap size 329 MB, throughput 0.718706
Reading from 26675: heap size 331 MB, throughput 0.709949
Reading from 26675: heap size 331 MB, throughput 0.702463
Reading from 26675: heap size 332 MB, throughput 0.693927
Reading from 26676: heap size 143 MB, throughput 0.997126
Reading from 26675: heap size 332 MB, throughput 0.695761
Reading from 26675: heap size 332 MB, throughput 0.701618
Reading from 26675: heap size 332 MB, throughput 0.748548
Reading from 26675: heap size 332 MB, throughput 0.926371
Reading from 26676: heap size 143 MB, throughput 0.991587
Reading from 26675: heap size 332 MB, throughput 0.974291
Reading from 26675: heap size 333 MB, throughput 0.979063
Reading from 26676: heap size 145 MB, throughput 0.988746
Reading from 26675: heap size 333 MB, throughput 0.983906
Reading from 26675: heap size 333 MB, throughput 0.98481
Reading from 26676: heap size 145 MB, throughput 0.987905
Reading from 26675: heap size 333 MB, throughput 0.98398
Reading from 26676: heap size 148 MB, throughput 0.989231
Reading from 26675: heap size 333 MB, throughput 0.983682
Reading from 26675: heap size 333 MB, throughput 0.979757
Reading from 26676: heap size 148 MB, throughput 0.992639
Reading from 26675: heap size 294 MB, throughput 0.982638
Reading from 26676: heap size 149 MB, throughput 0.995484
Reading from 26675: heap size 328 MB, throughput 0.981094
Reading from 26675: heap size 296 MB, throughput 0.978204
Reading from 26676: heap size 150 MB, throughput 0.996604
Analytic result (unused):
Recommendation: 2 clients, utility 0.665256:
    h1: 156 MB (U(h) = 0.803854*h^0.0420964)
    h2: 276 MB (U(h) = 0.556854*h^0.0326715)
Recommendation: 2 clients, utility 0.665256:
    h1: 156 MB (U(h) = 0.803854*h^0.0420964)
    h2: 276 MB (U(h) = 0.556854*h^0.0326715)
Reading from 26675: heap size 323 MB, throughput 0.97643
Reading from 26675: heap size 298 MB, throughput 0.98015
Reading from 26676: heap size 152 MB, throughput 0.997559
Reading from 26675: heap size 319 MB, throughput 0.977769
Reading from 26676: heap size 152 MB, throughput 0.99706
Reading from 26675: heap size 300 MB, throughput 0.969464
Reading from 26676: heap size 153 MB, throughput 0.996099
Reading from 26675: heap size 317 MB, throughput 0.900747
Reading from 26676: heap size 153 MB, throughput 0.993348
Reading from 26675: heap size 302 MB, throughput 0.837525
Reading from 26676: heap size 155 MB, throughput 0.995075
Reading from 26675: heap size 315 MB, throughput 0.825469
Reading from 26675: heap size 302 MB, throughput 0.838886
Reading from 26676: heap size 155 MB, throughput 0.996323
Reading from 26675: heap size 313 MB, throughput 0.840715
Reading from 26675: heap size 302 MB, throughput 0.874333
Reading from 26676: heap size 155 MB, throughput 0.996766
Reading from 26675: heap size 312 MB, throughput 0.869016
Reading from 26676: heap size 155 MB, throughput 0.997074
Reading from 26675: heap size 302 MB, throughput 0.891264
Reading from 26675: heap size 310 MB, throughput 0.886601
Reading from 26676: heap size 155 MB, throughput 0.997244
Reading from 26675: heap size 302 MB, throughput 0.889251
Reading from 26675: heap size 309 MB, throughput 0.887889
Reading from 26676: heap size 153 MB, throughput 0.9969
Reading from 26675: heap size 302 MB, throughput 0.886845
Reading from 26676: heap size 155 MB, throughput 0.997159
Reading from 26675: heap size 308 MB, throughput 0.902998
Reading from 26675: heap size 302 MB, throughput 0.89748
Analytic result (unused):
Recommendation: 2 clients, utility 0.742365:
    h1: 139.39 MB (U(h) = 0.803122*h^0.0423434)
    h2: 292.61 MB (U(h) = 0.452708*h^0.0888883)
Recommendation: 2 clients, utility 0.742365:
    h1: 139.39 MB (U(h) = 0.803122*h^0.0423434)
    h2: 292.61 MB (U(h) = 0.452708*h^0.0888883)
Reading from 26676: heap size 155 MB, throughput 0.997136
Reading from 26675: heap size 307 MB, throughput 0.903974
Reading from 26675: heap size 308 MB, throughput 0.897594
Reading from 26676: heap size 147 MB, throughput 0.996928
Reading from 26675: heap size 307 MB, throughput 0.903915
Reading from 26676: heap size 141 MB, throughput 0.996706
Reading from 26675: heap size 302 MB, throughput 0.954567
Reading from 26675: heap size 295 MB, throughput 0.958447
Reading from 26676: heap size 136 MB, throughput 0.994878
Reading from 26675: heap size 295 MB, throughput 0.969578
Reading from 26676: heap size 139 MB, throughput 0.995042
Reading from 26675: heap size 296 MB, throughput 0.979185
Reading from 26675: heap size 297 MB, throughput 0.98343
Reading from 26676: heap size 141 MB, throughput 0.992023
Reading from 26675: heap size 298 MB, throughput 0.985391
Reading from 26676: heap size 136 MB, throughput 0.988339
Reading from 26675: heap size 279 MB, throughput 0.981567
Reading from 26676: heap size 138 MB, throughput 0.994769
Reading from 26675: heap size 298 MB, throughput 0.978429
Reading from 26675: heap size 286 MB, throughput 0.976937
Reading from 26675: heap size 294 MB, throughput 0.961631
Reading from 26675: heap size 297 MB, throughput 0.931417
Reading from 26675: heap size 297 MB, throughput 0.873169
Reading from 26676: heap size 146 MB, throughput 0.993908
Reading from 26675: heap size 298 MB, throughput 0.134935
Reading from 26675: heap size 293 MB, throughput 0.727275
Reading from 26675: heap size 301 MB, throughput 0.621261
Reading from 26675: heap size 304 MB, throughput 0.622206
Reading from 26675: heap size 306 MB, throughput 0.621573
Reading from 26675: heap size 306 MB, throughput 0.613514
Reading from 26675: heap size 282 MB, throughput 0.912047
Reading from 26675: heap size 319 MB, throughput 0.741913
Reading from 26675: heap size 318 MB, throughput 0.85205
Reading from 26675: heap size 319 MB, throughput 0.898641
Reading from 26675: heap size 320 MB, throughput 0.921179
Reading from 26675: heap size 319 MB, throughput 0.939792
Reading from 26675: heap size 274 MB, throughput 0.950772
Reading from 26675: heap size 320 MB, throughput 0.952042
Reading from 26675: heap size 275 MB, throughput 0.954609
Reading from 26675: heap size 318 MB, throughput 0.860478
Reading from 26675: heap size 276 MB, throughput 0.948024
Reading from 26675: heap size 315 MB, throughput 0.957955
Reading from 26676: heap size 138 MB, throughput 0.995765
Reading from 26675: heap size 279 MB, throughput 0.981654
Reading from 26675: heap size 312 MB, throughput 0.988071
Reading from 26676: heap size 143 MB, throughput 0.997178
Reading from 26675: heap size 281 MB, throughput 0.987575
Reading from 26675: heap size 309 MB, throughput 0.986237
Reading from 26676: heap size 134 MB, throughput 0.997544
Reading from 26675: heap size 284 MB, throughput 0.98153
Reading from 26676: heap size 140 MB, throughput 0.993217
Analytic result (unused):
Recommendation: 2 clients, utility 0.755097:
    h1: 133.098 MB (U(h) = 0.802016*h^0.0427329)
    h2: 298.902 MB (U(h) = 0.442058*h^0.0959666)
Recommendation: 2 clients, utility 0.755097:
    h1: 133.097 MB (U(h) = 0.802016*h^0.0427329)
    h2: 298.903 MB (U(h) = 0.442058*h^0.0959666)
Reading from 26676: heap size 134 MB, throughput 0.992015
Reading from 26675: heap size 306 MB, throughput 0.978067
Reading from 26676: heap size 130 MB, throughput 0.98929
Reading from 26675: heap size 287 MB, throughput 0.981875
Reading from 26675: heap size 304 MB, throughput 0.982161
Reading from 26676: heap size 135 MB, throughput 0.993779
Reading from 26675: heap size 290 MB, throughput 0.980009
Reading from 26676: heap size 130 MB, throughput 0.995139
Reading from 26675: heap size 304 MB, throughput 0.981992
Reading from 26675: heap size 303 MB, throughput 0.980085
Reading from 26676: heap size 133 MB, throughput 0.996257
Reading from 26675: heap size 303 MB, throughput 0.976625
Reading from 26675: heap size 303 MB, throughput 0.970654
Reading from 26676: heap size 128 MB, throughput 0.996394
Reading from 26675: heap size 303 MB, throughput 0.976287
Reading from 26676: heap size 130 MB, throughput 0.996917
Reading from 26675: heap size 304 MB, throughput 0.976948
Reading from 26675: heap size 304 MB, throughput 0.963584
Reading from 26676: heap size 132 MB, throughput 0.996857
Reading from 26675: heap size 304 MB, throughput 0.957532
Reading from 26676: heap size 134 MB, throughput 0.997128
Reading from 26675: heap size 304 MB, throughput 0.95422
Reading from 26675: heap size 305 MB, throughput 0.951267
Reading from 26676: heap size 128 MB, throughput 0.997174
Reading from 26675: heap size 305 MB, throughput 0.954655
Reading from 26676: heap size 132 MB, throughput 0.997044
Reading from 26675: heap size 305 MB, throughput 0.953071
Reading from 26675: heap size 304 MB, throughput 0.944785
Reading from 26676: heap size 133 MB, throughput 0.997045
Reading from 26675: heap size 305 MB, throughput 0.945449
Reading from 26675: heap size 305 MB, throughput 0.943768
Reading from 26676: heap size 136 MB, throughput 0.996107
Reading from 26675: heap size 295 MB, throughput 0.942345
Reading from 26676: heap size 130 MB, throughput 0.994438
Analytic result (unused):
Recommendation: 2 clients, utility 0.772967:
    h1: 124.157 MB (U(h) = 0.800984*h^0.0431138)
    h2: 307.843 MB (U(h) = 0.424872*h^0.106899)
Recommendation: 2 clients, utility 0.772967:
    h1: 124.157 MB (U(h) = 0.800984*h^0.0431138)
    h2: 307.843 MB (U(h) = 0.424872*h^0.106899)
Reading from 26675: heap size 305 MB, throughput 0.955491
Reading from 26675: heap size 304 MB, throughput 0.949773
Reading from 26676: heap size 132 MB, throughput 0.989852
Reading from 26675: heap size 304 MB, throughput 0.962441
Reading from 26676: heap size 127 MB, throughput 0.989849
Reading from 26675: heap size 305 MB, throughput 0.944129
Reading from 26675: heap size 305 MB, throughput 0.947654
Reading from 26676: heap size 123 MB, throughput 0.989606
Reading from 26675: heap size 305 MB, throughput 0.95557
Reading from 26676: heap size 125 MB, throughput 0.99342
Reading from 26675: heap size 306 MB, throughput 0.951701
Reading from 26676: heap size 121 MB, throughput 0.995248
Reading from 26675: heap size 306 MB, throughput 0.958623
Reading from 26676: heap size 125 MB, throughput 0.996565
Reading from 26675: heap size 307 MB, throughput 0.964873
Reading from 26676: heap size 117 MB, throughput 0.997451
Reading from 26675: heap size 307 MB, throughput 0.96797
Reading from 26676: heap size 123 MB, throughput 0.997787
Reading from 26675: heap size 307 MB, throughput 0.961485
Reading from 26676: heap size 123 MB, throughput 0.997982
Reading from 26675: heap size 308 MB, throughput 0.955934
Reading from 26675: heap size 309 MB, throughput 0.954339
Reading from 26676: heap size 123 MB, throughput 0.997679
Reading from 26676: heap size 124 MB, throughput 0.995831
Reading from 26675: heap size 309 MB, throughput 0.950702
Reading from 26676: heap size 120 MB, throughput 0.981759
Reading from 26676: heap size 121 MB, throughput 0.979806
Reading from 26675: heap size 309 MB, throughput 0.951889
Reading from 26676: heap size 124 MB, throughput 0.986517
Reading from 26675: heap size 309 MB, throughput 0.953898
Reading from 26676: heap size 129 MB, throughput 0.992731
Reading from 26675: heap size 309 MB, throughput 0.951453
Reading from 26676: heap size 123 MB, throughput 0.995048
Analytic result (unused):
Recommendation: 2 clients, utility 0.776532:
    h1: 122.968 MB (U(h) = 0.800349*h^0.0433606)
    h2: 309.032 MB (U(h) = 0.421627*h^0.108971)
Recommendation: 2 clients, utility 0.776532:
    h1: 122.969 MB (U(h) = 0.800349*h^0.0433606)
    h2: 309.031 MB (U(h) = 0.421627*h^0.108971)
Reading from 26675: heap size 309 MB, throughput 0.906164
Reading from 26676: heap size 125 MB, throughput 0.995726
Reading from 26675: heap size 305 MB, throughput 0.918419
Reading from 26676: heap size 120 MB, throughput 0.9959
Reading from 26675: heap size 309 MB, throughput 0.894014
Reading from 26675: heap size 309 MB, throughput 0.966226
Reading from 26675: heap size 297 MB, throughput 0.835732
Reading from 26675: heap size 300 MB, throughput 0.832963
Reading from 26675: heap size 301 MB, throughput 0.831086
Reading from 26675: heap size 302 MB, throughput 0.817677
Reading from 26675: heap size 303 MB, throughput 0.804552
Reading from 26675: heap size 308 MB, throughput 0.807114
Reading from 26675: heap size 308 MB, throughput 0.784935
Reading from 26676: heap size 123 MB, throughput 0.996314
Reading from 26675: heap size 314 MB, throughput 0.796739
Reading from 26675: heap size 314 MB, throughput 0.820376
Reading from 26675: heap size 314 MB, throughput 0.832376
Reading from 26675: heap size 314 MB, throughput 0.421402
Reading from 26675: heap size 311 MB, throughput 0.12922
Reading from 26675: heap size 312 MB, throughput 0.189555
Reading from 26675: heap size 313 MB, throughput 0.593955
Reading from 26676: heap size 124 MB, throughput 0.995832
Reading from 26675: heap size 314 MB, throughput 0.854096
Reading from 26676: heap size 118 MB, throughput 0.995193
Reading from 26675: heap size 315 MB, throughput 0.929003
Reading from 26676: heap size 122 MB, throughput 0.995721
Reading from 26675: heap size 279 MB, throughput 0.96078
Reading from 26676: heap size 124 MB, throughput 0.996031
Reading from 26675: heap size 315 MB, throughput 0.97908
Reading from 26676: heap size 118 MB, throughput 0.995526
Reading from 26675: heap size 282 MB, throughput 0.983544
Reading from 26676: heap size 121 MB, throughput 0.995565
Reading from 26675: heap size 313 MB, throughput 0.984065
Reading from 26675: heap size 286 MB, throughput 0.984343
Reading from 26676: heap size 122 MB, throughput 0.988127
Reading from 26675: heap size 311 MB, throughput 0.981529
Reading from 26676: heap size 125 MB, throughput 0.983221
Reading from 26675: heap size 291 MB, throughput 0.978334
Reading from 26676: heap size 117 MB, throughput 0.984631
Reading from 26675: heap size 310 MB, throughput 0.979575
Reading from 26676: heap size 121 MB, throughput 0.987741
Reading from 26675: heap size 295 MB, throughput 0.980345
Reading from 26676: heap size 121 MB, throughput 0.992622
Reading from 26675: heap size 308 MB, throughput 0.980191
Analytic result (unused):
Recommendation: 2 clients, utility 0.770383:
    h1: 126.898 MB (U(h) = 0.800057*h^0.0434755)
    h2: 305.102 MB (U(h) = 0.428986*h^0.104528)
Recommendation: 2 clients, utility 0.770383:
    h1: 126.9 MB (U(h) = 0.800057*h^0.0434755)
    h2: 305.1 MB (U(h) = 0.428986*h^0.104528)
Reading from 26676: heap size 124 MB, throughput 0.995504
Reading from 26676: heap size 124 MB, throughput 0.99617
Reading from 26675: heap size 308 MB, throughput 0.983534
Reading from 26676: heap size 126 MB, throughput 0.99715
Reading from 26675: heap size 308 MB, throughput 0.983143
Reading from 26676: heap size 126 MB, throughput 0.99735
Reading from 26675: heap size 309 MB, throughput 0.975687
Reading from 26676: heap size 128 MB, throughput 0.997261
Reading from 26675: heap size 309 MB, throughput 0.967177
Reading from 26676: heap size 120 MB, throughput 0.996901
Reading from 26675: heap size 310 MB, throughput 0.960099
Reading from 26676: heap size 124 MB, throughput 0.997123
Reading from 26675: heap size 310 MB, throughput 0.953317
Reading from 26676: heap size 124 MB, throughput 0.996263
Reading from 26676: heap size 127 MB, throughput 0.994254
Reading from 26675: heap size 310 MB, throughput 0.945316
Reading from 26676: heap size 127 MB, throughput 0.991297
Reading from 26675: heap size 310 MB, throughput 0.94327
Reading from 26676: heap size 131 MB, throughput 0.992614
Reading from 26675: heap size 310 MB, throughput 0.943714
Reading from 26676: heap size 126 MB, throughput 0.99573
Reading from 26675: heap size 310 MB, throughput 0.944247
Reading from 26676: heap size 128 MB, throughput 0.995923
Reading from 26675: heap size 310 MB, throughput 0.943391
Reading from 26676: heap size 123 MB, throughput 0.996432
Reading from 26675: heap size 310 MB, throughput 0.94797
Reading from 26676: heap size 126 MB, throughput 0.995719
Reading from 26675: heap size 300 MB, throughput 0.9504
Reading from 26676: heap size 127 MB, throughput 0.995381
Reading from 26675: heap size 310 MB, throughput 0.950194
Analytic result (unused):
Recommendation: 2 clients, utility 0.774186:
    h1: 125.274 MB (U(h) = 0.7997*h^0.0436161)
    h2: 306.726 MB (U(h) = 0.425457*h^0.106791)
Recommendation: 2 clients, utility 0.774186:
    h1: 125.275 MB (U(h) = 0.7997*h^0.0436161)
    h2: 306.725 MB (U(h) = 0.425457*h^0.106791)
Reading from 26676: heap size 121 MB, throughput 0.993315
Reading from 26675: heap size 300 MB, throughput 0.963719
Reading from 26676: heap size 125 MB, throughput 0.995023
Reading from 26675: heap size 329 MB, throughput 0.970071
Reading from 26676: heap size 128 MB, throughput 0.995831
Reading from 26675: heap size 329 MB, throughput 0.980145
Reading from 26675: heap size 329 MB, throughput 0.980417
Reading from 26676: heap size 121 MB, throughput 0.996252
Reading from 26675: heap size 330 MB, throughput 0.979134
Reading from 26676: heap size 123 MB, throughput 0.996427
Reading from 26676: heap size 125 MB, throughput 0.996002
Reading from 26675: heap size 330 MB, throughput 0.985653
Reading from 26675: heap size 308 MB, throughput 0.975774
Reading from 26676: heap size 119 MB, throughput 0.990957
Reading from 26675: heap size 325 MB, throughput 0.968249
Reading from 26675: heap size 329 MB, throughput 0.943778
Reading from 26675: heap size 329 MB, throughput 0.778229
Reading from 26675: heap size 329 MB, throughput 0.677192
Reading from 26675: heap size 332 MB, throughput 0.565107
Reading from 26675: heap size 336 MB, throughput 0.547226
Reading from 26675: heap size 337 MB, throughput 0.361064
Reading from 26675: heap size 337 MB, throughput 0.302436
Reading from 26675: heap size 337 MB, throughput 0.0350521
Reading from 26675: heap size 337 MB, throughput 0.0643671
Reading from 26676: heap size 122 MB, throughput 0.989455
Reading from 26675: heap size 337 MB, throughput 0.907189
Reading from 26675: heap size 352 MB, throughput 0.432135
Reading from 26675: heap size 352 MB, throughput 0.603591
Reading from 26675: heap size 352 MB, throughput 0.722142
Reading from 26675: heap size 352 MB, throughput 0.829579
Reading from 26675: heap size 352 MB, throughput 0.974
Reading from 26676: heap size 125 MB, throughput 0.989467
Reading from 26675: heap size 352 MB, throughput 0.966023
Reading from 26676: heap size 125 MB, throughput 0.991074
Reading from 26675: heap size 352 MB, throughput 0.952211
Reading from 26676: heap size 127 MB, throughput 0.993956
Reading from 26675: heap size 351 MB, throughput 0.97411
Reading from 26675: heap size 307 MB, throughput 0.982162
Reading from 26676: heap size 120 MB, throughput 0.996091
Reading from 26675: heap size 345 MB, throughput 0.981158
Reading from 26676: heap size 124 MB, throughput 0.9969
Reading from 26675: heap size 309 MB, throughput 0.985747
Reading from 26676: heap size 124 MB, throughput 0.997565
Reading from 26675: heap size 339 MB, throughput 0.986785
Reading from 26676: heap size 126 MB, throughput 0.997437
Analytic result (unused):
Recommendation: 2 clients, utility 0.777234:
    h1: 123.642 MB (U(h) = 0.799448*h^0.0437158)
    h2: 308.358 MB (U(h) = 0.42163*h^0.109025)
Recommendation: 2 clients, utility 0.777234:
    h1: 123.641 MB (U(h) = 0.799448*h^0.0437158)
    h2: 308.359 MB (U(h) = 0.42163*h^0.109025)
Reading from 26675: heap size 311 MB, throughput 0.984128
Reading from 26675: heap size 334 MB, throughput 0.98228
Reading from 26676: heap size 118 MB, throughput 0.997747
Reading from 26675: heap size 313 MB, throughput 0.980297
Reading from 26676: heap size 122 MB, throughput 0.997622
Reading from 26675: heap size 331 MB, throughput 0.973493
Reading from 26675: heap size 315 MB, throughput 0.976188
Reading from 26676: heap size 122 MB, throughput 0.99804
Reading from 26676: heap size 124 MB, throughput 0.994975
Reading from 26675: heap size 331 MB, throughput 0.975622
Reading from 26676: heap size 124 MB, throughput 0.991888
Reading from 26676: heap size 127 MB, throughput 0.990405
Reading from 26675: heap size 317 MB, throughput 0.975905
Reading from 26676: heap size 123 MB, throughput 0.990899
Reading from 26675: heap size 331 MB, throughput 0.97656
Reading from 26676: heap size 124 MB, throughput 0.993679
Reading from 26675: heap size 331 MB, throughput 0.976585
Reading from 26675: heap size 331 MB, throughput 0.968963
Reading from 26676: heap size 120 MB, throughput 0.99558
Reading from 26675: heap size 331 MB, throughput 0.962485
Reading from 26676: heap size 123 MB, throughput 0.995754
Reading from 26675: heap size 331 MB, throughput 0.966554
Reading from 26676: heap size 124 MB, throughput 0.996128
Reading from 26675: heap size 331 MB, throughput 0.96267
Reading from 26676: heap size 118 MB, throughput 0.996081
Reading from 26675: heap size 331 MB, throughput 0.96379
Reading from 26676: heap size 122 MB, throughput 0.996477
Reading from 26675: heap size 331 MB, throughput 0.963074
Reading from 26676: heap size 124 MB, throughput 0.992114
Reading from 26675: heap size 330 MB, throughput 0.957768
Reading from 26675: heap size 320 MB, throughput 0.952857
Reading from 26676: heap size 124 MB, throughput 0.994067
Reading from 26675: heap size 330 MB, throughput 0.952305
Reading from 26676: heap size 127 MB, throughput 0.994621
Reading from 26675: heap size 320 MB, throughput 0.96008
Analytic result (unused):
Recommendation: 2 clients, utility 0.788316:
    h1: 117.921 MB (U(h) = 0.799386*h^0.0437428)
    h2: 314.079 MB (U(h) = 0.409641*h^0.116507)
Recommendation: 2 clients, utility 0.788316:
    h1: 117.924 MB (U(h) = 0.799386*h^0.0437428)
    h2: 314.076 MB (U(h) = 0.409641*h^0.116507)
Reading from 26676: heap size 122 MB, throughput 0.9957
Reading from 26675: heap size 329 MB, throughput 0.957491
Reading from 26675: heap size 329 MB, throughput 0.960559
Reading from 26676: heap size 118 MB, throughput 0.995369
Reading from 26675: heap size 328 MB, throughput 0.96392
Reading from 26676: heap size 121 MB, throughput 0.989673
Reading from 26675: heap size 320 MB, throughput 0.957808
Reading from 26676: heap size 116 MB, throughput 0.995272
Reading from 26675: heap size 327 MB, throughput 0.960893
Reading from 26676: heap size 125 MB, throughput 0.995265
Reading from 26675: heap size 328 MB, throughput 0.959912
Reading from 26676: heap size 118 MB, throughput 0.996784
Reading from 26675: heap size 327 MB, throughput 0.958587
Reading from 26675: heap size 320 MB, throughput 0.956502
Reading from 26676: heap size 115 MB, throughput 0.997294
Reading from 26675: heap size 326 MB, throughput 0.959802
Reading from 26676: heap size 120 MB, throughput 0.997734
Reading from 26675: heap size 320 MB, throughput 0.958626
Reading from 26676: heap size 114 MB, throughput 0.997798
Reading from 26675: heap size 326 MB, throughput 0.958087
Reading from 26676: heap size 119 MB, throughput 0.997934
Reading from 26675: heap size 320 MB, throughput 0.963339
Reading from 26676: heap size 113 MB, throughput 0.997972
Reading from 26675: heap size 324 MB, throughput 0.946934
Reading from 26676: heap size 116 MB, throughput 0.998112
Reading from 26675: heap size 325 MB, throughput 0.953231
Reading from 26676: heap size 116 MB, throughput 0.998064
Reading from 26675: heap size 326 MB, throughput 0.943783
Reading from 26675: heap size 328 MB, throughput 0.911805
Reading from 26675: heap size 329 MB, throughput 0.891899
Reading from 26675: heap size 332 MB, throughput 0.839652
Reading from 26676: heap size 117 MB, throughput 0.998165
Reading from 26675: heap size 331 MB, throughput 0.546768
Reading from 26675: heap size 333 MB, throughput 0.470018
Reading from 26675: heap size 338 MB, throughput 0.443168
Reading from 26675: heap size 340 MB, throughput 0.428344
Reading from 26675: heap size 341 MB, throughput 0.960786
Reading from 26675: heap size 314 MB, throughput 0.492762
Reading from 26675: heap size 329 MB, throughput 0.548088
Reading from 26675: heap size 332 MB, throughput 0.645273
Reading from 26675: heap size 333 MB, throughput 0.780591
Reading from 26675: heap size 333 MB, throughput 0.855758
Reading from 26675: heap size 333 MB, throughput 0.900499
Reading from 26675: heap size 333 MB, throughput 0.929115
Reading from 26676: heap size 118 MB, throughput 0.99806
Reading from 26675: heap size 331 MB, throughput 0.951204
Reading from 26675: heap size 286 MB, throughput 0.963393
Reading from 26675: heap size 332 MB, throughput 0.96849
Reading from 26675: heap size 287 MB, throughput 0.964288
Reading from 26675: heap size 330 MB, throughput 0.956901
Reading from 26676: heap size 120 MB, throughput 0.996737
Reading from 26675: heap size 291 MB, throughput 0.983355
Reading from 26676: heap size 115 MB, throughput 0.984577
Analytic result (unused):
Recommendation: 2 clients, utility 0.779091:
    h1: 124 MB (U(h) = 0.7988*h^0.0440077)
    h2: 308 MB (U(h) = 0.421697*h^0.10931)
Recommendation: 2 clients, utility 0.779091:
    h1: 124 MB (U(h) = 0.7988*h^0.0440077)
    h2: 308 MB (U(h) = 0.421697*h^0.10931)
Reading from 26676: heap size 116 MB, throughput 0.985113
Reading from 26675: heap size 328 MB, throughput 0.990518
Reading from 26676: heap size 119 MB, throughput 0.986402
Reading from 26675: heap size 293 MB, throughput 0.988795
Reading from 26676: heap size 124 MB, throughput 0.992017
Reading from 26675: heap size 325 MB, throughput 0.986997
Reading from 26676: heap size 124 MB, throughput 0.994568
Reading from 26675: heap size 297 MB, throughput 0.984129
Reading from 26675: heap size 323 MB, throughput 0.986643
Reading from 26676: heap size 119 MB, throughput 0.994702
Reading from 26675: heap size 301 MB, throughput 0.985007
Reading from 26676: heap size 123 MB, throughput 0.995435
Reading from 26675: heap size 321 MB, throughput 0.983921
Reading from 26676: heap size 125 MB, throughput 0.995776
Reading from 26675: heap size 305 MB, throughput 0.986009
Reading from 26676: heap size 120 MB, throughput 0.996199
Reading from 26675: heap size 320 MB, throughput 0.984427
Reading from 26675: heap size 319 MB, throughput 0.982164
Reading from 26676: heap size 122 MB, throughput 0.995959
Reading from 26675: heap size 319 MB, throughput 0.978562
Reading from 26676: heap size 123 MB, throughput 0.995624
Reading from 26675: heap size 319 MB, throughput 0.977629
Reading from 26676: heap size 127 MB, throughput 0.995506
Reading from 26675: heap size 319 MB, throughput 0.979938
Reading from 26676: heap size 121 MB, throughput 0.99593
Reading from 26675: heap size 319 MB, throughput 0.98138
Reading from 26676: heap size 123 MB, throughput 0.996268
Reading from 26675: heap size 319 MB, throughput 0.976423
Reading from 26676: heap size 125 MB, throughput 0.992309
Reading from 26675: heap size 320 MB, throughput 0.970256
Reading from 26676: heap size 119 MB, throughput 0.991529
Reading from 26675: heap size 320 MB, throughput 0.967242
Reading from 26675: heap size 321 MB, throughput 0.960561
Reading from 26676: heap size 122 MB, throughput 0.991906
Analytic result (unused):
Recommendation: 2 clients, utility 0.785645:
    h1: 120.749 MB (U(h) = 0.798923*h^0.0439512)
    h2: 311.251 MB (U(h) = 0.415693*h^0.113291)
Recommendation: 2 clients, utility 0.785645:
    h1: 120.749 MB (U(h) = 0.798923*h^0.0439512)
    h2: 311.251 MB (U(h) = 0.415693*h^0.113291)
Reading from 26675: heap size 321 MB, throughput 0.961775
Reading from 26676: heap size 125 MB, throughput 0.993186
Reading from 26675: heap size 321 MB, throughput 0.956854
Reading from 26676: heap size 117 MB, throughput 0.995516
Reading from 26675: heap size 321 MB, throughput 0.966417
Reading from 26676: heap size 121 MB, throughput 0.996723
Reading from 26675: heap size 321 MB, throughput 0.96285
Reading from 26676: heap size 114 MB, throughput 0.997143
Reading from 26675: heap size 320 MB, throughput 0.958002
Reading from 26675: heap size 321 MB, throughput 0.953878
Reading from 26676: heap size 118 MB, throughput 0.99709
Reading from 26675: heap size 320 MB, throughput 0.958999
Reading from 26676: heap size 118 MB, throughput 0.997536
Reading from 26675: heap size 311 MB, throughput 0.955034
Reading from 26676: heap size 120 MB, throughput 0.997835
Reading from 26675: heap size 320 MB, throughput 0.953454
Reading from 26676: heap size 120 MB, throughput 0.998
Reading from 26675: heap size 311 MB, throughput 0.958532
Reading from 26676: heap size 122 MB, throughput 0.997849
Reading from 26675: heap size 320 MB, throughput 0.957994
Reading from 26675: heap size 311 MB, throughput 0.957824
Reading from 26676: heap size 115 MB, throughput 0.997981
Reading from 26675: heap size 319 MB, throughput 0.947343
Reading from 26676: heap size 120 MB, throughput 0.998008
Reading from 26676: heap size 120 MB, throughput 0.996145
Reading from 26675: heap size 311 MB, throughput 0.94915
Reading from 26676: heap size 121 MB, throughput 0.99372
Reading from 26676: heap size 117 MB, throughput 0.978864
Reading from 26675: heap size 317 MB, throughput 0.928069
Reading from 26676: heap size 118 MB, throughput 0.984257
Reading from 26675: heap size 311 MB, throughput 0.937479
Reading from 26676: heap size 121 MB, throughput 0.992968
Reading from 26675: heap size 317 MB, throughput 0.949569
Reading from 26676: heap size 125 MB, throughput 0.994294
Reading from 26675: heap size 311 MB, throughput 0.956152
Analytic result (unused):
Recommendation: 2 clients, utility 0.787632:
    h1: 119.621 MB (U(h) = 0.799092*h^0.0438782)
    h2: 312.379 MB (U(h) = 0.41372*h^0.114584)
Recommendation: 2 clients, utility 0.787632:
    h1: 119.621 MB (U(h) = 0.799092*h^0.0438782)
    h2: 312.379 MB (U(h) = 0.41372*h^0.114584)
Reading from 26676: heap size 120 MB, throughput 0.994723
Reading from 26675: heap size 316 MB, throughput 0.963264
Reading from 26675: heap size 316 MB, throughput 0.959811
Reading from 26676: heap size 123 MB, throughput 0.99487
Reading from 26675: heap size 315 MB, throughput 0.956619
Reading from 26676: heap size 118 MB, throughput 0.995835
Reading from 26675: heap size 311 MB, throughput 0.947902
Reading from 26676: heap size 120 MB, throughput 0.996212
Reading from 26675: heap size 315 MB, throughput 0.904699
Reading from 26676: heap size 121 MB, throughput 0.996324
Reading from 26675: heap size 315 MB, throughput 0.899383
Reading from 26675: heap size 316 MB, throughput 0.913344
Reading from 26676: heap size 116 MB, throughput 0.996492
Reading from 26675: heap size 320 MB, throughput 0.898737
Reading from 26675: heap size 319 MB, throughput 0.864835
Reading from 26675: heap size 311 MB, throughput 0.786566
Reading from 26675: heap size 321 MB, throughput 0.962896
Reading from 26675: heap size 321 MB, throughput 0.759378
Reading from 26675: heap size 326 MB, throughput 0.811648
Reading from 26675: heap size 328 MB, throughput 0.860804
Reading from 26675: heap size 329 MB, throughput 0.911019
Reading from 26675: heap size 329 MB, throughput 0.936908
Reading from 26675: heap size 329 MB, throughput 0.951712
Reading from 26675: heap size 289 MB, throughput 0.959074
Reading from 26676: heap size 119 MB, throughput 0.996177
Reading from 26675: heap size 330 MB, throughput 0.96501
Reading from 26675: heap size 290 MB, throughput 0.969709
Reading from 26675: heap size 329 MB, throughput 0.97166
Reading from 26675: heap size 291 MB, throughput 0.971993
Reading from 26675: heap size 327 MB, throughput 0.971977
Reading from 26675: heap size 293 MB, throughput 0.971698
Reading from 26675: heap size 326 MB, throughput 0.968358
Reading from 26675: heap size 296 MB, throughput 0.975237
Reading from 26676: heap size 122 MB, throughput 0.995907
Reading from 26675: heap size 324 MB, throughput 0.989011
Reading from 26676: heap size 117 MB, throughput 0.996084
Reading from 26675: heap size 297 MB, throughput 0.986962
Reading from 26675: heap size 322 MB, throughput 0.988113
Reading from 26676: heap size 120 MB, throughput 0.994773
Reading from 26675: heap size 301 MB, throughput 0.985126
Reading from 26676: heap size 121 MB, throughput 0.994119
Reading from 26675: heap size 320 MB, throughput 0.986494
Reading from 26676: heap size 115 MB, throughput 0.99367
Reading from 26675: heap size 305 MB, throughput 0.985123
Reading from 26676: heap size 118 MB, throughput 0.994194
Reading from 26675: heap size 319 MB, throughput 0.984122
Reading from 26676: heap size 122 MB, throughput 0.996033
Reading from 26675: heap size 318 MB, throughput 0.98623
Reading from 26675: heap size 318 MB, throughput 0.984092
Reading from 26676: heap size 116 MB, throughput 0.996537
Reading from 26676: heap size 119 MB, throughput 0.997428
Reading from 26675: heap size 318 MB, throughput 0.984883
Analytic result (unused):
Recommendation: 2 clients, utility 0.802305:
    h1: 113.393 MB (U(h) = 0.7988*h^0.0440039)
    h2: 318.607 MB (U(h) = 0.399935*h^0.12364)
Recommendation: 2 clients, utility 0.802305:
    h1: 113.393 MB (U(h) = 0.7988*h^0.0440039)
    h2: 318.607 MB (U(h) = 0.399935*h^0.12364)
Reading from 26675: heap size 318 MB, throughput 0.981709
Reading from 26676: heap size 119 MB, throughput 0.997702
Reading from 26676: heap size 113 MB, throughput 0.997841
Reading from 26675: heap size 319 MB, throughput 0.982164
Reading from 26676: heap size 113 MB, throughput 0.997682
Reading from 26675: heap size 321 MB, throughput 0.981784
Reading from 26675: heap size 322 MB, throughput 0.979925
Reading from 26676: heap size 112 MB, throughput 0.997948
Reading from 26675: heap size 322 MB, throughput 0.974875
Reading from 26676: heap size 117 MB, throughput 0.997441
Reading from 26675: heap size 323 MB, throughput 0.967829
Reading from 26676: heap size 111 MB, throughput 0.997757
Reading from 26676: heap size 114 MB, throughput 0.997869
Reading from 26675: heap size 324 MB, throughput 0.968675
Reading from 26676: heap size 109 MB, throughput 0.997554
Reading from 26676: heap size 113 MB, throughput 0.995036
Reading from 26675: heap size 325 MB, throughput 0.965871
Reading from 26676: heap size 113 MB, throughput 0.992319
Reading from 26676: heap size 113 MB, throughput 0.988639
Reading from 26675: heap size 325 MB, throughput 0.961525
Reading from 26676: heap size 110 MB, throughput 0.989995
Reading from 26675: heap size 325 MB, throughput 0.956695
Reading from 26676: heap size 117 MB, throughput 0.994642
Reading from 26675: heap size 325 MB, throughput 0.955115
Reading from 26676: heap size 112 MB, throughput 0.99547
Reading from 26675: heap size 325 MB, throughput 0.95968
Reading from 26676: heap size 115 MB, throughput 0.995372
Reading from 26675: heap size 325 MB, throughput 0.95869
Reading from 26676: heap size 110 MB, throughput 0.995146
Reading from 26675: heap size 314 MB, throughput 0.961896
Reading from 26676: heap size 114 MB, throughput 0.995698
Reading from 26675: heap size 325 MB, throughput 0.960957
Reading from 26676: heap size 111 MB, throughput 0.996374
Reading from 26675: heap size 314 MB, throughput 0.963606
Reading from 26676: heap size 114 MB, throughput 0.996451
Analytic result (unused):
Recommendation: 2 clients, utility 0.81059:
    h1: 110.191 MB (U(h) = 0.798659*h^0.0440826)
    h2: 321.809 MB (U(h) = 0.392268*h^0.128742)
Recommendation: 2 clients, utility 0.81059:
    h1: 110.191 MB (U(h) = 0.798659*h^0.0440826)
    h2: 321.809 MB (U(h) = 0.392268*h^0.128742)
Reading from 26675: heap size 325 MB, throughput 0.962158
Reading from 26676: heap size 109 MB, throughput 0.996678
Reading from 26675: heap size 324 MB, throughput 0.956511
Reading from 26676: heap size 112 MB, throughput 0.995127
Reading from 26675: heap size 323 MB, throughput 0.958133
Reading from 26676: heap size 109 MB, throughput 0.99594
Reading from 26675: heap size 315 MB, throughput 0.958168
Reading from 26676: heap size 112 MB, throughput 0.994439
Reading from 26675: heap size 324 MB, throughput 0.954915
Reading from 26676: heap size 107 MB, throughput 0.992287
Reading from 26675: heap size 315 MB, throughput 0.952679
Reading from 26676: heap size 109 MB, throughput 0.990951
Reading from 26675: heap size 323 MB, throughput 0.949682
Reading from 26676: heap size 112 MB, throughput 0.992062
Reading from 26675: heap size 315 MB, throughput 0.950897
Reading from 26676: heap size 106 MB, throughput 0.992896
Reading from 26675: heap size 323 MB, throughput 0.951928
Reading from 26676: heap size 109 MB, throughput 0.99512
Reading from 26675: heap size 316 MB, throughput 0.953516
Reading from 26676: heap size 109 MB, throughput 0.995709
Reading from 26675: heap size 322 MB, throughput 0.958029
Reading from 26675: heap size 322 MB, throughput 0.944619
Reading from 26676: heap size 111 MB, throughput 0.996795
Reading from 26676: heap size 105 MB, throughput 0.997224
Reading from 26675: heap size 322 MB, throughput 0.970392
Reading from 26676: heap size 108 MB, throughput 0.997492
Reading from 26675: heap size 315 MB, throughput 0.901038
Reading from 26676: heap size 108 MB, throughput 0.997594
Reading from 26675: heap size 316 MB, throughput 0.907518
Reading from 26675: heap size 321 MB, throughput 0.898142
Reading from 26675: heap size 323 MB, throughput 0.860339
Reading from 26675: heap size 315 MB, throughput 0.966368
Reading from 26675: heap size 321 MB, throughput 0.83305
Reading from 26675: heap size 327 MB, throughput 0.862628
Reading from 26676: heap size 109 MB, throughput 0.997799
Reading from 26675: heap size 327 MB, throughput 0.844044
Reading from 26675: heap size 331 MB, throughput 0.89514
Reading from 26675: heap size 331 MB, throughput 0.919511
Reading from 26675: heap size 292 MB, throughput 0.940842
Reading from 26675: heap size 331 MB, throughput 0.956284
Reading from 26675: heap size 293 MB, throughput 0.966899
Reading from 26675: heap size 331 MB, throughput 0.971481
Reading from 26675: heap size 294 MB, throughput 0.970741
Reading from 26675: heap size 330 MB, throughput 0.976777
Reading from 26675: heap size 295 MB, throughput 0.974198
Reading from 26675: heap size 329 MB, throughput 0.976942
Reading from 26675: heap size 297 MB, throughput 0.970421
Reading from 26675: heap size 327 MB, throughput 0.982878
Reading from 26676: heap size 110 MB, throughput 0.997786
Reading from 26675: heap size 299 MB, throughput 0.99203
Reading from 26676: heap size 112 MB, throughput 0.99788
Reading from 26675: heap size 325 MB, throughput 0.987037
Analytic result (unused):
Recommendation: 2 clients, utility 0.813636:
    h1: 109.521 MB (U(h) = 0.798425*h^0.0442399)
    h2: 322.479 MB (U(h) = 0.390127*h^0.130262)
Recommendation: 2 clients, utility 0.813636:
    h1: 109.518 MB (U(h) = 0.798425*h^0.0442399)
    h2: 322.482 MB (U(h) = 0.390127*h^0.130262)
Reading from 26676: heap size 106 MB, throughput 0.99784
Reading from 26675: heap size 303 MB, throughput 0.988049
Reading from 26676: heap size 109 MB, throughput 0.997889
Reading from 26675: heap size 323 MB, throughput 0.987828
Reading from 26676: heap size 109 MB, throughput 0.997568
Reading from 26675: heap size 307 MB, throughput 0.98889
Reading from 26676: heap size 111 MB, throughput 0.996827
Reading from 26676: heap size 105 MB, throughput 0.996149
Reading from 26675: heap size 323 MB, throughput 0.986483
Reading from 26676: heap size 108 MB, throughput 0.993713
Reading from 26676: heap size 109 MB, throughput 0.990555
Reading from 26676: heap size 113 MB, throughput 0.986444
Reading from 26675: heap size 310 MB, throughput 0.980801
Reading from 26676: heap size 109 MB, throughput 0.991708
Reading from 26675: heap size 321 MB, throughput 0.98266
Reading from 26676: heap size 111 MB, throughput 0.994801
Reading from 26675: heap size 321 MB, throughput 0.97987
Reading from 26676: heap size 107 MB, throughput 0.995852
Reading from 26675: heap size 324 MB, throughput 0.980117
Reading from 26676: heap size 109 MB, throughput 0.99617
Reading from 26675: heap size 324 MB, throughput 0.979902
Reading from 26676: heap size 110 MB, throughput 0.995275
Reading from 26675: heap size 324 MB, throughput 0.979577
Reading from 26676: heap size 106 MB, throughput 0.995111
Reading from 26675: heap size 325 MB, throughput 0.981505
Reading from 26676: heap size 110 MB, throughput 0.995768
Reading from 26675: heap size 325 MB, throughput 0.979167
Reading from 26676: heap size 112 MB, throughput 0.995921
Reading from 26675: heap size 326 MB, throughput 0.972259
Reading from 26676: heap size 107 MB, throughput 0.993892
Reading from 26675: heap size 326 MB, throughput 0.964437
Reading from 26676: heap size 109 MB, throughput 0.99517
Reading from 26675: heap size 328 MB, throughput 0.963433
Reading from 26676: heap size 110 MB, throughput 0.995016
Reading from 26675: heap size 328 MB, throughput 0.960039
Reading from 26675: heap size 329 MB, throughput 0.956789
Reading from 26676: heap size 112 MB, throughput 0.991632
Reading from 26676: heap size 108 MB, throughput 0.992196
Reading from 26675: heap size 329 MB, throughput 0.960152
Analytic result (unused):
Recommendation: 2 clients, utility 0.817168:
    h1: 108.03 MB (U(h) = 0.798533*h^0.0441878)
    h2: 323.97 MB (U(h) = 0.386796*h^0.132515)
Recommendation: 2 clients, utility 0.817168:
    h1: 108.03 MB (U(h) = 0.798533*h^0.0441878)
    h2: 323.97 MB (U(h) = 0.386796*h^0.132515)
Reading from 26675: heap size 329 MB, throughput 0.957924
Reading from 26676: heap size 110 MB, throughput 0.991229
Reading from 26675: heap size 329 MB, throughput 0.952353
Reading from 26676: heap size 105 MB, throughput 0.992567
Reading from 26675: heap size 329 MB, throughput 0.943609
Reading from 26676: heap size 108 MB, throughput 0.993759
Reading from 26675: heap size 328 MB, throughput 0.949174
Reading from 26676: heap size 108 MB, throughput 0.995619
Reading from 26675: heap size 329 MB, throughput 0.952707
Reading from 26676: heap size 110 MB, throughput 0.996588
Reading from 26675: heap size 328 MB, throughput 0.956418
Reading from 26676: heap size 104 MB, throughput 0.997243
Reading from 26675: heap size 318 MB, throughput 0.955156
Reading from 26676: heap size 107 MB, throughput 0.997585
Reading from 26675: heap size 328 MB, throughput 0.952223
Reading from 26676: heap size 107 MB, throughput 0.997769
Reading from 26675: heap size 318 MB, throughput 0.954098
Reading from 26676: heap size 109 MB, throughput 0.997631
Reading from 26675: heap size 328 MB, throughput 0.955207
Reading from 26676: heap size 103 MB, throughput 0.997719
Reading from 26675: heap size 318 MB, throughput 0.955319
Reading from 26675: heap size 327 MB, throughput 0.955212
Reading from 26676: heap size 106 MB, throughput 0.997592
Reading from 26675: heap size 319 MB, throughput 0.959144
Reading from 26676: heap size 106 MB, throughput 0.99771
Reading from 26675: heap size 327 MB, throughput 0.948608
Reading from 26676: heap size 107 MB, throughput 0.997475
Reading from 26675: heap size 319 MB, throughput 0.955125
Reading from 26676: heap size 108 MB, throughput 0.997509
Reading from 26675: heap size 326 MB, throughput 0.954016
Reading from 26676: heap size 110 MB, throughput 0.997702
Reading from 26675: heap size 320 MB, throughput 0.95339
Reading from 26676: heap size 104 MB, throughput 0.997464
Reading from 26676: heap size 108 MB, throughput 0.997265
Reading from 26675: heap size 325 MB, throughput 0.939829
Reading from 26676: heap size 107 MB, throughput 0.994789
Reading from 26676: heap size 109 MB, throughput 0.992198
Reading from 26676: heap size 106 MB, throughput 0.972953
Analytic result (unused):
Recommendation: 2 clients, utility 0.817109:
    h1: 108.374 MB (U(h) = 0.798457*h^0.0442944)
    h2: 323.626 MB (U(h) = 0.387154*h^0.132272)
Recommendation: 2 clients, utility 0.817109:
    h1: 108.374 MB (U(h) = 0.798457*h^0.0442944)
    h2: 323.626 MB (U(h) = 0.387154*h^0.132272)
Reading from 26676: heap size 106 MB, throughput 0.974377
Reading from 26675: heap size 325 MB, throughput 0.892094
Reading from 26675: heap size 324 MB, throughput 0.901686
Reading from 26676: heap size 109 MB, throughput 0.989634
Reading from 26675: heap size 329 MB, throughput 0.89331
Reading from 26675: heap size 329 MB, throughput 0.84815
Reading from 26675: heap size 318 MB, throughput 0.700374
Reading from 26675: heap size 324 MB, throughput 0.603581
Reading from 26675: heap size 330 MB, throughput 0.961452
Reading from 26675: heap size 329 MB, throughput 0.535637
Reading from 26675: heap size 330 MB, throughput 0.627311
Reading from 26675: heap size 331 MB, throughput 0.734118
Reading from 26675: heap size 332 MB, throughput 0.805001
Reading from 26676: heap size 105 MB, throughput 0.992463
Reading from 26675: heap size 333 MB, throughput 0.883601
Reading from 26675: heap size 287 MB, throughput 0.92332
Reading from 26675: heap size 333 MB, throughput 0.949995
Reading from 26675: heap size 288 MB, throughput 0.958134
Reading from 26675: heap size 333 MB, throughput 0.963515
Reading from 26675: heap size 289 MB, throughput 0.955586
Reading from 26675: heap size 332 MB, throughput 0.957006
Reading from 26675: heap size 291 MB, throughput 0.960428
Reading from 26675: heap size 330 MB, throughput 0.96668
Reading from 26675: heap size 293 MB, throughput 0.959826
Reading from 26676: heap size 110 MB, throughput 0.992799
Reading from 26675: heap size 328 MB, throughput 0.987385
Reading from 26676: heap size 107 MB, throughput 0.993685
Reading from 26675: heap size 295 MB, throughput 0.991385
Reading from 26676: heap size 110 MB, throughput 0.993277
Reading from 26675: heap size 326 MB, throughput 0.991605
Reading from 26676: heap size 105 MB, throughput 0.993674
Reading from 26675: heap size 300 MB, throughput 0.990753
Reading from 26675: heap size 324 MB, throughput 0.987793
Reading from 26676: heap size 110 MB, throughput 0.994819
Reading from 26675: heap size 323 MB, throughput 0.986735
Reading from 26676: heap size 107 MB, throughput 0.994699
Reading from 26676: heap size 110 MB, throughput 0.995309
Reading from 26675: heap size 322 MB, throughput 0.987266
Reading from 26676: heap size 105 MB, throughput 0.995405
Reading from 26675: heap size 323 MB, throughput 0.986017
Reading from 26676: heap size 109 MB, throughput 0.994018
Reading from 26675: heap size 325 MB, throughput 0.985732
Reading from 26676: heap size 105 MB, throughput 0.993537
Reading from 26675: heap size 325 MB, throughput 0.98521
Reading from 26676: heap size 109 MB, throughput 0.992778
Reading from 26675: heap size 325 MB, throughput 0.980745
Reading from 26676: heap size 104 MB, throughput 0.99166
Reading from 26675: heap size 326 MB, throughput 0.979856
Reading from 26676: heap size 108 MB, throughput 0.991241
Reading from 26675: heap size 325 MB, throughput 0.981899
Reading from 26676: heap size 103 MB, throughput 0.993895
Reading from 26675: heap size 326 MB, throughput 0.972918
Reading from 26676: heap size 107 MB, throughput 0.995399
Reading from 26675: heap size 326 MB, throughput 0.974368
Analytic result (unused):
Recommendation: 2 clients, utility 0.812944:
    h1: 110.037 MB (U(h) = 0.798572*h^0.0442106)
    h2: 321.963 MB (U(h) = 0.391816*h^0.129359)
Recommendation: 2 clients, utility 0.812944:
    h1: 110.038 MB (U(h) = 0.798572*h^0.0442106)
    h2: 321.962 MB (U(h) = 0.391816*h^0.129359)
Reading from 26676: heap size 109 MB, throughput 0.996509
Reading from 26675: heap size 327 MB, throughput 0.972501
Reading from 26676: heap size 109 MB, throughput 0.997045
Reading from 26676: heap size 111 MB, throughput 0.997406
Reading from 26675: heap size 328 MB, throughput 0.967417
Reading from 26676: heap size 105 MB, throughput 0.997497
Reading from 26675: heap size 329 MB, throughput 0.961375
Reading from 26676: heap size 109 MB, throughput 0.997515
Reading from 26675: heap size 329 MB, throughput 0.963018
Reading from 26676: heap size 109 MB, throughput 0.997064
Reading from 26675: heap size 330 MB, throughput 0.959492
Reading from 26676: heap size 111 MB, throughput 0.997381
Reading from 26675: heap size 330 MB, throughput 0.958249
Reading from 26676: heap size 105 MB, throughput 0.99759
Reading from 26675: heap size 330 MB, throughput 0.959856
Reading from 26676: heap size 108 MB, throughput 0.997216
Reading from 26675: heap size 331 MB, throughput 0.963419
Reading from 26676: heap size 108 MB, throughput 0.997588
Reading from 26675: heap size 331 MB, throughput 0.949122
Reading from 26676: heap size 109 MB, throughput 0.997452
Reading from 26675: heap size 330 MB, throughput 0.951804
Reading from 26676: heap size 110 MB, throughput 0.997242
Reading from 26675: heap size 330 MB, throughput 0.951838
Reading from 26676: heap size 112 MB, throughput 0.995009
Reading from 26676: heap size 108 MB, throughput 0.995563
Reading from 26675: heap size 329 MB, throughput 0.954705
Reading from 26676: heap size 113 MB, throughput 0.991478
Reading from 26676: heap size 112 MB, throughput 0.981962
Reading from 26675: heap size 319 MB, throughput 0.953467
Reading from 26676: heap size 108 MB, throughput 0.989309
Reading from 26675: heap size 330 MB, throughput 0.948152
Reading from 26676: heap size 113 MB, throughput 0.993903
Reading from 26676: heap size 109 MB, throughput 0.994827
Reading from 26675: heap size 319 MB, throughput 0.95864
Reading from 26676: heap size 115 MB, throughput 0.995897
Reading from 26675: heap size 329 MB, throughput 0.956774
Analytic result (unused):
Recommendation: 2 clients, utility 0.818048:
    h1: 107.989 MB (U(h) = 0.798528*h^0.044238)
    h2: 324.011 MB (U(h) = 0.386639*h^0.132731)
Recommendation: 2 clients, utility 0.818048:
    h1: 107.989 MB (U(h) = 0.798528*h^0.044238)
    h2: 324.011 MB (U(h) = 0.386639*h^0.132731)
Reading from 26676: heap size 111 MB, throughput 0.996181
Reading from 26675: heap size 320 MB, throughput 0.950547
Reading from 26676: heap size 108 MB, throughput 0.996266
Reading from 26675: heap size 329 MB, throughput 0.947869
Reading from 26676: heap size 106 MB, throughput 0.995421
Reading from 26675: heap size 320 MB, throughput 0.95639
Reading from 26676: heap size 111 MB, throughput 0.996027
Reading from 26675: heap size 328 MB, throughput 0.956853
Reading from 26676: heap size 107 MB, throughput 0.996262
Reading from 26675: heap size 328 MB, throughput 0.953695
Reading from 26676: heap size 110 MB, throughput 0.996411
Reading from 26675: heap size 327 MB, throughput 0.957338
Reading from 26676: heap size 107 MB, throughput 0.996337
Reading from 26676: heap size 111 MB, throughput 0.996319
Reading from 26675: heap size 327 MB, throughput 0.967383
Reading from 26676: heap size 107 MB, throughput 0.996284
Reading from 26675: heap size 329 MB, throughput 0.967937
Reading from 26675: heap size 329 MB, throughput 0.944235
Reading from 26675: heap size 328 MB, throughput 0.904948
Reading from 26675: heap size 322 MB, throughput 0.637551
Reading from 26675: heap size 323 MB, throughput 0.560749
Reading from 26675: heap size 331 MB, throughput 0.538452
Reading from 26675: heap size 328 MB, throughput 0.534089
Reading from 26675: heap size 333 MB, throughput 0.410215
Reading from 26676: heap size 110 MB, throughput 0.992579
Reading from 26675: heap size 332 MB, throughput 0.962853
Reading from 26675: heap size 336 MB, throughput 0.602543
Reading from 26675: heap size 334 MB, throughput 0.718036
Reading from 26675: heap size 336 MB, throughput 0.803396
Reading from 26675: heap size 337 MB, throughput 0.872841
Reading from 26675: heap size 338 MB, throughput 0.925815
Reading from 26675: heap size 338 MB, throughput 0.946544
Reading from 26675: heap size 293 MB, throughput 0.959056
Reading from 26675: heap size 338 MB, throughput 0.963604
Reading from 26675: heap size 294 MB, throughput 0.966979
Reading from 26675: heap size 337 MB, throughput 0.963359
Reading from 26676: heap size 106 MB, throughput 0.993481
Reading from 26675: heap size 297 MB, throughput 0.991124
Reading from 26676: heap size 110 MB, throughput 0.992923
Reading from 26675: heap size 336 MB, throughput 0.97928
Reading from 26676: heap size 105 MB, throughput 0.995035
Reading from 26675: heap size 299 MB, throughput 0.974305
Reading from 26676: heap size 108 MB, throughput 0.996317
Reading from 26675: heap size 334 MB, throughput 0.980498
Reading from 26676: heap size 103 MB, throughput 0.996589
Reading from 26675: heap size 302 MB, throughput 0.985252
Reading from 26676: heap size 108 MB, throughput 0.99673
Reading from 26675: heap size 331 MB, throughput 0.983409
Reading from 26676: heap size 109 MB, throughput 0.997075
Reading from 26675: heap size 306 MB, throughput 0.982809
Reading from 26676: heap size 104 MB, throughput 0.996885
Reading from 26675: heap size 330 MB, throughput 0.984263
Reading from 26676: heap size 107 MB, throughput 0.997252
Analytic result (unused):
Recommendation: 2 clients, utility 0.825592:
    h1: 104.992 MB (U(h) = 0.798444*h^0.0443047)
    h2: 327.008 MB (U(h) = 0.378431*h^0.137991)
Recommendation: 2 clients, utility 0.825592:
    h1: 104.99 MB (U(h) = 0.798444*h^0.0443047)
    h2: 327.01 MB (U(h) = 0.378431*h^0.137991)
Reading from 26675: heap size 310 MB, throughput 0.987516
Reading from 26676: heap size 106 MB, throughput 0.997506
Reading from 26676: heap size 102 MB, throughput 0.997491
Reading from 26675: heap size 328 MB, throughput 0.985585
Reading from 26675: heap size 313 MB, throughput 0.98184
Reading from 26676: heap size 106 MB, throughput 0.996911
Reading from 26675: heap size 327 MB, throughput 0.977774
Reading from 26676: heap size 102 MB, throughput 0.996935
Reading from 26676: heap size 105 MB, throughput 0.99697
Reading from 26675: heap size 326 MB, throughput 0.97692
Reading from 26676: heap size 107 MB, throughput 0.99735
Reading from 26675: heap size 331 MB, throughput 0.975981
Reading from 26676: heap size 102 MB, throughput 0.997307
Reading from 26675: heap size 331 MB, throughput 0.976484
Reading from 26676: heap size 105 MB, throughput 0.997416
Reading from 26676: heap size 105 MB, throughput 0.996046
Reading from 26675: heap size 331 MB, throughput 0.969215
Reading from 26676: heap size 107 MB, throughput 0.993998
Reading from 26676: heap size 104 MB, throughput 0.976393
Reading from 26676: heap size 105 MB, throughput 0.978525
Reading from 26676: heap size 107 MB, throughput 0.981304
Reading from 26675: heap size 332 MB, throughput 0.970486
Reading from 26676: heap size 104 MB, throughput 0.99125
Reading from 26675: heap size 332 MB, throughput 0.975076
Reading from 26676: heap size 110 MB, throughput 0.993972
Reading from 26675: heap size 333 MB, throughput 0.969472
Reading from 26676: heap size 107 MB, throughput 0.995304
Reading from 26675: heap size 333 MB, throughput 0.96548
Reading from 26676: heap size 104 MB, throughput 0.99572
Reading from 26676: heap size 108 MB, throughput 0.995911
Reading from 26675: heap size 334 MB, throughput 0.962638
Reading from 26676: heap size 104 MB, throughput 0.996349
Reading from 26675: heap size 334 MB, throughput 0.962573
Reading from 26676: heap size 105 MB, throughput 0.995168
Reading from 26675: heap size 335 MB, throughput 0.961951
Reading from 26676: heap size 102 MB, throughput 0.994872
Reading from 26675: heap size 334 MB, throughput 0.958718
Reading from 26676: heap size 104 MB, throughput 0.995119
Analytic result (unused):
Recommendation: 2 clients, utility 0.834569:
    h1: 101.652 MB (U(h) = 0.798475*h^0.0442825)
    h2: 330.348 MB (U(h) = 0.369672*h^0.14391)
Recommendation: 2 clients, utility 0.834569:
    h1: 101.646 MB (U(h) = 0.798475*h^0.0442825)
    h2: 330.354 MB (U(h) = 0.369672*h^0.14391)
Reading from 26676: heap size 104 MB, throughput 0.994854
Reading from 26675: heap size 335 MB, throughput 0.964204
Reading from 26676: heap size 100 MB, throughput 0.993498
Reading from 26675: heap size 335 MB, throughput 0.961478
Reading from 26676: heap size 104 MB, throughput 0.993687
Reading from 26675: heap size 335 MB, throughput 0.958495
Reading from 26676: heap size 101 MB, throughput 0.992951
Reading from 26675: heap size 335 MB, throughput 0.95608
Reading from 26676: heap size 104 MB, throughput 0.991456
Reading from 26675: heap size 324 MB, throughput 0.954989
Reading from 26676: heap size 99 MB, throughput 0.992797
Reading from 26675: heap size 334 MB, throughput 0.955195
Reading from 26676: heap size 104 MB, throughput 0.994831
Reading from 26675: heap size 324 MB, throughput 0.955775
Reading from 26676: heap size 99 MB, throughput 0.995749
Reading from 26675: heap size 334 MB, throughput 0.95616
Reading from 26676: heap size 102 MB, throughput 0.996403
Reading from 26676: heap size 97 MB, throughput 0.996696
Reading from 26675: heap size 324 MB, throughput 0.9574
Reading from 26676: heap size 102 MB, throughput 0.99712
Reading from 26675: heap size 334 MB, throughput 0.957272
Reading from 26676: heap size 103 MB, throughput 0.997171
Reading from 26675: heap size 324 MB, throughput 0.957949
Reading from 26676: heap size 98 MB, throughput 0.997278
Reading from 26675: heap size 333 MB, throughput 0.95336
Reading from 26676: heap size 101 MB, throughput 0.997321
Reading from 26676: heap size 101 MB, throughput 0.997253
Reading from 26675: heap size 325 MB, throughput 0.92866
Reading from 26676: heap size 103 MB, throughput 0.997299
Reading from 26675: heap size 327 MB, throughput 0.933728
Reading from 26676: heap size 99 MB, throughput 0.99743
Reading from 26675: heap size 332 MB, throughput 0.938509
Reading from 26675: heap size 335 MB, throughput 0.896696
Reading from 26675: heap size 338 MB, throughput 0.834736
Reading from 26676: heap size 101 MB, throughput 0.99695
Reading from 26675: heap size 341 MB, throughput 0.640279
Reading from 26675: heap size 341 MB, throughput 0.507003
Reading from 26675: heap size 346 MB, throughput 0.432219
Reading from 26675: heap size 348 MB, throughput 0.962935
Reading from 26675: heap size 345 MB, throughput 0.448216
Reading from 26675: heap size 345 MB, throughput 0.60616
Reading from 26675: heap size 345 MB, throughput 0.744029
Reading from 26676: heap size 101 MB, throughput 0.997265
Reading from 26675: heap size 345 MB, throughput 0.843953
Reading from 26675: heap size 345 MB, throughput 0.902595
Reading from 26675: heap size 345 MB, throughput 0.931984
Reading from 26675: heap size 345 MB, throughput 0.948488
Reading from 26675: heap size 345 MB, throughput 0.959535
Reading from 26675: heap size 345 MB, throughput 0.966584
Reading from 26675: heap size 298 MB, throughput 0.975978
Reading from 26676: heap size 104 MB, throughput 0.997509
Reading from 26675: heap size 346 MB, throughput 0.990354
Reading from 26676: heap size 99 MB, throughput 0.996825
Analytic result (unused):
Recommendation: 2 clients, utility 0.832967:
    h1: 102.928 MB (U(h) = 0.798618*h^0.0443577)
    h2: 329.072 MB (U(h) = 0.37327*h^0.141817)
Recommendation: 2 clients, utility 0.832967:
    h1: 102.926 MB (U(h) = 0.798618*h^0.0443577)
    h2: 329.074 MB (U(h) = 0.37327*h^0.141817)
Reading from 26675: heap size 300 MB, throughput 0.962472
Reading from 26676: heap size 102 MB, throughput 0.997115
Reading from 26675: heap size 344 MB, throughput 0.959384
Reading from 26676: heap size 102 MB, throughput 0.997385
Reading from 26675: heap size 303 MB, throughput 0.977672
Reading from 26676: heap size 104 MB, throughput 0.997457
Reading from 26676: heap size 100 MB, throughput 0.99114
Reading from 26676: heap size 102 MB, throughput 0.989864
Reading from 26675: heap size 341 MB, throughput 0.980187
Reading from 26676: heap size 103 MB, throughput 0.985287
Reading from 26676: heap size 108 MB, throughput 0.98363
Reading from 26676: heap size 106 MB, throughput 0.985135
Reading from 26675: heap size 307 MB, throughput 0.983296
Reading from 26676: heap size 103 MB, throughput 0.992422
Reading from 26675: heap size 338 MB, throughput 0.985821
Reading from 26676: heap size 107 MB, throughput 0.994338
Reading from 26675: heap size 312 MB, throughput 0.98641
Reading from 26676: heap size 103 MB, throughput 0.995111
Reading from 26675: heap size 336 MB, throughput 0.985587
Reading from 26676: heap size 109 MB, throughput 0.995223
Reading from 26675: heap size 316 MB, throughput 0.983076
Reading from 26676: heap size 104 MB, throughput 0.994726
Reading from 26676: heap size 102 MB, throughput 0.995281
Reading from 26675: heap size 334 MB, throughput 0.979165
Reading from 26676: heap size 106 MB, throughput 0.994956
Reading from 26675: heap size 319 MB, throughput 0.981293
Reading from 26676: heap size 101 MB, throughput 0.995278
Reading from 26676: heap size 103 MB, throughput 0.995062
Reading from 26675: heap size 333 MB, throughput 0.983496
Reading from 26676: heap size 100 MB, throughput 0.995041
Reading from 26675: heap size 333 MB, throughput 0.982035
Reading from 26676: heap size 102 MB, throughput 0.991858
Reading from 26675: heap size 332 MB, throughput 0.981562
Reading from 26676: heap size 102 MB, throughput 0.990696
Reading from 26675: heap size 333 MB, throughput 0.979001
Reading from 26676: heap size 106 MB, throughput 0.991676
Reading from 26676: heap size 100 MB, throughput 0.992251
Reading from 26675: heap size 333 MB, throughput 0.978757
Reading from 26676: heap size 103 MB, throughput 0.993207
Analytic result (unused):
Recommendation: 2 clients, utility 0.843237:
    h1: 99.2561 MB (U(h) = 0.798706*h^0.0442786)
    h2: 332.744 MB (U(h) = 0.363722*h^0.148439)
Recommendation: 2 clients, utility 0.843237:
    h1: 99.2558 MB (U(h) = 0.798706*h^0.0442786)
    h2: 332.744 MB (U(h) = 0.363722*h^0.148439)
Reading from 26675: heap size 334 MB, throughput 0.970082
Reading from 26676: heap size 98 MB, throughput 0.995255
Reading from 26676: heap size 101 MB, throughput 0.996203
Reading from 26675: heap size 334 MB, throughput 0.963291
Reading from 26676: heap size 96 MB, throughput 0.99694
Reading from 26675: heap size 335 MB, throughput 0.959903
Reading from 26676: heap size 99 MB, throughput 0.996974
Reading from 26675: heap size 336 MB, throughput 0.951499
Reading from 26676: heap size 94 MB, throughput 0.997075
Reading from 26675: heap size 336 MB, throughput 0.941332
Reading from 26676: heap size 98 MB, throughput 0.997305
Reading from 26676: heap size 97 MB, throughput 0.9969
Reading from 26675: heap size 336 MB, throughput 0.934456
Reading from 26676: heap size 100 MB, throughput 0.996323
Reading from 26675: heap size 321 MB, throughput 0.938121
Reading from 26676: heap size 95 MB, throughput 0.996907
Reading from 26675: heap size 337 MB, throughput 0.940349
Reading from 26676: heap size 98 MB, throughput 0.996925
Reading from 26676: heap size 98 MB, throughput 0.996484
Reading from 26675: heap size 320 MB, throughput 0.944275
Reading from 26676: heap size 100 MB, throughput 0.997014
Reading from 26675: heap size 335 MB, throughput 0.956047
Reading from 26676: heap size 96 MB, throughput 0.99728
Reading from 26676: heap size 98 MB, throughput 0.99743
Reading from 26675: heap size 320 MB, throughput 0.960262
Reading from 26676: heap size 98 MB, throughput 0.996368
Reading from 26675: heap size 334 MB, throughput 0.964613
Reading from 26676: heap size 101 MB, throughput 0.996872
Reading from 26675: heap size 321 MB, throughput 0.961145
Reading from 26676: heap size 97 MB, throughput 0.997029
Reading from 26675: heap size 333 MB, throughput 0.960702
Reading from 26676: heap size 99 MB, throughput 0.997181
Reading from 26675: heap size 322 MB, throughput 0.96036
Reading from 26675: heap size 333 MB, throughput 0.958934
Analytic result (unused):
Recommendation: 2 clients, utility 0.845643:
    h1: 98.6207 MB (U(h) = 0.798885*h^0.0443062)
    h2: 333.379 MB (U(h) = 0.361816*h^0.149774)
Recommendation: 2 clients, utility 0.845643:
    h1: 98.6196 MB (U(h) = 0.798885*h^0.0443062)
    h2: 333.38 MB (U(h) = 0.361816*h^0.149774)
Reading from 26675: heap size 332 MB, throughput 0.97269
Reading from 26675: heap size 335 MB, throughput 0.95891
Reading from 26675: heap size 336 MB, throughput 0.932753
Reading from 26675: heap size 336 MB, throughput 0.897289
Reading from 26675: heap size 339 MB, throughput 0.705424
Reading from 26675: heap size 336 MB, throughput 0.649425
Client 26676 died
Clients: 1
Reading from 26675: heap size 342 MB, throughput 0.968486
Reading from 26675: heap size 347 MB, throughput 0.696174
Reading from 26675: heap size 348 MB, throughput 0.787075
Reading from 26675: heap size 348 MB, throughput 0.869366
Reading from 26675: heap size 349 MB, throughput 0.912691
Reading from 26675: heap size 349 MB, throughput 0.942317
Reading from 26675: heap size 309 MB, throughput 0.960101
Reading from 26675: heap size 350 MB, throughput 0.965846
Reading from 26675: heap size 310 MB, throughput 0.984308
Reading from 26675: heap size 349 MB, throughput 0.986545
Reading from 26675: heap size 313 MB, throughput 0.97392
Reading from 26675: heap size 348 MB, throughput 0.974086
Reading from 26675: heap size 315 MB, throughput 0.971861
Reading from 26675: heap size 346 MB, throughput 0.981013
Reading from 26675: heap size 317 MB, throughput 0.985656
Reading from 26675: heap size 345 MB, throughput 0.987295
Reading from 26675: heap size 322 MB, throughput 0.985827
Reading from 26675: heap size 342 MB, throughput 0.986694
Reading from 26675: heap size 326 MB, throughput 0.98719
Reading from 26675: heap size 340 MB, throughput 0.987051
Reading from 26675: heap size 340 MB, throughput 0.985959
Reading from 26675: heap size 339 MB, throughput 0.983023
Recommendation: one client; give it all the memory
Reading from 26675: heap size 340 MB, throughput 0.982632
Reading from 26675: heap size 340 MB, throughput 0.980492
Reading from 26675: heap size 341 MB, throughput 0.979313
Reading from 26675: heap size 346 MB, throughput 0.972251
Reading from 26675: heap size 347 MB, throughput 0.964746
Reading from 26675: heap size 353 MB, throughput 0.96552
Reading from 26675: heap size 354 MB, throughput 0.965117
Reading from 26675: heap size 361 MB, throughput 0.964353
Reading from 26675: heap size 361 MB, throughput 0.955191
Reading from 26675: heap size 369 MB, throughput 0.959016
Reading from 26675: heap size 369 MB, throughput 0.961069
Reading from 26675: heap size 375 MB, throughput 0.964343
Reading from 26675: heap size 375 MB, throughput 0.968312
Recommendation: one client; give it all the memory
Reading from 26675: heap size 377 MB, throughput 0.976254
Reading from 26675: heap size 371 MB, throughput 0.971837
Reading from 26675: heap size 368 MB, throughput 0.885211
Reading from 26675: heap size 372 MB, throughput 0.858237
Reading from 26675: heap size 351 MB, throughput 0.75089
Reading from 26675: heap size 349 MB, throughput 0.677724
Reading from 26675: heap size 360 MB, throughput 0.613937
Reading from 26675: heap size 360 MB, throughput 0.969653
Reading from 26675: heap size 361 MB, throughput 0.711559
Reading from 26675: heap size 361 MB, throughput 0.810289
Reading from 26675: heap size 361 MB, throughput 0.879972
Reading from 26675: heap size 361 MB, throughput 0.925731
Reading from 26675: heap size 361 MB, throughput 0.983613
Reading from 26675: heap size 361 MB, throughput 0.969764
Reading from 26675: heap size 361 MB, throughput 0.954968
Reading from 26675: heap size 315 MB, throughput 0.954483
Reading from 26675: heap size 362 MB, throughput 0.955993
Reading from 26675: heap size 317 MB, throughput 0.966198
Reading from 26675: heap size 362 MB, throughput 0.971263
Reading from 26675: heap size 360 MB, throughput 0.967928
Reading from 26675: heap size 360 MB, throughput 0.969927
Reading from 26675: heap size 362 MB, throughput 0.981774
Reading from 26675: heap size 360 MB, throughput 0.987971
Reading from 26675: heap size 363 MB, throughput 0.989012
Recommendation: one client; give it all the memory
Reading from 26675: heap size 362 MB, throughput 0.988467
Reading from 26675: heap size 364 MB, throughput 0.987444
Reading from 26675: heap size 367 MB, throughput 0.987325
Reading from 26675: heap size 368 MB, throughput 0.986675
Reading from 26675: heap size 374 MB, throughput 0.985733
Reading from 26675: heap size 374 MB, throughput 0.984501
Reading from 26675: heap size 377 MB, throughput 0.983986
Reading from 26675: heap size 369 MB, throughput 0.983246
Reading from 26675: heap size 372 MB, throughput 0.980806
Reading from 26675: heap size 364 MB, throughput 0.974164
Reading from 26675: heap size 366 MB, throughput 0.963806
Recommendation: one client; give it all the memory
Reading from 26675: heap size 355 MB, throughput 0.939264
Reading from 26675: heap size 363 MB, throughput 0.946457
Reading from 26675: heap size 348 MB, throughput 0.941972
Reading from 26675: heap size 365 MB, throughput 0.910603
Reading from 26675: heap size 343 MB, throughput 0.862374
Reading from 26675: heap size 357 MB, throughput 0.769648
Reading from 26675: heap size 361 MB, throughput 0.624794
Reading from 26675: heap size 361 MB, throughput 0.259503
Reading from 26675: heap size 361 MB, throughput 0.972175
Reading from 26675: heap size 367 MB, throughput 0.423532
Reading from 26675: heap size 367 MB, throughput 0.589537
Reading from 26675: heap size 367 MB, throughput 0.741347
Reading from 26675: heap size 367 MB, throughput 0.852251
Reading from 26675: heap size 367 MB, throughput 0.906259
Client 26675 died
Clients: 0
Recommendation: no clients; no recommendation
Recommendation: no clients; no recommendation
ReadingThread: finished
TimerThread: finished
CommandThread: finished
Main: All threads killed, cleaning up
