2014-10-10 13:23:29    timeBenchmarkDaemonEqual: Initialising...
2014-10-10 13:23:29    timeBenchmarkDaemonEqual: Using Java version: Hotspot8
2014-10-10 13:23:29    timeBenchmarkDaemonEqual: Initialised
2014-10-10 13:23:29    timeBenchmarkDaemonEqual: 
2014-10-10 13:23:29    timeBenchmarkDaemonEqual: Running benchmarks:
2014-10-10 13:23:29    timeBenchmarkDaemonEqual:     h2, huge, 2, 2
2014-10-10 13:23:29    timeBenchmarkDaemonEqual:     xalan, large, 2, 27
2014-10-10 13:23:29    timeBenchmarkDaemonEqual: With max heap: 7356 MB
2014-10-10 13:23:29    timeBenchmarkDaemonEqual: Daemon-managed memory (and cgroup size): 7356 MB
2014-10-10 13:23:29    timeBenchmarkDaemonEqual: 
2014-10-10 13:23:29    timeBenchmarkDaemonEqual: Started main process runs
2014-10-10 13:23:29    timeBenchmarkDaemonEqual: 
2014-10-10 13:23:29    timeBenchmarkDaemonEqual: Run 01 of 10: started
2014-10-10 13:23:29    timeBenchmarkDaemonEqual: Starting auxiliary processes...
2014-10-10 13:23:49    timeBenchmarkDaemonEqual: Started auxiliary processes
2014-10-10 13:23:49    timeBenchmarkDaemonEqual: Running main processes...
2014-10-10 13:30:42    timeBenchmarkDaemonEqual: Main processes completed in 413.020484s
2014-10-10 13:30:42    timeBenchmarkDaemonEqual: Cleaning up auxiliary processes...
2014-10-10 13:31:02    timeBenchmarkDaemonEqual: Cleaned up auxiliary processes
2014-10-10 13:31:02    timeBenchmarkDaemonEqual: Run 01 of 10: completed with main runtime of 413.020484s
2014-10-10 13:31:02    timeBenchmarkDaemonEqual: 
2014-10-10 13:31:02    timeBenchmarkDaemonEqual: Run 02 of 10: started
2014-10-10 13:31:02    timeBenchmarkDaemonEqual: Starting auxiliary processes...
2014-10-10 13:31:22    timeBenchmarkDaemonEqual: Started auxiliary processes
2014-10-10 13:31:22    timeBenchmarkDaemonEqual: Running main processes...
2014-10-10 13:38:19    timeBenchmarkDaemonEqual: Main processes completed in 416.763817s
2014-10-10 13:38:19    timeBenchmarkDaemonEqual: Cleaning up auxiliary processes...
2014-10-10 13:38:39    timeBenchmarkDaemonEqual: Cleaned up auxiliary processes
2014-10-10 13:38:39    timeBenchmarkDaemonEqual: Run 02 of 10: completed with main runtime of 416.763817s
2014-10-10 13:38:39    timeBenchmarkDaemonEqual: 
2014-10-10 13:38:39    timeBenchmarkDaemonEqual: Run 03 of 10: started
2014-10-10 13:38:39    timeBenchmarkDaemonEqual: Starting auxiliary processes...
2014-10-10 13:38:59    timeBenchmarkDaemonEqual: Started auxiliary processes
2014-10-10 13:38:59    timeBenchmarkDaemonEqual: Running main processes...
2014-10-10 13:45:44    timeBenchmarkDaemonEqual: Main processes completed in 404.879084s
2014-10-10 13:45:44    timeBenchmarkDaemonEqual: Cleaning up auxiliary processes...
2014-10-10 13:46:04    timeBenchmarkDaemonEqual: Cleaned up auxiliary processes
2014-10-10 13:46:04    timeBenchmarkDaemonEqual: Run 03 of 10: completed with main runtime of 404.879084s
2014-10-10 13:46:04    timeBenchmarkDaemonEqual: 
2014-10-10 13:46:04    timeBenchmarkDaemonEqual: Run 04 of 10: started
2014-10-10 13:46:04    timeBenchmarkDaemonEqual: Starting auxiliary processes...
2014-10-10 13:46:24    timeBenchmarkDaemonEqual: Started auxiliary processes
2014-10-10 13:46:24    timeBenchmarkDaemonEqual: Running main processes...
2014-10-10 13:53:20    timeBenchmarkDaemonEqual: Main processes completed in 416.178967s
2014-10-10 13:53:20    timeBenchmarkDaemonEqual: Cleaning up auxiliary processes...
2014-10-10 13:53:40    timeBenchmarkDaemonEqual: Cleaned up auxiliary processes
2014-10-10 13:53:40    timeBenchmarkDaemonEqual: Run 04 of 10: completed with main runtime of 416.178967s
2014-10-10 13:53:40    timeBenchmarkDaemonEqual: 
2014-10-10 13:53:40    timeBenchmarkDaemonEqual: Run 05 of 10: started
2014-10-10 13:53:40    timeBenchmarkDaemonEqual: Starting auxiliary processes...
2014-10-10 13:54:00    timeBenchmarkDaemonEqual: Started auxiliary processes
2014-10-10 13:54:00    timeBenchmarkDaemonEqual: Running main processes...
2014-10-10 14:00:48    timeBenchmarkDaemonEqual: Main processes completed in 407.881025s
2014-10-10 14:00:48    timeBenchmarkDaemonEqual: Cleaning up auxiliary processes...
2014-10-10 14:01:08    timeBenchmarkDaemonEqual: Cleaned up auxiliary processes
2014-10-10 14:01:08    timeBenchmarkDaemonEqual: Run 05 of 10: completed with main runtime of 407.881025s
2014-10-10 14:01:08    timeBenchmarkDaemonEqual: 
2014-10-10 14:01:08    timeBenchmarkDaemonEqual: Run 06 of 10: started
2014-10-10 14:01:08    timeBenchmarkDaemonEqual: Starting auxiliary processes...
2014-10-10 14:01:28    timeBenchmarkDaemonEqual: Started auxiliary processes
2014-10-10 14:01:28    timeBenchmarkDaemonEqual: Running main processes...
2014-10-10 14:08:22    timeBenchmarkDaemonEqual: Main processes completed in 413.802022s
2014-10-10 14:08:22    timeBenchmarkDaemonEqual: Cleaning up auxiliary processes...
2014-10-10 14:08:42    timeBenchmarkDaemonEqual: Cleaned up auxiliary processes
2014-10-10 14:08:42    timeBenchmarkDaemonEqual: Run 06 of 10: completed with main runtime of 413.802022s
2014-10-10 14:08:42    timeBenchmarkDaemonEqual: 
2014-10-10 14:08:42    timeBenchmarkDaemonEqual: Run 07 of 10: started
2014-10-10 14:08:42    timeBenchmarkDaemonEqual: Starting auxiliary processes...
2014-10-10 14:09:02    timeBenchmarkDaemonEqual: Started auxiliary processes
2014-10-10 14:09:02    timeBenchmarkDaemonEqual: Running main processes...
2014-10-10 14:16:02    timeBenchmarkDaemonEqual: Main processes completed in 420.045677s
2014-10-10 14:16:02    timeBenchmarkDaemonEqual: Cleaning up auxiliary processes...
2014-10-10 14:16:22    timeBenchmarkDaemonEqual: Cleaned up auxiliary processes
2014-10-10 14:16:22    timeBenchmarkDaemonEqual: Run 07 of 10: completed with main runtime of 420.045677s
2014-10-10 14:16:22    timeBenchmarkDaemonEqual: 
2014-10-10 14:16:22    timeBenchmarkDaemonEqual: Run 08 of 10: started
2014-10-10 14:16:22    timeBenchmarkDaemonEqual: Starting auxiliary processes...
2014-10-10 14:16:42    timeBenchmarkDaemonEqual: Started auxiliary processes
2014-10-10 14:16:42    timeBenchmarkDaemonEqual: Running main processes...
2014-10-10 14:23:22    timeBenchmarkDaemonEqual: Main processes completed in 400.163027s
2014-10-10 14:23:22    timeBenchmarkDaemonEqual: Cleaning up auxiliary processes...
2014-10-10 14:23:43    timeBenchmarkDaemonEqual: Cleaned up auxiliary processes
2014-10-10 14:23:43    timeBenchmarkDaemonEqual: Run 08 of 10: completed with main runtime of 400.163027s
2014-10-10 14:23:43    timeBenchmarkDaemonEqual: 
2014-10-10 14:23:43    timeBenchmarkDaemonEqual: Run 09 of 10: started
2014-10-10 14:23:43    timeBenchmarkDaemonEqual: Starting auxiliary processes...
2014-10-10 14:24:03    timeBenchmarkDaemonEqual: Started auxiliary processes
2014-10-10 14:24:03    timeBenchmarkDaemonEqual: Running main processes...
2014-10-10 14:31:03    timeBenchmarkDaemonEqual: Main processes completed in 420.323519s
2014-10-10 14:31:03    timeBenchmarkDaemonEqual: Cleaning up auxiliary processes...
2014-10-10 14:31:23    timeBenchmarkDaemonEqual: Cleaned up auxiliary processes
2014-10-10 14:31:23    timeBenchmarkDaemonEqual: Run 09 of 10: completed with main runtime of 420.323519s
2014-10-10 14:31:23    timeBenchmarkDaemonEqual: 
2014-10-10 14:31:23    timeBenchmarkDaemonEqual: Run 10 of 10: started
2014-10-10 14:31:23    timeBenchmarkDaemonEqual: Starting auxiliary processes...
2014-10-10 14:31:43    timeBenchmarkDaemonEqual: Started auxiliary processes
2014-10-10 14:31:43    timeBenchmarkDaemonEqual: Running main processes...
2014-10-10 14:38:30    timeBenchmarkDaemonEqual: Main processes completed in 406.765721s
2014-10-10 14:38:30    timeBenchmarkDaemonEqual: Cleaning up auxiliary processes...
2014-10-10 14:38:50    timeBenchmarkDaemonEqual: Cleaned up auxiliary processes
2014-10-10 14:38:50    timeBenchmarkDaemonEqual: Run 10 of 10: completed with main runtime of 406.765721s
2014-10-10 14:38:50    timeBenchmarkDaemonEqual: 
2014-10-10 14:38:50    timeBenchmarkDaemonEqual: Completed main process runs; average runtime (411.98233429999993 +/- 6.77939821013057) s
2014-10-10 14:38:50    timeBenchmarkDaemonEqual: 
2014-10-10 14:38:50    timeBenchmarkDaemonEqual: Cleaning up...
2014-10-10 14:38:50    timeBenchmarkDaemonEqual: Cleaned up
2014-10-10 14:38:50    timeBenchmarkDaemonEqual: 
2014-10-10 14:38:50    timeBenchmarkDaemonEqual: Completed in total time 4520.894879s
