1414685598218 0 TOTAL_MEM 607
1414685618268 23876 CREATION
1414685618268 23876 READING 9 0.987752
1414685618268 23876 MINHEAP 2
1414685618268 23877 CREATION
1414685618268 23877 READING 9 0.988442
1414685618268 23877 MINHEAP 2
1414685618268 23876 MINHEAP 276
1414685618268 23877 MINHEAP 276
1414685618313 23877 READING 9 0.974130
1414685618317 23876 READING 9 0.982246
1414685618364 23877 READING 11 0.971062
1414685618368 23876 READING 11 0.977448
1414685618466 23876 READING 11 0.975197
1414685618487 23877 READING 11 0.983732
1414685618685 23876 READING 15 0.873129
1414685618709 23877 READING 15 0.833130
1414685618818 23877 READING 19 0.975530
1414685618824 23876 READING 18 0.979259
1414685618992 23877 READING 24 0.965391
1414685619003 23876 READING 23 0.964484
1414685619250 23877 READING 29 0.617518
1414685619273 23876 READING 28 0.472411
1414685619368 23877 READING 38 0.893273
1414685619377 23876 READING 36 0.801590
1414685619421 23877 READING 39 0.788093
1414685619494 23877 READING 42 0.875429
1414685619506 23876 READING 38 0.957135
1414685619577 23877 READING 43 0.809402
1414685619585 23876 READING 40 0.771476
1414685619640 23877 READING 47 0.658342
1414685619647 23876 READING 41 0.763321
1414685619945 23877 READING 50 0.137159
1414685619963 23876 READING 45 0.151150
1414685620013 23877 READING 79 0.678061
1414685620033 23876 READING 59 0.773910
1414685620087 23877 READING 79 0.849360
1414685620122 23876 READING 64 0.748051
1414685620375 23877 READING 83 0.204403
1414685620422 23876 READING 66 0.227736
1414685620508 23876 READING 88 0.581689
1414685620521 23877 READING 104 0.746797
1414685620593 23876 READING 91 0.645636
1414685620624 23877 READING 113 0.866878
1414685620894 23876 READING 94 0.231484
1414685621061 23876 READING 116 0.656365
1414685621083 23877 READING 114 0.234304
1414685621181 23876 READING 126 0.718396
1414685621197 23877 READING 152 0.713207
1414685621265 23876 READING 126 0.712428
1414685621317 23877 READING 152 0.786533
1414685621786 23876 READING 131 0.152023
1414685621801 23877 READING 155 0.143863
1414685621877 23876 READING 162 0.682823
1414685621907 23877 READING 193 0.753024
1414685621979 23876 READING 169 0.789334
1414685622005 23877 READING 200 0.788480
1414685622076 23876 READING 173 0.676763
1414685622122 23877 READING 201 0.758031
1414685622183 23876 READING 179 0.759587
1414685622313 23876 READING 184 0.582889
1414685622332 23877 READING 202 0.855610
1414685623113 23877 READING 210 0.929775
1414685623493 23876 READING 190 0.298491
1414685623987 23877 READING 210 0.228165
1414685624081 23876 READING 231 0.856666
1414685624097 23877 READING 258 0.544580
1414685624311 23877 READING 261 0.762277
1414685624421 23877 READING 263 0.426968
1414685624632 23877 READING 268 0.722245
1414685624801 23877 READING 267 0.803445
1414685624991 23877 READING 272 0.778170
1414685625114 23877 READING 272 0.589106
1414685625136 23876 READING 234 0.218002
1414685625225 23877 READING 281 0.747138
1414685625300 23876 READING 281 0.704814
1414685625335 23877 READING 282 0.745039
1414685625472 23877 READING 281 0.658171
1414685625652 23876 READING 284 0.242681
1414685625752 23876 READING 321 0.976913
1414685625891 23876 READING 322 0.979988
1414685626013 23877 READING 284 0.960258
1414685626033 23876 READING 323 0.940458
1414685626118 23876 READING 325 0.721843
1414685626118 23877 READING 288 0.816009
1414685626187 23876 READING 325 0.895916
1414685626228 23877 READING 288 0.778268
1414685626261 23876 READING 319 0.906839
1414685626354 23876 READING 322 0.714510
1414685626490 23876 READING 318 0.980184
1414685626846 23877 READING 291 0.154439
1414685626925 23876 READING 320 0.976322
1414685627018 23876 READING 316 0.791697
1414685627019 23877 READING 338 0.795846
1414685627109 23876 READING 319 0.872419
1414685627213 23876 READING 315 0.744907
1414685627214 23877 READING 344 0.904707
1414685627333 23876 READING 318 0.640340
1414685627349 23877 READING 344 0.719695
1414685627473 23877 READING 346 0.577730
1414685627573 23877 READING 346 0.687531
1414685627594 23876 READING 318 0.951635
1414685627682 23877 READING 346 0.613003
1414685627730 23876 READING 319 0.840285
1414685627789 23877 READING 329 0.641359
1414685627840 23876 READING 320 0.838007
1414685627888 23877 READING 345 0.720372
1414685627922 23876 READING 321 0.708902
1414685628021 23876 READING 326 0.635975
1414685628130 23876 READING 329 0.630567
1414685628219 23876 FUNCTION lru lambda h: 0.771476 * (h ** 0.001)
1414685628219 23877 FUNCTION lru lambda h: 0.903292 * (h ** 0.001)
1414685628219 23876 RECOMMEND 303
1414685628219 23877 RECOMMEND 303
1414685628246 23876 READING 335 0.681144
1414685628343 23876 READING 338 0.672617
1414685629387 23876 READING 329 0.967944
1414685629553 23877 READING 345 0.973284
1414685630541 23876 READING 303 0.969415
1414685630695 23877 READING 340 0.970998
1414685631611 23876 READING 329 0.972394
1414685631777 23877 READING 311 0.961943
1414685632711 23876 READING 297 0.973465
1414685632773 23877 READING 335 0.965752
1414685633782 23876 READING 332 0.976851
1414685633838 23877 READING 301 0.980906
1414685634636 23877 READING 337 0.973427
1414685634837 23876 READING 303 0.969012
1414685635509 23877 READING 304 0.963823
1414685635781 23876 READING 329 0.955681
1414685636385 23877 READING 330 0.963595
1414685636655 23876 READING 308 0.963191
1414685637244 23877 READING 307 0.957301
1414685637524 23876 READING 322 0.975789
1414685638219 23876 FUNCTION lru lambda h: 0.647079 * (h ** 0.00149527)
1414685638219 23877 FUNCTION lru lambda h: 0.704685 * (h ** 0.001)
1414685638219 23876 RECOMMEND 303
1414685638219 23877 RECOMMEND 303
1414685638224 23877 READING 326 0.963251
1414685638529 23876 READING 309 0.970021
1414685639134 23877 READING 308 0.962936
1414685639444 23876 READING 322 0.960356
1414685639991 23877 READING 320 0.971703
1414685640343 23876 READING 309 0.967447
1414685640893 23877 READING 307 0.968374
1414685641143 23876 READING 320 0.964640
1414685641967 23877 READING 317 0.949755
1414685641978 23876 READING 310 0.943706
1414685642905 23877 READING 308 0.968870
1414685643046 23876 READING 320 0.977154
1414685643703 23877 READING 316 0.974343
1414685644005 23876 READING 310 0.966348
1414685644495 23877 READING 307 0.962138
1414685644762 23876 READING 319 0.964723
1414685645415 23877 READING 314 0.967953
1414685645545 23876 READING 309 0.965231
1414685646376 23877 READING 305 0.970150
1414685646450 23876 READING 318 0.963360
1414685647329 23876 READING 308 0.930490
1414685647332 23877 READING 311 0.959124
1414685648206 23876 READING 316 0.954621
1414685648219 23876 FUNCTION lru lambda h: 0.608763 * (h ** 0.0183958)
1414685648219 23877 FUNCTION lru lambda h: 0.627537 * (h ** 0.0247272)
1414685648219 23876 RECOMMEND 303
1414685648219 23877 RECOMMEND 303
1414685648852 23877 READING 304 0.988052
1414685649561 23876 READING 306 0.976034
1414685650088 23877 READING 308 0.555407
1414685650201 23877 READING 327 0.987955
1414685650250 23876 READING 312 0.963842
1414685650285 23877 READING 326 0.907131
1414685650345 23877 READING 307 0.861478
1414685650374 23876 READING 315 0.809926
1414685650406 23877 READING 327 0.865020
1414685650473 23877 READING 306 0.746028
1414685650541 23877 READING 324 0.772773
1414685650629 23877 READING 305 0.786944
1414685650749 23877 READING 321 0.817897
1414685651017 23876 READING 316 0.105717
1414685651070 23876 READING 351 0.984634
1414685651118 23876 READING 354 0.979797
1414685651166 23876 READING 358 0.984789
1414685651212 23876 READING 359 0.984232
1414685651259 23876 READING 360 0.983531
1414685651262 23877 READING 304 0.993627
1414685651311 23876 READING 359 0.986831
1414685651364 23876 READING 298 0.971905
1414685651918 23877 READING 319 0.991116
1414685652084 23876 READING 358 0.992576
1414685652571 23877 READING 321 0.988498
1414685653133 23876 READING 301 0.993430
1414685653330 23877 READING 322 0.988348
1414685653805 23876 READING 354 0.991443
1414685654009 23877 READING 285 0.983856
1414685654618 23876 READING 305 0.987604
1414685654788 23877 READING 322 0.990010
1414685655316 23876 READING 345 0.984152
1414685655536 23877 READING 288 0.982055
1414685656033 23876 READING 307 0.980837
1414685656158 23877 READING 319 0.978366
1414685656791 23876 READING 337 0.980379
1414685656907 23877 READING 292 0.980149
1414685657390 23876 READING 309 0.975101
1414685657798 23877 READING 316 0.987699
1414685658219 23876 FUNCTION lru lambda h: 0.504697 * (h ** 0.0691594)
1414685658219 23877 FUNCTION lru lambda h: 0.593949 * (h ** 0.0401965)
1414685658219 23876 RECOMMEND 303
1414685658219 23877 RECOMMEND 303
1414685658354 23876 READING 331 0.983115
1414685658465 23877 READING 296 0.974369
1414685658977 23876 READING 311 0.968363
1414685659256 23877 READING 314 0.975466
1414685659699 23876 READING 331 0.974397
1414685660021 23877 READING 300 0.975334
1414685660320 23876 READING 314 0.970079
1414685660619 23877 READING 312 0.976371
1414685660946 23876 READING 331 0.962712
1414685661368 23877 READING 312 0.970363
1414685661597 23876 READING 331 0.953807
1414685662209 23876 READING 331 0.960278
1414685662209 23877 READING 312 0.953669
1414685662816 23877 READING 312 0.960183
1414685662847 23876 READING 332 0.963000
1414685663391 23876 READING 332 0.968815
1414685663549 23877 READING 312 0.968510
1414685664045 23876 READING 333 0.954410
1414685664233 23877 READING 301 0.966206
1414685664705 23876 READING 332 0.958031
1414685665006 23877 READING 312 0.978648
1414685665464 23876 READING 318 0.962990
1414685665688 23877 READING 300 0.964590
1414685666083 23876 READING 332 0.965298
1414685666448 23877 READING 312 0.967360
1414685666766 23876 READING 318 0.974941
1414685667115 23877 READING 300 0.963242
1414685667538 23876 READING 331 0.969300
1414685667804 23877 READING 311 0.954136
1414685668105 23876 READING 318 0.957248
1414685668219 23876 FUNCTION lru lambda h: 0.485732 * (h ** 0.0796919)
1414685668219 23877 FUNCTION lru lambda h: 0.579169 * (h ** 0.0473878)
1414685668219 23876 RECOMMEND 303
1414685668219 23877 RECOMMEND 303
1414685668515 23877 READING 300 0.976433
1414685668757 23876 READING 330 0.962661
1414685669120 23877 READING 311 0.958929
1414685669341 23876 READING 318 0.958028
1414685669962 23877 READING 300 0.964757
1414685670001 23876 READING 329 0.957808
1414685670819 23877 READING 308 0.974942
1414685671008 23876 READING 317 0.966410
1414685671322 23877 READING 310 0.966817
1414685671430 23877 READING 310 0.848708
1414685671518 23877 READING 299 0.743215
1414685671722 23876 READING 324 0.941774
1414685671814 23877 READING 303 0.123655
1414685671859 23877 READING 328 0.854137
1414685671898 23877 READING 327 0.905466
1414685671934 23877 READING 330 0.977894
1414685671970 23877 READING 331 0.918038
1414685672004 23877 READING 332 0.978199
1414685672039 23877 READING 332 0.977989
1414685672080 23877 READING 283 0.845852
1414685672117 23877 READING 332 0.978487
1414685672167 23876 READING 329 0.959979
1414685672168 23877 READING 284 0.985455
1414685672267 23876 READING 331 0.875598
1414685672348 23876 READING 316 0.763708
1414685672401 23876 READING 323 0.640368
1414685672457 23876 READING 330 0.601429
1414685672510 23876 READING 330 0.621222
1414685672562 23876 READING 332 0.648163
1414685672613 23876 READING 333 0.626769
1414685672668 23876 READING 334 0.593672
1414685672720 23876 READING 333 0.656056
1414685672773 23876 READING 317 0.626292
1414685672819 23876 READING 332 0.689184
1414685672861 23877 READING 331 0.993083
1414685673113 23876 READING 316 0.119871
1414685673156 23876 READING 325 0.856873
1414685673393 23877 READING 287 0.988268
1414685673520 23876 READING 327 0.989302
1414685673955 23877 READING 327 0.986142
1414685673964 23876 READING 328 0.988435
1414685674373 23876 READING 330 0.982824
1414685674498 23877 READING 292 0.982917
1414685674806 23876 READING 331 0.983086
1414685675033 23877 READING 323 0.980960
1414685675198 23876 READING 280 0.976466
1414685675606 23876 READING 332 0.983197
1414685675711 23877 READING 296 0.983430
1414685676091 23876 READING 283 0.978155
1414685676399 23877 READING 320 0.979947
1414685676640 23876 READING 329 0.979228
1414685676933 23877 READING 300 0.982764
1414685677385 23876 READING 286 0.974966
1414685677540 23877 READING 320 0.973977
1414685677919 23876 READING 325 0.975875
1414685678221 23876 FUNCTION lru lambda h: 0.479876 * (h ** 0.0836307)
1414685678221 23877 FUNCTION lru lambda h: 0.580434 * (h ** 0.0463527)
1414685678221 23876 RECOMMEND 303
1414685678221 23877 RECOMMEND 303
1414685678234 23877 READING 303 0.977478
1414685678451 23876 READING 290 0.981574
1414685678885 23876 READING 321 0.966934
1414685678924 23877 READING 318 0.983444
1414685679450 23876 READING 293 0.973239
1414685679628 23877 READING 318 0.971398
1414685680066 23876 READING 317 0.973952
1414685680349 23877 READING 318 0.974618
1414685680702 23876 READING 296 0.979597
1414685681043 23877 READING 319 0.979288
1414685681351 23876 READING 315 0.971598
1414685681908 23877 READING 318 0.974757
1414685681951 23876 READING 299 0.966496
1414685682580 23877 READING 319 0.944843
1414685682581 23876 READING 315 0.974909
1414685683083 23876 READING 300 0.963277
1414685683347 23877 READING 319 0.971641
1414685683771 23876 READING 314 0.969719
1414685684047 23877 READING 320 0.972475
1414685684276 23876 READING 301 0.972452
1414685684674 23877 READING 320 0.957723
1414685684880 23876 READING 313 0.966885
1414685685247 23877 READING 321 0.961836
1414685685458 23876 READING 302 0.962087
1414685686000 23876 READING 313 0.971484
1414685686039 23877 READING 321 0.973461
1414685686530 23876 READING 312 0.959326
1414685686572 23877 READING 321 0.957364
1414685687022 23876 READING 311 0.970990
1414685687367 23877 READING 321 0.972760
1414685687562 23876 READING 312 0.962892
1414685687934 23877 READING 308 0.958206
1414685688077 23876 READING 312 0.960091
1414685688221 23876 FUNCTION lru lambda h: 0.457967 * (h ** 0.0970903)
1414685688221 23877 FUNCTION lru lambda h: 0.552101 * (h ** 0.0605669)
1414685688221 23876 RECOMMEND 303
1414685688221 23877 RECOMMEND 303
1414685688653 23877 READING 319 0.967580
1414685688782 23876 READING 304 0.969287
1414685689215 23877 READING 320 0.958537
1414685689387 23876 READING 311 0.964445
1414685689779 23877 READING 319 0.961022
1414685689903 23876 READING 311 0.958444
1414685690359 23877 READING 307 0.961453
1414685690479 23876 READING 310 0.963274
1414685690975 23876 READING 311 0.955048
1414685691068 23877 READING 317 0.978949
1414685691544 23876 READING 311 0.962330
1414685691606 23877 READING 307 0.960609
1414685692028 23876 READING 305 0.954980
1414685692110 23877 READING 315 0.953989
1414685693123 23876 READING 310 0.986070
1414685693359 23877 READING 307 0.981565
1414685693728 23876 READING 301 0.958653
1414685693890 23876 READING 306 0.900690
1414685694000 23876 READING 310 0.693338
1414685694000 23877 READING 315 0.953800
1414685694129 23877 READING 315 0.787936
1414685694211 23877 READING 314 0.710427
1414685694319 23876 READING 311 0.175591
1414685694384 23876 READING 315 0.986540
1414685694440 23876 READING 319 0.975067
1414685694476 23876 READING 322 0.958272
1414685694511 23876 READING 322 0.958948
1414685694538 23877 READING 317 0.189544
1414685694545 23876 READING 323 0.978079
1414685694570 23877 READING 310 0.973534
1414685694578 23876 READING 323 0.976481
1414685694603 23877 READING 317 0.979404
1414685694613 23876 READING 282 0.976779
1414685694634 23877 READING 318 0.968003
1414685694646 23876 READING 323 0.976543
1414685694664 23877 READING 320 0.973426
1414685694681 23876 READING 283 0.973505
1414685694693 23877 READING 320 0.970302
1414685694716 23876 READING 322 0.970863
1414685694722 23877 READING 276 0.973360
1414685694754 23877 READING 320 0.974382
1414685694758 23876 READING 284 0.952582
1414685694790 23877 READING 277 0.979405
1414685694821 23877 READING 320 0.975786
1414685694854 23877 READING 278 0.970309
1414685694892 23877 READING 317 0.964272
1414685695158 23877 READING 281 0.990318
1414685695197 23876 READING 320 0.989992
1414685695635 23877 READING 314 0.991574
1414685695781 23876 READING 287 0.989170
1414685696301 23877 READING 282 0.993887
1414685696387 23876 READING 317 0.988102
1414685696781 23877 READING 310 0.983972
1414685696848 23876 READING 291 0.986911
1414685697346 23877 READING 286 0.989919
1414685697404 23876 READING 314 0.982391
1414685697870 23877 READING 308 0.987746
1414685697976 23876 READING 295 0.981605
1414685698221 23876 FUNCTION lru lambda h: 0.444932 * (h ** 0.106033)
1414685698221 23877 FUNCTION lru lambda h: 0.537627 * (h ** 0.0688858)
1414685698221 23876 RECOMMEND 303
1414685698221 23877 RECOMMEND 303
1414685698400 23877 READING 289 0.961190
1414685698538 23876 READING 313 0.977109
1414685699066 23876 READING 298 0.979998
1414685699229 23877 READING 307 0.986325
1414685699655 23876 READING 312 0.977392
1414685699842 23877 READING 293 0.979972
1414685700139 23876 READING 312 0.971041
1414685700337 23877 READING 307 0.973698
1414685700741 23876 READING 311 0.971657
1414685700833 23877 READING 306 0.969820
1414685701358 23876 READING 312 0.980023
1414685701554 23877 READING 307 0.979521
1414685701966 23876 READING 312 0.970537
1414685702103 23877 READING 307 0.970227
1414685702516 23876 READING 313 0.958148
1414685702651 23877 READING 307 0.970614
1414685703033 23876 READING 313 0.963769
1414685703173 23877 READING 308 0.958654
1414685703636 23876 READING 314 0.966125
1414685703691 23877 READING 307 0.956150
1414685704075 23876 READING 315 0.949084
1414685704285 23877 READING 309 0.967090
1414685704664 23876 READING 316 0.962670
1414685704801 23877 READING 309 0.974031
1414685705247 23877 READING 310 0.915880
1414685705247 23876 READING 316 0.964652
1414685705822 23877 READING 310 0.977056
1414685705869 23876 READING 317 0.961648
1414685706321 23876 READING 317 0.954879
1414685706386 23877 READING 310 0.970812
1414685706816 23876 READING 317 0.970718
1414685706974 23877 READING 311 0.963886
1414685707506 23876 READING 317 0.970194
1414685707541 23877 READING 299 0.966101
1414685707977 23876 READING 304 0.967119
1414685708051 23877 READING 310 0.964053
1414685708221 23876 FUNCTION lru lambda h: 0.432329 * (h ** 0.113958)
1414685708221 23877 FUNCTION lru lambda h: 0.526922 * (h ** 0.0747067)
1414685708222 23876 RECOMMEND 303
1414685708222 23877 RECOMMEND 303
1414685708577 23876 READING 315 0.943965
1414685708577 23877 READING 299 0.939954
1414685709055 23877 READING 310 0.951465
1414685709164 23876 READING 316 0.974221
1414685709670 23877 READING 299 0.977957
1414685709741 23876 READING 315 0.955026
1414685710176 23877 READING 310 0.959494
1414685710353 23876 READING 304 0.965128
1414685710641 23877 READING 299 0.951713
1414685710830 23876 READING 314 0.950402
1414685711160 23877 READING 309 0.961434
1414685711289 23876 READING 304 0.954759
1414685711656 23877 READING 300 0.958303
1414685711783 23876 READING 312 0.946561
1414685712273 23876 READING 304 0.965368
1414685712273 23877 READING 309 0.946783
1414685712847 23877 READING 300 0.929990
1414685712849 23876 READING 311 0.941641
1414685713315 23877 READING 308 0.956369
1414685713471 23876 READING 304 0.973849
1414685713821 23877 READING 301 0.960543
1414685714291 23877 READING 307 0.929001
1414685714291 23876 READING 311 0.969232
1414685714867 23876 READING 303 0.969605
1414685714956 23876 READING 309 0.821067
1414685715039 23876 READING 310 0.818584
1414685715462 23876 READING 313 0.128199
1414685715520 23876 READING 313 0.985176
1414685715522 23877 READING 301 0.664879
1414685715552 23876 READING 318 0.974391
1414685715584 23876 READING 320 0.973559
1414685715616 23876 READING 321 0.969082
1414685715649 23876 READING 322 0.975076
1414685715681 23876 READING 321 0.970431
1414685715712 23876 READING 281 0.973726
1414685715745 23876 READING 322 0.975540
1414685715779 23876 READING 282 0.977466
1414685715813 23876 READING 321 0.977160
1414685715851 23876 READING 283 0.963880
1414685716091 23877 READING 315 0.979333
1414685716170 23876 READING 319 0.989332
1414685716587 23877 READING 320 0.971686
1414685716668 23877 READING 319 0.903888
1414685716722 23876 READING 286 0.989813
1414685716732 23877 READING 310 0.837274
1414685716803 23877 READING 318 0.782530
1414685716847 23877 READING 318 0.681259
1414685716890 23877 READING 322 0.689069
1414685716932 23877 READING 323 0.675248
1414685716975 23877 READING 323 0.645672
1414685717016 23877 READING 325 0.703354
1414685717055 23877 READING 325 0.714655
1414685717087 23877 READING 304 0.824455
1414685717320 23876 READING 316 0.984325
1414685717376 23877 READING 324 0.119829
1414685717405 23877 READING 323 0.966459
1414685717437 23877 READING 323 0.847287
1414685717465 23877 READING 325 0.923072
1414685717500 23877 READING 325 0.881716
1414685717532 23877 READING 286 0.975223
1414685717887 23876 READING 290 0.990007
1414685718014 23877 READING 325 0.994194
1414685718222 23876 FUNCTION lru lambda h: 0.430049 * (h ** 0.115521)
1414685718222 23877 FUNCTION lru lambda h: 0.544791 * (h ** 0.0656423)
1414685718222 23876 RECOMMEND 303
1414685718222 23877 RECOMMEND 303
1414685718435 23877 READING 286 0.985731
1414685718485 23876 READING 313 0.989203
1414685718900 23877 READING 325 0.986581
1414685718960 23876 READING 294 0.976946
1414685719409 23877 READING 290 0.986073
1414685719504 23876 READING 312 0.976515
1414685719815 23877 READING 322 0.981241
1414685720211 23876 READING 297 0.983045
1414685720235 23877 READING 294 0.978308
1414685720683 23876 READING 312 0.972285
1414685720728 23877 READING 319 0.974063
1414685721206 23876 READING 311 0.965308
1414685721277 23877 READING 298 0.978938
1414685721693 23876 READING 311 0.977255
1414685721944 23877 READING 318 0.979818
1414685722247 23876 READING 311 0.971040
1414685722393 23877 READING 301 0.981271
1414685722938 23877 READING 317 0.976294
1414685723016 23876 READING 312 0.972049
1414685723406 23877 READING 316 0.970562
1414685723724 23876 READING 312 0.974971
1414685723964 23877 READING 316 0.974005
1414685724341 23876 READING 313 0.970055
1414685724445 23877 READING 316 0.977982
1414685724945 23877 READING 316 0.944184
1414685724953 23876 READING 314 0.947107
1414685725425 23876 READING 314 0.966791
1414685725618 23877 READING 316 0.963701
1414685725959 23876 READING 315 0.959104
1414685726084 23877 READING 317 0.970396
1414685726466 23876 READING 316 0.945942
1414685726545 23877 READING 317 0.962835
1414685726963 23876 READING 316 0.958960
1414685727114 23877 READING 318 0.961257
1414685727489 23876 READING 317 0.967778
1414685727540 23877 READING 318 0.956095
1414685727977 23876 READING 317 0.955011
1414685728014 23877 READING 317 0.952976
1414685728222 23876 FUNCTION lru lambda h: 0.425728 * (h ** 0.118386)
1414685728222 23877 FUNCTION lru lambda h: 0.530971 * (h ** 0.0729546)
1414685728222 23876 RECOMMEND 303
1414685728222 23877 RECOMMEND 303
1414685728479 23876 READING 317 0.955734
1414685728539 23877 READING 318 0.955779
1414685729025 23876 READING 304 0.960700
1414685729077 23877 READING 317 0.972900
1414685729528 23877 READING 317 0.928838
1414685729528 23876 READING 315 0.952167
1414685729976 23877 READING 317 0.969709
1414685730090 23876 READING 316 0.962529
1414685730453 23877 READING 308 0.946314
1414685730547 23876 READING 315 0.968473
1414685731062 23877 READING 317 0.968148
1414685731151 23876 READING 304 0.965399
1414685731509 23877 READING 308 0.944829
1414685731685 23876 READING 314 0.972443
1414685732217 23877 READING 316 0.980954
1414685732245 23876 READING 304 0.956123
1414685732689 23877 READING 308 0.970720
1414685732762 23876 READING 313 0.960757
1414685733140 23877 READING 315 0.958119
1414685733216 23876 READING 304 0.968556
1414685733705 23876 READING 311 0.941253
1414685733705 23877 READING 315 0.943798
1414685734159 23876 READING 304 0.954619
1414685734222 23877 READING 314 0.962816
1414685734748 23877 READING 308 0.962352
1414685734983 23876 READING 310 0.962483
1414685735200 23877 READING 313 0.956857
1414685735661 23877 READING 308 0.906899
1414685735802 23876 READING 311 0.677613
1414685736172 23876 READING 300 0.980834
1414685736230 23877 READING 313 0.966984
1414685736261 23876 READING 306 0.928543
1414685736306 23876 READING 305 0.935004
1414685736367 23876 READING 307 0.863571
1414685736407 23876 READING 307 0.794110
1414685736449 23876 READING 308 0.717037
1414685736490 23876 READING 308 0.735259
1414685736529 23876 READING 308 0.747912
1414685736570 23876 READING 308 0.722272
1414685736610 23876 READING 308 0.733307
1414685736649 23876 READING 307 0.745807
1414685736687 23876 READING 292 0.801966
1414685736789 23877 READING 308 0.949798
1414685736972 23876 READING 307 0.108817
1414685737004 23876 READING 320 0.975679
1414685737039 23876 READING 321 0.828895
1414685737074 23876 READING 322 0.965582
1414685737439 23876 READING 323 0.989509
1414685737522 23877 READING 312 0.965964
1414685737844 23876 READING 285 0.987736
1414685738222 23876 FUNCTION lru lambda h: 0.436291 * (h ** 0.111584)
1414685738222 23877 FUNCTION lru lambda h: 0.527908 * (h ** 0.0745402)
1414685738223 23876 RECOMMEND 303
1414685738223 23877 RECOMMEND 303
1414685738263 23877 READING 312 0.971542
1414685738338 23876 READING 323 0.986608
1414685738749 23876 READING 288 0.982344
1414685738841 23877 READING 314 0.955068
1414685738934 23877 READING 315 0.793291
1414685739022 23877 READING 316 0.807315
1414685739085 23877 READING 319 0.692893
1414685739141 23877 READING 315 0.643619
1414685739168 23876 READING 322 0.986602
1414685739193 23877 READING 319 0.615779
1414685739466 23877 READING 322 0.084707
1414685739496 23877 READING 316 0.781986
1414685739519 23877 READING 315 0.968235
1414685739541 23877 READING 318 0.955145
1414685739566 23877 READING 319 0.955668
1414685739589 23877 READING 319 0.947586
1414685739612 23877 READING 318 0.955978
1414685739634 23877 READING 269 0.968363
1414685739656 23877 READING 319 0.967824
1414685739681 23877 READING 270 0.966194
1414685739711 23877 READING 317 0.965932
1414685739737 23877 READING 272 0.963266
1414685739765 23877 READING 315 0.966205
1414685739779 23876 READING 292 0.984698
1414685739797 23877 READING 274 0.952704
1414685740046 23877 READING 313 0.988280
1414685740337 23876 READING 320 0.982203
1414685740441 23877 READING 277 0.987311
1414685740827 23876 READING 296 0.978069
1414685740866 23877 READING 311 0.986100
1414685741281 23877 READING 281 0.972020
1414685741391 23876 READING 318 0.978864
1414685741708 23877 READING 308 0.981116
1414685741829 23876 READING 300 0.971388
1414685742286 23876 READING 317 0.970100
1414685742318 23877 READING 285 0.990166
1414685742813 23877 READING 306 0.978469
1414685742851 23876 READING 303 0.974797
1414685743265 23877 READING 289 0.975650
1414685743364 23876 READING 315 0.978856
1414685743833 23877 READING 305 0.980146
1414685743954 23876 READING 315 0.972922
1414685744273 23877 READING 291 0.971308
1414685744478 23876 READING 315 0.956580
1414685744719 23877 READING 304 0.971118
1414685745090 23876 READING 316 0.962961
1414685745148 23877 READING 304 0.967526
1414685745563 23876 READING 316 0.961834
1414685745591 23877 READING 303 0.966609
1414685746069 23877 READING 304 0.967452
1414685746098 23876 READING 316 0.966132
1414685746599 23876 READING 316 0.972733
1414685746824 23877 READING 304 0.978261
1414685747103 23876 READING 317 0.974908
1414685747400 23877 READING 305 0.970127
1414685747557 23876 READING 316 0.958352
1414685747851 23877 READING 305 0.958611
1414685748065 23876 READING 317 0.962731
1414685748223 23876 FUNCTION lru lambda h: 0.433457 * (h ** 0.11352)
1414685748223 23877 FUNCTION lru lambda h: 0.51377 * (h ** 0.0835819)
1414685748223 23876 RECOMMEND 303
1414685748223 23877 RECOMMEND 303
1414685748286 23877 READING 306 0.961309
1414685748499 23876 READING 316 0.956525
1414685748718 23877 READING 306 0.957825
1414685749063 23876 READING 316 0.963131
1414685749159 23877 READING 306 0.960018
1414685749643 23877 READING 306 0.973011
1414685749669 23876 READING 316 0.968097
1414685750153 23877 READING 306 0.958019
1414685750276 23876 READING 307 0.977260
1414685750583 23877 READING 306 0.959344
1414685750713 23876 READING 316 0.968057
1414685751077 23877 READING 295 0.975177
1414685751373 23876 READING 307 0.970607
1414685751511 23877 READING 306 0.971538
1414685751903 23877 READING 295 0.968211
1414685751983 23876 READING 315 0.977052
1414685752425 23877 READING 306 0.962213
1414685752488 23876 READING 307 0.954913
1414685752882 23877 READING 296 0.947446
1414685752944 23876 READING 314 0.955960
1414685753322 23877 READING 305 0.949876
1414685753390 23876 READING 307 0.968955
1414685753821 23877 READING 305 0.960294
1414685754009 23876 READING 314 0.967779
1414685754389 23877 READING 304 0.965937
1414685754587 23876 READING 307 0.964600
1414685754833 23877 READING 296 0.957836
1414685755169 23876 READING 312 0.976160
1414685755362 23877 READING 304 0.965219
1414685755621 23876 READING 307 0.953579
1414685755817 23877 READING 297 0.957238
1414685756241 23876 READING 311 0.952551
1414685756258 23877 READING 303 0.934668
1414685756667 23877 READING 297 0.952826
1414685756901 23876 READING 312 0.966937
1414685757098 23877 READING 303 0.956382
1414685757420 23876 READING 313 0.955795
1414685757511 23876 READING 315 0.787769
1414685757586 23876 READING 316 0.770561
1414685757681 23877 READING 303 0.937929
1414685757907 23876 READING 319 0.155247
1414685757939 23876 READING 305 0.799127
1414685757965 23876 READING 312 0.930776
1414685757992 23876 READING 313 0.844380
1414685758017 23876 READING 314 0.927813
1414685758045 23876 READING 315 0.852755
1414685758052 23877 READING 303 0.948457
1414685758071 23876 READING 270 0.929626
1414685758096 23876 READING 316 0.928683
1414685758122 23876 READING 271 0.919065
1414685758148 23876 READING 315 0.932540
1414685758175 23876 READING 272 0.934110
1414685758202 23876 READING 314 0.934445
1414685758223 23876 FUNCTION lru lambda h: 0.432604 * (h ** 0.114547)
1414685758223 23877 FUNCTION lru lambda h: 0.508145 * (h ** 0.0867457)
1414685758223 23876 RECOMMEND 303
1414685758223 23877 RECOMMEND 303
1414685758230 23876 READING 274 0.937176
1414685758259 23876 READING 312 0.933434
1414685758293 23876 READING 275 0.867049
1414685758369 23876 READING 310 0.944040
1414685758373 23877 READING 303 0.940765
1414685758781 23876 READING 277 0.991096
1414685759029 23877 READING 303 0.968028
1414685759365 23876 READING 308 0.990242
1414685759719 23877 READING 303 0.966250
1414685759825 23876 READING 280 0.985135
1414685760264 23876 READING 305 0.983185
1414685760457 23877 READING 304 0.706577
1414685760527 23877 READING 288 0.961748
1414685760605 23877 READING 290 0.877657
1414685760660 23877 READING 291 0.896673
1414685760709 23877 READING 294 0.825075
1414685760727 23876 READING 284 0.981775
1414685760752 23877 READING 295 0.792558
1414685760800 23877 READING 300 0.797777
1414685760845 23877 READING 301 0.797810
1414685760893 23877 READING 308 0.848513
1414685760945 23877 READING 308 0.847110
1414685760996 23877 READING 308 0.838471
1414685761044 23877 READING 308 0.843618
1414685761092 23877 READING 307 0.863152
1414685761300 23876 READING 303 0.982958
1414685761316 23877 READING 308 0.987372
1414685761753 23876 READING 302 0.976811
1414685762048 23877 READING 308 0.992352
1414685762333 23876 READING 302 0.979625
1414685762721 23877 READING 309 0.989591
1414685762868 23876 READING 303 0.984249
1414685763279 23877 READING 308 0.985536
1414685763405 23876 READING 304 0.973913
1414685763829 23877 READING 280 0.988639
1414685763891 23876 READING 305 0.980170
1414685764360 23876 READING 305 0.968746
1414685764421 23877 READING 309 0.975506
1414685764876 23876 READING 305 0.977963
1414685765211 23877 READING 284 0.980891
1414685765674 23876 READING 305 0.979331
1414685766029 23877 READING 308 0.985928
1414685766177 23876 READING 306 0.972195
1414685766683 23877 READING 289 0.983719
1414685766750 23876 READING 306 0.965621
1414685767233 23876 READING 308 0.972937
1414685767350 23877 READING 306 0.977731
1414685767691 23876 READING 308 0.957787
1414685768031 23877 READING 293 0.968221
1414685768118 23876 READING 309 0.956523
1414685768223 23876 FUNCTION lru lambda h: 0.424249 * (h ** 0.120385)
1414685768223 23877 FUNCTION lru lambda h: 0.509016 * (h ** 0.0863979)
1414685768223 23876 RECOMMEND 303
1414685768223 23877 RECOMMEND 303
1414685768558 23876 READING 309 0.957525
1414685768697 23877 READING 304 0.974319
1414685769111 23876 READING 309 0.961343
1414685769442 23877 READING 304 0.976373
1414685769558 23876 READING 309 0.954610
1414685769998 23876 READING 309 0.969170
1414685770101 23877 READING 304 0.962319
1414685770443 23876 READING 308 0.970795
1414685770884 23877 READING 305 0.975969
1414685771001 23876 READING 309 0.965507
1414685771484 23877 READING 304 0.957724
1414685771506 23876 READING 308 0.961566
1414685772108 23876 READING 298 0.977742
1414685772174 23877 READING 306 0.965837
1414685772622 23876 READING 308 0.974309
1414685772966 23877 READING 306 0.975771
1414685773265 23876 READING 298 0.970179
1414685773701 23877 READING 307 0.970568
1414685773869 23876 READING 308 0.966412
1414685774302 23877 READING 307 0.964203
1414685774421 23876 READING 298 0.975283
1414685774936 23876 READING 307 0.961628
1414685775020 23877 READING 308 0.959510
1414685775574 23876 READING 298 0.962041
1414685775909 23877 READING 307 0.975099
1414685776063 23876 READING 307 0.959532
1414685776487 23877 READING 308 0.961245
1414685776513 23876 READING 299 0.956971
1414685776948 23876 READING 306 0.950658
1414685777283 23877 READING 308 0.972261
1414685777383 23876 READING 300 0.946475
1414685778105 23877 READING 296 0.672150
1414685778223 23876 FUNCTION lru lambda h: 0.423801 * (h ** 0.120673)
1414685778223 23877 FUNCTION lru lambda h: 0.508461 * (h ** 0.0866696)
1414685778223 23876 RECOMMEND 303
1414685778223 23877 RECOMMEND 303
1414685778263 23876 READING 306 0.973797
1414685778807 23877 READING 325 0.990244
1414685779023 23876 READING 305 0.657568
1414685779376 23876 READING 295 0.986856
1414685779421 23877 READING 325 0.989555
1414685779465 23876 READING 300 0.944446
1414685779513 23876 READING 303 0.932709
1414685779578 23876 READING 303 0.832730
1414685779619 23876 READING 302 0.765420
1414685779659 23876 READING 304 0.765767
1414685779697 23876 READING 301 0.782781
1414685779740 23876 READING 306 0.772987
1414685779781 23876 READING 302 0.748148
1414685779825 23876 READING 307 0.694071
1414685779867 23876 READING 301 0.767485
1414685780109 23876 READING 307 0.128853
1414685780146 23876 READING 318 0.979333
1414685780159 23877 READING 326 0.989147
1414685780179 23876 READING 322 0.972000
1414685780217 23876 READING 322 0.958966
1414685780406 23876 READING 323 0.985264
1414685780728 23877 READING 326 0.984071
1414685780820 23876 READING 322 0.992408
1414685781240 23877 READING 326 0.980166
1414685781325 23876 READING 286 0.988421
1414685781830 23876 READING 322 0.986129
1414685782222 23876 READING 289 0.978981
1414685782409 23877 READING 299 0.986379
1414685782670 23876 READING 320 0.980366
1414685783000 23877 READING 326 0.980174
1414685783125 23877 READING 325 0.904879
1414685783162 23876 READING 293 0.979952
1414685783202 23877 READING 326 0.771566
1414685783271 23877 READING 327 0.672665
1414685783329 23877 READING 326 0.616114
1414685783388 23877 READING 332 0.648515
1414685783436 23877 READING 333 0.655761
1414685783486 23877 READING 337 0.622017
1414685783533 23877 READING 338 0.676103
1414685783576 23877 READING 310 0.759892
1414685783822 23877 READING 334 0.134196
1414685783859 23877 READING 351 0.852664
1414685783860 23876 READING 318 0.983582
1414685783892 23877 READING 352 0.973724
1414685783933 23877 READING 353 0.848184
1414685784300 23877 READING 351 0.990181
1414685784533 23876 READING 297 0.982548
1414685784777 23877 READING 297 0.987107
1414685785075 23876 READING 316 0.967743
1414685785497 23877 READING 352 0.987222
1414685785532 23876 READING 301 0.968890
1414685785961 23877 READING 299 0.987449
1414685786116 23876 READING 315 0.975540
1414685786660 23877 READING 351 0.993960
1414685786759 23876 READING 315 0.975004
1414685787205 23877 READING 301 0.989536
1414685787610 23876 READING 315 0.979553
1414685787782 23877 READING 349 0.992518
1414685788186 23876 READING 315 0.971450
1414685788224 23876 FUNCTION lru lambda h: 0.434353 * (h ** 0.11381)
1414685788224 23877 FUNCTION lru lambda h: 0.475198 * (h ** 0.0938235)
1414685788224 23876 RECOMMEND 303
1414685788224 23877 RECOMMEND 303
1414685788407 23877 READING 304 0.992119
1414685788693 23876 READING 314 0.973215
1414685789010 23877 READING 339 0.986070
1414685789182 23876 READING 315 0.962476
1414685789518 23877 READING 307 0.971323
1414685789756 23876 READING 315 0.958268
1414685790021 23877 READING 334 0.979656
1414685790213 23876 READING 316 0.958805
1414685790638 23877 READING 309 0.981163
1414685790664 23876 READING 316 0.970796
1414685791118 23876 READING 316 0.953462
1414685791196 23877 READING 330 0.976581
1414685791586 23876 READING 316 0.971632
1414685791821 23877 READING 311 0.984197
1414685792092 23876 READING 316 0.957894
1414685792339 23877 READING 328 0.973228
1414685792578 23876 READING 316 0.947301
1414685793007 23877 READING 314 0.984650
1414685793253 23876 READING 316 0.971790
1414685793525 23877 READING 329 0.957105
1414685793984 23876 READING 315 0.970821
1414685794090 23877 READING 329 0.970619
1414685794453 23876 READING 316 0.954299
1414685794695 23877 READING 328 0.973573
1414685795051 23876 READING 315 0.966268
1414685795409 23877 READING 329 0.982763
1414685795696 23876 READING 315 0.962805
1414685795950 23877 READING 329 0.963369
1414685796192 23876 READING 314 0.950518
1414685796581 23877 READING 330 0.966203
1414685796649 23876 READING 307 0.967428
1414685797110 23877 READING 331 0.955962
1414685797150 23876 READING 313 0.960837
1414685797626 23876 READING 314 0.957715
1414685797661 23877 READING 331 0.964045
1414685798089 23876 READING 313 0.969276
1414685798224 23876 FUNCTION lru lambda h: 0.429552 * (h ** 0.116891)
1414685798224 23877 FUNCTION lru lambda h: 0.376435 * (h ** 0.13998)
1414685798224 23876 RECOMMEND 303
1414685798224 23877 RECOMMEND 303
1414685798347 23877 READING 331 0.971130
1414685798591 23876 READING 306 0.960324
1414685798834 23877 READING 331 0.959766
1414685799077 23876 READING 312 0.953298
1414685799349 23877 READING 331 0.961819
1414685799779 23876 READING 306 0.963620
1414685799841 23877 READING 319 0.958454
1414685800432 23876 READING 308 0.965454
1414685800471 23877 READING 331 0.954064
1414685800956 23877 READING 319 0.956367
1414685800983 23876 READING 312 0.959240
1414685801064 23876 READING 309 0.738474
1414685801153 23876 READING 313 0.787857
1414685801211 23876 READING 314 0.625910
1414685801493 23876 READING 315 0.143640
1414685801521 23876 READING 305 0.926608
1414685801529 23877 READING 329 0.962956
1414685801548 23876 READING 311 0.971688
1414685801572 23876 READING 313 0.967281
1414685801594 23876 READING 314 0.963197
1414685801617 23876 READING 315 0.965507
1414685801640 23876 READING 268 0.957899
1414685801666 23876 READING 315 0.965955
1414685801689 23876 READING 268 0.957780
1414685801719 23876 READING 314 0.965944
1414685801744 23876 READING 269 0.969271
1414685801776 23876 READING 312 0.966115
1414685801806 23876 READING 271 0.965096
1414685801834 23876 READING 310 0.964986
1414685801865 23876 READING 273 0.966602
1414685801901 23876 READING 308 0.972430
1414685802101 23877 READING 319 0.970086
1414685802352 23876 READING 275 0.990563
1414685802710 23877 READING 328 0.977003
1414685802881 23876 READING 306 0.989323
1414685803286 23876 READING 279 0.949759
1414685803287 23877 READING 319 0.957717
1414685803707 23876 READING 304 0.980691
1414685803762 23877 READING 327 0.957133
1414685804219 23876 READING 284 0.983074
1414685804661 23877 READING 319 0.972146
1414685804702 23876 READING 303 0.979796
1414685805205 23877 READING 325 0.953567
1414685805234 23876 READING 302 0.979439
1414685805615 23877 READING 327 0.967614
1414685805711 23877 READING 330 0.883313
1414685805766 23877 READING 331 0.700272
1414685805793 23876 READING 303 0.980051
1414685805840 23877 READING 333 0.714685
1414685805887 23877 READING 333 0.665996
1414685805930 23877 READING 337 0.699764
1414685805976 23877 READING 339 0.695555
1414685806017 23877 READING 339 0.689675
1414685806286 23877 READING 321 0.100223
1414685806316 23877 READING 332 0.971148
1414685806346 23877 READING 333 0.974370
1414685806376 23877 READING 334 0.973971
1414685806406 23877 READING 335 0.969198
1414685806438 23877 READING 336 0.976734
1414685806476 23876 READING 292 0.983077
1414685806476 23877 READING 287 0.737772
1414685806515 23877 READING 337 0.981041
1414685807004 23876 READING 302 0.982985
1414685807081 23877 READING 288 0.992960
1414685807517 23877 READING 337 0.986482
1414685807539 23876 READING 303 0.980217
1414685807991 23876 READING 305 0.976253
1414685808174 23877 READING 291 0.991956
1414685808224 23876 FUNCTION lru lambda h: 0.297037 * (h ** 0.185747)
1414685808224 23877 FUNCTION lru lambda h: 0.323419 * (h ** 0.167416)
1414685808224 23876 RECOMMEND 303
1414685808224 23877 RECOMMEND 303
1414685808731 23877 READING 335 0.987645
1414685808763 23876 READING 305 0.979823
1414685809261 23877 READING 293 0.989742
1414685809338 23876 READING 305 0.971674
1414685809805 23877 READING 333 0.989423
1414685809937 23876 READING 306 0.970817
1414685810355 23877 READING 296 0.986647
1414685810434 23876 READING 306 0.963637
1414685810995 23876 READING 307 0.976754
1414685811081 23877 READING 331 0.988762
1414685811629 23876 READING 308 0.970556
1414685811748 23877 READING 300 0.986098
1414685812040 23876 READING 308 0.948668
1414685812368 23877 READING 327 0.988517
1414685812590 23876 READING 308 0.958156
1414685812909 23877 READING 305 0.980150
1414685813096 23876 READING 309 0.960224
1414685813569 23877 READING 323 0.981903
1414685813599 23876 READING 309 0.954269
1414685814143 23876 READING 309 0.964038
1414685814246 23877 READING 308 0.981283
1414685814563 23876 READING 308 0.953000
1414685814880 23877 READING 322 0.984718
1414685815199 23876 READING 308 0.970259
1414685815456 23877 READING 322 0.971169
1414685815663 23876 READING 307 0.950271
1414685816097 23877 READING 323 0.975016
1414685816119 23876 READING 297 0.925904
1414685816669 23876 READING 307 0.964494
1414685816729 23877 READING 323 0.973699
1414685817240 23876 READING 297 0.964824
1414685817290 23877 READING 323 0.978255
1414685817786 23876 READING 307 0.958049
1414685817876 23877 READING 324 0.968077
1414685818224 23876 FUNCTION lru lambda h: 0.294044 * (h ** 0.18836)
1414685818224 23877 FUNCTION lru lambda h: 0.308042 * (h ** 0.179223)
1414685818224 23876 RECOMMEND 303
1414685818224 23877 RECOMMEND 303
1414685818369 23876 READING 298 0.967595
1414685818487 23877 READING 324 0.966819
1414685818812 23876 READING 307 0.943903
1414685818997 23877 READING 325 0.955843
1414685819263 23876 READING 298 0.956405
1414685819465 23877 READING 325 0.958024
1414685819723 23876 READING 306 0.941378
1414685820115 23877 READING 326 0.967886
1414685820263 23876 READING 298 0.974092
1414685820716 23877 READING 326 0.966645
1414685820836 23876 READING 306 0.959752
1414685821293 23877 READING 326 0.948760
1414685821297 23876 READING 299 0.939380
1414685821836 23877 READING 327 0.961816
1414685822101 23876 READING 305 0.967282
1414685822328 23877 READING 314 0.957791
1414685822735 23876 READING 305 0.963506
1414685822938 23877 READING 326 0.959583
1414685823290 23876 READING 305 0.963165
1414685823459 23877 READING 314 0.935305
1414685823606 23876 READING 308 0.245740
1414685823668 23876 READING 292 0.979612
1414685823726 23876 READING 295 0.893753
1414685823767 23876 READING 299 0.833474
1414685823806 23876 READING 300 0.819157
1414685823853 23876 READING 304 0.823228
1414685823899 23876 READING 291 0.822512
1414685823949 23876 READING 304 0.749124
1414685823993 23876 READING 303 0.835668
1414685824033 23876 READING 303 0.979617
1414685824070 23876 READING 304 0.971887
1414685824125 23876 READING 300 0.704789
1414685824137 23877 READING 325 0.953554
1414685824168 23876 READING 306 0.968694
1414685824486 23876 READING 298 0.989239
1414685824807 23877 READING 313 0.966241
1414685825024 23876 READING 305 0.989904
1414685825481 23877 READING 322 0.970943
1414685825525 23876 READING 296 0.985333
1414685825984 23877 READING 311 0.973829
1414685826106 23876 READING 303 0.989386
1414685826509 23877 READING 320 0.960071
1414685826710 23876 READING 302 0.987870
1414685827233 23876 READING 304 0.982940
1414685827275 23877 READING 312 0.956620
1414685827783 23876 READING 294 0.981931
1414685827899 23877 READING 317 0.965584
1414685828225 23876 FUNCTION lru lambda h: 0.299656 * (h ** 0.183403)
1414685828225 23877 FUNCTION lru lambda h: 0.303563 * (h ** 0.182727)
1414685828225 23876 RECOMMEND 303
1414685828225 23877 RECOMMEND 303
1414685828299 23876 READING 300 0.978789
1414685828436 23877 READING 321 0.957366
1414685828525 23877 READING 321 0.844272
1414685828597 23877 READING 323 0.799349
1414685828674 23877 READING 327 0.674649
1414685828953 23877 READING 327 0.107267
1414685828983 23877 READING 329 0.968748
1414685829012 23877 READING 331 0.973221
1414685829040 23877 READING 332 0.966016
1414685829040 23876 READING 297 0.982900
1414685829067 23877 READING 333 0.971155
1414685829094 23877 READING 334 0.968268
1414685829122 23877 READING 282 0.965790
1414685829151 23877 READING 334 0.965804
1414685829180 23877 READING 283 0.972833
1414685829212 23877 READING 333 0.975975
1414685829242 23877 READING 285 0.970957
1414685829273 23877 READING 332 0.967726
1414685829313 23877 READING 287 0.978002
1414685829599 23876 READING 300 0.973868
1414685829816 23877 READING 330 0.991240
1414685830304 23877 READING 290 0.990627
1414685830340 23876 READING 301 0.979883
1414685830880 23877 READING 327 0.987879
1414685830972 23876 READING 302 0.982874
1414685831502 23877 READING 295 0.990030
1414685831736 23876 READING 304 0.970445
1414685832100 23877 READING 324 0.988087
1414685832490 23876 READING 304 0.976769
1414685832719 23877 READING 300 0.984389
1414685833207 23876 READING 304 0.980969
1414685833373 23877 READING 323 0.972446
1414685833936 23877 READING 304 0.978254
1414685833968 23876 READING 305 0.972987
1414685834562 23877 READING 319 0.978878
1414685834617 23876 READING 304 0.967305
1414685835051 23877 READING 320 0.970974
1414685835257 23876 READING 306 0.956742
1414685835599 23877 READING 320 0.973002
1414685835897 23876 READING 306 0.965168
1414685836173 23877 READING 320 0.972978
1414685836491 23876 READING 308 0.960007
1414685836813 23877 READING 319 0.980092
1414685837521 23877 READING 320 0.971410
1414685837522 23876 READING 308 0.748780
1414685838057 23877 READING 320 0.973436
1414685838225 23876 FUNCTION lru lambda h: 0.296002 * (h ** 0.186612)
1414685838225 23877 FUNCTION lru lambda h: 0.296384 * (h ** 0.188705)
1414685838225 23876 RECOMMEND 303
1414685838225 23877 RECOMMEND 303
1414685838366 23876 READING 317 0.992767
1414685838567 23877 READING 321 0.973910
1414685839132 23877 READING 321 0.966684
1414685839180 23876 READING 317 0.992192
1414685839690 23877 READING 322 0.963449
1414685839799 23876 READING 317 0.990727
1414685840390 23876 READING 315 0.983965
1414685840444 23877 READING 323 0.981687
1414685840957 23877 READING 323 0.962116
1414685841013 23876 READING 288 0.982443
1414685841487 23877 READING 324 0.956491
1414685841538 23876 READING 316 0.978163
1414685842189 23877 READING 311 0.969480
1414685842213 23876 READING 293 0.976547
1414685842698 23877 READING 323 0.959926
1414685842784 23876 READING 315 0.982914
1414685843300 23877 READING 311 0.960710
1414685843490 23876 READING 297 0.974645
1414685843779 23877 READING 323 0.951345
1414685844297 23877 READING 311 0.960616
1414685844353 23876 READING 313 0.980277
1414685844787 23877 READING 320 0.959132
1414685844893 23876 READING 313 0.978230
1414685845002 23876 READING 312 0.876271
1414685845101 23876 READING 315 0.631997
1414685845148 23876 READING 308 0.716397
1414685845201 23876 READING 316 0.671861
1414685845250 23876 READING 317 0.653975
1414685845298 23876 READING 320 0.680958
1414685845346 23876 READING 321 0.683295
1414685845409 23877 READING 308 0.958019
1414685845638 23876 READING 322 0.110367
1414685845674 23876 READING 333 0.974148
1414685845710 23876 READING 334 0.979267
1414685845743 23876 READING 335 0.976912
1414685845774 23876 READING 335 0.976264
1414685845811 23876 READING 334 0.964300
1414685845935 23877 READING 318 0.969761
1414685846090 23876 READING 286 0.988891
1414685846392 23877 READING 306 0.974555
1414685846580 23876 READING 335 0.989022
1414685846877 23877 READING 317 0.964553
1414685847151 23876 READING 288 0.989027
1414685847419 23877 READING 305 0.969700
1414685847714 23876 READING 334 0.989357
1414685847923 23877 READING 316 0.978143
1414685848193 23876 READING 289 0.988456
1414685848225 23876 FUNCTION lru lambda h: 0.297967 * (h ** 0.184708)
1414685848225 23877 FUNCTION lru lambda h: 0.293672 * (h ** 0.190934)
1414685848225 23876 RECOMMEND 303
1414685848225 23877 RECOMMEND 303
1414685848492 23877 READING 305 0.970285
1414685848728 23876 READING 331 0.986232
1414685849291 23876 READING 294 0.985322
1414685849617 23877 READING 315 0.985820
1414685849997 23876 READING 329 0.986483
1414685850341 23877 READING 305 0.621915
1414685850610 23877 READING 306 0.989965
1414685850701 23877 READING 311 0.906142
1414685850738 23876 READING 299 0.986082
1414685850745 23877 READING 312 0.918741
1414685850798 23877 READING 289 0.845893
1414685850836 23877 READING 310 0.754564
1414685850874 23877 READING 312 0.779686
1414685850910 23877 READING 312 0.769271
1414685850948 23877 READING 313 0.736016
1414685850975 23877 READING 313 0.962793
1414685851003 23877 READING 313 0.971949
1414685851031 23877 READING 314 0.963727
1414685851060 23877 READING 279 0.933032
1414685851092 23877 READING 314 0.862995
1414685851123 23877 READING 279 0.887607
1414685851154 23877 READING 313 0.969408
1414685851188 23877 READING 280 0.955933
1414685851247 23876 READING 326 0.983059
1414685851523 23877 READING 313 0.991131
1414685851861 23876 READING 304 0.986118
1414685851991 23877 READING 282 0.989218
1414685852475 23876 READING 321 0.975458
1414685852732 23877 READING 311 0.994311
1414685853152 23876 READING 307 0.984897
1414685853205 23877 READING 284 0.987684
1414685853721 23877 READING 310 0.991065
1414685853806 23876 READING 322 0.983771
1414685854486 23876 READING 322 0.983822
1414685854550 23877 READING 286 0.993101
1414685855065 23877 READING 308 0.985828
1414685855217 23876 READING 321 0.981187
1414685855588 23877 READING 290 0.988942
1414685855938 23876 READING 322 0.978792
1414685856245 23877 READING 306 0.985890
1414685856574 23876 READING 322 0.961290
1414685856806 23877 READING 293 0.982674
1414685857095 23876 READING 323 0.960367
1414685857283 23877 READING 304 0.985001
1414685857721 23876 READING 323 0.976694
1414685857742 23877 READING 304 0.982843
1414685858225 23876 FUNCTION lru lambda h: 0.288591 * (h ** 0.192639)
1414685858225 23877 FUNCTION lru lambda h: 0.232592 * (h ** 0.232007)
1414685858225 23876 RECOMMEND 303
1414685858225 23877 RECOMMEND 303
1414685858272 23876 READING 324 0.932630
1414685858272 23877 READING 304 0.942100
1414685858811 23877 READING 304 0.957978
1414685858812 23876 READING 324 0.948272
1414685859289 23877 READING 304 0.970907
1414685859347 23876 READING 325 0.952591
1414685859934 23877 READING 305 0.963055
1414685859947 23876 READING 324 0.950418
1414685860447 23877 READING 304 0.972163
1414685860493 23876 READING 325 0.960160
1414685860961 23877 READING 293 0.975206
1414685861108 23876 READING 324 0.964167
1414685861502 23877 READING 304 0.979976
1414685861646 23876 READING 324 0.959307
1414685862077 23877 READING 293 0.978987
1414685862259 23876 READING 323 0.965340
1414685862776 23876 READING 324 0.939090
1414685862847 23877 READING 303 0.650031
1414685863281 23876 READING 323 0.945300
1414685863409 23877 READING 300 0.992000
1414685863782 23876 READING 311 0.956961
1414685864015 23877 READING 303 0.989477
1414685864288 23876 READING 321 0.955869
1414685864557 23877 READING 303 0.985736
1414685864763 23876 READING 311 0.950126
1414685865257 23877 READING 298 0.986911
1414685865766 23876 READING 320 0.983796
1414685865966 23877 READING 302 0.986136
1414685866373 23876 READING 311 0.977133
1414685866470 23876 READING 318 0.876979
1414685866558 23876 READING 320 0.781059
1414685866637 23876 READING 322 0.717977
1414685866801 23877 READING 304 0.980331
1414685866925 23876 READING 322 0.124332
1414685866961 23876 READING 323 0.981253
1414685866995 23876 READING 325 0.979858
1414685867029 23876 READING 325 0.979313
1414685867068 23876 READING 327 0.976477
1414685867103 23876 READING 327 0.966603
1414685867138 23876 READING 327 0.976580
1414685867172 23876 READING 325 0.975510
1414685867206 23876 READING 282 0.973269
1414685867246 23876 READING 327 0.954541
1414685867404 23876 READING 285 0.985888
1414685867493 23877 READING 305 0.981996
1414685867980 23876 READING 326 0.992973
1414685868226 23876 FUNCTION lru lambda h: 0.293116 * (h ** 0.188779)
1414685868226 23877 FUNCTION lru lambda h: 0.175103 * (h ** 0.282966)
1414685868226 23876 RECOMMEND 303
1414685868226 23877 RECOMMEND 303
1414685868359 23877 READING 305 0.989184
1414685868675 23876 READING 287 0.993539
1414685868940 23877 READING 305 0.974881
1414685869261 23876 READING 323 0.986338
1414685869618 23877 READING 306 0.976639
1414685869987 23876 READING 292 0.991466
1414685870256 23877 READING 307 0.979653
1414685870557 23876 READING 321 0.986003
1414685870980 23877 READING 306 0.970254
1414685871146 23876 READING 297 0.976423
1414685871586 23877 READING 308 0.968327
1414685871816 23876 READING 320 0.979745
1414685872273 23877 READING 308 0.977086
1414685872518 23876 READING 302 0.980743
1414685873043 23876 READING 318 0.973081
1414685873136 23877 READING 310 0.973334
1414685873612 23876 READING 318 0.973222
1414685873722 23877 READING 312 0.969215
1414685873830 23877 READING 313 0.836991
1414685873901 23877 READING 313 0.776768
1414685873979 23877 READING 317 0.687894
1414685874020 23877 READING 310 0.664755
1414685874060 23877 READING 318 0.656793
1414685874098 23877 READING 319 0.592618
1414685874134 23877 READING 321 0.647690
1414685874165 23877 READING 318 0.741759
1414685874430 23877 READING 287 0.085345
1414685874430 23876 READING 317 0.971396
1414685874452 23877 READING 337 0.966281
1414685874475 23877 READING 338 0.965533
1414685874497 23877 READING 339 0.965387
1414685874520 23877 READING 289 0.967067
1414685874543 23877 READING 338 0.969911
1414685874567 23877 READING 290 0.964094
1414685874595 23877 READING 338 0.962014
1414685874621 23877 READING 291 0.959296
1414685874653 23877 READING 337 0.945749
1414685874909 23877 READING 295 0.986185
1414685875094 23876 READING 318 0.970106
1414685875303 23877 READING 335 0.991791
1414685875697 23876 READING 317 0.963214
1414685875709 23877 READING 296 0.986377
1414685876214 23877 READING 333 0.989331
1414685876243 23876 READING 318 0.968701
1414685876631 23877 READING 298 0.987439
1414685876877 23876 READING 319 0.976633
1414685877272 23877 READING 331 0.991703
1414685877454 23876 READING 320 0.962829
1414685877689 23877 READING 301 0.978189
1414685878109 23876 READING 320 0.964048
1414685878157 23877 READING 328 0.989205
1414685878226 23876 FUNCTION lru lambda h: 0.287567 * (h ** 0.193562)
1414685878226 23877 FUNCTION lru lambda h: 0.178311 * (h ** 0.278112)
1414685878226 23876 RECOMMEND 303
1414685878226 23877 RECOMMEND 303
1414685878659 23876 READING 321 0.960340
1414685878728 23877 READING 306 0.985481
1414685879161 23876 READING 321 0.954184
1414685879255 23877 READING 322 0.981989
1414685879698 23876 READING 322 0.958407
1414685879716 23877 READING 308 0.977682
1414685880150 23877 READING 322 0.974262
1414685880231 23876 READING 322 0.958163
1414685880777 23877 READING 310 0.981020
1414685880865 23876 READING 322 0.974744
1414685881393 23877 READING 322 0.985808
1414685881478 23876 READING 321 0.964098
1414685881886 23877 READING 322 0.972060
1414685882015 23876 READING 322 0.958177
1414685882357 23877 READING 322 0.969777
1414685882554 23876 READING 321 0.957463
1414685882839 23877 READING 322 0.968516
1414685883104 23876 READING 309 0.959491
1414685883413 23877 READING 323 0.966827
1414685883768 23876 READING 320 0.965166
1414685883866 23877 READING 323 0.976164
1414685884376 23876 READING 309 0.973196
1414685884529 23877 READING 324 0.977099
1414685885001 23876 READING 319 0.961703
1414685885037 23877 READING 313 0.976047
1414685885548 23877 READING 323 0.954143
1414685885548 23876 READING 309 0.946959
1414685886004 23877 READING 313 0.963481
1414685886159 23876 READING 317 0.962949
1414685886437 23877 READING 322 0.965325
1414685886963 23877 READING 311 0.973455
1414685887171 23876 READING 308 0.979168
1414685887431 23877 READING 319 0.971242
1414685887785 23876 READING 316 0.951064
1414685887899 23876 READING 317 0.770736
1414685887899 23877 READING 309 0.972467
1414685887971 23876 READING 316 0.782573
1414685888226 23876 FUNCTION lru lambda h: 0.28013 * (h ** 0.200092)
1414685888226 23877 FUNCTION lru lambda h: 0.175875 * (h ** 0.281339)
1414685888226 23876 RECOMMEND 303
1414685888226 23877 RECOMMEND 303
1414685888267 23876 READING 318 0.192204
1414685888306 23876 READING 311 0.918706
1414685888341 23876 READING 318 0.904866
1414685888372 23876 READING 320 0.972746
1414685888409 23876 READING 321 0.829344
1414685888446 23876 READING 322 0.816956
1414685888465 23877 READING 319 0.970890
1414685888485 23876 READING 322 0.793569
1414685888517 23876 READING 320 0.971852
1414685888551 23876 READING 278 0.973182
1414685888583 23876 READING 321 0.976795
1414685888615 23876 READING 279 0.971133
1414685888652 23876 READING 320 0.962339
1414685888871 23876 READING 282 0.986484
1414685888999 23877 READING 306 0.979853
1414685889367 23876 READING 318 0.987552
1414685889533 23877 READING 319 0.981603
1414685889941 23876 READING 283 0.989356
1414685890000 23877 READING 319 0.980636
1414685890403 23876 READING 316 0.986769
1414685890460 23877 READING 318 0.981275
1414685890936 23877 READING 318 0.987745
1414685890971 23876 READING 285 0.989197
1414685891431 23876 READING 314 0.984105
1414685891475 23877 READING 317 0.983886
1414685891925 23876 READING 289 0.979294
1414685892280 23877 READING 305 0.992144
1414685892592 23876 READING 312 0.985872
1414685892744 23877 READING 315 0.977286
1414685893078 23876 READING 294 0.979264
1414685893079 23877 READING 307 0.932357
1414685893401 23877 READING 315 0.960134
1414685893559 23876 READING 310 0.975142
1414685893725 23877 READING 307 0.951797
1414685894078 23876 READING 309 0.972517
1414685894490 23877 READING 313 0.968161
1414685894613 23876 READING 309 0.973902
1414685895085 23877 READING 314 0.979566
1414685895235 23876 READING 309 0.975762
1414685895788 23877 READING 315 0.691901
1414685895856 23877 READING 294 0.959992
1414685895921 23876 READING 309 0.978469
1414685895933 23877 READING 296 0.979332
1414685895987 23877 READING 295 0.865375
1414685896033 23877 READING 298 0.789052
1414685896068 23877 READING 300 0.894934
1414685896108 23877 READING 306 0.911289
1414685896148 23877 READING 306 0.911454
1414685896187 23877 READING 305 0.906522
1414685896224 23877 READING 283 0.974797
1414685896262 23877 READING 306 0.975651
1414685896303 23877 READING 284 0.982054
1414685896344 23877 READING 306 0.974872
1414685896387 23877 READING 285 0.967704
1414685896462 23876 READING 310 0.970231
1414685896811 23877 READING 306 0.991585
1414685896979 23876 READING 310 0.962851
1414685897474 23877 READING 287 0.991544
1414685897608 23876 READING 311 0.970198
1414685898088 23877 READING 304 0.988085
1414685898226 23876 FUNCTION lru lambda h: 0.231892 * (h ** 0.234203)
1414685898226 23877 FUNCTION lru lambda h: 0.173539 * (h ** 0.284725)
1414685898226 23876 RECOMMEND 303
1414685898226 23877 RECOMMEND 303
1414685898237 23876 READING 311 0.969303
1414685898651 23877 READING 289 0.989362
1414685898737 23876 READING 312 0.961592
1414685899345 23876 READING 313 0.967839
1414685899408 23877 READING 303 0.991912
1414685899871 23876 READING 313 0.961015
1414685900028 23877 READING 290 0.986105
1414685900343 23876 READING 314 0.968921
1414685900761 23877 READING 302 0.988987
1414685900851 23876 READING 314 0.966488
1414685901345 23877 READING 301 0.984396
1414685901551 23876 READING 315 0.967707
1414685901984 23877 READING 306 0.981597
1414685902311 23876 READING 302 0.973242
1414685902660 23877 READING 305 0.981999
1414685902820 23876 READING 314 0.960460
1414685903296 23876 READING 302 0.969688
1414685903420 23877 READING 305 0.983015
1414685903796 23876 READING 314 0.958938
1414685904196 23877 READING 306 0.981091
1414685904321 23876 READING 314 0.951124
1414685904977 23876 READING 312 0.966059
1414685904977 23877 READING 306 0.956952
1414685905542 23876 READING 300 0.961331
1414685905601 23877 READING 307 0.965622
1414685906030 23876 READING 312 0.975282
1414685906201 23877 READING 308 0.973620
1414685906641 23876 READING 298 0.968985
1414685906816 23877 READING 309 0.977077
1414685907125 23876 READING 311 0.963147
1414685907503 23877 READING 308 0.980696
1414685908211 23877 READING 297 0.977867
1414685908214 23876 READING 297 0.736274
1414685908226 23876 FUNCTION lru lambda h: 0.23164 * (h ** 0.234422)
1414685908227 23877 FUNCTION lru lambda h: 0.17302 * (h ** 0.285483)
1414685908227 23876 RECOMMEND 303
1414685908227 23877 RECOMMEND 303
1414685908773 23876 READING 317 0.974550
1414685909062 23877 READING 309 0.694146
1414685909208 23876 READING 310 0.973792
1414685909312 23876 READING 317 0.902132
1414685909366 23876 READING 306 0.789077
1414685909427 23876 READING 317 0.739448
1414685909475 23876 READING 317 0.706614
1414685909517 23876 READING 320 0.816089
1414685909690 23877 READING 304 0.982337
1414685909795 23876 READING 306 0.122370
1414685909829 23876 READING 319 0.977396
1414685909862 23876 READING 321 0.974561
1414685909895 23876 READING 321 0.972361
1414685909934 23876 READING 322 0.839959
1414685909967 23876 READING 321 0.975879
1414685910003 23876 READING 289 0.909246
1414685910043 23876 READING 321 0.964190
1414685910069 23876 DEATH 695
1414685910264 23877 READING 316 0.991547
1414685911089 23877 READING 303 0.992437
1414685911696 23877 READING 317 0.988447
1414685912438 23877 READING 307 0.990333
1414685913194 23877 READING 314 0.988741
1414685913979 23877 READING 315 0.988229
1414685914625 23877 READING 314 0.984510
1414685915186 23877 READING 315 0.981179
1414685915716 23877 READING 315 0.977468
1414685916705 23877 READING 316 0.986365
1414685917265 23877 READING 315 0.977888
1414685917388 23877 READING 318 0.885237
1414685917448 23877 READING 317 0.794450
1414685917515 23877 READING 322 0.739192
1414685917556 23877 READING 318 0.675195
1414685917600 23877 READING 326 0.691003
1414685917639 23877 READING 327 0.667613
1414685917674 23877 READING 302 0.756915
1414685917892 23877 READING 329 0.135285
1414685917925 23877 READING 344 0.972528
1414685917954 23877 READING 344 0.960384
1414685917987 23877 READING 297 0.967733
1414685918022 23877 READING 345 0.971049
1414685918057 23877 READING 298 0.967097
1414685918093 23877 READING 345 0.969863
1414685918129 23877 READING 299 0.956621
1414685918155 23877 DEATH 698
