economemd
    total memory: 3759 MB
    timer interval: 10 s
    timer start state: running
    utility model: root

    caches:
        lru

    force utility function validity: yes
    make recommendations: yes
    equal recommendations: no

    reading receiver name: vengerov
    command receiver name: vengerov

    dump file: economemd.dump.log
    log file: /home/callum/economics_memory_code/dynamic_sizing/data/output/timerComparisonMany_2014_10_15_12_35_15/sub22_timerComparisonSingle/sub3_timeBenchmarkDaemon/daemon_run01_log.txt
    log readings: yes
    log functions: yes

PyOptimiser: initialising...
PyOptimiser: initialised
ReadingThread: starting
TimerThread: starting
CommandThread: starting
Recommendation: no clients; no recommendation
Recommendation: no clients; no recommendation
Reading from 21404: heap size 9 MB, throughput 0.985432
Clients: 1
Client 21404 has a minimum heap size of 30 MB
Reading from 21403: heap size 9 MB, throughput 0.986832
Clients: 2
Client 21403 has a minimum heap size of 1223 MB
Reading from 21404: heap size 9 MB, throughput 0.982516
Reading from 21403: heap size 9 MB, throughput 0.980109
Reading from 21404: heap size 11 MB, throughput 0.981278
Reading from 21404: heap size 11 MB, throughput 0.96473
Reading from 21404: heap size 15 MB, throughput 0.946566
Reading from 21404: heap size 15 MB, throughput 0.908122
Reading from 21404: heap size 24 MB, throughput 0.885925
Reading from 21404: heap size 24 MB, throughput 0.875817
Reading from 21404: heap size 40 MB, throughput 0.893446
Reading from 21404: heap size 40 MB, throughput 0.893135
Reading from 21404: heap size 60 MB, throughput 0.930209
Reading from 21403: heap size 11 MB, throughput 0.976242
Reading from 21404: heap size 60 MB, throughput 0.935398
Reading from 21404: heap size 91 MB, throughput 0.948068
Reading from 21404: heap size 91 MB, throughput 0.924931
Reading from 21404: heap size 140 MB, throughput 0.953723
Reading from 21403: heap size 11 MB, throughput 0.98105
Reading from 21403: heap size 15 MB, throughput 0.926369
Reading from 21403: heap size 19 MB, throughput 0.929832
Reading from 21403: heap size 24 MB, throughput 0.859009
Reading from 21403: heap size 29 MB, throughput 0.641056
Reading from 21403: heap size 38 MB, throughput 0.659195
Reading from 21403: heap size 39 MB, throughput 0.658587
Reading from 21404: heap size 140 MB, throughput 0.965963
Reading from 21403: heap size 41 MB, throughput 0.285086
Reading from 21403: heap size 42 MB, throughput 0.799803
Reading from 21403: heap size 46 MB, throughput 0.586597
Reading from 21403: heap size 60 MB, throughput 0.852752
Reading from 21403: heap size 66 MB, throughput 0.878872
Reading from 21403: heap size 67 MB, throughput 0.544441
Reading from 21404: heap size 224 MB, throughput 0.879325
Reading from 21403: heap size 90 MB, throughput 0.742768
Reading from 21403: heap size 92 MB, throughput 0.644188
Reading from 21403: heap size 95 MB, throughput 0.673839
Reading from 21403: heap size 98 MB, throughput 0.349265
Reading from 21403: heap size 126 MB, throughput 0.682269
Reading from 21403: heap size 129 MB, throughput 0.758539
Reading from 21403: heap size 132 MB, throughput 0.804504
Reading from 21404: heap size 241 MB, throughput 0.993442
Reading from 21403: heap size 133 MB, throughput 0.72697
Reading from 21403: heap size 137 MB, throughput 0.514257
Reading from 21403: heap size 171 MB, throughput 0.689196
Reading from 21403: heap size 176 MB, throughput 0.66334
Reading from 21403: heap size 180 MB, throughput 0.601085
Reading from 21403: heap size 184 MB, throughput 0.605488
Reading from 21403: heap size 191 MB, throughput 0.54957
Reading from 21404: heap size 280 MB, throughput 0.981337
Reading from 21403: heap size 198 MB, throughput 0.371266
Reading from 21403: heap size 238 MB, throughput 0.551304
Reading from 21403: heap size 241 MB, throughput 0.640161
Reading from 21403: heap size 244 MB, throughput 0.241364
Reading from 21403: heap size 286 MB, throughput 0.723368
Reading from 21404: heap size 301 MB, throughput 0.953517
Reading from 21403: heap size 287 MB, throughput 0.664755
Reading from 21403: heap size 285 MB, throughput 0.737014
Reading from 21403: heap size 287 MB, throughput 0.614211
Reading from 21403: heap size 289 MB, throughput 0.596112
Reading from 21403: heap size 295 MB, throughput 0.597299
Reading from 21404: heap size 333 MB, throughput 0.969247
Reading from 21403: heap size 296 MB, throughput 0.600178
Reading from 21403: heap size 308 MB, throughput 0.543027
Reading from 21403: heap size 313 MB, throughput 0.429865
Reading from 21404: heap size 337 MB, throughput 0.980151
Reading from 21403: heap size 362 MB, throughput 0.488108
Reading from 21403: heap size 370 MB, throughput 0.507958
Reading from 21403: heap size 372 MB, throughput 0.223339
Reading from 21403: heap size 420 MB, throughput 0.498793
Reading from 21403: heap size 421 MB, throughput 0.581197
Reading from 21403: heap size 422 MB, throughput 0.619812
Reading from 21404: heap size 379 MB, throughput 0.984104
Numeric result:
Recommendation: 2 clients, utility 1.22554:
    h1: 2536 MB (U(h) = 0.914205*h^0.00802397)
    h2: 1223 MB (U(h) = 1.24992*h^0.001)
Recommendation: 2 clients, utility 1.22554:
    h1: 2536 MB (U(h) = 0.914205*h^0.00802397)
    h2: 1223 MB (U(h) = 1.24992*h^0.001)
Reading from 21403: heap size 422 MB, throughput 0.628317
Reading from 21403: heap size 423 MB, throughput 0.598234
Reading from 21403: heap size 430 MB, throughput 0.574941
Reading from 21403: heap size 433 MB, throughput 0.544152
Reading from 21403: heap size 443 MB, throughput 0.533313
Reading from 21403: heap size 450 MB, throughput 0.537035
Reading from 21403: heap size 460 MB, throughput 0.422023
Reading from 21404: heap size 382 MB, throughput 0.951282
Reading from 21403: heap size 466 MB, throughput 0.372226
Reading from 21403: heap size 524 MB, throughput 0.363024
Reading from 21403: heap size 528 MB, throughput 0.412533
Reading from 21404: heap size 439 MB, throughput 0.987209
Reading from 21403: heap size 530 MB, throughput 0.138486
Reading from 21403: heap size 585 MB, throughput 0.403822
Reading from 21403: heap size 590 MB, throughput 0.482882
Reading from 21403: heap size 580 MB, throughput 0.493165
Reading from 21403: heap size 585 MB, throughput 0.56422
Reading from 21404: heap size 438 MB, throughput 0.983903
Reading from 21403: heap size 577 MB, throughput 0.273274
Reading from 21403: heap size 646 MB, throughput 0.505622
Reading from 21403: heap size 640 MB, throughput 0.560067
Reading from 21403: heap size 645 MB, throughput 0.528244
Reading from 21403: heap size 645 MB, throughput 0.489989
Reading from 21404: heap size 476 MB, throughput 0.985087
Reading from 21403: heap size 648 MB, throughput 0.701972
Reading from 21403: heap size 652 MB, throughput 0.786221
Reading from 21404: heap size 477 MB, throughput 0.987286
Reading from 21403: heap size 661 MB, throughput 0.84723
Reading from 21403: heap size 660 MB, throughput 0.788995
Reading from 21403: heap size 681 MB, throughput 0.693109
Reading from 21404: heap size 513 MB, throughput 0.9823
Numeric result:
Recommendation: 2 clients, utility 1.16355:
    h1: 2536 MB (U(h) = 0.901992*h^0.0118774)
    h2: 1223 MB (U(h) = 1.16698*h^0.001)
Recommendation: 2 clients, utility 1.16355:
    h1: 2536 MB (U(h) = 0.901992*h^0.0118774)
    h2: 1223 MB (U(h) = 1.16698*h^0.001)
Reading from 21403: heap size 687 MB, throughput 0.488072
Reading from 21403: heap size 760 MB, throughput 0.463799
Reading from 21403: heap size 760 MB, throughput 0.42385
Reading from 21403: heap size 686 MB, throughput 0.403358
Reading from 21403: heap size 750 MB, throughput 0.402628
Reading from 21404: heap size 517 MB, throughput 0.988161
Reading from 21403: heap size 757 MB, throughput 0.13529
Reading from 21403: heap size 837 MB, throughput 0.681921
Reading from 21403: heap size 838 MB, throughput 0.6623
Reading from 21403: heap size 845 MB, throughput 0.655929
Reading from 21403: heap size 845 MB, throughput 0.638044
Reading from 21404: heap size 550 MB, throughput 0.988593
Reading from 21403: heap size 846 MB, throughput 0.789161
Reading from 21403: heap size 848 MB, throughput 0.393572
Reading from 21404: heap size 556 MB, throughput 0.988561
Reading from 21403: heap size 941 MB, throughput 0.686197
Reading from 21403: heap size 943 MB, throughput 0.71764
Reading from 21403: heap size 952 MB, throughput 0.882383
Reading from 21403: heap size 953 MB, throughput 0.899406
Reading from 21403: heap size 949 MB, throughput 0.912901
Reading from 21403: heap size 817 MB, throughput 0.883545
Reading from 21403: heap size 924 MB, throughput 0.844671
Reading from 21404: heap size 592 MB, throughput 0.991317
Reading from 21403: heap size 822 MB, throughput 0.79375
Reading from 21403: heap size 912 MB, throughput 0.814369
Reading from 21403: heap size 827 MB, throughput 0.829538
Reading from 21403: heap size 906 MB, throughput 0.845618
Reading from 21403: heap size 912 MB, throughput 0.850986
Reading from 21403: heap size 901 MB, throughput 0.849006
Reading from 21403: heap size 907 MB, throughput 0.849541
Reading from 21403: heap size 897 MB, throughput 0.869732
Reading from 21404: heap size 594 MB, throughput 0.989115
Reading from 21403: heap size 902 MB, throughput 0.94243
Numeric result:
Recommendation: 2 clients, utility 0.811771:
    h1: 2536 MB (U(h) = 0.895001*h^0.0139943)
    h2: 1223 MB (U(h) = 0.807019*h^0.001)
Recommendation: 2 clients, utility 0.811771:
    h1: 2536 MB (U(h) = 0.895001*h^0.0139943)
    h2: 1223 MB (U(h) = 0.807019*h^0.001)
Reading from 21404: heap size 618 MB, throughput 0.99021
Reading from 21403: heap size 900 MB, throughput 0.961744
Reading from 21403: heap size 903 MB, throughput 0.922426
Reading from 21403: heap size 908 MB, throughput 0.889943
Reading from 21403: heap size 908 MB, throughput 0.860166
Reading from 21403: heap size 912 MB, throughput 0.832459
Reading from 21403: heap size 913 MB, throughput 0.817731
Reading from 21403: heap size 917 MB, throughput 0.804093
Reading from 21404: heap size 621 MB, throughput 0.991503
Reading from 21403: heap size 918 MB, throughput 0.807492
Reading from 21403: heap size 921 MB, throughput 0.811978
Reading from 21403: heap size 922 MB, throughput 0.770733
Reading from 21403: heap size 926 MB, throughput 0.824236
Reading from 21403: heap size 927 MB, throughput 0.852777
Reading from 21403: heap size 932 MB, throughput 0.81446
Reading from 21403: heap size 933 MB, throughput 0.74719
Reading from 21404: heap size 642 MB, throughput 0.986176
Reading from 21403: heap size 918 MB, throughput 0.721154
Reading from 21403: heap size 1045 MB, throughput 0.542291
Reading from 21403: heap size 1042 MB, throughput 0.592829
Reading from 21403: heap size 1046 MB, throughput 0.634757
Reading from 21403: heap size 1047 MB, throughput 0.639263
Reading from 21404: heap size 645 MB, throughput 0.988739
Reading from 21403: heap size 1051 MB, throughput 0.672
Reading from 21403: heap size 1060 MB, throughput 0.701979
Reading from 21403: heap size 1061 MB, throughput 0.707206
Reading from 21403: heap size 1076 MB, throughput 0.675626
Reading from 21403: heap size 1077 MB, throughput 0.686038
Reading from 21403: heap size 1093 MB, throughput 0.787027
Reading from 21404: heap size 677 MB, throughput 0.989725
Numeric result:
Recommendation: 2 clients, utility 0.751291:
    h1: 385.68 MB (U(h) = 0.891625*h^0.0149797)
    h2: 3373.32 MB (U(h) = 0.265819*h^0.131035)
Recommendation: 2 clients, utility 0.751291:
    h1: 385.636 MB (U(h) = 0.891625*h^0.0149797)
    h2: 3373.36 MB (U(h) = 0.265819*h^0.131035)
Reading from 21404: heap size 679 MB, throughput 0.988338
Reading from 21403: heap size 1095 MB, throughput 0.948872
Reading from 21404: heap size 625 MB, throughput 0.988384
Reading from 21403: heap size 1115 MB, throughput 0.965914
Reading from 21404: heap size 587 MB, throughput 0.984254
Reading from 21404: heap size 540 MB, throughput 0.989692
Reading from 21403: heap size 1117 MB, throughput 0.970633
Reading from 21404: heap size 521 MB, throughput 0.989876
Reading from 21404: heap size 489 MB, throughput 0.99225
Numeric result:
Recommendation: 2 clients, utility 0.80665:
    h1: 325.144 MB (U(h) = 0.889534*h^0.0156449)
    h2: 3433.86 MB (U(h) = 0.215754*h^0.165243)
Recommendation: 2 clients, utility 0.80665:
    h1: 325.115 MB (U(h) = 0.889534*h^0.0156449)
    h2: 3433.89 MB (U(h) = 0.215754*h^0.165243)
Reading from 21403: heap size 1124 MB, throughput 0.973391
Reading from 21404: heap size 462 MB, throughput 0.99258
Reading from 21404: heap size 439 MB, throughput 0.992869
Reading from 21403: heap size 1127 MB, throughput 0.970424
Reading from 21404: heap size 416 MB, throughput 0.98986
Reading from 21404: heap size 400 MB, throughput 0.988432
Reading from 21404: heap size 384 MB, throughput 0.989748
Reading from 21403: heap size 1122 MB, throughput 0.971041
Reading from 21404: heap size 365 MB, throughput 0.98503
Reading from 21404: heap size 360 MB, throughput 0.986011
Reading from 21404: heap size 337 MB, throughput 0.984408
Numeric result:
Recommendation: 2 clients, utility 0.93137:
    h1: 229.886 MB (U(h) = 0.888674*h^0.016135)
    h2: 3529.11 MB (U(h) = 0.126939*h^0.247679)
Recommendation: 2 clients, utility 0.93137:
    h1: 229.903 MB (U(h) = 0.888674*h^0.016135)
    h2: 3529.1 MB (U(h) = 0.126939*h^0.247679)
Reading from 21403: heap size 1128 MB, throughput 0.971504
Reading from 21404: heap size 329 MB, throughput 0.984753
Reading from 21404: heap size 312 MB, throughput 0.989587
Reading from 21404: heap size 297 MB, throughput 0.992278
Reading from 21404: heap size 277 MB, throughput 0.989681
Reading from 21404: heap size 274 MB, throughput 0.989294
Reading from 21403: heap size 1127 MB, throughput 0.18151
Reading from 21404: heap size 267 MB, throughput 0.988892
Reading from 21404: heap size 254 MB, throughput 0.982804
Reading from 21404: heap size 249 MB, throughput 0.983287
Reading from 21404: heap size 239 MB, throughput 0.985086
Reading from 21404: heap size 235 MB, throughput 0.987927
Reading from 21403: heap size 1130 MB, throughput 0.166071
Reading from 21404: heap size 224 MB, throughput 0.988446
Reading from 21404: heap size 233 MB, throughput 0.980119
Reading from 21404: heap size 233 MB, throughput 0.982151
Reading from 21404: heap size 220 MB, throughput 0.984982
Reading from 21404: heap size 230 MB, throughput 0.987608
Numeric result:
Recommendation: 2 clients, utility 0.919235:
    h1: 221.32 MB (U(h) = 0.894753*h^0.0157273)
    h2: 3537.68 MB (U(h) = 0.12098*h^0.251394)
Recommendation: 2 clients, utility 0.919235:
    h1: 221.318 MB (U(h) = 0.894753*h^0.0157273)
    h2: 3537.68 MB (U(h) = 0.12098*h^0.251394)
Reading from 21403: heap size 1134 MB, throughput 0.973767
Reading from 21404: heap size 223 MB, throughput 0.980013
Reading from 21404: heap size 220 MB, throughput 0.979749
Reading from 21404: heap size 230 MB, throughput 0.985385
Reading from 21404: heap size 221 MB, throughput 0.980151
Reading from 21404: heap size 215 MB, throughput 0.978811
Reading from 21404: heap size 226 MB, throughput 0.978998
Reading from 21404: heap size 222 MB, throughput 0.961545
Reading from 21403: heap size 1136 MB, throughput 0.969984
Reading from 21404: heap size 214 MB, throughput 0.976899
Reading from 21404: heap size 227 MB, throughput 0.982568
Reading from 21404: heap size 220 MB, throughput 0.978253
Reading from 21404: heap size 233 MB, throughput 0.978797
Reading from 21404: heap size 230 MB, throughput 0.927959
Reading from 21403: heap size 1140 MB, throughput 0.971586
Reading from 21404: heap size 216 MB, throughput 0.832103
Reading from 21404: heap size 227 MB, throughput 0.872232
Reading from 21404: heap size 220 MB, throughput 0.931105
Reading from 21404: heap size 230 MB, throughput 0.960006
Reading from 21404: heap size 225 MB, throughput 0.950051
Numeric result:
Recommendation: 2 clients, utility 1.05073:
    h1: 178.116 MB (U(h) = 0.886274*h^0.0166602)
    h2: 3580.88 MB (U(h) = 0.0701483*h^0.33495)
Recommendation: 2 clients, utility 1.05073:
    h1: 178.111 MB (U(h) = 0.886274*h^0.0166602)
    h2: 3580.89 MB (U(h) = 0.0701483*h^0.33495)
Reading from 21404: heap size 226 MB, throughput 0.98613
Reading from 21403: heap size 1143 MB, throughput 0.972295
Reading from 21404: heap size 206 MB, throughput 0.986993
Reading from 21404: heap size 194 MB, throughput 0.992034
Reading from 21404: heap size 198 MB, throughput 0.992982
Reading from 21404: heap size 187 MB, throughput 0.984964
Reading from 21404: heap size 193 MB, throughput 0.985382
Reading from 21404: heap size 184 MB, throughput 0.981304
Reading from 21404: heap size 184 MB, throughput 0.981311
Reading from 21403: heap size 1148 MB, throughput 0.972344
Reading from 21404: heap size 176 MB, throughput 0.982674
Reading from 21404: heap size 184 MB, throughput 0.975095
Reading from 21404: heap size 176 MB, throughput 0.974153
Reading from 21404: heap size 181 MB, throughput 0.978338
Reading from 21404: heap size 170 MB, throughput 0.9805
Reading from 21404: heap size 178 MB, throughput 0.980554
Reading from 21404: heap size 165 MB, throughput 0.981752
Reading from 21404: heap size 175 MB, throughput 0.983703
Reading from 21403: heap size 1152 MB, throughput 0.971332
Reading from 21404: heap size 174 MB, throughput 0.986354
Reading from 21404: heap size 181 MB, throughput 0.97982
Reading from 21404: heap size 173 MB, throughput 0.980151
Reading from 21404: heap size 178 MB, throughput 0.984329
Reading from 21404: heap size 168 MB, throughput 0.982889
Reading from 21404: heap size 174 MB, throughput 0.975973
Reading from 21404: heap size 174 MB, throughput 0.979426
Numeric result:
Recommendation: 2 clients, utility 1.16432:
    h1: 140.496 MB (U(h) = 0.895883*h^0.0153)
    h2: 3618.5 MB (U(h) = 0.0477218*h^0.394052)
Recommendation: 2 clients, utility 1.16432:
    h1: 140.497 MB (U(h) = 0.895883*h^0.0153)
    h2: 3618.5 MB (U(h) = 0.0477218*h^0.394052)
Reading from 21404: heap size 182 MB, throughput 0.975758
Reading from 21403: heap size 1155 MB, throughput 0.970498
Reading from 21404: heap size 175 MB, throughput 0.951864
Reading from 21404: heap size 170 MB, throughput 0.964459
Reading from 21404: heap size 165 MB, throughput 0.975478
Reading from 21404: heap size 159 MB, throughput 0.978536
Reading from 21404: heap size 157 MB, throughput 0.980099
Reading from 21404: heap size 153 MB, throughput 0.979311
Reading from 21404: heap size 150 MB, throughput 0.980007
Reading from 21404: heap size 148 MB, throughput 0.971102
Reading from 21404: heap size 146 MB, throughput 0.966821
Reading from 21404: heap size 143 MB, throughput 0.970778
Reading from 21403: heap size 1161 MB, throughput 0.967901
Reading from 21404: heap size 138 MB, throughput 0.975656
Reading from 21404: heap size 144 MB, throughput 0.975145
Reading from 21404: heap size 141 MB, throughput 0.978155
Reading from 21404: heap size 137 MB, throughput 0.978065
Reading from 21404: heap size 140 MB, throughput 0.97736
Reading from 21404: heap size 147 MB, throughput 0.981121
Reading from 21404: heap size 140 MB, throughput 0.969568
Reading from 21404: heap size 140 MB, throughput 0.979279
Reading from 21404: heap size 127 MB, throughput 0.964882
Reading from 21404: heap size 141 MB, throughput 0.975104
Reading from 21404: heap size 134 MB, throughput 0.97763
Reading from 21403: heap size 1166 MB, throughput 0.968998
Reading from 21404: heap size 139 MB, throughput 0.976213
Reading from 21404: heap size 139 MB, throughput 0.97735
Reading from 21404: heap size 146 MB, throughput 0.975667
Reading from 21404: heap size 138 MB, throughput 0.978397
Reading from 21404: heap size 145 MB, throughput 0.976512
Reading from 21404: heap size 138 MB, throughput 0.980953
Reading from 21404: heap size 141 MB, throughput 0.985229
Reading from 21404: heap size 127 MB, throughput 0.969271
Reading from 21404: heap size 140 MB, throughput 0.974042
Reading from 21404: heap size 134 MB, throughput 0.977802
Numeric result:
Recommendation: 2 clients, utility 1.23091:
    h1: 121.246 MB (U(h) = 0.902955*h^0.0141424)
    h2: 3637.75 MB (U(h) = 0.0392885*h^0.424291)
Recommendation: 2 clients, utility 1.23091:
    h1: 121.253 MB (U(h) = 0.902955*h^0.0141424)
    h2: 3637.75 MB (U(h) = 0.0392885*h^0.424291)
Reading from 21404: heap size 139 MB, throughput 0.959353
Reading from 21404: heap size 134 MB, throughput 0.97031
Reading from 21404: heap size 133 MB, throughput 0.969188
Reading from 21403: heap size 1170 MB, throughput 0.968779
Reading from 21404: heap size 126 MB, throughput 0.972835
Reading from 21404: heap size 127 MB, throughput 0.976172
Reading from 21404: heap size 123 MB, throughput 0.98453
Reading from 21404: heap size 123 MB, throughput 0.984531
Reading from 21404: heap size 123 MB, throughput 0.847237
Reading from 21404: heap size 124 MB, throughput 0.769631
Reading from 21404: heap size 119 MB, throughput 0.964945
Reading from 21404: heap size 124 MB, throughput 0.966863
Reading from 21404: heap size 112 MB, throughput 0.946532
Reading from 21404: heap size 123 MB, throughput 0.956678
Reading from 21404: heap size 117 MB, throughput 0.95902
Reading from 21404: heap size 122 MB, throughput 0.970938
Reading from 21404: heap size 115 MB, throughput 0.95573
Reading from 21404: heap size 119 MB, throughput 0.972141
Reading from 21404: heap size 128 MB, throughput 0.358169
Reading from 21404: heap size 120 MB, throughput 0.981703
Reading from 21404: heap size 129 MB, throughput 0.987186
Reading from 21404: heap size 120 MB, throughput 0.985407
Reading from 21404: heap size 129 MB, throughput 0.986676
Reading from 21403: heap size 1174 MB, throughput 0.970245
Reading from 21404: heap size 120 MB, throughput 0.989758
Reading from 21404: heap size 128 MB, throughput 0.987489
Reading from 21404: heap size 118 MB, throughput 0.975554
Reading from 21404: heap size 125 MB, throughput 0.953402
Reading from 21404: heap size 119 MB, throughput 0.945764
Reading from 21404: heap size 117 MB, throughput 0.746293
Reading from 21404: heap size 122 MB, throughput 0.900343
Reading from 21404: heap size 105 MB, throughput 0.917902
Reading from 21404: heap size 123 MB, throughput 0.752659
Reading from 21404: heap size 104 MB, throughput 0.841586
Reading from 21404: heap size 121 MB, throughput 0.91785
Reading from 21404: heap size 105 MB, throughput 0.959321
Reading from 21404: heap size 120 MB, throughput 0.975564
Reading from 21404: heap size 119 MB, throughput 0.983928
Reading from 21404: heap size 122 MB, throughput 0.988324
Reading from 21404: heap size 113 MB, throughput 0.987532
Reading from 21404: heap size 121 MB, throughput 0.88396
Reading from 21403: heap size 1176 MB, throughput 0.968314
Reading from 21404: heap size 120 MB, throughput 0.876481
Reading from 21404: heap size 131 MB, throughput 0.894017
Reading from 21404: heap size 130 MB, throughput 0.6229
Reading from 21404: heap size 128 MB, throughput 0.956043
Reading from 21404: heap size 121 MB, throughput 0.841948
Reading from 21404: heap size 129 MB, throughput 0.896383
Reading from 21404: heap size 113 MB, throughput 0.944894
Reading from 21404: heap size 129 MB, throughput 0.974787
Numeric result:
Recommendation: 2 clients, utility 1.42328:
    h1: 265.493 MB (U(h) = 0.77295*h^0.0406208)
    h2: 3493.51 MB (U(h) = 0.018747*h^0.534462)
Recommendation: 2 clients, utility 1.42328:
    h1: 265.516 MB (U(h) = 0.77295*h^0.0406208)
    h2: 3493.48 MB (U(h) = 0.018747*h^0.534462)
Reading from 21404: heap size 112 MB, throughput 0.98603
Reading from 21404: heap size 127 MB, throughput 0.988906
Reading from 21404: heap size 126 MB, throughput 0.987396
Reading from 21404: heap size 128 MB, throughput 0.974574
Reading from 21404: heap size 129 MB, throughput 0.959967
Reading from 21404: heap size 135 MB, throughput 0.953223
Reading from 21404: heap size 137 MB, throughput 0.957049
Reading from 21403: heap size 1181 MB, throughput 0.968661
Reading from 21404: heap size 147 MB, throughput 0.9569
Reading from 21404: heap size 148 MB, throughput 0.958215
Reading from 21404: heap size 158 MB, throughput 0.978969
Reading from 21404: heap size 158 MB, throughput 0.97897
Reading from 21404: heap size 158 MB, throughput 0.953752
Reading from 21404: heap size 158 MB, throughput 0.95891
Reading from 21404: heap size 164 MB, throughput 0.966582
Reading from 21404: heap size 165 MB, throughput 0.908802
Reading from 21404: heap size 173 MB, throughput 0.930253
Reading from 21404: heap size 174 MB, throughput 0.550422
Reading from 21404: heap size 185 MB, throughput 0.778528
Reading from 21404: heap size 186 MB, throughput 0.958006
Reading from 21403: heap size 1182 MB, throughput 0.967528
Reading from 21404: heap size 199 MB, throughput 0.963215
Reading from 21404: heap size 201 MB, throughput 0.980852
Reading from 21404: heap size 206 MB, throughput 0.980394
Reading from 21404: heap size 208 MB, throughput 0.977514
Reading from 21404: heap size 219 MB, throughput 0.97959
Reading from 21404: heap size 221 MB, throughput 0.982446
Reading from 21404: heap size 234 MB, throughput 0.981856
Reading from 21403: heap size 1186 MB, throughput 0.969964
Reading from 21404: heap size 235 MB, throughput 0.978076
Numeric result:
Recommendation: 2 clients, utility 1.67302:
    h1: 260.041 MB (U(h) = 0.741278*h^0.0482338)
    h2: 3498.96 MB (U(h) = 0.00865265*h^0.648962)
Recommendation: 2 clients, utility 1.67302:
    h1: 260.057 MB (U(h) = 0.741278*h^0.0482338)
    h2: 3498.94 MB (U(h) = 0.00865265*h^0.648962)
Reading from 21404: heap size 247 MB, throughput 0.970989
Reading from 21404: heap size 249 MB, throughput 0.972054
Reading from 21404: heap size 266 MB, throughput 0.978074
Reading from 21404: heap size 248 MB, throughput 0.983303
Reading from 21404: heap size 260 MB, throughput 0.984323
Reading from 21404: heap size 243 MB, throughput 0.977617
Reading from 21404: heap size 252 MB, throughput 0.978334
Reading from 21404: heap size 252 MB, throughput 0.970791
Reading from 21403: heap size 1186 MB, throughput 0.940986
Reading from 21404: heap size 269 MB, throughput 0.950059
Reading from 21404: heap size 261 MB, throughput 0.95611
Reading from 21404: heap size 255 MB, throughput 0.97986
Reading from 21404: heap size 262 MB, throughput 0.978599
Reading from 21404: heap size 252 MB, throughput 0.979122
Reading from 21403: heap size 1284 MB, throughput 0.964172
Reading from 21404: heap size 272 MB, throughput 0.97645
Reading from 21404: heap size 267 MB, throughput 0.976468
Reading from 21404: heap size 260 MB, throughput 0.974232
Numeric result:
Recommendation: 2 clients, utility 1.77033:
    h1: 318.05 MB (U(h) = 0.686498*h^0.0632741)
    h2: 3440.95 MB (U(h) = 0.00679201*h^0.684562)
Recommendation: 2 clients, utility 1.77033:
    h1: 318.047 MB (U(h) = 0.686498*h^0.0632741)
    h2: 3440.95 MB (U(h) = 0.00679201*h^0.684562)
Reading from 21404: heap size 267 MB, throughput 0.973998
Reading from 21404: heap size 269 MB, throughput 0.96368
Reading from 21404: heap size 288 MB, throughput 0.971111
Reading from 21403: heap size 1284 MB, throughput 0.975638
Reading from 21404: heap size 289 MB, throughput 0.973593
Reading from 21404: heap size 303 MB, throughput 0.977345
Reading from 21404: heap size 306 MB, throughput 0.973846
Reading from 21404: heap size 326 MB, throughput 0.984205
Reading from 21403: heap size 1293 MB, throughput 0.979783
Reading from 21404: heap size 288 MB, throughput 0.98252
Reading from 21404: heap size 320 MB, throughput 0.988867
Reading from 21404: heap size 284 MB, throughput 0.986413
Reading from 21404: heap size 311 MB, throughput 0.982996
Reading from 21404: heap size 310 MB, throughput 0.985372
Reading from 21403: heap size 1297 MB, throughput 0.982587
Reading from 21404: heap size 327 MB, throughput 0.977822
Numeric result:
Recommendation: 2 clients, utility 1.87287:
    h1: 290.38 MB (U(h) = 0.694512*h^0.0609169)
    h2: 3468.62 MB (U(h) = 0.00506684*h^0.727666)
Recommendation: 2 clients, utility 1.87287:
    h1: 290.377 MB (U(h) = 0.694512*h^0.0609169)
    h2: 3468.62 MB (U(h) = 0.00506684*h^0.727666)
Reading from 21404: heap size 316 MB, throughput 0.979521
Reading from 21404: heap size 301 MB, throughput 0.983143
Reading from 21404: heap size 288 MB, throughput 0.980394
Reading from 21403: heap size 1299 MB, throughput 0.982057
Reading from 21404: heap size 305 MB, throughput 0.978637
Reading from 21404: heap size 283 MB, throughput 0.982451
Reading from 21404: heap size 296 MB, throughput 0.983126
Reading from 21404: heap size 276 MB, throughput 0.979641
Reading from 21404: heap size 287 MB, throughput 0.980889
Reading from 21403: heap size 1301 MB, throughput 0.98252
Reading from 21404: heap size 287 MB, throughput 0.967941
Reading from 21404: heap size 305 MB, throughput 0.980036
Reading from 21404: heap size 279 MB, throughput 0.976469
Reading from 21404: heap size 297 MB, throughput 0.982984
Reading from 21404: heap size 271 MB, throughput 0.986599
Numeric result:
Recommendation: 2 clients, utility 1.84859:
    h1: 305.742 MB (U(h) = 0.68746*h^0.0632167)
    h2: 3453.26 MB (U(h) = 0.00557351*h^0.714015)
Recommendation: 2 clients, utility 1.84859:
    h1: 305.741 MB (U(h) = 0.68746*h^0.0632167)
    h2: 3453.26 MB (U(h) = 0.00557351*h^0.714015)
Reading from 21403: heap size 1290 MB, throughput 0.981327
Reading from 21404: heap size 290 MB, throughput 0.988402
Reading from 21404: heap size 290 MB, throughput 0.977449
Reading from 21404: heap size 306 MB, throughput 0.983003
Reading from 21404: heap size 283 MB, throughput 0.988174
Reading from 21404: heap size 300 MB, throughput 0.983588
Reading from 21403: heap size 1211 MB, throughput 0.980923
Reading from 21404: heap size 299 MB, throughput 0.986557
Reading from 21404: heap size 315 MB, throughput 0.989708
Reading from 21404: heap size 290 MB, throughput 0.987799
Reading from 21404: heap size 308 MB, throughput 0.979623
Reading from 21404: heap size 292 MB, throughput 0.98381
Reading from 21403: heap size 1279 MB, throughput 0.976801
Reading from 21404: heap size 300 MB, throughput 0.987064
Reading from 21404: heap size 300 MB, throughput 0.984848
Reading from 21404: heap size 317 MB, throughput 0.986434
Numeric result:
Recommendation: 2 clients, utility 2.05972:
    h1: 275.8 MB (U(h) = 0.686258*h^0.0632764)
    h2: 3483.2 MB (U(h) = 0.00310621*h^0.799174)
Recommendation: 2 clients, utility 2.05972:
    h1: 275.791 MB (U(h) = 0.686258*h^0.0632764)
    h2: 3483.21 MB (U(h) = 0.00310621*h^0.799174)
Reading from 21404: heap size 294 MB, throughput 0.986493
Reading from 21404: heap size 288 MB, throughput 0.988525
Reading from 21403: heap size 1286 MB, throughput 0.977465
Reading from 21404: heap size 276 MB, throughput 0.991347
Reading from 21404: heap size 275 MB, throughput 0.987593
Reading from 21404: heap size 282 MB, throughput 0.988691
Reading from 21404: heap size 262 MB, throughput 0.989747
Reading from 21404: heap size 286 MB, throughput 0.984758
Reading from 21404: heap size 269 MB, throughput 0.984571
Reading from 21403: heap size 1284 MB, throughput 0.976077
Reading from 21404: heap size 279 MB, throughput 0.987732
Reading from 21404: heap size 261 MB, throughput 0.989006
Reading from 21404: heap size 284 MB, throughput 0.984264
Reading from 21404: heap size 272 MB, throughput 0.985754
Reading from 21404: heap size 281 MB, throughput 0.988441
Reading from 21403: heap size 1285 MB, throughput 0.974525
Reading from 21404: heap size 264 MB, throughput 0.988986
Numeric result:
Recommendation: 2 clients, utility 2.27253:
    h1: 266.996 MB (U(h) = 0.67229*h^0.0670522)
    h2: 3492 MB (U(h) = 0.00181624*h^0.876944)
Recommendation: 2 clients, utility 2.27253:
    h1: 267.002 MB (U(h) = 0.67229*h^0.0670522)
    h2: 3492 MB (U(h) = 0.00181624*h^0.876944)
Reading from 21404: heap size 284 MB, throughput 0.988262
Reading from 21404: heap size 269 MB, throughput 0.98771
Reading from 21404: heap size 260 MB, throughput 0.98871
Reading from 21404: heap size 269 MB, throughput 0.988616
Reading from 21404: heap size 262 MB, throughput 0.926839
Reading from 21403: heap size 1287 MB, throughput 0.973256
Reading from 21404: heap size 264 MB, throughput 0.932239
Reading from 21404: heap size 269 MB, throughput 0.952649
Reading from 21404: heap size 259 MB, throughput 0.967481
Reading from 21404: heap size 280 MB, throughput 0.949257
Reading from 21404: heap size 276 MB, throughput 0.779655
Reading from 21403: heap size 1290 MB, throughput 0.973042
Reading from 21404: heap size 272 MB, throughput 0.9094
Reading from 21404: heap size 261 MB, throughput 0.981361
Reading from 21404: heap size 272 MB, throughput 0.988143
Reading from 21404: heap size 242 MB, throughput 0.985233
Numeric result:
Recommendation: 2 clients, utility 2.37133:
    h1: 246.23 MB (U(h) = 0.680931*h^0.0640784)
    h2: 3512.77 MB (U(h) = 0.00140406*h^0.914153)
Recommendation: 2 clients, utility 2.37133:
    h1: 246.231 MB (U(h) = 0.680931*h^0.0640784)
    h2: 3512.77 MB (U(h) = 0.00140406*h^0.914153)
Reading from 21404: heap size 266 MB, throughput 0.98638
Reading from 21404: heap size 242 MB, throughput 0.987642
Reading from 21403: heap size 1294 MB, throughput 0.973308
Reading from 21404: heap size 270 MB, throughput 0.982985
Reading from 21404: heap size 249 MB, throughput 0.980014
Reading from 21404: heap size 239 MB, throughput 0.984766
Reading from 21404: heap size 254 MB, throughput 0.9859
Reading from 21404: heap size 223 MB, throughput 0.991175
Reading from 21404: heap size 248 MB, throughput 0.993528
Reading from 21403: heap size 1300 MB, throughput 0.97012
Reading from 21404: heap size 221 MB, throughput 0.987408
Reading from 21404: heap size 244 MB, throughput 0.98139
Reading from 21404: heap size 243 MB, throughput 0.984853
Reading from 21404: heap size 256 MB, throughput 0.988335
Reading from 21404: heap size 236 MB, throughput 0.790161
Reading from 21404: heap size 249 MB, throughput 0.971574
Reading from 21404: heap size 252 MB, throughput 0.961075
Reading from 21403: heap size 1306 MB, throughput 0.969343
Reading from 21404: heap size 253 MB, throughput 0.973823
Numeric result:
Recommendation: 2 clients, utility 3.36703:
    h1: 256.558 MB (U(h) = 0.645838*h^0.0731771)
    h2: 3502.44 MB (U(h) = 0.001*h^0.999)
Recommendation: 2 clients, utility 3.36703:
    h1: 256.555 MB (U(h) = 0.645838*h^0.0731771)
    h2: 3502.44 MB (U(h) = 0.001*h^0.999)
Reading from 21404: heap size 235 MB, throughput 0.985359
Reading from 21404: heap size 255 MB, throughput 0.98449
Reading from 21404: heap size 254 MB, throughput 0.979997
Reading from 21404: heap size 269 MB, throughput 0.983667
Reading from 21404: heap size 256 MB, throughput 0.984189
Reading from 21404: heap size 265 MB, throughput 0.523576
Reading from 21403: heap size 1312 MB, throughput 0.969684
Reading from 21404: heap size 249 MB, throughput 0.659055
Reading from 21404: heap size 261 MB, throughput 0.888245
Reading from 21404: heap size 242 MB, throughput 0.941293
Reading from 21404: heap size 256 MB, throughput 0.919523
Reading from 21404: heap size 255 MB, throughput 0.78267
Reading from 21404: heap size 270 MB, throughput 0.831564
Reading from 21404: heap size 257 MB, throughput 0.898969
Reading from 21403: heap size 1319 MB, throughput 0.966305
Reading from 21404: heap size 266 MB, throughput 0.97288
Reading from 21404: heap size 233 MB, throughput 0.96732
Reading from 21404: heap size 254 MB, throughput 0.971712
Reading from 21404: heap size 255 MB, throughput 0.97422
Reading from 21404: heap size 270 MB, throughput 0.949035
Numeric result:
Recommendation: 2 clients, utility 3.26009:
    h1: 217.691 MB (U(h) = 0.680022*h^0.0612709)
    h2: 3541.31 MB (U(h) = 0.001*h^0.996704)
Recommendation: 2 clients, utility 3.26009:
    h1: 217.696 MB (U(h) = 0.680022*h^0.0612709)
    h2: 3541.3 MB (U(h) = 0.001*h^0.996704)
Reading from 21404: heap size 251 MB, throughput 0.867695
Reading from 21404: heap size 249 MB, throughput 0.920817
Reading from 21404: heap size 232 MB, throughput 0.962632
Reading from 21404: heap size 236 MB, throughput 0.96837
Reading from 21404: heap size 232 MB, throughput 0.930755
Reading from 21404: heap size 231 MB, throughput 0.913835
Reading from 21404: heap size 217 MB, throughput 0.969624
Reading from 21404: heap size 230 MB, throughput 0.972429
Reading from 21404: heap size 209 MB, throughput 0.969997
Reading from 21404: heap size 225 MB, throughput 0.86073
Reading from 21404: heap size 202 MB, throughput 0.917542
Reading from 21404: heap size 223 MB, throughput 0.917161
Reading from 21404: heap size 198 MB, throughput 0.94987
Reading from 21404: heap size 218 MB, throughput 0.974489
Reading from 21404: heap size 199 MB, throughput 0.978168
Reading from 21404: heap size 212 MB, throughput 0.976163
Reading from 21404: heap size 213 MB, throughput 0.975177
Reading from 21404: heap size 227 MB, throughput 0.884804
Reading from 21404: heap size 206 MB, throughput 0.965403
Reading from 21404: heap size 228 MB, throughput 0.958798
Reading from 21404: heap size 205 MB, throughput 0.970228
Reading from 21404: heap size 225 MB, throughput 0.974656
Reading from 21404: heap size 212 MB, throughput 0.981699
Numeric result:
Recommendation: 2 clients, utility 3.315:
    h1: 106.623 MB (U(h) = 0.814041*h^0.029097)
    h2: 3652.38 MB (U(h) = 0.001*h^0.996704)
Recommendation: 2 clients, utility 3.315:
    h1: 106.625 MB (U(h) = 0.814041*h^0.029097)
    h2: 3652.38 MB (U(h) = 0.001*h^0.996704)
Reading from 21404: heap size 221 MB, throughput 0.982435
Reading from 21404: heap size 205 MB, throughput 0.981283
Reading from 21404: heap size 201 MB, throughput 0.96312
Reading from 21404: heap size 192 MB, throughput 0.973668
Reading from 21404: heap size 190 MB, throughput 0.969374
Reading from 21404: heap size 185 MB, throughput 0.96876
Reading from 21404: heap size 185 MB, throughput 0.962544
Reading from 21404: heap size 175 MB, throughput 0.864173
Reading from 21404: heap size 176 MB, throughput 0.904513
Reading from 21404: heap size 158 MB, throughput 0.939938
Reading from 21404: heap size 172 MB, throughput 0.961076
Reading from 21404: heap size 152 MB, throughput 0.976947
Reading from 21403: heap size 1322 MB, throughput 0.984735
Reading from 21404: heap size 167 MB, throughput 0.98702
Reading from 21404: heap size 151 MB, throughput 0.9847
Reading from 21404: heap size 159 MB, throughput 0.963744
Reading from 21404: heap size 161 MB, throughput 0.955632
Reading from 21404: heap size 160 MB, throughput 0.911165
Reading from 21404: heap size 146 MB, throughput 0.853217
Reading from 21404: heap size 154 MB, throughput 0.881696
Reading from 21404: heap size 139 MB, throughput 0.966955
Reading from 21404: heap size 149 MB, throughput 0.916477
Reading from 21404: heap size 133 MB, throughput 0.915065
Reading from 21404: heap size 145 MB, throughput 0.950078
Reading from 21404: heap size 129 MB, throughput 0.962786
Reading from 21404: heap size 141 MB, throughput 0.964382
Reading from 21404: heap size 128 MB, throughput 0.972119
Reading from 21404: heap size 136 MB, throughput 0.978293
Reading from 21404: heap size 127 MB, throughput 0.9515
Reading from 21404: heap size 135 MB, throughput 0.892832
Reading from 21404: heap size 130 MB, throughput 0.810505
Reading from 21404: heap size 135 MB, throughput 0.844857
Reading from 21404: heap size 121 MB, throughput 0.887317
Reading from 21404: heap size 132 MB, throughput 0.906104
Reading from 21404: heap size 120 MB, throughput 0.873586
Reading from 21404: heap size 129 MB, throughput 0.906668
Reading from 21404: heap size 116 MB, throughput 0.936979
Reading from 21404: heap size 127 MB, throughput 0.958027
Reading from 21404: heap size 116 MB, throughput 0.9681
Reading from 21404: heap size 125 MB, throughput 0.977202
Reading from 21404: heap size 115 MB, throughput 0.977341
Reading from 21404: heap size 123 MB, throughput 0.970337
Reading from 21404: heap size 113 MB, throughput 0.986592
Reading from 21404: heap size 121 MB, throughput 0.981936
Reading from 21404: heap size 116 MB, throughput 0.967243
Reading from 21404: heap size 120 MB, throughput 0.957338
Reading from 21404: heap size 114 MB, throughput 0.874137
Reading from 21404: heap size 117 MB, throughput 0.950546
Reading from 21404: heap size 112 MB, throughput 0.925682
Reading from 21404: heap size 119 MB, throughput 0.945196
Reading from 21404: heap size 109 MB, throughput 0.950404
Reading from 21404: heap size 117 MB, throughput 0.924365
Reading from 21404: heap size 109 MB, throughput 0.952347
Reading from 21404: heap size 115 MB, throughput 0.960596
Reading from 21404: heap size 108 MB, throughput 0.916201
Numeric result:
Recommendation: 2 clients, utility 3.28564:
    h1: 79.4183 MB (U(h) = 0.842526*h^0.0214893)
    h2: 3679.58 MB (U(h) = 0.001*h^0.995628)
Recommendation: 2 clients, utility 3.28564:
    h1: 79.4187 MB (U(h) = 0.842526*h^0.0214893)
    h2: 3679.58 MB (U(h) = 0.001*h^0.995628)
Reading from 21404: heap size 115 MB, throughput 0.873437
Reading from 21404: heap size 106 MB, throughput 0.930834
Reading from 21404: heap size 113 MB, throughput 0.95079
Reading from 21404: heap size 106 MB, throughput 0.965437
Reading from 21404: heap size 111 MB, throughput 0.972001
Reading from 21404: heap size 105 MB, throughput 0.976072
Reading from 21404: heap size 109 MB, throughput 0.987805
Reading from 21404: heap size 109 MB, throughput 0.987795
Reading from 21404: heap size 109 MB, throughput 0.959584
Reading from 21404: heap size 104 MB, throughput 0.980598
Reading from 21404: heap size 108 MB, throughput 0.981369
Reading from 21404: heap size 103 MB, throughput 0.970994
Reading from 21404: heap size 107 MB, throughput 0.958433
Reading from 21404: heap size 107 MB, throughput 0.988334
Reading from 21404: heap size 106 MB, throughput 0.958407
Reading from 21404: heap size 107 MB, throughput 0.896511
Reading from 21404: heap size 107 MB, throughput 0.924504
Reading from 21404: heap size 103 MB, throughput 0.946075
Reading from 21404: heap size 107 MB, throughput 0.899331
Reading from 21404: heap size 107 MB, throughput 0.7218
Reading from 21404: heap size 107 MB, throughput 0.952877
Reading from 21404: heap size 83 MB, throughput 0.90756
Reading from 21404: heap size 88 MB, throughput 0.949184
Reading from 21404: heap size 83 MB, throughput 0.954577
Reading from 21404: heap size 88 MB, throughput 0.937475
Reading from 21404: heap size 83 MB, throughput 0.951267
Reading from 21404: heap size 87 MB, throughput 0.966078
Reading from 21404: heap size 82 MB, throughput 0.975775
Reading from 21404: heap size 87 MB, throughput 0.948918
Reading from 21404: heap size 87 MB, throughput 0.902423
Reading from 21404: heap size 87 MB, throughput 0.940956
Reading from 21404: heap size 87 MB, throughput 0.963654
Reading from 21404: heap size 86 MB, throughput 0.968385
Reading from 21404: heap size 87 MB, throughput 0.98226
Reading from 21404: heap size 87 MB, throughput 0.98225
Reading from 21404: heap size 87 MB, throughput 0.941825
Reading from 21404: heap size 86 MB, throughput 0.977874
Reading from 21404: heap size 86 MB, throughput 0.977172
Reading from 21404: heap size 85 MB, throughput 0.978617
Reading from 21404: heap size 86 MB, throughput 0.982318
Reading from 21404: heap size 85 MB, throughput 0.982048
Reading from 21404: heap size 85 MB, throughput 0.979307
Reading from 21404: heap size 85 MB, throughput 0.990702
Reading from 21404: heap size 85 MB, throughput 0.990692
Reading from 21404: heap size 85 MB, throughput 0.950599
Reading from 21404: heap size 85 MB, throughput 0.98013
Reading from 21404: heap size 84 MB, throughput 0.98035
Reading from 21404: heap size 85 MB, throughput 0.977365
Reading from 21404: heap size 84 MB, throughput 0.967786
Reading from 21404: heap size 85 MB, throughput 0.965363
Reading from 21404: heap size 85 MB, throughput 0.9671
Reading from 21404: heap size 85 MB, throughput 0.926033
Reading from 21404: heap size 86 MB, throughput 0.838777
Reading from 21404: heap size 86 MB, throughput 0.745582
Reading from 21404: heap size 88 MB, throughput 0.757662
Reading from 21404: heap size 88 MB, throughput 0.883146
Reading from 21404: heap size 87 MB, throughput 0.933566
Reading from 21404: heap size 87 MB, throughput 0.9492
Reading from 21404: heap size 86 MB, throughput 0.951071
Reading from 21404: heap size 90 MB, throughput 0.964836
Reading from 21404: heap size 89 MB, throughput 0.969599
Reading from 21404: heap size 89 MB, throughput 0.977784
Reading from 21404: heap size 89 MB, throughput 0.944551
Reading from 21404: heap size 89 MB, throughput 0.889583
Reading from 21404: heap size 90 MB, throughput 0.927033
Reading from 21404: heap size 84 MB, throughput 0.954513
Reading from 21404: heap size 89 MB, throughput 0.962857
Reading from 21404: heap size 85 MB, throughput 0.971197
Reading from 21404: heap size 89 MB, throughput 0.975365
Reading from 21404: heap size 84 MB, throughput 0.979103
Reading from 21404: heap size 88 MB, throughput 0.981492
Reading from 21404: heap size 84 MB, throughput 0.984412
Reading from 21404: heap size 88 MB, throughput 0.983641
Reading from 21404: heap size 85 MB, throughput 0.981352
Reading from 21404: heap size 87 MB, throughput 0.978595
Reading from 21404: heap size 87 MB, throughput 0.982323
Reading from 21404: heap size 86 MB, throughput 0.974183
Reading from 21404: heap size 87 MB, throughput 0.987597
Reading from 21404: heap size 86 MB, throughput 0.962683
Reading from 21404: heap size 87 MB, throughput 0.962424
Reading from 21404: heap size 88 MB, throughput 0.929293
Reading from 21404: heap size 85 MB, throughput 0.934626
Reading from 21404: heap size 88 MB, throughput 0.913567
Reading from 21404: heap size 88 MB, throughput 0.744306
Reading from 21404: heap size 88 MB, throughput 0.700813
Reading from 21404: heap size 84 MB, throughput 0.762172
Reading from 21404: heap size 88 MB, throughput 0.888635
Reading from 21404: heap size 88 MB, throughput 0.930066
Reading from 21404: heap size 88 MB, throughput 0.939563
Reading from 21404: heap size 84 MB, throughput 0.94617
Reading from 21404: heap size 89 MB, throughput 0.962518
Reading from 21404: heap size 89 MB, throughput 0.961411
Reading from 21404: heap size 89 MB, throughput 0.972112
Reading from 21404: heap size 84 MB, throughput 0.953406
Reading from 21404: heap size 88 MB, throughput 0.895428
Reading from 21404: heap size 84 MB, throughput 0.908461
Reading from 21404: heap size 88 MB, throughput 0.954705
Reading from 21404: heap size 88 MB, throughput 0.963449
Reading from 21404: heap size 88 MB, throughput 0.959763
Reading from 21404: heap size 84 MB, throughput 0.958518
Reading from 21404: heap size 87 MB, throughput 0.967936
Reading from 21404: heap size 84 MB, throughput 0.973007
Reading from 21404: heap size 87 MB, throughput 0.975865
Reading from 21404: heap size 87 MB, throughput 0.97858
Reading from 21404: heap size 86 MB, throughput 0.981586
Reading from 21404: heap size 86 MB, throughput 0.981006
Reading from 21404: heap size 86 MB, throughput 0.979799
Reading from 21404: heap size 84 MB, throughput 0.982321
Reading from 21404: heap size 86 MB, throughput 0.9834
Reading from 21403: heap size 1305 MB, throughput 0.988358
Reading from 21404: heap size 86 MB, throughput 0.993609
Reading from 21404: heap size 86 MB, throughput 0.977182
Reading from 21404: heap size 86 MB, throughput 0.95665
Reading from 21404: heap size 86 MB, throughput 0.959484
Reading from 21404: heap size 87 MB, throughput 0.95307
Reading from 21404: heap size 87 MB, throughput 0.936837
Reading from 21404: heap size 88 MB, throughput 0.86028
Reading from 21404: heap size 87 MB, throughput 0.771204
Reading from 21404: heap size 88 MB, throughput 0.621063
Reading from 21404: heap size 89 MB, throughput 0.942486
Reading from 21404: heap size 89 MB, throughput 0.84089
Reading from 21404: heap size 88 MB, throughput 0.913258
Reading from 21404: heap size 88 MB, throughput 0.937971
Reading from 21404: heap size 87 MB, throughput 0.935303
Reading from 21404: heap size 82 MB, throughput 0.910053
Numeric result:
Recommendation: 2 clients, utility 2.35909:
    h1: 30 MB (U(h) = 0.966038*h^0.001)
    h2: 3729 MB (U(h) = 0.00196504*h^0.865973)
Recommendation: 2 clients, utility 2.35909:
    h1: 30 MB (U(h) = 0.966038*h^0.001)
    h2: 3729 MB (U(h) = 0.00196504*h^0.865973)
Reading from 21404: heap size 87 MB, throughput 0.952889
Reading from 21404: heap size 80 MB, throughput 0.967959
Reading from 21404: heap size 85 MB, throughput 0.974828
Reading from 21404: heap size 79 MB, throughput 0.956832
Reading from 21404: heap size 84 MB, throughput 0.866437
Reading from 21404: heap size 80 MB, throughput 0.873282
Reading from 21404: heap size 82 MB, throughput 0.934432
Reading from 21404: heap size 77 MB, throughput 0.96261
Reading from 21404: heap size 81 MB, throughput 0.964444
Reading from 21404: heap size 76 MB, throughput 0.962559
Reading from 21404: heap size 79 MB, throughput 0.961738
Reading from 21404: heap size 80 MB, throughput 0.962386
Reading from 21404: heap size 79 MB, throughput 0.965183
Reading from 21404: heap size 79 MB, throughput 0.968991
Reading from 21404: heap size 78 MB, throughput 0.966026
Reading from 21404: heap size 79 MB, throughput 0.970356
Reading from 21404: heap size 79 MB, throughput 0.97195
Reading from 21404: heap size 75 MB, throughput 0.977738
Reading from 21404: heap size 78 MB, throughput 0.979284
Reading from 21404: heap size 78 MB, throughput 0.976462
Reading from 21404: heap size 78 MB, throughput 0.972784
Reading from 21404: heap size 78 MB, throughput 0.963611
Reading from 21404: heap size 78 MB, throughput 0.97105
Reading from 21404: heap size 78 MB, throughput 0.971842
Reading from 21404: heap size 78 MB, throughput 0.956745
Reading from 21404: heap size 78 MB, throughput 0.953262
Reading from 21404: heap size 78 MB, throughput 0.985161
Reading from 21404: heap size 78 MB, throughput 0.972457
Reading from 21404: heap size 78 MB, throughput 0.915643
Reading from 21404: heap size 78 MB, throughput 0.933303
Reading from 21404: heap size 78 MB, throughput 0.947392
Reading from 21404: heap size 75 MB, throughput 0.939785
Reading from 21404: heap size 78 MB, throughput 0.953947
Reading from 21404: heap size 78 MB, throughput 0.953975
Reading from 21404: heap size 78 MB, throughput 0.859145
Reading from 21404: heap size 78 MB, throughput 0.739621
Reading from 21404: heap size 78 MB, throughput 0.703115
Reading from 21404: heap size 78 MB, throughput 0.942106
Reading from 21404: heap size 79 MB, throughput 0.770093
Reading from 21404: heap size 79 MB, throughput 0.892045
Reading from 21404: heap size 78 MB, throughput 0.916198
Reading from 21404: heap size 79 MB, throughput 0.924598
Reading from 21404: heap size 79 MB, throughput 0.956848
Reading from 21404: heap size 79 MB, throughput 0.932436
Reading from 21404: heap size 79 MB, throughput 0.90203
Reading from 21404: heap size 75 MB, throughput 0.933244
Reading from 21404: heap size 78 MB, throughput 0.951195
Reading from 21404: heap size 78 MB, throughput 0.943238
Reading from 21404: heap size 77 MB, throughput 0.947658
Reading from 21404: heap size 78 MB, throughput 0.962174
Reading from 21404: heap size 78 MB, throughput 0.952148
Reading from 21404: heap size 78 MB, throughput 0.893689
Reading from 21404: heap size 78 MB, throughput 0.830052
Reading from 21404: heap size 78 MB, throughput 0.879509
Reading from 21404: heap size 78 MB, throughput 0.924865
Reading from 21404: heap size 78 MB, throughput 0.951163
Reading from 21404: heap size 78 MB, throughput 0.9616
Reading from 21404: heap size 78 MB, throughput 0.957805
Reading from 21404: heap size 77 MB, throughput 0.947957
Reading from 21404: heap size 77 MB, throughput 0.947286
Reading from 21404: heap size 77 MB, throughput 0.936458
Reading from 21404: heap size 76 MB, throughput 0.95899
Reading from 21404: heap size 77 MB, throughput 0.960668
Reading from 21404: heap size 77 MB, throughput 0.968571
Reading from 21404: heap size 77 MB, throughput 0.969128
Reading from 21404: heap size 77 MB, throughput 0.962949
Reading from 21404: heap size 77 MB, throughput 0.967933
Reading from 21404: heap size 75 MB, throughput 0.975208
Reading from 21404: heap size 76 MB, throughput 0.974162
Reading from 21404: heap size 76 MB, throughput 0.971972
Reading from 21404: heap size 77 MB, throughput 0.973283
Reading from 21404: heap size 77 MB, throughput 0.967235
Reading from 21404: heap size 77 MB, throughput 0.975235
Reading from 21404: heap size 77 MB, throughput 0.970483
Reading from 21404: heap size 76 MB, throughput 0.947555
Reading from 21404: heap size 76 MB, throughput 0.980787
Reading from 21404: heap size 76 MB, throughput 0.944615
Reading from 21404: heap size 76 MB, throughput 0.89872
Reading from 21404: heap size 77 MB, throughput 0.911614
Reading from 21404: heap size 77 MB, throughput 0.937873
Reading from 21404: heap size 77 MB, throughput 0.948385
Reading from 21404: heap size 76 MB, throughput 0.931774
Reading from 21404: heap size 77 MB, throughput 0.948056
Reading from 21404: heap size 77 MB, throughput 0.939575
Reading from 21404: heap size 76 MB, throughput 0.795533
Reading from 21404: heap size 77 MB, throughput 0.943886
Reading from 21404: heap size 73 MB, throughput 0.718146
Reading from 21404: heap size 73 MB, throughput 0.566374
Reading from 21404: heap size 74 MB, throughput 0.672898
Reading from 21404: heap size 69 MB, throughput 0.85401
Reading from 21404: heap size 74 MB, throughput 0.91762
Reading from 21404: heap size 70 MB, throughput 0.920687
Reading from 21404: heap size 73 MB, throughput 0.948094
Reading from 21404: heap size 73 MB, throughput 0.930658
Reading from 21404: heap size 73 MB, throughput 0.875655
Reading from 21404: heap size 69 MB, throughput 0.918341
Reading from 21404: heap size 73 MB, throughput 0.95028
Reading from 21404: heap size 73 MB, throughput 0.954455
Reading from 21404: heap size 72 MB, throughput 0.952292
Reading from 21404: heap size 72 MB, throughput 0.95131
Reading from 21404: heap size 71 MB, throughput 0.961691
Reading from 21404: heap size 72 MB, throughput 0.964507
Reading from 21404: heap size 72 MB, throughput 0.911382
Reading from 21404: heap size 72 MB, throughput 0.792236
Reading from 21404: heap size 71 MB, throughput 0.851982
Reading from 21404: heap size 72 MB, throughput 0.917728
Reading from 21404: heap size 72 MB, throughput 0.954153
Reading from 21404: heap size 72 MB, throughput 0.967585
Reading from 21404: heap size 71 MB, throughput 0.961779
Reading from 21404: heap size 71 MB, throughput 0.914116
Reading from 21404: heap size 71 MB, throughput 0.931338
Reading from 21404: heap size 69 MB, throughput 0.934893
Reading from 21404: heap size 71 MB, throughput 0.945361
Reading from 21404: heap size 71 MB, throughput 0.943376
Reading from 21404: heap size 70 MB, throughput 0.960156
Reading from 21404: heap size 70 MB, throughput 0.944163
Reading from 21403: heap size 1330 MB, throughput 0.984709
Reading from 21404: heap size 70 MB, throughput 0.953485
Reading from 21404: heap size 70 MB, throughput 0.964219
Reading from 21404: heap size 70 MB, throughput 0.97129
Reading from 21404: heap size 70 MB, throughput 0.964507
Reading from 21404: heap size 70 MB, throughput 0.94738
Reading from 21404: heap size 69 MB, throughput 0.957136
Reading from 21404: heap size 70 MB, throughput 0.943027
Reading from 21404: heap size 70 MB, throughput 0.938317
Reading from 21404: heap size 70 MB, throughput 0.964715
Reading from 21404: heap size 70 MB, throughput 0.972589
Reading from 21404: heap size 70 MB, throughput 0.961395
Reading from 21404: heap size 70 MB, throughput 0.949004
Reading from 21404: heap size 70 MB, throughput 0.989926
Reading from 21404: heap size 70 MB, throughput 0.966741
Reading from 21404: heap size 70 MB, throughput 0.904897
Reading from 21404: heap size 70 MB, throughput 0.921783
Reading from 21404: heap size 60 MB, throughput 0.91123
Reading from 21404: heap size 60 MB, throughput 0.91126
Reading from 21404: heap size 60 MB, throughput 0.881519
Reading from 21404: heap size 61 MB, throughput 0.915112
Reading from 21403: heap size 1321 MB, throughput 0.971804
Reading from 21404: heap size 61 MB, throughput 0.923999
Reading from 21404: heap size 61 MB, throughput 0.939888
Reading from 21404: heap size 61 MB, throughput 0.93101
Reading from 21404: heap size 61 MB, throughput 0.707179
Reading from 21404: heap size 60 MB, throughput 0.520221
Reading from 21404: heap size 61 MB, throughput 0.441217
Reading from 21404: heap size 61 MB, throughput 0.508487
Reading from 21404: heap size 61 MB, throughput 0.528503
Reading from 21404: heap size 61 MB, throughput 0.749109
Reading from 21404: heap size 61 MB, throughput 0.867356
Reading from 21404: heap size 61 MB, throughput 0.904525
Reading from 21403: heap size 1355 MB, throughput 0.967919
Reading from 21404: heap size 58 MB, throughput 0.909973
Reading from 21404: heap size 61 MB, throughput 0.921136
Reading from 21404: heap size 61 MB, throughput 0.936798
Reading from 21404: heap size 60 MB, throughput 0.866603
Reading from 21404: heap size 60 MB, throughput 0.838065
Reading from 21404: heap size 60 MB, throughput 0.824695
Reading from 21403: heap size 1366 MB, throughput 0.960709
Reading from 21404: heap size 60 MB, throughput 0.916032
Reading from 21404: heap size 59 MB, throughput 0.923509
Reading from 21404: heap size 60 MB, throughput 0.906706
Reading from 21404: heap size 60 MB, throughput 0.910653
Reading from 21404: heap size 60 MB, throughput 0.897875
Reading from 21403: heap size 1371 MB, throughput 0.948883
Reading from 21404: heap size 59 MB, throughput 0.921764
Reading from 21404: heap size 59 MB, throughput 0.914577
Reading from 21404: heap size 59 MB, throughput 0.91128
Reading from 21404: heap size 59 MB, throughput 0.86629
Reading from 21404: heap size 58 MB, throughput 0.877157
Reading from 21404: heap size 59 MB, throughput 0.847781
Reading from 21403: heap size 1367 MB, throughput 0.931691
Reading from 21404: heap size 59 MB, throughput 0.931676
Reading from 21404: heap size 59 MB, throughput 0.955952
Reading from 21404: heap size 59 MB, throughput 0.966893
Reading from 21404: heap size 59 MB, throughput 0.953047
Reading from 21404: heap size 58 MB, throughput 0.951668
Reading from 21404: heap size 58 MB, throughput 0.928934
Reading from 21403: heap size 1372 MB, throughput 0.914887
Reading from 21404: heap size 58 MB, throughput 0.943948
Reading from 21404: heap size 58 MB, throughput 0.949315
Reading from 21404: heap size 58 MB, throughput 0.947352
Reading from 21404: heap size 57 MB, throughput 0.943319
Reading from 21404: heap size 58 MB, throughput 0.947365
Reading from 21404: heap size 58 MB, throughput 0.952168
Reading from 21404: heap size 58 MB, throughput 0.956241
Reading from 21404: heap size 58 MB, throughput 0.953112
Reading from 21403: heap size 1370 MB, throughput 0.901104
Reading from 21404: heap size 58 MB, throughput 0.955369
Reading from 21404: heap size 58 MB, throughput 0.965094
Reading from 21404: heap size 57 MB, throughput 0.971212
Reading from 21404: heap size 57 MB, throughput 0.974226
Reading from 21404: heap size 57 MB, throughput 0.967147
Reading from 21404: heap size 57 MB, throughput 0.964907
Reading from 21404: heap size 58 MB, throughput 0.940531
Reading from 21403: heap size 1376 MB, throughput 0.894377
Reading from 21404: heap size 58 MB, throughput 0.954405
Reading from 21404: heap size 58 MB, throughput 0.944974
Reading from 21404: heap size 58 MB, throughput 0.959639
Reading from 21404: heap size 58 MB, throughput 0.92595
Reading from 21404: heap size 58 MB, throughput 0.89815
Reading from 21404: heap size 58 MB, throughput 0.89261
Reading from 21404: heap size 58 MB, throughput 0.902947
Numeric result:
Recommendation: 2 clients, utility 2.05059:
    h1: 65.6438 MB (U(h) = 0.873685*h^0.0142531)
    h2: 3693.36 MB (U(h) = 0.00304628*h^0.801939)
Recommendation: 2 clients, utility 2.05059:
    h1: 65.6432 MB (U(h) = 0.873685*h^0.0142531)
    h2: 3693.36 MB (U(h) = 0.00304628*h^0.801939)
Reading from 21404: heap size 58 MB, throughput 0.990556
Reading from 21404: heap size 58 MB, throughput 0.972468
Reading from 21404: heap size 59 MB, throughput 0.917921
Reading from 21404: heap size 59 MB, throughput 0.911045
Reading from 21404: heap size 61 MB, throughput 0.942581
Reading from 21404: heap size 61 MB, throughput 0.96264
Reading from 21404: heap size 62 MB, throughput 0.967399
Reading from 21403: heap size 1376 MB, throughput 0.962901
Reading from 21404: heap size 63 MB, throughput 0.959962
Reading from 21404: heap size 65 MB, throughput 0.960844
Reading from 21404: heap size 65 MB, throughput 0.902016
Reading from 21404: heap size 66 MB, throughput 0.80491
Reading from 21404: heap size 67 MB, throughput 0.870794
Reading from 21404: heap size 67 MB, throughput 0.870857
Reading from 21404: heap size 67 MB, throughput 0.924518
Reading from 21404: heap size 81 MB, throughput 0.793684
Reading from 21404: heap size 84 MB, throughput 0.885504
Reading from 21404: heap size 83 MB, throughput 0.877431
Reading from 21404: heap size 83 MB, throughput 0.937154
Reading from 21404: heap size 82 MB, throughput 0.942242
Reading from 21404: heap size 83 MB, throughput 0.939095
Reading from 21404: heap size 82 MB, throughput 0.873215
Reading from 21404: heap size 82 MB, throughput 0.931323
Reading from 21404: heap size 81 MB, throughput 0.940001
Reading from 21404: heap size 77 MB, throughput 0.945038
Reading from 21404: heap size 81 MB, throughput 0.955268
Reading from 21404: heap size 77 MB, throughput 0.959788
Reading from 21404: heap size 81 MB, throughput 0.894443
Reading from 21404: heap size 81 MB, throughput 0.856904
Reading from 21404: heap size 80 MB, throughput 0.89519
Reading from 21404: heap size 81 MB, throughput 0.950227
Reading from 21404: heap size 81 MB, throughput 0.952184
Reading from 21404: heap size 76 MB, throughput 0.960672
Reading from 21404: heap size 80 MB, throughput 0.960177
Reading from 21404: heap size 77 MB, throughput 0.958771
Reading from 21404: heap size 80 MB, throughput 0.96484
Reading from 21404: heap size 77 MB, throughput 0.971697
Reading from 21404: heap size 79 MB, throughput 0.970924
Reading from 21404: heap size 79 MB, throughput 0.974397
Reading from 21404: heap size 78 MB, throughput 0.974471
Reading from 21404: heap size 79 MB, throughput 0.970705
Reading from 21404: heap size 79 MB, throughput 0.971841
Reading from 21404: heap size 79 MB, throughput 0.956485
Reading from 21404: heap size 79 MB, throughput 0.967091
Reading from 21404: heap size 79 MB, throughput 0.976427
Reading from 21404: heap size 79 MB, throughput 0.980504
Reading from 21404: heap size 79 MB, throughput 0.950351
Reading from 21404: heap size 79 MB, throughput 0.979189
Reading from 21404: heap size 79 MB, throughput 0.954635
Reading from 21404: heap size 78 MB, throughput 0.951937
Reading from 21404: heap size 79 MB, throughput 0.950507
Reading from 21404: heap size 79 MB, throughput 0.914511
Reading from 21404: heap size 80 MB, throughput 0.905259
Reading from 21404: heap size 80 MB, throughput 0.933889
Reading from 21404: heap size 76 MB, throughput 0.872619
Reading from 21404: heap size 79 MB, throughput 0.693485
Reading from 21404: heap size 79 MB, throughput 0.937983
Reading from 21404: heap size 78 MB, throughput 0.741865
Reading from 21404: heap size 78 MB, throughput 0.832019
Reading from 21404: heap size 78 MB, throughput 0.918711
Reading from 21404: heap size 78 MB, throughput 0.930086
Reading from 21404: heap size 78 MB, throughput 0.950321
Reading from 21404: heap size 73 MB, throughput 0.93458
Reading from 21404: heap size 78 MB, throughput 0.892893
Reading from 21404: heap size 78 MB, throughput 0.933847
Reading from 21404: heap size 77 MB, throughput 0.949685
Reading from 21404: heap size 77 MB, throughput 0.952375
Reading from 21404: heap size 77 MB, throughput 0.961541
Reading from 21404: heap size 74 MB, throughput 0.970664
Reading from 21404: heap size 77 MB, throughput 0.9607
Reading from 21404: heap size 77 MB, throughput 0.910307
Reading from 21404: heap size 76 MB, throughput 0.852282
Reading from 21403: heap size 1382 MB, throughput 0.988964
Reading from 21404: heap size 74 MB, throughput 0.859716
Reading from 21404: heap size 77 MB, throughput 0.928529
Reading from 21404: heap size 77 MB, throughput 0.943055
Reading from 21404: heap size 77 MB, throughput 0.952074
Reading from 21404: heap size 73 MB, throughput 0.945027
Reading from 21404: heap size 76 MB, throughput 0.933933
Reading from 21404: heap size 76 MB, throughput 0.946062
Reading from 21404: heap size 75 MB, throughput 0.961039
Reading from 21404: heap size 76 MB, throughput 0.968577
Reading from 21404: heap size 75 MB, throughput 0.97515
Reading from 21404: heap size 75 MB, throughput 0.972409
Reading from 21404: heap size 75 MB, throughput 0.972132
Reading from 21404: heap size 73 MB, throughput 0.976382
Reading from 21404: heap size 75 MB, throughput 0.977194
Reading from 21404: heap size 75 MB, throughput 0.975708
Reading from 21404: heap size 75 MB, throughput 0.9755
Reading from 21404: heap size 73 MB, throughput 0.969935
Reading from 21404: heap size 74 MB, throughput 0.960916
Reading from 21404: heap size 74 MB, throughput 0.973144
Reading from 21404: heap size 74 MB, throughput 0.979752
Reading from 21404: heap size 74 MB, throughput 0.973111
Reading from 21404: heap size 74 MB, throughput 0.991219
Reading from 21404: heap size 74 MB, throughput 0.976479
Reading from 21404: heap size 74 MB, throughput 0.945969
Reading from 21404: heap size 74 MB, throughput 0.947147
Reading from 21404: heap size 75 MB, throughput 0.943476
Reading from 21404: heap size 75 MB, throughput 0.937921
Reading from 21404: heap size 75 MB, throughput 0.934533
Reading from 21404: heap size 76 MB, throughput 0.927613
Reading from 21404: heap size 76 MB, throughput 0.850603
Reading from 21404: heap size 72 MB, throughput 0.821856
Reading from 21404: heap size 75 MB, throughput 0.743348
Reading from 21404: heap size 76 MB, throughput 0.692763
Reading from 21404: heap size 76 MB, throughput 0.940634
Reading from 21404: heap size 70 MB, throughput 0.76713
Reading from 21404: heap size 75 MB, throughput 0.865604
Reading from 21404: heap size 75 MB, throughput 0.922829
Reading from 21404: heap size 75 MB, throughput 0.935889
Reading from 21404: heap size 67 MB, throughput 0.926262
Reading from 21404: heap size 75 MB, throughput 0.924378
Reading from 21404: heap size 67 MB, throughput 0.96022
Reading from 21404: heap size 74 MB, throughput 0.927285
Reading from 21404: heap size 68 MB, throughput 0.846339
Reading from 21404: heap size 73 MB, throughput 0.868957
Reading from 21404: heap size 73 MB, throughput 0.929683
Reading from 21404: heap size 72 MB, throughput 0.947338
Reading from 21404: heap size 67 MB, throughput 0.941071
Reading from 21404: heap size 72 MB, throughput 0.951938
Reading from 21404: heap size 67 MB, throughput 0.950164
Reading from 21404: heap size 72 MB, throughput 0.960006
Reading from 21404: heap size 67 MB, throughput 0.95006
Reading from 21404: heap size 70 MB, throughput 0.879421
Reading from 21404: heap size 71 MB, throughput 0.766081
Reading from 21404: heap size 71 MB, throughput 0.831413
Reading from 21404: heap size 71 MB, throughput 0.894141
Reading from 21404: heap size 71 MB, throughput 0.934766
Reading from 21404: heap size 67 MB, throughput 0.961185
Reading from 21404: heap size 70 MB, throughput 0.969002
Reading from 21404: heap size 67 MB, throughput 0.955178
Reading from 21404: heap size 70 MB, throughput 0.956886
Reading from 21404: heap size 70 MB, throughput 0.940025
Reading from 21404: heap size 69 MB, throughput 0.943082
Reading from 21404: heap size 69 MB, throughput 0.971002
Reading from 21404: heap size 69 MB, throughput 0.971014
Reading from 21404: heap size 69 MB, throughput 0.866486
Reading from 21404: heap size 69 MB, throughput 0.667227
Reading from 21404: heap size 69 MB, throughput 0.938049
Reading from 21404: heap size 68 MB, throughput 0.934159
Reading from 21404: heap size 69 MB, throughput 0.945705
Reading from 21404: heap size 69 MB, throughput 0.948904
Reading from 21404: heap size 67 MB, throughput 0.958152
Reading from 21404: heap size 68 MB, throughput 0.965781
Reading from 21404: heap size 68 MB, throughput 0.958134
Reading from 21404: heap size 68 MB, throughput 0.958487
Reading from 21404: heap size 68 MB, throughput 0.968338
Reading from 21404: heap size 68 MB, throughput 0.969967
Reading from 21404: heap size 68 MB, throughput 0.967065
Reading from 21404: heap size 68 MB, throughput 0.940525
Reading from 21404: heap size 67 MB, throughput 0.93136
Reading from 21404: heap size 68 MB, throughput 0.940757
Reading from 21404: heap size 68 MB, throughput 0.911272
Reading from 21404: heap size 67 MB, throughput 0.912827
Reading from 21404: heap size 66 MB, throughput 0.893939
Reading from 21404: heap size 67 MB, throughput 0.884819
Reading from 21404: heap size 67 MB, throughput 0.864646
Reading from 21404: heap size 67 MB, throughput 0.951146
Reading from 21403: heap size 1404 MB, throughput 0.991151
Reading from 21404: heap size 66 MB, throughput 0.985344
Reading from 21404: heap size 66 MB, throughput 0.944139
Reading from 21404: heap size 67 MB, throughput 0.955359
Reading from 21404: heap size 49 MB, throughput 0.961706
Reading from 21404: heap size 49 MB, throughput 0.964244
Reading from 21404: heap size 51 MB, throughput 0.974156
Reading from 21404: heap size 51 MB, throughput 0.984527
Reading from 21404: heap size 51 MB, throughput 0.984511
Reading from 21404: heap size 51 MB, throughput 0.925503
Reading from 21404: heap size 53 MB, throughput 0.954892
Reading from 21404: heap size 53 MB, throughput 0.964736
Reading from 21404: heap size 55 MB, throughput 0.963302
Reading from 21404: heap size 55 MB, throughput 0.870839
Reading from 21404: heap size 55 MB, throughput 0.78948
Reading from 21404: heap size 57 MB, throughput 0.731487
Reading from 21404: heap size 61 MB, throughput 0.767271
Reading from 21404: heap size 61 MB, throughput 0.88892
Reading from 21404: heap size 65 MB, throughput 0.948622
Reading from 21404: heap size 65 MB, throughput 0.960352
Reading from 21404: heap size 68 MB, throughput 0.956044
Numeric result:
Recommendation: 2 clients, utility 2.31932:
    h1: 94.9153 MB (U(h) = 0.837356*h^0.0235462)
    h2: 3664.08 MB (U(h) = 0.00143327*h^0.908978)
Recommendation: 2 clients, utility 2.31932:
    h1: 94.9145 MB (U(h) = 0.837356*h^0.0235462)
    h2: 3664.09 MB (U(h) = 0.00143327*h^0.908978)
Reading from 21404: heap size 65 MB, throughput 0.955195
Reading from 21404: heap size 68 MB, throughput 0.971435
Reading from 21404: heap size 68 MB, throughput 0.977231
Reading from 21404: heap size 71 MB, throughput 0.965037
Reading from 21404: heap size 71 MB, throughput 0.928593
Reading from 21404: heap size 88 MB, throughput 0.980228
Reading from 21404: heap size 88 MB, throughput 0.980651
Reading from 21404: heap size 91 MB, throughput 0.983264
Reading from 21404: heap size 92 MB, throughput 0.98571
Reading from 21404: heap size 95 MB, throughput 0.988486
Reading from 21404: heap size 95 MB, throughput 0.98966
Reading from 21404: heap size 97 MB, throughput 0.98401
Reading from 21404: heap size 96 MB, throughput 0.987454
Reading from 21404: heap size 95 MB, throughput 0.990258
Reading from 21404: heap size 96 MB, throughput 0.983877
Reading from 21404: heap size 96 MB, throughput 0.982987
Reading from 21404: heap size 96 MB, throughput 0.903376
Reading from 21404: heap size 95 MB, throughput 0.791566
Reading from 21404: heap size 98 MB, throughput 0.858725
Reading from 21404: heap size 99 MB, throughput 0.890211
Reading from 21404: heap size 99 MB, throughput 0.913034
Reading from 21404: heap size 103 MB, throughput 0.874245
Reading from 21403: heap size 1407 MB, throughput 0.989435
Reading from 21404: heap size 91 MB, throughput 0.919523
Reading from 21404: heap size 102 MB, throughput 0.92468
Reading from 21404: heap size 93 MB, throughput 0.94848
Reading from 21404: heap size 114 MB, throughput 0.96484
Reading from 21404: heap size 101 MB, throughput 0.973434
Reading from 21404: heap size 112 MB, throughput 0.98013
Reading from 21404: heap size 100 MB, throughput 0.985213
Reading from 21404: heap size 109 MB, throughput 0.988136
Reading from 21404: heap size 99 MB, throughput 0.98824
Reading from 21404: heap size 107 MB, throughput 0.986359
Reading from 21404: heap size 99 MB, throughput 0.98635
Reading from 21404: heap size 105 MB, throughput 0.981422
Reading from 21404: heap size 97 MB, throughput 0.984943
Reading from 21404: heap size 104 MB, throughput 0.984286
Reading from 21404: heap size 99 MB, throughput 0.983037
Reading from 21404: heap size 103 MB, throughput 0.972515
Reading from 21404: heap size 103 MB, throughput 0.863053
Reading from 21404: heap size 100 MB, throughput 0.842253
Reading from 21404: heap size 103 MB, throughput 0.906249
Reading from 21404: heap size 105 MB, throughput 0.901321
Reading from 21404: heap size 106 MB, throughput 0.873962
Reading from 21404: heap size 106 MB, throughput 0.877547
Reading from 21404: heap size 107 MB, throughput 0.846499
Reading from 21404: heap size 105 MB, throughput 0.851929
Reading from 21404: heap size 93 MB, throughput 0.863691
Reading from 21404: heap size 106 MB, throughput 0.871901
Reading from 21404: heap size 94 MB, throughput 0.916441
Reading from 21404: heap size 105 MB, throughput 0.901313
Reading from 21404: heap size 105 MB, throughput 0.930894
Reading from 21404: heap size 105 MB, throughput 0.952064
Reading from 21404: heap size 90 MB, throughput 0.962036
Reading from 21404: heap size 104 MB, throughput 0.972058
Reading from 21404: heap size 90 MB, throughput 0.976142
Reading from 21404: heap size 104 MB, throughput 0.979781
Reading from 21404: heap size 91 MB, throughput 0.981723
Reading from 21404: heap size 104 MB, throughput 0.981582
Reading from 21404: heap size 92 MB, throughput 0.982971
Reading from 21404: heap size 103 MB, throughput 0.986225
Reading from 21403: heap size 1406 MB, throughput 0.988534
Reading from 21404: heap size 93 MB, throughput 0.985253
Client 21404 died
Clients: 1
Recommendation: one client; give it all the memory
Reading from 21403: heap size 1412 MB, throughput 0.989629
Reading from 21403: heap size 1394 MB, throughput 0.989873
Recommendation: one client; give it all the memory
Reading from 21403: heap size 1276 MB, throughput 0.989525
Reading from 21403: heap size 1379 MB, throughput 0.988812
Recommendation: one client; give it all the memory
Reading from 21403: heap size 1294 MB, throughput 0.988102
Reading from 21403: heap size 1375 MB, throughput 0.986954
Recommendation: one client; give it all the memory
Reading from 21403: heap size 1381 MB, throughput 0.986682
Reading from 21403: heap size 1383 MB, throughput 0.98573
Reading from 21403: heap size 1385 MB, throughput 0.984591
Recommendation: one client; give it all the memory
Reading from 21403: heap size 1388 MB, throughput 0.983777
Reading from 21403: heap size 1394 MB, throughput 0.982876
Recommendation: one client; give it all the memory
Reading from 21403: heap size 1398 MB, throughput 0.981974
Reading from 21403: heap size 1407 MB, throughput 0.981462
Recommendation: one client; give it all the memory
Reading from 21403: heap size 1415 MB, throughput 0.981045
Reading from 21403: heap size 1420 MB, throughput 0.980802
Recommendation: one client; give it all the memory
Reading from 21403: heap size 1427 MB, throughput 0.980927
Reading from 21403: heap size 1430 MB, throughput 0.980736
Recommendation: one client; give it all the memory
Reading from 21403: heap size 1436 MB, throughput 0.981332
Reading from 21403: heap size 1437 MB, throughput 0.980336
Recommendation: one client; give it all the memory
Reading from 21403: heap size 1443 MB, throughput 0.980223
Reading from 21403: heap size 1443 MB, throughput 0.980087
Recommendation: one client; give it all the memory
Reading from 21403: heap size 1447 MB, throughput 0.974733
Reading from 21403: heap size 1573 MB, throughput 0.988137
Recommendation: one client; give it all the memory
Reading from 21403: heap size 1566 MB, throughput 0.991158
Reading from 21403: heap size 1578 MB, throughput 0.992122
Recommendation: one client; give it all the memory
Reading from 21403: heap size 1588 MB, throughput 0.992144
Recommendation: one client; give it all the memory
Reading from 21403: heap size 1589 MB, throughput 0.991622
Reading from 21403: heap size 1579 MB, throughput 0.990683
Recommendation: one client; give it all the memory
Reading from 21403: heap size 1433 MB, throughput 0.989608
Recommendation: one client; give it all the memory
Reading from 21403: heap size 1561 MB, throughput 0.993463
Recommendation: one client; give it all the memory
Recommendation: one client; give it all the memory
Reading from 21403: heap size 1571 MB, throughput 0.994391
Reading from 21403: heap size 1566 MB, throughput 0.992269
Reading from 21403: heap size 1572 MB, throughput 0.982343
Reading from 21403: heap size 1559 MB, throughput 0.968608
Reading from 21403: heap size 1597 MB, throughput 0.942732
Reading from 21403: heap size 1627 MB, throughput 0.910889
Reading from 21403: heap size 1647 MB, throughput 0.866416
Reading from 21403: heap size 1684 MB, throughput 0.850747
Client 21403 died
Clients: 0
Recommendation: no clients; no recommendation
Recommendation: no clients; no recommendation
Recommendation: no clients; no recommendation
ReadingThread: finished
TimerThread: finished
CommandThread: finished
Main: All threads killed, cleaning up
