economemd
    total memory: 3759 MB
    timer interval: 10 s
    timer start state: running
    utility model: root

    caches:
        lru

    force utility function validity: yes
    make recommendations: yes
    equal recommendations: no

    reading receiver name: vengerov
    command receiver name: vengerov

    dump file: economemd.dump.log
    log file: /home/callum/economics_memory_code/dynamic_sizing/data/output/timerComparisonMany_2014_10_15_12_35_15/sub22_timerComparisonSingle/sub3_timeBenchmarkDaemon/daemon_run03_log.txt
    log readings: yes
    log functions: yes

PyOptimiser: initialising...
PyOptimiser: initialised
ReadingThread: starting
TimerThread: starting
CommandThread: starting
Recommendation: no clients; no recommendation
Recommendation: no clients; no recommendation
Reading from 22240: heap size 9 MB, throughput 0.991824
Clients: 1
Client 22240 has a minimum heap size of 30 MB
Reading from 22239: heap size 9 MB, throughput 0.990627
Clients: 2
Client 22239 has a minimum heap size of 1223 MB
Reading from 22240: heap size 9 MB, throughput 0.984845
Reading from 22240: heap size 9 MB, throughput 0.977824
Reading from 22239: heap size 9 MB, throughput 0.983282
Reading from 22240: heap size 9 MB, throughput 0.971044
Reading from 22240: heap size 11 MB, throughput 0.951564
Reading from 22240: heap size 11 MB, throughput 0.84947
Reading from 22239: heap size 9 MB, throughput 0.977237
Reading from 22240: heap size 16 MB, throughput 0.831724
Reading from 22240: heap size 16 MB, throughput 0.807892
Reading from 22240: heap size 24 MB, throughput 0.825349
Reading from 22240: heap size 24 MB, throughput 0.82316
Reading from 22240: heap size 34 MB, throughput 0.86073
Reading from 22240: heap size 34 MB, throughput 0.885521
Reading from 22240: heap size 50 MB, throughput 0.921977
Reading from 22239: heap size 9 MB, throughput 0.962732
Reading from 22240: heap size 50 MB, throughput 0.934465
Reading from 22240: heap size 76 MB, throughput 0.952321
Reading from 22240: heap size 76 MB, throughput 0.952217
Reading from 22240: heap size 116 MB, throughput 0.96319
Reading from 22240: heap size 116 MB, throughput 0.969834
Reading from 22239: heap size 11 MB, throughput 0.982991
Reading from 22239: heap size 11 MB, throughput 0.974859
Reading from 22239: heap size 17 MB, throughput 0.917979
Reading from 22239: heap size 17 MB, throughput 0.858894
Reading from 22239: heap size 30 MB, throughput 0.799502
Reading from 22239: heap size 31 MB, throughput 0.549622
Reading from 22239: heap size 35 MB, throughput 0.697375
Reading from 22239: heap size 47 MB, throughput 0.470098
Reading from 22240: heap size 159 MB, throughput 0.942962
Reading from 22239: heap size 49 MB, throughput 0.447217
Reading from 22239: heap size 51 MB, throughput 0.527446
Reading from 22240: heap size 170 MB, throughput 0.846572
Reading from 22239: heap size 74 MB, throughput 0.47964
Reading from 22239: heap size 74 MB, throughput 0.37413
Reading from 22239: heap size 101 MB, throughput 0.649428
Reading from 22239: heap size 101 MB, throughput 0.519002
Reading from 22239: heap size 102 MB, throughput 0.410063
Reading from 22239: heap size 105 MB, throughput 0.327975
Reading from 22240: heap size 223 MB, throughput 0.988631
Reading from 22239: heap size 106 MB, throughput 0.459789
Reading from 22239: heap size 140 MB, throughput 0.30596
Reading from 22239: heap size 144 MB, throughput 0.260851
Reading from 22239: heap size 146 MB, throughput 0.730359
Reading from 22239: heap size 153 MB, throughput 0.727076
Reading from 22240: heap size 240 MB, throughput 0.991586
Reading from 22239: heap size 155 MB, throughput 0.738569
Reading from 22239: heap size 158 MB, throughput 0.412494
Reading from 22239: heap size 199 MB, throughput 0.64799
Reading from 22239: heap size 202 MB, throughput 0.658511
Reading from 22239: heap size 207 MB, throughput 0.657944
Reading from 22239: heap size 210 MB, throughput 0.621879
Reading from 22239: heap size 218 MB, throughput 0.690158
Reading from 22240: heap size 262 MB, throughput 0.991691
Reading from 22239: heap size 222 MB, throughput 0.603453
Reading from 22239: heap size 232 MB, throughput 0.515351
Reading from 22239: heap size 238 MB, throughput 0.399242
Reading from 22240: heap size 262 MB, throughput 0.502943
Reading from 22239: heap size 284 MB, throughput 0.440263
Reading from 22239: heap size 279 MB, throughput 0.43269
Reading from 22239: heap size 227 MB, throughput 0.17737
Reading from 22239: heap size 322 MB, throughput 0.493106
Reading from 22239: heap size 326 MB, throughput 0.560545
Reading from 22240: heap size 287 MB, throughput 0.967598
Reading from 22239: heap size 321 MB, throughput 0.585831
Reading from 22239: heap size 324 MB, throughput 0.530947
Reading from 22239: heap size 323 MB, throughput 0.533633
Reading from 22239: heap size 324 MB, throughput 0.567995
Reading from 22239: heap size 326 MB, throughput 0.611333
Reading from 22239: heap size 330 MB, throughput 0.6065
Reading from 22239: heap size 334 MB, throughput 0.624863
Reading from 22240: heap size 301 MB, throughput 0.990227
Reading from 22239: heap size 338 MB, throughput 0.647856
Reading from 22239: heap size 343 MB, throughput 0.637615
Reading from 22239: heap size 348 MB, throughput 0.621648
Reading from 22240: heap size 323 MB, throughput 0.978491
Reading from 22239: heap size 351 MB, throughput 0.395805
Numeric result:
Recommendation: 2 clients, utility 0.915833:
    h1: 2536 MB (U(h) = 0.849642*h^0.016833)
    h2: 1223 MB (U(h) = 0.937974*h^0.001)
Recommendation: 2 clients, utility 0.915833:
    h1: 2536 MB (U(h) = 0.849642*h^0.016833)
    h2: 1223 MB (U(h) = 0.937974*h^0.001)
Reading from 22239: heap size 403 MB, throughput 0.491991
Reading from 22239: heap size 411 MB, throughput 0.52646
Reading from 22239: heap size 414 MB, throughput 0.534718
Reading from 22239: heap size 419 MB, throughput 0.546391
Reading from 22240: heap size 323 MB, throughput 0.979039
Reading from 22239: heap size 422 MB, throughput 0.276843
Reading from 22239: heap size 478 MB, throughput 0.44849
Reading from 22239: heap size 478 MB, throughput 0.48219
Reading from 22239: heap size 478 MB, throughput 0.481088
Reading from 22240: heap size 349 MB, throughput 0.980958
Reading from 22239: heap size 478 MB, throughput 0.471612
Reading from 22239: heap size 482 MB, throughput 0.482508
Reading from 22240: heap size 351 MB, throughput 0.971587
Reading from 22239: heap size 482 MB, throughput 0.265167
Reading from 22239: heap size 542 MB, throughput 0.474407
Reading from 22239: heap size 543 MB, throughput 0.510232
Reading from 22239: heap size 541 MB, throughput 0.535252
Reading from 22239: heap size 542 MB, throughput 0.558237
Reading from 22239: heap size 543 MB, throughput 0.587772
Reading from 22240: heap size 374 MB, throughput 0.980665
Reading from 22239: heap size 549 MB, throughput 0.33112
Reading from 22239: heap size 610 MB, throughput 0.56961
Reading from 22239: heap size 617 MB, throughput 0.544619
Reading from 22240: heap size 378 MB, throughput 0.983551
Reading from 22239: heap size 620 MB, throughput 0.562345
Reading from 22239: heap size 626 MB, throughput 0.482208
Reading from 22239: heap size 632 MB, throughput 0.709237
Reading from 22240: heap size 404 MB, throughput 0.987849
Reading from 22239: heap size 642 MB, throughput 0.777236
Reading from 22239: heap size 641 MB, throughput 0.785022
Reading from 22240: heap size 405 MB, throughput 0.988186
Reading from 22239: heap size 657 MB, throughput 0.797203
Reading from 22239: heap size 663 MB, throughput 0.701021
Reading from 22240: heap size 422 MB, throughput 0.984343
Numeric result:
Recommendation: 2 clients, utility 0.762209:
    h1: 2536 MB (U(h) = 0.822103*h^0.0263795)
    h2: 1223 MB (U(h) = 0.748618*h^0.001)
Recommendation: 2 clients, utility 0.762209:
    h1: 2536 MB (U(h) = 0.822103*h^0.0263795)
    h2: 1223 MB (U(h) = 0.748618*h^0.001)
Reading from 22239: heap size 680 MB, throughput 0.435223
Reading from 22240: heap size 424 MB, throughput 0.983875
Reading from 22239: heap size 754 MB, throughput 0.473056
Reading from 22239: heap size 668 MB, throughput 0.507433
Reading from 22239: heap size 748 MB, throughput 0.422808
Reading from 22239: heap size 650 MB, throughput 0.146633
Reading from 22239: heap size 816 MB, throughput 0.23521
Reading from 22240: heap size 449 MB, throughput 0.977516
Reading from 22239: heap size 821 MB, throughput 0.28067
Reading from 22239: heap size 824 MB, throughput 0.323477
Reading from 22239: heap size 825 MB, throughput 0.084833
Reading from 22240: heap size 450 MB, throughput 0.983293
Reading from 22239: heap size 922 MB, throughput 0.61125
Reading from 22239: heap size 927 MB, throughput 0.735686
Reading from 22239: heap size 935 MB, throughput 0.740368
Reading from 22239: heap size 936 MB, throughput 0.739486
Reading from 22239: heap size 930 MB, throughput 0.710032
Reading from 22239: heap size 722 MB, throughput 0.700742
Reading from 22239: heap size 920 MB, throughput 0.805243
Reading from 22239: heap size 722 MB, throughput 0.777291
Reading from 22239: heap size 909 MB, throughput 0.79414
Reading from 22239: heap size 722 MB, throughput 0.887588
Reading from 22239: heap size 896 MB, throughput 0.81908
Reading from 22240: heap size 473 MB, throughput 0.984287
Reading from 22239: heap size 729 MB, throughput 0.888491
Reading from 22239: heap size 881 MB, throughput 0.868121
Reading from 22239: heap size 737 MB, throughput 0.875339
Reading from 22239: heap size 869 MB, throughput 0.912215
Reading from 22239: heap size 877 MB, throughput 0.850984
Reading from 22239: heap size 865 MB, throughput 0.811149
Reading from 22239: heap size 777 MB, throughput 0.765848
Reading from 22239: heap size 857 MB, throughput 0.764132
Reading from 22240: heap size 476 MB, throughput 0.988298
Reading from 22239: heap size 781 MB, throughput 0.755025
Reading from 22239: heap size 851 MB, throughput 0.763411
Reading from 22239: heap size 786 MB, throughput 0.777826
Reading from 22239: heap size 844 MB, throughput 0.786401
Reading from 22239: heap size 788 MB, throughput 0.789909
Reading from 22239: heap size 840 MB, throughput 0.789722
Reading from 22239: heap size 845 MB, throughput 0.783299
Reading from 22239: heap size 836 MB, throughput 0.792064
Reading from 22239: heap size 841 MB, throughput 0.879951
Reading from 22240: heap size 496 MB, throughput 0.985837
Reading from 22239: heap size 839 MB, throughput 0.971316
Reading from 22240: heap size 500 MB, throughput 0.989574
Reading from 22239: heap size 843 MB, throughput 0.953956
Reading from 22239: heap size 837 MB, throughput 0.915241
Numeric result:
Recommendation: 2 clients, utility 0.594375:
    h1: 2536 MB (U(h) = 0.813557*h^0.029221)
    h2: 1223 MB (U(h) = 0.526007*h^0.0139949)
Recommendation: 2 clients, utility 0.594375:
    h1: 2536 MB (U(h) = 0.813557*h^0.029221)
    h2: 1223 MB (U(h) = 0.526007*h^0.0139949)
Reading from 22239: heap size 843 MB, throughput 0.844203
Reading from 22239: heap size 849 MB, throughput 0.808937
Reading from 22239: heap size 853 MB, throughput 0.765796
Reading from 22239: heap size 860 MB, throughput 0.74591
Reading from 22239: heap size 862 MB, throughput 0.746392
Reading from 22240: heap size 517 MB, throughput 0.986749
Reading from 22239: heap size 869 MB, throughput 0.76429
Reading from 22239: heap size 870 MB, throughput 0.744939
Reading from 22239: heap size 877 MB, throughput 0.775223
Reading from 22239: heap size 877 MB, throughput 0.775479
Reading from 22239: heap size 881 MB, throughput 0.835744
Reading from 22239: heap size 882 MB, throughput 0.785615
Reading from 22240: heap size 521 MB, throughput 0.990255
Reading from 22239: heap size 885 MB, throughput 0.835344
Reading from 22240: heap size 538 MB, throughput 0.981061
Reading from 22239: heap size 886 MB, throughput 0.695326
Reading from 22239: heap size 985 MB, throughput 0.592906
Reading from 22239: heap size 988 MB, throughput 0.624457
Reading from 22239: heap size 996 MB, throughput 0.627962
Reading from 22239: heap size 1001 MB, throughput 0.609156
Reading from 22239: heap size 1011 MB, throughput 0.61358
Reading from 22239: heap size 1015 MB, throughput 0.567325
Reading from 22239: heap size 1027 MB, throughput 0.586609
Reading from 22239: heap size 1031 MB, throughput 0.585892
Reading from 22240: heap size 542 MB, throughput 0.986214
Reading from 22239: heap size 1045 MB, throughput 0.604139
Reading from 22239: heap size 1048 MB, throughput 0.580303
Reading from 22239: heap size 1064 MB, throughput 0.624237
Reading from 22239: heap size 1067 MB, throughput 0.59071
Reading from 22239: heap size 1084 MB, throughput 0.765585
Reading from 22240: heap size 562 MB, throughput 0.987977
Reading from 22240: heap size 566 MB, throughput 0.985682
Numeric result:
Recommendation: 2 clients, utility 0.833814:
    h1: 454.283 MB (U(h) = 0.810536*h^0.0301836)
    h2: 3304.72 MB (U(h) = 0.144312*h^0.219596)
Recommendation: 2 clients, utility 0.833814:
    h1: 454.241 MB (U(h) = 0.810536*h^0.0301836)
    h2: 3304.76 MB (U(h) = 0.144312*h^0.219596)
Reading from 22239: heap size 1087 MB, throughput 0.931201
Reading from 22240: heap size 587 MB, throughput 0.990763
Reading from 22239: heap size 1102 MB, throughput 0.954706
Reading from 22240: heap size 540 MB, throughput 0.986998
Reading from 22240: heap size 523 MB, throughput 0.987287
Reading from 22240: heap size 501 MB, throughput 0.988771
Reading from 22239: heap size 1106 MB, throughput 0.81006
Reading from 22240: heap size 477 MB, throughput 0.987146
Reading from 22239: heap size 1190 MB, throughput 0.975397
Reading from 22240: heap size 466 MB, throughput 0.986702
Numeric result:
Recommendation: 2 clients, utility 1.00841:
    h1: 316.884 MB (U(h) = 0.808144*h^0.0309689)
    h2: 3442.12 MB (U(h) = 0.0674258*h^0.336424)
Recommendation: 2 clients, utility 1.00841:
    h1: 316.86 MB (U(h) = 0.808144*h^0.0309689)
    h2: 3442.14 MB (U(h) = 0.0674258*h^0.336424)
Reading from 22240: heap size 441 MB, throughput 0.989693
Reading from 22239: heap size 1192 MB, throughput 0.982076
Reading from 22240: heap size 413 MB, throughput 0.987446
Reading from 22240: heap size 400 MB, throughput 0.986827
Reading from 22240: heap size 382 MB, throughput 0.98554
Reading from 22239: heap size 1209 MB, throughput 0.98585
Reading from 22240: heap size 365 MB, throughput 0.987887
Reading from 22240: heap size 350 MB, throughput 0.984985
Reading from 22239: heap size 1212 MB, throughput 0.986453
Reading from 22240: heap size 341 MB, throughput 0.984525
Reading from 22240: heap size 327 MB, throughput 0.70741
Reading from 22240: heap size 311 MB, throughput 0.984275
Numeric result:
Recommendation: 2 clients, utility 1.11858:
    h1: 265.572 MB (U(h) = 0.807336*h^0.0304963)
    h2: 3493.43 MB (U(h) = 0.0442869*h^0.401159)
Recommendation: 2 clients, utility 1.11858:
    h1: 265.572 MB (U(h) = 0.807336*h^0.0304963)
    h2: 3493.43 MB (U(h) = 0.0442869*h^0.401159)
Reading from 22239: heap size 1213 MB, throughput 0.986114
Reading from 22240: heap size 320 MB, throughput 0.98389
Reading from 22240: heap size 310 MB, throughput 0.981989
Reading from 22240: heap size 302 MB, throughput 0.986316
Reading from 22240: heap size 295 MB, throughput 0.980141
Reading from 22239: heap size 1217 MB, throughput 0.985072
Reading from 22240: heap size 292 MB, throughput 0.961114
Reading from 22240: heap size 267 MB, throughput 0.988122
Reading from 22240: heap size 256 MB, throughput 0.990305
Reading from 22239: heap size 1204 MB, throughput 0.985562
Reading from 22240: heap size 277 MB, throughput 0.987527
Reading from 22240: heap size 272 MB, throughput 0.98858
Reading from 22240: heap size 263 MB, throughput 0.990512
Reading from 22240: heap size 287 MB, throughput 0.981581
Reading from 22240: heap size 272 MB, throughput 0.975074
Reading from 22239: heap size 1101 MB, throughput 0.981689
Reading from 22240: heap size 252 MB, throughput 0.981442
Reading from 22240: heap size 273 MB, throughput 0.985487
Numeric result:
Recommendation: 2 clients, utility 1.10299:
    h1: 282.796 MB (U(h) = 0.810168*h^0.0307473)
    h2: 3476.2 MB (U(h) = 0.0525113*h^0.377952)
Recommendation: 2 clients, utility 1.10299:
    h1: 282.797 MB (U(h) = 0.810168*h^0.0307473)
    h2: 3476.2 MB (U(h) = 0.0525113*h^0.377952)
Reading from 22240: heap size 248 MB, throughput 0.987722
Reading from 22240: heap size 265 MB, throughput 0.984834
Reading from 22239: heap size 1192 MB, throughput 0.981575
Reading from 22240: heap size 265 MB, throughput 0.986079
Reading from 22240: heap size 272 MB, throughput 0.986957
Reading from 22240: heap size 274 MB, throughput 0.981057
Reading from 22240: heap size 286 MB, throughput 0.98351
Reading from 22240: heap size 266 MB, throughput 0.988614
Reading from 22239: heap size 1118 MB, throughput 0.979588
Reading from 22240: heap size 278 MB, throughput 0.984515
Reading from 22240: heap size 278 MB, throughput 0.981681
Reading from 22240: heap size 290 MB, throughput 0.981432
Reading from 22240: heap size 271 MB, throughput 0.984527
Reading from 22239: heap size 1186 MB, throughput 0.977644
Reading from 22240: heap size 282 MB, throughput 0.987224
Reading from 22240: heap size 282 MB, throughput 0.982007
Reading from 22240: heap size 294 MB, throughput 0.98515
Numeric result:
Recommendation: 2 clients, utility 1.18133:
    h1: 257.289 MB (U(h) = 0.81219*h^0.0308518)
    h2: 3501.71 MB (U(h) = 0.0398028*h^0.419954)
Recommendation: 2 clients, utility 1.18133:
    h1: 257.255 MB (U(h) = 0.81219*h^0.0308518)
    h2: 3501.74 MB (U(h) = 0.0398028*h^0.419954)
Reading from 22240: heap size 275 MB, throughput 0.988124
Reading from 22239: heap size 1191 MB, throughput 0.978265
Reading from 22240: heap size 268 MB, throughput 0.988218
Reading from 22240: heap size 259 MB, throughput 0.701241
Reading from 22240: heap size 261 MB, throughput 0.974209
Reading from 22240: heap size 252 MB, throughput 0.977058
Reading from 22239: heap size 1192 MB, throughput 0.979151
Reading from 22240: heap size 257 MB, throughput 0.982152
Reading from 22240: heap size 248 MB, throughput 0.977996
Reading from 22240: heap size 253 MB, throughput 0.974606
Reading from 22240: heap size 254 MB, throughput 0.969824
Reading from 22240: heap size 269 MB, throughput 0.969342
Reading from 22239: heap size 1192 MB, throughput 0.977406
Reading from 22240: heap size 253 MB, throughput 0.971952
Reading from 22240: heap size 262 MB, throughput 0.97539
Reading from 22240: heap size 246 MB, throughput 0.982072
Reading from 22240: heap size 256 MB, throughput 0.982833
Reading from 22240: heap size 256 MB, throughput 0.980782
Numeric result:
Recommendation: 2 clients, utility 1.22107:
    h1: 245.81 MB (U(h) = 0.811072*h^0.0309378)
    h2: 3513.19 MB (U(h) = 0.0343398*h^0.442204)
Recommendation: 2 clients, utility 1.22107:
    h1: 245.793 MB (U(h) = 0.811072*h^0.0309378)
    h2: 3513.21 MB (U(h) = 0.0343398*h^0.442204)
Reading from 22239: heap size 1195 MB, throughput 0.97515
Reading from 22240: heap size 269 MB, throughput 0.979802
Reading from 22240: heap size 252 MB, throughput 0.980191
Reading from 22240: heap size 248 MB, throughput 0.984899
Reading from 22240: heap size 234 MB, throughput 0.987346
Reading from 22240: heap size 249 MB, throughput 0.9816
Reading from 22239: heap size 1198 MB, throughput 0.970266
Reading from 22240: heap size 231 MB, throughput 0.979594
Reading from 22240: heap size 244 MB, throughput 0.986144
Reading from 22240: heap size 243 MB, throughput 0.986169
Reading from 22240: heap size 253 MB, throughput 0.987642
Reading from 22240: heap size 235 MB, throughput 0.984654
Reading from 22240: heap size 248 MB, throughput 0.983003
Reading from 22239: heap size 1203 MB, throughput 0.968578
Reading from 22240: heap size 229 MB, throughput 0.983114
Reading from 22240: heap size 241 MB, throughput 0.985644
Reading from 22240: heap size 241 MB, throughput 0.985461
Reading from 22240: heap size 252 MB, throughput 0.980775
Reading from 22240: heap size 240 MB, throughput 0.981195
Numeric result:
Recommendation: 2 clients, utility 1.42131:
    h1: 199.826 MB (U(h) = 0.814476*h^0.0305909)
    h2: 3559.17 MB (U(h) = 0.0172358*h^0.544863)
Recommendation: 2 clients, utility 1.42131:
    h1: 199.827 MB (U(h) = 0.814476*h^0.0305909)
    h2: 3559.17 MB (U(h) = 0.0172358*h^0.544863)
Reading from 22239: heap size 1207 MB, throughput 0.969407
Reading from 22240: heap size 246 MB, throughput 0.985223
Reading from 22240: heap size 229 MB, throughput 0.984651
Reading from 22240: heap size 224 MB, throughput 0.987671
Reading from 22240: heap size 209 MB, throughput 0.98494
Reading from 22240: heap size 213 MB, throughput 0.986214
Reading from 22240: heap size 204 MB, throughput 0.983104
Reading from 22240: heap size 203 MB, throughput 0.951291
Reading from 22239: heap size 1212 MB, throughput 0.968631
Reading from 22240: heap size 195 MB, throughput 0.96685
Reading from 22240: heap size 204 MB, throughput 0.973472
Reading from 22240: heap size 194 MB, throughput 0.970567
Reading from 22240: heap size 199 MB, throughput 0.978478
Reading from 22240: heap size 199 MB, throughput 0.977192
Reading from 22240: heap size 210 MB, throughput 0.97993
Reading from 22239: heap size 1214 MB, throughput 0.969154
Reading from 22240: heap size 199 MB, throughput 0.981497
Reading from 22240: heap size 206 MB, throughput 0.985343
Reading from 22240: heap size 189 MB, throughput 0.979156
Reading from 22240: heap size 201 MB, throughput 0.982139
Reading from 22240: heap size 190 MB, throughput 0.983643
Reading from 22240: heap size 197 MB, throughput 0.983882
Reading from 22240: heap size 197 MB, throughput 0.984759
Numeric result:
Recommendation: 2 clients, utility 1.64037:
    h1: 156.996 MB (U(h) = 0.828998*h^0.0280296)
    h2: 3602 MB (U(h) = 0.00886403*h^0.643098)
Recommendation: 2 clients, utility 1.64037:
    h1: 156.994 MB (U(h) = 0.828998*h^0.0280296)
    h2: 3602.01 MB (U(h) = 0.00886403*h^0.643098)
Reading from 22240: heap size 204 MB, throughput 0.971357
Reading from 22239: heap size 1219 MB, throughput 0.970556
Reading from 22240: heap size 197 MB, throughput 0.971271
Reading from 22240: heap size 191 MB, throughput 0.979039
Reading from 22240: heap size 183 MB, throughput 0.946994
Reading from 22240: heap size 179 MB, throughput 0.942571
Reading from 22240: heap size 172 MB, throughput 0.965779
Reading from 22240: heap size 173 MB, throughput 0.973571
Reading from 22240: heap size 166 MB, throughput 0.980278
Reading from 22240: heap size 166 MB, throughput 0.979964
Reading from 22239: heap size 1220 MB, throughput 0.971747
Reading from 22240: heap size 161 MB, throughput 0.984804
Reading from 22240: heap size 159 MB, throughput 0.989748
Reading from 22240: heap size 140 MB, throughput 0.987093
Reading from 22240: heap size 160 MB, throughput 0.987229
Reading from 22240: heap size 143 MB, throughput 0.987354
Reading from 22240: heap size 157 MB, throughput 0.985533
Reading from 22240: heap size 156 MB, throughput 0.98589
Reading from 22240: heap size 162 MB, throughput 0.981256
Reading from 22240: heap size 158 MB, throughput 0.969498
Reading from 22240: heap size 159 MB, throughput 0.968718
Reading from 22239: heap size 1224 MB, throughput 0.970936
Reading from 22240: heap size 155 MB, throughput 0.962298
Reading from 22240: heap size 158 MB, throughput 0.966368
Reading from 22240: heap size 150 MB, throughput 0.965469
Reading from 22240: heap size 158 MB, throughput 0.959091
Reading from 22240: heap size 142 MB, throughput 0.969154
Reading from 22240: heap size 156 MB, throughput 0.970294
Reading from 22240: heap size 155 MB, throughput 0.959521
Reading from 22240: heap size 172 MB, throughput 0.961172
Numeric result:
Recommendation: 2 clients, utility 1.9286:
    h1: 38.9954 MB (U(h) = 0.932252*h^0.00773793)
    h2: 3720 MB (U(h) = 0.00465338*h^0.738159)
Recommendation: 2 clients, utility 1.9286:
    h1: 38.9958 MB (U(h) = 0.932252*h^0.00773793)
    h2: 3720 MB (U(h) = 0.00465338*h^0.738159)
Reading from 22240: heap size 156 MB, throughput 0.96415
Reading from 22240: heap size 148 MB, throughput 0.964719
Reading from 22239: heap size 1225 MB, throughput 0.96976
Reading from 22240: heap size 143 MB, throughput 0.967503
Reading from 22240: heap size 137 MB, throughput 0.936824
Reading from 22240: heap size 103 MB, throughput 0.97347
Reading from 22240: heap size 115 MB, throughput 0.979358
Reading from 22240: heap size 91 MB, throughput 0.981247
Reading from 22240: heap size 108 MB, throughput 0.98052
Reading from 22240: heap size 85 MB, throughput 0.985394
Reading from 22240: heap size 103 MB, throughput 0.985725
Reading from 22240: heap size 85 MB, throughput 0.987049
Reading from 22240: heap size 97 MB, throughput 0.964237
Reading from 22240: heap size 86 MB, throughput 0.913973
Reading from 22240: heap size 95 MB, throughput 0.935328
Reading from 22240: heap size 78 MB, throughput 0.942534
Reading from 22240: heap size 91 MB, throughput 0.954952
Reading from 22240: heap size 73 MB, throughput 0.16475
Reading from 22240: heap size 90 MB, throughput 0.220103
Reading from 22240: heap size 70 MB, throughput 0.737831
Reading from 22240: heap size 85 MB, throughput 0.822406
Reading from 22240: heap size 72 MB, throughput 0.587539
Reading from 22240: heap size 82 MB, throughput 0.780752
Reading from 22240: heap size 66 MB, throughput 0.868938
Reading from 22240: heap size 80 MB, throughput 0.918588
Reading from 22240: heap size 65 MB, throughput 0.944463
Reading from 22240: heap size 77 MB, throughput 0.962157
Reading from 22239: heap size 1228 MB, throughput 0.967453
Reading from 22240: heap size 64 MB, throughput 0.974612
Reading from 22240: heap size 75 MB, throughput 0.979189
Reading from 22240: heap size 63 MB, throughput 0.983804
Reading from 22240: heap size 73 MB, throughput 0.983493
Reading from 22240: heap size 63 MB, throughput 0.982099
Reading from 22240: heap size 71 MB, throughput 0.963481
Reading from 22240: heap size 62 MB, throughput 0.974357
Reading from 22240: heap size 68 MB, throughput 0.978291
Reading from 22240: heap size 61 MB, throughput 0.970038
Reading from 22240: heap size 66 MB, throughput 0.985124
Reading from 22240: heap size 62 MB, throughput 0.976594
Reading from 22240: heap size 66 MB, throughput 0.971311
Reading from 22240: heap size 66 MB, throughput 0.938392
Reading from 22240: heap size 67 MB, throughput 0.935606
Reading from 22240: heap size 62 MB, throughput 0.914955
Reading from 22240: heap size 66 MB, throughput 0.93116
Reading from 22240: heap size 60 MB, throughput 0.90047
Reading from 22240: heap size 65 MB, throughput 0.641802
Reading from 22240: heap size 61 MB, throughput 0.942849
Reading from 22240: heap size 72 MB, throughput 0.611574
Reading from 22240: heap size 64 MB, throughput 0.80082
Reading from 22240: heap size 71 MB, throughput 0.891435
Reading from 22240: heap size 71 MB, throughput 0.89771
Reading from 22240: heap size 70 MB, throughput 0.918217
Reading from 22240: heap size 71 MB, throughput 0.839787
Reading from 22240: heap size 70 MB, throughput 0.895194
Reading from 22240: heap size 70 MB, throughput 0.933305
Reading from 22240: heap size 69 MB, throughput 0.917039
Reading from 22240: heap size 70 MB, throughput 0.931957
Reading from 22240: heap size 69 MB, throughput 0.949087
Reading from 22240: heap size 69 MB, throughput 0.888507
Reading from 22240: heap size 69 MB, throughput 0.776801
Reading from 22240: heap size 65 MB, throughput 0.803448
Reading from 22240: heap size 69 MB, throughput 0.893204
Reading from 22240: heap size 69 MB, throughput 0.933574
Reading from 22240: heap size 69 MB, throughput 0.943675
Reading from 22240: heap size 65 MB, throughput 0.929327
Reading from 22240: heap size 68 MB, throughput 0.935481
Reading from 22240: heap size 65 MB, throughput 0.955642
Reading from 22240: heap size 68 MB, throughput 0.96139
Reading from 22240: heap size 65 MB, throughput 0.97482
Reading from 22240: heap size 67 MB, throughput 0.974995
Reading from 22240: heap size 67 MB, throughput 0.977907
Reading from 22240: heap size 66 MB, throughput 0.979972
Reading from 22240: heap size 67 MB, throughput 0.981432
Reading from 22240: heap size 67 MB, throughput 0.978345
Reading from 22240: heap size 67 MB, throughput 0.977397
Reading from 22240: heap size 66 MB, throughput 0.974246
Reading from 22240: heap size 66 MB, throughput 0.976092
Reading from 22239: heap size 1229 MB, throughput 0.967494
Reading from 22240: heap size 67 MB, throughput 0.978299
Reading from 22240: heap size 65 MB, throughput 0.967675
Reading from 22240: heap size 66 MB, throughput 0.98076
Reading from 22240: heap size 66 MB, throughput 0.912688
Reading from 22240: heap size 65 MB, throughput 0.930284
Reading from 22240: heap size 67 MB, throughput 0.952461
Reading from 22240: heap size 54 MB, throughput 0.926589
Reading from 22240: heap size 51 MB, throughput 0.958213
Reading from 22240: heap size 54 MB, throughput 0.969531
Reading from 22240: heap size 54 MB, throughput 0.927158
Reading from 22240: heap size 54 MB, throughput 0.747749
Reading from 22240: heap size 54 MB, throughput 0.476614
Reading from 22240: heap size 56 MB, throughput 0.79861
Reading from 22240: heap size 52 MB, throughput 0.683607
Reading from 22240: heap size 56 MB, throughput 0.824407
Reading from 22240: heap size 56 MB, throughput 0.904879
Reading from 22240: heap size 56 MB, throughput 0.912112
Reading from 22240: heap size 51 MB, throughput 0.945055
Reading from 22240: heap size 56 MB, throughput 0.937973
Reading from 22240: heap size 56 MB, throughput 0.887037
Reading from 22240: heap size 55 MB, throughput 0.903659
Reading from 22240: heap size 55 MB, throughput 0.927298
Reading from 22240: heap size 55 MB, throughput 0.957656
Reading from 22240: heap size 52 MB, throughput 0.966287
Reading from 22240: heap size 55 MB, throughput 0.968484
Reading from 22240: heap size 52 MB, throughput 0.9516
Reading from 22240: heap size 54 MB, throughput 0.864058
Reading from 22240: heap size 54 MB, throughput 0.915712
Reading from 22240: heap size 56 MB, throughput 0.919841
Reading from 22240: heap size 56 MB, throughput 0.848085
Reading from 22240: heap size 56 MB, throughput 0.898966
Reading from 22240: heap size 56 MB, throughput 0.928533
Reading from 22240: heap size 55 MB, throughput 0.958994
Reading from 22240: heap size 55 MB, throughput 0.959009
Reading from 22240: heap size 55 MB, throughput 0.895585
Reading from 22240: heap size 56 MB, throughput 0.961947
Reading from 22240: heap size 55 MB, throughput 0.965646
Reading from 22240: heap size 55 MB, throughput 0.96669
Reading from 22240: heap size 54 MB, throughput 0.967038
Numeric result:
Recommendation: 2 clients, utility 2.21041:
    h1: 316.929 MB (U(h) = 0.630133*h^0.0790806)
    h2: 3442.07 MB (U(h) = 0.00204012*h^0.858853)
Recommendation: 2 clients, utility 2.21041:
    h1: 316.935 MB (U(h) = 0.630133*h^0.0790806)
    h2: 3442.06 MB (U(h) = 0.00204012*h^0.858853)
Reading from 22240: heap size 55 MB, throughput 0.975866
Reading from 22240: heap size 55 MB, throughput 0.97492
Reading from 22240: heap size 55 MB, throughput 0.975396
Reading from 22240: heap size 55 MB, throughput 0.980272
Reading from 22240: heap size 56 MB, throughput 0.980397
Reading from 22240: heap size 57 MB, throughput 0.976593
Reading from 22240: heap size 57 MB, throughput 0.974417
Reading from 22240: heap size 58 MB, throughput 0.976493
Reading from 22240: heap size 58 MB, throughput 0.981408
Reading from 22240: heap size 60 MB, throughput 0.977971
Reading from 22240: heap size 60 MB, throughput 0.989747
Reading from 22239: heap size 1233 MB, throughput 0.968579
Reading from 22240: heap size 61 MB, throughput 0.973943
Reading from 22240: heap size 61 MB, throughput 0.968053
Reading from 22240: heap size 62 MB, throughput 0.967833
Reading from 22240: heap size 63 MB, throughput 0.97005
Reading from 22240: heap size 65 MB, throughput 0.967099
Reading from 22240: heap size 66 MB, throughput 0.804579
Reading from 22240: heap size 66 MB, throughput 0.938695
Reading from 22240: heap size 78 MB, throughput 0.622926
Reading from 22240: heap size 84 MB, throughput 0.863724
Reading from 22240: heap size 84 MB, throughput 0.946537
Reading from 22240: heap size 86 MB, throughput 0.954018
Reading from 22240: heap size 86 MB, throughput 0.965407
Reading from 22240: heap size 87 MB, throughput 0.977735
Reading from 22240: heap size 88 MB, throughput 0.972469
Reading from 22240: heap size 91 MB, throughput 0.957375
Reading from 22240: heap size 91 MB, throughput 0.956239
Reading from 22240: heap size 95 MB, throughput 0.963829
Reading from 22240: heap size 95 MB, throughput 0.959406
Reading from 22240: heap size 99 MB, throughput 0.970515
Reading from 22240: heap size 99 MB, throughput 0.976104
Reading from 22240: heap size 103 MB, throughput 0.9755
Reading from 22240: heap size 103 MB, throughput 0.975704
Reading from 22240: heap size 107 MB, throughput 0.972219
Reading from 22240: heap size 107 MB, throughput 0.931244
Reading from 22240: heap size 111 MB, throughput 0.948836
Reading from 22240: heap size 112 MB, throughput 0.565716
Reading from 22240: heap size 113 MB, throughput 0.956836
Reading from 22239: heap size 1233 MB, throughput 0.970209
Reading from 22240: heap size 117 MB, throughput 0.955306
Reading from 22240: heap size 123 MB, throughput 0.967596
Reading from 22240: heap size 125 MB, throughput 0.956801
Reading from 22240: heap size 130 MB, throughput 0.966909
Reading from 22240: heap size 131 MB, throughput 0.966637
Reading from 22240: heap size 135 MB, throughput 0.969813
Reading from 22240: heap size 136 MB, throughput 0.975099
Reading from 22240: heap size 140 MB, throughput 0.971653
Reading from 22240: heap size 141 MB, throughput 0.975831
Reading from 22240: heap size 146 MB, throughput 0.956708
Reading from 22240: heap size 148 MB, throughput 0.977972
Reading from 22240: heap size 159 MB, throughput 0.9825
Reading from 22240: heap size 159 MB, throughput 0.975795
Reading from 22239: heap size 1235 MB, throughput 0.970374
Reading from 22240: heap size 166 MB, throughput 0.97789
Reading from 22240: heap size 166 MB, throughput 0.979885
Reading from 22240: heap size 171 MB, throughput 0.984616
Numeric result:
Recommendation: 2 clients, utility 2.20023:
    h1: 341.086 MB (U(h) = 0.620769*h^0.0841254)
    h2: 3417.91 MB (U(h) = 0.00227783*h^0.842994)
Recommendation: 2 clients, utility 2.20023:
    h1: 341.086 MB (U(h) = 0.620769*h^0.0841254)
    h2: 3417.91 MB (U(h) = 0.00227783*h^0.842994)
Reading from 22240: heap size 172 MB, throughput 0.98173
Reading from 22240: heap size 179 MB, throughput 0.733344
Reading from 22240: heap size 180 MB, throughput 0.967171
Reading from 22240: heap size 195 MB, throughput 0.973949
Reading from 22240: heap size 195 MB, throughput 0.973261
Reading from 22240: heap size 208 MB, throughput 0.96817
Reading from 22239: heap size 1236 MB, throughput 0.9678
Reading from 22240: heap size 208 MB, throughput 0.96945
Reading from 22240: heap size 220 MB, throughput 0.959046
Reading from 22240: heap size 221 MB, throughput 0.967496
Reading from 22240: heap size 236 MB, throughput 0.972837
Reading from 22240: heap size 238 MB, throughput 0.974611
Reading from 22240: heap size 254 MB, throughput 0.968084
Reading from 22239: heap size 1239 MB, throughput 0.969379
Reading from 22240: heap size 254 MB, throughput 0.968798
Reading from 22240: heap size 269 MB, throughput 0.979104
Reading from 22240: heap size 270 MB, throughput 0.982692
Reading from 22240: heap size 281 MB, throughput 0.981287
Reading from 22240: heap size 283 MB, throughput 0.968542
Numeric result:
Recommendation: 2 clients, utility 2.20888:
    h1: 317.828 MB (U(h) = 0.636011*h^0.0786274)
    h2: 3441.17 MB (U(h) = 0.00215323*h^0.851322)
Recommendation: 2 clients, utility 2.20888:
    h1: 317.824 MB (U(h) = 0.636011*h^0.0786274)
    h2: 3441.18 MB (U(h) = 0.00215323*h^0.851322)
Reading from 22240: heap size 304 MB, throughput 0.983495
Reading from 22240: heap size 304 MB, throughput 0.987397
Reading from 22239: heap size 1240 MB, throughput 0.954797
Reading from 22240: heap size 321 MB, throughput 0.98503
Reading from 22240: heap size 305 MB, throughput 0.984745
Reading from 22240: heap size 313 MB, throughput 0.986919
Reading from 22240: heap size 314 MB, throughput 0.982939
Reading from 22240: heap size 328 MB, throughput 0.976189
Reading from 22239: heap size 1351 MB, throughput 0.963171
Reading from 22240: heap size 308 MB, throughput 0.981519
Reading from 22240: heap size 318 MB, throughput 0.982455
Reading from 22240: heap size 302 MB, throughput 0.984776
Reading from 22240: heap size 310 MB, throughput 0.985138
Reading from 22239: heap size 1352 MB, throughput 0.976054
Numeric result:
Recommendation: 2 clients, utility 2.17481:
    h1: 294.961 MB (U(h) = 0.655114*h^0.0720103)
    h2: 3464.04 MB (U(h) = 0.00223834*h^0.845673)
Recommendation: 2 clients, utility 2.17481:
    h1: 294.968 MB (U(h) = 0.655114*h^0.0720103)
    h2: 3464.03 MB (U(h) = 0.00223834*h^0.845673)
Reading from 22240: heap size 311 MB, throughput 0.98633
Reading from 22240: heap size 294 MB, throughput 0.981687
Reading from 22240: heap size 317 MB, throughput 0.984009
Reading from 22240: heap size 300 MB, throughput 0.985878
Reading from 22239: heap size 1362 MB, throughput 0.980278
Reading from 22240: heap size 292 MB, throughput 0.827526
Reading from 22240: heap size 300 MB, throughput 0.983349
Reading from 22240: heap size 287 MB, throughput 0.987133
Reading from 22240: heap size 294 MB, throughput 0.988799
Reading from 22240: heap size 295 MB, throughput 0.982934
Reading from 22240: heap size 284 MB, throughput 0.981877
Reading from 22239: heap size 1367 MB, throughput 0.976153
Reading from 22240: heap size 292 MB, throughput 0.981841
Reading from 22240: heap size 303 MB, throughput 0.982324
Reading from 22240: heap size 286 MB, throughput 0.98409
Numeric result:
Recommendation: 2 clients, utility 2.19289:
    h1: 273.666 MB (U(h) = 0.667565*h^0.0674597)
    h2: 3485.33 MB (U(h) = 0.00203617*h^0.859143)
Recommendation: 2 clients, utility 2.19289:
    h1: 273.668 MB (U(h) = 0.667565*h^0.0674597)
    h2: 3485.33 MB (U(h) = 0.00203617*h^0.859143)
Reading from 22240: heap size 294 MB, throughput 0.987372
Reading from 22239: heap size 1372 MB, throughput 0.9791
Reading from 22240: heap size 280 MB, throughput 0.986862
Reading from 22240: heap size 269 MB, throughput 0.985121
Reading from 22240: heap size 280 MB, throughput 0.98299
Reading from 22240: heap size 264 MB, throughput 0.949944
Reading from 22240: heap size 284 MB, throughput 0.970937
Reading from 22239: heap size 1373 MB, throughput 0.978578
Reading from 22240: heap size 268 MB, throughput 0.975042
Reading from 22240: heap size 276 MB, throughput 0.982255
Reading from 22240: heap size 260 MB, throughput 0.987169
Reading from 22240: heap size 271 MB, throughput 0.98758
Reading from 22240: heap size 280 MB, throughput 0.9835
Reading from 22240: heap size 267 MB, throughput 0.983959
Reading from 22239: heap size 1363 MB, throughput 0.98008
Reading from 22240: heap size 271 MB, throughput 0.988491
Numeric result:
Recommendation: 2 clients, utility 2.25865:
    h1: 265.555 MB (U(h) = 0.666172*h^0.0674574)
    h2: 3493.44 MB (U(h) = 0.00166923*h^0.887382)
Recommendation: 2 clients, utility 2.25865:
    h1: 265.565 MB (U(h) = 0.666172*h^0.0674574)
    h2: 3493.43 MB (U(h) = 0.00166923*h^0.887382)
Reading from 22240: heap size 275 MB, throughput 0.988318
Reading from 22240: heap size 260 MB, throughput 0.983553
Reading from 22240: heap size 280 MB, throughput 0.985288
Reading from 22240: heap size 265 MB, throughput 0.985447
Reading from 22240: heap size 273 MB, throughput 0.979814
Reading from 22239: heap size 1282 MB, throughput 0.981302
Reading from 22240: heap size 258 MB, throughput 0.966961
Reading from 22240: heap size 279 MB, throughput 0.963596
Reading from 22240: heap size 264 MB, throughput 0.980403
Reading from 22240: heap size 273 MB, throughput 0.984142
Reading from 22240: heap size 258 MB, throughput 0.926482
Reading from 22239: heap size 1352 MB, throughput 0.978329
Reading from 22240: heap size 278 MB, throughput 0.975291
Reading from 22240: heap size 262 MB, throughput 0.982833
Reading from 22240: heap size 273 MB, throughput 0.951746
Reading from 22240: heap size 256 MB, throughput 0.9007
Numeric result:
Recommendation: 2 clients, utility 2.38886:
    h1: 182.49 MB (U(h) = 0.745696*h^0.0474727)
    h2: 3576.51 MB (U(h) = 0.00123614*h^0.930421)
Recommendation: 2 clients, utility 2.38886:
    h1: 182.484 MB (U(h) = 0.745696*h^0.0474727)
    h2: 3576.52 MB (U(h) = 0.00123614*h^0.930421)
Reading from 22240: heap size 278 MB, throughput 0.979903
Reading from 22240: heap size 268 MB, throughput 0.969546
Reading from 22239: heap size 1360 MB, throughput 0.974068
Reading from 22240: heap size 258 MB, throughput 0.981969
Reading from 22240: heap size 238 MB, throughput 0.983407
Reading from 22240: heap size 222 MB, throughput 0.980059
Reading from 22240: heap size 229 MB, throughput 0.976028
Reading from 22240: heap size 220 MB, throughput 0.9818
Reading from 22240: heap size 218 MB, throughput 0.984582
Reading from 22239: heap size 1360 MB, throughput 0.973198
Reading from 22240: heap size 205 MB, throughput 0.978926
Reading from 22240: heap size 205 MB, throughput 0.975644
Reading from 22240: heap size 196 MB, throughput 0.98014
Reading from 22240: heap size 196 MB, throughput 0.980493
Reading from 22240: heap size 186 MB, throughput 0.983163
Reading from 22240: heap size 188 MB, throughput 0.98207
Reading from 22240: heap size 179 MB, throughput 0.975992
Reading from 22240: heap size 187 MB, throughput 0.976612
Reading from 22240: heap size 172 MB, throughput 0.976038
Reading from 22240: heap size 184 MB, throughput 0.979602
Reading from 22240: heap size 171 MB, throughput 0.945447
Reading from 22240: heap size 181 MB, throughput 0.96507
Reading from 22240: heap size 180 MB, throughput 0.974829
Numeric result:
Recommendation: 2 clients, utility 2.79013:
    h1: 109.099 MB (U(h) = 0.828153*h^0.0291021)
    h2: 3649.9 MB (U(h) = 0.001*h^0.973592)
Recommendation: 2 clients, utility 2.79013:
    h1: 109.101 MB (U(h) = 0.828153*h^0.0291021)
    h2: 3649.9 MB (U(h) = 0.001*h^0.973592)
Reading from 22240: heap size 189 MB, throughput 0.973702
Reading from 22240: heap size 178 MB, throughput 0.978682
Reading from 22240: heap size 171 MB, throughput 0.974485
Reading from 22240: heap size 165 MB, throughput 0.978563
Reading from 22240: heap size 162 MB, throughput 0.974324
Reading from 22240: heap size 160 MB, throughput 0.976087
Reading from 22240: heap size 154 MB, throughput 0.976243
Reading from 22240: heap size 149 MB, throughput 0.975341
Reading from 22240: heap size 149 MB, throughput 0.974396
Reading from 22240: heap size 142 MB, throughput 0.979611
Reading from 22240: heap size 145 MB, throughput 0.970158
Reading from 22240: heap size 139 MB, throughput 0.968623
Reading from 22240: heap size 137 MB, throughput 0.972117
Reading from 22240: heap size 132 MB, throughput 0.978472
Reading from 22240: heap size 134 MB, throughput 0.968066
Reading from 22240: heap size 132 MB, throughput 0.969511
Reading from 22240: heap size 130 MB, throughput 0.972582
Reading from 22240: heap size 125 MB, throughput 0.956207
Reading from 22240: heap size 127 MB, throughput 0.797739
Reading from 22240: heap size 115 MB, throughput 0.842032
Reading from 22240: heap size 126 MB, throughput 0.913972
Reading from 22240: heap size 113 MB, throughput 0.939077
Reading from 22240: heap size 123 MB, throughput 0.944816
Reading from 22240: heap size 115 MB, throughput 0.917913
Reading from 22240: heap size 121 MB, throughput 0.938333
Reading from 22240: heap size 116 MB, throughput 0.919328
Reading from 22240: heap size 121 MB, throughput 0.821158
Reading from 22240: heap size 111 MB, throughput 0.777431
Reading from 22240: heap size 116 MB, throughput 0.969699
Reading from 22240: heap size 113 MB, throughput 0.83832
Reading from 22240: heap size 125 MB, throughput 0.893181
Reading from 22240: heap size 107 MB, throughput 0.910609
Reading from 22240: heap size 125 MB, throughput 0.932338
Reading from 22240: heap size 106 MB, throughput 0.9434
Reading from 22240: heap size 124 MB, throughput 0.950466
Reading from 22240: heap size 107 MB, throughput 0.97237
Reading from 22240: heap size 124 MB, throughput 0.98442
Reading from 22240: heap size 110 MB, throughput 0.98274
Reading from 22240: heap size 118 MB, throughput 0.982306
Reading from 22240: heap size 108 MB, throughput 0.952582
Reading from 22240: heap size 117 MB, throughput 0.813635
Reading from 22240: heap size 118 MB, throughput 0.765007
Reading from 22240: heap size 119 MB, throughput 0.559341
Reading from 22240: heap size 106 MB, throughput 0.614662
Reading from 22240: heap size 119 MB, throughput 0.710758
Reading from 22240: heap size 102 MB, throughput 0.779862
Reading from 22240: heap size 119 MB, throughput 0.936149
Reading from 22240: heap size 94 MB, throughput 0.916271
Reading from 22240: heap size 109 MB, throughput 0.947211
Numeric result:
Recommendation: 2 clients, utility 2.75917:
    h1: 266.349 MB (U(h) = 0.647312*h^0.074245)
    h2: 3492.65 MB (U(h) = 0.001*h^0.973592)
Recommendation: 2 clients, utility 2.75917:
    h1: 266.346 MB (U(h) = 0.647312*h^0.074245)
    h2: 3492.65 MB (U(h) = 0.001*h^0.973592)
Reading from 22240: heap size 108 MB, throughput 0.962352
Reading from 22240: heap size 112 MB, throughput 0.977213
Reading from 22240: heap size 112 MB, throughput 0.98038
Reading from 22240: heap size 114 MB, throughput 0.982068
Reading from 22240: heap size 115 MB, throughput 0.979305
Reading from 22240: heap size 119 MB, throughput 0.946023
Reading from 22240: heap size 119 MB, throughput 0.946219
Reading from 22240: heap size 125 MB, throughput 0.887135
Reading from 22240: heap size 126 MB, throughput 0.841928
Reading from 22240: heap size 137 MB, throughput 0.789862
Reading from 22239: heap size 1360 MB, throughput 0.933252
Reading from 22240: heap size 138 MB, throughput 0.781128
Reading from 22240: heap size 146 MB, throughput 0.858384
Reading from 22240: heap size 147 MB, throughput 0.946063
Reading from 22240: heap size 156 MB, throughput 0.956882
Reading from 22240: heap size 157 MB, throughput 0.970107
Reading from 22240: heap size 164 MB, throughput 0.978129
Reading from 22240: heap size 166 MB, throughput 0.982891
Reading from 22240: heap size 172 MB, throughput 0.964921
Reading from 22240: heap size 173 MB, throughput 0.953888
Reading from 22240: heap size 187 MB, throughput 0.91372
Reading from 22240: heap size 188 MB, throughput 0.951863
Reading from 22240: heap size 196 MB, throughput 0.970875
Reading from 22240: heap size 198 MB, throughput 0.981284
Reading from 22240: heap size 209 MB, throughput 0.957588
Reading from 22240: heap size 228 MB, throughput 0.979983
Reading from 22240: heap size 242 MB, throughput 0.985095
Reading from 22240: heap size 245 MB, throughput 0.986043
Reading from 22240: heap size 256 MB, throughput 0.987994
Reading from 22240: heap size 257 MB, throughput 0.938876
Numeric result:
Recommendation: 2 clients, utility 2.72081:
    h1: 274.253 MB (U(h) = 0.63868*h^0.0764933)
    h2: 3484.75 MB (U(h) = 0.001*h^0.971978)
Recommendation: 2 clients, utility 2.72081:
    h1: 274.245 MB (U(h) = 0.63868*h^0.0764933)
    h2: 3484.75 MB (U(h) = 0.001*h^0.971978)
Reading from 22240: heap size 267 MB, throughput 0.957833
Reading from 22240: heap size 271 MB, throughput 0.966889
Reading from 22240: heap size 287 MB, throughput 0.977895
Reading from 22240: heap size 275 MB, throughput 0.978593
Reading from 22240: heap size 276 MB, throughput 0.974288
Reading from 22240: heap size 270 MB, throughput 0.837106
Reading from 22239: heap size 1470 MB, throughput 0.98519
Reading from 22240: heap size 274 MB, throughput 0.978757
Reading from 22240: heap size 276 MB, throughput 0.973068
Reading from 22240: heap size 266 MB, throughput 0.969812
Reading from 22240: heap size 286 MB, throughput 0.985984
Reading from 22240: heap size 286 MB, throughput 0.985985
Reading from 22240: heap size 286 MB, throughput 0.949433
Reading from 22240: heap size 265 MB, throughput 0.892159
Reading from 22240: heap size 279 MB, throughput 0.960077
Reading from 22240: heap size 253 MB, throughput 0.978471
Reading from 22240: heap size 292 MB, throughput 0.977693
Reading from 22240: heap size 273 MB, throughput 0.979346
Reading from 22240: heap size 288 MB, throughput 0.465219
Reading from 22240: heap size 266 MB, throughput 0.911825
Reading from 22240: heap size 300 MB, throughput 0.881953
Numeric result:
Recommendation: 2 clients, utility 3.34442:
    h1: 159.574 MB (U(h) = 0.748312*h^0.0442863)
    h2: 3599.43 MB (U(h) = 0.001*h^0.999)
Recommendation: 2 clients, utility 3.34442:
    h1: 159.565 MB (U(h) = 0.748312*h^0.0442863)
    h2: 3599.43 MB (U(h) = 0.001*h^0.999)
Reading from 22240: heap size 279 MB, throughput 0.925956
Reading from 22239: heap size 1518 MB, throughput 0.986379
Reading from 22240: heap size 267 MB, throughput 0.966573
Reading from 22239: heap size 1516 MB, throughput 0.978035
Reading from 22239: heap size 1519 MB, throughput 0.952684
Reading from 22240: heap size 258 MB, throughput 0.969313
Reading from 22239: heap size 1500 MB, throughput 0.927041
Reading from 22240: heap size 221 MB, throughput 0.973477
Reading from 22239: heap size 1529 MB, throughput 0.878178
Reading from 22239: heap size 1553 MB, throughput 0.837396
Reading from 22239: heap size 1566 MB, throughput 0.769392
Reading from 22240: heap size 232 MB, throughput 0.904553
Reading from 22239: heap size 1596 MB, throughput 0.760032
Reading from 22240: heap size 213 MB, throughput 0.756685
Reading from 22239: heap size 1602 MB, throughput 0.754818
Reading from 22240: heap size 216 MB, throughput 0.726755
Reading from 22240: heap size 196 MB, throughput 0.740346
Reading from 22240: heap size 206 MB, throughput 0.836165
Reading from 22239: heap size 1635 MB, throughput 0.913003
Reading from 22240: heap size 183 MB, throughput 0.918981
Reading from 22240: heap size 196 MB, throughput 0.948579
Reading from 22240: heap size 183 MB, throughput 0.965173
Reading from 22240: heap size 188 MB, throughput 0.974086
Reading from 22240: heap size 177 MB, throughput 0.976267
Reading from 22240: heap size 181 MB, throughput 0.975606
Reading from 22240: heap size 170 MB, throughput 0.973513
Reading from 22240: heap size 174 MB, throughput 0.977531
Reading from 22240: heap size 157 MB, throughput 0.98613
Reading from 22240: heap size 175 MB, throughput 0.972927
Reading from 22240: heap size 165 MB, throughput 0.921413
Reading from 22240: heap size 167 MB, throughput 0.955069
Reading from 22239: heap size 1635 MB, throughput 0.968615
Reading from 22240: heap size 155 MB, throughput 0.965002
Reading from 22240: heap size 167 MB, throughput 0.973349
Numeric result:
Recommendation: 2 clients, utility 1.18847:
    h1: 183.395 MB (U(h) = 0.851375*h^0.0178186)
    h2: 3575.61 MB (U(h) = 0.0741315*h^0.347428)
Recommendation: 2 clients, utility 1.18847:
    h1: 183.383 MB (U(h) = 0.851375*h^0.0178186)
    h2: 3575.62 MB (U(h) = 0.0741315*h^0.347428)
Reading from 22240: heap size 154 MB, throughput 0.971218
Reading from 22240: heap size 174 MB, throughput 0.98375
Reading from 22240: heap size 175 MB, throughput 0.991097
Reading from 22240: heap size 183 MB, throughput 0.98958
Reading from 22240: heap size 165 MB, throughput 0.96858
Reading from 22240: heap size 179 MB, throughput 0.97167
Reading from 22240: heap size 181 MB, throughput 0.921444
Reading from 22240: heap size 190 MB, throughput 0.829191
Reading from 22240: heap size 170 MB, throughput 0.902937
Reading from 22240: heap size 189 MB, throughput 0.93834
Reading from 22240: heap size 166 MB, throughput 0.956617
Reading from 22239: heap size 1647 MB, throughput 0.979035
Reading from 22240: heap size 187 MB, throughput 0.980486
Reading from 22240: heap size 167 MB, throughput 0.974625
Reading from 22240: heap size 182 MB, throughput 0.965175
Reading from 22240: heap size 183 MB, throughput 0.843591
Reading from 22240: heap size 193 MB, throughput 0.876519
Reading from 22240: heap size 175 MB, throughput 0.965515
Reading from 22240: heap size 192 MB, throughput 0.954507
Reading from 22240: heap size 171 MB, throughput 0.975942
Reading from 22240: heap size 190 MB, throughput 0.985876
Reading from 22240: heap size 173 MB, throughput 0.981588
Reading from 22240: heap size 185 MB, throughput 0.979388
Reading from 22240: heap size 177 MB, throughput 0.972869
Reading from 22240: heap size 184 MB, throughput 0.942039
Reading from 22240: heap size 176 MB, throughput 0.862682
Reading from 22240: heap size 184 MB, throughput 0.923091
Reading from 22239: heap size 1654 MB, throughput 0.981047
Reading from 22240: heap size 161 MB, throughput 0.960146
Reading from 22240: heap size 182 MB, throughput 0.982684
Reading from 22240: heap size 181 MB, throughput 0.986979
Numeric result:
Recommendation: 2 clients, utility 1.1781:
    h1: 72.9087 MB (U(h) = 0.898463*h^0.00666971)
    h2: 3686.09 MB (U(h) = 0.0799061*h^0.337209)
Recommendation: 2 clients, utility 1.1781:
    h1: 72.9078 MB (U(h) = 0.898463*h^0.00666971)
    h2: 3686.09 MB (U(h) = 0.0799061*h^0.337209)
Reading from 22240: heap size 186 MB, throughput 0.972734
Reading from 22240: heap size 176 MB, throughput 0.973702
Reading from 22240: heap size 174 MB, throughput 0.946092
Reading from 22240: heap size 161 MB, throughput 0.847869
Reading from 22240: heap size 163 MB, throughput 0.888961
Reading from 22240: heap size 145 MB, throughput 0.933394
Reading from 22240: heap size 155 MB, throughput 0.959721
Reading from 22240: heap size 138 MB, throughput 0.970589
Reading from 22240: heap size 150 MB, throughput 0.977892
Reading from 22240: heap size 133 MB, throughput 0.986213
Reading from 22240: heap size 142 MB, throughput 0.986847
Reading from 22240: heap size 131 MB, throughput 0.958175
Reading from 22240: heap size 140 MB, throughput 0.916571
Reading from 22240: heap size 134 MB, throughput 0.917051
Reading from 22240: heap size 140 MB, throughput 0.966908
Reading from 22240: heap size 123 MB, throughput 0.955882
Reading from 22239: heap size 1653 MB, throughput 0.981623
Reading from 22240: heap size 136 MB, throughput 0.955429
Reading from 22240: heap size 123 MB, throughput 0.881806
Reading from 22240: heap size 132 MB, throughput 0.925095
Reading from 22240: heap size 117 MB, throughput 0.950127
Reading from 22240: heap size 129 MB, throughput 0.967083
Reading from 22240: heap size 114 MB, throughput 0.974729
Reading from 22240: heap size 126 MB, throughput 0.97657
Reading from 22240: heap size 113 MB, throughput 0.962836
Reading from 22240: heap size 123 MB, throughput 0.974755
Reading from 22240: heap size 110 MB, throughput 0.986477
Reading from 22240: heap size 119 MB, throughput 0.983
Reading from 22240: heap size 112 MB, throughput 0.97873
Reading from 22240: heap size 118 MB, throughput 0.969799
Reading from 22240: heap size 111 MB, throughput 0.912786
Reading from 22240: heap size 116 MB, throughput 0.884035
Reading from 22240: heap size 117 MB, throughput 0.745873
Reading from 22240: heap size 116 MB, throughput 0.822497
Reading from 22240: heap size 105 MB, throughput 0.860883
Reading from 22240: heap size 115 MB, throughput 0.879714
Reading from 22240: heap size 104 MB, throughput 0.92672
Reading from 22240: heap size 113 MB, throughput 0.95407
Reading from 22240: heap size 102 MB, throughput 0.943351
Reading from 22240: heap size 111 MB, throughput 0.872842
Reading from 22240: heap size 102 MB, throughput 0.959874
Reading from 22240: heap size 97 MB, throughput 0.948656
Reading from 22240: heap size 88 MB, throughput 0.96366
Reading from 22240: heap size 95 MB, throughput 0.972661
Reading from 22240: heap size 87 MB, throughput 0.977559
Reading from 22240: heap size 94 MB, throughput 0.979106
Reading from 22240: heap size 86 MB, throughput 0.982945
Reading from 22240: heap size 93 MB, throughput 0.98633
Reading from 22240: heap size 86 MB, throughput 0.982953
Reading from 22240: heap size 92 MB, throughput 0.991661
Reading from 22240: heap size 92 MB, throughput 0.991652
Reading from 22240: heap size 92 MB, throughput 0.951224
Reading from 22240: heap size 87 MB, throughput 0.982108
Reading from 22240: heap size 91 MB, throughput 0.97002
Reading from 22240: heap size 91 MB, throughput 0.988095
Reading from 22240: heap size 91 MB, throughput 0.973737
Reading from 22240: heap size 91 MB, throughput 0.958286
Reading from 22240: heap size 92 MB, throughput 0.941515
Reading from 22240: heap size 88 MB, throughput 0.95183
Reading from 22240: heap size 92 MB, throughput 0.901779
Reading from 22240: heap size 92 MB, throughput 0.755452
Reading from 22240: heap size 92 MB, throughput 0.695483
Reading from 22240: heap size 86 MB, throughput 0.83435
Reading from 22239: heap size 1663 MB, throughput 0.978517
Reading from 22240: heap size 92 MB, throughput 0.919268
Reading from 22240: heap size 92 MB, throughput 0.943514
Reading from 22240: heap size 91 MB, throughput 0.929394
Reading from 22240: heap size 91 MB, throughput 0.956963
Reading from 22240: heap size 90 MB, throughput 0.96893
Reading from 22240: heap size 91 MB, throughput 0.977571
Reading from 22240: heap size 91 MB, throughput 0.952398
Reading from 22240: heap size 91 MB, throughput 0.900528
Reading from 22240: heap size 91 MB, throughput 0.934269
Numeric result:
Recommendation: 2 clients, utility 1.34473:
    h1: 30 MB (U(h) = 1.05093*h^0.001)
    h2: 3729 MB (U(h) = 0.0823354*h^0.333184)
Recommendation: 2 clients, utility 1.34473:
    h1: 30 MB (U(h) = 1.05093*h^0.001)
    h2: 3729 MB (U(h) = 0.0823354*h^0.333184)
Reading from 22240: heap size 91 MB, throughput 0.959703
Reading from 22240: heap size 88 MB, throughput 0.975064
Reading from 22240: heap size 88 MB, throughput 0.975069
Reading from 22240: heap size 88 MB, throughput 0.912053
Reading from 22240: heap size 84 MB, throughput 0.958471
Reading from 22240: heap size 85 MB, throughput 0.9715
Reading from 22240: heap size 82 MB, throughput 0.976509
Reading from 22240: heap size 84 MB, throughput 0.980713
Reading from 22240: heap size 81 MB, throughput 0.978163
Reading from 22240: heap size 84 MB, throughput 0.980405
Reading from 22240: heap size 80 MB, throughput 0.979166
Reading from 22240: heap size 82 MB, throughput 0.959554
Reading from 22240: heap size 79 MB, throughput 0.950001
Reading from 22240: heap size 80 MB, throughput 0.958818
Reading from 22240: heap size 75 MB, throughput 0.977097
Reading from 22240: heap size 77 MB, throughput 0.974554
Reading from 22240: heap size 74 MB, throughput 0.954624
Client 22240 died
Clients: 1
Reading from 22239: heap size 1667 MB, throughput 0.984545
Reading from 22239: heap size 1671 MB, throughput 0.987348
Recommendation: one client; give it all the memory
Reading from 22239: heap size 1669 MB, throughput 0.988555
Recommendation: one client; give it all the memory
Reading from 22239: heap size 1677 MB, throughput 0.988313
Reading from 22239: heap size 1661 MB, throughput 0.988104
Recommendation: one client; give it all the memory
Reading from 22239: heap size 1569 MB, throughput 0.987605
Reading from 22239: heap size 1656 MB, throughput 0.986983
Recommendation: one client; give it all the memory
Reading from 22239: heap size 1663 MB, throughput 0.986387
Recommendation: one client; give it all the memory
Reading from 22239: heap size 1666 MB, throughput 0.985837
Reading from 22239: heap size 1668 MB, throughput 0.984666
Recommendation: one client; give it all the memory
Reading from 22239: heap size 1673 MB, throughput 0.983968
Reading from 22239: heap size 1679 MB, throughput 0.983292
Recommendation: one client; give it all the memory
Reading from 22239: heap size 1687 MB, throughput 0.971612
Recommendation: one client; give it all the memory
Reading from 22239: heap size 1602 MB, throughput 0.989823
Reading from 22239: heap size 1602 MB, throughput 0.992481
Recommendation: one client; give it all the memory
Reading from 22239: heap size 1612 MB, throughput 0.992768
Recommendation: one client; give it all the memory
Reading from 22239: heap size 1620 MB, throughput 0.992844
Reading from 22239: heap size 1621 MB, throughput 0.992517
Recommendation: one client; give it all the memory
Reading from 22239: heap size 1608 MB, throughput 0.991612
Reading from 22239: heap size 1470 MB, throughput 0.990752
Recommendation: one client; give it all the memory
Reading from 22239: heap size 1589 MB, throughput 0.989874
Recommendation: one client; give it all the memory
Reading from 22239: heap size 1498 MB, throughput 0.989165
Reading from 22239: heap size 1590 MB, throughput 0.9886
Recommendation: one client; give it all the memory
Reading from 22239: heap size 1593 MB, throughput 0.987777
Recommendation: one client; give it all the memory
Reading from 22239: heap size 1594 MB, throughput 0.986394
Recommendation: one client; give it all the memory
Recommendation: one client; give it all the memory
Reading from 22239: heap size 1598 MB, throughput 0.993944
Recommendation: one client; give it all the memory
Reading from 22239: heap size 1609 MB, throughput 0.991889
Reading from 22239: heap size 1611 MB, throughput 0.982487
Reading from 22239: heap size 1601 MB, throughput 0.969832
Reading from 22239: heap size 1643 MB, throughput 0.947495
Reading from 22239: heap size 1676 MB, throughput 0.919889
Reading from 22239: heap size 1691 MB, throughput 0.881933
Client 22239 died
Clients: 0
Recommendation: no clients; no recommendation
Recommendation: no clients; no recommendation
ReadingThread: finished
TimerThread: finished
CommandThread: finished
Main: All threads killed, cleaning up
