F S UID        PID  PPID  C PRI  NI ADDR SZ WCHAN    RSS PSR STIME TTY          TIME CMD
4 S root         1     0  0  80   0 -  8478 poll_s  3184   0 15:36 ?        00:00:01 /sbin/init
1 S root         2     0  0  80   0 -     0 kthrea     0   0 15:36 ?        00:00:00 [kthreadd]
1 S root         3     2  0  80   0 -     0 smpboo     0   0 15:36 ?        00:00:00 [ksoftirqd/0]
1 S root         4     2  0  80   0 -     0 worker     0   0 15:36 ?        00:00:00 [kworker/0:0]
1 S root         5     2  0  60 -20 -     0 worker     0   0 15:36 ?        00:00:00 [kworker/0:0H]
1 S root         6     2  0  80   0 -     0 worker     0   0 15:36 ?        00:00:00 [kworker/u8:0]
1 S root         7     2  0  80   0 -     0 rcu_gp     0   3 15:36 ?        00:00:00 [rcu_sched]
1 S root         8     2  0  80   0 -     0 rcu_no     0   2 15:36 ?        00:00:00 [rcuos/0]
1 S root         9     2  0  80   0 -     0 rcu_no     0   0 15:36 ?        00:00:00 [rcuos/1]
1 S root        10     2  0  80   0 -     0 rcu_no     0   0 15:36 ?        00:00:00 [rcuos/2]
1 S root        11     2  0  80   0 -     0 rcu_no     0   1 15:36 ?        00:00:00 [rcuos/3]
1 S root        12     2  0  80   0 -     0 rcu_gp     0   0 15:36 ?        00:00:00 [rcu_bh]
1 S root        13     2  0  80   0 -     0 rcu_no     0   0 15:36 ?        00:00:00 [rcuob/0]
1 S root        14     2  0  80   0 -     0 rcu_no     0   0 15:36 ?        00:00:00 [rcuob/1]
1 S root        15     2  0  80   0 -     0 rcu_no     0   0 15:36 ?        00:00:00 [rcuob/2]
1 S root        16     2  0  80   0 -     0 rcu_no     0   0 15:36 ?        00:00:00 [rcuob/3]
1 S root        17     2  0 -40   - -     0 smpboo     0   0 15:36 ?        00:00:00 [migration/0]
5 S root        18     2  0 -40   - -     0 smpboo     0   0 15:36 ?        00:00:00 [watchdog/0]
5 S root        19     2  0 -40   - -     0 smpboo     0   1 15:36 ?        00:00:00 [watchdog/1]
1 S root        20     2  0 -40   - -     0 smpboo     0   1 15:36 ?        00:00:00 [migration/1]
1 S root        21     2  0  80   0 -     0 smpboo     0   1 15:36 ?        00:00:00 [ksoftirqd/1]
1 S root        22     2  0  80   0 -     0 worker     0   1 15:36 ?        00:00:00 [kworker/1:0]
1 S root        23     2  0  60 -20 -     0 worker     0   1 15:36 ?        00:00:00 [kworker/1:0H]
5 S root        24     2  0 -40   - -     0 smpboo     0   2 15:36 ?        00:00:00 [watchdog/2]
1 S root        25     2  0 -40   - -     0 smpboo     0   2 15:36 ?        00:00:00 [migration/2]
1 S root        26     2  0  80   0 -     0 smpboo     0   2 15:36 ?        00:00:00 [ksoftirqd/2]
1 S root        27     2  0  80   0 -     0 worker     0   2 15:36 ?        00:00:00 [kworker/2:0]
1 S root        28     2  0  60 -20 -     0 worker     0   2 15:36 ?        00:00:00 [kworker/2:0H]
5 S root        29     2  0 -40   - -     0 smpboo     0   3 15:36 ?        00:00:00 [watchdog/3]
1 S root        30     2  0 -40   - -     0 smpboo     0   3 15:36 ?        00:00:00 [migration/3]
1 S root        31     2  0  80   0 -     0 smpboo     0   3 15:36 ?        00:00:00 [ksoftirqd/3]
1 S root        32     2  0  80   0 -     0 worker     0   3 15:36 ?        00:00:00 [kworker/3:0]
1 S root        33     2  0  60 -20 -     0 worker     0   3 15:36 ?        00:00:00 [kworker/3:0H]
1 S root        34     2  0  60 -20 -     0 rescue     0   3 15:36 ?        00:00:00 [khelper]
5 S root        35     2  0  80   0 -     0 devtmp     0   0 15:36 ?        00:00:00 [kdevtmpfs]
1 S root        36     2  0  60 -20 -     0 rescue     0   3 15:36 ?        00:00:00 [netns]
1 S root        37     2  0  60 -20 -     0 rescue     0   3 15:36 ?        00:00:00 [writeback]
1 S root        38     2  0  60 -20 -     0 rescue     0   1 15:36 ?        00:00:00 [kintegrityd]
1 S root        39     2  0  60 -20 -     0 rescue     0   1 15:36 ?        00:00:00 [bioset]
1 S root        40     2  0  60 -20 -     0 worker     0   2 15:36 ?        00:00:00 [kworker/u9:0]
1 S root        41     2  0  60 -20 -     0 rescue     0   2 15:36 ?        00:00:00 [kblockd]
1 S root        42     2  0  60 -20 -     0 rescue     0   2 15:36 ?        00:00:00 [ata_sff]
1 S root        43     2  0  80   0 -     0 hub_th     0   2 15:36 ?        00:00:00 [khubd]
1 S root        44     2  0  60 -20 -     0 rescue     0   2 15:36 ?        00:00:00 [md]
1 S root        45     2  0  60 -20 -     0 rescue     0   3 15:36 ?        00:00:00 [devfreq_wq]
1 S root        46     2  0  80   0 -     0 worker     0   0 15:36 ?        00:00:00 [kworker/0:1]
1 S root        48     2  0  80   0 -     0 watchd     0   0 15:36 ?        00:00:00 [khungtaskd]
1 S root        49     2  0  80   0 -     0 kswapd     0   3 15:36 ?        00:00:00 [kswapd0]
1 S root        50     2  0  85   5 -     0 ksm_sc     0   3 15:36 ?        00:00:00 [ksmd]
1 S root        51     2  0  99  19 -     0 khugep     0   3 15:36 ?        00:00:00 [khugepaged]
1 S root        52     2  0  80   0 -     0 fsnoti     0   0 15:36 ?        00:00:00 [fsnotify_mark]
1 S root        53     2  0  80   0 -     0 ecrypt     0   3 15:36 ?        00:00:00 [ecryptfs-kthrea]
1 S root        54     2  0  60 -20 -     0 rescue     0   3 15:36 ?        00:00:00 [crypto]
1 S root        66     2  0  60 -20 -     0 rescue     0   3 15:36 ?        00:00:00 [kthrotld]
1 S root        67     2  0  80   0 -     0 worker     0   0 15:36 ?        00:00:00 [kworker/u8:1]
1 S root        68     2  0  80   0 -     0 worker     0   1 15:36 ?        00:00:00 [kworker/1:1]
1 S root        87     2  0  60 -20 -     0 rescue     0   1 15:36 ?        00:00:00 [deferwq]
1 S root        88     2  0  60 -20 -     0 rescue     0   1 15:36 ?        00:00:00 [charger_manager]
1 S root       106     2  0  80   0 -     0 worker     0   0 15:36 ?        00:00:00 [kworker/0:2]
1 S root       136     2  0  60 -20 -     0 rescue     0   1 15:36 ?        00:00:00 [kpsmoused]
1 S root       137     2  0  80   0 -     0 scsi_e     0   0 15:36 ?        00:00:00 [scsi_eh_0]
1 S root       138     2  0  80   0 -     0 scsi_e     0   1 15:36 ?        00:00:00 [scsi_eh_1]
1 S root       139     2  0  80   0 -     0 scsi_e     0   2 15:36 ?        00:00:00 [scsi_eh_2]
1 S root       140     2  0  80   0 -     0 scsi_e     0   1 15:36 ?        00:00:00 [scsi_eh_3]
1 S root       141     2  0  80   0 -     0 scsi_e     0   1 15:36 ?        00:00:00 [scsi_eh_4]
1 S root       142     2  0  80   0 -     0 scsi_e     0   2 15:36 ?        00:00:00 [scsi_eh_5]
1 S root       143     2  0  80   0 -     0 worker     0   3 15:36 ?        00:00:00 [kworker/u8:2]
1 S root       147     2  0  80   0 -     0 worker     0   0 15:36 ?        00:00:00 [kworker/u8:3]
1 S root       160     2  0  60 -20 -     0 rescue     0   0 15:36 ?        00:00:00 [ttm_swap]
1 S root       170     2  0  80   0 -     0 worker     0   1 15:36 ?        00:00:00 [kworker/u8:4]
1 S root       171     2  0  80   0 -     0 worker     0   1 15:36 ?        00:00:00 [kworker/u8:5]
1 S root       172     2  0  80   0 -     0 worker     0   1 15:36 ?        00:00:00 [kworker/u8:6]
1 S root       173     2  0  80   0 -     0 worker     0   1 15:36 ?        00:00:00 [kworker/1:2]
1 S root       174     2  0  80   0 -     0 worker     0   2 15:36 ?        00:00:00 [kworker/2:1]
1 S root       175     2  0  80   0 -     0 worker     0   2 15:36 ?        00:00:00 [kworker/u8:7]
1 S root       176     2  0  80   0 -     0 worker     0   1 15:36 ?        00:00:00 [kworker/u8:8]
1 S root       177     2  0  80   0 -     0 worker     0   3 15:36 ?        00:00:00 [kworker/3:1]
1 S root       192     2  0  60 -20 -     0 rescue     0   1 15:36 ?        00:00:00 [kdmflush]
1 S root       193     2  0  60 -20 -     0 rescue     0   3 15:36 ?        00:00:00 [bioset]
1 S root       195     2  0  60 -20 -     0 rescue     0   1 15:36 ?        00:00:00 [kdmflush]
1 S root       196     2  0  60 -20 -     0 rescue     0   2 15:36 ?        00:00:00 [bioset]
1 S root       286     2  0  80   0 -     0 kjourn     0   1 15:36 ?        00:00:00 [jbd2/dm-0-8]
1 S root       287     2  0  60 -20 -     0 rescue     0   3 15:36 ?        00:00:00 [ext4-rsv-conver]
1 S root       455     1  0  80   0 -  4869 poll_s   652   3 15:36 ?        00:00:00 upstart-udev-bridge --daemon
5 S root       460     1  0  80   0 - 13004 ep_pol  2252   0 15:36 ?        00:00:00 /lib/systemd/systemd-udevd --daemon
1 S root       513     2  0   9   - -     0 irq_th     0   2 15:36 ?        00:00:00 [irq/46-mei_me]
1 S root       527     2  0  60 -20 -     0 worker     0   2 15:36 ?        00:00:00 [kworker/u9:1]
1 S root       576     2  0  60 -20 -     0 rescue     0   0 15:36 ?        00:00:00 [kvm-irqfd-clean]
1 S root       587     2  0  60 -20 -     0 rescue     0   0 15:36 ?        00:00:00 [hd-audio0]
1 S root       593     2  0  60 -20 -     0 rescue     0   1 15:36 ?        00:00:00 [kmpathd]
1 S root       594     2  0  60 -20 -     0 rescue     0   2 15:36 ?        00:00:00 [kmpath_handlerd]
1 S root       668     1  0  80   0 -  3815 poll_s   632   2 15:36 ?        00:00:00 upstart-socket-bridge --daemon
1 S root       796     2  0  60 -20 -     0 rescue     0   0 15:36 ?        00:00:00 [ext4-rsv-conver]
1 S root       814     2  0  80   0 -     0 kaudit     0   0 15:36 ?        00:00:00 [kauditd]
1 S root       955     1  0  80   0 -  3819 poll_s   624   3 15:36 ?        00:00:00 upstart-file-bridge --daemon
5 S message+   966     1  0  80   0 -  9881 ep_pol  1712   0 15:36 ?        00:00:00 dbus-daemon --system --fork
4 S root       983     1  0  80   0 - 82566 poll_s  4940   3 15:36 ?        00:00:00 /usr/sbin/ModemManager
5 S syslog     989     1  0  80   0 - 63961 poll_s  1408   1 15:36 ?        00:00:00 rsyslogd
5 S root      1049     2  0  70 -10 -     0 rfcomm     0   3 15:36 ?        00:00:00 [krfcommd]
4 S root      1071     1  0  80   0 - 10863 ep_pol  1832   1 15:36 ?        00:00:00 /lib/systemd/systemd-logind
5 S root      1129     1  0  80   0 - 85191 poll_s  6248   3 15:36 ?        00:00:00 NetworkManager
4 S root      1137     1  0  80   0 - 69940 poll_s  3424   2 15:36 ?        00:00:00 /usr/lib/policykit-1/polkitd --no-debug
4 S root      1418     1  0  80   0 -  3955 n_tty_   960   0 15:36 tty4     00:00:00 /sbin/getty -8 38400 tty4
4 S root      1420     1  0  80   0 -  3955 n_tty_   964   0 15:36 tty5     00:00:00 /sbin/getty -8 38400 tty5
4 S root      1427     1  0  80   0 -  3955 n_tty_   964   3 15:36 tty2     00:00:00 /sbin/getty -8 38400 tty2
4 S root      1428     1  0  80   0 -  3955 n_tty_   956   0 15:36 tty3     00:00:00 /sbin/getty -8 38400 tty3
4 S root      1431     1  0  80   0 -  3955 n_tty_   956   0 15:36 tty6     00:00:00 /sbin/getty -8 38400 tty6
4 S root      1457     1  0  80   0 - 15341 poll_s  3060   1 15:36 ?        00:00:00 /usr/sbin/sshd -D
1 S root      1503     1  0  80   0 -  1092 poll_s   708   0 15:36 ?        00:00:00 acpid -c /etc/acpi/events -s /var/run/acpid.socket
5 S root      1505     1  0  80   0 -  4797 hrtime   740   1 15:36 ?        00:00:00 /usr/sbin/irqbalance
1 S kernoops  1655     1  0  80   0 -  9286 poll_s  1012   2 15:36 ?        00:00:00 /usr/sbin/kerneloops
1 S root      1676     2  0  60 -20 -     0 rescue     0   1 15:36 ?        00:00:00 [iprt]
4 S root      1744     1  0  80   0 -  3955 n_tty_   956   1 15:36 tty1     00:00:00 /sbin/getty -8 38400 tty1
4 S root      1765  1129  0  80   0 -  2558 poll_s  3708   2 15:36 ?        00:00:00 /sbin/dhclient -d -sf /usr/lib/NetworkManager/nm-dhcp-client.action -pf /run/sendsigs.omit.d/network-manager.dhclient-eth0.pid -lf /var/lib/NetworkManager/dhclient-5b568e62-bfc4-43f0-971a-3c6852812ff0-eth0.lease -cf /var/lib/NetworkManager/dhclient-eth0.conf eth0
4 S nobody    1779  1129  0  80   0 -  7758 poll_s  1532   2 15:36 ?        00:00:00 /usr/sbin/dnsmasq --no-resolv --keep-in-foreground --no-hosts --bind-interfaces --pid-file=/run/sendsigs.omit.d/network-manager.dnsmasq.pid --listen-address=127.0.1.1 --conf-file=/var/run/NetworkManager/dnsmasq.conf --cache-size=0 --proxy-dnssec --enable-dbus=org.freedesktop.NetworkManager.dnsmasq --conf-dir=/etc/NetworkManager/dnsmasq.d
4 S root      2049  1457  0  80   0 - 32009 poll_s  4704   1 15:36 ?        00:00:00 sshd: callum [priv] 
4 S root      2052     1  0  80   0 - 525656 poll_s 4052   3 15:36 ?        00:00:00 /usr/sbin/console-kit-daemon --no-daemon
1 S root      2054     2  0  80   0 -     0 worker     0   2 15:36 ?        00:00:00 [kworker/2:2]
5 S callum    2187  2049  0  80   0 - 32009 poll_s  2076   2 15:36 ?        00:00:00 sshd: callum@pts/0  
0 S callum    2188  2187  0  80   0 - 12311 sigsus  7056   0 15:36 pts/0    00:00:00 -zsh
1 S callum    2240     1  0  80   0 -  2655 poll_s   316   1 15:36 ?        00:00:00 ssh-agent -s
4 S colord    2645     1  0  80   0 - 75369 poll_s  5692   1 15:37 ?        00:00:00 /usr/lib/colord/colord
0 S callum    2850  2188  0  80   0 -  3984 poll_s  1168   2 15:38 pts/0    00:00:00 tmux
1 S callum    2852     1  0  80   0 -  6143 poll_s  1912   0 15:38 ?        00:00:00 tmux
0 S callum    2853  2852  2  80   0 - 12324 sigsus  7124   1 15:38 pts/1    00:00:00 -zsh
0 S callum    3255  2853 16  80   0 - 54938 futex_ 42588   0 15:38 pts/1    00:00:00 ./timer_comparison_many -r 10 -m ../../data/saved/min_heaps.csv --unconstrained --staticEqual --daemonVengerov ../../data/saved/many_input_3.csv
0 R callum    4895  3255  0  80   0 -  4615 -       1304   2 15:38 pts/1    00:00:00 ps -elFww
