MemTotal:       16318588 kB
MemFree:        12157852 kB
Buffers:          673108 kB
Cached:          2276488 kB
SwapCached:            0 kB
Active:          2233592 kB
Inactive:        1367268 kB
Active(anon):     652064 kB
Inactive(anon):      748 kB
Active(file):    1581528 kB
Inactive(file):  1366520 kB
Unevictable:           0 kB
Mlocked:               0 kB
SwapTotal:      16728060 kB
SwapFree:       16728060 kB
Dirty:               212 kB
Writeback:             0 kB
AnonPages:        651280 kB
Mapped:            17564 kB
Shmem:              1552 kB
Slab:             432268 kB
SReclaimable:     411472 kB
SUnreclaim:        20796 kB
KernelStack:        1584 kB
PageTables:         4232 kB
NFS_Unstable:          0 kB
Bounce:                0 kB
WritebackTmp:          0 kB
CommitLimit:    24887352 kB
Committed_AS:     825452 kB
VmallocTotal:   34359738367 kB
VmallocUsed:      370636 kB
VmallocChunk:   34359363072 kB
HardwareCorrupted:     0 kB
AnonHugePages:    628736 kB
HugePages_Total:       0
HugePages_Free:        0
HugePages_Rsvd:        0
HugePages_Surp:        0
Hugepagesize:       2048 kB
DirectMap4k:       70592 kB
DirectMap2M:    16590848 kB
