MemTotal:       16318588 kB
MemFree:        13684224 kB
Buffers:          624656 kB
Cached:           833872 kB
SwapCached:         1344 kB
Active:          1579760 kB
Inactive:         676876 kB
Active(anon):     797532 kB
Inactive(anon):     2108 kB
Active(file):     782228 kB
Inactive(file):   674768 kB
Unevictable:           0 kB
Mlocked:               0 kB
SwapTotal:      16728060 kB
SwapFree:       16726716 kB
Dirty:               172 kB
Writeback:             0 kB
AnonPages:        796760 kB
Mapped:            15916 kB
Shmem:              1536 kB
Slab:             250488 kB
SReclaimable:     232172 kB
SUnreclaim:        18316 kB
KernelStack:        1568 kB
PageTables:         4120 kB
NFS_Unstable:          0 kB
Bounce:                0 kB
WritebackTmp:          0 kB
CommitLimit:    24887352 kB
Committed_AS:     946952 kB
VmallocTotal:   34359738367 kB
VmallocUsed:      370636 kB
VmallocChunk:   34359363072 kB
HardwareCorrupted:     0 kB
AnonHugePages:    774144 kB
HugePages_Total:       0
HugePages_Free:        0
HugePages_Rsvd:        0
HugePages_Surp:        0
Hugepagesize:       2048 kB
DirectMap4k:       72640 kB
DirectMap2M:    16588800 kB
