MemTotal:       16318588 kB
MemFree:        15491424 kB
Buffers:          141116 kB
Cached:           322156 kB
SwapCached:            0 kB
Active:           157008 kB
Inactive:         350988 kB
Active(anon):      45272 kB
Inactive(anon):      756 kB
Active(file):     111736 kB
Inactive(file):   350232 kB
Unevictable:           0 kB
Mlocked:               0 kB
SwapTotal:      16728060 kB
SwapFree:       16728060 kB
Dirty:                60 kB
Writeback:             0 kB
AnonPages:         44400 kB
Mapped:            18248 kB
Shmem:              1564 kB
Slab:             195176 kB
SReclaimable:     176872 kB
SUnreclaim:        18304 kB
KernelStack:        1808 kB
PageTables:         3968 kB
NFS_Unstable:          0 kB
Bounce:                0 kB
WritebackTmp:          0 kB
CommitLimit:    24887352 kB
Committed_AS:     197532 kB
VmallocTotal:   34359738367 kB
VmallocUsed:      370700 kB
VmallocChunk:   34359363072 kB
HardwareCorrupted:     0 kB
AnonHugePages:     10240 kB
HugePages_Total:       0
HugePages_Free:        0
HugePages_Rsvd:        0
HugePages_Surp:        0
Hugepagesize:       2048 kB
DirectMap4k:       74688 kB
DirectMap2M:    16586752 kB
