MemTotal:       16318588 kB
MemFree:        13615212 kB
Buffers:          656096 kB
Cached:           895088 kB
SwapCached:            0 kB
Active:          1489336 kB
Inactive:         712952 kB
Active(anon):     651904 kB
Inactive(anon):      748 kB
Active(file):     837432 kB
Inactive(file):   712204 kB
Unevictable:           0 kB
Mlocked:               0 kB
SwapTotal:      16728060 kB
SwapFree:       16728060 kB
Dirty:                20 kB
Writeback:             0 kB
AnonPages:        651132 kB
Mapped:            17396 kB
Shmem:              1552 kB
Slab:             372376 kB
SReclaimable:     352812 kB
SUnreclaim:        19564 kB
KernelStack:        1584 kB
PageTables:         4020 kB
NFS_Unstable:          0 kB
Bounce:                0 kB
WritebackTmp:          0 kB
CommitLimit:    24887352 kB
Committed_AS:     810028 kB
VmallocTotal:   34359738367 kB
VmallocUsed:      370636 kB
VmallocChunk:   34359363072 kB
HardwareCorrupted:     0 kB
AnonHugePages:    628736 kB
HugePages_Total:       0
HugePages_Free:        0
HugePages_Rsvd:        0
HugePages_Surp:        0
Hugepagesize:       2048 kB
DirectMap4k:       70592 kB
DirectMap2M:    16590848 kB
