F S UID        PID  PPID  C PRI  NI ADDR SZ WCHAN    RSS PSR STIME TTY          TIME CMD
4 S root         1     0  0  80   0 -  8478 poll_s  3196   1 Aug12 ?        00:00:01 /sbin/init
1 S root         2     0  0  80   0 -     0 kthrea     0   2 Aug12 ?        00:00:00 [kthreadd]
1 S root         3     2  0  80   0 -     0 smpboo     0   0 Aug12 ?        00:00:01 [ksoftirqd/0]
1 S root         4     2  0  80   0 -     0 worker     0   0 Aug12 ?        00:00:00 [kworker/0:0]
1 S root         5     2  0  60 -20 -     0 worker     0   0 Aug12 ?        00:00:00 [kworker/0:0H]
1 S root         7     2  0  80   0 -     0 rcu_gp     0   0 Aug12 ?        00:02:02 [rcu_sched]
1 S root         8     2  0  80   0 -     0 rcu_no     0   3 Aug12 ?        00:01:04 [rcuos/0]
1 S root         9     2  0  80   0 -     0 rcu_no     0   2 Aug12 ?        00:01:15 [rcuos/1]
1 S root        10     2  0  80   0 -     0 rcu_no     0   1 Aug12 ?        00:01:03 [rcuos/2]
1 S root        11     2  0  80   0 -     0 rcu_no     0   1 Aug12 ?        00:01:01 [rcuos/3]
1 S root        12     2  0  80   0 -     0 rcu_gp     0   0 Aug12 ?        00:00:00 [rcu_bh]
1 S root        13     2  0  80   0 -     0 rcu_no     0   0 Aug12 ?        00:00:00 [rcuob/0]
1 S root        14     2  0  80   0 -     0 rcu_no     0   0 Aug12 ?        00:00:00 [rcuob/1]
1 S root        15     2  0  80   0 -     0 rcu_no     0   0 Aug12 ?        00:00:00 [rcuob/2]
1 S root        16     2  0  80   0 -     0 rcu_no     0   0 Aug12 ?        00:00:00 [rcuob/3]
1 S root        17     2  0 -40   - -     0 smpboo     0   0 Aug12 ?        00:00:00 [migration/0]
5 S root        18     2  0 -40   - -     0 smpboo     0   0 Aug12 ?        00:00:00 [watchdog/0]
5 S root        19     2  0 -40   - -     0 smpboo     0   1 Aug12 ?        00:00:00 [watchdog/1]
1 S root        20     2  0 -40   - -     0 smpboo     0   1 Aug12 ?        00:00:00 [migration/1]
1 S root        21     2  0  80   0 -     0 smpboo     0   1 Aug12 ?        00:00:01 [ksoftirqd/1]
1 S root        23     2  0  60 -20 -     0 worker     0   1 Aug12 ?        00:00:00 [kworker/1:0H]
5 S root        24     2  0 -40   - -     0 smpboo     0   2 Aug12 ?        00:00:00 [watchdog/2]
1 S root        25     2  0 -40   - -     0 smpboo     0   2 Aug12 ?        00:00:00 [migration/2]
1 S root        26     2  0  80   0 -     0 smpboo     0   2 Aug12 ?        00:00:01 [ksoftirqd/2]
1 S root        28     2  0  60 -20 -     0 worker     0   2 Aug12 ?        00:00:00 [kworker/2:0H]
5 S root        29     2  0 -40   - -     0 smpboo     0   3 Aug12 ?        00:00:00 [watchdog/3]
1 S root        30     2  0 -40   - -     0 smpboo     0   3 Aug12 ?        00:00:00 [migration/3]
1 S root        31     2  0  80   0 -     0 smpboo     0   3 Aug12 ?        00:00:01 [ksoftirqd/3]
1 S root        32     2  0  80   0 -     0 worker     0   3 Aug12 ?        00:00:00 [kworker/3:0]
1 S root        33     2  0  60 -20 -     0 worker     0   3 Aug12 ?        00:00:00 [kworker/3:0H]
1 S root        34     2  0  60 -20 -     0 rescue     0   3 Aug12 ?        00:00:00 [khelper]
5 S root        35     2  0  80   0 -     0 devtmp     0   0 Aug12 ?        00:00:00 [kdevtmpfs]
1 S root        36     2  0  60 -20 -     0 rescue     0   3 Aug12 ?        00:00:00 [netns]
1 S root        37     2  0  60 -20 -     0 rescue     0   3 Aug12 ?        00:00:00 [writeback]
1 S root        38     2  0  60 -20 -     0 rescue     0   2 Aug12 ?        00:00:00 [kintegrityd]
1 S root        39     2  0  60 -20 -     0 rescue     0   2 Aug12 ?        00:00:00 [bioset]
1 S root        40     2  0  60 -20 -     0 worker     0   1 Aug12 ?        00:00:00 [kworker/u9:0]
1 S root        41     2  0  60 -20 -     0 rescue     0   2 Aug12 ?        00:00:00 [kblockd]
1 S root        42     2  0  60 -20 -     0 rescue     0   2 Aug12 ?        00:00:00 [ata_sff]
1 S root        43     2  0  80   0 -     0 hub_th     0   3 Aug12 ?        00:00:00 [khubd]
1 S root        44     2  0  60 -20 -     0 rescue     0   2 Aug12 ?        00:00:00 [md]
1 S root        45     2  0  60 -20 -     0 rescue     0   3 Aug12 ?        00:00:00 [devfreq_wq]
1 S root        46     2  0  80   0 -     0 worker     0   0 Aug12 ?        00:11:26 [kworker/0:1]
1 S root        48     2  0  80   0 -     0 watchd     0   3 Aug12 ?        00:00:00 [khungtaskd]
1 S root        49     2  0  80   0 -     0 kswapd     0   3 Aug12 ?        00:00:00 [kswapd0]
1 S root        50     2  0  85   5 -     0 ksm_sc     0   3 Aug12 ?        00:00:00 [ksmd]
1 S root        51     2  0  99  19 -     0 khugep     0   1 Aug12 ?        00:00:04 [khugepaged]
1 S root        52     2  0  80   0 -     0 fsnoti     0   1 Aug12 ?        00:00:00 [fsnotify_mark]
1 S root        53     2  0  80   0 -     0 ecrypt     0   3 Aug12 ?        00:00:00 [ecryptfs-kthrea]
1 S root        54     2  0  60 -20 -     0 rescue     0   1 Aug12 ?        00:00:00 [crypto]
1 S root        66     2  0  60 -20 -     0 rescue     0   1 Aug12 ?        00:00:00 [kthrotld]
1 S root        87     2  0  60 -20 -     0 rescue     0   3 Aug12 ?        00:00:00 [deferwq]
1 S root        88     2  0  60 -20 -     0 rescue     0   2 Aug12 ?        00:00:00 [charger_manager]
1 S root        94     2  0  80   0 -     0 worker     0   1 Aug12 ?        00:11:37 [kworker/1:1]
1 S root       136     2  0  60 -20 -     0 rescue     0   3 Aug12 ?        00:00:00 [kpsmoused]
1 S root       137     2  0  80   0 -     0 scsi_e     0   1 Aug12 ?        00:00:00 [scsi_eh_0]
1 S root       138     2  0  80   0 -     0 scsi_e     0   0 Aug12 ?        00:00:00 [scsi_eh_1]
1 S root       139     2  0  80   0 -     0 scsi_e     0   0 Aug12 ?        00:00:00 [scsi_eh_2]
1 S root       140     2  0  80   0 -     0 scsi_e     0   1 Aug12 ?        00:00:00 [scsi_eh_3]
1 S root       141     2  0  80   0 -     0 scsi_e     0   0 Aug12 ?        00:00:00 [scsi_eh_4]
1 S root       142     2  0  80   0 -     0 scsi_e     0   1 Aug12 ?        00:00:00 [scsi_eh_5]
1 S root       159     2  0  60 -20 -     0 rescue     0   1 Aug12 ?        00:00:00 [ttm_swap]
1 S root       173     2  0  80   0 -     0 worker     0   2 Aug12 ?        00:11:27 [kworker/2:2]
1 S root       174     2  0  80   0 -     0 worker     0   3 Aug12 ?        00:11:18 [kworker/3:1]
1 S root       191     2  0  60 -20 -     0 rescue     0   1 Aug12 ?        00:00:00 [kdmflush]
1 S root       192     2  0  60 -20 -     0 rescue     0   3 Aug12 ?        00:00:00 [bioset]
1 S root       194     2  0  60 -20 -     0 rescue     0   0 Aug12 ?        00:00:00 [kdmflush]
1 S root       195     2  0  60 -20 -     0 rescue     0   1 Aug12 ?        00:00:00 [bioset]
1 S root       285     2  0  80   0 -     0 kjourn     0   3 Aug12 ?        00:00:01 [jbd2/dm-0-8]
1 S root       286     2  0  60 -20 -     0 rescue     0   0 Aug12 ?        00:00:00 [ext4-rsv-conver]
1 S root       454     1  0  80   0 -  4869 poll_s   652   0 Aug12 ?        00:00:00 upstart-udev-bridge --daemon
5 S root       459     1  0  80   0 - 12953 ep_pol  2056   0 Aug12 ?        00:00:00 /lib/systemd/systemd-udevd --daemon
1 S root       495     2  0   9   - -     0 irq_th     0   1 Aug12 ?        00:00:00 [irq/46-mei_me]
1 S root       517     2  0  60 -20 -     0 worker     0   0 Aug12 ?        00:00:00 [kworker/u9:1]
1 S root       569     2  0  60 -20 -     0 rescue     0   0 Aug12 ?        00:00:00 [kvm-irqfd-clean]
1 S root       591     2  0  60 -20 -     0 rescue     0   3 Aug12 ?        00:00:00 [hd-audio0]
1 S root       597     2  0  60 -20 -     0 rescue     0   3 Aug12 ?        00:00:00 [kmpathd]
1 S root       598     2  0  60 -20 -     0 rescue     0   3 Aug12 ?        00:00:00 [kmpath_handlerd]
1 S root       655     1  0  80   0 -  3815 poll_s   660   2 Aug12 ?        00:00:00 upstart-socket-bridge --daemon
1 S root       761     2  0  80   0 -     0 worker     0   0 11:18 ?        00:00:00 [kworker/u8:2]
1 S root       762     2  0  60 -20 -     0 rescue     0   3 Aug12 ?        00:00:00 [ext4-rsv-conver]
0 R callum     780  2406  0  80   0 -  4615 -       1288   2 11:20 pts/3    00:00:00 ps -elFww
1 S root       781     2  0  80   0 -     0 kaudit     0   2 Aug12 ?        00:00:00 [kauditd]
4 S root       945     1  0  80   0 - 68176 poll_s  7848   0 Aug12 ?        00:00:00 smbd -F
5 S message+   977     1  0  80   0 -  9893 ep_pol  1688   0 Aug12 ?        00:00:00 dbus-daemon --system --fork
1 S root       988     1  0  80   0 -  3819 poll_s   636   0 Aug12 ?        00:00:00 upstart-file-bridge --daemon
4 S root      1006     1  0  80   0 - 82566 poll_s  4924   1 Aug12 ?        00:00:00 /usr/sbin/ModemManager
5 S root      1012     1  0  80   0 -  4823 poll_s  1456   2 Aug12 ?        00:00:00 /usr/sbin/bluetoothd
5 S root      1023     2  0  70 -10 -     0 rfcomm     0   0 Aug12 ?        00:00:00 [krfcommd]
5 S avahi     1036     1  0  80   0 -  8382 poll_s  2948   1 Aug12 ?        00:01:21 avahi-daemon: running [Sulabesi.local]
1 S avahi     1038  1036  0  80   0 -  8056 unix_s   472   3 Aug12 ?        00:00:00 avahi-daemon: chroot helper
5 S syslog    1043     1  0  80   0 - 63961 poll_s  1588   1 Aug12 ?        00:00:00 rsyslogd
4 S root      1058     1  0  80   0 - 10863 ep_pol  1844   3 Aug12 ?        00:00:00 /lib/systemd/systemd-logind
5 S root      1084     1  0  80   0 - 88099 poll_s  6740   1 Aug12 ?        00:00:00 NetworkManager
4 S root      1091     1  0  80   0 - 73631 poll_s  4204   0 Aug12 ?        00:00:00 /usr/lib/policykit-1/polkitd --no-debug
5 S root      1105   945  0  80   0 - 68176 poll_s  4132   2 Aug12 ?        00:00:00 smbd -F
4 S root      1383     1  0  80   0 -  3955 n_tty_   952   1 Aug12 tty4     00:00:00 /sbin/getty -8 38400 tty4
4 S root      1385     1  0  80   0 -  3955 n_tty_   956   1 Aug12 tty5     00:00:00 /sbin/getty -8 38400 tty5
4 S root      1392     1  0  80   0 -  3955 n_tty_   952   1 Aug12 tty2     00:00:00 /sbin/getty -8 38400 tty2
4 S root      1393     1  0  80   0 -  3955 n_tty_   952   1 Aug12 tty3     00:00:00 /sbin/getty -8 38400 tty3
4 S root      1396     1  0  80   0 -  3955 n_tty_   956   1 Aug12 tty6     00:00:00 /sbin/getty -8 38400 tty6
4 S root      1424     1  0  80   0 - 15341 poll_s  3048   1 Aug12 ?        00:00:00 /usr/sbin/sshd -D
4 S root      1455     1  0  80   0 - 18338 poll_s  3592   0 Aug12 ?        00:00:00 /usr/sbin/cups-browsed
1 S root      1466     1  0  80   0 -  5914 hrtime  1028   0 Aug12 ?        00:00:00 cron
1 S root      1468     1  0  80   0 -  1092 poll_s   692   1 Aug12 ?        00:00:00 acpid -c /etc/acpi/events -s /var/run/acpid.socket
5 S root      1480     1  0  80   0 -  4797 hrtime   752   3 Aug12 ?        00:00:02 /usr/sbin/irqbalance
4 S root      1484     1  0  80   0 - 33230 poll_s  4104   1 Aug12 ?        00:00:00 mdm
1 S dictd     1592     1  0  80   0 - 13072 inet_c  8880   2 Aug12 ?        00:00:00 dictd 1.12.1: 0/0
1 S kernoops  1610     1  0  80   0 -  9286 poll_s  1012   2 Aug12 ?        00:00:00 /usr/sbin/kerneloops
1 S root      1631     2  0  60 -20 -     0 rescue     0   2 Aug12 ?        00:00:00 [iprt]
4 S root      1698     1  0  80   0 -  3955 n_tty_   944   1 Aug12 tty1     00:00:00 /sbin/getty -8 38400 tty1
5 S root      1705  1484  0  80   0 - 48315 pipe_w  4556   1 Aug12 ?        00:00:00 mdm
4 R root      1712  1705 19  80   0 - 56618 ?      32140   0 Aug12 tty7     04:03:31 /usr/bin/X :0 -audit 0 -auth /var/lib/mdm/:0.Xauth -nolisten tcp vt7
4 S mdm       1726  1705 12  80   0 - 625783 poll_s 143380 3 Aug12 ?        02:38:58 /usr/lib/mdm/mdmwebkit
4 S root      1728  1084  0  80   0 -  2558 poll_s  3688   2 Aug12 ?        00:00:01 /sbin/dhclient -d -sf /usr/lib/NetworkManager/nm-dhcp-client.action -pf /run/sendsigs.omit.d/network-manager.dhclient-eth0.pid -lf /var/lib/NetworkManager/dhclient-074fc85a-22e4-48f0-a1a3-1211a29970b0-eth0.lease -cf /var/lib/NetworkManager/dhclient-eth0.conf eth0
4 S nobody    1735  1084  0  80   0 -  7758 poll_s  1536   1 Aug12 ?        00:00:00 /usr/sbin/dnsmasq --no-resolv --keep-in-foreground --no-hosts --bind-interfaces --pid-file=/run/sendsigs.omit.d/network-manager.dnsmasq.pid --listen-address=127.0.1.1 --conf-file=/var/run/NetworkManager/dnsmasq.conf --cache-size=0 --proxy-dnssec --enable-dbus=org.freedesktop.NetworkManager.dnsmasq --conf-dir=/etc/NetworkManager/dnsmasq.d
5 S root      1881     1  0  80   0 - 47862 poll_s  2772   3 Aug12 ?        00:00:00 nmbd -D
1 S mdm       1915     1  0  80   0 -  6143 poll_s   588   3 Aug12 ?        00:00:00 dbus-launch --autolaunch=c5eecb21099843cdb66b8a3e53a16a25 --binary-syntax --close-stderr
1 S mdm       1917     1  0  80   0 -  9779 ep_pol  1008   1 Aug12 ?        00:00:00 //bin/dbus-daemon --fork --print-pid 5 --print-address 7 --session
4 S colord    1993     1  0  80   0 - 77739 poll_s  6272   2 Aug12 ?        00:00:00 /usr/lib/colord/colord
4 S root      2009     1  0  80   0 - 525106 poll_s 4024   0 Aug12 ?        00:00:00 /usr/sbin/console-kit-daemon --no-daemon
1 S callum    2263     1  0  80   0 -  6799 poll_s  1568   1 Aug12 ?        00:00:00 SCREEN
0 S callum    2264  2263  0  80   0 - 11851 sigsus  7272   3 Aug12 pts/3    00:00:00 /bin/zsh
0 S callum    2406  2264  0  80   0 - 64384 futex_ 75816   1 Aug12 pts/3    00:00:31 ./timer_comparison_many -r 3 -o ../../data/saved/cgroupOverheadCalculator_2014_08_09_10_14_56/results.csv --cgroupFair --daemonEqual --daemonVengerov ../../data/saved/many_input.csv
4 S root     23732     1  0  80   0 - 18998 ep_pol  5000   0 08:04 ?        00:00:00 /usr/sbin/cupsd -f
1 S root     24507     2  0  80   0 -     0 worker     0   0 08:57 ?        00:00:00 [kworker/u8:1]
1 S root     24989     2  0  80   0 -     0 worker     0   1 09:12 ?        00:00:00 [kworker/1:2]
1 S root     25008     2  0  80   0 -     0 worker     0   2 09:13 ?        00:00:00 [kworker/2:0]
1 S root     29910     2  0  80   0 -     0 worker     0   2 10:29 ?        00:00:00 [kworker/u8:0]
