1413951023143 0 TOTAL_MEM 894
1413951043194 28775 CREATION
1413951043194 28775 READING 9 0.991238
1413951043194 28775 MINHEAP 2
1413951043194 28775 MINHEAP 22
1413951043197 28774 CREATION
1413951043197 28774 READING 9 0.990371
1413951043197 28774 MINHEAP 2
1413951043197 28774 MINHEAP 276
1413951043251 28774 READING 9 0.978135
1413951043269 28775 READING 9 0.985987
1413951043282 28774 READING 9 0.969165
1413951043305 28774 READING 9 0.955907
1413951043314 28775 READING 9 0.980534
1413951043367 28775 READING 9 0.986024
1413951043400 28774 READING 11 0.973300
1413951043446 28775 READING 11 0.919207
1413951043532 28774 READING 11 0.981394
1413951043552 28775 READING 11 0.983154
1413951043617 28774 READING 17 0.942609
1413951043753 28774 READING 17 0.716640
1413951043874 28774 READING 30 0.965948
1413951043965 28774 READING 31 0.899244
1413951044141 28774 READING 34 0.357383
1413951044213 28774 READING 47 0.906815
1413951044283 28774 READING 49 0.879450
1413951044378 28775 READING 15 0.996649
1413951044507 28774 READING 52 0.230800
1413951044541 28775 READING 16 0.984596
1413951044576 28774 READING 76 0.799766
1413951044649 28774 READING 76 0.853815
1413951044790 28775 READING 23 0.986431
1413951044930 28774 READING 79 0.219898
1413951044940 28775 READING 24 0.970742
1413951045025 28774 READING 108 0.764751
1413951045171 28774 READING 111 0.892646
1413951045272 28774 READING 112 0.664261
1413951045345 28775 READING 33 0.969548
1413951045686 28775 READING 34 0.811428
1413951045728 28774 READING 119 0.268252
1413951045841 28774 READING 145 0.639847
1413951045862 28775 READING 51 0.986044
1413951045957 28774 READING 155 0.782801
1413951046069 28774 READING 155 0.688008
1413951046078 28775 READING 51 0.979050
1413951046296 28775 READING 61 0.986673
1413951046425 28775 READING 61 0.981934
1413951046546 28775 READING 72 0.967569
1413951046668 28774 READING 159 0.149540
1413951046675 28775 READING 72 0.981523
1413951046801 28774 READING 197 0.608160
1413951046932 28774 READING 200 0.733167
1413951047035 28775 READING 84 0.986278
1413951047309 28774 READING 204 0.864785
1413951047693 28775 READING 84 0.782508
1413951047849 28774 READING 211 0.888918
1413951048171 28774 READING 216 0.801003
1413951048393 28775 READING 104 0.978194
1413951048393 28774 READING 222 0.761006
1413951048605 28774 READING 228 0.650366
1413951048755 28774 READING 233 0.655752
1413951048810 28775 READING 105 0.978918
1413951048961 28774 READING 238 0.824365
1413951049193 28774 READING 243 0.804823
1413951049284 28775 READING 116 0.980382
1413951049371 28774 READING 246 0.805186
1413951049467 28774 READING 247 0.654028
1413951049565 28774 READING 253 0.625090
1413951049669 28774 READING 258 0.600668
1413951050151 28774 READING 261 0.129596
1413951050267 28775 READING 117 0.960258
1413951050269 28774 READING 302 0.604057
1413951050299 28775 READING 132 0.779999
1413951050329 28775 READING 132 0.767001
1413951050405 28774 READING 303 0.771517
1413951050507 28775 READING 153 0.162429
1413951050543 28775 READING 164 0.825576
1413951050581 28775 READING 190 0.971754
1413951050616 28775 READING 192 0.967831
1413951050728 28775 READING 220 0.991483
1413951050844 28775 READING 222 0.990142
1413951050978 28775 READING 247 0.988081
1413951051256 28774 READING 300 0.571933
1413951051372 28774 READING 345 0.628853
1413951051470 28774 READING 344 0.820296
1413951051563 28774 READING 345 0.861182
1413951051661 28774 READING 349 0.903017
1413951051885 28774 READING 350 0.911781
1413951052044 28775 READING 250 0.998287
1413951052094 28774 READING 348 0.925937
1413951052178 28774 READING 351 0.834492
1413951052276 28774 READING 346 0.590086
1413951052355 28774 READING 349 0.717721
1413951052433 28774 READING 350 0.767520
1413951052501 28775 READING 267 0.995146
1413951052517 28774 READING 352 0.718784
1413951052612 28774 READING 356 0.711226
1413951053149 28775 FUNCTION lru lambda h: 1.10067 * (h ** 0.001)
1413951053149 28774 FUNCTION lru lambda h: 0.735298 * (h ** 0.001)
1413951053149 28775 RECOMMEND 447
1413951053149 28774 RECOMMEND 447
1413951053168 28774 READING 357 0.943702
1413951054206 28775 READING 271 0.999311
1413951054368 28774 READING 359 0.976083
1413951054510 28775 READING 283 0.996856
1413951055306 28775 READING 287 0.998218
1413951055404 28774 READING 362 0.936076
1413951055741 28775 READING 296 0.997622
1413951056562 28774 READING 363 0.975679
1413951056611 28775 READING 299 0.998513
1413951056673 28775 READING 305 0.981098
1413951056737 28775 READING 307 0.979288
1413951056805 28775 READING 318 0.983824
1413951056996 28775 READING 318 0.992421
1413951057664 28775 READING 320 0.998143
1413951057792 28774 READING 365 0.974436
1413951058240 28775 READING 320 0.997867
1413951058910 28774 READING 362 0.972124
1413951059687 28775 READING 320 0.999272
1413951060128 28775 READING 321 0.997516
1413951060190 28774 READING 365 0.973753
1413951060697 28775 READING 321 0.998269
1413951060980 28775 READING 321 0.995159
1413951061308 28774 READING 360 0.966891
1413951061687 28775 READING 321 0.998593
1413951061752 28775 READING 322 0.984102
1413951061820 28775 READING 322 0.984263
1413951061981 28775 READING 322 0.993749
1413951062156 28775 READING 322 0.993747
1413951062506 28774 READING 364 0.960249
1413951063138 28775 READING 323 0.998836
1413951063149 28775 FUNCTION lru lambda h: 0.93229 * (h ** 0.001)
1413951063149 28774 FUNCTION lru lambda h: 0.603176 * (h ** 0.0238483)
1413951063149 28775 RECOMMEND 447
1413951063149 28774 RECOMMEND 447
1413951063765 28774 READING 362 0.968516
1413951064261 28775 READING 324 0.999041
1413951064949 28775 READING 324 0.998595
1413951065156 28774 READING 363 0.973060
1413951065577 28775 READING 323 0.998508
1413951065929 28775 READING 323 0.996962
1413951066397 28774 READING 365 0.960316
1413951066612 28775 READING 324 0.998452
1413951066678 28775 READING 324 0.982475
1413951066745 28775 READING 323 0.983136
1413951066888 28775 READING 324 0.991918
1413951067012 28775 READING 325 0.991165
1413951067671 28774 READING 365 0.971424
1413951067918 28775 READING 325 0.998797
1413951068941 28774 READING 368 0.968678
1413951068963 28775 READING 325 0.998869
1413951069738 28775 READING 324 0.998462
1413951070064 28774 READING 369 0.965362
1413951070238 28775 READING 324 0.998017
1413951070718 28775 READING 324 0.997948
1413951071398 28775 READING 325 0.998159
1413951071470 28775 READING 325 0.918421
1413951071538 28775 READING 325 0.983979
1413951071647 28775 READING 325 0.990060
1413951071782 28775 READING 325 0.993006
1413951071874 28774 READING 372 0.982763
1413951072088 28774 READING 373 0.840344
1413951072216 28774 READING 369 0.724793
1413951072329 28774 READING 374 0.787833
1413951072449 28774 READING 381 0.792938
1413951072581 28775 READING 325 0.998692
1413951073005 28774 READING 384 0.964302
1413951073149 28775 FUNCTION lru lambda h: 0.921719 * (h ** 0.001)
1413951073149 28774 FUNCTION lru lambda h: 0.549275 * (h ** 0.0472802)
1413951073150 28775 RECOMMEND 447
1413951073150 28774 RECOMMEND 447
1413951073182 28775 READING 325 0.997931
1413951074471 28775 READING 325 0.999231
1413951074753 28774 READING 390 0.986382
1413951074896 28775 READING 325 0.996448
1413951075427 28775 READING 325 0.997756
1413951075990 28775 READING 326 0.997727
1413951076060 28775 READING 326 0.982784
1413951076128 28775 READING 326 0.983290
1413951076216 28775 READING 326 0.986623
1413951076377 28775 READING 326 0.989430
1413951076386 28774 READING 392 0.976147
1413951077126 28775 READING 326 0.998534
1413951077622 28775 READING 326 0.997185
1413951078212 28774 READING 393 0.985459
1413951078973 28775 READING 326 0.999199
1413951079360 28775 READING 326 0.996190
1413951079699 28774 READING 395 0.981638
1413951079857 28775 READING 326 0.998037
1413951080393 28775 READING 326 0.998109
1413951080451 28775 READING 326 0.982215
1413951080512 28775 READING 326 0.982817
1413951080581 28775 READING 326 0.982696
1413951080727 28775 READING 326 0.992515
1413951081236 28775 READING 326 0.998051
1413951081557 28774 READING 393 0.983305
1413951081872 28775 READING 326 0.998429
1413951083028 28775 READING 326 0.998600
1413951083038 28774 READING 396 0.977963
1413951083150 28775 FUNCTION lru lambda h: 0.916391 * (h ** 0.0023796)
1413951083150 28774 FUNCTION lru lambda h: 0.506944 * (h ** 0.0669816)
1413951083150 28775 RECOMMEND 447
1413951083150 28774 RECOMMEND 447
1413951083480 28775 READING 326 0.995353
1413951083917 28775 READING 326 0.997825
1413951084468 28775 READING 326 0.997355
1413951084529 28775 READING 326 0.975948
1413951084588 28775 READING 326 0.975099
1413951084677 28775 READING 326 0.983500
1413951084794 28775 READING 326 0.987883
1413951085137 28774 READING 393 0.676952
1413951085328 28775 READING 326 0.998254
1413951085813 28775 READING 326 0.997705
1413951086807 28775 READING 326 0.998898
1413951086878 28774 READING 430 0.992921
1413951087216 28775 READING 326 0.997325
1413951087660 28775 READING 326 0.997291
1413951088298 28775 READING 326 0.998088
1413951088355 28775 READING 326 0.980471
1413951088409 28775 READING 326 0.981720
1413951088476 28775 READING 326 0.984235
1413951088589 28775 READING 326 0.990632
1413951088620 28774 READING 428 0.992577
1413951088964 28775 READING 326 0.997034
1413951089409 28775 READING 326 0.997837
1413951090188 28774 READING 431 0.982279
1413951090248 28775 READING 326 0.998607
1413951090581 28775 READING 326 0.997012
1413951091089 28775 READING 326 0.998077
1413951091314 28775 READING 326 0.994827
1413951091683 28775 READING 326 0.997249
1413951091737 28775 READING 326 0.980842
1413951091803 28775 READING 326 0.983572
1413951091915 28775 READING 326 0.991154
1413951092025 28775 READING 326 0.990234
1413951092281 28774 READING 435 0.992513
1413951092696 28775 READING 326 0.998384
1413951093101 28774 READING 435 0.967853
1413951093150 28775 FUNCTION lru lambda h: 0.916616 * (h ** 0.00231205)
1413951093150 28774 FUNCTION lru lambda h: 0.481968 * (h ** 0.0789291)
1413951093150 28775 RECOMMEND 447
1413951093150 28774 RECOMMEND 447
1413951093262 28774 READING 432 0.880700
1413951093307 28775 READING 326 0.998319
1413951093396 28774 READING 434 0.840420
1413951093532 28774 READING 440 0.846702
1413951093735 28775 READING 326 0.997685
1413951094277 28775 READING 326 0.997822
1413951094498 28775 READING 326 0.994258
1413951094710 28774 READING 443 0.979073
1413951094850 28775 READING 326 0.995909
1413951094906 28775 READING 326 0.980593
1413951094976 28775 READING 326 0.987216
1413951095086 28775 READING 326 0.990818
1413951095186 28775 READING 326 0.982949
1413951095843 28775 READING 326 0.998578
1413951096328 28775 READING 326 0.998027
1413951096474 28774 READING 447 0.984449
1413951096755 28775 READING 326 0.996760
1413951097314 28775 READING 326 0.997816
1413951097558 28775 READING 326 0.994650
1413951097852 28775 READING 326 0.996646
1413951097912 28775 READING 326 0.980621
1413951097970 28775 READING 326 0.979436
1413951098081 28775 READING 326 0.986387
1413951098170 28775 READING 326 0.988705
1413951098356 28774 READING 450 0.988316
1413951098815 28775 READING 326 0.997745
1413951099265 28775 READING 326 0.997727
1413951099683 28775 READING 326 0.996765
1413951100208 28775 READING 326 0.998128
1413951100334 28774 READING 431 0.988057
1413951100462 28775 READING 326 0.995773
1413951100850 28775 READING 326 0.996591
1413951100908 28775 READING 326 0.972101
1413951100965 28775 READING 326 0.982900
1413951101072 28775 READING 326 0.991622
1413951101143 28775 READING 326 0.985313
1413951101696 28775 READING 326 0.998227
1413951102097 28775 READING 326 0.997311
1413951102346 28774 READING 443 0.974358
1413951102486 28775 READING 326 0.997091
1413951102980 28775 READING 326 0.997555
1413951103150 28775 FUNCTION lru lambda h: 0.916423 * (h ** 0.00236999)
1413951103150 28774 FUNCTION lru lambda h: 0.458377 * (h ** 0.090756)
1413951103150 28775 RECOMMEND 447
1413951103150 28774 RECOMMEND 447
1413951103288 28775 READING 326 0.996075
1413951103586 28775 READING 326 0.996606
1413951103639 28775 READING 326 0.979916
1413951103694 28775 READING 326 0.981585
1413951103798 28775 READING 326 0.989733
1413951103869 28775 READING 326 0.986697
1413951104111 28774 READING 441 0.978449
1413951104465 28775 READING 326 0.998389
1413951104874 28775 READING 326 0.987630
1413951105227 28775 READING 326 0.996962
1413951105659 28775 READING 326 0.997884
1413951105892 28774 READING 443 0.983720
1413951106009 28775 READING 326 0.997219
1413951106291 28775 READING 326 0.993025
1413951106347 28775 READING 326 0.980982
1413951106400 28775 READING 326 0.981313
1413951106492 28775 READING 326 0.989559
1413951106567 28775 READING 326 0.988133
1413951107031 28775 READING 326 0.997760
1413951107389 28775 READING 326 0.997166
1413951107670 28774 READING 446 0.973087
1413951107724 28775 READING 326 0.996975
1413951108096 28775 READING 326 0.997531
1413951108477 28775 READING 326 0.997379
1413951108761 28775 READING 326 0.996450
1413951108814 28775 READING 326 0.982139
1413951108871 28775 READING 326 0.980232
1413951108950 28775 READING 326 0.986782
1413951109036 28775 READING 326 0.987367
1413951109400 28774 READING 446 0.980188
1413951109474 28775 READING 326 0.997637
1413951109800 28775 READING 326 0.996647
1413951110212 28775 READING 326 0.997521
1413951110545 28775 READING 326 0.996910
1413951110953 28775 READING 326 0.997519
1413951111228 28774 READING 450 0.978903
1413951111276 28775 READING 326 0.995965
1413951111337 28775 READING 326 0.979489
1413951111393 28775 READING 326 0.977557
1413951111457 28775 READING 326 0.983643
1413951111566 28775 READING 326 0.989355
1413951111988 28775 READING 326 0.997679
1413951112247 28775 READING 326 0.995920
1413951112598 28774 READING 448 0.986149
1413951112677 28775 READING 326 0.997601
1413951112764 28774 READING 445 0.890252
1413951112910 28774 READING 448 0.826082
1413951112990 28775 READING 326 0.995164
1413951113051 28774 READING 441 0.904448
1413951113150 28775 FUNCTION lru lambda h: 0.91651 * (h ** 0.00234375)
1413951113150 28774 FUNCTION lru lambda h: 0.445422 * (h ** 0.0975035)
1413951113150 28775 RECOMMEND 447
1413951113150 28774 RECOMMEND 447
1413951113398 28775 READING 326 0.997643
1413951113657 28775 READING 326 0.995901
1413951113710 28775 READING 326 0.977942
1413951113766 28775 READING 326 0.980357
1413951113819 28775 READING 326 0.980939
1413951113937 28775 READING 326 0.991878
1413951114299 28775 READING 326 0.997175
1413951114627 28775 READING 326 0.996860
1413951114715 28774 READING 448 0.988954
1413951115027 28775 READING 326 0.997367
1413951115379 28775 READING 326 0.995780
1413951115764 28775 READING 326 0.997408
1413951116036 28775 READING 326 0.996385
1413951116089 28775 READING 326 0.981579
1413951116143 28775 READING 326 0.982103
1413951116197 28775 READING 326 0.979904
1413951116306 28775 READING 326 0.990576
1413951116428 28774 READING 433 0.986741
1413951116659 28775 READING 326 0.997112
1413951116982 28775 READING 326 0.996113
1413951117322 28775 READING 326 0.996485
1413951117642 28775 READING 326 0.996873
1413951118058 28775 READING 326 0.996262
1413951118152 28774 READING 444 0.986177
1413951118366 28775 READING 326 0.996255
1413951118420 28775 READING 326 0.979136
1413951118474 28775 READING 326 0.979626
1413951118526 28775 READING 326 0.981411
1413951118635 28775 READING 326 0.991222
1413951118975 28775 READING 326 0.996903
1413951119285 28775 READING 326 0.996689
1413951119612 28775 READING 326 0.996733
1413951119910 28775 READING 326 0.996660
1413951120066 28774 READING 444 0.988213
1413951120359 28775 READING 326 0.997525
1413951120579 28775 READING 326 0.991320
1413951120785 28775 READING 326 0.994811
1413951120840 28775 READING 326 0.981367
1413951120892 28775 READING 326 0.981085
1413951121001 28775 READING 326 0.987982
1413951121079 28775 READING 326 0.985357
1413951121612 28775 READING 326 0.998040
1413951121890 28774 READING 446 0.986375
1413951121895 28775 READING 326 0.996417
1413951122185 28775 READING 326 0.996707
1413951122686 28775 READING 326 0.997755
1413951122895 28775 READING 326 0.994584
1413951123108 28775 READING 326 0.995416
1413951123151 28775 FUNCTION lru lambda h: 0.916508 * (h ** 0.00234442)
1413951123151 28774 FUNCTION lru lambda h: 0.436516 * (h ** 0.10228)
1413951123151 28775 RECOMMEND 447
1413951123151 28774 RECOMMEND 447
1413951123161 28775 READING 326 0.981710
1413951123214 28775 READING 326 0.980923
1413951123321 28775 READING 326 0.989673
1413951123393 28775 READING 326 0.985749
1413951123661 28774 READING 443 0.984658
1413951123907 28775 READING 326 0.998222
1413951124198 28775 READING 326 0.996733
1413951124460 28775 READING 326 0.996079
1413951124970 28775 READING 326 0.997994
1413951125201 28775 READING 326 0.995360
1413951125299 28774 READING 446 0.983335
1413951125418 28775 READING 326 0.995005
1413951125473 28775 READING 326 0.981862
1413951125526 28775 READING 326 0.981810
1413951125636 28775 READING 326 0.990671
1413951125704 28775 READING 326 0.984455
1413951126201 28775 READING 326 0.998103
1413951126503 28775 READING 326 0.995943
1413951126782 28775 READING 326 0.996146
1413951127018 28774 READING 446 0.983032
1413951127275 28775 READING 326 0.997948
1413951127536 28775 READING 326 0.995934
1413951127751 28775 READING 326 0.994997
1413951127804 28775 READING 326 0.980601
1413951127858 28775 READING 326 0.980622
1413951127965 28775 READING 326 0.990045
1413951128026 28775 READING 326 0.974647
1413951128511 28775 READING 326 0.997781
1413951128818 28775 READING 326 0.996712
1413951129039 28774 READING 447 0.985339
1413951129105 28775 READING 326 0.996233
1413951129562 28775 READING 326 0.996746
1413951129850 28775 READING 326 0.996294
1413951130110 28775 READING 326 0.995427
1413951130164 28775 READING 326 0.981113
1413951130217 28775 READING 326 0.979290
1413951130318 28775 READING 326 0.990344
1413951130382 28775 READING 326 0.984414
1413951130843 28775 READING 326 0.997695
1413951131157 28775 READING 326 0.996808
1413951131321 28774 READING 440 0.986521
1413951131473 28775 READING 326 0.996604
1413951131811 28774 READING 445 0.961279
1413951131863 28775 READING 326 0.997291
1413951131956 28774 READING 446 0.864274
1413951132100 28774 READING 448 0.865980
1413951132217 28775 READING 326 0.996917
1413951132435 28775 READING 326 0.994474
1413951132489 28775 READING 326 0.981813
1413951132546 28775 READING 326 0.975720
1413951132643 28775 READING 326 0.986955
1413951132722 28775 READING 326 0.981729
1413951132956 28774 READING 440 0.984011
1413951133151 28775 FUNCTION lru lambda h: 0.91735 * (h ** 0.0020911)
1413951133151 28774 FUNCTION lru lambda h: 0.435542 * (h ** 0.102813)
1413951133151 28775 RECOMMEND 447
1413951133151 28774 RECOMMEND 447
1413951133180 28775 READING 326 0.997643
1413951133520 28775 READING 326 0.997001
1413951133819 28775 READING 326 0.996571
1413951134182 28775 READING 326 0.996968
1413951134567 28775 READING 326 0.997235
1413951134750 28774 READING 448 0.989956
1413951134781 28775 READING 326 0.995308
1413951134834 28775 READING 326 0.978476
1413951134888 28775 READING 326 0.980675
1413951134968 28775 READING 326 0.987439
1413951135057 28775 READING 326 0.987730
1413951135495 28775 READING 326 0.997686
1413951135777 28775 READING 326 0.995529
1413951136148 28775 READING 326 0.997018
1413951136475 28775 READING 326 0.996947
1413951136671 28774 READING 435 0.988998
1413951136888 28775 READING 326 0.997422
1413951137103 28775 READING 326 0.992587
1413951137162 28775 READING 326 0.981415
1413951137216 28775 READING 326 0.980074
1413951137283 28775 READING 326 0.984183
1413951137387 28775 READING 326 0.988593
1413951137815 28775 READING 326 0.997589
1413951138106 28775 READING 326 0.996004
1413951138490 28775 READING 326 0.997435
1413951138544 28774 READING 445 0.988311
1413951138804 28775 READING 326 0.994941
1413951139214 28775 READING 326 0.997045
1413951139489 28775 READING 326 0.995391
1413951139546 28775 READING 326 0.982283
1413951139600 28775 READING 326 0.980403
1413951139655 28775 READING 326 0.981887
1413951139765 28775 READING 326 0.990436
1413951140120 28775 READING 326 0.997119
1413951140436 28775 READING 326 0.996732
1413951140528 28774 READING 445 0.989274
1413951140794 28775 READING 326 0.997191
1413951141137 28775 READING 326 0.997257
1413951141523 28775 READING 326 0.997278
1413951141799 28775 READING 326 0.995993
1413951141852 28775 READING 326 0.980980
1413951141906 28775 READING 326 0.980376
1413951141960 28775 READING 326 0.980306
1413951142069 28775 READING 326 0.990295
1413951142220 28774 READING 447 0.985759
1413951142415 28775 READING 326 0.996874
1413951142728 28775 READING 326 0.995208
1413951143063 28775 READING 326 0.997131
1413951143151 28775 FUNCTION lru lambda h: 0.916524 * (h ** 0.00233972)
1413951143151 28774 FUNCTION lru lambda h: 0.433563 * (h ** 0.103884)
1413951143152 28775 RECOMMEND 447
1413951143152 28774 RECOMMEND 447
1413951143380 28775 READING 326 0.997116
1413951143796 28775 READING 326 0.997563
1413951144061 28774 READING 434 0.987494
1413951144110 28775 READING 326 0.996954
1413951144165 28775 READING 326 0.979107
1413951144219 28775 READING 326 0.980754
1413951144272 28775 READING 326 0.980416
1413951144382 28775 READING 326 0.989877
1413951144722 28775 READING 326 0.997155
1413951145018 28775 READING 326 0.995341
1413951145347 28775 READING 326 0.996995
1413951145638 28775 READING 326 0.996656
1413951145925 28774 READING 442 0.982021
1413951146103 28775 READING 326 0.997970
1413951146290 28775 READING 326 0.994369
1413951146483 28775 READING 326 0.994296
1413951146538 28775 READING 326 0.976752
1413951146591 28775 READING 326 0.979881
1413951146700 28775 READING 326 0.989758
1413951146780 28775 READING 326 0.987262
1413951147316 28775 READING 326 0.998271
1413951147629 28775 READING 326 0.996687
1413951147719 28774 READING 443 0.983668
1413951147897 28775 READING 326 0.996057
1413951148377 28775 READING 326 0.997681
1413951148614 28775 READING 326 0.995334
1413951148850 28775 READING 326 0.995770
1413951148903 28775 READING 326 0.979794
1413951148956 28775 READING 326 0.980067
1413951149062 28775 READING 326 0.990222
1413951149133 28775 READING 326 0.985131
1413951149361 28774 READING 443 0.980576
1413951149639 28775 READING 326 0.997918
1413951149921 28775 READING 326 0.996052
1413951150179 28775 READING 326 0.995794
1413951150680 28775 READING 326 0.997944
1413951150913 28775 READING 326 0.995215
1413951151075 28774 READING 446 0.989562
1413951151131 28775 READING 326 0.995190
1413951151185 28775 READING 326 0.979496
1413951151244 28775 READING 326 0.977755
1413951151249 28774 READING 446 0.888081
1413951151355 28775 READING 326 0.990275
1413951151398 28774 READING 447 0.858655
1413951151427 28775 READING 326 0.984315
1413951151542 28774 READING 438 0.910126
1413951151925 28775 READING 326 0.997896
1413951152219 28775 READING 326 0.995909
1413951152493 28775 READING 326 0.995862
1413951152970 28775 READING 326 0.997988
1413951153152 28775 FUNCTION lru lambda h: 0.916447 * (h ** 0.00236277)
1413951153152 28774 FUNCTION lru lambda h: 0.427908 * (h ** 0.106995)
1413951153152 28775 RECOMMEND 447
1413951153152 28774 RECOMMEND 447
1413951153177 28774 READING 448 0.990208
1413951153237 28775 READING 326 0.995378
1413951153453 28775 READING 326 0.994893
1413951153507 28775 READING 326 0.978676
1413951153562 28775 READING 326 0.979601
1413951153671 28775 READING 326 0.989082
1413951153732 28775 READING 326 0.984012
1413951154215 28775 READING 326 0.997911
1413951154512 28775 READING 326 0.996621
1413951154800 28775 READING 326 0.996521
1413951154922 28774 READING 416 0.989064
1413951155250 28775 READING 326 0.997247
1413951155539 28775 READING 326 0.996296
1413951155757 28775 READING 326 0.995092
1413951155810 28775 READING 326 0.979644
1413951155864 28775 READING 326 0.980846
1413951155969 28775 READING 326 0.990128
1413951156030 28775 READING 326 0.982557
1413951156501 28775 READING 326 0.997887
1413951156738 28774 READING 446 0.988165
1413951156806 28775 READING 326 0.996454
1413951157103 28775 READING 326 0.995845
1413951157521 28775 READING 326 0.997378
1413951157850 28775 READING 326 0.995678
1413951158110 28775 READING 326 0.995599
1413951158163 28775 READING 326 0.981271
1413951158217 28775 READING 326 0.972269
1413951158306 28775 READING 326 0.988381
1413951158384 28775 READING 326 0.984876
1413951158764 28774 READING 445 0.988984
1413951158838 28775 READING 326 0.997627
1413951159161 28775 READING 326 0.996683
1413951159461 28775 READING 326 0.996433
1413951159816 28775 READING 326 0.997113
1413951160197 28775 READING 326 0.997233
1413951160413 28775 READING 326 0.994953
1413951160467 28775 READING 326 0.981370
1413951160520 28775 READING 326 0.979147
1413951160575 28774 READING 445 0.984829
1413951160602 28775 READING 326 0.987626
1413951160690 28775 READING 326 0.987741
1413951161128 28775 READING 326 0.997390
1413951161398 28775 READING 326 0.995419
1413951161768 28775 READING 326 0.996779
1413951162092 28775 READING 326 0.996583
1413951162505 28775 READING 326 0.996830
1413951162543 28774 READING 447 0.983420
1413951162737 28775 READING 326 0.995574
1413951162790 28775 READING 326 0.973139
1413951162845 28775 READING 326 0.981577
1413951162912 28775 READING 326 0.985424
1413951163008 28775 READING 326 0.990464
1413951163152 28775 FUNCTION lru lambda h: 0.917062 * (h ** 0.00217763)
1413951163152 28774 FUNCTION lru lambda h: 0.422996 * (h ** 0.109764)
1413951163152 28775 RECOMMEND 447
1413951163152 28774 RECOMMEND 447
1413951163437 28775 READING 326 0.997667
1413951163707 28775 READING 326 0.996246
1413951164084 28775 READING 326 0.997087
1413951164287 28774 READING 446 0.983144
1413951164402 28775 READING 326 0.995119
1413951164812 28775 READING 326 0.997027
1413951165044 28775 READING 326 0.995742
1413951165098 28775 READING 326 0.978197
1413951165151 28775 READING 326 0.980537
1413951165207 28775 READING 326 0.979571
1413951165317 28775 READING 326 0.986029
1413951165750 28775 READING 326 0.997860
1413951165999 28775 READING 326 0.995866
1413951166197 28774 READING 447 0.984681
1413951166382 28775 READING 326 0.997627
1413951166704 28775 READING 326 0.995600
1413951167097 28775 READING 326 0.997374
1413951167380 28775 READING 326 0.995782
1413951167434 28775 READING 326 0.981131
1413951167487 28775 READING 326 0.980379
1413951167541 28775 READING 326 0.981023
1413951167649 28775 READING 326 0.990484
1413951167930 28774 READING 439 0.982784
1413951167990 28775 READING 326 0.996766
1413951168299 28775 READING 326 0.996987
1413951168631 28775 READING 326 0.996880
1413951168942 28775 READING 326 0.996698
1413951169362 28775 READING 326 0.997587
1413951169662 28775 READING 326 0.996431
1413951169715 28775 READING 326 0.976209
1413951169773 28775 READING 326 0.977997
1413951169780 28774 READING 445 0.987861
1413951169827 28775 READING 326 0.980453
1413951169935 28775 READING 326 0.990320
1413951170017 28774 READING 448 0.920876
1413951170162 28774 READING 441 0.879621
1413951170273 28775 READING 326 0.996931
1413951170305 28774 READING 446 0.872663
1413951170575 28775 READING 326 0.996184
1413951170902 28775 READING 326 0.996883
1413951171192 28775 READING 326 0.995390
1413951171446 28774 READING 448 0.986155
1413951171650 28775 READING 326 0.997516
1413951171839 28775 READING 326 0.994476
1413951172034 28775 READING 326 0.994273
1413951172086 28775 READING 326 0.978078
1413951172144 28775 READING 326 0.979772
1413951172253 28775 READING 326 0.990272
1413951172334 28775 READING 326 0.986723
1413951172869 28775 READING 326 0.998077
1413951173152 28775 FUNCTION lru lambda h: 0.916719 * (h ** 0.00228094)
1413951173152 28774 FUNCTION lru lambda h: 0.420915 * (h ** 0.110932)
1413951173152 28775 RECOMMEND 447
1413951173152 28774 RECOMMEND 447
1413951173183 28775 READING 326 0.996580
1413951173350 28774 READING 437 0.989671
1413951173450 28775 READING 326 0.995591
1413951173938 28775 READING 326 0.997655
1413951174135 28775 READING 326 0.994259
1413951174356 28775 READING 326 0.994616
1413951174411 28775 READING 326 0.981150
1413951174464 28775 READING 326 0.979575
1413951174574 28775 READING 326 0.989806
1413951174648 28775 READING 326 0.984481
1413951175167 28775 READING 326 0.997945
1413951175319 28774 READING 447 0.989015
1413951175444 28775 READING 326 0.996400
1413951175710 28775 READING 326 0.996438
1413951176229 28775 READING 326 0.997692
1413951176454 28775 READING 326 0.995417
1413951176711 28775 READING 326 0.995148
1413951176766 28775 READING 326 0.976994
1413951176821 28775 READING 326 0.974120
1413951176927 28775 READING 326 0.990119
1413951176994 28775 READING 326 0.979599
1413951177373 28774 READING 448 0.988771
1413951177489 28775 READING 326 0.997770
1413951177785 28775 READING 326 0.996054
1413951178061 28775 READING 326 0.995716
1413951178542 28775 READING 326 0.997287
1413951178807 28775 READING 326 0.996203
1413951179022 28775 READING 326 0.995043
1413951179076 28775 READING 326 0.975670
1413951179131 28775 READING 326 0.981370
1413951179237 28775 READING 326 0.990490
1413951179274 28774 READING 423 0.985095
1413951179302 28775 READING 326 0.983743
1413951179786 28775 READING 326 0.997729
1413951180085 28775 READING 326 0.996744
1413951180371 28775 READING 326 0.995902
1413951180819 28775 READING 326 0.997712
1413951181111 28775 READING 326 0.996278
1413951181190 28774 READING 447 0.984859
1413951181331 28775 READING 326 0.994924
1413951181385 28775 READING 326 0.981759
1413951181438 28775 READING 326 0.973197
1413951181545 28775 READING 326 0.989897
1413951181607 28775 READING 326 0.983046
1413951182076 28775 READING 326 0.997709
1413951182379 28775 READING 326 0.996600
1413951182673 28775 READING 326 0.996213
1413951183085 28775 READING 326 0.997224
1413951183152 28775 FUNCTION lru lambda h: 0.916467 * (h ** 0.00235683)
1413951183152 28774 FUNCTION lru lambda h: 0.41474 * (h ** 0.114457)
1413951183152 28775 RECOMMEND 447
1413951183152 28774 RECOMMEND 447
1413951183284 28774 READING 445 0.987106
1413951183419 28775 READING 326 0.996551
1413951183635 28775 READING 326 0.995181
1413951183690 28775 READING 326 0.978552
1413951183744 28775 READING 326 0.980565
1413951183840 28775 READING 326 0.989814
1413951183914 28775 READING 326 0.986359
1413951184373 28775 READING 326 0.997907
1413951184685 28775 READING 326 0.996867
1413951184982 28775 READING 326 0.996162
1413951185255 28774 READING 445 0.985712
1413951185355 28775 READING 326 0.996534
1413951185731 28775 READING 326 0.997217
1413951185997 28775 READING 326 0.995674
1413951186050 28775 READING 326 0.980992
1413951186102 28775 READING 326 0.980332
1413951186183 28775 READING 326 0.985755
1413951186271 28775 READING 326 0.985990
1413951186709 28775 READING 326 0.997435
1413951186980 28775 READING 326 0.996171
1413951187034 28774 READING 446 0.983844
1413951187349 28775 READING 326 0.997076
1413951187663 28775 READING 326 0.996466
1413951188074 28775 READING 326 0.997549
1413951188288 28775 READING 326 0.995235
1413951188341 28775 READING 326 0.980484
1413951188395 28775 READING 326 0.980135
1413951188459 28775 READING 326 0.983962
1413951188557 28775 READING 326 0.988811
1413951188979 28775 READING 326 0.997386
1413951189146 28774 READING 449 0.991503
1413951189247 28775 READING 326 0.996188
1413951189622 28775 READING 326 0.997314
1413951189851 28774 READING 425 0.973022
1413951189928 28775 READING 326 0.996180
1413951189996 28774 READING 443 0.875539
1413951190141 28774 READING 446 0.852330
1413951190332 28775 READING 326 0.996698
1413951190569 28775 READING 326 0.995526
1413951190623 28775 READING 326 0.978067
1413951190676 28775 READING 326 0.980277
1413951190729 28775 READING 326 0.981561
1413951190838 28775 READING 326 0.987439
1413951190960 28774 READING 452 0.981629
1413951191245 28775 READING 326 0.997365
1413951191511 28775 READING 326 0.996012
1413951191889 28775 READING 326 0.996205
1413951192221 28775 READING 326 0.996892
1413951192605 28775 READING 326 0.997299
1413951192869 28774 READING 419 0.989920
1413951192870 28775 READING 326 0.995433
1413951192925 28775 READING 326 0.982774
1413951192978 28775 READING 326 0.980173
1413951193030 28775 READING 326 0.980278
1413951193140 28775 READING 326 0.990284
1413951193153 28775 FUNCTION lru lambda h: 0.917127 * (h ** 0.00215814)
1413951193153 28774 FUNCTION lru lambda h: 0.405783 * (h ** 0.119643)
1413951193153 28775 RECOMMEND 447
1413951193153 28774 RECOMMEND 447
1413951193489 28775 READING 326 0.997030
1413951193814 28775 READING 326 0.997155
1413951194157 28775 READING 326 0.996823
1413951194488 28775 READING 326 0.997148
1413951194635 28774 READING 451 0.988313
1413951194883 28775 READING 326 0.997380
1413951195225 28775 READING 326 0.996895
1413951195279 28775 READING 326 0.982863
1413951195333 28775 READING 326 0.979769
1413951195387 28775 READING 326 0.979494
1413951195498 28775 READING 326 0.990928
1413951195836 28775 READING 326 0.996662
1413951196134 28775 READING 326 0.996292
1413951196455 28774 READING 420 0.988163
1413951196465 28775 READING 326 0.996855
1413951196748 28775 READING 326 0.996762
1413951197193 28775 READING 326 0.997653
1413951197384 28775 READING 326 0.994653
1413951197584 28775 READING 326 0.995226
1413951197640 28775 READING 326 0.979853
1413951197694 28775 READING 326 0.978638
1413951197803 28775 READING 326 0.991168
1413951197883 28775 READING 326 0.986464
1413951198362 28774 READING 448 0.987709
1413951198414 28775 READING 326 0.998058
1413951198680 28775 READING 326 0.996050
1413951198981 28775 READING 326 0.996839
1413951199460 28775 READING 326 0.997545
1413951199666 28775 READING 326 0.995073
1413951199880 28775 READING 326 0.994820
1413951199937 28775 READING 326 0.979833
1413951199993 28775 READING 326 0.977738
1413951200103 28775 READING 326 0.987734
1413951200184 28775 READING 326 0.980396
1413951200247 28774 READING 423 0.984674
1413951200703 28775 READING 326 0.998030
1413951200984 28775 READING 326 0.996436
1413951201240 28775 READING 326 0.995851
1413951201749 28775 READING 326 0.998035
1413951201971 28775 READING 326 0.995243
1413951202187 28775 READING 326 0.995372
1413951202242 28775 READING 326 0.978752
1413951202294 28775 READING 326 0.979596
1413951202354 28774 READING 444 0.988475
1413951202423 28775 READING 326 0.992382
1413951202495 28775 READING 326 0.984802
1413951202994 28775 READING 326 0.997680
1413951203153 28775 FUNCTION lru lambda h: 0.916745 * (h ** 0.00227311)
1413951203153 28774 FUNCTION lru lambda h: 0.401038 * (h ** 0.122437)
1413951203153 28775 RECOMMEND 447
1413951203153 28774 RECOMMEND 447
1413951203286 28775 READING 326 0.996175
1413951203555 28775 READING 326 0.996174
1413951204038 28775 READING 326 0.997830
1413951204165 28774 READING 442 0.984040
1413951204291 28775 READING 326 0.995510
1413951204526 28775 READING 326 0.992956
1413951204582 28775 READING 326 0.973682
1413951204642 28775 READING 326 0.981149
1413951204750 28775 READING 326 0.989509
1413951204813 28775 READING 326 0.984389
1413951205298 28775 READING 326 0.997761
1413951205600 28775 READING 326 0.995988
1413951205895 28775 READING 326 0.996209
1413951206001 28774 READING 444 0.983964
1413951206333 28775 READING 326 0.997527
1413951206632 28775 READING 326 0.996048
1413951206851 28775 READING 326 0.994317
1413951206905 28775 READING 326 0.979856
1413951206958 28775 READING 326 0.968892
1413951207068 28775 READING 326 0.991013
1413951207128 28775 READING 326 0.982153
1413951207596 28775 READING 326 0.997642
1413951207778 28774 READING 444 0.979643
1413951207901 28775 READING 326 0.996391
1413951208190 28775 READING 326 0.996186
1413951208577 28775 READING 326 0.997069
1413951208913 28775 READING 326 0.996368
1413951209129 28774 READING 445 0.984379
1413951209134 28775 READING 326 0.995260
1413951209188 28775 READING 326 0.981271
1413951209242 28775 READING 326 0.980352
1413951209304 28774 READING 447 0.891161
1413951209337 28775 READING 326 0.988360
1413951209409 28775 READING 326 0.984265
1413951209448 28774 READING 442 0.868412
1413951209592 28774 READING 446 0.907770
1413951209865 28775 READING 326 0.997700
1413951210188 28775 READING 326 0.996802
1413951210484 28775 READING 326 0.996294
1413951210842 28775 READING 326 0.997018
1413951211216 28775 READING 326 0.997132
1413951211391 28774 READING 455 0.990515
1413951211434 28775 READING 326 0.993894
1413951211488 28775 READING 326 0.972569
1413951211544 28775 READING 326 0.981329
1413951211625 28775 READING 326 0.984907
1413951211709 28775 READING 326 0.986757
1413951212143 28775 READING 326 0.997070
1413951212439 28775 READING 326 0.996739
1413951212773 28775 READING 326 0.996882
1413951213102 28775 READING 326 0.996090
1413951213153 28775 FUNCTION lru lambda h: 0.916491 * (h ** 0.00234953)
1413951213153 28774 FUNCTION lru lambda h: 0.400252 * (h ** 0.122881)
1413951213153 28775 RECOMMEND 447
1413951213153 28774 RECOMMEND 447
1413951213506 28775 READING 326 0.997012
1413951213698 28774 READING 422 0.990611
1413951213761 28775 READING 326 0.995265
1413951213814 28775 READING 326 0.981067
1413951213868 28775 READING 326 0.980692
1413951213931 28775 READING 326 0.982775
1413951214032 28775 READING 326 0.989411
1413951214456 28775 READING 326 0.997400
1413951214720 28775 READING 326 0.995876
1413951215105 28775 READING 326 0.997096
1413951215411 28775 READING 326 0.994117
1413951215414 28774 READING 453 0.986624
1413951215814 28775 READING 326 0.997535
1413951216049 28775 READING 326 0.995100
1413951216103 28775 READING 326 0.980194
1413951216157 28775 READING 326 0.977772
1413951216210 28775 READING 326 0.971878
1413951216328 28775 READING 326 0.991252
1413951216697 28775 READING 326 0.997190
1413951216996 28775 READING 326 0.995713
1413951217350 28774 READING 424 0.987631
1413951217369 28775 READING 326 0.997328
1413951217698 28775 READING 326 0.996601
1413951218075 28775 READING 326 0.997239
1413951218337 28775 READING 326 0.995997
1413951218391 28775 READING 326 0.980226
1413951218445 28775 READING 326 0.974289
1413951218501 28775 READING 326 0.979277
1413951218611 28775 READING 326 0.989586
1413951218962 28775 READING 326 0.997182
1413951219121 28774 READING 450 0.986057
1413951219280 28775 READING 326 0.996873
1413951219617 28775 READING 326 0.997049
1413951219943 28775 READING 326 0.997051
1413951220336 28775 READING 326 0.997522
1413951220630 28775 READING 326 0.996022
1413951220684 28775 READING 326 0.979609
1413951220737 28775 READING 326 0.977944
1413951220791 28775 READING 326 0.978653
1413951220899 28775 READING 326 0.985891
1413951221196 28774 READING 427 0.986765
1413951221244 28775 READING 326 0.997037
1413951221544 28775 READING 326 0.995679
1413951221874 28775 READING 326 0.996873
1413951222171 28775 READING 326 0.995599
1413951222597 28775 READING 326 0.997755
1413951222796 28775 READING 326 0.993905
1413951223001 28775 READING 326 0.994671
1413951223055 28775 READING 326 0.981021
1413951223112 28774 READING 444 0.982648
1413951223114 28775 READING 326 0.982883
1413951223153 28775 FUNCTION lru lambda h: 0.917194 * (h ** 0.00213806)
1413951223153 28774 FUNCTION lru lambda h: 0.392205 * (h ** 0.127732)
1413951223153 28775 RECOMMEND 447
1413951223153 28774 RECOMMEND 447
1413951223223 28775 READING 326 0.989816
1413951223302 28775 READING 326 0.984498
1413951223836 28775 READING 326 0.997704
1413951224105 28775 READING 326 0.996161
1413951224408 28775 READING 326 0.996471
1413951224773 28774 READING 443 0.981595
1413951224880 28775 READING 326 0.997703
1413951225082 28775 READING 326 0.994808
1413951225292 28775 READING 326 0.994798
1413951225345 28775 READING 326 0.978331
1413951225399 28775 READING 326 0.979888
1413951225506 28775 READING 326 0.990556
1413951225579 28775 READING 326 0.986264
1413951226094 28775 READING 326 0.997204
1413951226380 28775 READING 326 0.996355
1413951226570 28774 READING 446 0.982402
1413951226636 28775 READING 326 0.996055
1413951227132 28775 READING 326 0.998021
1413951227355 28775 READING 326 0.995391
1413951227569 28775 READING 326 0.995158
1413951227622 28775 READING 326 0.979966
1413951227675 28775 READING 326 0.979260
1413951227780 28775 READING 326 0.990690
1413951227848 28775 READING 326 0.984994
1413951228304 28774 READING 446 0.989014
1413951228344 28775 READING 326 0.998037
1413951228509 28774 READING 447 0.908106
1413951228632 28775 READING 326 0.996564
1413951228655 28774 READING 442 0.865765
1413951228796 28774 READING 446 0.913828
1413951228904 28775 READING 326 0.995339
1413951229385 28775 READING 326 0.996952
1413951229647 28775 READING 326 0.995902
1413951229868 28775 READING 326 0.994944
1413951229921 28775 READING 326 0.979966
1413951229975 28775 READING 326 0.976171
1413951230083 28775 READING 326 0.991077
1413951230146 28775 READING 326 0.981648
1413951230388 28774 READING 448 0.989009
1413951230638 28775 READING 326 0.998010
1413951230933 28775 READING 326 0.996610
1413951231213 28775 READING 326 0.996341
1413951231660 28775 READING 326 0.997644
1413951231943 28775 READING 326 0.996101
1413951232177 28775 READING 326 0.994781
1413951232218 28774 READING 435 0.990442
1413951232245 28775 READING 326 0.984959
1413951232298 28775 READING 326 0.971586
1413951232407 28775 READING 326 0.988118
1413951232469 28775 READING 326 0.977453
1413951232945 28775 READING 326 0.997714
1413951233153 28775 FUNCTION lru lambda h: 0.916926 * (h ** 0.00221857)
1413951233153 28774 FUNCTION lru lambda h: 0.391875 * (h ** 0.127929)
1413951233154 28775 RECOMMEND 447
1413951233154 28774 RECOMMEND 447
1413951233248 28775 READING 326 0.996706
1413951233539 28775 READING 326 0.996436
1413951233922 28775 READING 326 0.996606
1413951234140 28774 READING 446 0.989119
1413951234266 28775 READING 326 0.997090
1413951234479 28775 READING 326 0.995012
1413951234533 28775 READING 326 0.982244
1413951234586 28775 READING 326 0.981742
1413951234680 28775 READING 326 0.988275
1413951234755 28775 READING 326 0.985938
1413951235214 28775 READING 326 0.996747
1413951235540 28775 READING 326 0.997038
1413951235838 28775 READING 326 0.996397
1413951236090 28774 READING 447 0.988493
1413951236192 28775 READING 326 0.997108
1413951236565 28775 READING 326 0.997283
1413951236778 28775 READING 326 0.994634
1413951236833 28775 READING 326 0.980517
1413951236886 28775 READING 326 0.980320
1413951236966 28775 READING 326 0.987821
1413951237058 28775 READING 326 0.986373
1413951237494 28775 READING 326 0.997530
1413951237771 28775 READING 326 0.996405
1413951237938 28774 READING 449 0.984775
1413951238139 28775 READING 326 0.997433
1413951238461 28775 READING 326 0.996799
1413951238866 28775 READING 326 0.997137
1413951239078 28775 READING 326 0.994898
1413951239132 28775 READING 326 0.980012
1413951239187 28775 READING 326 0.979036
1413951239256 28775 READING 326 0.986237
1413951239350 28775 READING 326 0.988757
1413951239753 28774 READING 433 0.986225
1413951239780 28775 READING 326 0.997580
1413951240051 28775 READING 326 0.996330
1413951240424 28775 READING 326 0.997411
1413951240734 28775 READING 326 0.996299
1413951241142 28775 READING 326 0.997561
1413951241379 28775 READING 326 0.993308
1413951241439 28775 READING 326 0.971746
1413951241454 28774 READING 442 0.982032
1413951241500 28775 READING 326 0.979650
1413951241552 28775 READING 326 0.978050
1413951241663 28775 READING 326 0.989736
1413951242032 28775 READING 326 0.997274
1413951242332 28775 READING 326 0.996109
1413951242699 28775 READING 326 0.996645
1413951243039 28775 READING 326 0.997128
1413951243154 28775 FUNCTION lru lambda h: 0.916467 * (h ** 0.00235693)
1413951243154 28774 FUNCTION lru lambda h: 0.390465 * (h ** 0.128774)
1413951243154 28775 RECOMMEND 447
1413951243154 28774 RECOMMEND 447
1413951243209 28774 READING 444 0.983630
1413951243420 28775 READING 326 0.997053
1413951243691 28775 READING 326 0.996055
1413951243746 28775 READING 326 0.981160
1413951243799 28775 READING 326 0.974767
1413951243853 28775 READING 326 0.979041
1413951243963 28775 READING 326 0.987407
1413951244315 28775 READING 326 0.996873
1413951244628 28775 READING 326 0.996691
1413951244822 28774 READING 444 0.980106
1413951244967 28775 READING 326 0.997161
1413951245288 28775 READING 326 0.996841
1413951245678 28775 READING 326 0.997200
1413951245966 28775 READING 326 0.996186
1413951246020 28775 READING 326 0.980047
1413951246074 28775 READING 326 0.981384
1413951246126 28775 READING 326 0.979676
1413951246233 28775 READING 326 0.990179
1413951246572 28775 READING 326 0.996512
1413951246810 28774 READING 447 0.990494
1413951246873 28775 READING 326 0.996563
1413951247054 28774 READING 448 0.913387
1413951247200 28774 READING 444 0.875308
1413951247201 28775 READING 326 0.996362
1413951247353 28774 READING 447 0.832992
1413951247508 28775 READING 326 0.996401
1413951247934 28775 READING 326 0.997460
1413951248124 28775 READING 326 0.991353
1413951248313 28775 READING 326 0.993282
1413951248370 28775 READING 326 0.973702
1413951248429 28775 READING 326 0.980831
1413951248537 28775 READING 326 0.987068
1413951248577 28774 READING 439 0.984175
1413951248879 28775 READING 326 0.997209
1413951249166 28775 READING 326 0.996397
1413951249486 28775 READING 326 0.996974
1413951249757 28775 READING 326 0.996258
1413951250178 28774 READING 448 0.986573
1413951250220 28775 READING 326 0.997711
1413951250431 28775 READING 326 0.990631
1413951250648 28775 READING 326 0.995240
1413951250702 28775 READING 326 0.978499
1413951250755 28775 READING 326 0.980207
1413951250864 28775 READING 326 0.990611
1413951250938 28775 READING 326 0.979731
1413951251455 28775 READING 326 0.998009
1413951251736 28775 READING 326 0.996175
1413951251975 28774 READING 434 0.987433
1413951251993 28775 READING 326 0.995499
1413951252507 28775 READING 326 0.997626
1413951252743 28775 READING 326 0.995694
1413951252959 28775 READING 326 0.994977
1413951253013 28775 READING 326 0.979386
1413951253068 28775 READING 326 0.982205
1413951253154 28775 FUNCTION lru lambda h: 0.917237 * (h ** 0.00212515)
1413951253154 28774 FUNCTION lru lambda h: 0.391738 * (h ** 0.128016)
1413951253154 28775 RECOMMEND 447
1413951253154 28774 RECOMMEND 447
1413951253174 28775 READING 326 0.988597
1413951253243 28775 READING 326 0.984071
1413951253701 28774 READING 445 0.986974
1413951253744 28775 READING 326 0.997877
1413951254037 28775 READING 326 0.996270
1413951254308 28775 READING 326 0.996329
1413951254780 28775 READING 326 0.997588
1413951255037 28775 READING 326 0.996087
1413951255251 28775 READING 326 0.995327
1413951255305 28775 READING 326 0.979947
1413951255358 28775 READING 326 0.977482
1413951255464 28775 READING 326 0.989700
1413951255530 28775 READING 326 0.975927
1413951255535 28774 READING 445 0.984525
1413951256021 28775 READING 326 0.997852
1413951256321 28775 READING 326 0.996749
1413951256601 28775 READING 326 0.994963
1413951257049 28775 READING 326 0.997858
1413951257332 28775 READING 326 0.995662
1413951257561 28774 READING 447 0.989180
1413951257566 28775 READING 326 0.978628
1413951257619 28775 READING 326 0.982096
1413951257672 28775 READING 326 0.981671
1413951257780 28775 READING 326 0.990045
1413951257840 28775 READING 326 0.982502
1413951258320 28775 READING 326 0.997933
1413951258624 28775 READING 326 0.996595
1413951258912 28775 READING 326 0.996401
1413951259325 28775 READING 326 0.996934
1413951259560 28774 READING 433 0.977480
1413951259650 28775 READING 326 0.996461
1413951259882 28775 READING 326 0.994754
1413951259935 28775 READING 326 0.980680
1413951259990 28775 READING 326 0.954891
1413951260081 28775 READING 326 0.987763
1413951260155 28775 READING 326 0.983070
1413951260613 28775 READING 326 0.997650
1413951260932 28775 READING 326 0.996893
1413951261231 28775 READING 326 0.996154
1413951261303 28774 READING 441 0.983347
1413951261577 28775 READING 326 0.996861
1413951261951 28775 READING 326 0.996857
1413951262168 28775 READING 326 0.994536
1413951262222 28775 READING 326 0.981964
1413951262276 28775 READING 326 0.973316
1413951262358 28775 READING 326 0.986186
1413951262442 28775 READING 326 0.984178
1413951262879 28775 READING 326 0.997304
1413951263151 28775 READING 326 0.995900
1413951263154 28775 FUNCTION lru lambda h: 0.916661 * (h ** 0.0022984)
1413951263154 28774 FUNCTION lru lambda h: 0.390637 * (h ** 0.128677)
1413951263154 28775 RECOMMEND 447
1413951263154 28774 RECOMMEND 447
1413951263221 28774 READING 443 0.984982
1413951263513 28775 READING 326 0.997034
1413951263822 28775 READING 326 0.996343
1413951264221 28775 READING 326 0.997536
1413951264433 28775 READING 326 0.994816
1413951264486 28775 READING 326 0.979534
1413951264540 28775 READING 326 0.979558
1413951264609 28775 READING 326 0.985609
1413951264703 28775 READING 326 0.988617
1413951265135 28775 READING 326 0.997562
1413951265313 28774 READING 444 0.991004
1413951265404 28775 READING 326 0.995886
1413951265774 28775 READING 326 0.996941
1413951266071 28775 READING 326 0.996122
1413951266153 28774 READING 446 0.977875
1413951266304 28774 READING 447 0.872860
1413951266450 28774 READING 449 0.879929
1413951266478 28775 READING 326 0.997544
1413951266703 28775 READING 326 0.995719
1413951266754 28775 READING 311 0.980166
1413951266808 28775 READING 320 0.981414
1413951266863 28775 READING 326 0.980682
1413951266973 28775 READING 326 0.990267
1413951267139 28774 READING 440 0.979703
1413951267325 28775 READING 326 0.997346
1413951267642 28775 READING 326 0.996848
1413951267999 28775 READING 326 0.996803
1413951268340 28775 READING 326 0.996547
1413951268707 28775 READING 326 0.997144
1413951269020 28775 READING 311 0.995476
1413951269071 28775 READING 298 0.975219
1413951269125 28775 READING 308 0.979377
1413951269154 28774 READING 449 0.988027
1413951269190 28775 READING 320 0.983417
1413951269298 28775 READING 326 0.987105
1413951269374 28775 READING 326 0.986100
1413951269881 28775 READING 326 0.998041
1413951270165 28775 READING 326 0.996559
1413951270426 28775 READING 326 0.995238
1413951270913 28775 READING 326 0.997760
1413951271142 28775 READING 326 0.994766
1413951271197 28774 READING 418 0.989647
1413951271358 28775 READING 326 0.995041
1413951271413 28775 READING 326 0.981448
1413951271466 28775 READING 326 0.978300
1413951271572 28775 READING 326 0.990491
1413951271639 28775 READING 326 0.983491
1413951272135 28775 READING 326 0.997998
1413951272432 28775 READING 326 0.996466
1413951272701 28775 READING 326 0.995768
1413951272975 28774 READING 447 0.986852
1413951273154 28775 FUNCTION lru lambda h: 0.908357 * (h ** 0.00487242)
1413951273154 28774 FUNCTION lru lambda h: 0.38831 * (h ** 0.130121)
1413951273154 28775 RECOMMEND 447
1413951273154 28774 RECOMMEND 447
1413951273163 28775 READING 326 0.997356
1413951273424 28775 READING 326 0.995754
1413951273639 28775 READING 326 0.994754
1413951273692 28775 READING 326 0.974146
1413951273746 28775 READING 326 0.979445
1413951273853 28775 READING 326 0.989807
1413951273914 28775 READING 326 0.982430
1413951274402 28775 READING 326 0.997818
1413951274701 28775 READING 326 0.995040
1413951274950 28774 READING 420 0.988328
1413951274988 28775 READING 326 0.995833
1413951275416 28775 READING 326 0.997450
1413951275706 28775 READING 326 0.996409
1413951275923 28775 READING 326 0.989500
1413951275978 28775 READING 326 0.979616
1413951276031 28775 READING 326 0.979962
1413951276139 28775 READING 326 0.990209
1413951276201 28775 READING 326 0.981676
1413951276681 28775 READING 326 0.997806
1413951276731 28774 READING 444 0.986030
1413951276986 28775 READING 326 0.995427
1413951277281 28775 READING 326 0.995839
1413951277678 28775 READING 326 0.997302
1413951278001 28775 READING 326 0.996053
1413951278240 28775 READING 326 0.994682
1413951278294 28775 READING 326 0.979873
1413951278349 28775 READING 326 0.980363
1413951278440 28775 READING 326 0.988611
1413951278507 28774 READING 443 0.981714
1413951278520 28775 READING 326 0.988001
1413951278968 28775 READING 326 0.997580
1413951279289 28775 READING 326 0.996547
1413951279585 28775 READING 326 0.995734
1413951279924 28775 READING 326 0.996976
1413951280304 28775 READING 326 0.997266
1413951280452 28774 READING 443 0.985886
1413951280516 28775 READING 311 0.994937
1413951280564 28775 READING 298 0.977769
1413951280615 28775 READING 307 0.979748
1413951280667 28775 READING 319 0.978192
1413951280775 28775 READING 326 0.990638
1413951281122 28775 READING 326 0.996905
1413951281438 28775 READING 326 0.996201
1413951281790 28775 READING 326 0.996985
1413951282127 28775 READING 326 0.996682
1413951282310 28774 READING 444 0.984017
1413951282496 28775 READING 326 0.996909
1413951282774 28775 READING 326 0.996003
1413951282825 28775 READING 311 0.980076
1413951282877 28775 READING 320 0.980326
1413951282930 28775 READING 326 0.980295
1413951283038 28775 READING 326 0.989584
1413951283154 28775 FUNCTION lru lambda h: 0.906357 * (h ** 0.00548534)
1413951283155 28774 FUNCTION lru lambda h: 0.387908 * (h ** 0.130364)
1413951283155 28775 RECOMMEND 447
1413951283155 28774 RECOMMEND 447
1413951283381 28775 READING 326 0.997134
1413951283679 28775 READING 326 0.996546
1413951283998 28775 READING 326 0.996777
1413951284108 28774 READING 446 0.981875
1413951284289 28775 READING 326 0.996312
1413951284711 28775 READING 326 0.997525
1413951284883 28775 READING 311 0.993511
1413951285085 28775 READING 318 0.994804
1413951285134 28775 READING 304 0.977274
1413951285185 28775 READING 314 0.977934
1413951285291 28775 READING 326 0.990324
1413951285357 28775 READING 326 0.983931
1413951285727 28774 READING 447 0.988774
1413951285847 28775 READING 326 0.997995
1413951285900 28774 READING 451 0.896672
1413951286045 28774 READING 442 0.875660
1413951286139 28775 READING 326 0.996545
1413951286192 28774 READING 449 0.904232
1413951286412 28775 READING 326 0.996322
1413951286871 28775 READING 326 0.997632
1413951287134 28775 READING 326 0.995908
1413951287365 28775 READING 311 0.994823
1413951287414 28775 READING 298 0.973487
1413951287466 28775 READING 308 0.980493
1413951287597 28775 READING 321 0.600478
1413951287682 28775 READING 327 0.988732
1413951287978 28774 READING 418 0.987969
1413951288126 28775 READING 327 0.997564
1413951288398 28775 READING 327 0.996045
1413951288773 28775 READING 327 0.997026
1413951289086 28775 READING 327 0.997002
1413951289501 28775 READING 327 0.997536
1413951289719 28775 READING 327 0.995406
1413951289778 28775 READING 327 0.982523
1413951289831 28775 READING 327 0.981370
1413951289900 28775 READING 327 0.983399
1413951289995 28775 READING 327 0.987384
1413951290285 28774 READING 447 0.991838
1413951290431 28775 READING 327 0.997766
1413951290700 28775 READING 327 0.996293
1413951291069 28775 READING 327 0.997165
1413951291370 28775 READING 327 0.997056
1413951291778 28775 READING 327 0.997578
1413951291942 28774 READING 418 0.987619
1413951292002 28775 READING 327 0.995897
1413951292056 28775 READING 327 0.983610
1413951292110 28775 READING 327 0.981737
1413951292169 28775 READING 327 0.982662
1413951292274 28775 READING 327 0.990205
1413951292699 28775 READING 327 0.997665
1413951292947 28775 READING 327 0.996198
1413951293155 28775 FUNCTION lru lambda h: 0.909418 * (h ** 0.0045692)
1413951293155 28774 FUNCTION lru lambda h: 0.388911 * (h ** 0.12976)
1413951293155 28775 RECOMMEND 447
1413951293155 28774 RECOMMEND 447
1413951293338 28775 READING 327 0.997214
1413951293643 28775 READING 327 0.997010
1413951293819 28774 READING 445 0.988001
1413951294029 28775 READING 327 0.997414
1413951294279 28775 READING 327 0.994547
1413951294338 28775 READING 327 0.982942
1413951294392 28775 READING 327 0.982434
1413951294445 28775 READING 327 0.983303
1413951294555 28775 READING 327 0.992332
1413951294904 28775 READING 327 0.997091
1413951295223 28775 READING 327 0.996970
1413951295575 28775 READING 327 0.996686
1413951295764 28774 READING 444 0.987862
1413951295918 28775 READING 327 0.997399
1413951296284 28775 READING 327 0.997399
1413951296580 28775 READING 327 0.996459
1413951296634 28775 READING 327 0.980676
1413951296692 28775 READING 327 0.979728
1413951296749 28775 READING 327 0.982268
1413951296865 28775 READING 327 0.991265
1413951297205 28775 READING 327 0.997144
1413951297509 28775 READING 327 0.996946
1413951297732 28774 READING 442 0.986612
1413951297840 28775 READING 327 0.997323
1413951298135 28775 READING 327 0.996792
1413951298552 28775 READING 327 0.997727
1413951298738 28775 READING 327 0.995197
1413951298924 28775 READING 327 0.993984
1413951298978 28775 READING 327 0.981519
1413951299030 28775 READING 327 0.979885
1413951299139 28775 READING 327 0.991008
1413951299372 28774 READING 444 0.979048
1413951299497 28775 READING 327 0.997543
1413951299789 28775 READING 327 0.996796
1413951300105 28775 READING 327 0.997035
1413951300377 28775 READING 327 0.994488
1413951300823 28775 READING 327 0.997876
1413951301017 28775 READING 327 0.994836
1413951301100 28774 READING 446 0.983472
1413951301226 28775 READING 327 0.995406
1413951301280 28775 READING 327 0.982010
1413951301332 28775 READING 327 0.983057
1413951301440 28775 READING 327 0.991067
1413951301517 28775 READING 327 0.988709
1413951302038 28775 READING 327 0.998199
1413951302312 28775 READING 327 0.996157
1413951302587 28775 READING 327 0.996432
1413951302887 28774 READING 446 0.982653
1413951303062 28775 READING 327 0.997848
1413951303155 28775 FUNCTION lru lambda h: 0.909291 * (h ** 0.00460746)
1413951303155 28774 FUNCTION lru lambda h: 0.388232 * (h ** 0.130171)
1413951303155 28775 RECOMMEND 447
1413951303155 28774 RECOMMEND 447
1413951303272 28775 READING 327 0.995705
1413951303486 28775 READING 327 0.994370
1413951303539 28775 READING 327 0.982160
1413951303592 28775 READING 327 0.982277
1413951303698 28775 READING 327 0.989880
1413951303769 28775 READING 327 0.986717
1413951304270 28775 READING 327 0.997989
1413951304551 28775 READING 327 0.996758
1413951304811 28775 READING 327 0.996146
1413951304888 28774 READING 449 0.991371
1413951305112 28774 READING 422 0.889866
1413951305258 28774 READING 444 0.853169
1413951305290 28775 READING 327 0.997953
1413951305404 28774 READING 447 0.867480
1413951305452 28774 DEATH 238
1413951305528 28775 READING 327 0.995862
1413951305766 28775 READING 327 0.993850
1413951305821 28775 READING 327 0.975126
1413951305875 28775 READING 327 0.983481
1413951305985 28775 READING 327 0.990777
1413951306051 28775 READING 327 0.985556
1413951306538 28775 READING 327 0.998186
1413951306835 28775 READING 327 0.995106
1413951307116 28775 READING 327 0.994896
1413951307545 28775 READING 327 0.995978
1413951307829 28775 READING 327 0.995216
1413951308048 28775 READING 327 0.993506
1413951308106 28775 READING 327 0.975018
1413951308159 28775 READING 327 0.973828
1413951308265 28775 READING 327 0.990704
1413951308329 28775 READING 327 0.982637
1413951308805 28775 READING 327 0.997006
1413951309106 28775 READING 327 0.994861
1413951309396 28775 READING 327 0.995468
1413951309794 28775 READING 327 0.996118
1413951310111 28775 READING 327 0.995546
1413951310329 28775 READING 327 0.992767
1413951310385 28775 READING 327 0.978700
1413951310443 28775 READING 327 0.982878
1413951310547 28775 READING 327 0.990486
1413951310615 28775 READING 327 0.985410
1413951311074 28775 READING 327 0.997123
1413951311382 28775 READING 327 0.995163
1413951311680 28775 READING 327 0.995417
1413951312041 28775 READING 327 0.995934
1413951312393 28775 READING 327 0.995908
1413951312606 28775 READING 327 0.992509
1413951312666 28775 READING 327 0.977383
1413951312724 28775 READING 327 0.975480
1413951312816 28775 READING 327 0.985289
1413951312896 28775 READING 327 0.981581
1413951313155 28775 FUNCTION lru lambda h: 0.91006 * (h ** 0.00437559)
1413951313155 28775 RECOMMEND 894
1413951313337 28775 READING 327 0.997652
1413951313663 28775 READING 327 0.995457
1413951313964 28775 READING 327 0.995227
1413951314292 28775 READING 327 0.996691
1413951314675 28775 READING 327 0.997606
1413951314922 28775 READING 327 0.995542
1413951314977 28775 READING 327 0.982549
1413951315030 28775 READING 327 0.983037
1413951315102 28775 READING 327 0.984914
1413951315204 28775 READING 327 0.986401
1413951315627 28775 READING 327 0.996720
1413951315901 28775 READING 327 0.994126
1413951316272 28775 READING 327 0.996181
1413951316570 28775 READING 327 0.994792
1413951316972 28775 READING 327 0.996567
1413951317193 28775 READING 327 0.993235
1413951317248 28775 READING 327 0.972709
1413951317302 28775 READING 327 0.973081
1413951317362 28775 READING 327 0.974616
1413951317468 28775 READING 327 0.986747
1413951317889 28775 READING 327 0.996589
1413951318137 28775 READING 327 0.993768
1413951318530 28775 READING 327 0.996452
1413951318834 28775 READING 327 0.995394
1413951319218 28775 READING 327 0.996328
1413951319470 28775 READING 327 0.993889
1413951319523 28775 READING 327 0.974997
1413951319578 28775 READING 327 0.970632
1413951319636 28775 READING 327 0.973645
1413951319746 28775 READING 327 0.986470
1413951320088 28775 READING 327 0.997097
1413951320403 28775 READING 327 0.996732
1413951320757 28775 READING 327 0.996718
1413951321093 28775 READING 327 0.995601
1413951321459 28775 READING 327 0.995984
1413951321733 28775 READING 327 0.994779
1413951321789 28775 READING 327 0.976792
1413951321843 28775 READING 327 0.974241
1413951321901 28775 READING 327 0.982391
1413951322011 28775 READING 327 0.987244
1413951322356 28775 READING 327 0.995803
1413951322663 28775 READING 327 0.995524
1413951322995 28775 READING 327 0.995935
1413951323155 28775 FUNCTION lru lambda h: 0.909416 * (h ** 0.00456968)
1413951323155 28775 RECOMMEND 894
1413951323303 28775 READING 327 0.996496
1413951323700 28775 READING 327 0.995775
1413951323888 28775 READING 327 0.993729
1413951324073 28775 READING 327 0.994874
1413951324128 28775 READING 327 0.976774
1413951324185 28775 READING 327 0.974876
1413951324293 28775 READING 327 0.985773
1413951324623 28775 READING 327 0.995622
1413951324908 28775 READING 327 0.995033
1413951325221 28775 READING 327 0.995193
1413951325489 28775 READING 327 0.994835
1413951325933 28775 READING 327 0.996420
1413951326135 28775 READING 327 0.992218
1413951326342 28775 READING 327 0.992700
1413951326397 28775 READING 327 0.974143
1413951326450 28775 READING 327 0.974569
1413951326563 28775 READING 327 0.990601
1413951326639 28775 READING 327 0.987076
1413951327157 28775 READING 327 0.997498
1413951327430 28775 READING 327 0.994831
1413951327707 28775 READING 327 0.994749
1413951328183 28775 READING 327 0.997774
1413951328398 28775 READING 327 0.993832
1413951328618 28775 READING 327 0.993805
1413951328672 28775 READING 327 0.981869
1413951328731 28775 READING 327 0.984752
1413951328837 28775 READING 327 0.990189
1413951328909 28775 READING 327 0.986124
1413951329407 28775 READING 327 0.997144
1413951329689 28775 READING 327 0.994669
1413951329951 28775 READING 327 0.994277
1413951330424 28775 READING 327 0.996894
1413951330664 28775 READING 327 0.993733
1413951330884 28775 READING 327 0.993694
1413951330938 28775 READING 327 0.973663
1413951330991 28775 READING 327 0.974745
1413951331101 28775 READING 327 0.986566
1413951331169 28775 READING 327 0.977357
1413951331654 28775 READING 327 0.996984
1413951331949 28775 READING 327 0.994985
1413951332222 28775 READING 327 0.994390
1413951332666 28775 READING 327 0.997772
1413951332930 28775 READING 327 0.996599
1413951333011 28775 DEATH 1161
