1413950696603 0 TOTAL_MEM 894
1413950716653 28696 CREATION
1413950716653 28696 READING 9 0.991906
1413950716653 28696 MINHEAP 2
1413950716653 28696 MINHEAP 22
1413950716655 28695 CREATION
1413950716655 28695 READING 9 0.990760
1413950716655 28695 MINHEAP 2
1413950716655 28695 MINHEAP 276
1413950716717 28695 READING 9 0.970685
1413950716732 28696 READING 9 0.989917
1413950716745 28695 READING 9 0.945014
1413950716769 28695 READING 9 0.956434
1413950716784 28696 READING 9 0.983350
1413950716837 28696 READING 9 0.966341
1413950716859 28695 READING 11 0.987254
1413950716916 28696 READING 11 0.985115
1413950716984 28696 READING 11 0.974536
1413950717007 28695 READING 11 0.986837
1413950717132 28695 READING 17 0.909002
1413950717235 28695 READING 17 0.623759
1413950717326 28695 READING 30 0.954916
1413950717417 28695 READING 31 0.917170
1413950717622 28695 READING 35 0.256516
1413950717714 28695 READING 48 0.885662
1413950717789 28695 READING 49 0.893927
1413950717811 28696 READING 15 0.997635
1413950717933 28696 READING 16 0.968107
1413950718019 28695 READING 53 0.225113
1413950718094 28695 READING 76 0.744698
1413950718193 28696 READING 23 0.960622
1413950718327 28696 READING 24 0.952860
1413950718347 28695 READING 76 0.259045
1413950718428 28695 READING 103 0.773308
1413950718521 28695 READING 104 0.727713
1413950718617 28695 READING 105 0.692360
1413950718706 28695 READING 108 0.709794
1413950718741 28696 READING 33 0.989466
1413950719074 28696 READING 34 0.866957
1413950719174 28695 READING 112 0.181500
1413950719276 28696 READING 50 0.931091
1413950719305 28695 READING 147 0.719700
1413950719416 28695 READING 151 0.746777
1413950719524 28695 READING 153 0.629711
1413950719552 28696 READING 50 0.992612
1413950719645 28695 READING 162 0.726573
1413950719800 28696 READING 63 0.990792
1413950719964 28696 READING 64 0.983520
1413950720085 28696 READING 80 0.979391
1413950720092 28695 READING 164 0.174243
1413950720205 28696 READING 81 0.983320
1413950720241 28695 READING 206 0.644427
1413950720548 28695 READING 209 0.834128
1413950720808 28696 READING 95 0.991022
1413950721401 28695 READING 212 0.903200
1413950721441 28696 READING 96 0.757909
1413950721689 28695 READING 219 0.856751
1413950721848 28695 READING 225 0.737128
1413950722140 28695 READING 230 0.844417
1413950722230 28696 READING 123 0.986953
1413950722265 28695 READING 235 0.551712
1413950722431 28695 READING 239 0.706242
1413950722575 28695 READING 244 0.605895
1413950722575 28696 READING 124 0.967583
1413950722736 28695 READING 246 0.804085
1413950722832 28695 READING 249 0.587991
1413950722917 28695 READING 254 0.644610
1413950723005 28695 READING 261 0.676358
1413950723092 28695 READING 264 0.660324
1413950723604 28696 READING 135 0.831783
1413950723631 28696 READING 148 0.961785
1413950723638 28695 READING 271 0.115693
1413950723668 28696 READING 154 0.816950
1413950723698 28696 READING 159 0.963201
1413950723732 28696 READING 177 0.974074
1413950723767 28696 READING 178 0.968038
1413950723809 28696 READING 195 0.875305
1413950723930 28696 READING 196 0.991064
1413950724047 28696 READING 217 0.990839
1413950724142 28696 READING 220 0.984107
1413950724181 28695 READING 311 0.907836
1413950724276 28695 READING 312 0.707624
1413950724771 28695 READING 313 0.134075
1413950724901 28695 READING 356 0.593642
1413950724997 28695 READING 358 0.796237
1413950725232 28696 READING 239 0.998638
1413950725298 28695 READING 366 0.780929
1413950725465 28695 READING 367 0.764096
1413950725582 28695 READING 370 0.706623
1413950725639 28696 READING 241 0.997158
1413950725674 28695 READING 372 0.665641
1413950725769 28695 READING 368 0.699776
1413950725873 28695 READING 371 0.645455
1413950725974 28695 READING 373 0.752861
1413950726604 28696 FUNCTION lru lambda h: 0.981941 * (h ** 0.001)
1413950726604 28695 FUNCTION lru lambda h: 0.812705 * (h ** 0.001)
1413950726604 28696 RECOMMEND 447
1413950726604 28695 RECOMMEND 447
1413950726761 28695 READING 375 0.896536
1413950726811 28696 READING 251 0.998717
1413950727547 28696 READING 255 0.998454
1413950727971 28696 READING 262 0.996425
1413950728230 28695 READING 381 0.967078
1413950728669 28696 READING 265 0.998106
1413950728875 28696 READING 269 0.995079
1413950729470 28695 READING 382 0.963712
1413950729788 28696 READING 272 0.998559
1413950729850 28696 READING 275 0.983382
1413950729913 28696 READING 277 0.979464
1413950729972 28696 READING 285 0.983681
1413950730136 28696 READING 285 0.991823
1413950730294 28696 READING 294 0.992774
1413950730717 28695 READING 383 0.949999
1413950731307 28696 READING 295 0.998750
1413950731958 28695 READING 386 0.973925
1413950732324 28696 READING 301 0.998903
1413950733099 28696 READING 302 0.998207
1413950733466 28695 READING 386 0.977234
1413950733534 28696 READING 306 0.996712
1413950733996 28696 READING 307 0.996889
1413950734793 28695 READING 388 0.972117
1413950734826 28696 READING 311 0.998723
1413950734892 28696 READING 312 0.980102
1413950734960 28696 READING 316 0.986716
1413950735024 28696 READING 316 0.986072
1413950735210 28696 READING 325 0.995229
1413950735882 28696 READING 325 0.998575
1413950736373 28695 READING 384 0.976115
1413950736453 28696 READING 327 0.998295
1413950736604 28696 FUNCTION lru lambda h: 0.923166 * (h ** 0.0098123)
1413950736604 28695 FUNCTION lru lambda h: 0.641547 * (h ** 0.00287585)
1413950736604 28696 RECOMMEND 447
1413950736604 28695 RECOMMEND 447
1413950737876 28696 READING 326 0.999353
1413950737921 28695 READING 387 0.976450
1413950738339 28696 READING 327 0.997814
1413950738887 28696 READING 327 0.998164
1413950739164 28696 READING 328 0.996526
1413950739300 28695 READING 387 0.973574
1413950739825 28696 READING 328 0.998361
1413950739895 28696 READING 328 0.987285
1413950739964 28696 READING 328 0.986050
1413950740131 28696 READING 328 0.994926
1413950740310 28696 READING 328 0.993711
1413950740614 28695 READING 389 0.969184
1413950741243 28696 READING 328 0.999079
1413950742005 28695 READING 392 0.970777
1413950742426 28696 READING 328 0.999044
1413950743053 28696 READING 327 0.998379
1413950743283 28695 READING 393 0.969156
1413950743645 28696 READING 328 0.998179
1413950743918 28696 READING 328 0.991099
1413950744611 28696 READING 328 0.997802
1413950744681 28696 READING 327 0.980487
1413950744751 28696 READING 328 0.982246
1413950744906 28696 READING 328 0.991638
1413950744966 28695 READING 396 0.972125
1413950745054 28696 READING 328 0.991344
1413950745626 28695 READING 397 0.949032
1413950745789 28695 READING 399 0.759313
1413950745936 28695 READING 399 0.707604
1413950745989 28696 READING 328 0.997713
1413950746085 28695 READING 407 0.735124
1413950746604 28696 FUNCTION lru lambda h: 0.921318 * (h ** 0.0103431)
1413950746604 28695 FUNCTION lru lambda h: 0.55491 * (h ** 0.0386236)
1413950746604 28696 RECOMMEND 447
1413950746604 28695 RECOMMEND 447
1413950746901 28695 READING 410 0.974116
1413950747282 28696 READING 328 0.998759
1413950747913 28696 READING 328 0.997537
1413950748518 28696 READING 328 0.997792
1413950748578 28695 READING 417 0.985093
1413950748808 28696 READING 328 0.995847
1413950749366 28696 READING 328 0.997838
1413950749437 28696 READING 328 0.978150
1413950749508 28696 READING 328 0.979197
1413950749668 28696 READING 328 0.992681
1413950749792 28696 READING 328 0.989092
1413950750465 28695 READING 419 0.982429
1413950750674 28696 READING 328 0.998942
1413950751687 28696 READING 328 0.999096
1413950752209 28695 READING 421 0.983020
1413950752368 28696 READING 328 0.998424
1413950752898 28696 READING 328 0.998195
1413950753203 28696 READING 328 0.996789
1413950753725 28696 READING 328 0.998341
1413950753779 28696 READING 328 0.981353
1413950753843 28696 READING 328 0.985149
1413950753980 28696 READING 328 0.993647
1413950754029 28695 READING 423 0.973724
1413950754083 28696 READING 328 0.990878
1413950754995 28696 READING 328 0.999006
1413950755743 28696 READING 328 0.998702
1413950756000 28695 READING 422 0.981450
1413950756457 28696 READING 328 0.998257
1413950756604 28696 FUNCTION lru lambda h: 0.921124 * (h ** 0.0103989)
1413950756604 28695 FUNCTION lru lambda h: 0.498789 * (h ** 0.0643198)
1413950756604 28696 RECOMMEND 447
1413950756604 28695 RECOMMEND 447
1413950756956 28696 READING 328 0.998251
1413950757256 28696 READING 328 0.996658
1413950757769 28696 READING 328 0.996906
1413950757798 28695 READING 425 0.975795
1413950757838 28696 READING 328 0.984213
1413950757899 28696 READING 328 0.983326
1413950758012 28696 READING 328 0.991950
1413950758102 28696 READING 328 0.988454
1413950758839 28696 READING 328 0.998549
1413950759533 28696 READING 328 0.997898
1413950759841 28695 READING 422 0.977381
1413950760139 28696 READING 328 0.998564
1413950760562 28696 READING 328 0.997619
1413950760911 28696 READING 328 0.996759
1413950761403 28696 READING 328 0.997511
1413950761456 28696 READING 328 0.980457
1413950761516 28696 READING 328 0.979634
1413950761627 28696 READING 328 0.986273
1413950761650 28695 READING 425 0.980862
1413950761725 28696 READING 328 0.990853
1413950762330 28696 READING 328 0.998350
1413950762955 28696 READING 328 0.997124
1413950763415 28695 READING 426 0.980779
1413950763554 28696 READING 328 0.998515
1413950763910 28696 READING 328 0.997373
1413950764290 28696 READING 328 0.997156
1413950764683 28696 READING 328 0.997607
1413950764736 28696 READING 328 0.983458
1413950764796 28696 READING 328 0.983065
1413950764886 28696 READING 328 0.990442
1413950764976 28696 READING 328 0.989289
1413950765561 28696 READING 328 0.998330
1413950765823 28695 READING 426 0.990058
1413950766089 28695 READING 428 0.876831
1413950766109 28696 READING 328 0.998030
1413950766253 28695 READING 429 0.819602
1413950766407 28695 READING 434 0.861103
1413950766605 28696 FUNCTION lru lambda h: 0.921226 * (h ** 0.0103698)
1413950766605 28695 FUNCTION lru lambda h: 0.474763 * (h ** 0.076127)
1413950766605 28696 RECOMMEND 447
1413950766605 28695 RECOMMEND 447
1413950766693 28696 READING 328 0.998361
1413950767040 28696 READING 328 0.997155
1413950767429 28696 READING 328 0.997629
1413950767771 28695 READING 435 0.979686
1413950767771 28696 READING 328 0.997061
1413950767828 28696 READING 328 0.983362
1413950767892 28696 READING 328 0.983929
1413950767967 28696 READING 328 0.988345
1413950768065 28696 READING 328 0.990437
1413950768648 28696 READING 328 0.998517
1413950769037 28696 READING 328 0.997666
1413950769692 28696 READING 328 0.998415
1413950769916 28695 READING 442 0.992571
1413950770045 28696 READING 328 0.996063
1413950770440 28696 READING 328 0.997694
1413950770735 28696 READING 328 0.996573
1413950770789 28696 READING 328 0.980028
1413950770850 28696 READING 328 0.982393
1413950770916 28696 READING 328 0.986262
1413950771021 28696 READING 328 0.990285
1413950771607 28696 READING 328 0.998227
1413950771996 28696 READING 328 0.997532
1413950772557 28695 READING 443 0.986352
1413950772624 28696 READING 328 0.998473
1413950772948 28696 READING 328 0.995710
1413950773334 28696 READING 328 0.996887
1413950773710 28696 READING 328 0.997123
1413950773767 28696 READING 328 0.983378
1413950773822 28696 READING 328 0.983179
1413950773876 28696 READING 328 0.979364
1413950773991 28696 READING 328 0.991015
1413950774491 28696 READING 328 0.998154
1413950774861 28696 READING 328 0.997228
1413950775092 28695 READING 445 0.989500
1413950775381 28696 READING 328 0.998303
1413950775709 28696 READING 328 0.995195
1413950776080 28696 READING 328 0.997123
1413950776406 28696 READING 328 0.997005
1413950776460 28696 READING 328 0.981024
1413950776515 28696 READING 328 0.982217
1413950776569 28696 READING 328 0.981730
1413950776605 28696 FUNCTION lru lambda h: 0.921965 * (h ** 0.0101574)
1413950776605 28695 FUNCTION lru lambda h: 0.451237 * (h ** 0.0881381)
1413950776605 28696 RECOMMEND 447
1413950776605 28695 RECOMMEND 447
1413950776680 28696 READING 328 0.991951
1413950777097 28696 READING 328 0.997884
1413950777310 28695 READING 447 0.984872
1413950777533 28696 READING 328 0.997661
1413950778007 28696 READING 328 0.997956
1413950778357 28696 READING 328 0.996024
1413950778713 28696 READING 328 0.997393
1413950779061 28696 READING 328 0.997510
1413950779118 28696 READING 328 0.981139
1413950779170 28696 READING 328 0.981007
1413950779223 28696 READING 328 0.981223
1413950779335 28696 READING 328 0.987122
1413950779436 28695 READING 432 0.985774
1413950779703 28696 READING 328 0.997557
1413950780078 28696 READING 328 0.996255
1413950780467 28696 READING 328 0.997455
1413950780792 28696 READING 328 0.996770
1413950781167 28696 READING 328 0.997516
1413950781510 28696 READING 328 0.996636
1413950781567 28696 READING 328 0.978329
1413950781597 28695 READING 441 0.983365
1413950781625 28696 READING 328 0.982109
1413950781679 28696 READING 328 0.981461
1413950781789 28696 READING 328 0.991750
1413950782149 28696 READING 328 0.997080
1413950782504 28696 READING 328 0.997441
1413950782880 28696 READING 328 0.997762
1413950783190 28696 READING 328 0.997041
1413950783466 28695 READING 440 0.982132
1413950783579 28696 READING 328 0.997522
1413950783794 28696 READING 328 0.994774
1413950784018 28696 READING 328 0.996084
1413950784073 28696 READING 328 0.977394
1413950784130 28696 READING 328 0.982704
1413950784247 28696 READING 328 0.989167
1413950784607 28696 READING 328 0.997347
1413950784925 28696 READING 328 0.996983
1413950785284 28696 READING 328 0.997386
1413950785558 28696 READING 328 0.996395
1413950785907 28695 READING 441 0.991017
1413950785979 28696 READING 328 0.997910
1413950786149 28696 READING 328 0.994519
1413950786358 28696 READING 328 0.995610
1413950786411 28696 READING 328 0.981113
1413950786464 28696 READING 328 0.981320
1413950786573 28696 READING 328 0.990861
1413950786605 28696 FUNCTION lru lambda h: 0.921708 * (h ** 0.0102312)
1413950786605 28695 FUNCTION lru lambda h: 0.432472 * (h ** 0.0981882)
1413950786605 28696 RECOMMEND 447
1413950786605 28695 RECOMMEND 447
1413950786652 28696 READING 328 0.986289
1413950786832 28695 READING 443 0.972808
1413950786993 28695 READING 444 0.864364
1413950787154 28695 READING 447 0.870938
1413950787233 28696 READING 328 0.998389
1413950787590 28696 READING 328 0.997090
1413950787852 28696 READING 328 0.995943
1413950788294 28696 READING 328 0.997861
1413950788472 28696 READING 328 0.994749
1413950788585 28695 READING 434 0.987701
1413950788695 28696 READING 328 0.995299
1413950788748 28696 READING 328 0.981795
1413950788804 28696 READING 328 0.983299
1413950788916 28696 READING 328 0.991809
1413950788992 28696 READING 328 0.986149
1413950789569 28696 READING 328 0.998483
1413950789843 28696 READING 328 0.996177
1413950790136 28696 READING 328 0.997056
1413950790595 28695 READING 446 0.988617
1413950790598 28696 READING 328 0.996189
1413950790782 28696 READING 328 0.991886
1413950791014 28696 READING 328 0.995851
1413950791067 28696 READING 328 0.980333
1413950791122 28696 READING 328 0.983644
1413950791238 28696 READING 328 0.990080
1413950791315 28696 READING 328 0.986681
1413950791876 28696 READING 328 0.998260
1413950792155 28696 READING 328 0.996884
1413950792426 28696 READING 328 0.996701
1413950792845 28695 READING 446 0.989584
1413950792901 28696 READING 328 0.998144
1413950793097 28696 READING 328 0.995024
1413950793349 28696 READING 328 0.994828
1413950793402 28696 READING 328 0.978762
1413950793455 28696 READING 328 0.980882
1413950793566 28696 READING 328 0.989657
1413950793636 28696 READING 328 0.982887
1413950794175 28696 READING 328 0.997217
1413950794469 28696 READING 328 0.996556
1413950794735 28696 READING 328 0.995822
1413950795142 28695 READING 447 0.989105
1413950795207 28696 READING 328 0.997850
1413950795421 28696 READING 328 0.995263
1413950795644 28696 READING 328 0.994786
1413950795697 28696 READING 328 0.981569
1413950795750 28696 READING 328 0.980400
1413950795859 28696 READING 328 0.989186
1413950795923 28696 READING 328 0.984814
1413950796452 28696 READING 328 0.998023
1413950796605 28696 FUNCTION lru lambda h: 0.921462 * (h ** 0.0103018)
1413950796605 28695 FUNCTION lru lambda h: 0.425932 * (h ** 0.101783)
1413950796605 28696 RECOMMEND 447
1413950796605 28695 RECOMMEND 447
1413950796752 28696 READING 328 0.997081
1413950797032 28696 READING 328 0.996608
1413950797194 28695 READING 422 0.986577
1413950797489 28696 READING 328 0.997948
1413950797718 28696 READING 328 0.995353
1413950797937 28696 READING 328 0.995506
1413950797991 28696 READING 328 0.982150
1413950798045 28696 READING 328 0.980556
1413950798155 28696 READING 328 0.990548
1413950798217 28696 READING 328 0.985198
1413950798741 28696 READING 328 0.998006
1413950799051 28696 READING 328 0.996830
1413950799115 28695 READING 445 0.984929
1413950799330 28696 READING 328 0.996767
1413950799773 28696 READING 328 0.997947
1413950800013 28696 READING 328 0.995591
1413950800232 28696 READING 328 0.994938
1413950800287 28696 READING 328 0.982631
1413950800343 28696 READING 328 0.982318
1413950800451 28696 READING 328 0.991661
1413950800514 28696 READING 328 0.982206
1413950801033 28696 READING 328 0.998200
1413950801333 28695 READING 444 0.985378
1413950801340 28696 READING 328 0.996822
1413950801628 28696 READING 328 0.996542
1413950802062 28696 READING 328 0.997615
1413950802316 28696 READING 328 0.996584
1413950802572 28696 READING 328 0.995758
1413950802625 28696 READING 328 0.981862
1413950802678 28696 READING 328 0.979956
1413950802781 28696 READING 328 0.991268
1413950802846 28696 READING 328 0.986112
1413950803286 28695 READING 444 0.982433
1413950803344 28696 READING 328 0.998092
1413950803661 28696 READING 328 0.996894
1413950803950 28696 READING 328 0.995927
1413950804338 28696 READING 328 0.997463
1413950804639 28696 READING 328 0.996356
1413950804855 28696 READING 328 0.995448
1413950804906 28696 READING 328 0.978249
1413950804959 28696 READING 328 0.979313
1413950805053 28696 READING 328 0.990113
1413950805124 28696 READING 328 0.986538
1413950805613 28696 READING 328 0.997899
1413950805935 28696 READING 328 0.996894
1413950806016 28695 READING 445 0.990813
1413950806228 28696 READING 328 0.996816
1413950806588 28696 READING 328 0.997564
1413950806606 28696 FUNCTION lru lambda h: 0.921178 * (h ** 0.0103835)
1413950806606 28695 FUNCTION lru lambda h: 0.424101 * (h ** 0.1028)
1413950806606 28696 RECOMMEND 447
1413950806606 28695 RECOMMEND 447
1413950806679 28695 READING 444 0.968780
1413950806841 28695 READING 446 0.872321
1413950806909 28696 READING 328 0.997156
1413950807006 28695 READING 450 0.910997
1413950807128 28696 READING 328 0.994874
1413950807181 28696 READING 328 0.981485
1413950807234 28696 READING 328 0.981307
1413950807322 28696 READING 328 0.989871
1413950807401 28696 READING 328 0.987175
1413950807891 28696 READING 328 0.998098
1413950808221 28696 READING 328 0.996983
1413950808515 28696 READING 328 0.996476
1413950808659 28695 READING 417 0.986692
1413950808867 28696 READING 328 0.997088
1413950809209 28696 READING 328 0.997013
1413950809427 28696 READING 328 0.995181
1413950809480 28696 READING 328 0.983368
1413950809533 28696 READING 328 0.981453
1413950809615 28696 READING 328 0.989322
1413950809699 28696 READING 328 0.989288
1413950810176 28696 READING 328 0.995420
1413950810520 28696 READING 328 0.997038
1413950810778 28695 READING 448 0.989504
1413950810822 28696 READING 328 0.997077
1413950811158 28696 READING 328 0.996990
1413950811513 28696 READING 328 0.997244
1413950811774 28696 READING 328 0.995324
1413950811832 28696 READING 328 0.982727
1413950811888 28696 READING 328 0.982146
1413950811959 28696 READING 328 0.984791
1413950812060 28696 READING 328 0.990217
1413950812529 28696 READING 328 0.998014
1413950812804 28696 READING 328 0.995184
1413950812909 28695 READING 417 0.987580
1413950813181 28696 READING 328 0.997235
1413950813482 28696 READING 328 0.994940
1413950813864 28696 READING 328 0.997690
1413950814079 28696 READING 328 0.995790
1413950814132 28696 READING 328 0.982374
1413950814185 28696 READING 328 0.978726
1413950814249 28696 READING 328 0.984191
1413950814354 28696 READING 328 0.990858
1413950814814 28696 READING 328 0.997921
1413950815033 28695 READING 445 0.987280
1413950815088 28696 READING 328 0.996298
1413950815464 28696 READING 328 0.997614
1413950815761 28696 READING 328 0.994362
1413950816139 28696 READING 328 0.997482
1413950816370 28696 READING 328 0.995406
1413950816423 28696 READING 328 0.982967
1413950816475 28696 READING 328 0.978474
1413950816531 28696 READING 328 0.983190
1413950816606 28696 FUNCTION lru lambda h: 0.92197 * (h ** 0.0101561)
1413950816606 28695 FUNCTION lru lambda h: 0.418724 * (h ** 0.105793)
1413950816606 28696 RECOMMEND 447
1413950816606 28695 RECOMMEND 447
1413950816640 28696 READING 328 0.990744
1413950817039 28695 READING 444 0.986243
1413950817099 28696 READING 328 0.998053
1413950817351 28696 READING 328 0.996292
1413950817751 28696 READING 328 0.997694
1413950818043 28696 READING 328 0.995346
1413950818412 28696 READING 328 0.997291
1413950818655 28696 READING 328 0.995895
1413950818707 28696 READING 328 0.981460
1413950818760 28696 READING 328 0.978370
1413950818813 28696 READING 328 0.979972
1413950818924 28696 READING 328 0.990758
1413950819010 28695 READING 442 0.985295
1413950819392 28696 READING 328 0.997693
1413950819646 28696 READING 328 0.995992
1413950820025 28696 READING 328 0.995944
1413950820333 28696 READING 328 0.995547
1413950820692 28696 READING 328 0.996950
1413950820988 28696 READING 328 0.995912
1413950821042 28696 READING 328 0.980555
1413950821094 28696 READING 328 0.981513
1413950821150 28696 READING 328 0.983426
1413950821278 28696 READING 328 0.991937
1413950821279 28695 READING 443 0.988839
1413950821645 28696 READING 328 0.997377
1413950821977 28696 READING 328 0.997228
1413950822316 28696 READING 328 0.997369
1413950822624 28696 READING 328 0.997155
1413950822999 28696 READING 328 0.996965
1413950823239 28695 READING 446 0.983307
1413950823282 28696 READING 328 0.996378
1413950823334 28696 READING 328 0.981259
1413950823387 28696 READING 328 0.982935
1413950823439 28696 READING 328 0.981568
1413950823549 28696 READING 328 0.990679
1413950823907 28696 READING 328 0.997391
1413950824228 28696 READING 328 0.997061
1413950824559 28696 READING 328 0.997134
1413950824854 28696 READING 328 0.996654
1413950825245 28696 READING 328 0.996948
1413950825253 28695 READING 446 0.987249
1413950825499 28695 READING 448 0.926700
1413950825540 28696 READING 328 0.996038
1413950825594 28696 READING 328 0.978951
1413950825657 28695 READING 440 0.902351
1413950825663 28696 READING 328 0.986088
1413950825716 28696 READING 328 0.982133
1413950825827 28696 READING 328 0.990418
1413950826047 28695 READING 446 0.960121
1413950826188 28696 READING 328 0.997447
1413950826502 28696 READING 328 0.996750
1413950826606 28696 FUNCTION lru lambda h: 0.9213 * (h ** 0.0103484)
1413950826606 28695 FUNCTION lru lambda h: 0.4191 * (h ** 0.10558)
1413950826606 28696 RECOMMEND 447
1413950826606 28695 RECOMMEND 447
1413950826832 28696 READING 328 0.997355
1413950827117 28696 READING 328 0.996646
1413950827530 28696 READING 328 0.997625
1413950827701 28696 READING 328 0.994450
1413950827891 28696 READING 328 0.995267
1413950827946 28696 READING 328 0.979408
1413950827999 28696 READING 328 0.983270
1413950828109 28696 READING 328 0.991188
1413950828172 28695 READING 447 0.988920
1413950828464 28696 READING 328 0.996446
1413950828777 28696 READING 328 0.997138
1413950829106 28696 READING 328 0.995959
1413950829376 28696 READING 328 0.996669
1413950829803 28696 READING 328 0.997693
1413950830004 28696 READING 328 0.992451
1413950830217 28696 READING 328 0.995425
1413950830271 28696 READING 328 0.977686
1413950830324 28696 READING 328 0.974341
1413950830440 28696 READING 328 0.991793
1413950830516 28696 READING 328 0.988092
1413950830704 28695 READING 435 0.990777
1413950831082 28696 READING 328 0.998278
1413950831352 28696 READING 328 0.996225
1413950831643 28696 READING 328 0.996551
1413950832107 28696 READING 328 0.997836
1413950832293 28696 READING 328 0.994010
1413950832507 28696 READING 328 0.994608
1413950832560 28696 READING 328 0.981094
1413950832613 28696 READING 328 0.981918
1413950832721 28696 READING 328 0.990126
1413950832774 28695 READING 444 0.986251
1413950832798 28696 READING 328 0.987864
1413950833361 28696 READING 328 0.998318
1413950833640 28696 READING 328 0.995998
1413950833908 28696 READING 328 0.995878
1413950834388 28696 READING 328 0.998038
1413950834580 28696 READING 328 0.994499
1413950834805 28695 READING 442 0.984939
1413950834807 28696 READING 328 0.994234
1413950834861 28696 READING 328 0.981507
1413950834915 28696 READING 328 0.977454
1413950835026 28696 READING 328 0.989852
1413950835096 28696 READING 328 0.985796
1413950835644 28696 READING 328 0.998536
1413950835925 28696 READING 328 0.996816
1413950836184 28696 READING 328 0.996651
1413950836606 28696 FUNCTION lru lambda h: 0.921239 * (h ** 0.0103658)
1413950836606 28695 FUNCTION lru lambda h: 0.418657 * (h ** 0.10583)
1413950836606 28696 RECOMMEND 447
1413950836606 28695 RECOMMEND 447
1413950836663 28696 READING 328 0.997709
1413950836871 28696 READING 328 0.995367
1413950836944 28695 READING 444 0.986509
1413950837091 28696 READING 328 0.995155
1413950837146 28696 READING 328 0.982213
1413950837198 28696 READING 328 0.983405
1413950837307 28696 READING 328 0.991614
1413950837374 28696 READING 328 0.984989
1413950837910 28696 READING 328 0.997990
1413950838198 28696 READING 328 0.996665
1413950838464 28696 READING 328 0.995555
1413950838928 28696 READING 328 0.998069
1413950839173 28696 READING 328 0.996416
1413950839565 28696 READING 328 0.995663
1413950839640 28696 READING 328 0.986278
1413950839698 28695 READING 443 0.789495
1413950839704 28696 READING 328 0.983744
1413950839813 28696 READING 328 0.991505
1413950839874 28696 READING 328 0.982251
1413950840391 28696 READING 328 0.997988
1413950840684 28696 READING 328 0.996662
1413950840960 28696 READING 328 0.996084
1413950841398 28696 READING 328 0.997799
1413950841641 28696 READING 328 0.995209
1413950841747 28695 READING 467 0.995054
1413950841859 28696 READING 328 0.995045
1413950841913 28696 READING 328 0.980164
1413950841967 28696 READING 328 0.980246
1413950842075 28696 READING 328 0.989963
1413950842137 28696 READING 328 0.982669
1413950842646 28696 READING 328 0.997224
1413950842945 28696 READING 328 0.996651
1413950843227 28696 READING 328 0.996493
1413950843649 28696 READING 328 0.997714
1413950843701 28695 READING 462 0.992743
1413950843906 28696 READING 328 0.995905
1413950844122 28696 READING 328 0.995452
1413950844175 28696 READING 328 0.980763
1413950844227 28696 READING 328 0.981505
1413950844333 28696 READING 328 0.990658
1413950844394 28696 READING 328 0.981905
1413950844890 28696 READING 328 0.997852
1413950845188 28696 READING 328 0.996918
1413950845475 28696 READING 328 0.995270
1413950845545 28695 READING 424 0.988259
1413950845733 28695 READING 464 0.899097
1413950845884 28696 READING 328 0.996587
1413950845889 28695 READING 460 0.882861
1413950846162 28696 READING 328 0.996562
1413950846361 28695 READING 460 0.967709
1413950846382 28696 READING 328 0.995749
1413950846435 28696 READING 328 0.983254
1413950846487 28696 READING 328 0.979615
1413950846593 28696 READING 328 0.990324
1413950846607 28696 FUNCTION lru lambda h: 0.921732 * (h ** 0.0102242)
1413950846607 28695 FUNCTION lru lambda h: 0.405565 * (h ** 0.113241)
1413950846607 28696 RECOMMEND 447
1413950846607 28695 RECOMMEND 447
1413950846661 28696 READING 328 0.982862
1413950847153 28696 READING 328 0.998110
1413950847459 28696 READING 328 0.996803
1413950847752 28696 READING 328 0.996600
1413950848133 28696 READING 328 0.997247
1413950848383 28695 READING 426 0.988735
1413950848442 28696 READING 328 0.997179
1413950848690 28696 READING 328 0.995003
1413950848743 28696 READING 328 0.981358
1413950848797 28696 READING 328 0.980618
1413950848885 28696 READING 328 0.988645
1413950848965 28696 READING 328 0.987345
1413950849449 28696 READING 328 0.998009
1413950849776 28696 READING 328 0.995738
1413950850083 28696 READING 328 0.996814
1413950850427 28696 READING 328 0.996884
1413950850508 28695 READING 460 0.989842
1413950850772 28696 READING 328 0.997284
1413950850988 28696 READING 328 0.995479
1413950851043 28696 READING 328 0.983418
1413950851095 28696 READING 328 0.981659
1413950851174 28696 READING 328 0.987725
1413950851261 28696 READING 328 0.989547
1413950851734 28696 READING 328 0.997855
1413950852070 28696 READING 328 0.997255
1413950852262 28695 READING 429 0.983844
1413950852392 28696 READING 328 0.997326
1413950852722 28696 READING 328 0.995845
1413950853087 28696 READING 328 0.997470
1413950853303 28696 READING 328 0.995530
1413950853356 28696 READING 328 0.979058
1413950853409 28696 READING 328 0.980182
1413950853482 28696 READING 328 0.986650
1413950853576 28696 READING 328 0.989900
1413950854040 28696 READING 328 0.998014
1413950854225 28695 READING 455 0.986775
1413950854315 28696 READING 328 0.996575
1413950854681 28696 READING 328 0.996937
1413950854992 28696 READING 328 0.996993
1413950855371 28696 READING 328 0.997371
1413950855590 28696 READING 328 0.995511
1413950855643 28696 READING 328 0.980598
1413950855695 28696 READING 328 0.982611
1413950855766 28696 READING 328 0.984641
1413950855866 28696 READING 328 0.984444
1413950856166 28695 READING 433 0.986481
1413950856326 28696 READING 328 0.998022
1413950856600 28696 READING 328 0.996214
1413950856607 28696 FUNCTION lru lambda h: 0.921348 * (h ** 0.0103346)
1413950856607 28695 FUNCTION lru lambda h: 0.397937 * (h ** 0.117732)
1413950856607 28696 RECOMMEND 447
1413950856607 28695 RECOMMEND 447
1413950856974 28696 READING 328 0.997419
1413950857279 28696 READING 328 0.996259
1413950857662 28696 READING 328 0.996371
1413950857935 28696 READING 328 0.996061
1413950857988 28696 READING 328 0.981692
1413950858033 28695 READING 449 0.981763
1413950858047 28696 READING 328 0.984138
1413950858102 28696 READING 328 0.982114
1413950858213 28696 READING 328 0.989499
1413950858662 28696 READING 328 0.995961
1413950858916 28696 READING 328 0.996189
1413950859311 28696 READING 328 0.997378
1413950859606 28696 READING 328 0.996566
1413950859985 28696 READING 328 0.996304
1413950859985 28695 READING 435 0.985252
1413950860228 28696 READING 328 0.995814
1413950860281 28696 READING 328 0.981294
1413950860334 28696 READING 328 0.981324
1413950860387 28696 READING 328 0.982663
1413950860500 28696 READING 328 0.989636
1413950860871 28696 READING 328 0.997534
1413950861205 28696 READING 328 0.997030
1413950861574 28696 READING 328 0.997406
1413950861862 28695 READING 446 0.982983
1413950861886 28696 READING 328 0.997015
1413950862231 28696 READING 328 0.997030
1413950862486 28696 READING 328 0.995893
1413950862538 28696 READING 328 0.980602
1413950862591 28696 READING 328 0.979397
1413950862644 28696 READING 328 0.979597
1413950862754 28696 READING 328 0.991470
1413950863113 28696 READING 328 0.997034
1413950863442 28696 READING 328 0.996886
1413950863799 28696 READING 328 0.997347
1413950863938 28695 READING 447 0.989583
1413950864117 28696 READING 328 0.996923
1413950864463 28696 READING 328 0.997306
1413950864733 28696 READING 328 0.996200
1413950864765 28695 READING 438 0.969028
1413950864794 28696 READING 328 0.982361
1413950864848 28696 READING 328 0.980284
1413950864903 28696 READING 328 0.982321
1413950864922 28695 READING 445 0.845368
1413950865022 28696 READING 328 0.991467
1413950865067 28695 READING 447 0.847871
1413950865389 28696 READING 328 0.997272
1413950865533 28695 READING 449 0.953348
1413950865734 28696 READING 328 0.996035
1413950866075 28696 READING 328 0.996409
1413950866388 28696 READING 328 0.997130
1413950866607 28696 FUNCTION lru lambda h: 0.921202 * (h ** 0.0103765)
1413950866607 28695 FUNCTION lru lambda h: 0.394979 * (h ** 0.119498)
1413950866607 28696 RECOMMEND 447
1413950866607 28695 RECOMMEND 447
1413950866760 28696 READING 328 0.997230
1413950867033 28696 READING 328 0.995970
1413950867122 28696 READING 328 0.985519
1413950867173 28696 READING 328 0.977949
1413950867224 28696 READING 328 0.980319
1413950867335 28696 READING 328 0.991742
1413950867574 28695 READING 437 0.990669
1413950867691 28696 READING 328 0.997465
1413950868003 28696 READING 328 0.996879
1413950868329 28696 READING 328 0.997232
1413950868611 28696 READING 328 0.996293
1413950869016 28696 READING 328 0.997689
1413950869189 28696 READING 328 0.994374
1413950869382 28696 READING 328 0.994325
1413950869436 28696 READING 328 0.981828
1413950869467 28695 READING 448 0.986982
1413950869494 28696 READING 328 0.981734
1413950869604 28696 READING 328 0.990842
1413950869686 28696 READING 328 0.984426
1413950870265 28696 READING 328 0.998349
1413950870587 28696 READING 328 0.996557
1413950870856 28696 READING 328 0.996327
1413950871274 28695 READING 433 0.987131
1413950871281 28696 READING 328 0.997788
1413950871456 28696 READING 328 0.994754
1413950871661 28696 READING 328 0.994413
1413950871714 28696 READING 328 0.979884
1413950871767 28696 READING 328 0.979929
1413950871876 28696 READING 328 0.991026
1413950871953 28696 READING 328 0.988301
1413950872521 28696 READING 328 0.998339
1413950872840 28696 READING 328 0.996486
1413950872983 28695 READING 444 0.986068
1413950873097 28696 READING 328 0.996211
1413950873534 28696 READING 328 0.997884
1413950873715 28696 READING 328 0.995087
1413950873927 28696 READING 328 0.994967
1413950873981 28696 READING 328 0.979734
1413950874035 28696 READING 328 0.981695
1413950874145 28696 READING 328 0.990357
1413950874221 28696 READING 328 0.987875
1413950874778 28696 READING 328 0.998157
1413950874854 28695 READING 443 0.984496
1413950875052 28696 READING 328 0.996655
1413950875336 28696 READING 328 0.996744
1413950875794 28696 READING 328 0.998072
1413950875987 28696 READING 328 0.994349
1413950876223 28696 READING 328 0.995042
1413950876275 28696 READING 328 0.979843
1413950876327 28696 READING 327 0.977598
1413950876436 28696 READING 328 0.988549
1413950876504 28696 READING 328 0.980747
1413950876607 28696 FUNCTION lru lambda h: 0.922275 * (h ** 0.0100683)
1413950876607 28695 FUNCTION lru lambda h: 0.391488 * (h ** 0.121606)
1413950876607 28696 RECOMMEND 447
1413950876607 28695 RECOMMEND 447
1413950876737 28695 READING 445 0.985601
1413950877046 28696 READING 328 0.997253
1413950877333 28696 READING 328 0.995865
1413950877596 28696 READING 328 0.994792
1413950878051 28696 READING 328 0.997058
1413950878275 28696 READING 328 0.994672
1413950878435 28695 READING 444 0.982423
1413950878498 28696 READING 328 0.992968
1413950878552 28696 READING 328 0.973889
1413950878605 28696 READING 328 0.976641
1413950878716 28696 READING 328 0.987472
1413950878779 28696 READING 328 0.983473
1413950879302 28696 READING 328 0.997507
1413950879602 28696 READING 328 0.996453
1413950879883 28696 READING 328 0.996227
1413950880168 28695 READING 445 0.981598
1413950880314 28696 READING 328 0.996821
1413950880561 28696 READING 328 0.996284
1413950880779 28696 READING 328 0.995559
1413950880832 28696 READING 328 0.983548
1413950880885 28696 READING 328 0.974764
1413950880992 28696 READING 328 0.990952
1413950881053 28696 READING 328 0.982153
1413950881556 28696 READING 328 0.997914
1413950881851 28696 READING 328 0.996708
1413950881932 28695 READING 448 0.982334
1413950882137 28696 READING 328 0.996638
1413950882542 28696 READING 328 0.997344
1413950882803 28696 READING 328 0.996213
1413950883018 28696 READING 328 0.994750
1413950883070 28696 READING 328 0.978857
1413950883122 28696 READING 327 0.980829
1413950883223 28696 READING 328 0.988426
1413950883288 28696 READING 328 0.983532
1413950883779 28696 READING 328 0.997054
1413950883829 28695 READING 437 0.988499
1413950884037 28695 READING 447 0.909726
1413950884085 28696 READING 328 0.996250
1413950884177 28695 READING 438 0.867929
1413950884321 28695 READING 443 0.851141
1413950884378 28696 READING 328 0.996386
1413950884761 28696 READING 328 0.997270
1413950885061 28696 READING 328 0.996956
1413950885299 28696 READING 328 0.991298
1413950885353 28696 READING 328 0.981204
1413950885405 28696 READING 328 0.981002
1413950885494 28696 READING 328 0.985804
1413950885574 28696 READING 328 0.987101
1413950885836 28695 READING 445 0.988905
1413950886058 28696 READING 328 0.998093
1413950886382 28696 READING 328 0.996952
1413950886607 28696 FUNCTION lru lambda h: 0.921742 * (h ** 0.0102213)
1413950886608 28695 FUNCTION lru lambda h: 0.391938 * (h ** 0.121331)
1413950886608 28696 RECOMMEND 447
1413950886608 28695 RECOMMEND 447
1413950886684 28696 READING 328 0.996361
1413950887016 28696 READING 328 0.996548
1413950887353 28696 READING 328 0.996951
1413950887568 28696 READING 328 0.995122
1413950887622 28696 READING 328 0.982111
1413950887676 28696 READING 328 0.981492
1413950887757 28696 READING 328 0.988448
1413950887791 28695 READING 454 0.988817
1413950887844 28696 READING 328 0.988451
1413950888309 28696 READING 328 0.998016
1413950888638 28696 READING 328 0.996893
1413950888936 28696 READING 328 0.995446
1413950889250 28696 READING 328 0.996624
1413950889606 28696 READING 328 0.996999
1413950889673 28695 READING 423 0.987649
1413950889828 28696 READING 328 0.995758
1413950889881 28696 READING 328 0.980984
1413950889934 28696 READING 328 0.980944
1413950890008 28696 READING 328 0.986721
1413950890100 28696 READING 328 0.987605
1413950890563 28696 READING 328 0.997790
1413950890838 28696 READING 328 0.996642
1413950891200 28696 READING 328 0.996866
1413950891497 28696 READING 328 0.996670
1413950891761 28695 READING 451 0.988914
1413950891870 28696 READING 328 0.997389
1413950892088 28696 READING 328 0.995509
1413950892143 28696 READING 328 0.982359
1413950892196 28696 READING 328 0.978903
1413950892262 28696 READING 328 0.986323
1413950892362 28696 READING 328 0.989501
1413950892817 28696 READING 328 0.997843
1413950893086 28696 READING 328 0.996506
1413950893454 28696 READING 328 0.997270
1413950893744 28696 READING 328 0.996085
1413950893750 28695 READING 424 0.986814
1413950894123 28696 READING 328 0.997181
1413950894358 28696 READING 328 0.995280
1413950894411 28696 READING 328 0.983063
1413950894464 28696 READING 328 0.981109
1413950894518 28696 READING 328 0.983652
1413950894630 28696 READING 328 0.991455
1413950895082 28696 READING 328 0.997778
1413950895331 28696 READING 328 0.996208
1413950895710 28695 READING 448 0.981039
1413950895736 28696 READING 328 0.997257
1413950896017 28696 READING 328 0.996323
1413950896374 28696 READING 328 0.997395
1413950896608 28696 FUNCTION lru lambda h: 0.921607 * (h ** 0.01026)
1413950896608 28695 FUNCTION lru lambda h: 0.386829 * (h ** 0.124398)
1413950896608 28696 RECOMMEND 447
1413950896608 28695 RECOMMEND 447
1413950896617 28696 READING 328 0.995852
1413950896669 28696 READING 328 0.981586
1413950896722 28696 READING 328 0.982453
1413950896777 28696 READING 328 0.981761
1413950896888 28696 READING 328 0.990983
1413950897336 28696 READING 328 0.997923
1413950897550 28695 READING 426 0.988779
1413950897610 28696 READING 328 0.996012
1413950897991 28696 READING 328 0.997623
1413950898294 28696 READING 328 0.996857
1413950898646 28696 READING 328 0.996934
1413950898902 28696 READING 328 0.996144
1413950898957 28696 READING 328 0.981874
1413950899012 28696 READING 328 0.979326
1413950899064 28696 READING 328 0.980448
1413950899176 28696 READING 328 0.990791
1413950899406 28695 READING 443 0.984377
1413950899543 28696 READING 328 0.997554
1413950899878 28696 READING 328 0.996949
1413950900233 28696 READING 328 0.997385
1413950900549 28696 READING 328 0.996176
1413950900897 28696 READING 328 0.996941
1413950901164 28696 READING 328 0.995930
1413950901218 28696 READING 328 0.979810
1413950901270 28696 READING 328 0.978640
1413950901323 28696 READING 328 0.980257
1413950901435 28695 READING 442 0.982501
1413950901438 28696 READING 328 0.991577
1413950901796 28696 READING 328 0.997307
1413950902125 28696 READING 328 0.996884
1413950902463 28696 READING 328 0.997230
1413950902766 28696 READING 328 0.996792
1413950903123 28696 READING 328 0.997349
1413950903422 28696 READING 328 0.996255
1413950903474 28696 READING 328 0.979797
1413950903533 28695 READING 444 0.982415
1413950903535 28696 READING 328 0.984807
1413950903588 28696 READING 328 0.980956
1413950903697 28696 READING 328 0.990162
1413950904049 28696 READING 328 0.995505
1413950904059 28695 READING 445 0.954941
1413950904206 28695 READING 446 0.842668
1413950904350 28695 READING 448 0.864500
1413950904367 28696 READING 328 0.996839
1413950904694 28696 READING 328 0.996469
1413950904981 28696 READING 328 0.996226
1413950905168 28695 READING 438 0.982209
1413950905384 28696 READING 328 0.997462
1413950905553 28696 READING 328 0.994048
1413950905743 28696 READING 328 0.995060
1413950905795 28696 READING 328 0.979917
1413950905847 28696 READING 328 0.979935
1413950905956 28696 READING 328 0.991409
1413950906312 28696 READING 328 0.997021
1413950906608 28696 FUNCTION lru lambda h: 0.921876 * (h ** 0.0101828)
1413950906608 28695 FUNCTION lru lambda h: 0.387658 * (h ** 0.123899)
1413950906608 28696 RECOMMEND 447
1413950906608 28695 RECOMMEND 447
1413950906622 28696 READING 328 0.996938
1413950906822 28695 READING 447 0.988074
1413950906946 28696 READING 328 0.997007
1413950907221 28696 READING 328 0.996580
1413950907643 28696 READING 328 0.997719
1413950907818 28696 READING 328 0.993600
1413950908017 28696 READING 328 0.995549
1413950908069 28696 READING 328 0.982296
1413950908121 28696 READING 328 0.981650
1413950908230 28696 READING 328 0.991170
1413950908307 28696 READING 328 0.987400
1413950908610 28695 READING 436 0.986816
1413950908876 28696 READING 328 0.998305
1413950909196 28696 READING 328 0.997265
1413950909454 28696 READING 328 0.996099
1413950909883 28696 READING 328 0.997836
1413950910059 28696 READING 328 0.993708
1413950910205 28695 READING 445 0.986167
1413950910269 28696 READING 328 0.995761
1413950910322 28696 READING 328 0.980102
1413950910375 28696 READING 328 0.977736
1413950910483 28696 READING 328 0.990191
1413950910560 28696 READING 328 0.987077
1413950911122 28696 READING 328 0.998383
1413950911393 28696 READING 328 0.996328
1413950911680 28696 READING 328 0.996712
1413950911980 28695 READING 447 0.986075
1413950912126 28696 READING 328 0.997368
1413950912340 28696 READING 328 0.991581
1413950912571 28696 READING 328 0.994287
1413950912623 28696 READING 327 0.979175
1413950912676 28696 READING 328 0.976840
1413950912786 28696 READING 328 0.989823
1413950912854 28696 READING 328 0.983574
1413950913394 28696 READING 328 0.998025
1413950913674 28696 READING 328 0.995800
1413950913943 28695 READING 448 0.983684
1413950913946 28696 READING 328 0.988176
1413950914401 28696 READING 328 0.996770
1413950914617 28696 READING 328 0.994385
1413950914837 28696 READING 328 0.994003
1413950914891 28696 READING 328 0.979248
1413950914943 28696 READING 328 0.978634
1413950915052 28696 READING 328 0.985835
1413950915118 28696 READING 328 0.978609
1413950915639 28696 READING 328 0.997914
1413950915894 28695 READING 433 0.986248
1413950915933 28696 READING 328 0.996854
1413950916205 28696 READING 328 0.996363
1413950916608 28696 FUNCTION lru lambda h: 0.921815 * (h ** 0.0102003)
1413950916608 28695 FUNCTION lru lambda h: 0.384113 * (h ** 0.126079)
1413950916608 28696 RECOMMEND 447
1413950916608 28695 RECOMMEND 447
1413950916634 28696 READING 328 0.997780
1413950916874 28696 READING 328 0.995687
1413950917095 28696 READING 328 0.995437
1413950917148 28696 READING 328 0.983100
1413950917201 28696 READING 328 0.979953
1413950917309 28696 READING 328 0.991371
1413950917369 28696 READING 328 0.983849
1413950917501 28695 READING 442 0.982261
1413950917878 28696 READING 328 0.997801
1413950918178 28696 READING 328 0.996917
1413950918466 28696 READING 328 0.996757
1413950918870 28696 READING 328 0.997577
1413950919128 28696 READING 328 0.996077
1413950919320 28695 READING 444 0.983459
1413950919349 28696 READING 328 0.995685
1413950919401 28696 READING 328 0.981766
1413950919454 28696 READING 328 0.979823
1413950919559 28696 READING 328 0.990910
1413950919623 28696 READING 328 0.985805
1413950920120 28696 READING 328 0.998064
1413950920420 28696 READING 328 0.996161
1413950920708 28696 READING 328 0.996750
1413950921085 28696 READING 328 0.997054
1413950921324 28695 READING 444 0.979360
1413950921376 28696 READING 328 0.996185
1413950921608 28696 READING 328 0.995479
1413950921662 28696 READING 328 0.980992
1413950921713 28696 READING 328 0.978474
1413950921802 28696 READING 328 0.988814
1413950921878 28696 READING 328 0.986511
1413950922353 28696 READING 328 0.997688
1413950922543 28695 READING 442 0.980196
1413950922671 28696 READING 328 0.996798
1413950922733 28695 READING 447 0.839320
1413950922876 28695 READING 443 0.827327
1413950922968 28696 READING 328 0.996849
1413950923022 28695 READING 448 0.882197
1413950923310 28696 READING 328 0.996637
1413950923656 28696 READING 328 0.997174
1413950923876 28696 READING 328 0.995037
1413950923935 28696 READING 328 0.974215
1413950923990 28696 READING 328 0.982227
1413950924073 28696 READING 328 0.988425
1413950924158 28696 READING 328 0.988007
1413950924630 28696 READING 328 0.997203
1413950924909 28695 READING 436 0.987600
1413950924959 28696 READING 328 0.996933
1413950925259 28696 READING 328 0.996361
1413950925579 28696 READING 328 0.996557
1413950925927 28696 READING 328 0.996752
1413950926147 28696 READING 328 0.995265
1413950926199 28696 READING 328 0.982278
1413950926253 28696 READING 328 0.982160
1413950926330 28696 READING 328 0.988206
1413950926420 28696 READING 328 0.980710
1413950926608 28696 FUNCTION lru lambda h: 0.922484 * (h ** 0.0100085)
1413950926609 28695 FUNCTION lru lambda h: 0.386327 * (h ** 0.124726)
1413950926609 28696 RECOMMEND 447
1413950926609 28695 RECOMMEND 447
1413950926884 28696 READING 328 0.997276
1413950926886 28695 READING 448 0.986020
1413950927197 28696 READING 328 0.996589
1413950927532 28696 READING 328 0.996953
1413950927833 28696 READING 328 0.997007
1413950928196 28696 READING 328 0.997011
1413950928415 28696 READING 328 0.995766
1413950928468 28696 READING 328 0.980828
1413950928521 28696 READING 328 0.982334
1413950928587 28695 READING 431 0.982805
1413950928597 28696 READING 328 0.987170
1413950928693 28696 READING 328 0.989046
1413950929149 28696 READING 328 0.997630
1413950929423 28696 READING 328 0.996417
1413950929788 28696 READING 328 0.994397
1413950930080 28696 READING 328 0.996615
1413950930461 28696 READING 328 0.996527
1413950930465 28695 READING 443 0.984837
1413950930722 28696 READING 328 0.995566
1413950930775 28696 READING 328 0.980370
1413950930833 28696 READING 328 0.978139
1413950930892 28696 READING 328 0.983312
1413950931001 28696 READING 328 0.988018
1413950931456 28696 READING 328 0.997732
1413950931715 28696 READING 328 0.996203
1413950932103 28696 READING 328 0.997181
1413950932398 28696 READING 328 0.957626
1413950932412 28695 READING 441 0.985762
1413950932784 28696 READING 328 0.997048
1413950933020 28696 READING 328 0.995661
1413950933074 28696 READING 328 0.981014
1413950933126 28696 READING 328 0.981898
1413950933180 28696 READING 328 0.981635
1413950933295 28696 READING 328 0.991876
1413950933744 28696 READING 328 0.997869
1413950933997 28696 READING 328 0.996231
1413950934167 28695 READING 444 0.982433
1413950934384 28696 READING 328 0.997268
1413950934677 28696 READING 328 0.996388
1413950935024 28696 READING 328 0.997162
1413950935275 28696 READING 328 0.995232
1413950935330 28696 READING 328 0.979100
1413950935382 28696 READING 328 0.981405
1413950935435 28696 READING 328 0.982556
1413950935546 28696 READING 328 0.991786
1413950935910 28696 READING 328 0.997497
1413950935984 28695 READING 445 0.982665
1413950936249 28696 READING 328 0.996783
1413950936609 28696 FUNCTION lru lambda h: 0.921823 * (h ** 0.010198)
1413950936609 28695 FUNCTION lru lambda h: 0.383049 * (h ** 0.126758)
1413950936609 28696 RECOMMEND 447
1413950936609 28695 RECOMMEND 447
1413950936614 28696 READING 328 0.997278
1413950936932 28696 READING 328 0.996925
1413950937265 28696 READING 328 0.996853
1413950937532 28696 READING 328 0.996459
1413950937582 28696 READING 314 0.980677
1413950937634 28696 READING 322 0.978517
1413950937686 28696 READING 328 0.980382
1413950937797 28696 READING 328 0.989846
1413950937873 28695 READING 446 0.981665
1413950938160 28696 READING 328 0.997435
1413950938482 28696 READING 328 0.996528
1413950938820 28696 READING 328 0.997335
1413950939110 28696 READING 328 0.996664
1413950939483 28696 READING 328 0.997332
1413950939613 28695 READING 448 0.974628
1413950939666 28696 READING 328 0.993717
1413950939864 28696 READING 328 0.994121
1413950939920 28696 READING 328 0.980478
1413950939977 28696 READING 328 0.980707
1413950940085 28696 READING 328 0.990408
1413950940201 28696 READING 328 0.991437
1413950940736 28696 READING 328 0.998156
1413950941054 28696 READING 328 0.996398
1413950941318 28696 READING 328 0.996422
1413950941727 28696 READING 328 0.997547
1413950941899 28696 READING 328 0.994201
1413950941973 28695 READING 437 0.990949
1413950942100 28696 READING 328 0.995341
1413950942154 28696 READING 328 0.980950
1413950942207 28696 READING 328 0.980965
1413950942245 28695 READING 445 0.920365
1413950942318 28696 READING 328 0.990933
1413950942390 28695 READING 446 0.866000
1413950942396 28696 READING 328 0.988086
1413950942534 28695 READING 451 0.876378
1413950942962 28696 READING 328 0.998054
1413950943284 28696 READING 328 0.996959
1413950943544 28696 READING 328 0.995191
1413950943545 28695 READING 439 0.983411
1413950943964 28696 READING 328 0.997802
1413950944144 28696 READING 328 0.994784
1413950944358 28696 READING 328 0.994291
1413950944413 28696 READING 328 0.981774
1413950944466 28696 READING 328 0.980512
1413950944575 28696 READING 328 0.986327
1413950944652 28696 READING 328 0.983820
1413950945218 28696 READING 328 0.998343
1413950945279 28695 READING 447 0.988360
1413950945491 28696 READING 328 0.996356
1413950945775 28696 READING 328 0.996436
1413950946212 28696 READING 328 0.997777
1413950946397 28696 READING 328 0.994123
1413950946609 28696 FUNCTION lru lambda h: 0.921573 * (h ** 0.0102707)
1413950946609 28695 FUNCTION lru lambda h: 0.381432 * (h ** 0.127767)
1413950946609 28696 RECOMMEND 447
1413950946609 28695 RECOMMEND 447
1413950946615 28696 READING 328 0.995708
1413950946669 28696 READING 328 0.981342
1413950946722 28696 READING 328 0.981859
1413950946832 28696 READING 328 0.989626
1413950946907 28696 READING 328 0.986574
1413950947074 28695 READING 416 0.985344
1413950947475 28696 READING 328 0.997999
1413950947751 28696 READING 328 0.996735
1413950948012 28696 READING 328 0.996267
1413950948470 28696 READING 328 0.997918
1413950948665 28696 READING 328 0.994703
1413950948914 28696 READING 328 0.993556
1413950948970 28696 READING 328 0.980250
1413950949023 28696 READING 328 0.981638
1413950949091 28695 READING 447 0.987742
1413950949135 28696 READING 328 0.990668
1413950949201 28696 READING 328 0.985054
1413950949733 28696 READING 328 0.998015
1413950950020 28696 READING 328 0.996302
1413950950287 28696 READING 328 0.996468
1413950950727 28696 READING 328 0.997796
1413950950884 28695 READING 418 0.986274
1413950950950 28696 READING 328 0.995673
1413950951167 28696 READING 328 0.995061
1413950951222 28696 READING 328 0.978831
1413950951275 28696 READING 328 0.981897
1413950951382 28696 READING 328 0.990729
1413950951448 28696 READING 328 0.979913
1413950951974 28696 READING 328 0.997690
1413950952269 28696 READING 328 0.996597
1413950952543 28696 READING 328 0.996426
1413950952734 28695 READING 444 0.985064
1413950952969 28696 READING 328 0.997767
1413950953207 28696 READING 328 0.995608
1413950953427 28696 READING 328 0.995651
1413950953479 28696 READING 328 0.980849
1413950953534 28696 READING 328 0.977454
1413950953646 28696 READING 328 0.991612
1413950953706 28696 READING 328 0.984187
1413950954219 28696 READING 328 0.998198
1413950954423 28695 READING 443 0.983551
1413950954517 28696 READING 328 0.996858
1413950954796 28696 READING 328 0.996469
1413950955204 28696 READING 328 0.997421
1413950955456 28696 READING 328 0.995776
1413950955677 28696 READING 328 0.994883
1413950955729 28696 READING 328 0.980254
1413950955782 28696 READING 328 0.979017
1413950955896 28696 READING 328 0.991700
1413950955956 28696 READING 328 0.982864
1413950956307 28695 READING 441 0.984237
1413950956470 28696 READING 328 0.997462
1413950956609 28696 FUNCTION lru lambda h: 0.921798 * (h ** 0.0102062)
1413950956609 28695 FUNCTION lru lambda h: 0.228817 * (h ** 0.216983)
1413950956609 28696 RECOMMEND 447
1413950956609 28695 RECOMMEND 447
1413950956772 28696 READING 328 0.996731
1413950957061 28696 READING 328 0.996622
1413950957457 28696 READING 328 0.997401
1413950957718 28696 READING 328 0.995641
1413950957963 28696 READING 328 0.995443
1413950958014 28696 READING 314 0.979245
1413950958067 28696 READING 323 0.979708
1413950958159 28696 READING 328 0.987216
1413950958237 28696 READING 328 0.987618
1413950958292 28695 READING 443 0.983256
1413950958717 28696 READING 328 0.997739
1413950959038 28696 READING 328 0.996916
1413950959337 28696 READING 328 0.996201
1413950959655 28696 READING 328 0.996855
1413950960038 28696 READING 328 0.864731
1413950960246 28695 READING 445 0.980599
1413950960258 28696 READING 315 0.995022
1413950960310 28696 READING 321 0.981025
1413950960362 28696 READING 329 0.981989
1413950960433 28696 READING 329 0.987610
1413950960527 28696 READING 329 0.990353
1413950960981 28696 READING 329 0.997471
1413950961251 28696 READING 329 0.996755
1413950961546 28695 READING 445 0.985998
1413950961620 28696 READING 329 0.997433
1413950961724 28695 READING 451 0.899807
1413950961863 28695 READING 439 0.874099
1413950961902 28696 READING 329 0.996808
1413950962185 28695 READING 449 0.957890
1413950962280 28696 READING 329 0.997307
1413950962501 28696 READING 329 0.995223
1413950962555 28696 READING 329 0.983416
1413950962608 28696 READING 329 0.980358
1413950962671 28696 READING 329 0.985087
1413950962771 28696 READING 329 0.990537
1413950963231 28696 READING 329 0.998049
1413950963502 28696 READING 329 0.996208
1413950963870 28696 READING 329 0.997612
1413950964152 28696 READING 329 0.996718
1413950964178 28695 READING 414 0.990410
1413950964526 28696 READING 329 0.997592
1413950964746 28696 READING 329 0.996093
1413950964798 28696 READING 329 0.982418
1413950964851 28696 READING 329 0.983882
1413950964911 28696 READING 329 0.985933
1413950965017 28696 READING 329 0.990406
1413950965477 28696 READING 329 0.997965
1413950965745 28696 READING 329 0.995284
1413950966107 28695 READING 449 0.989386
1413950966135 28696 READING 329 0.997444
1413950966412 28696 READING 329 0.996360
1413950966609 28696 FUNCTION lru lambda h: 0.922995 * (h ** 0.00986764)
1413950966609 28695 FUNCTION lru lambda h: 0.180626 * (h ** 0.257941)
1413950966609 28696 RECOMMEND 447
1413950966609 28695 RECOMMEND 447
1413950966770 28696 READING 329 0.997705
1413950967024 28696 READING 329 0.993803
1413950967080 28696 READING 329 0.981256
1413950967132 28696 READING 329 0.982537
1413950967185 28696 READING 329 0.980875
1413950967298 28696 READING 329 0.987773
1413950967665 28696 READING 329 0.997321
1413950967921 28695 READING 416 0.987568
1413950967996 28696 READING 329 0.997144
1413950968362 28696 READING 329 0.996939
1413950968677 28696 READING 329 0.997062
1413950969011 28696 READING 329 0.997299
1413950969272 28696 READING 329 0.995949
1413950969326 28696 READING 329 0.981406
1413950969379 28696 READING 329 0.977380
1413950969433 28696 READING 329 0.983197
1413950969546 28696 READING 329 0.991161
1413950969762 28695 READING 447 0.987141
1413950969913 28696 READING 329 0.997319
1413950970244 28696 READING 329 0.997341
1413950970591 28696 READING 329 0.997360
1413950970903 28696 READING 329 0.996902
1413950971246 28696 READING 329 0.997319
1413950971519 28696 READING 329 0.996635
1413950971573 28696 READING 329 0.982811
1413950971627 28696 READING 329 0.980857
1413950971684 28696 READING 329 0.982262
1413950971798 28696 READING 329 0.990669
1413950971851 28695 READING 445 0.986456
1413950972169 28696 READING 329 0.997364
1413950972498 28696 READING 329 0.997209
1413950972834 28696 READING 329 0.997095
1413950973135 28696 READING 329 0.996503
1413950973411 28695 READING 442 0.981556
1413950973498 28696 READING 329 0.997154
1413950973785 28696 READING 329 0.996678
1413950973838 28696 READING 329 0.973425
1413950973891 28696 READING 329 0.981943
1413950973943 28696 READING 329 0.980596
1413950974054 28696 READING 329 0.991865
1413950974408 28696 READING 329 0.997478
1413950974730 28696 READING 329 0.997267
1413950975064 28696 READING 329 0.997017
1413950975378 28696 READING 329 0.996288
1413950975452 28695 READING 445 0.863753
1413950975759 28696 READING 329 0.997724
1413950975936 28696 READING 329 0.994460
1413950976136 28696 READING 329 0.995018
1413950976192 28696 READING 329 0.981217
1413950976244 28696 READING 329 0.979601
1413950976361 28696 READING 329 0.991829
1413950976439 28696 READING 329 0.987666
1413950976610 28696 FUNCTION lru lambda h: 0.923418 * (h ** 0.00974665)
1413950976610 28695 FUNCTION lru lambda h: 0.18102 * (h ** 0.257477)
1413950976610 28696 RECOMMEND 447
1413950976610 28695 RECOMMEND 447
1413950977019 28696 READING 329 0.998327
1413950977283 28695 READING 455 0.995044
1413950977340 28696 READING 329 0.997036
1413950977601 28696 READING 329 0.996211
1413950978012 28696 READING 329 0.997507
1413950978188 28696 READING 329 0.994844
1413950978393 28696 READING 329 0.994551
1413950978445 28696 READING 329 0.982332
1413950978498 28696 READING 329 0.982283
1413950978610 28696 READING 329 0.990757
1413950978686 28696 READING 329 0.988114
1413950978977 28695 READING 452 0.994570
1413950979255 28696 READING 329 0.998135
1413950979522 28696 READING 329 0.995839
1413950979816 28696 READING 329 0.996936
1413950980239 28696 READING 329 0.997849
1413950980417 28696 READING 329 0.995069
1413950980626 28696 READING 329 0.995224
1413950980678 28696 READING 329 0.979837
1413950980731 28696 READING 329 0.980386
1413950980840 28696 READING 329 0.989692
1413950980913 28696 READING 329 0.986766
1413950981026 28695 READING 452 0.990016
1413950981257 28695 READING 424 0.923945
1413950981391 28695 READING 446 0.860771
1413950981466 28696 READING 329 0.998217
1413950981532 28695 READING 449 0.842149
1413950981609 28695 DEATH 226
1413950981738 28696 READING 329 0.996197
1413950982017 28696 READING 329 0.996875
1413950982461 28696 READING 329 0.996917
1413950982648 28696 READING 329 0.992884
1413950982864 28696 READING 329 0.995476
1413950982919 28696 READING 329 0.974592
1413950982972 28696 READING 329 0.981584
1413950983083 28696 READING 329 0.992022
1413950983153 28696 READING 329 0.980127
1413950983696 28696 READING 329 0.997277
1413950983972 28696 READING 329 0.995022
1413950984231 28696 READING 329 0.994129
1413950984684 28696 READING 329 0.996445
1413950984886 28696 READING 329 0.993312
1413950985122 28696 READING 329 0.995496
1413950985174 28696 READING 329 0.973035
1413950985227 28696 READING 329 0.973988
1413950985338 28696 READING 329 0.986336
1413950985408 28696 READING 329 0.979937
1413950985930 28696 READING 329 0.997132
1413950986216 28696 READING 329 0.995134
1413950986491 28696 READING 329 0.994994
1413950986610 28696 FUNCTION lru lambda h: 0.923123 * (h ** 0.0098312)
1413950986610 28696 RECOMMEND 894
1413950986922 28696 READING 329 0.996593
1413950987147 28696 READING 329 0.993726
1413950987364 28696 READING 329 0.993292
1413950987419 28696 READING 329 0.975138
1413950987473 28696 READING 329 0.972518
1413950987582 28696 READING 329 0.990738
1413950987647 28696 READING 329 0.984865
1413950988161 28696 READING 329 0.997378
1413950988452 28696 READING 329 0.994677
1413950988730 28696 READING 329 0.994880
1413950989144 28696 READING 329 0.996507
1413950989387 28696 READING 329 0.995701
1413950989601 28696 READING 329 0.994832
1413950989654 28696 READING 329 0.972570
1413950989710 28696 READING 329 0.979037
1413950989822 28696 READING 329 0.991282
1413950989883 28696 READING 329 0.983231
1413950990394 28696 READING 329 0.997151
1413950990691 28696 READING 329 0.994591
1413950990976 28696 READING 329 0.995183
1413950991376 28696 READING 329 0.997531
1413950991625 28696 READING 329 0.996348
1413950991843 28696 READING 329 0.995509
1413950991896 28696 READING 329 0.981003
1413950991949 28696 READING 329 0.979756
1413950992058 28696 READING 329 0.987333
1413950992125 28696 READING 329 0.978894
1413950992628 28696 READING 329 0.997329
1413950992928 28696 READING 329 0.995358
1413950993213 28696 READING 329 0.995330
1413950993603 28696 READING 329 0.997415
1413950993868 28696 READING 329 0.996091
1413950994123 28696 READING 329 0.993868
1413950994178 28696 READING 329 0.983216
1413950994230 28696 READING 329 0.973461
1413950994332 28696 READING 329 0.985799
1413950994406 28696 READING 329 0.980921
1413950994892 28696 READING 329 0.997085
1413950995201 28696 READING 329 0.995004
1413950995501 28696 READING 329 0.995312
1413950995838 28696 READING 329 0.995769
1413950996158 28696 READING 329 0.995497
1413950996375 28696 READING 329 0.992950
1413950996429 28696 READING 329 0.970235
1413950996484 28696 READING 329 0.974500
1413950996575 28696 READING 329 0.990059
1413950996610 28696 FUNCTION lru lambda h: 0.923602 * (h ** 0.00969419)
1413950996610 28696 RECOMMEND 894
1413950996656 28696 READING 329 0.985414
1413950997136 28696 READING 329 0.997909
1413950997457 28696 READING 329 0.995621
1413950997752 28696 READING 329 0.995062
1413950998072 28696 READING 329 0.995674
1413950998406 28696 READING 329 0.995663
1413950998620 28696 READING 329 0.993370
1413950998673 28696 READING 329 0.980432
1413950998731 28696 READING 329 0.984053
1413950998820 28696 READING 329 0.989491
1413950998907 28696 READING 329 0.983397
1413950999373 28696 READING 329 0.997850
1413950999696 28696 READING 329 0.996552
1413950999992 28696 READING 329 0.995456
1413951000301 28696 READING 329 0.994934
1413951000646 28696 READING 329 0.995978
1413951000861 28696 READING 329 0.993290
1413951000915 28696 READING 329 0.973724
1413951000968 28696 READING 329 0.975264
1413951001049 28696 READING 329 0.980658
1413951001145 28696 READING 329 0.987970
1413951001599 28696 READING 329 0.996636
1413951001872 28696 READING 329 0.994551
1413951002233 28696 READING 329 0.996133
1413951002521 28696 READING 329 0.995050
1413951002889 28696 READING 329 0.996071
1413951002953 28696 DEATH 1157
