1413949390269 0 TOTAL_MEM 894
1413949410327 28380 CREATION
1413949410327 28380 READING 9 0.990070
1413949410327 28380 MINHEAP 2
1413949410327 28380 MINHEAP 276
1413949410328 28381 CREATION
1413949410328 28381 READING 9 0.990860
1413949410328 28381 MINHEAP 2
1413949410328 28381 MINHEAP 22
1413949410372 28380 READING 9 0.978340
1413949410400 28380 READING 9 0.964525
1413949410422 28381 READING 9 0.983602
1413949410424 28380 READING 9 0.915511
1413949410470 28381 READING 9 0.967262
1413949410526 28381 READING 9 0.974102
1413949410531 28380 READING 11 0.982882
1413949410619 28381 READING 11 0.981679
1413949410625 28380 READING 11 0.957453
1413949410686 28381 READING 11 0.970743
1413949410745 28380 READING 17 0.959279
1413949410862 28380 READING 17 0.537974
1413949410987 28380 READING 30 0.958317
1413949411057 28380 READING 31 0.876451
1413949411272 28380 READING 34 0.260763
1413949411328 28380 READING 46 0.889894
1413949411401 28380 READING 46 0.860129
1413949411502 28381 READING 15 0.996519
1413949411583 28380 READING 50 0.301618
1413949411655 28380 READING 72 0.826379
1413949411663 28381 READING 16 0.983786
1413949411836 28380 READING 72 0.279343
1413949411906 28380 READING 97 0.932477
1413949411975 28381 READING 23 0.990481
1413949412001 28380 READING 97 0.793685
1413949412097 28380 READING 98 0.871207
1413949412114 28381 READING 24 0.974859
1413949412485 28380 READING 100 0.132759
1413949412522 28381 READING 33 0.985200
1413949412588 28380 READING 135 0.629297
1413949412717 28380 READING 134 0.859290
1413949412767 28381 READING 34 0.898858
1413949412805 28380 READING 136 0.745705
1413949412906 28380 READING 140 0.772571
1413949412933 28381 READING 50 0.985342
1413949413145 28381 READING 50 0.990074
1413949413471 28381 READING 64 0.995140
1413949413587 28381 READING 64 0.985420
1413949413741 28380 READING 142 0.125180
1413949413744 28381 READING 82 0.989423
1413949413853 28380 READING 180 0.634011
1413949413952 28380 READING 182 0.684717
1413949413962 28381 READING 82 0.991651
1413949414069 28380 READING 185 0.684670
1413949414209 28380 READING 192 0.500948
1413949414643 28381 READING 97 0.985621
1413949414661 28380 READING 194 0.830576
1413949415176 28381 READING 97 0.802043
1413949415810 28381 READING 127 0.961867
1413949415846 28380 READING 196 0.379776
1413949416090 28380 READING 245 0.836499
1413949416145 28380 READING 250 0.532145
1413949416207 28381 READING 127 0.974698
1413949416272 28380 READING 251 0.838276
1413949416333 28380 READING 255 0.678476
1413949416453 28380 READING 256 0.835451
1413949416559 28380 READING 261 0.798149
1413949416711 28380 READING 261 0.830591
1413949416791 28380 READING 262 0.656976
1413949416874 28380 READING 267 0.632310
1413949416955 28380 READING 272 0.671094
1413949417061 28380 READING 275 0.527909
1413949417096 28381 READING 145 0.892770
1413949417158 28381 READING 157 0.475778
1413949417170 28380 READING 279 0.644477
1413949417193 28381 READING 177 0.965383
1413949417229 28381 READING 177 0.970488
1413949417274 28381 READING 202 0.976098
1413949417311 28381 READING 203 0.973603
1413949417398 28380 READING 281 0.846019
1413949417455 28381 READING 229 0.991612
1413949417569 28381 READING 230 0.990361
1413949417725 28381 READING 253 0.993026
1413949417746 28380 READING 281 0.916485
1413949418438 28380 READING 283 0.088002
1413949418568 28380 READING 328 0.524622
1413949418653 28380 READING 330 0.797502
1413949418753 28380 READING 335 0.743655
1413949418872 28381 READING 256 0.998849
1413949419041 28380 READING 335 0.836761
1413949419302 28380 READING 335 0.841576
1413949419395 28380 READING 338 0.743230
1413949419481 28380 READING 341 0.644209
1413949419563 28380 READING 341 0.668641
1413949419615 28381 READING 273 0.998490
1413949419650 28380 READING 348 0.676535
1413949419753 28380 READING 349 0.573315
1413949419853 28380 READING 356 0.658565
1413949420270 28380 FUNCTION lru lambda h: 0.761906 * (h ** 0.001)
1413949420270 28381 FUNCTION lru lambda h: 1.02259 * (h ** 0.001)
1413949420270 28380 RECOMMEND 447
1413949420270 28381 RECOMMEND 447
1413949420902 28380 READING 357 0.939474
1413949420987 28381 READING 277 0.998847
1413949421439 28381 READING 287 0.998091
1413949422162 28380 READING 362 0.953269
1413949422166 28381 READING 290 0.995189
1413949422437 28381 READING 300 0.995986
1413949423253 28380 READING 364 0.953683
1413949423304 28381 READING 301 0.998482
1413949423377 28381 READING 307 0.980982
1413949423444 28381 READING 310 0.981987
1413949423565 28381 READING 323 0.987408
1413949423740 28381 READING 323 0.994481
1413949424528 28380 READING 366 0.975691
1413949424710 28381 READING 323 0.998947
1413949425302 28381 READING 324 0.997305
1413949425493 28380 READING 367 0.968746
1413949426584 28381 READING 325 0.999023
1413949426647 28380 READING 366 0.970870
1413949427017 28381 READING 322 0.996572
1413949427499 28381 READING 324 0.998119
1413949427742 28380 READING 369 0.967029
1413949428283 28381 READING 324 0.998546
1413949428356 28381 READING 324 0.985426
1413949428428 28381 READING 325 0.981515
1413949428494 28381 READING 326 0.984230
1413949428692 28381 READING 326 0.994847
1413949429010 28380 READING 364 0.968765
1413949429348 28381 READING 325 0.998451
1413949429974 28381 READING 325 0.998273
1413949430270 28380 FUNCTION lru lambda h: 0.610702 * (h ** 0.00849979)
1413949430271 28381 FUNCTION lru lambda h: 0.954131 * (h ** 0.00115198)
1413949430271 28380 RECOMMEND 447
1413949430271 28381 RECOMMEND 447
1413949430274 28380 READING 368 0.971842
1413949431395 28381 READING 326 0.999303
1413949431497 28380 READING 366 0.970230
1413949431890 28381 READING 326 0.998163
1413949432359 28381 READING 326 0.997913
1413949432744 28380 READING 368 0.967314
1413949433124 28381 READING 326 0.998603
1413949433198 28381 READING 325 0.985218
1413949433275 28381 READING 326 0.985135
1413949433343 28381 READING 327 0.984987
1413949433515 28381 READING 327 0.994513
1413949434047 28380 READING 370 0.971982
1413949434071 28381 READING 327 0.998295
1413949434654 28381 READING 327 0.998535
1413949435311 28380 READING 371 0.969000
1413949436064 28381 READING 327 0.999243
1413949436435 28380 READING 373 0.965327
1413949436517 28381 READING 327 0.997958
1413949437032 28381 READING 327 0.998226
1413949437352 28381 READING 327 0.995937
1413949437832 28380 READING 374 0.962342
1413949437909 28381 READING 326 0.998145
1413949437983 28381 READING 327 0.986285
1413949438052 28381 READING 327 0.987138
1413949438210 28381 READING 327 0.993708
1413949438387 28381 READING 327 0.993563
1413949439174 28380 READING 373 0.979331
1413949439318 28381 READING 327 0.998900
1413949439358 28380 READING 377 0.864023
1413949439466 28380 READING 373 0.774229
1413949439574 28380 READING 377 0.773805
1413949439684 28380 READING 384 0.777156
1413949440033 28380 READING 386 0.940868
1413949440271 28380 FUNCTION lru lambda h: 0.519309 * (h ** 0.0488427)
1413949440271 28381 FUNCTION lru lambda h: 0.951576 * (h ** 0.00191557)
1413949440271 28380 RECOMMEND 447
1413949440271 28381 RECOMMEND 447
1413949440522 28381 READING 327 0.998935
1413949441112 28381 READING 327 0.998149
1413949441649 28380 READING 391 0.984779
1413949441700 28381 READING 327 0.998505
1413949441956 28381 READING 327 0.995325
1413949442499 28381 READING 327 0.997981
1413949442576 28381 READING 327 0.986570
1413949442646 28381 READING 327 0.982165
1413949442801 28381 READING 327 0.994215
1413949442966 28381 READING 327 0.993880
1413949443017 28380 READING 393 0.982840
1413949443832 28381 READING 327 0.998843
1413949444829 28380 READING 393 0.986387
1413949444915 28381 READING 327 0.998816
1413949445470 28381 READING 327 0.998097
1413949446087 28381 READING 327 0.998574
1413949446190 28380 READING 396 0.978219
1413949446333 28381 READING 327 0.996532
1413949446854 28381 READING 327 0.998199
1413949446909 28381 READING 327 0.982247
1413949446972 28381 READING 327 0.984233
1413949447114 28381 READING 327 0.994117
1413949447250 28381 READING 327 0.992571
1413949447789 28380 READING 394 0.977783
1413949448136 28381 READING 327 0.998963
1413949448918 28381 READING 327 0.998438
1413949449178 28380 READING 396 0.970545
1413949449518 28381 READING 327 0.998431
1413949450106 28381 READING 327 0.998284
1413949450271 28380 FUNCTION lru lambda h: 0.480094 * (h ** 0.0680235)
1413949450271 28381 FUNCTION lru lambda h: 0.951416 * (h ** 0.00196348)
1413949450271 28380 RECOMMEND 447
1413949450271 28381 RECOMMEND 447
1413949450359 28381 READING 327 0.995447
1413949450630 28380 READING 393 0.980605
1413949450880 28381 READING 327 0.997820
1413949450935 28381 READING 327 0.981361
1413949450998 28381 READING 327 0.984790
1413949451116 28381 READING 327 0.991368
1413949451222 28381 READING 327 0.987006
1413949451943 28381 READING 327 0.998766
1413949452154 28380 READING 396 0.979950
1413949452674 28381 READING 327 0.998510
1413949453178 28381 READING 327 0.997909
1413949453670 28380 READING 392 0.979529
1413949453726 28381 READING 327 0.998326
1413949453986 28381 READING 327 0.996484
1413949454503 28381 READING 327 0.997740
1413949454556 28381 READING 327 0.982454
1413949454618 28381 READING 327 0.982829
1413949454736 28381 READING 327 0.991039
1413949454807 28381 READING 327 0.986680
1413949455198 28380 READING 394 0.979620
1413949455448 28381 READING 327 0.998486
1413949456086 28381 READING 327 0.998255
1413949456582 28381 READING 327 0.990921
1413949456605 28380 READING 390 0.978282
1413949457066 28381 READING 327 0.997896
1413949457371 28381 READING 327 0.997084
1413949457804 28381 READING 327 0.997768
1413949457858 28381 READING 327 0.980567
1413949457918 28381 READING 327 0.982752
1413949458027 28381 READING 327 0.991566
1413949458102 28381 READING 327 0.985238
1413949458384 28380 READING 393 0.985547
1413949458720 28381 READING 327 0.998428
1413949458914 28380 READING 392 0.960268
1413949459044 28380 READING 393 0.825945
1413949459182 28380 READING 396 0.800374
1413949459275 28381 READING 327 0.998173
1413949459313 28380 READING 398 0.855377
1413949459794 28381 READING 327 0.998087
1413949460220 28381 READING 327 0.997459
1413949460271 28380 FUNCTION lru lambda h: 0.465237 * (h ** 0.0757159)
1413949460271 28381 FUNCTION lru lambda h: 0.951477 * (h ** 0.00194518)
1413949460271 28380 RECOMMEND 447
1413949460271 28381 RECOMMEND 447
1413949460564 28381 READING 327 0.997328
1413949460881 28380 READING 405 0.985857
1413949460917 28381 READING 327 0.996454
1413949460978 28381 READING 327 0.985066
1413949461041 28381 READING 327 0.985197
1413949461139 28381 READING 327 0.989965
1413949461224 28381 READING 327 0.988303
1413949461828 28381 READING 327 0.998465
1413949462281 28381 READING 327 0.997906
1413949462421 28380 READING 406 0.983894
1413949462815 28381 READING 327 0.998230
1413949463210 28381 READING 327 0.996622
1413949463580 28381 READING 327 0.997634
1413949463876 28381 READING 327 0.996778
1413949463936 28381 READING 327 0.985683
1413949463997 28381 READING 327 0.982672
1413949464083 28381 READING 327 0.988230
1413949464177 28381 READING 327 0.988116
1413949464317 28380 READING 411 0.988220
1413949464751 28381 READING 327 0.998155
1413949465212 28381 READING 327 0.997896
1413949465717 28381 READING 327 0.998222
1413949465995 28380 READING 412 0.985187
1413949466093 28381 READING 327 0.997642
1413949466467 28381 READING 327 0.997324
1413949466859 28381 READING 327 0.996946
1413949466914 28381 READING 327 0.980689
1413949466971 28381 READING 327 0.982072
1413949467039 28381 READING 327 0.986955
1413949467142 28381 READING 327 0.991012
1413949467630 28381 READING 327 0.998202
1413949467670 28380 READING 412 0.982436
1413949468021 28381 READING 327 0.997764
1413949468505 28381 READING 327 0.998040
1413949468852 28381 READING 327 0.996247
1413949469254 28381 READING 327 0.997585
1413949469565 28381 READING 327 0.995690
1413949469619 28381 READING 327 0.975837
1413949469673 28381 READING 327 0.976015
1413949469730 28381 READING 327 0.970585
1413949469872 28381 READING 327 0.990589
1413949469971 28380 READING 414 0.764904
1413949470271 28380 FUNCTION lru lambda h: 0.437503 * (h ** 0.0905093)
1413949470271 28381 FUNCTION lru lambda h: 0.952479 * (h ** 0.00164533)
1413949470271 28380 RECOMMEND 447
1413949470271 28381 RECOMMEND 447
1413949470384 28381 READING 327 0.998076
1413949470736 28381 READING 327 0.997354
1413949471208 28381 READING 327 0.997886
1413949471533 28380 READING 439 0.991417
1413949471548 28381 READING 327 0.996105
1413949471925 28381 READING 327 0.997685
1413949472257 28381 READING 327 0.996557
1413949472310 28381 READING 327 0.976556
1413949472364 28381 READING 327 0.982848
1413949472418 28381 READING 327 0.983797
1413949472536 28381 READING 327 0.991904
1413949472897 28381 READING 327 0.997211
1413949473266 28381 READING 327 0.997421
1413949473306 28380 READING 441 0.992446
1413949473667 28381 READING 327 0.997536
1413949474005 28381 READING 327 0.996917
1413949474379 28381 READING 327 0.996335
1413949474720 28381 READING 327 0.996972
1413949474771 28381 READING 327 0.981461
1413949474824 28381 READING 327 0.983376
1413949474878 28381 READING 327 0.982047
1413949474995 28381 READING 327 0.991506
1413949475111 28380 READING 445 0.991417
1413949475346 28381 READING 327 0.996936
1413949475702 28381 READING 327 0.997401
1413949476079 28381 READING 327 0.997340
1413949476398 28381 READING 327 0.997018
1413949476790 28381 READING 327 0.997839
1413949476800 28380 READING 447 0.988356
1413949477009 28381 READING 327 0.994304
1413949477221 28381 READING 327 0.993507
1413949477277 28381 READING 327 0.974516
1413949477337 28381 READING 327 0.975831
1413949477456 28381 READING 327 0.988145
1413949477801 28381 READING 327 0.997032
1413949478119 28381 READING 327 0.996864
1413949478472 28381 READING 327 0.997463
1413949478743 28381 READING 327 0.996682
1413949478876 28380 READING 445 0.989522
1413949479086 28380 READING 447 0.861254
1413949479187 28381 READING 327 0.997856
1413949479229 28380 READING 444 0.828181
1413949479365 28381 READING 327 0.994311
1413949479371 28380 READING 448 0.842514
1413949479581 28381 READING 327 0.995624
1413949479633 28381 READING 327 0.981969
1413949479687 28381 READING 327 0.983490
1413949479798 28381 READING 327 0.987039
1413949479878 28381 READING 327 0.987653
1413949480272 28380 FUNCTION lru lambda h: 0.41205 * (h ** 0.104511)
1413949480272 28381 FUNCTION lru lambda h: 0.952195 * (h ** 0.00173023)
1413949480272 28380 RECOMMEND 447
1413949480272 28381 RECOMMEND 447
1413949480450 28381 READING 327 0.998111
1413949480635 28380 READING 444 0.983428
1413949480790 28381 READING 327 0.997252
1413949481053 28381 READING 327 0.996766
1413949481519 28381 READING 327 0.997676
1413949481705 28381 READING 327 0.994766
1413949481929 28381 READING 327 0.995871
1413949481981 28381 READING 327 0.982175
1413949482037 28381 READING 327 0.982988
1413949482151 28381 READING 327 0.991799
1413949482226 28381 READING 327 0.987979
1413949482510 28380 READING 451 0.987998
1413949482773 28381 READING 327 0.998031
1413949483055 28381 READING 327 0.996504
1413949483319 28381 READING 327 0.995825
1413949483814 28381 READING 327 0.997331
1413949484018 28381 READING 327 0.994099
1413949484201 28380 READING 432 0.987100
1413949484253 28381 READING 327 0.995911
1413949484306 28381 READING 327 0.982481
1413949484360 28381 READING 327 0.982099
1413949484479 28381 READING 327 0.990472
1413949484552 28381 READING 327 0.985741
1413949485088 28381 READING 327 0.998131
1413949485378 28381 READING 327 0.996412
1413949485646 28381 READING 327 0.995888
1413949485868 28380 READING 444 0.985888
1413949486141 28381 READING 327 0.998005
1413949486364 28381 READING 327 0.996253
1413949486630 28381 READING 327 0.996003
1413949486682 28381 READING 327 0.981655
1413949486738 28381 READING 327 0.983229
1413949486847 28381 READING 327 0.990581
1413949486912 28381 READING 327 0.980753
1413949487426 28381 READING 327 0.997994
1413949487595 28380 READING 442 0.982827
1413949487733 28381 READING 327 0.996929
1413949488010 28381 READING 327 0.994988
1413949488468 28381 READING 327 0.998053
1413949488725 28381 READING 327 0.994287
1413949488946 28381 READING 327 0.995763
1413949489000 28381 READING 327 0.980548
1413949489057 28381 READING 327 0.980675
1413949489165 28381 READING 327 0.990595
1413949489228 28381 READING 327 0.983856
1413949489650 28380 READING 444 0.986576
1413949489728 28381 READING 327 0.998127
1413949490035 28381 READING 327 0.996898
1413949490272 28380 FUNCTION lru lambda h: 0.395599 * (h ** 0.114039)
1413949490272 28381 FUNCTION lru lambda h: 0.951672 * (h ** 0.00188701)
1413949490272 28380 RECOMMEND 447
1413949490272 28381 RECOMMEND 447
1413949490319 28381 READING 327 0.995995
1413949490755 28381 READING 327 0.997781
1413949491030 28381 READING 327 0.996730
1413949491247 28381 READING 327 0.995835
1413949491303 28381 READING 327 0.983325
1413949491356 28381 READING 327 0.981080
1413949491411 28380 READING 446 0.981861
1413949491465 28381 READING 327 0.991133
1413949491530 28381 READING 327 0.984777
1413949492015 28381 READING 327 0.997690
1413949492333 28381 READING 327 0.996901
1413949492624 28381 READING 327 0.996779
1413949493029 28381 READING 327 0.997835
1413949493339 28380 READING 446 0.983006
1413949493345 28381 READING 327 0.983360
1413949493561 28381 READING 327 0.995532
1413949493613 28381 READING 327 0.982904
1413949493666 28381 READING 327 0.977310
1413949493761 28381 READING 327 0.990965
1413949493836 28381 READING 327 0.986237
1413949494308 28381 READING 327 0.997834
1413949494637 28381 READING 327 0.996950
1413949494930 28381 READING 327 0.996330
1413949495199 28380 READING 449 0.982947
1413949495299 28381 READING 327 0.997590
1413949495636 28381 READING 327 0.996480
1413949495878 28381 READING 327 0.995783
1413949495930 28381 READING 327 0.983005
1413949495983 28381 READING 327 0.981514
1413949496060 28381 READING 327 0.987794
1413949496149 28381 READING 327 0.989423
1413949496592 28381 READING 327 0.997865
1413949496806 28380 READING 434 0.979455
1413949496876 28381 READING 327 0.996665
1413949497235 28381 READING 327 0.997093
1413949497556 28381 READING 327 0.996816
1413949497935 28381 READING 327 0.996978
1413949498148 28381 READING 327 0.994605
1413949498201 28381 READING 327 0.981321
1413949498253 28381 READING 327 0.981118
1413949498321 28381 READING 327 0.985382
1413949498420 28381 READING 327 0.990167
1413949498531 28380 READING 447 0.987629
1413949498693 28380 READING 448 0.887386
1413949498829 28380 READING 443 0.864681
1413949498866 28381 READING 327 0.997854
1413949498969 28380 READING 446 0.866388
1413949499153 28381 READING 327 0.996811
1413949499530 28381 READING 327 0.997283
1413949499839 28381 READING 327 0.995079
1413949500235 28381 READING 327 0.997474
1413949500272 28380 FUNCTION lru lambda h: 0.38315 * (h ** 0.121509)
1413949500272 28381 FUNCTION lru lambda h: 0.95152 * (h ** 0.00193243)
1413949500272 28380 RECOMMEND 447
1413949500272 28381 RECOMMEND 447
1413949500456 28381 READING 327 0.993836
1413949500466 28380 READING 453 0.985618
1413949500510 28381 READING 327 0.981992
1413949500563 28381 READING 327 0.983117
1413949500622 28381 READING 327 0.984542
1413949500731 28381 READING 327 0.991410
1413949501178 28381 READING 327 0.997660
1413949501451 28381 READING 327 0.996503
1413949501831 28381 READING 327 0.997374
1413949502141 28381 READING 327 0.994866
1413949502373 28380 READING 417 0.988762
1413949502529 28381 READING 327 0.997186
1413949502772 28381 READING 327 0.995427
1413949502825 28381 READING 327 0.981939
1413949502878 28381 READING 327 0.982663
1413949502932 28381 READING 327 0.981197
1413949503046 28381 READING 327 0.986241
1413949503486 28381 READING 327 0.996971
1413949503755 28381 READING 327 0.996140
1413949504125 28381 READING 327 0.996692
1413949504347 28380 READING 452 0.988242
1413949504448 28381 READING 327 0.995647
1413949504826 28381 READING 327 0.997247
1413949505133 28381 READING 327 0.995366
1413949505186 28381 READING 327 0.981282
1413949505239 28381 READING 327 0.981393
1413949505293 28381 READING 327 0.983299
1413949505407 28381 READING 327 0.990808
1413949505753 28381 READING 327 0.996905
1413949506093 28381 READING 327 0.995491
1413949506113 28380 READING 419 0.986503
1413949506427 28381 READING 327 0.997062
1413949506737 28381 READING 327 0.996737
1413949507139 28381 READING 327 0.997180
1413949507433 28381 READING 327 0.996565
1413949507486 28381 READING 327 0.981400
1413949507538 28381 READING 327 0.980845
1413949507592 28381 READING 327 0.981148
1413949507703 28381 READING 327 0.991327
1413949508044 28381 READING 327 0.997223
1413949508251 28380 READING 449 0.988222
1413949508365 28381 READING 327 0.997281
1413949508694 28381 READING 327 0.997165
1413949508980 28381 READING 327 0.996443
1413949509410 28381 READING 327 0.996670
1413949509589 28381 READING 327 0.994798
1413949509780 28381 READING 327 0.995246
1413949509832 28381 READING 327 0.980760
1413949509885 28381 READING 327 0.982403
1413949509996 28381 READING 327 0.989966
1413949510077 28381 READING 327 0.989488
1413949510108 28380 READING 421 0.985487
1413949510272 28380 FUNCTION lru lambda h: 0.36813 * (h ** 0.130962)
1413949510272 28381 FUNCTION lru lambda h: 0.952093 * (h ** 0.00176103)
1413949510272 28380 RECOMMEND 447
1413949510272 28381 RECOMMEND 447
1413949510637 28381 READING 327 0.998164
1413949510953 28381 READING 327 0.995938
1413949511223 28381 READING 327 0.996114
1413949511672 28381 READING 327 0.997850
1413949511850 28381 READING 327 0.993613
1413949511979 28380 READING 444 0.985746
1413949512057 28381 READING 327 0.995238
1413949512109 28381 READING 327 0.977893
1413949512163 28381 READING 327 0.980935
1413949512273 28381 READING 327 0.991929
1413949512348 28381 READING 327 0.983560
1413949512896 28381 READING 327 0.998247
1413949513167 28381 READING 327 0.996356
1413949513453 28381 READING 327 0.996457
1413949513930 28381 READING 327 0.997667
1413949514058 28380 READING 443 0.984546
1413949514154 28381 READING 327 0.990039
1413949514388 28381 READING 326 0.994197
1413949514440 28381 READING 327 0.977579
1413949514495 28381 READING 327 0.972363
1413949514608 28381 READING 327 0.990226
1413949514676 28381 READING 327 0.982233
1413949515194 28381 READING 327 0.997736
1413949515480 28381 READING 327 0.994579
1413949515748 28381 READING 327 0.995156
1413949515812 28380 READING 444 0.982587
1413949516224 28381 READING 327 0.997742
1413949516453 28381 READING 327 0.994590
1413949516666 28381 READING 327 0.993934
1413949516718 28381 READING 327 0.976579
1413949516771 28381 READING 327 0.976851
1413949516879 28381 READING 327 0.988850
1413949516941 28381 READING 327 0.979154
1413949517439 28381 READING 327 0.997694
1413949517732 28381 READING 327 0.996438
1413949517944 28380 READING 444 0.991897
1413949518009 28381 READING 327 0.996206
1413949518450 28381 READING 327 0.997951
1413949518678 28380 READING 446 0.972854
1413949518711 28381 READING 327 0.996223
1413949518829 28380 READING 447 0.839044
1413949518928 28381 READING 327 0.995484
1413949518975 28380 READING 450 0.856894
1413949518987 28381 READING 327 0.983682
1413949519041 28381 READING 327 0.980868
1413949519153 28381 READING 327 0.989338
1413949519216 28381 READING 327 0.985054
1413949519460 28380 READING 438 0.972211
1413949519707 28381 READING 327 0.997984
1413949520015 28381 READING 327 0.996963
1413949520272 28380 FUNCTION lru lambda h: 0.364332 * (h ** 0.13339)
1413949520273 28381 FUNCTION lru lambda h: 0.951685 * (h ** 0.00188311)
1413949520273 28380 RECOMMEND 447
1413949520273 28381 RECOMMEND 447
1413949520305 28381 READING 327 0.996641
1413949520710 28381 READING 327 0.997590
1413949521023 28381 READING 327 0.996745
1413949521156 28380 READING 449 0.987358
1413949521239 28381 READING 327 0.995138
1413949521292 28381 READING 327 0.978698
1413949521346 28381 READING 327 0.978885
1413949521439 28381 READING 327 0.988530
1413949521520 28381 READING 327 0.982374
1413949521988 28381 READING 327 0.997623
1413949522314 28381 READING 327 0.996837
1413949522611 28381 READING 327 0.997071
1413949522977 28381 READING 327 0.997296
1413949523094 28380 READING 416 0.989449
1413949523321 28381 READING 327 0.996777
1413949523575 28381 READING 327 0.995169
1413949523628 28381 READING 327 0.981028
1413949523681 28381 READING 327 0.982361
1413949523756 28381 READING 327 0.986843
1413949523849 28381 READING 327 0.989119
1413949524301 28381 READING 327 0.997314
1413949524579 28381 READING 327 0.996233
1413949524832 28380 READING 448 0.987817
1413949524947 28381 READING 327 0.997496
1413949525268 28381 READING 327 0.996613
1413949525662 28381 READING 327 0.997568
1413949525880 28381 READING 327 0.995804
1413949525933 28381 READING 327 0.979552
1413949525986 28381 READING 327 0.973409
1413949526057 28381 READING 327 0.986748
1413949526159 28381 READING 327 0.990961
1413949526607 28381 READING 327 0.997906
1413949526699 28380 READING 418 0.987944
1413949526884 28381 READING 327 0.996098
1413949527253 28381 READING 327 0.997184
1413949527567 28381 READING 327 0.995158
1413949527964 28381 READING 327 0.997712
1413949528189 28381 READING 327 0.994981
1413949528243 28381 READING 327 0.982647
1413949528298 28381 READING 327 0.978873
1413949528355 28381 READING 327 0.980437
1413949528442 28380 READING 445 0.984112
1413949528469 28381 READING 327 0.992419
1413949528906 28381 READING 327 0.997845
1413949529165 28381 READING 327 0.996024
1413949529559 28381 READING 327 0.997703
1413949529858 28381 READING 327 0.994921
1413949529968 28380 READING 443 0.982880
1413949530239 28381 READING 327 0.997519
1413949530273 28380 FUNCTION lru lambda h: 0.358367 * (h ** 0.137339)
1413949530273 28381 FUNCTION lru lambda h: 0.951544 * (h ** 0.00192527)
1413949530273 28380 RECOMMEND 447
1413949530273 28381 RECOMMEND 447
1413949530485 28381 READING 327 0.995891
1413949530537 28381 READING 327 0.979715
1413949530591 28381 READING 327 0.980624
1413949530646 28381 READING 327 0.981653
1413949530758 28381 READING 327 0.990751
1413949531112 28381 READING 327 0.997489
1413949531449 28381 READING 327 0.997083
1413949531688 28380 READING 442 0.984034
1413949531819 28381 READING 327 0.997606
1413949532144 28381 READING 327 0.995617
1413949532518 28381 READING 327 0.997253
1413949532823 28381 READING 327 0.996231
1413949532883 28381 READING 327 0.979713
1413949532939 28381 READING 327 0.980314
1413949532993 28381 READING 327 0.980663
1413949533105 28381 READING 327 0.989724
1413949533445 28380 READING 443 0.983591
1413949533455 28381 READING 327 0.997313
1413949533781 28381 READING 327 0.996997
1413949534114 28381 READING 327 0.996763
1413949534418 28381 READING 327 0.996647
1413949534824 28381 READING 327 0.997708
1413949535115 28381 READING 327 0.996526
1413949535170 28381 READING 327 0.971947
1413949535195 28380 READING 446 0.978618
1413949535226 28381 READING 327 0.983258
1413949535279 28381 READING 327 0.981086
1413949535390 28381 READING 327 0.989352
1413949535727 28381 READING 327 0.997103
1413949536040 28381 READING 327 0.996740
1413949536361 28381 READING 327 0.996858
1413949536641 28381 READING 327 0.996187
1413949537071 28381 READING 327 0.997641
1413949537085 28380 READING 446 0.985232
1413949537247 28381 READING 327 0.993729
1413949537289 28380 READING 448 0.911535
1413949537441 28380 READING 440 0.813231
1413949537447 28381 READING 327 0.994778
1413949537500 28381 READING 327 0.980677
1413949537555 28381 READING 327 0.982698
1413949537587 28380 READING 446 0.868576
1413949537669 28381 READING 327 0.992148
1413949537748 28381 READING 327 0.987726
1413949538308 28381 READING 327 0.997578
1413949538629 28381 READING 327 0.996812
1413949538894 28381 READING 327 0.995907
1413949539161 28380 READING 448 0.990376
1413949539355 28381 READING 327 0.997946
1413949539535 28381 READING 327 0.994205
1413949539743 28381 READING 327 0.994785
1413949539796 28381 READING 327 0.982818
1413949539850 28381 READING 327 0.980784
1413949539961 28381 READING 327 0.987664
1413949540040 28381 READING 327 0.988076
1413949540273 28380 FUNCTION lru lambda h: 0.35835 * (h ** 0.137349)
1413949540273 28381 FUNCTION lru lambda h: 0.952214 * (h ** 0.00172464)
1413949540273 28380 RECOMMEND 447
1413949540273 28381 RECOMMEND 447
1413949540592 28381 READING 327 0.998297
1413949540864 28381 READING 327 0.996452
1413949541148 28381 READING 327 0.996788
1413949541202 28380 READING 436 0.990840
1413949541637 28381 READING 327 0.998083
1413949541839 28381 READING 327 0.992968
1413949542075 28381 READING 327 0.993095
1413949542131 28381 READING 326 0.975127
1413949542185 28381 READING 327 0.973464
1413949542294 28381 READING 327 0.989173
1413949542363 28381 READING 327 0.982447
1413949542886 28381 READING 327 0.997692
1413949543084 28380 READING 447 0.989414
1413949543175 28381 READING 327 0.995743
1413949543448 28381 READING 327 0.995884
1413949543924 28381 READING 327 0.997309
1413949544159 28381 READING 327 0.994771
1413949544378 28381 READING 327 0.993417
1413949544431 28381 READING 327 0.975016
1413949544484 28381 READING 327 0.977845
1413949544596 28381 READING 327 0.961054
1413949544659 28381 READING 327 0.981132
1413949544917 28380 READING 449 0.987856
1413949545164 28381 READING 327 0.997990
1413949545462 28381 READING 327 0.996875
1413949545747 28381 READING 327 0.996355
1413949546202 28381 READING 327 0.997393
1413949546470 28381 READING 327 0.995719
1413949546687 28381 READING 327 0.994854
1413949546725 28380 READING 424 0.984025
1413949546745 28381 READING 327 0.983641
1413949546804 28381 READING 327 0.982466
1413949546910 28381 READING 327 0.990743
1413949546973 28381 READING 327 0.981788
1413949547458 28381 READING 327 0.997798
1413949547764 28381 READING 327 0.996899
1413949548055 28381 READING 327 0.996067
1413949548460 28381 READING 327 0.997420
1413949548526 28380 READING 448 0.984068
1413949548772 28381 READING 327 0.995218
1413949548989 28381 READING 327 0.994878
1413949549041 28381 READING 326 0.980053
1413949549094 28381 READING 327 0.981670
1413949549186 28381 READING 327 0.983802
1413949549266 28381 READING 327 0.986507
1413949549739 28381 READING 327 0.997787
1413949550057 28381 READING 327 0.997016
1413949550273 28380 FUNCTION lru lambda h: 0.353119 * (h ** 0.14082)
1413949550273 28381 FUNCTION lru lambda h: 0.952552 * (h ** 0.00162334)
1413949550273 28380 RECOMMEND 447
1413949550273 28381 RECOMMEND 447
1413949550353 28381 READING 327 0.996896
1413949550658 28380 READING 427 0.980410
1413949550723 28381 READING 327 0.997398
1413949551072 28381 READING 327 0.997244
1413949551321 28381 READING 327 0.994960
1413949551375 28381 READING 327 0.983326
1413949551428 28381 READING 327 0.980461
1413949551503 28381 READING 327 0.987985
1413949551596 28381 READING 327 0.989235
1413949552042 28381 READING 327 0.997894
1413949552319 28381 READING 327 0.996192
1413949552702 28380 READING 443 0.985006
1413949552706 28381 READING 327 0.997260
1413949553020 28381 READING 327 0.996805
1413949553409 28381 READING 327 0.997338
1413949553620 28381 READING 313 0.994365
1413949553671 28381 READING 320 0.980162
1413949553724 28381 READING 327 0.981331
1413949553779 28381 READING 327 0.983171
1413949553890 28381 READING 327 0.990684
1413949554322 28381 READING 327 0.997589
1413949554325 28380 READING 442 0.982157
1413949554574 28381 READING 327 0.996374
1413949554962 28381 READING 327 0.997130
1413949555264 28381 READING 327 0.996609
1413949555630 28381 READING 327 0.997303
1413949555873 28381 READING 327 0.995879
1413949555923 28381 READING 313 0.978684
1413949555975 28381 READING 325 0.979965
1413949556029 28381 READING 327 0.980621
1413949556074 28380 READING 445 0.986366
1413949556142 28381 READING 327 0.990762
1413949556488 28381 READING 327 0.996939
1413949556730 28380 READING 445 0.971238
1413949556820 28381 READING 327 0.996978
1413949556873 28380 READING 444 0.872289
1413949557017 28380 READING 447 0.855739
1413949557163 28381 READING 327 0.996856
1413949557479 28381 READING 327 0.997079
1413949557673 28380 READING 452 0.978714
1413949557860 28381 READING 327 0.997392
1413949558145 28381 READING 327 0.996307
1413949558195 28381 READING 313 0.980393
1413949558247 28381 READING 324 0.979764
1413949558301 28381 READING 327 0.982457
1413949558414 28381 READING 327 0.989773
1413949558751 28381 READING 327 0.996949
1413949559076 28381 READING 327 0.997098
1413949559399 28381 READING 327 0.996699
1413949559680 28381 READING 327 0.995067
1413949559741 28380 READING 420 0.991174
1413949560111 28381 READING 327 0.997907
1413949560273 28380 FUNCTION lru lambda h: 0.350642 * (h ** 0.142532)
1413949560273 28381 FUNCTION lru lambda h: 0.950558 * (h ** 0.00222992)
1413949560273 28380 RECOMMEND 447
1413949560273 28381 RECOMMEND 447
1413949560314 28381 READING 327 0.993780
1413949560527 28381 READING 327 0.995137
1413949560579 28381 READING 327 0.981707
1413949560633 28381 READING 327 0.980050
1413949560744 28381 READING 327 0.991922
1413949560820 28381 READING 327 0.987098
1413949561363 28381 READING 327 0.996650
1413949561635 28381 READING 327 0.996759
1413949561686 28380 READING 451 0.990550
1413949561927 28381 READING 327 0.996549
1413949562409 28381 READING 327 0.996905
1413949562608 28381 READING 327 0.994878
1413949562826 28381 READING 327 0.995448
1413949562879 28381 READING 327 0.979665
1413949562934 28381 READING 327 0.981036
1413949563044 28381 READING 327 0.990634
1413949563114 28381 READING 327 0.986936
1413949563647 28381 READING 327 0.998209
1413949563772 28380 READING 421 0.989294
1413949563933 28381 READING 327 0.994889
1413949564192 28381 READING 327 0.996486
1413949564678 28381 READING 327 0.997927
1413949564893 28381 READING 327 0.995049
1413949565111 28381 READING 327 0.995076
1413949565164 28381 READING 313 0.982264
1413949565217 28381 READING 324 0.982764
1413949565326 28381 READING 327 0.990945
1413949565391 28381 READING 327 0.984331
1413949565545 28380 READING 449 0.987261
1413949565900 28381 READING 327 0.997918
1413949566195 28381 READING 327 0.996509
1413949566480 28381 READING 327 0.996245
1413949566930 28381 READING 327 0.997962
1413949567184 28381 READING 327 0.996024
1413949567243 28380 READING 424 0.985085
1413949567400 28381 READING 313 0.995324
1413949567448 28381 READING 299 0.980526
1413949567497 28381 READING 311 0.977937
1413949567580 28381 READING 326 0.989053
1413949567665 28381 READING 327 0.988081
1413949568120 28381 READING 327 0.997109
1413949568453 28381 READING 327 0.997198
1413949568751 28381 READING 327 0.996523
1413949569083 28381 READING 327 0.995682
1413949569104 28380 READING 445 0.985831
1413949569451 28381 READING 327 0.997227
1413949569685 28381 READING 313 0.995111
1413949569733 28381 READING 299 0.976709
1413949569783 28381 READING 312 0.979055
1413949569838 28381 READING 327 0.971699
1413949569950 28381 READING 327 0.991240
1413949570274 28380 FUNCTION lru lambda h: 0.350554 * (h ** 0.142591)
1413949570274 28381 FUNCTION lru lambda h: 0.947948 * (h ** 0.00303692)
1413949570274 28380 RECOMMEND 447
1413949570274 28381 RECOMMEND 447
1413949570297 28381 READING 327 0.996453
1413949570631 28381 READING 327 0.996786
1413949570978 28381 READING 327 0.979439
1413949570995 28380 READING 444 0.984956
1413949571300 28381 READING 327 0.996794
1413949571682 28381 READING 327 0.997614
1413949571962 28381 READING 327 0.996438
1413949572015 28381 READING 327 0.980008
1413949572068 28381 READING 327 0.981597
1413949572121 28381 READING 327 0.980840
1413949572236 28381 READING 327 0.991292
1413949572577 28381 READING 327 0.996675
1413949572904 28381 READING 327 0.995970
1413949572910 28380 READING 445 0.984592
1413949573239 28381 READING 327 0.996797
1413949573541 28381 READING 327 0.996609
1413949573949 28381 READING 327 0.997388
1413949574106 28381 READING 313 0.992859
1413949574300 28381 READING 321 0.993831
1413949574353 28381 READING 327 0.972718
1413949574407 28381 READING 327 0.982907
1413949574517 28381 READING 327 0.991590
1413949574594 28381 READING 327 0.988317
1413949574905 28380 READING 445 0.983254
1413949575166 28381 READING 327 0.998426
1413949575474 28381 READING 327 0.996589
1413949575726 28381 READING 327 0.996091
1413949576167 28380 READING 444 0.987234
1413949576179 28381 READING 327 0.998078
1413949576331 28380 READING 448 0.904813
1413949576369 28381 READING 313 0.994711
1413949576474 28380 READING 444 0.876518
1413949576580 28381 READING 299 0.994823
1413949576617 28380 READING 447 0.897885
1413949576631 28381 READING 286 0.961366
1413949576680 28381 READING 302 0.979027
1413949576768 28381 READING 319 0.989757
1413949576846 28381 READING 327 0.987559
1413949577321 28381 READING 327 0.997751
1413949577644 28381 READING 327 0.997267
1413949577939 28381 READING 327 0.996871
1413949578289 28381 READING 327 0.997109
1413949578480 28380 READING 438 0.990924
1413949578641 28381 READING 327 0.997238
1413949578902 28381 READING 313 0.995325
1413949578950 28381 READING 299 0.979907
1413949579000 28381 READING 311 0.975863
1413949579054 28381 READING 327 0.981509
1413949579166 28381 READING 327 0.991334
1413949579514 28381 READING 327 0.997047
1413949579848 28381 READING 327 0.996953
1413949580126 28380 READING 446 0.987352
1413949580204 28381 READING 327 0.997297
1413949580274 28380 FUNCTION lru lambda h: 0.35049 * (h ** 0.142635)
1413949580274 28381 FUNCTION lru lambda h: 0.943971 * (h ** 0.00424298)
1413949580274 28380 RECOMMEND 447
1413949580274 28381 RECOMMEND 447
1413949580531 28381 READING 327 0.996842
1413949580894 28381 READING 327 0.997314
1413949581163 28381 READING 313 0.996399
1413949581210 28381 READING 299 0.979868
1413949581260 28381 READING 311 0.979125
1413949581314 28381 READING 326 0.982650
1413949581425 28381 READING 327 0.991437
1413949581503 28381 READING 327 0.987066
1413949581915 28380 READING 449 0.987409
1413949582056 28381 READING 327 0.998292
1413949582326 28381 READING 327 0.996275
1413949582613 28381 READING 327 0.994719
1413949583078 28381 READING 327 0.997859
1413949583275 28381 READING 327 0.994215
1413949583491 28381 READING 327 0.995159
1413949583540 28381 READING 313 0.978163
1413949583597 28381 READING 326 0.981160
1413949583713 28381 READING 327 0.991666
1413949583780 28381 READING 327 0.984232
1413949583922 28380 READING 421 0.988865
1413949584313 28381 READING 327 0.998283
1413949584601 28381 READING 327 0.996219
1413949584873 28381 READING 327 0.996112
1413949585342 28381 READING 327 0.996728
1413949585574 28381 READING 327 0.996084
1413949585697 28380 READING 448 0.986390
1413949585789 28381 READING 313 0.995090
1413949585837 28381 READING 299 0.977566
1413949585889 28381 READING 312 0.978235
1413949585989 28381 READING 327 0.990768
1413949586061 28381 READING 327 0.986000
1413949586534 28381 READING 327 0.997788
1413949586852 28381 READING 327 0.996435
1413949587150 28381 READING 327 0.995144
1413949587520 28381 READING 327 0.997354
1413949587522 28380 READING 425 0.985637
1413949587849 28381 READING 327 0.996949
1413949588085 28381 READING 313 0.995324
1413949588133 28381 READING 299 0.973641
1413949588186 28381 READING 312 0.979534
1413949588240 28381 READING 327 0.979521
1413949588352 28381 READING 327 0.990973
1413949588786 28381 READING 327 0.997682
1413949589038 28381 READING 327 0.995938
1413949589254 28380 READING 444 0.983845
1413949589421 28381 READING 327 0.997271
1413949589736 28381 READING 327 0.996718
1413949590098 28381 READING 327 0.996873
1413949590274 28380 FUNCTION lru lambda h: 0.347885 * (h ** 0.144401)
1413949590274 28381 FUNCTION lru lambda h: 0.944416 * (h ** 0.00410514)
1413949590274 28380 RECOMMEND 447
1413949590274 28381 RECOMMEND 447
1413949590349 28381 READING 313 0.995703
1413949590398 28381 READING 299 0.975249
1413949590450 28381 READING 312 0.979593
1413949590506 28381 READING 327 0.976507
1413949590619 28381 READING 327 0.989712
1413949590701 28381 READING 327 0.987929
1413949591059 28380 READING 443 0.982898
1413949591266 28381 READING 327 0.998269
1413949591580 28381 READING 327 0.996794
1413949591848 28381 READING 327 0.996632
1413949592290 28381 READING 327 0.997731
1413949592463 28381 READING 313 0.994447
1413949592670 28381 READING 299 0.994616
1413949592717 28381 READING 286 0.977289
1413949592765 28381 READING 298 0.978951
1413949592853 28381 READING 313 0.989012
1413949592876 28380 READING 445 0.981100
1413949592942 28381 READING 327 0.988962
1413949593405 28381 READING 327 0.997614
1413949593726 28381 READING 327 0.997022
1413949594023 28381 READING 327 0.996540
1413949594359 28381 READING 327 0.997257
1413949594702 28381 READING 313 0.997070
1413949594911 28381 READING 299 0.994903
1413949594956 28381 READING 286 0.977843
1413949595004 28381 READING 298 0.978607
1413949595055 28381 READING 312 0.980159
1413949595165 28381 READING 327 0.990594
1413949595268 28380 READING 445 0.990504
1413949595282 28381 READING 327 0.991186
1413949595507 28380 READING 449 0.926130
1413949595653 28380 READING 441 0.847099
1413949595796 28380 READING 447 0.849786
1413949595811 28381 READING 327 0.997975
1413949596135 28381 READING 327 0.997235
1413949596412 28381 READING 327 0.995634
1413949596847 28381 READING 327 0.997348
1413949596886 28380 READING 448 0.984766
1413949597049 28381 READING 313 0.993000
1413949597262 28381 READING 299 0.995346
1413949597313 28381 READING 286 0.977411
1413949597361 28381 READING 298 0.978962
1413949597443 28381 READING 313 0.986834
1413949597526 28381 READING 327 0.987702
1413949597983 28381 READING 327 0.997517
1413949598312 28381 READING 327 0.996973
1413949598614 28381 READING 327 0.996438
1413949598694 28380 READING 437 0.991081
1413949598957 28381 READING 327 0.997294
1413949599318 28381 READING 313 0.996013
1413949599536 28381 READING 299 0.995513
1413949599581 28381 READING 286 0.976414
1413949599629 28381 READING 298 0.980933
1413949599680 28381 READING 313 0.980214
1413949599794 28381 READING 327 0.991849
1413949599875 28381 READING 327 0.988676
1413949600274 28380 FUNCTION lru lambda h: 0.347334 * (h ** 0.144781)
1413949600274 28381 FUNCTION lru lambda h: 0.943076 * (h ** 0.00454174)
1413949600274 28380 RECOMMEND 447
1413949600274 28381 RECOMMEND 447
1413949600387 28380 READING 447 0.987342
1413949600432 28381 READING 327 0.998399
1413949600745 28381 READING 327 0.997078
1413949601012 28381 READING 327 0.996636
1413949601457 28381 READING 327 0.997959
1413949601635 28381 READING 313 0.994613
1413949601843 28381 READING 299 0.995297
1413949601890 28381 READING 286 0.975161
1413949601940 28381 READING 299 0.977363
1413949602028 28381 READING 314 0.988739
1413949602112 28381 READING 327 0.987730
1413949602186 28380 READING 435 0.989838
1413949602591 28381 READING 327 0.997779
1413949602916 28381 READING 327 0.997000
1413949603218 28381 READING 327 0.996102
1413949603558 28381 READING 327 0.996882
1413949603871 28380 READING 444 0.986366
1413949603909 28381 READING 313 0.997263
1413949604117 28381 READING 299 0.995429
1413949604163 28381 READING 286 0.969098
1413949604212 28381 READING 300 0.978524
1413949604266 28381 READING 316 0.981543
1413949604378 28381 READING 327 0.990250
1413949604717 28381 READING 327 0.997235
1413949605031 28381 READING 327 0.996443
1413949605354 28381 READING 327 0.996841
1413949605626 28381 READING 327 0.996130
1413949605731 28380 READING 442 0.985880
1413949606056 28381 READING 327 0.997621
1413949606266 28381 READING 313 0.993306
1413949606479 28381 READING 299 0.995337
1413949606525 28381 READING 286 0.977879
1413949606575 28381 READING 298 0.979768
1413949606666 28381 READING 313 0.984242
1413949606751 28381 READING 327 0.988508
1413949607213 28381 READING 327 0.997835
1413949607541 28381 READING 327 0.995536
1413949607817 28380 READING 444 0.987071
1413949607850 28381 READING 327 0.996836
1413949608184 28381 READING 327 0.996884
1413949608535 28381 READING 313 0.995911
1413949608752 28381 READING 299 0.994496
1413949608799 28381 READING 286 0.978769
1413949608847 28381 READING 298 0.980290
1413949608898 28381 READING 312 0.980761
1413949609012 28381 READING 327 0.987300
1413949609095 28381 READING 327 0.989042
1413949609619 28380 READING 444 0.984442
1413949609657 28381 READING 327 0.998116
1413949609976 28381 READING 327 0.997232
1413949610244 28381 READING 327 0.996685
1413949610275 28380 FUNCTION lru lambda h: 0.34434 * (h ** 0.146807)
1413949610275 28381 FUNCTION lru lambda h: 0.941378 * (h ** 0.00505658)
1413949610275 28380 RECOMMEND 447
1413949610275 28381 RECOMMEND 447
1413949610686 28381 READING 327 0.997471
1413949610860 28381 READING 313 0.993362
1413949611068 28381 READING 299 0.994790
1413949611113 28381 READING 286 0.976091
1413949611165 28381 READING 299 0.976163
1413949611254 28381 READING 315 0.990275
1413949611332 28381 READING 327 0.985157
1413949611446 28380 READING 445 0.983342
1413949611796 28381 READING 327 0.997755
1413949612117 28381 READING 327 0.997018
1413949612415 28381 READING 327 0.995993
1413949612759 28381 READING 327 0.997028
1413949613099 28381 READING 313 0.997015
1413949613307 28381 READING 299 0.995057
1413949613353 28381 READING 286 0.979040
1413949613400 28381 READING 298 0.978989
1413949613452 28381 READING 312 0.982250
1413949613562 28381 READING 327 0.991299
1413949613632 28380 READING 447 0.977829
1413949613900 28381 READING 327 0.997394
1413949614207 28381 READING 327 0.996634
1413949614524 28381 READING 327 0.996863
1413949614737 28380 READING 447 0.978404
1413949614797 28381 READING 327 0.996492
1413949614900 28380 READING 440 0.860337
1413949615061 28380 READING 448 0.759994
1413949615215 28381 READING 313 0.997361
1413949615292 28380 READING 449 0.924482
1413949615393 28381 READING 299 0.994469
1413949615621 28381 READING 286 0.995271
1413949615665 28381 READING 274 0.979013
1413949615711 28381 READING 285 0.979711
1413949615762 28381 READING 298 0.981359
1413949615873 28381 READING 314 0.990204
1413949616218 28381 READING 327 0.996834
1413949616552 28381 READING 327 0.997174
1413949616896 28381 READING 327 0.997208
1413949617151 28380 READING 422 0.988305
1413949617214 28381 READING 327 0.996085
1413949617580 28381 READING 313 0.996683
1413949617727 28381 READING 299 0.993575
1413949617922 28381 READING 286 0.994122
1413949617965 28381 READING 274 0.975875
1413949618016 28381 READING 286 0.979738
1413949618087 28381 READING 301 0.986921
1413949618178 28381 READING 316 0.984866
1413949618622 28381 READING 327 0.997619
1413949618901 28381 READING 327 0.994983
1413949619176 28380 READING 452 0.987991
1413949619283 28381 READING 327 0.997347
1413949619580 28381 READING 327 0.995683
1413949619954 28381 READING 313 0.997227
1413949620178 28381 READING 299 0.995646
1413949620224 28381 READING 286 0.975815
1413949620272 28381 READING 298 0.980530
1413949620275 28380 FUNCTION lru lambda h: 0.270458 * (h ** 0.188914)
1413949620275 28381 FUNCTION lru lambda h: 0.939636 * (h ** 0.00560906)
1413949620275 28380 RECOMMEND 447
1413949620275 28381 RECOMMEND 447
1413949620324 28381 READING 313 0.976257
1413949620433 28381 READING 327 0.991351
1413949620508 28381 READING 327 0.985471
1413949620955 28380 READING 425 0.985453
1413949621056 28381 READING 327 0.998257
1413949621330 28381 READING 327 0.996338
1413949621593 28381 READING 327 0.996059
1413949622077 28381 READING 327 0.997894
1413949622281 28381 READING 313 0.995273
1413949622494 28381 READING 299 0.994984
1413949622539 28381 READING 286 0.977781
1413949622587 28381 READING 298 0.978786
1413949622657 28381 READING 313 0.986119
1413949622752 28381 READING 327 0.990163
1413949622839 28380 READING 448 0.982648
1413949623222 28381 READING 327 0.997339
1413949623506 28381 READING 327 0.996115
1413949623874 28381 READING 327 0.996915
1413949624173 28381 READING 327 0.995943
1413949624551 28380 READING 426 0.982524
1413949624568 28381 READING 313 0.997461
1413949624805 28381 READING 299 0.995101
1413949624850 28381 READING 286 0.976158
1413949624898 28381 READING 298 0.976056
1413949624949 28381 READING 314 0.981485
1413949625062 28381 READING 327 0.990990
1413949625133 28381 READING 327 0.986315
1413949625664 28381 READING 327 0.998253
1413949625943 28381 READING 327 0.996268
1413949626206 28381 READING 327 0.995442
1413949626229 28380 READING 444 0.981708
1413949626681 28381 READING 327 0.998005
1413949626889 28381 READING 313 0.994932
1413949627100 28381 READING 299 0.995150
1413949627146 28381 READING 286 0.976461
1413949627194 28381 READING 298 0.980612
1413949627262 28381 READING 313 0.978997
1413949627366 28381 READING 327 0.988938
1413949627809 28381 READING 327 0.997257
1413949627901 28380 READING 442 0.981524
1413949628093 28381 READING 327 0.996783
1413949628470 28381 READING 327 0.997327
1413949628764 28381 READING 327 0.996675
1413949629143 28381 READING 313 0.997409
1413949629371 28381 READING 299 0.995265
1413949629416 28381 READING 286 0.975787
1413949629464 28381 READING 298 0.978104
1413949629515 28381 READING 314 0.980360
1413949629625 28381 READING 327 0.990993
1413949629703 28381 READING 327 0.929244
1413949629992 28380 READING 443 0.857705
1413949630275 28380 FUNCTION lru lambda h: 0.192688 * (h ** 0.247899)
1413949630275 28381 FUNCTION lru lambda h: 0.941814 * (h ** 0.00495216)
1413949630275 28380 RECOMMEND 447
1413949630275 28381 RECOMMEND 447
1413949630283 28381 READING 327 0.998267
1413949630556 28381 READING 327 0.996659
1413949630823 28381 READING 327 0.995762
1413949631295 28381 READING 327 0.997981
1413949631499 28381 READING 327 0.994646
1413949631613 28380 READING 459 0.994740
1413949631714 28381 READING 327 0.994957
1413949631767 28381 READING 327 0.979155
1413949631820 28381 READING 327 0.982843
1413949631931 28381 READING 327 0.990576
1413949631999 28381 READING 327 0.986953
1413949632517 28381 READING 327 0.998043
1413949632798 28381 READING 327 0.996743
1413949633061 28381 READING 327 0.996186
1413949633497 28381 READING 313 0.997615
1413949633727 28381 READING 299 0.995502
1413949633781 28380 READING 456 0.985103
1413949633977 28381 READING 286 0.994267
1413949634022 28381 READING 274 0.973656
1413949634072 28381 READING 286 0.977028
1413949634126 28381 READING 302 0.978397
1413949634237 28381 READING 319 0.990354
1413949634292 28380 READING 434 0.951720
1413949634323 28381 READING 327 0.986510
1413949634426 28380 READING 455 0.875467
1413949634560 28380 READING 442 0.869414
1413949634885 28381 READING 327 0.998240
1413949634948 28380 READING 454 0.963582
1413949635208 28381 READING 327 0.997188
1413949635474 28381 READING 327 0.996182
1413949635902 28381 READING 327 0.997644
1413949636072 28381 READING 313 0.994253
1413949636278 28381 READING 299 0.994784
1413949636324 28381 READING 286 0.973632
1413949636378 28381 READING 299 0.973219
1413949636471 28381 READING 316 0.988298
1413949636551 28381 READING 327 0.987938
1413949637022 28381 READING 327 0.997229
1413949637026 28380 READING 418 0.989869
1413949637343 28381 READING 327 0.996810
1413949637639 28381 READING 327 0.996655
1413949637977 28381 READING 327 0.997051
1413949638317 28381 READING 313 0.997397
1413949638528 28381 READING 299 0.995711
1413949638573 28381 READING 286 0.976955
1413949638621 28381 READING 298 0.978225
1413949638673 28381 READING 313 0.977711
1413949638784 28381 READING 327 0.990465
1413949639082 28380 READING 453 0.990943
1413949639122 28381 READING 327 0.996858
1413949639434 28381 READING 327 0.996647
1413949639753 28381 READING 327 0.996743
1413949640032 28381 READING 327 0.996747
1413949640276 28380 FUNCTION lru lambda h: 0.0716345 * (h ** 0.417929)
1413949640276 28381 FUNCTION lru lambda h: 0.940576 * (h ** 0.00531364)
1413949640276 28380 RECOMMEND 447
1413949640276 28381 RECOMMEND 447
1413949640427 28381 READING 313 0.997584
1413949640596 28381 READING 299 0.994642
1413949640693 28380 READING 420 0.988031
1413949640807 28381 READING 286 0.994782
1413949640850 28381 READING 274 0.980071
1413949640898 28381 READING 285 0.979638
1413949640949 28381 READING 298 0.981434
1413949641059 28381 READING 314 0.990065
1413949641415 28381 READING 327 0.997379
1413949641746 28381 READING 327 0.996556
1413949642118 28381 READING 327 0.997404
1413949642323 28380 READING 451 0.986290
1413949642417 28381 READING 313 0.996744
1413949642742 28381 READING 299 0.996642
1413949642901 28381 READING 286 0.994022
1413949643110 28381 READING 274 0.995110
1413949643151 28381 READING 263 0.973005
1413949643196 28381 READING 274 0.974090
1413949643243 28381 READING 289 0.979607
1413949643351 28381 READING 306 0.991117
1413949643687 28381 READING 323 0.996845
1413949644002 28381 READING 327 0.996786
1413949644036 28380 READING 423 0.986152
1413949644335 28381 READING 327 0.997060
1413949644625 28381 READING 327 0.996405
1413949645016 28381 READING 313 0.997673
1413949645178 28381 READING 299 0.993510
1413949645385 28381 READING 286 0.993732
1413949645430 28381 READING 274 0.974606
1413949645475 28381 READING 286 0.976707
1413949645528 28380 READING 447 0.979523
1413949645536 28381 READING 302 0.985458
1413949645642 28381 READING 318 0.986696
1413949646076 28381 READING 327 0.997761
1413949646328 28381 READING 327 0.996147
1413949646721 28381 READING 327 0.997606
1413949647013 28381 READING 327 0.996472
1413949647319 28380 READING 428 0.983871
1413949647377 28381 READING 313 0.996982
1413949647633 28381 READING 299 0.996261
1413949647679 28381 READING 286 0.975416
1413949647726 28381 READING 298 0.976033
1413949647777 28381 READING 314 0.981549
1413949647885 28381 READING 327 0.990346
1413949647953 28381 READING 327 0.982523
1413949648475 28381 READING 327 0.998107
1413949648762 28381 READING 327 0.996660
1413949648945 28380 READING 443 0.982522
1413949649037 28381 READING 327 0.996390
1413949649487 28381 READING 327 0.997787
1413949649721 28381 READING 313 0.995390
1413949649932 28381 READING 299 0.995378
1413949649977 28381 READING 286 0.976619
1413949650025 28381 READING 298 0.977538
1413949650082 28381 READING 314 0.981364
1413949650190 28381 READING 327 0.990433
1413949650276 28380 FUNCTION lru lambda h: 0.043134 * (h ** 0.504709)
1413949650276 28381 FUNCTION lru lambda h: 0.938169 * (h ** 0.00606937)
1413949650276 28380 RECOMMEND 447
1413949650276 28381 RECOMMEND 447
1413949650390 28380 READING 443 0.978019
1413949650631 28381 READING 327 0.997642
1413949650897 28381 READING 327 0.996011
1413949651280 28381 READING 327 0.997336
1413949651565 28381 READING 327 0.996523
1413949651914 28381 READING 313 0.997356
1413949651925 28380 READING 445 0.978923
1413949652178 28381 READING 299 0.994996
1413949652224 28381 READING 286 0.976107
1413949652271 28381 READING 298 0.977486
1413949652322 28381 READING 314 0.979904
1413949652431 28381 READING 327 0.990486
1413949652496 28381 READING 327 0.985134
1413949653013 28381 READING 327 0.998052
1413949653299 28381 READING 327 0.996737
1413949653571 28381 READING 327 0.996369
1413949653625 28380 READING 446 0.989195
1413949653814 28380 READING 448 0.895805
1413949653945 28380 READING 441 0.857353
1413949654013 28381 READING 327 0.997501
1413949654078 28380 READING 447 0.832849
1413949654253 28381 READING 313 0.995930
1413949654462 28381 READING 299 0.995104
1413949654508 28381 READING 286 0.976947
1413949654557 28381 READING 298 0.980478
1413949654614 28381 READING 313 0.976332
1413949654725 28381 READING 327 0.991274
1413949654840 28380 READING 437 0.980364
1413949655170 28381 READING 327 0.997746
1413949655421 28381 READING 327 0.995813
1413949655812 28381 READING 327 0.997707
1413949656103 28381 READING 313 0.996385
1413949656353 28380 READING 448 0.987559
1413949656422 28381 READING 299 0.996618
1413949656550 28381 READING 286 0.992517
1413949656743 28381 READING 274 0.995154
1413949656785 28381 READING 263 0.974542
1413949656834 28381 READING 274 0.978762
1413949656880 28381 READING 288 0.977474
1413949656989 28381 READING 305 0.990273
1413949657337 28381 READING 322 0.997147
1413949657673 28381 READING 327 0.996949
1413949658015 28381 READING 327 0.995877
1413949658031 28380 READING 415 0.987039
1413949658330 28381 READING 327 0.996874
1413949658690 28381 READING 313 0.997306
1413949658834 28381 READING 299 0.991791
1413949659033 28381 READING 286 0.992683
1413949659077 28381 READING 274 0.967945
1413949659125 28381 READING 288 0.970118
1413949659204 28381 READING 306 0.985198
1413949659296 28381 READING 325 0.989476
1413949659740 28381 READING 327 0.997555
1413949659796 28380 READING 446 0.986637
1413949660014 28381 READING 327 0.996267
1413949660276 28380 FUNCTION lru lambda h: 0.0337603 * (h ** 0.54629)
1413949660276 28381 FUNCTION lru lambda h: 0.937201 * (h ** 0.00637518)
1413949660276 28380 RECOMMEND 447
1413949660276 28381 RECOMMEND 447
1413949660389 28381 READING 327 0.997304
1413949660679 28381 READING 327 0.996627
1413949661061 28381 READING 313 0.997495
1413949661310 28381 READING 299 0.995752
1413949661356 28381 READING 286 0.977704
1413949661403 28381 READING 298 0.978872
1413949661457 28381 READING 313 0.980660
1413949661537 28380 READING 446 0.986299
1413949661569 28381 READING 327 0.991203
1413949661645 28381 READING 327 0.987703
1413949662179 28381 READING 327 0.998289
1413949662460 28381 READING 327 0.996629
1413949662785 28381 READING 327 0.788647
1413949663152 28380 READING 445 0.985146
1413949663248 28381 READING 313 0.998024
1413949663472 28381 READING 324 0.995695
1413949663697 28381 READING 327 0.995833
1413949663750 28381 READING 327 0.977398
1413949663803 28381 READING 327 0.982008
1413949663913 28381 READING 327 0.990974
1413949663975 28381 READING 327 0.985274
1413949664484 28381 READING 327 0.998221
1413949664706 28380 READING 447 0.983256
1413949664786 28381 READING 327 0.995312
1413949665066 28381 READING 327 0.996155
1413949665503 28381 READING 327 0.997610
1413949665750 28381 READING 327 0.996304
1413949665964 28381 READING 327 0.995011
1413949666016 28381 READING 327 0.982600
1413949666070 28381 READING 327 0.983210
1413949666178 28381 READING 327 0.989651
1413949666239 28381 READING 327 0.984085
1413949666389 28380 READING 435 0.984041
1413949666737 28381 READING 327 0.998096
1413949667036 28381 READING 327 0.996890
1413949667324 28381 READING 327 0.996801
1413949667740 28381 READING 327 0.997698
1413949668006 28381 READING 327 0.996413
1413949668100 28380 READING 442 0.982756
1413949668222 28381 READING 327 0.995754
1413949668278 28381 READING 327 0.981203
1413949668332 28381 READING 327 0.980743
1413949668439 28381 READING 327 0.992085
1413949668504 28381 READING 327 0.983577
1413949668998 28381 READING 327 0.998088
1413949669304 28381 READING 327 0.996553
1413949669591 28381 READING 327 0.997004
1413949669728 28380 READING 444 0.981911
1413949669973 28381 READING 327 0.997537
1413949670267 28381 READING 327 0.996772
1413949670276 28380 FUNCTION lru lambda h: 0.0334878 * (h ** 0.547817)
1413949670276 28381 FUNCTION lru lambda h: 0.937148 * (h ** 0.00638581)
1413949670276 28380 RECOMMEND 447
1413949670276 28381 RECOMMEND 447
1413949670500 28381 READING 327 0.995019
1413949670552 28381 READING 327 0.981113
1413949670605 28381 READING 327 0.982230
1413949670694 28381 READING 327 0.989887
1413949670772 28381 READING 327 0.988395
1413949671230 28381 READING 327 0.997911
1413949671307 28380 READING 444 0.978476
1413949671555 28381 READING 327 0.996754
1413949671848 28381 READING 327 0.996898
1413949672171 28381 READING 327 0.996976
1413949672515 28381 READING 327 0.997028
1413949672730 28380 READING 446 0.984756
1413949672733 28381 READING 327 0.995595
1413949672786 28381 READING 327 0.981011
1413949672841 28381 READING 327 0.983208
1413949672894 28380 READING 448 0.854410
1413949672928 28381 READING 327 0.987868
1413949673018 28381 READING 327 0.982543
1413949673030 28380 READING 444 0.830680
1413949673160 28380 READING 448 0.855803
1413949673220 28380 DEATH 246
1413949673469 28381 READING 327 0.996728
1413949673801 28381 READING 327 0.995586
1413949674101 28381 READING 327 0.995158
1413949674406 28381 READING 327 0.995047
1413949674777 28381 READING 327 0.996199
1413949674999 28381 READING 327 0.993416
1413949675057 28381 READING 327 0.982547
1413949675110 28381 READING 327 0.982139
1413949675185 28381 READING 327 0.979204
1413949675283 28381 READING 327 0.985952
1413949675721 28381 READING 327 0.996392
1413949675998 28381 READING 327 0.996257
1413949676365 28381 READING 327 0.996959
1413949676650 28381 READING 327 0.995418
1413949677034 28381 READING 327 0.996400
1413949677251 28381 READING 327 0.993224
1413949677305 28381 READING 327 0.973344
1413949677363 28381 READING 327 0.973746
1413949677425 28381 READING 327 0.980954
1413949677536 28381 READING 327 0.991307
1413949677974 28381 READING 327 0.996837
1413949678251 28381 READING 327 0.996190
1413949678625 28381 READING 327 0.995954
1413949678906 28381 READING 327 0.994843
1413949679275 28381 READING 327 0.995935
1413949679551 28381 READING 327 0.995860
1413949679607 28381 READING 327 0.983762
1413949679664 28381 READING 327 0.983791
1413949679719 28381 READING 327 0.982939
1413949679834 28381 READING 327 0.990898
1413949680184 28381 READING 327 0.996300
1413949680277 28381 FUNCTION lru lambda h: 0.937327 * (h ** 0.00633295)
1413949680277 28381 RECOMMEND 894
1413949680519 28381 READING 327 0.995069
1413949680879 28381 READING 327 0.995900
1413949681203 28381 READING 327 0.994827
1413949681552 28381 READING 327 0.995904
1413949681817 28381 READING 327 0.996145
1413949681875 28381 READING 327 0.976347
1413949681929 28381 READING 327 0.973740
1413949681987 28381 READING 327 0.976417
1413949682098 28381 READING 327 0.986554
1413949682445 28381 READING 327 0.995953
1413949682778 28381 READING 327 0.994847
1413949683110 28381 READING 327 0.995840
1413949683416 28381 READING 327 0.995447
1413949683785 28381 READING 327 0.996198
1413949684074 28381 READING 327 0.994902
1413949684133 28381 READING 327 0.976028
1413949684186 28381 READING 327 0.972504
1413949684241 28381 READING 327 0.974989
1413949684352 28381 READING 327 0.987542
1413949684694 28381 READING 327 0.995939
1413949685019 28381 READING 327 0.996871
1413949685342 28381 READING 327 0.996580
1413949685631 28381 READING 327 0.995723
1413949686021 28381 READING 327 0.996300
1413949686195 28381 READING 327 0.991942
1413949686381 28381 READING 327 0.991603
1413949686437 28381 READING 327 0.971940
1413949686497 28381 READING 327 0.974808
1413949686611 28381 READING 327 0.990554
1413949686946 28381 READING 327 0.994921
1413949687254 28381 READING 327 0.995418
1413949687576 28381 READING 327 0.995336
1413949687842 28381 READING 327 0.993778
1413949688260 28381 READING 327 0.996482
1413949688447 28381 READING 327 0.990795
1413949688655 28381 READING 327 0.993247
1413949688714 28381 READING 327 0.975284
1413949688772 28381 READING 327 0.974381
1413949688882 28381 READING 327 0.990517
1413949688957 28381 READING 327 0.980491
1413949689498 28381 READING 327 0.997324
1413949689772 28381 READING 327 0.996283
1413949690039 28381 READING 327 0.996519
1413949690277 28381 FUNCTION lru lambda h: 0.93722 * (h ** 0.00636457)
1413949690277 28381 RECOMMEND 894
1413949690492 28381 READING 327 0.996859
1413949690695 28381 READING 327 0.991667
1413949690908 28381 READING 327 0.993331
1413949690961 28381 READING 327 0.972843
1413949691019 28381 READING 327 0.975308
1413949691133 28381 READING 327 0.987328
1413949691204 28381 READING 327 0.985113
1413949691729 28381 READING 327 0.997461
1413949692006 28381 READING 327 0.994459
1413949692269 28381 READING 327 0.994682
1413949692724 28381 READING 327 0.996735
1413949692945 28381 READING 327 0.993377
1413949693159 28381 READING 327 0.993272
1413949693216 28381 READING 327 0.982779
1413949693270 28381 READING 327 0.969990
1413949693379 28381 READING 327 0.989421
1413949693448 28381 READING 327 0.979374
1413949693956 28381 READING 327 0.997117
1413949694242 28381 READING 327 0.994828
1413949694510 28381 READING 327 0.995905
1413949694951 28381 READING 327 0.997607
1413949695186 28381 READING 327 0.993563
1413949695399 28381 READING 327 0.992527
1413949695452 28381 READING 327 0.970196
1413949695506 28381 READING 327 0.971637
1413949695618 28381 READING 327 0.986507
1413949695686 28381 READING 327 0.978630
1413949696184 28381 READING 327 0.997170
1413949696478 28381 READING 327 0.995083
1413949696754 28381 READING 327 0.994848
1413949697171 28381 READING 327 0.996559
1413949697427 28381 READING 327 0.993949
1413949697490 28381 DEATH 1174
