1411465993851 0 TOTAL_MEM 1000
1411466013859 6594 CREATION
1411466013859 6594 READING 9 0.982329
1411466013859 6594 MINHEAP 2
1411466013861 6594 READING 9 0.211506
1411466013900 6594 READING 11 0.017989
1411466013925 6594 READING 19 0.024157
1411466013970 6594 READING 28 0.025472
1411466013977 6594 READING 40 0.156035
1411466013986 6594 READING 47 0.092289
1411466014057 6594 READING 49 0.011882
1411466014067 6594 READING 70 0.084868
1411466014077 6594 READING 74 0.078449
1411466014092 6594 READING 74 0.049786
1411466014230 6594 READING 78 0.005828
1411466014245 6594 READING 103 0.061125
1411466014258 6594 READING 104 0.071858
1411466014367 6594 READING 105 0.007111
1411466014385 6594 READING 134 0.045148
1411466014397 6594 READING 139 0.080631
1411466014420 6594 READING 140 0.040828
1411466014436 6594 READING 143 0.055256
1411466014659 6594 READING 146 0.003476
1411466014685 6594 READING 182 0.036508
1411466014851 6594 READING 184 0.005989
1411466014872 6594 READING 222 0.060044
1411466014884 6594 READING 223 0.100996
1411466014901 6594 READING 223 0.084108
1411466014929 6594 READING 224 0.051434
1411466015152 6594 READING 224 0.003961
1411466015183 6594 READING 280 0.028649
1411466015198 6594 READING 279 0.072705
1411466015210 6594 READING 281 0.090247
1411466015461 6594 READING 277 0.005212
1411466015494 6594 READING 333 0.040015
1411466015507 6594 READING 332 0.122068
1411466015524 6594 READING 333 0.087249
1411466015546 6594 READING 332 0.074467
1411466015869 6594 READING 335 0.004823
1411466015915 6594 READING 400 0.035541
1411466015932 6594 READING 402 0.093144
1411466015957 6594 READING 400 0.069151
1411466016320 6594 READING 403 0.004656
1411466016370 6594 READING 480 0.039316
1411466016392 6594 READING 481 0.088074
1411466016420 6594 READING 479 0.067817
1411466016450 6594 READING 482 0.065377
1411466017144 6594 READING 486 0.002889
1411466017212 6594 READING 586 0.029250
1411466017229 6594 READING 587 0.133186
1411466017257 6594 READING 587 0.081887
1411466017321 6594 READING 588 0.110301
1411466017331 6594 READING 210 0.271172
1411466017352 6594 READING 212 0.157559
1411466017390 6594 READING 214 0.080503
1411466017604 6594 READING 219 0.016813
1411466017635 6594 READING 345 0.116950
1411466017671 6594 READING 342 0.114071
1411466018118 6594 READING 345 0.009270
1411466018136 6594 READING 480 0.268510
1411466018186 6594 READING 481 0.093250
1411466018723 6594 READING 471 0.006697
1411466018738 6594 READING 630 0.238055
1411466018764 6594 READING 628 0.151360
1411466018823 6594 READING 631 0.066903
1411466018880 6594 READING 624 0.042703
1411466019613 6594 READING 644 0.003506
1411466019627 6594 READING 817 0.745661
1411466019633 6594 READING 817 0.437312
1411466019640 6594 READING 821 0.456005
1411466019648 6594 READING 821 0.446495
1411466019656 6594 READING 820 0.481950
1411466019663 6594 READING 822 0.466848
1411466019671 6594 READING 818 0.502389
1411466019680 6594 READING 821 0.491422
1411466019689 6594 READING 816 0.498444
1411466019698 6594 READING 819 0.506498
1411466019707 6594 READING 814 0.531869
1411466019717 6594 READING 817 0.513823
1411466019727 6594 READING 812 0.547268
1411466019737 6594 READING 815 0.609778
1411466019747 6594 READING 809 0.570750
1411466019760 6594 READING 813 0.458816
1411466019768 6594 READING 814 0.844456
1411466019775 6594 READING 815 0.853545
1411466019783 6594 READING 814 0.869037
1411466019791 6594 READING 816 0.851984
1411466019799 6594 READING 813 0.862339
1411466019808 6594 READING 815 0.853565
1411466019818 6594 READING 812 0.855731
1411466019827 6594 READING 814 0.843001
1411466019835 6594 READING 808 0.880398
1411466019844 6594 READING 811 0.845520
1411466019853 6594 READING 807 0.867276
1411466019862 6594 READING 809 0.847831
1411466019872 6594 READING 805 0.876586
1411466019882 6594 READING 807 0.860094
1411466019892 6594 READING 804 0.855989
1411466019901 6594 READING 806 0.886940
1411466019914 6594 READING 802 0.913493
1411466019924 6594 READING 804 0.888728
1411466019934 6594 READING 801 0.880080
1411466019945 6594 READING 803 0.882178
1411466019955 6594 READING 801 0.894824
1411466019966 6594 READING 802 0.874474
1411466019976 6594 READING 800 0.899096
1411466019987 6594 READING 802 0.887666
1411466019998 6594 READING 800 0.885885
1411466020009 6594 READING 802 0.862615
1411466020021 6594 READING 801 0.905070
1411466020033 6594 READING 802 0.886301
1411466020044 6594 READING 802 0.893859
1411466020055 6594 READING 803 0.905072
1411466020067 6594 READING 803 0.903614
1411466020079 6594 READING 804 0.905132
1411466020090 6594 READING 804 0.913596
1411466020102 6594 READING 805 0.913476
1411466020114 6594 READING 806 0.913313
1411466020128 6594 READING 806 0.902270
1411466020140 6594 READING 807 0.925944
1411466020152 6594 READING 808 0.899693
1411466020167 6594 READING 809 0.931796
1411466020182 6594 READING 809 0.927104
1411466020196 6594 READING 811 0.891247
1411466020209 6594 READING 811 0.875607
1411466020224 6594 READING 814 0.874315
1411466020239 6594 READING 814 0.862088
1411466020254 6594 READING 816 0.877085
1411466020268 6594 READING 816 0.890034
1411466020283 6594 READING 820 0.909804
1411466020298 6594 READING 820 0.867395
1411466020312 6594 READING 823 0.898472
1411466020327 6594 READING 823 0.920528
1411466020342 6594 READING 825 0.910689
1411466020357 6594 READING 825 0.862960
1411466020372 6594 READING 828 0.902746
1411466020390 6594 READING 828 0.894139
1411466020405 6594 READING 832 0.920178
1411466020421 6594 READING 832 0.914671
1411466020437 6594 READING 835 0.886530
1411466020455 6594 READING 835 0.813398
1411466020472 6594 READING 838 0.880442
1411466020490 6594 READING 839 0.851773
1411466020508 6594 READING 843 0.902594
1411466020526 6594 READING 843 0.916695
1411466020543 6594 READING 847 0.911373
1411466020562 6594 READING 847 0.839908
1411466020580 6594 READING 850 0.879017
1411466020599 6594 READING 851 0.819001
1411466020618 6594 READING 854 0.878677
1411466020636 6594 READING 855 0.922629
1411466020657 6594 READING 859 0.875987
1411466020677 6594 READING 860 0.840519
1411466020697 6594 READING 865 0.898274
1411466020722 6594 READING 865 0.716606
1411466020746 6594 READING 867 0.824788
1411466020770 6594 READING 870 0.740485
1411466020798 6594 READING 876 0.667261
1411466020823 6594 READING 878 0.712123
1411466020848 6594 READING 889 0.775913
1411466020876 6594 READING 890 0.685068
1411466020899 6594 READING 899 0.840272
1411466020920 6594 READING 901 0.933387
1411466020942 6594 READING 906 0.923825
1411466020965 6594 READING 908 0.892885
1411466020991 6594 READING 913 0.835009
1411466021023 6594 READING 914 0.668794
1411466021059 6594 READING 918 0.609872
1411466021095 6594 READING 922 0.605255
1411466021127 6594 READING 936 0.701980
1411466021175 6594 READING 940 0.469251
1411466021229 6594 READING 947 0.420070
1411466021305 6594 READING 957 0.300478
1411466021343 6594 READING 970 0.590785
1411466021390 6594 READING 990 0.467141
1411466022043 6594 READING 1004 0.036803
1411466022199 6594 READING 1177 0.156200
1411466022791 6594 READING 1185 0.034906
1411466022903 6594 READING 1224 0.184068
1411466023062 6594 READING 1310 0.131576
1411466023832 6594 READING 1329 0.027077
1411466023852 6594 FUNCTION lru lambda h: 0.001 * (h ** 0.999)
1411466023881 6594 READING 1445 0.241426
1411466023965 6594 READING 1176 0.136037
1411466024093 6594 READING 1528 0.101324
1411466024176 6594 READING 1535 0.155764
1411466024307 6594 READING 1545 0.112958
1411466024521 6594 READING 1566 0.069597
1411466024723 6594 READING 1543 0.043736
1411466024805 6594 READING 1619 0.140129
1411466024854 6594 READING 1724 0.208719
1411466024936 6594 READING 1171 0.127446
1411466025059 6594 READING 1641 0.098092
1411466025871 6594 READING 1681 0.015023
1411466025928 6594 READING 1477 0.260428
1411466026049 6594 READING 1513 0.120107
1411466026662 6594 READING 1482 0.027534
1411466026722 6594 READING 1469 0.280449
1411466026821 6594 READING 1419 0.201696
1411466026842 6594 READING 1445 0.906888
1411466026864 6594 READING 1464 0.957792
1411466026885 6594 READING 1469 0.954330
1411466026909 6594 READING 1459 0.958821
1411466026932 6594 READING 1470 0.953336
1411466026956 6594 READING 1438 0.952907
1411466026980 6594 READING 1000 0.953965
1411466027006 6594 READING 1411 0.944947
1411466027031 6594 READING 1009 0.937132
1411466027058 6594 READING 1380 0.940526
1411466027084 6594 READING 1015 0.935725
1411466027113 6594 READING 1347 0.955800
1411466027141 6594 READING 1021 0.963286
1411466027168 6594 READING 1314 0.960673
1411466027197 6594 READING 1025 0.955611
1411466027226 6594 READING 1284 0.957697
1411466027253 6594 READING 1029 0.950269
1411466027281 6594 READING 1255 0.955597
1411466027310 6594 READING 1033 0.943524
1411466027338 6594 READING 1231 0.958624
1411466027367 6594 READING 1037 0.959020
1411466027396 6594 READING 1208 0.927196
1411466027425 6594 READING 1042 0.936185
1411466027455 6594 READING 1188 0.941894
1411466027484 6594 READING 1045 0.957887
1411466027514 6594 READING 1172 0.925193
1411466027545 6594 READING 1052 0.943725
1411466027575 6594 READING 1158 0.958579
1411466027606 6594 READING 1054 0.943971
1411466027638 6594 READING 1148 0.917715
1411466027671 6594 READING 1061 0.877555
1411466027703 6594 READING 1139 0.935203
1411466027737 6594 READING 1146 0.892946
1411466027772 6594 READING 1134 0.881482
1411466027807 6594 READING 1140 0.885887
1411466027842 6594 READING 1133 0.910568
1411466027878 6594 READING 1137 0.872017
1411466027921 6594 READING 1135 0.760848
1411466027959 6594 READING 1138 0.852888
1411466027997 6594 READING 1148 0.874725
1411466028035 6594 READING 1151 0.888970
1411466028078 6594 READING 1152 0.824101
1411466028130 6594 READING 1156 0.687521
1411466028218 6594 READING 1166 0.408970
1411466028295 6594 READING 1171 0.467935
1411466028344 6594 READING 1218 0.749460
1411466028408 6594 READING 1230 0.585028
1411466028492 6594 READING 1245 0.471309
1411466028587 6594 READING 1254 0.414031
1411466030236 6594 READING 1296 0.024804
1411466030625 6594 READING 1963 0.104127
1411466030744 6594 READING 2054 0.309474
1411466031715 6594 READING 2161 0.035063
1411466031805 6594 READING 1645 0.273434
1411466031978 6594 READING 1773 0.140869
1411466032204 6594 READING 1711 0.136343
1411466032447 6594 READING 1776 0.080290
1411466032645 6594 READING 1833 0.085068
1411466032847 6594 READING 1885 0.083721
1411466033046 6594 READING 1909 0.097493
1411466033852 6594 FUNCTION lru lambda h: 2.1953e+08 * (h ** 0.001)
1411466033995 6594 READING 1909 0.020453
1411466034019 6594 READING 2102 0.955834
1411466034043 6594 READING 2102 0.959465
1411466034070 6594 READING 2120 0.949641
1411466034096 6594 READING 2125 0.963335
1411466034124 6594 READING 2141 0.961656
1411466034153 6594 READING 2144 0.950924
1411466034183 6594 READING 2157 0.954252
1411466034213 6594 READING 2160 0.957547
1411466034245 6594 READING 2120 0.959302
1411466034276 6594 READING 1442 0.955426
1411466034308 6594 READING 2056 0.955198
1411466034340 6594 READING 1452 0.962535
1411466034374 6594 READING 1997 0.941408
1411466034408 6594 READING 1460 0.950440
1411466034442 6594 READING 1941 0.940913
1411466034477 6594 READING 1466 0.934709
1411466034512 6594 READING 1889 0.947166
1411466034547 6594 READING 1474 0.956264
1411466034582 6594 READING 1842 0.951872
1411466034618 6594 READING 1478 0.951928
1411466034654 6594 READING 1799 0.959025
1411466034690 6594 READING 1484 0.942322
1411466034728 6594 READING 1762 0.928279
1411466034764 6594 READING 1494 0.946537
1411466034803 6594 READING 1730 0.917024
1411466034841 6594 READING 1501 0.950547
1411466034880 6594 READING 1703 0.927576
1411466034921 6594 READING 1507 0.898664
1411466034963 6594 READING 1682 0.884972
1411466035007 6594 READING 1522 0.898894
1411466035052 6594 READING 1667 0.846256
1411466035097 6594 READING 1680 0.873374
1411466035141 6594 READING 1657 0.915832
1411466035213 6594 READING 1668 0.552195
1411466035279 6594 READING 1654 0.586070
1411466035342 6594 READING 1672 0.624783
1411466035455 6594 READING 1706 0.371727
1411466035547 6594 READING 1709 0.462699
1411466035600 6594 READING 1798 0.853911
1411466036787 6594 READING 1799 0.038316
1411466036938 6594 READING 2132 0.239395
1411466037045 6594 READING 2263 0.345352
1411466037323 6594 READING 2350 0.142141
1411466037571 6594 READING 2357 0.162201
1411466037807 6594 READING 2476 0.171451
1411466038105 6594 READING 2529 0.131443
1411466038332 6594 READING 2639 0.171606
1411466038570 6594 READING 2690 0.162090
1411466038813 6594 READING 2745 0.181988
1411466039820 6594 READING 2745 0.043959
1411466039873 6594 READING 2410 0.972418
1411466039926 6594 READING 2410 0.973122
1411466039984 6594 READING 2458 0.977780
1411466040042 6594 READING 2465 0.976852
1411466040106 6594 READING 2504 0.982974
1411466040169 6594 READING 2511 0.977497
1411466040239 6594 READING 2540 0.977756
1411466040306 6594 READING 2547 0.982525
1411466040378 6594 READING 2511 0.968333
1411466040448 6594 READING 1847 0.975992
1411466040520 6594 READING 2462 0.978757
1411466040597 6594 READING 1866 0.932474
1411466040673 6594 READING 2415 0.941505
1411466040752 6594 READING 1893 0.933475
1411466040844 6594 READING 2370 0.819679
1411466040937 6594 READING 1951 0.799347
1411466041025 6594 READING 2336 0.887835
1411466041167 6594 READING 2365 0.554357
1411466041398 6594 READING 2361 0.347650
1411466041531 6594 READING 2372 0.622596
1411466041783 6594 READING 2513 0.360709
1411466042131 6594 READING 2529 0.254911
1411466042380 6594 READING 2621 0.348063
1411466042631 6594 READING 2510 0.345944
1411466042870 6594 READING 2653 0.320807
1411466043110 6594 READING 2653 0.321902
1411466043852 6594 FUNCTION lru lambda h: 74.3038 * (h ** 0.001)
1411466044128 6594 READING 2653 0.076127
1411466044206 6594 READING 2713 0.978510
1411466044284 6594 READING 2713 0.981261
1411466044364 6594 READING 2713 0.974448
1411466044443 6594 READING 2713 0.964082
1411466044523 6594 READING 2713 0.966171
1411466044607 6594 READING 2713 0.924637
1411466044697 6594 READING 1998 0.855163
1411466044788 6594 READING 2696 0.896189
1411466044896 6594 READING 2687 0.742666
1411466045004 6594 READING 2626 0.805738
1411466045133 6594 READING 2662 0.673743
1411466045307 6594 READING 2618 0.537200
1411466045499 6594 READING 2650 0.487118
1411466045763 6594 READING 2698 0.376537
1411466046064 6594 READING 2742 0.321995
1411466046312 6594 READING 2640 0.309377
1411466046562 6594 READING 2713 0.310296
1411466047592 6594 READING 2713 0.074377
1411466047671 6594 READING 2818 0.986266
1411466047752 6594 READING 2818 0.980144
1411466047829 6594 READING 2818 0.979905
1411466047908 6594 READING 2818 0.983425
1411466047988 6594 READING 2818 0.960558
1411466048067 6594 READING 2783 0.971633
1411466048146 6594 READING 2801 0.980063
1411466048236 6594 READING 2737 0.903109
1411466048322 6594 READING 2776 0.943124
1411466048424 6594 READING 2707 0.841093
1411466048536 6594 READING 2744 0.751541
1411466048676 6594 READING 2684 0.649809
1411466048851 6594 READING 2717 0.514165
1411466049074 6594 READING 2756 0.426767
1411466049371 6594 READING 2775 0.327493
1411466049634 6594 READING 2785 0.346036
1411466049896 6594 READING 2741 0.342889
1411466050145 6594 READING 2818 0.309384
1411466051253 6594 READING 2818 0.069750
1411466051331 6594 READING 2844 0.983713
1411466051409 6594 READING 2844 0.981512
1411466051489 6594 READING 2844 0.982587
1411466051566 6594 READING 2844 0.982637
1411466051648 6594 READING 2844 0.981913
1411466051727 6594 READING 2116 0.975112
1411466051810 6594 READING 2843 0.961103
1411466051899 6594 READING 2828 0.918658
1411466051989 6594 READING 2763 0.924577
1411466052086 6594 READING 2800 0.884726
1411466052211 6594 READING 2738 0.708188
1411466052318 6594 READING 2772 0.837124
1411466052479 6594 READING 2726 0.597310
1411466052599 6594 READING 2759 0.792513
1411466052866 6594 READING 2777 0.395965
1411466053165 6594 READING 2809 0.350511
1411466053406 6594 READING 2878 0.405042
1411466053650 6594 READING 2755 0.406162
1411466053852 6594 FUNCTION lru lambda h: 650.47 * (h ** 0.001)
1411466053872 6594 READING 2813 0.354996
1411466054094 6594 READING 2569 0.353280
1411466055071 6594 READING 2844 0.079699
1411466055150 6594 READING 2852 0.976951
1411466055228 6594 READING 2852 0.984376
1411466055308 6594 READING 2852 0.960381
1411466055388 6594 READING 2816 0.964144
1411466055467 6594 READING 2834 0.971697
1411466055554 6594 READING 2817 0.956314
1411466055642 6594 READING 2840 0.947335
1411466055741 6594 READING 2794 0.899535
1411466055852 6594 READING 2830 0.791208
1411466055967 6594 READING 2785 0.822744
1411466056212 6594 READING 2817 0.387942
1411466056396 6594 READING 2755 0.493352
1411466056666 6594 READING 2847 0.344982
1411466056928 6594 READING 2802 0.332247
1411466057186 6594 READING 2734 0.332535
1411466057435 6594 READING 2852 0.309810
1411466058499 6594 READING 2852 0.072369
1411466058577 6594 READING 2914 0.984717
1411466058655 6594 READING 2914 0.980586
1411466058733 6594 READING 2914 0.983907
1411466058811 6594 READING 2914 0.978797
1411466058890 6594 READING 2914 0.986743
1411466058969 6594 READING 2185 0.977666
1411466059050 6594 READING 2926 0.986303
1411466059137 6594 READING 2218 0.934237
1411466059229 6594 READING 2858 0.918334
1411466059325 6594 READING 2880 0.879150
1411466059424 6594 READING 2817 0.913606
1411466059543 6594 READING 2852 0.748523
1411466059642 6594 READING 2819 0.973120
1411466059864 6594 READING 2843 0.428772
1411466060025 6594 READING 2799 0.585804
1411466060317 6594 READING 2874 0.327890
1411466060582 6594 READING 2866 0.349304
1411466060846 6594 READING 2856 0.348932
1411466061096 6594 READING 2911 0.311515
1411466061375 6594 READING 2914 0.272918
1411466062305 6594 READING 2914 0.083325
1411466062383 6594 READING 2940 0.980625
1411466062461 6594 READING 2940 0.978254
1411466062540 6594 READING 2940 0.979110
1411466062620 6594 READING 2940 0.964826
1411466062699 6594 READING 2215 0.968881
1411466062782 6594 READING 2942 0.972875
1411466062869 6594 READING 2913 0.914689
1411466062959 6594 READING 2868 0.943991
1411466063059 6594 READING 2903 0.862048
1411466063174 6594 READING 2856 0.791455
1411466063331 6594 READING 2889 0.585240
1411466063467 6594 READING 2906 0.709816
1411466063567 6594 READING 2915 0.969118
1411466063832 6594 READING 2911 0.403207
1411466063853 6594 FUNCTION lru lambda h: 76.8679 * (h ** 0.001)
1411466064121 6594 READING 2941 0.365451
1411466064365 6594 READING 2945 0.382674
1411466064609 6594 READING 2825 0.383418
1411466065630 6594 READING 2920 0.074804
1411466065708 6594 READING 2980 0.988238
1411466065786 6594 READING 2962 0.983580
1411466065865 6594 READING 2971 0.975109
1411466065948 6594 READING 2952 0.980731
1411466066031 6594 READING 2964 0.972632
1411466066121 6594 READING 2931 0.971093
1411466066222 6594 READING 2969 0.903216
1411466066320 6594 READING 2925 0.944651
1411466066420 6594 READING 2961 0.940766
1411466066526 6594 READING 2916 0.924515
1411466066677 6594 READING 2950 0.653092
1411466066827 6594 READING 2970 0.686088
1411466066955 6594 READING 2971 0.808720
1411466067243 6594 READING 2976 0.402242
1411466067527 6594 READING 3010 0.398850
1411466067767 6594 READING 3044 0.430952
1411466068006 6594 READING 2918 0.431588
1411466068227 6594 READING 2985 0.388384
1411466068459 6594 READING 2748 0.370164
1411466069446 6594 READING 3006 0.081676
1411466069530 6594 READING 2272 0.971471
1411466069616 6594 READING 2982 0.962633
1411466069702 6594 READING 2970 0.959256
1411466069794 6594 READING 2984 0.943048
1411466069883 6594 READING 2976 0.970495
1411466069983 6594 READING 2988 0.938192
1411466070095 6594 READING 2999 0.841948
1411466070200 6594 READING 2977 0.971251
1411466070448 6594 READING 3009 0.410733
1411466070667 6594 READING 2966 0.457209
1411466070920 6594 READING 3052 0.403313
1411466071171 6594 READING 2878 0.312106
1411466072232 6594 READING 2763 0.073211
1411466072311 6594 READING 3064 0.986270
1411466072389 6594 READING 3064 0.983515
1411466072467 6594 READING 3061 0.986321
1411466072545 6594 READING 2335 0.983967
1411466072627 6594 READING 3068 0.982318
1411466072710 6594 READING 3039 0.970467
1411466072798 6594 READING 2989 0.975330
1411466072886 6594 READING 3026 0.970351
1411466072980 6594 READING 2964 0.947067
1411466073082 6594 READING 3002 0.881668
1411466073185 6594 READING 2948 0.911990
1411466073289 6594 READING 2978 0.909986
1411466073413 6594 READING 2935 0.799343
1411466073544 6594 READING 2963 0.754540
1411466073770 6594 READING 2985 0.471920
1411466073853 6594 FUNCTION lru lambda h: 61.2601 * (h ** 0.001)
1411466074002 6594 READING 2989 0.458140
1411466074284 6594 READING 3120 0.404445
1411466074597 6594 READING 3171 0.357284
1411466074848 6594 READING 3029 0.346279
1411466075098 6594 READING 2919 0.345322
1411466075338 6594 READING 3064 0.317705
1411466075621 6594 READING 3064 0.274598
1411466075791 6594 READING 3064 0.448606
1411466075870 6594 READING 3064 0.971877
1411466075949 6594 READING 3064 0.977036
1411466076028 6594 READING 3064 0.962410
1411466076110 6594 READING 3064 0.955035
1411466076195 6594 READING 2340 0.909357
1411466076281 6594 READING 3067 0.919625
1411466076371 6594 READING 3038 0.901306
1411466076482 6594 READING 3007 0.774454
1411466076603 6594 READING 3033 0.706926
1411466076735 6594 READING 2989 0.712425
1411466076994 6594 READING 3025 0.361632
1411466077180 6594 READING 2970 0.494570
1411466077468 6594 READING 3073 0.328762
1411466077725 6594 READING 3010 0.327080
1411466078881 6594 READING 2921 0.071893
1411466078960 6594 READING 3092 0.987770
1411466079038 6594 READING 3092 0.985613
1411466079116 6594 READING 3062 0.982305
1411466079195 6594 READING 3077 0.985618
1411466079278 6594 READING 3062 0.985459
1411466079363 6594 READING 3080 0.974856
1411466079454 6594 READING 3042 0.973512
1411466079546 6594 READING 3080 0.970256
1411466079647 6594 READING 3029 0.923103
1411466079746 6594 READING 3066 0.948882
1411466079853 6594 READING 3016 0.918101
1411466079983 6594 READING 3049 0.750799
1411466080128 6594 READING 3047 0.732028
1411466080312 6594 READING 3057 0.570580
1411466080499 6594 READING 3108 0.602527
1411466080845 6594 READING 3133 0.329713
1411466081105 6594 READING 3126 0.415601
1411466081365 6594 READING 3127 0.418673
1411466081599 6594 READING 3059 0.348241
1411466081907 6594 READING 2872 0.263245
1411466081987 6594 READING 3092 0.972556
1411466082066 6594 READING 2363 0.966908
1411466082147 6594 READING 3105 0.969505
1411466082229 6594 READING 2384 0.962143
1411466082316 6594 READING 3101 0.953073
1411466082405 6594 READING 3075 0.950278
1411466082504 6594 READING 3050 0.943280
1411466082608 6594 READING 3082 0.860493
1411466082740 6594 READING 3048 0.737729
1411466082889 6594 READING 3081 0.645623
1411466083051 6594 READING 3124 0.656605
1411466083200 6594 READING 3119 0.709035
1411466083853 6594 FUNCTION lru lambda h: 377.675 * (h ** 0.001)
1411466084173 6594 READING 3159 0.122977
1411466084293 6594 READING 3157 0.991776
1411466084408 6594 READING 3253 0.992359
1411466084525 6594 READING 2700 0.987941
1411466084643 6594 READING 3241 0.992079
1411466084761 6594 READING 3223 0.990146
1411466084890 6594 READING 3253 0.984917
1411466085016 6594 READING 3249 0.987230
1411466085154 6594 READING 3227 0.967331
1411466085296 6594 READING 3259 0.913097
1411466085463 6594 READING 3248 0.819173
1411466085631 6594 READING 3268 0.817838
1411466085845 6594 READING 3333 0.675714
1411466086222 6594 READING 3332 0.393822
1411466086467 6594 READING 3167 0.521387
1411466086710 6594 READING 3168 0.523366
1411466086935 6594 READING 3182 0.484919
1411466087161 6594 READING 3000 0.488109
1411466087376 6594 READING 3151 0.460213
1411466087651 6594 READING 2905 0.364598
1411466087752 6594 READING 3162 0.962173
1411466087852 6594 READING 2533 0.971590
1411466087959 6594 READING 3161 0.926115
1411466088072 6594 READING 3147 0.873855
1411466088181 6594 READING 3160 0.955981
1411466088315 6594 READING 3152 0.776560
1411466088570 6594 READING 3182 0.451513
1411466088835 6594 READING 3194 0.425512
1411466089076 6594 READING 3072 0.397840
1411466090137 6594 READING 3020 0.088982
1411466090217 6594 READING 3174 0.983963
1411466090298 6594 READING 2448 0.982483
1411466090380 6594 READING 3164 0.985149
1411466090463 6594 READING 3142 0.985446
1411466090556 6594 READING 3169 0.986837
1411466090647 6594 READING 3168 0.980577
1411466090744 6594 READING 3137 0.986596
1411466090842 6594 READING 3176 0.968142
1411466090947 6594 READING 3134 0.958162
1411466091053 6594 READING 3170 0.959897
1411466091175 6594 READING 3128 0.866125
1411466091294 6594 READING 3159 0.890587
1411466091416 6594 READING 3137 0.930341
1411466091535 6594 READING 3161 0.954269
1411466091689 6594 READING 3152 0.779363
1411466092016 6594 READING 3179 0.372205
1411466092241 6594 READING 3120 0.510328
1411466092488 6594 READING 3263 0.466778
1411466092710 6594 READING 3292 0.507487
1411466092933 6594 READING 3103 0.508296
1411466093146 6594 READING 3263 0.482255
1411466093415 6594 READING 3012 0.384471
1411466093519 6594 READING 3276 0.966042
1411466093624 6594 READING 2663 0.963500
1411466093734 6594 READING 3272 0.928012
1411466093844 6594 READING 3256 0.937650
1411466093853 6594 FUNCTION lru lambda h: 7.57918 * (h ** 0.001)
1411466093973 6594 READING 3283 0.843111
1411466094118 6594 READING 3268 0.748630
1411466094316 6594 READING 3314 0.602424
1411466094539 6594 READING 3305 0.538514
1411466095554 6594 READING 3327 0.121445
1411466095675 6594 READING 3420 0.991303
1411466095801 6594 READING 3385 0.988228
1411466095925 6594 READING 3412 0.989112
1411466096055 6594 READING 3410 0.986181
1411466096187 6594 READING 3436 0.989334
1411466096323 6594 READING 3432 0.978140
1411466096463 6594 READING 3459 0.970727
1411466096612 6594 READING 3463 0.945604
1411466096786 6594 READING 3490 0.816843
1411466097016 6594 READING 3511 0.655397
1411466097201 6594 READING 3528 0.814640
1411466097541 6594 READING 3576 0.454458
1411466097840 6594 READING 3560 0.507173
1411466098076 6594 READING 3234 0.493271
1411466098324 6594 READING 3216 0.466967
1411466098552 6594 READING 3376 0.480919
1411466098664 6594 READING 2797 0.981003
1411466098778 6594 READING 3365 0.976095
1411466098893 6594 READING 3354 0.964848
1411466099017 6594 READING 3376 0.934461
1411466099138 6594 READING 3368 0.953961
1411466099295 6594 READING 3405 0.785443
1411466099460 6594 READING 3396 0.750727
1411466099703 6594 READING 3442 0.540561
1411466100014 6594 READING 3423 0.434123
1411466101032 6594 READING 3250 0.107076
1411466101142 6594 READING 3382 0.989106
1411466101254 6594 READING 3337 0.988831
1411466101367 6594 READING 3366 0.988585
1411466101485 6594 READING 3361 0.986316
1411466101604 6594 READING 3391 0.982892
1411466101731 6594 READING 3396 0.979662
1411466101863 6594 READING 3427 0.953525
1411466102004 6594 READING 3428 0.945958
1411466102162 6594 READING 3460 0.846617
1411466102314 6594 READING 3483 0.944852
1411466102531 6594 READING 3499 0.662723
1411466102858 6594 READING 3543 0.464431
1411466103150 6594 READING 3574 0.516712
1411466103386 6594 READING 3230 0.483333
1411466103619 6594 READING 3215 0.481674
1411466103853 6594 FUNCTION lru lambda h: 3.75403 * (h ** 0.001)
1411466103902 6594 READING 3300 0.350079
1411466104002 6594 READING 3331 0.973685
1411466104105 6594 READING 3288 0.969538
1411466104207 6594 READING 3315 0.966727
1411466104316 6594 READING 3308 0.975966
1411466104429 6594 READING 3337 0.934102
1411466104553 6594 READING 3341 0.919906
1411466104700 6594 READING 3372 0.779859
1411466104832 6594 READING 3373 0.951123
1411466105009 6594 READING 3408 0.701101
1411466105316 6594 READING 3504 0.452969
1411466106346 6594 READING 3495 0.134009
1411466106471 6594 READING 3408 0.991041
1411466106591 6594 READING 3469 0.987964
1411466106715 6594 READING 3409 0.990218
1411466106837 6594 READING 3449 0.988226
1411466106970 6594 READING 3447 0.984946
1411466107104 6594 READING 3487 0.974100
1411466107249 6594 READING 3490 0.953319
1411466107405 6594 READING 3526 0.902154
1411466107568 6594 READING 3543 0.910942
1411466107892 6594 READING 3565 0.455987
1411466108196 6594 READING 3452 0.463459
1411466108488 6594 READING 3565 0.481519
1411466108729 6594 READING 3183 0.414075
1411466109042 6594 READING 3183 0.317919
1411466109134 6594 READING 3337 0.975590
1411466109227 6594 READING 2664 0.976117
1411466109321 6594 READING 3325 0.977319
1411466109416 6594 READING 3303 0.977184
1411466109519 6594 READING 3349 0.977265
1411466109623 6594 READING 3331 0.969182
1411466109740 6594 READING 3335 0.923897
1411466109857 6594 READING 3359 0.937873
1411466109997 6594 READING 3346 0.832410
1411466110123 6594 READING 3379 0.926761
1411466110412 6594 READING 3378 0.436783
1411466110731 6594 READING 3408 0.400548
1411466111000 6594 READING 3263 0.372894
1411466111267 6594 READING 3263 0.371297
1411466112314 6594 READING 3240 0.073964
1411466112392 6594 READING 3260 0.985150
1411466112471 6594 READING 3260 0.976464
1411466112551 6594 READING 2531 0.985939
1411466112631 6594 READING 3264 0.982985
1411466112712 6594 READING 3236 0.981795
1411466112804 6594 READING 3253 0.959540
1411466112894 6594 READING 3254 0.970329
1411466112992 6594 READING 3219 0.963153
1411466113093 6594 READING 3259 0.943422
1411466113200 6594 READING 3223 0.946681
1411466113309 6594 READING 3258 0.933613
1411466113424 6594 READING 3230 0.942355
1411466113540 6594 READING 3260 0.933047
1411466113678 6594 READING 3244 0.834596
1411466113854 6594 FUNCTION lru lambda h: 6.28265 * (h ** 0.001)
1411466113988 6594 READING 3271 0.376763
1411466114213 6594 READING 3191 0.482733
1411466114462 6594 READING 3333 0.437731
1411466114685 6594 READING 3359 0.476255
1411466114908 6594 READING 3165 0.477475
1411466115183 6594 READING 3326 0.344659
1411466115281 6594 READING 3348 0.977264
1411466115382 6594 READING 3305 0.967898
1411466115481 6594 READING 3331 0.968426
1411466115592 6594 READING 3327 0.929172
1411466115707 6594 READING 3355 0.893954
1411466115860 6594 READING 3358 0.740507
1411466116020 6594 READING 3389 0.705163
1411466116256 6594 READING 3448 0.533112
1411466116580 6594 READING 3458 0.385654
1411466116831 6594 READING 3295 0.421650
1411466117889 6594 READING 3311 0.098188
1411466117978 6594 READING 3404 0.987200
1411466118070 6594 READING 2726 0.986975
1411466118161 6594 READING 3404 0.985495
1411466118254 6594 READING 3384 0.980403
1411466118352 6594 READING 3417 0.986166
1411466118453 6594 READING 3398 0.980117
1411466118561 6594 READING 3402 0.979249
1411466118670 6594 READING 3424 0.960521
1411466118788 6594 READING 3402 0.949231
1411466118902 6594 READING 3436 0.982052
1411466119051 6594 READING 3407 0.794108
1411466119223 6594 READING 3442 0.689391
1411466119470 6594 READING 3495 0.510454
1411466119801 6594 READING 3505 0.394577
1411466120065 6594 READING 3366 0.397822
1411466120328 6594 READING 3366 0.396993
1411466120643 6594 READING 3295 0.245609
1411466120723 6594 READING 3349 0.967111
1411466120803 6594 READING 3301 0.968385
1411466120884 6594 READING 3329 0.964584
1411466120971 6594 READING 3322 0.969951
1411466121060 6594 READING 3352 0.973167
1411466121161 6594 READING 3344 0.963329
1411466121260 6594 READING 3382 0.955072
1411466121370 6594 READING 3361 0.930088
1411466121482 6594 READING 3399 0.908014
1411466121613 6594 READING 3382 0.851059
1411466121746 6594 READING 3414 0.826429
1411466121935 6594 READING 3418 0.640720
1411466122172 6594 READING 3445 0.511303
1411466122460 6594 READING 3541 0.455027
1411466122778 6594 READING 3591 0.408824
1411466123784 6594 READING 3255 0.091990
1411466123854 6594 FUNCTION lru lambda h: 18.0741 * (h ** 0.001)
1411466123879 6594 READING 3478 0.981094
1411466123974 6594 READING 3423 0.983862
1411466124070 6594 READING 3458 0.982050
1411466124173 6594 READING 3453 0.982682
1411466124279 6594 READING 3490 0.968193
1411466124391 6594 READING 3494 0.985794
1411466124513 6594 READING 3532 0.935737
1411466124638 6594 READING 3530 0.968600
1411466124796 6594 READING 3565 0.768684
1411466124954 6594 READING 3624 0.839301
1411466125194 6594 READING 3623 0.550425
1411466125492 6594 READING 3625 0.462309
1411466125796 6594 READING 3684 0.446549
1411466126121 6594 READING 3310 0.295458
1411466126220 6594 READING 3497 0.980261
1411466126322 6594 READING 3441 0.981179
1411466126423 6594 READING 3477 0.976591
1411466126531 6594 READING 3472 0.981076
1411466126639 6594 READING 3509 0.978444
1411466126762 6594 READING 3514 0.965926
1411466126885 6594 READING 3553 0.948312
1411466127025 6594 READING 3553 0.891951
1411466127178 6594 READING 3587 0.816897
1411466127345 6594 READING 3616 0.818443
1411466127629 6594 READING 3635 0.481154
1411466127927 6594 READING 3602 0.461558
1411466128216 6594 READING 3685 0.469402
1411466129210 6594 READING 3308 0.095829
1411466129308 6594 READING 3467 0.985103
1411466129408 6594 READING 3414 0.987501
1411466129508 6594 READING 3448 0.984642
1411466129614 6594 READING 3442 0.986090
1411466129722 6594 READING 3478 0.984386
1411466129840 6594 READING 3482 0.980454
1411466129962 6594 READING 3520 0.941945
1411466130094 6594 READING 3518 0.938186
1411466130247 6594 READING 3552 0.813818
1411466130407 6594 READING 3583 0.846812
1411466130665 6594 READING 3597 0.523971
1411466130967 6594 READING 3596 0.465494
1411466131265 6594 READING 3667 0.466197
1411466131507 6594 READING 3289 0.402687
1411466131823 6594 READING 3289 0.310467
1411466131914 6594 READING 3439 0.976955
1411466132005 6594 READING 2760 0.978721
1411466132098 6594 READING 3429 0.975568
1411466132192 6594 READING 3408 0.976307
1411466132294 6594 READING 3453 0.963314
1411466132396 6594 READING 3433 0.970078
1411466132512 6594 READING 3452 0.934297
1411466132627 6594 READING 3465 0.940194
1411466132767 6594 READING 3456 0.832182
1411466132891 6594 READING 3490 0.941338
1411466133084 6594 READING 3493 0.654385
1411466133337 6594 READING 3524 0.500943
1411466133639 6594 READING 3545 0.427058
1411466133854 6594 FUNCTION lru lambda h: 6.35306 * (h ** 0.001)
1411466133942 6594 READING 3616 0.416317
1411466134956 6594 READING 3231 0.086423
1411466135044 6594 READING 3438 0.984052
1411466135137 6594 READING 3379 0.985406
1411466135227 6594 READING 3417 0.981756
1411466135326 6594 READING 3411 0.980605
1411466135425 6594 READING 3451 0.977132
1411466135537 6594 READING 3452 0.976831
1411466135654 6594 READING 3490 0.928386
1411466135772 6594 READING 3484 0.979108
1411466135898 6594 READING 3518 0.949437
1411466136035 6594 READING 3510 0.907494
1411466136225 6594 READING 3542 0.653801
1411466136472 6594 READING 3583 0.534261
1411466136808 6594 READING 3598 0.401366
1411466137070 6594 READING 3392 0.373313
1411466137420 6594 READING 3393 0.288783
1411466137506 6594 READING 3441 0.979652
1411466137594 6594 READING 2743 0.978810
1411466137684 6594 READING 3424 0.975974
1411466137774 6594 READING 3400 0.973478
1411466137874 6594 READING 3441 0.971478
1411466137976 6594 READING 3436 0.955731
1411466138085 6594 READING 3426 0.970143
1411466138195 6594 READING 3464 0.964426
1411466138317 6594 READING 3446 0.938239
1411466138455 6594 READING 3483 0.827083
1411466138658 6594 READING 3497 0.615070
1411466138938 6594 READING 3515 0.445873
1411466139212 6594 READING 3541 0.458561
1411466139516 6594 READING 3615 0.408447
1411466140536 6594 READING 3226 0.082197
1411466140622 6594 READING 3474 0.979551
1411466140709 6594 READING 3412 0.983535
1411466140796 6594 READING 3452 0.983823
1411466140891 6594 READING 3446 0.985374
1411466140986 6594 READING 3488 0.982672
1411466141091 6594 READING 3483 0.978645
1411466141196 6594 READING 3523 0.986598
1411466141317 6594 READING 3501 0.920412
1411466141438 6594 READING 3541 0.921801
1411466141573 6594 READING 3529 0.884782
1411466141756 6594 READING 3560 0.656063
1411466142016 6594 READING 3599 0.487486
1411466142334 6594 READING 3622 0.410499
1411466142602 6594 READING 3440 0.372420
1411466142962 6594 READING 3441 0.275348
1411466143049 6594 READING 3485 0.980394
1411466143135 6594 READING 2779 0.982410
1411466143223 6594 READING 3469 0.980006
1411466143315 6594 READING 3445 0.977294
1411466143411 6594 READING 3485 0.982124
1411466143510 6594 READING 3481 0.967564
1411466143616 6594 READING 3468 0.976990
1411466143725 6594 READING 3507 0.958601
1411466143848 6594 READING 3485 0.914559
1411466143854 6594 FUNCTION lru lambda h: 0.0360566 * (h ** 0.362161)
1411466143971 6594 READING 3521 0.913426
1411466144111 6594 READING 3512 0.856377
1411466144250 6594 READING 3541 0.870517
1411466144463 6594 READING 3560 0.617437
1411466144819 6594 READING 3583 0.373670
1411466145069 6594 READING 3519 0.485733
1411466145317 6594 READING 3520 0.482764
1411466145545 6594 READING 3504 0.434477
1411466146551 6594 READING 3315 0.098228
1411466146646 6594 READING 3529 0.979392
1411466146742 6594 READING 2873 0.972199
1411466146840 6594 READING 3520 0.971214
1411466146938 6594 READING 3500 0.975356
1411466147044 6594 READING 3542 0.970302
1411466147152 6594 READING 3524 0.938427
1411466147270 6594 READING 3561 0.959892
1411466147421 6594 READING 3565 0.741691
1411466147595 6594 READING 3613 0.719176
1411466147812 6594 READING 3623 0.566730
1411466148098 6594 READING 3664 0.461779
1411466148463 6594 READING 3700 0.355910
1411466148575 6594 READING 3503 0.985552
1411466148686 6594 READING 3602 0.984435
1411466148800 6594 READING 3541 0.982323
1411466148914 6594 READING 3581 0.980885
1411466149036 6594 READING 3577 0.985490
1411466149160 6594 READING 3618 0.980217
1411466149296 6594 READING 3627 0.960513
1411466149438 6594 READING 3664 0.920792
1411466149617 6594 READING 3675 0.782547
1411466149769 6594 READING 3703 0.922580
1411466150080 6594 READING 3731 0.488212
1411466150424 6594 READING 3766 0.443566
1411466150667 6594 READING 3432 0.446883
1411466150912 6594 READING 3433 0.450134
1411466151888 6594 READING 3461 0.091174
1411466151978 6594 READING 3571 0.984409
1411466152071 6594 READING 3520 0.983797
1411466152164 6594 READING 3553 0.973950
1411466152264 6594 READING 3546 0.988868
1411466152366 6594 READING 3581 0.971107
1411466152478 6594 READING 3586 0.970203
1411466152596 6594 READING 3623 0.936845
1411466152734 6594 READING 3618 0.850405
1411466152891 6594 READING 3653 0.741876
1411466153134 6594 READING 3723 0.532720
1411466153268 6594 READING 3721 0.958974
1411466153552 6594 READING 3768 0.460158
1411466153855 6594 FUNCTION lru lambda h: 0.668893 * (h ** 0.00462367)
1411466153916 6594 READING 3747 0.351798
1411466154028 6594 READING 3593 0.985059
1411466154139 6594 READING 3670 0.983014
1411466154253 6594 READING 3603 0.981848
1411466154367 6594 READING 3647 0.981399
1411466154491 6594 READING 3645 0.981465
1411466154618 6594 READING 3690 0.982867
1411466154759 6594 READING 3692 0.927437
1411466154897 6594 READING 3730 0.949582
1411466155050 6594 READING 3736 0.911114
1411466155282 6594 READING 3767 0.605776
1411466155459 6594 READING 3787 0.821472
1411466155809 6594 READING 3840 0.419961
1411466156057 6594 READING 3597 0.491436
1411466157058 6594 READING 3597 0.123009
1411466157173 6594 READING 3774 0.988418
1411466157287 6594 READING 3206 0.986897
1411466157403 6594 READING 3761 0.989780
1411466157521 6594 READING 3740 0.971469
1411466157648 6594 READING 3789 0.971136
1411466157781 6594 READING 3771 0.915611
1411466157918 6594 READING 3824 0.969991
1411466158092 6594 READING 3815 0.756612
1411466158402 6594 READING 3880 0.458065
1411466158616 6594 READING 3877 0.664937
1411466158898 6594 READING 3741 0.434404
1411466159277 6594 READING 3809 0.319743
1411466159382 6594 READING 3629 0.983477
1411466159485 6594 READING 3719 0.983590
1411466159592 6594 READING 3656 0.979962
1411466159698 6594 READING 3697 0.978090
1411466159815 6594 READING 3693 0.979596
1411466159932 6594 READING 3735 0.965318
1411466160061 6594 READING 3740 0.948408
1411466160190 6594 READING 3777 0.955651
1411466160339 6594 READING 3776 0.882586
1411466160513 6594 READING 3809 0.760398
1411466160827 6594 READING 3882 0.452420
1411466161153 6594 READING 3879 0.438313
1411466161403 6594 READING 3551 0.407640
1411466161652 6594 READING 3551 0.406133
1411466162645 6594 READING 3555 0.079424
1411466162724 6594 READING 3630 0.982595
1411466162807 6594 READING 3576 0.985200
1411466162892 6594 READING 3611 0.981171
1411466162981 6594 READING 3603 0.983220
1411466163071 6594 READING 3640 0.975174
1411466163170 6594 READING 3634 0.983733
1411466163270 6594 READING 3672 0.971223
1411466163382 6594 READING 3649 0.936765
1411466163497 6594 READING 3688 0.907685
1411466163646 6594 READING 3671 0.756404
1411466163768 6594 READING 3702 0.923785
1411466163855 6594 FUNCTION lru lambda h: 0.326659 * (h ** 0.0962109)
1411466163951 6594 READING 3717 0.675320
1411466164168 6594 READING 3748 0.565699
1411466164476 6594 READING 3837 0.435582
1411466164793 6594 READING 3885 0.413574
1411466165113 6594 READING 3512 0.290108
1411466165207 6594 READING 3699 0.980595
1411466165306 6594 READING 3643 0.981977
1411466165403 6594 READING 3679 0.975931
1411466165508 6594 READING 3673 0.980908
1411466165615 6594 READING 3711 0.983681
1411466165733 6594 READING 3718 0.956849
1411466165856 6594 READING 3756 0.916796
1411466165990 6594 READING 3759 0.913512
1411466166139 6594 READING 3792 0.819577
1411466166342 6594 READING 3813 0.665800
1411466166653 6594 READING 3837 0.430387
1411466166925 6594 READING 3744 0.457994
1411466167982 6594 READING 3843 0.115931
1411466168087 6594 READING 3712 0.990257
1411466168191 6594 READING 3804 0.988243
1411466168299 6594 READING 3739 0.988179
1411466168406 6594 READING 3782 0.980731
1411466168523 6594 READING 3778 0.990522
1411466168641 6594 READING 3822 0.971038
1411466168768 6594 READING 3824 0.979274
1411466168897 6594 READING 3861 0.959000
1411466169067 6594 READING 3855 0.780378
1411466169207 6594 READING 3887 0.947295
1411466169447 6594 READING 3919 0.594121
1411466169780 6594 READING 3951 0.432217
1411466170036 6594 READING 3729 0.451309
1411466170290 6594 READING 3729 0.452112
1411466170596 6594 READING 3689 0.296345
1411466170687 6594 READING 3740 0.979979
1411466170783 6594 READING 3685 0.980802
1411466170877 6594 READING 3720 0.974176
1411466170979 6594 READING 3714 0.978992
1411466171082 6594 READING 3751 0.965011
1411466171195 6594 READING 3756 0.973499
1411466171316 6594 READING 3794 0.915258
1411466171441 6594 READING 3796 0.961924
1411466171586 6594 READING 3829 0.821377
1411466171727 6594 READING 3847 0.933898
1411466171894 6594 READING 3870 0.786437
1411466172217 6594 READING 3945 0.448992
1411466172490 6594 READING 3949 0.527415
1411466172724 6594 READING 3749 0.485432
1411466173017 6594 READING 3659 0.386420
1411466173126 6594 READING 3822 0.973955
1411466173234 6594 READING 3225 0.971320
1411466173345 6594 READING 3810 0.972476
1411466173456 6594 READING 3789 0.963414
1411466173579 6594 READING 3837 0.947098
1411466173706 6594 READING 3819 0.907880
1411466173855 6594 FUNCTION lru lambda h: 3.57335e+06 * (h ** 0.001)
1411466173855 6594 READING 3872 0.851978
1411466173995 6594 READING 3862 0.898631
1411466174159 6594 READING 3920 0.842646
1411466174410 6594 READING 3917 0.567794
1411466175491 6594 READING 3897 0.129913
1411466175630 6594 READING 4082 0.992835
1411466175771 6594 READING 4048 0.992327
1411466175913 6594 READING 4070 0.989695
1411466176060 6594 READING 4064 0.989228
1411466176209 6594 READING 4088 0.985695
1411466176367 6594 READING 4092 0.961812
1411466176525 6594 READING 4117 0.955831
1411466176703 6594 READING 4122 0.892767
1411466177062 6594 READING 4148 0.442635
1411466177282 6594 READING 3966 0.646528
1411466177608 6594 READING 3959 0.445366
1411466177866 6594 READING 3831 0.427457
1411466178202 6594 READING 3831 0.330164
1411466178302 6594 READING 3894 0.977528
1411466178403 6594 READING 3260 0.980058
1411466178505 6594 READING 3885 0.976226
1411466178609 6594 READING 3865 0.968720
1411466178720 6594 READING 3907 0.971153
1411466178831 6594 READING 3889 0.973605
1411466178956 6594 READING 3934 0.935271
1411466179078 6594 READING 3933 0.967275
1411466179251 6594 READING 3939 0.730923
1411466179491 6594 READING 3969 0.527668
1411466179787 6594 READING 3967 0.454157
1411466180090 6594 READING 4025 0.427040
1411466181106 6594 READING 3630 0.084318
1411466181193 6594 READING 3886 0.982428
1411466181283 6594 READING 3823 0.984685
1411466181372 6594 READING 3864 0.985068
1411466181470 6594 READING 3859 0.986818
1411466181568 6594 READING 3901 0.981631
1411466181676 6594 READING 3900 0.988329
1411466181786 6594 READING 3939 0.971570
1411466181904 6594 READING 3923 0.973253
1411466182026 6594 READING 3961 0.936824
1411466182154 6594 READING 3950 0.956988
1411466182284 6594 READING 3979 0.939096
1411466182494 6594 READING 3973 0.625058
1411466182811 6594 READING 4000 0.406226
1411466183083 6594 READING 3966 0.456242
1411466183374 6594 READING 4065 0.424667
1411466183623 6594 READING 3670 0.330346
1411466183855 6594 FUNCTION lru lambda h: 4899.12 * (h ** 0.001)
1411466183962 6594 READING 3671 0.242052
1411466184040 6594 READING 3844 0.978348
1411466184119 6594 READING 3844 0.975407
1411466184198 6594 READING 3801 0.972467
1411466184277 6594 READING 3823 0.963532
1411466184364 6594 READING 3813 0.977606
1411466184451 6594 READING 3836 0.964761
1411466184550 6594 READING 3816 0.939538
1411466184649 6594 READING 3855 0.933927
1411466184755 6594 READING 3831 0.942621
1411466184880 6594 READING 3867 0.811551
1411466185053 6594 READING 3863 0.638260
1411466185245 6594 READING 3889 0.575519
1411466185490 6594 READING 4010 0.499026
1411466185805 6594 READING 3911 0.390085
1411466186155 6594 READING 3822 0.268284
1411466186251 6594 READING 3925 0.975862
1411466186350 6594 READING 3865 0.974845
1411466186448 6594 READING 3904 0.972184
1411466186555 6594 READING 3899 0.975344
1411466186662 6594 READING 3939 0.970673
1411466186780 6594 READING 3944 0.972812
1411466186899 6594 READING 3985 0.953758
1411466187029 6594 READING 3988 0.959207
1411466187160 6594 READING 4024 0.944532
1411466187317 6594 READING 4027 0.852074
1411466187466 6594 READING 4059 0.897009
1411466187651 6594 READING 4083 0.771322
1411466188007 6594 READING 4109 0.413087
1411466188249 6594 READING 3953 0.536623
1411466188490 6594 READING 3953 0.536000
1411466188714 6594 READING 3976 0.497985
1411466189734 6594 READING 3788 0.110695
1411466189843 6594 READING 3961 0.983496
1411466189953 6594 READING 3375 0.977167
1411466190065 6594 READING 3952 0.977391
1411466190178 6594 READING 3934 0.972600
1411466190303 6594 READING 3973 0.922553
1411466190437 6594 READING 3957 0.873399
1411466190574 6594 READING 4008 0.923855
1411466190864 6594 READING 3994 0.434047
1411466190997 6594 READING 3909 0.892342
1411466191281 6594 READING 4014 0.427755
1411466191624 6594 READING 3852 0.306550
1411466191732 6594 READING 3947 0.985152
1411466191841 6594 READING 3888 0.984976
1411466191950 6594 READING 3926 0.980992
1411466192068 6594 READING 3922 0.982267
1411466192187 6594 READING 3962 0.981558
1411466192315 6594 READING 3966 0.978208
1411466192446 6594 READING 4006 0.959997
1411466192585 6594 READING 4018 0.980302
1411466192737 6594 READING 4052 0.894826
1411466192892 6594 READING 4080 0.945682
1411466193157 6594 READING 4100 0.561252
1411466193474 6594 READING 4064 0.462867
1411466193761 6594 READING 4135 0.506658
1411466193855 6594 FUNCTION lru lambda h: 1.27498 * (h ** 0.001)
1411466194000 6594 READING 3750 0.444717
1411466194310 6594 READING 3750 0.336445
1411466194410 6594 READING 3911 0.975321
1411466194508 6594 READING 3267 0.973814
1411466194611 6594 READING 3897 0.965147
1411466194714 6594 READING 3875 0.959178
1411466194825 6594 READING 3926 0.961519
1411466194941 6594 READING 3906 0.920524
1411466195067 6594 READING 3957 0.933919
1411466195201 6594 READING 3955 0.875640
1411466195341 6594 READING 3991 0.928534
1411466195513 6594 READING 4008 0.751200
1411466195833 6594 READING 4101 0.452531
1411466196909 6594 READING 4100 0.133384
1411466197036 6594 READING 4033 0.992004
1411466197161 6594 READING 4094 0.991361
1411466197290 6594 READING 4032 0.988467
1411466197418 6594 READING 4073 0.992195
1411466197555 6594 READING 4072 0.984415
1411466197694 6594 READING 4113 0.983423
1411466197851 6594 READING 4116 0.926276
1411466198011 6594 READING 4157 0.906852
1411466198200 6594 READING 4158 0.818296
1411466198368 6594 READING 4197 0.929897
1411466198730 6594 READING 4227 0.458191
1411466199002 6594 READING 4256 0.605061
1411466199227 6594 READING 3988 0.581111
1411466199500 6594 READING 3939 0.482457
1411466199629 6594 READING 4108 0.983857
1411466199759 6594 READING 3610 0.974169
1411466199892 6594 READING 4098 0.970633
1411466200031 6594 READING 4081 0.925332
1411466200170 6594 READING 4117 0.974737
1411466200375 6594 READING 4104 0.653889
1411466200523 6594 READING 4117 0.935714
1411466200748 6594 READING 4149 0.613218
1411466201089 6594 READING 4091 0.400505
1411466201331 6594 READING 3903 0.556387
1411466201468 6594 READING 4148 0.979677
1411466201606 6594 READING 3688 0.977081
1411466201745 6594 READING 4136 0.973587
1411466201887 6594 READING 4119 0.968100
1411466202035 6594 READING 4161 0.960967
1411466202184 6594 READING 4145 0.957741
1411466202379 6594 READING 4198 0.779209
1411466202539 6594 READING 4181 0.945130
1411466202776 6594 READING 4238 0.673796
1411466203132 6594 READING 4235 0.451880
1411466203856 6594 FUNCTION lru lambda h: 0.684137 * (h ** 0.0120447)
1411466204148 6594 READING 3969 0.125448
1411466204278 6594 READING 4219 0.990444
1411466204408 6594 READING 4169 0.991956
1411466204538 6594 READING 4202 0.989243
1411466204677 6594 READING 4199 0.985866
1411466204816 6594 READING 4233 0.975019
1411466204966 6594 READING 4235 0.967456
1411466205121 6594 READING 4269 0.929956
1411466205296 6594 READING 4270 0.867676
1411466205538 6594 READING 4307 0.633534
1411466205829 6594 READING 4301 0.527831
1411466206157 6594 READING 4349 0.475747
1411466206443 6594 READING 3966 0.400331
1411466206582 6594 READING 4157 0.825240
1411466206701 6594 READING 4103 0.987100
1411466206823 6594 READING 4142 0.985673
1411466206949 6594 READING 4140 0.982948
1411466207077 6594 READING 4177 0.976615
1411466207219 6594 READING 4173 0.937395
1411466207365 6594 READING 4211 0.905335
1411466207544 6594 READING 4206 0.791078
1411466207703 6594 READING 4247 0.896331
1411466208024 6594 READING 4263 0.469667
1411466208365 6594 READING 4303 0.450587
1411466208674 6594 READING 3969 0.356185
1411466208787 6594 READING 4136 0.980311
1411466208902 6594 READING 4083 0.980602
1411466209016 6594 READING 4117 0.976482
1411466209138 6594 READING 4113 0.976922
1411466209262 6594 READING 4149 0.968111
1411466209394 6594 READING 4152 0.976214
1411466209527 6594 READING 4189 0.966365
1411466209669 6594 READING 4198 0.975616
1411466209841 6594 READING 4235 0.800563
1411466210070 6594 READING 4278 0.648177
1411466210328 6594 READING 4294 0.575408
1411466210636 6594 READING 4162 0.430510
1411466211675 6594 READING 4233 0.126043
1411466211791 6594 READING 4042 0.991864
1411466211908 6594 READING 4116 0.988166
1411466212027 6594 READING 4069 0.989415
1411466212145 6594 READING 4099 0.986535
1411466212270 6594 READING 4094 0.979590
1411466212397 6594 READING 4126 0.974906
1411466212530 6594 READING 4130 0.979896
1411466212674 6594 READING 4162 0.914277
1411466212843 6594 READING 4164 0.836635
1411466213141 6594 READING 4201 0.470555
1411466213432 6594 READING 4106 0.460803
1411466213718 6594 READING 4202 0.466580
1411466213856 6594 FUNCTION lru lambda h: 362.019 * (h ** 0.001)
1411466214040 6594 READING 3820 0.289837
1411466214136 6594 READING 4011 0.980871
1411466214234 6594 READING 3955 0.981913
1411466214331 6594 READING 3991 0.979912
1411466214436 6594 READING 3985 0.982324
1411466214542 6594 READING 4024 0.978505
1411466214657 6594 READING 4028 0.974470
1411466214774 6594 READING 4068 0.974759
1411466214903 6594 READING 4068 0.954461
1411466215053 6594 READING 4106 0.822955
1411466215192 6594 READING 4142 0.966293
1411466215373 6594 READING 4157 0.744697
1411466215681 6594 READING 4252 0.475851
1411466215980 6594 READING 4246 0.496889
1411466216291 6594 READING 3942 0.347666
1411466216404 6594 READING 4094 0.982921
1411466216518 6594 READING 4036 0.979880
1411466216633 6594 READING 4074 0.976440
1411466216757 6594 READING 4070 0.977416
1411466216881 6594 READING 4109 0.970957
1411466217017 6594 READING 4112 0.958416
1411466217149 6594 READING 4153 0.978340
1411466217307 6594 READING 4162 0.886680
1411466217514 6594 READING 4201 0.678914
1411466217690 6594 READING 4236 0.832546
1411466218025 6594 READING 4269 0.442993
1411466219046 6594 READING 4027 0.122257
1411466219172 6594 READING 4293 0.990882
1411466219299 6594 READING 4240 0.991643
1411466219427 6594 READING 4275 0.989238
1411466219562 6594 READING 4272 0.987450
1411466219699 6594 READING 4308 0.983598
1411466219843 6594 READING 4311 0.986615
1411466219990 6594 READING 4347 0.965893
1411466220164 6594 READING 4351 0.869173
1411466220327 6594 READING 4388 0.931668
1411466220492 6594 READING 4396 0.966762
1411466220866 6594 READING 4431 0.436544
1411466221096 6594 READING 4211 0.605439
1411466221327 6594 READING 4211 0.608041
1411466221545 6594 READING 4279 0.579407
1411466221803 6594 READING 4079 0.493280
1411466221934 6594 READING 4303 0.973264
1411466222062 6594 READING 3808 0.980229
1411466222190 6594 READING 4294 0.986643
1411466222330 6594 READING 4278 0.924621
1411466222473 6594 READING 4310 0.936547
1411466222654 6594 READING 4300 0.741845
1411466222962 6594 READING 4354 0.461008
1411466223280 6594 READING 4343 0.451577
1411466223612 6594 READING 4032 0.309271
1411466223718 6594 READING 4188 0.976480
1411466223825 6594 READING 4135 0.979505
1411466223856 6594 FUNCTION lru lambda h: 0.0455168 * (h ** 0.340297)
1411466223932 6594 READING 4169 0.978402
1411466224046 6594 READING 4164 0.979834
1411466224161 6594 READING 4200 0.975469
1411466224285 6594 READING 4205 0.979254
1411466224412 6594 READING 4242 0.964950
1411466224555 6594 READING 4251 0.912633
1411466224691 6594 READING 4288 0.973676
1411466224892 6594 READING 4301 0.708126
1411466225034 6594 READING 4335 0.984746
1411466225360 6594 READING 4396 0.461418
1411466225647 6594 READING 4394 0.515630
1411466226662 6594 READING 4042 0.107563
1411466226773 6594 READING 4285 0.986148
1411466226886 6594 READING 4223 0.989287
1411466226999 6594 READING 4264 0.988016
1411466227121 6594 READING 4260 0.988176
1411466227243 6594 READING 4302 0.980951
1411466227382 6594 READING 4306 0.932886
1411466227516 6594 READING 4347 0.974608
1411466227669 6594 READING 4361 0.919800
1411466227836 6594 READING 4397 0.840405
1411466228167 6594 READING 4416 0.452384
1411466228506 6594 READING 4448 0.452584
1411466228749 6594 READING 4108 0.441415
1411466229066 6594 READING 4108 0.341504
1411466229165 6594 READING 4240 0.980851
1411466229265 6594 READING 3603 0.981174
1411466229368 6594 READING 4224 0.977649
1411466229470 6594 READING 4202 0.978410
1411466229583 6594 READING 4257 0.967052
1411466229698 6594 READING 4236 0.955581
1411466229826 6594 READING 4288 0.954079
1411466229957 6594 READING 4284 0.917815
1411466230102 6594 READING 4312 0.901112
1411466230298 6594 READING 4333 0.668292
1411466230619 6594 READING 4407 0.440854
1411466230950 6594 READING 4421 0.434210
1411466231261 6594 READING 4033 0.310270
1411466231362 6594 READING 4227 0.976101
1411466231464 6594 READING 4165 0.976615
1411466231566 6594 READING 4206 0.969568
1411466231677 6594 READING 4202 0.976351
1411466231791 6594 READING 4244 0.971815
1411466231914 6594 READING 4249 0.966232
1411466232036 6594 READING 4291 0.971033
1411466232177 6594 READING 4302 0.917644
1411466232320 6594 READING 4339 0.906077
1411466232489 6594 READING 4366 0.834004
1411466232683 6594 READING 4393 0.727503
1411466233014 6594 READING 4479 0.468818
1411466233303 6594 READING 4482 0.529671
1411466233856 6594 FUNCTION lru lambda h: 4.9771 * (h ** 0.001)
1411466234354 6594 READING 4134 0.108723
1411466234470 6594 READING 4375 0.989506
1411466234587 6594 READING 4322 0.988261
1411466234704 6594 READING 4357 0.988224
1411466234829 6594 READING 4354 0.988101
1411466234955 6594 READING 4389 0.978184
1411466235096 6594 READING 4391 0.945715
1411466235237 6594 READING 4428 0.935030
1411466235392 6594 READING 4435 0.919874
1411466235571 6594 READING 4471 0.794268
1411466235733 6594 READING 4514 0.949584
1411466236088 6594 READING 4536 0.437245
1411466236380 6594 READING 4316 0.450461
1411466236515 6594 READING 4461 0.987591
1411466236650 6594 READING 4408 0.988409
1411466236786 6594 READING 4443 0.983397
1411466236929 6594 READING 4441 0.980501
1411466237073 6594 READING 4476 0.986523
1411466237230 6594 READING 4480 0.952982
1411466237386 6594 READING 4515 0.958599
1411466237579 6594 READING 4521 0.821716
1411466237717 6594 DEATH 1351
