MemTotal:       16388228 kB
MemFree:        14804192 kB
Buffers:          157500 kB
Cached:           938668 kB
SwapCached:            0 kB
Active:           766944 kB
Inactive:         453356 kB
Active(anon):     124904 kB
Inactive(anon):    16568 kB
Active(file):     642040 kB
Inactive(file):   436788 kB
Unevictable:           0 kB
Mlocked:               0 kB
SwapTotal:      16728060 kB
SwapFree:       16728060 kB
Dirty:               136 kB
Writeback:             0 kB
AnonPages:        124144 kB
Mapped:            85676 kB
Shmem:             17344 kB
Slab:             209608 kB
SReclaimable:     190564 kB
SUnreclaim:        19044 kB
KernelStack:        1832 kB
PageTables:         8516 kB
NFS_Unstable:          0 kB
Bounce:                0 kB
WritebackTmp:          0 kB
CommitLimit:    24922172 kB
Committed_AS:     448580 kB
VmallocTotal:   34359738367 kB
VmallocUsed:      114452 kB
VmallocChunk:   34359576084 kB
HardwareCorrupted:     0 kB
AnonHugePages:     20480 kB
HugePages_Total:       0
HugePages_Free:        0
HugePages_Rsvd:        0
HugePages_Surp:        0
Hugepagesize:       2048 kB
DirectMap4k:       86980 kB
DirectMap2M:    16644096 kB
