F S UID        PID  PPID  C PRI  NI ADDR SZ WCHAN  STIME TTY          TIME CMD
4 S root         1     0  0  80   0 -  5899 poll_s Dec10 ?        00:00:00 /sbin/init
1 S root         2     0  0  80   0 -     0 kthrea Dec10 ?        00:00:00 [kthreadd]
1 S root         3     2  0 -40   - -     0 migrat Dec10 ?        00:00:00 [migration/0]
1 S root         4     2  0  80   0 -     0 ksofti Dec10 ?        00:00:00 [ksoftirqd/0]
1 S root         5     2  0 -40   - -     0 cpu_st Dec10 ?        00:00:00 [migration/0]
5 S root         6     2  0 -40   - -     0 watchd Dec10 ?        00:00:00 [watchdog/0]
1 S root         7     2  0 -40   - -     0 migrat Dec10 ?        00:00:00 [migration/1]
1 S root         8     2  0 -40   - -     0 cpu_st Dec10 ?        00:00:00 [migration/1]
1 S root         9     2  0  80   0 -     0 ksofti Dec10 ?        00:00:02 [ksoftirqd/1]
5 S root        10     2  0 -40   - -     0 watchd Dec10 ?        00:00:00 [watchdog/1]
1 S root        11     2  0 -40   - -     0 migrat Dec10 ?        00:00:00 [migration/2]
1 S root        12     2  0 -40   - -     0 cpu_st Dec10 ?        00:00:00 [migration/2]
1 S root        13     2  0  80   0 -     0 ksofti Dec10 ?        00:00:00 [ksoftirqd/2]
5 S root        14     2  0 -40   - -     0 watchd Dec10 ?        00:00:00 [watchdog/2]
1 S root        15     2  0 -40   - -     0 migrat Dec10 ?        00:00:00 [migration/3]
1 S root        16     2  0 -40   - -     0 cpu_st Dec10 ?        00:00:00 [migration/3]
1 S root        17     2  0  80   0 -     0 ksofti Dec10 ?        00:00:00 [ksoftirqd/3]
5 S root        18     2  0 -40   - -     0 watchd Dec10 ?        00:00:00 [watchdog/3]
1 S root        19     2  0  80   0 -     0 worker Dec10 ?        00:00:44 [events/0]
1 S root        20     2  0  80   0 -     0 worker Dec10 ?        00:00:19 [events/1]
1 S root        21     2  0  80   0 -     0 worker Dec10 ?        00:00:26 [events/2]
1 S root        22     2  0  80   0 -     0 worker Dec10 ?        00:00:23 [events/3]
1 S root        23     2  0  80   0 -     0 worker Dec10 ?        00:00:00 [cgroup]
1 S root        24     2  0  80   0 -     0 worker Dec10 ?        00:00:00 [khelper]
1 S root        25     2  0  80   0 -     0 worker Dec10 ?        00:00:00 [netns]
1 S root        26     2  0  80   0 -     0 async_ Dec10 ?        00:00:00 [async/mgr]
1 S root        27     2  0  80   0 -     0 worker Dec10 ?        00:00:00 [pm]
1 S root        28     2  0  80   0 -     0 bdi_sy Dec10 ?        00:00:03 [sync_supers]
1 S root        29     2  0  80   0 -     0 bdi_fo Dec10 ?        00:00:03 [bdi-default]
1 S root        30     2  0  80   0 -     0 worker Dec10 ?        00:00:00 [kintegrityd/0]
1 S root        31     2  0  80   0 -     0 worker Dec10 ?        00:00:00 [kintegrityd/1]
1 S root        32     2  0  80   0 -     0 worker Dec10 ?        00:00:00 [kintegrityd/2]
1 S root        33     2  0  80   0 -     0 worker Dec10 ?        00:00:00 [kintegrityd/3]
1 S root        34     2  0  80   0 -     0 worker Dec10 ?        00:00:00 [kblockd/0]
1 S root        35     2  0  80   0 -     0 worker Dec10 ?        00:00:00 [kblockd/1]
1 S root        36     2  0  80   0 -     0 worker Dec10 ?        00:00:00 [kblockd/2]
1 S root        37     2  0  80   0 -     0 worker Dec10 ?        00:00:09 [kblockd/3]
1 S root        38     2  0  80   0 -     0 worker Dec10 ?        00:00:00 [kacpid]
1 S root        39     2  0  80   0 -     0 worker Dec10 ?        00:00:00 [kacpi_notify]
1 S root        40     2  0  80   0 -     0 worker Dec10 ?        00:00:00 [kacpi_hotplug]
1 S root        41     2  0  80   0 -     0 worker Dec10 ?        00:00:00 [ata/0]
1 S root        42     2  0  80   0 -     0 worker Dec10 ?        00:00:00 [ata/1]
1 S root        43     2  0  80   0 -     0 worker Dec10 ?        00:00:00 [ata/2]
1 S root        44     2  0  80   0 -     0 worker Dec10 ?        00:00:00 [ata/3]
1 S root        45     2  0  80   0 -     0 worker Dec10 ?        00:00:00 [ata_aux]
1 S root        46     2  0  80   0 -     0 worker Dec10 ?        00:00:00 [ksuspend_usbd]
5 S root        47     2  0  80   0 -     0 hub_th Dec10 ?        00:00:00 [khubd]
1 S root        48     2  0  80   0 -     0 serio_ Dec10 ?        00:00:00 [kseriod]
1 S root        49     2  0  80   0 -     0 worker Dec10 ?        00:00:00 [md/0]
1 S root        50     2  0  80   0 -     0 worker Dec10 ?        00:00:00 [md/1]
1 S root        51     2  0  80   0 -     0 worker Dec10 ?        00:00:00 [md/2]
1 S root        52     2  0  80   0 -     0 worker Dec10 ?        00:00:00 [md/3]
1 S root        53     2  0  80   0 -     0 worker Dec10 ?        00:00:00 [md_misc/0]
1 S root        54     2  0  80   0 -     0 worker Dec10 ?        00:00:00 [md_misc/1]
1 S root        55     2  0  80   0 -     0 worker Dec10 ?        00:00:00 [md_misc/2]
1 S root        56     2  0  80   0 -     0 worker Dec10 ?        00:00:00 [md_misc/3]
1 S root        57     2  0  80   0 -     0 watchd Dec10 ?        00:00:00 [khungtaskd]
1 S root        58     2  0  80   0 -     0 kswapd Dec10 ?        00:00:00 [kswapd0]
1 S root        59     2  0  85   5 -     0 ksm_sc Dec10 ?        00:00:00 [ksmd]
1 S root        60     2  0  99  19 -     0 khugep Dec10 ?        00:00:02 [khugepaged]
1 S root        61     2  0  80   0 -     0 worker Dec10 ?        00:00:00 [aio/0]
1 S root        62     2  0  80   0 -     0 worker Dec10 ?        00:00:00 [aio/1]
1 S root        63     2  0  80   0 -     0 worker Dec10 ?        00:00:00 [aio/2]
1 S root        64     2  0  80   0 -     0 worker Dec10 ?        00:00:00 [aio/3]
1 S root        65     2  0  80   0 -     0 worker Dec10 ?        00:00:00 [crypto/0]
1 S root        66     2  0  80   0 -     0 worker Dec10 ?        00:00:00 [crypto/1]
1 S root        67     2  0  80   0 -     0 worker Dec10 ?        00:00:00 [crypto/2]
1 S root        68     2  0  80   0 -     0 worker Dec10 ?        00:00:00 [crypto/3]
1 S root        73     2  0  80   0 -     0 worker Dec10 ?        00:00:00 [kthrotld/0]
1 S root        74     2  0  80   0 -     0 worker Dec10 ?        00:00:00 [kthrotld/1]
1 S root        75     2  0  80   0 -     0 worker Dec10 ?        00:00:00 [kthrotld/2]
1 S root        76     2  0  80   0 -     0 worker Dec10 ?        00:00:00 [kthrotld/3]
1 S root        78     2  0  80   0 -     0 worker Dec10 ?        00:00:00 [kpsmoused]
1 S root        79     2  0  80   0 -     0 worker Dec10 ?        00:00:00 [usbhid_resumer]
1 S root       109     2  0  80   0 -     0 worker Dec10 ?        00:00:00 [kstriped]
1 S root       133     2  0  80   0 -     0 worker Dec10 ?        00:00:13 [i915]
1 S root       135     2  0  75  -5 -     0 slow_w Dec10 ?        00:00:00 [kslowd000]
1 S root       136     2  0  75  -5 -     0 slow_w Dec10 ?        00:00:00 [kslowd001]
1 S root       318     2  0  80   0 -     0 scsi_e Dec10 ?        00:00:00 [scsi_eh_0]
1 S root       319     2  0  80   0 -     0 scsi_e Dec10 ?        00:02:27 [scsi_eh_1]
1 S root       320     2  0  80   0 -     0 scsi_e Dec10 ?        00:00:00 [scsi_eh_2]
1 S root       321     2  0  80   0 -     0 scsi_e Dec10 ?        00:00:00 [scsi_eh_3]
1 S root       322     2  0  80   0 -     0 scsi_e Dec10 ?        00:00:00 [scsi_eh_4]
1 S root       323     2  0  80   0 -     0 scsi_e Dec10 ?        00:00:00 [scsi_eh_5]
1 S root       414     2  0  80   0 -     0 kjourn Dec10 ?        00:00:07 [jbd2/sda1-8]
1 S root       415     2  0  80   0 -     0 worker Dec10 ?        00:00:00 [ext4-dio-unwrit]
1 S root       416     2  0  80   0 -     0 worker Dec10 ?        00:00:00 [ext4-dio-unwrit]
1 S root       417     2  0  80   0 -     0 worker Dec10 ?        00:00:00 [ext4-dio-unwrit]
1 S root       418     2  0  80   0 -     0 worker Dec10 ?        00:00:00 [ext4-dio-unwrit]
1 S root       419     2  0  80   0 -     0 bdi_wr Dec10 ?        00:00:08 [flush-8:0]
5 S root       511     1  0  76  -4 -  2712 poll_s Dec10 ?        00:00:00 /sbin/udevd -d
1 S root       772     2  0  80   0 -     0 worker Dec10 ?        00:00:00 [hd-audio0]
1 S root      1483     2  0  80   0 -     0 kjourn Dec10 ?        00:00:00 [jbd2/sda3-8]
1 S root      1484     2  0  80   0 -     0 worker Dec10 ?        00:00:00 [ext4-dio-unwrit]
1 S root      1485     2  0  80   0 -     0 worker Dec10 ?        00:00:00 [ext4-dio-unwrit]
1 S root      1486     2  0  80   0 -     0 worker Dec10 ?        00:00:00 [ext4-dio-unwrit]
1 S root      1487     2  0  80   0 -     0 worker Dec10 ?        00:00:00 [ext4-dio-unwrit]
1 S root      1589     2  0  80   0 -     0 kaudit Dec10 ?        00:00:00 [kauditd]
1 S root      1815     1  0  80   0 -  3340 poll_s Dec10 ?        00:00:09 /sbin/dhclient -1 -q -cf /etc/dhcp/dhclient-em1.conf -lf /var/lib/dhclient/dhclient-em1.leases -pf /var/run/dhclient-em1.pid em1
5 S root      1861     1  0  80   0 -  2600 poll_s Dec10 ?        00:00:00 /sbin/portreserve
5 S root      1868     1  0  80   0 - 63860 poll_s Dec10 ?        00:00:00 /sbin/rsyslogd -i /var/run/syslogd.pid -c 5
5 S root      1880     1  0  80   0 -  2705 hrtime Dec10 ?        00:00:30 irqbalance
5 S rpc       1894     1  0  80   0 -  4759 poll_s Dec10 ?        00:00:36 rpcbind
5 S dbus      1904     1  0  80   0 -  6621 poll_s Dec10 ?        00:00:00 dbus-daemon --system
5 S rpcuser   1922     1  0  80   0 -  6472 poll_s Dec10 ?        00:00:00 rpc.statd
5 S root      1957     2  0  80   0 -     0 worker Dec10 ?        00:00:00 [rpciod/0]
5 S root      1958     2  0  80   0 -     0 worker Dec10 ?        00:00:01 [rpciod/1]
5 S root      1959     2  0  80   0 -     0 worker Dec10 ?        00:00:00 [rpciod/2]
1 S root      1960     2  0  80   0 -     0 worker Dec10 ?        00:00:00 [rpciod/3]
1 S root      1964     1  0  80   0 -  6296 ep_pol Dec10 ?        00:00:00 rpc.idmapd
5 S root      1978     1  0  80   0 - 53901 poll_s Dec10 ?        00:00:04 /usr/sbin/ypbind
1 S root      2034     1  0  80   0 -  1020 poll_s Dec10 ?        00:00:00 /usr/sbin/acpid
5 S 68        2043     1  0  80   0 - 10789 poll_s Dec10 ?        00:00:03 hald
0 S root      2044  2043  0  80   0 -  5082 poll_s Dec10 ?        00:00:00 hald-runner
0 S root      2088  2044  0  80   0 -  5610 poll_s Dec10 ?        00:00:00 /usr/libexec/hald-addon-generic-backlight
0 S root      2090  2044  0  80   0 -  5619 poll_s Dec10 ?        00:00:00 hald-addon-input: Listening on /dev/input/event5 /dev/input/event10 /dev/input/event0 /dev/input/event3 /dev/input/event1
4 S 68        2094  2044  0  80   0 -  4484 unix_s Dec10 ?        00:00:00 hald-addon-acpi: listening on acpid socket /var/run/acpid.socket
0 S root      2095  2044  0  80   0 -  5611 poll_s Dec10 ?        00:03:56 hald-addon-storage: polling /dev/sr0 (every 2 sec)
5 S root      2118     1  0  80   0 - 152406 rt_sig Dec10 ?       00:00:11 automount --pid-file /var/run/autofs.pid
5 S nscd      2137     1  0  80   0 - 225141 ep_pol Dec10 ?       00:00:02 /usr/sbin/nscd
1 S root      2195     1  0  80   0 -  1218 poll_s Dec10 ?        00:00:00 /usr/sbin/mcelog --daemon
5 S root      2207     1  0  80   0 - 16166 poll_s Dec10 ?        00:00:00 /usr/sbin/sshd
5 S root      2215     1  0  80   0 -  6216 poll_s Dec10 ?        00:00:00 xinetd -stayalive -pidfile /var/run/xinetd.pid
5 S ntp       2223     1  0  80   0 -  6240 poll_s Dec10 ?        00:00:00 ntpd -u ntp:ntp -p /var/run/ntpd.pid -g
4 S qmails    2235     1  0  80   0 -   511 poll_s Dec10 ?        00:00:00 qmail-send
4 S qmaill    2253  2235  0  80   0 -   503 pipe_w Dec10 ?        00:00:00 splogger qmail
0 S root      2254  2235  0  80   0 -   504 poll_s Dec10 ?        00:00:00 qmail-lspawn ./Mailbox
4 S qmailr    2255  2235  0  80   0 -   503 poll_s Dec10 ?        00:00:00 qmail-rspawn
4 S qmailq    2256  2235  0  80   0 -   501 pipe_w Dec10 ?        00:00:00 qmail-clean
1 S root      2260     1  0  80   0 - 27626 poll_s Dec10 ?        00:00:00 /usr/sbin/abrtd
1 S root      2268     1  0  80   0 - 28838 hrtime Dec10 ?        00:00:01 crond
5 S root      2279     1  0  80   0 -  4954 hrtime Dec10 ?        00:00:00 /usr/sbin/atd
1 S root      2301     1  0  80   0 - 15565 ep_pol Dec10 ?        00:00:01 /usr/sbin/certmonger -S -p /var/run/certmonger.pid
4 S root      2324     1  0  80   0 - 33602 poll_s Dec10 ?        00:00:00 /usr/sbin/gdm-binary -nodaemon
4 S root      2329     1  0  80   0 -  1016 n_tty_ Dec10 tty2     00:00:00 /sbin/mingetty /dev/tty2
4 S root      2331     1  0  80   0 -  1016 n_tty_ Dec10 tty3     00:00:00 /sbin/mingetty /dev/tty3
4 S root      2333     1  0  80   0 -  1016 n_tty_ Dec10 tty4     00:00:00 /sbin/mingetty /dev/tty4
4 S root      2335     1  0  80   0 -  1016 n_tty_ Dec10 tty5     00:00:00 /sbin/mingetty /dev/tty5
4 S root      2337     1  0  80   0 -  1016 n_tty_ Dec10 tty6     00:00:00 /sbin/mingetty /dev/tty6
4 S root      2388     1  0  80   0 - 521782 poll_s Dec10 ?       00:00:00 /usr/sbin/console-kit-daemon --no-daemon
4 S root      2464     1  0  80   0 - 12470 poll_s Dec10 ?        00:00:00 /usr/libexec/devkit-power-daemon
4 S root      2524     1  0  80   0 - 12747 poll_s Dec10 ?        00:00:00 /usr/libexec/polkit-1/polkitd
4 S rtkit     2536     1  0  81   1 - 41641 poll_s Dec10 ?        00:00:13 /usr/libexec/rtkit-daemon
1 S root     17570     2  0  80   0 -     0 worker Dec11 ?        00:00:01 [nfsiod]
4 S root     17694     1  0  80   0 - 13919 poll_s Dec11 ?        00:00:26 /usr/libexec/udisks-daemon
1 S root     17695 17694  0  80   0 - 11277 poll_s Dec11 ?        00:00:00 udisks-daemon: not polling any devices
4 S root     19814 19890  0  80   0 - 45436 poll_s Dec20 ?        00:00:00 pam: gdm-password
0 S root     19890  2324  0  80   0 - 41308 poll_s Dec11 ?        00:00:00 /usr/libexec/gdm-simple-slave --display-id /org/gnome/DisplayManager/Display1
4 S root     19892 19890  0  80   0 - 25107 poll_s Dec11 tty7     00:00:39 /usr/bin/Xorg :0 -br -verbose -audit 4 -auth /var/run/gdm/auth-for-gdm-O2DJTz/database -nolisten tcp
1 S gdm      19911     1  0  80   0 -  4537 poll_s Dec11 ?        00:00:00 /usr/bin/dbus-launch --exit-with-session
1 S gdm      19912     1  0  80   0 -  4964 poll_s Dec11 ?        00:00:00 /bin/dbus-daemon --fork --print-pid 5 --print-address 7 --session
4 S gdm      19913 19890  0  80   0 - 67465 poll_s Dec11 ?        00:00:00 /usr/bin/gnome-session --autostart=/usr/share/gdm/autostart/LoginWindow/
0 S gdm      19916     1  0  80   0 - 33471 poll_s Dec11 ?        00:00:02 /usr/libexec/gconfd-2
0 S gdm      19920 19913  0  80   0 - 29625 poll_s Dec11 ?        00:00:02 /usr/libexec/at-spi-registryd
1 S gdm      19921     1  0  80   0 - 94132 poll_s Dec11 ?        00:05:48 /usr/libexec/gnome-settings-daemon --gconf-prefix=/apps/gdm/simple-greeter/settings-manager-plugins
0 S gdm      19923     1  0  80   0 - 89679 poll_s Dec11 ?        00:00:00 /usr/libexec/bonobo-activation-server --ac-activate --ior-output-fd=12
0 S gdm      19930     1  0  80   0 - 33826 poll_s Dec11 ?        00:00:00 /usr/libexec/gvfsd
0 S gdm      19931 19913  0  80   0 - 119321 poll_s Dec11 ?       00:00:03 metacity
0 S gdm      19932 19913  0  80   0 - 102666 poll_s Dec11 ?       00:00:11 /usr/libexec/gdm-simple-greeter
0 S gdm      19935 19913  0  80   0 - 77205 poll_s Dec11 ?        00:00:07 gnome-power-manager
0 S gdm      19936 19913  0  80   0 - 62206 poll_s Dec11 ?        00:00:00 /usr/libexec/polkit-gnome-authentication-agent-1
1 S gdm      19945     1  0  69 -11 - 107476 poll_s Dec11 ?       00:00:00 /usr/bin/pulseaudio --start --log-target=syslog
5 S root     19956   511  0  78  -2 -  2711 poll_s Dec11 ?        00:00:00 /sbin/udevd -d
5 S root     19957   511  0  78  -2 -  2711 poll_s Dec11 ?        00:00:00 /sbin/udevd -d
0 S jenkins  23049     1  0  80   0 - 874214 futex_ Dec16 ?       00:22:52 /etc/alternatives/java -Dcom.sun.akuma.Daemon=daemonized -Djava.awt.headless=true -DJENKINS_HOME=/var/lib/jenkins -jar /usr/lib/jenkins/jenkins.war --logfile=/var/log/jenkins/jenkins.log --webroot=/var/cache/jenkins/war --daemon --httpPort=8080 --ajp13Port=8009 --debug=5 --handlerCountMax=100 --handlerCountMaxIdle=20
1 S root     28399     2  0  80   0 -     0 svc_re 13:32 ?        00:00:00 [lockd]
1 S callumc  28482     1  0  80   0 - 29816 poll_s 13:35 ?        00:00:00 SCREEN -d -m bash -l -c distribute_run /users/staff/callumc/distributed_run /users/staff/callumc/distributed_run/callum@CallumLaptop_2013_12_21_13_34_55 8 23 /users/staff/callumc/distributed_run/callum@CallumLaptop_2013_12_21_13_34_55/input_08 economics_memory_code/fixed_time/measure_remoteHarness.sh economics_memory_code/fixed_time/measure_callum@CallumLaptop_2013_12_21_13_34_25 5 cjcameron7@gmail.com
0 S callumc  28483 28482  1  80   0 - 27295 wait   13:35 pts/0    00:00:00 /bin/bash /users/staff/callumc/linuxconfig/LinuxBin/distribute_run /users/staff/callumc/distributed_run /users/staff/callumc/distributed_run/callum@CallumLaptop_2013_12_21_13_34_55 8 23 /users/staff/callumc/distributed_run/callum@CallumLaptop_2013_12_21_13_34_55/input_08 economics_memory_code/fixed_time/measure_remoteHarness.sh economics_memory_code/fixed_time/measure_callum@CallumLaptop_2013_12_21_13_34_25 5 cjcameron7@gmail.com
0 S callumc  28523 28483  0  80   0 - 27038 wait   13:35 pts/0    00:00:00 /bin/bash economics_memory_code/fixed_time/measure_remoteHarness.sh economics_memory_code/fixed_time/measure_callum@CallumLaptop_2013_12_21_13_34_25 5 cjcameron7@gmail.com
0 S callumc  28532 28523  0  80   0 - 27038 wait   13:35 pts/0    00:00:00 /bin/bash /users/staff/callumc/economics_memory_code/fixed_time/../machineInfo.sh /users/staff/callumc/economics_memory_code/fixed_time/measure_callum@CallumLaptop_2013_12_21_13_34_25
0 R callumc  28554 28532  0  80   0 - 27335 -      13:35 pts/0    00:00:00 ps -elf
