economemd
    total memory: 2470 MB
    timer interval: 10 s
    timer start state: running
    utility model: root

    caches:
        lru

    force utility function validity: yes
    make recommendations: yes
    equal recommendations: no

    reading receiver name: vengerov
    command receiver name: vengerov

    dump file: economemd.dump.log
    log file: /home/callum/economics_memory_code/dynamic_sizing/data/output/timerComparisonMany_2014_10_07_10_29_12/sub10_timerComparisonSingle/sub3_timeBenchmarkDaemon/daemon_run09_log.txt
    log readings: yes
    log functions: yes

PyOptimiser: initialising...
PyOptimiser: initialised
ReadingThread: starting
TimerThread: starting
CommandThread: starting
Recommendation: no clients; no recommendation
Recommendation: no clients; no recommendation
Reading from 21695: heap size 9 MB, throughput 0.990603
Clients: 1
Client 21695 has a minimum heap size of 12 MB
Reading from 21694: heap size 9 MB, throughput 0.973952
Clients: 2
Client 21694 has a minimum heap size of 1223 MB
Reading from 21694: heap size 9 MB, throughput 0.970891
Reading from 21695: heap size 9 MB, throughput 0.991352
Reading from 21695: heap size 9 MB, throughput 0.987089
Reading from 21694: heap size 11 MB, throughput 0.974842
Reading from 21695: heap size 9 MB, throughput 0.978276
Reading from 21694: heap size 11 MB, throughput 0.976711
Reading from 21695: heap size 11 MB, throughput 0.978234
Reading from 21695: heap size 11 MB, throughput 0.973865
Reading from 21694: heap size 15 MB, throughput 0.927492
Reading from 21694: heap size 19 MB, throughput 0.874648
Reading from 21695: heap size 16 MB, throughput 0.980822
Reading from 21694: heap size 25 MB, throughput 0.754788
Reading from 21695: heap size 16 MB, throughput 0.981699
Reading from 21694: heap size 29 MB, throughput 0.742848
Reading from 21694: heap size 42 MB, throughput 0.692338
Reading from 21694: heap size 44 MB, throughput 0.487879
Reading from 21695: heap size 23 MB, throughput 0.975393
Reading from 21694: heap size 48 MB, throughput 0.576377
Reading from 21694: heap size 61 MB, throughput 0.0149417
Reading from 21694: heap size 70 MB, throughput 0.85367
Reading from 21695: heap size 24 MB, throughput 0.946131
Reading from 21694: heap size 72 MB, throughput 0.489097
Reading from 21694: heap size 93 MB, throughput 0.781379
Reading from 21694: heap size 98 MB, throughput 0.785623
Reading from 21695: heap size 39 MB, throughput 0.936695
Reading from 21695: heap size 40 MB, throughput 0.949343
Reading from 21694: heap size 103 MB, throughput 0.449031
Reading from 21694: heap size 126 MB, throughput 0.775295
Reading from 21695: heap size 45 MB, throughput 0.965197
Reading from 21694: heap size 137 MB, throughput 0.685779
Reading from 21695: heap size 46 MB, throughput 0.973208
Reading from 21694: heap size 138 MB, throughput 0.70041
Reading from 21695: heap size 50 MB, throughput 0.979868
Reading from 21695: heap size 51 MB, throughput 0.960592
Reading from 21695: heap size 58 MB, throughput 0.966472
Reading from 21695: heap size 58 MB, throughput 0.954083
Reading from 21694: heap size 143 MB, throughput 0.322963
Reading from 21695: heap size 66 MB, throughput 0.853408
Reading from 21694: heap size 181 MB, throughput 0.666857
Reading from 21694: heap size 189 MB, throughput 0.677557
Reading from 21695: heap size 66 MB, throughput 0.865374
Reading from 21694: heap size 193 MB, throughput 0.70822
Reading from 21694: heap size 200 MB, throughput 0.646471
Reading from 21695: heap size 76 MB, throughput 0.933351
Reading from 21694: heap size 209 MB, throughput 0.414423
Reading from 21694: heap size 255 MB, throughput 0.638688
Reading from 21695: heap size 77 MB, throughput 0.961202
Reading from 21694: heap size 261 MB, throughput 0.676968
Reading from 21694: heap size 265 MB, throughput 0.692249
Reading from 21694: heap size 271 MB, throughput 0.63976
Reading from 21694: heap size 276 MB, throughput 0.626456
Reading from 21694: heap size 287 MB, throughput 0.608856
Reading from 21695: heap size 86 MB, throughput 0.983295
Reading from 21694: heap size 296 MB, throughput 0.441714
Reading from 21695: heap size 87 MB, throughput 0.98865
Reading from 21694: heap size 343 MB, throughput 0.58705
Reading from 21694: heap size 353 MB, throughput 0.623402
Reading from 21694: heap size 356 MB, throughput 0.570044
Reading from 21695: heap size 96 MB, throughput 0.990512
Reading from 21694: heap size 363 MB, throughput 0.29711
Reading from 21694: heap size 409 MB, throughput 0.504204
Reading from 21695: heap size 97 MB, throughput 0.992395
Reading from 21694: heap size 404 MB, throughput 0.558068
Reading from 21694: heap size 411 MB, throughput 0.557997
Reading from 21695: heap size 103 MB, throughput 0.993693
Reading from 21694: heap size 414 MB, throughput 0.280904
Reading from 21694: heap size 465 MB, throughput 0.530211
Reading from 21695: heap size 103 MB, throughput 0.994873
Reading from 21694: heap size 467 MB, throughput 0.59098
Reading from 21694: heap size 471 MB, throughput 0.606392
Numeric result:
Recommendation: 2 clients, utility 0.829681:
    h1: 1233.18 MB (U(h) = 0.972349*h^0.001)
    h2: 1236.82 MB (U(h) = 0.841212*h^0.001)
Recommendation: 2 clients, utility 0.829681:
    h1: 1235 MB (U(h) = 0.972349*h^0.001)
    h2: 1235 MB (U(h) = 0.841212*h^0.001)
Reading from 21694: heap size 473 MB, throughput 0.602194
Reading from 21694: heap size 479 MB, throughput 0.58602
Reading from 21695: heap size 107 MB, throughput 0.995799
Reading from 21694: heap size 486 MB, throughput 0.572008
Reading from 21694: heap size 495 MB, throughput 0.518369
Reading from 21695: heap size 108 MB, throughput 0.995688
Reading from 21694: heap size 502 MB, throughput 0.3783
Reading from 21695: heap size 113 MB, throughput 0.995294
Reading from 21694: heap size 559 MB, throughput 0.459796
Reading from 21694: heap size 574 MB, throughput 0.488998
Reading from 21694: heap size 576 MB, throughput 0.518847
Reading from 21695: heap size 113 MB, throughput 0.99606
Reading from 21695: heap size 117 MB, throughput 0.990823
Reading from 21694: heap size 581 MB, throughput 0.239146
Reading from 21694: heap size 641 MB, throughput 0.479039
Reading from 21694: heap size 649 MB, throughput 0.491418
Reading from 21695: heap size 118 MB, throughput 0.990271
Reading from 21694: heap size 652 MB, throughput 0.490668
Reading from 21695: heap size 121 MB, throughput 0.987877
Reading from 21694: heap size 659 MB, throughput 0.266665
Reading from 21695: heap size 121 MB, throughput 0.989883
Reading from 21694: heap size 723 MB, throughput 0.729184
Reading from 21695: heap size 124 MB, throughput 0.993455
Reading from 21694: heap size 732 MB, throughput 0.812445
Reading from 21695: heap size 124 MB, throughput 0.995103
Reading from 21694: heap size 734 MB, throughput 0.808724
Reading from 21694: heap size 745 MB, throughput 0.784965
Reading from 21695: heap size 127 MB, throughput 0.996503
Reading from 21695: heap size 127 MB, throughput 0.996972
Numeric result:
Recommendation: 2 clients, utility 0.797266:
    h1: 1247 MB (U(h) = 0.936378*h^0.00924957)
    h2: 1223 MB (U(h) = 0.79146*h^0.001)
Recommendation: 2 clients, utility 0.797266:
    h1: 1247 MB (U(h) = 0.936378*h^0.00924957)
    h2: 1223 MB (U(h) = 0.79146*h^0.001)
Reading from 21695: heap size 130 MB, throughput 0.997227
Reading from 21694: heap size 755 MB, throughput 0.52376
Reading from 21694: heap size 832 MB, throughput 0.572989
Reading from 21694: heap size 733 MB, throughput 0.529306
Reading from 21695: heap size 130 MB, throughput 0.995666
Reading from 21694: heap size 816 MB, throughput 0.757579
Reading from 21694: heap size 823 MB, throughput 0.683679
Reading from 21694: heap size 812 MB, throughput 0.639334
Reading from 21695: heap size 132 MB, throughput 0.99673
Reading from 21695: heap size 132 MB, throughput 0.997136
Reading from 21694: heap size 818 MB, throughput 0.409013
Reading from 21694: heap size 886 MB, throughput 0.698245
Reading from 21695: heap size 134 MB, throughput 0.996158
Reading from 21694: heap size 889 MB, throughput 0.739126
Reading from 21695: heap size 134 MB, throughput 0.990955
Reading from 21694: heap size 898 MB, throughput 0.744321
Reading from 21695: heap size 139 MB, throughput 0.994487
Reading from 21695: heap size 139 MB, throughput 0.993307
Reading from 21694: heap size 899 MB, throughput 0.442703
Reading from 21694: heap size 976 MB, throughput 0.703429
Reading from 21695: heap size 146 MB, throughput 0.995792
Reading from 21694: heap size 981 MB, throughput 0.739969
Reading from 21694: heap size 988 MB, throughput 0.778221
Reading from 21694: heap size 990 MB, throughput 0.818727
Reading from 21694: heap size 998 MB, throughput 0.833038
Reading from 21695: heap size 146 MB, throughput 0.996627
Reading from 21694: heap size 999 MB, throughput 0.853176
Reading from 21694: heap size 998 MB, throughput 0.865756
Reading from 21695: heap size 150 MB, throughput 0.997065
Reading from 21695: heap size 151 MB, throughput 0.997022
Reading from 21694: heap size 1002 MB, throughput 0.957972
Reading from 21694: heap size 983 MB, throughput 0.93966
Reading from 21694: heap size 994 MB, throughput 0.897013
Reading from 21695: heap size 156 MB, throughput 0.997473
Reading from 21694: heap size 1001 MB, throughput 0.86554
Numeric result:
Recommendation: 2 clients, utility 0.598575:
    h1: 1247 MB (U(h) = 0.922423*h^0.0135932)
    h2: 1223 MB (U(h) = 0.562275*h^0.00652872)
Recommendation: 2 clients, utility 0.598575:
    h1: 1247 MB (U(h) = 0.922423*h^0.0135932)
    h2: 1223 MB (U(h) = 0.562275*h^0.00652872)
Reading from 21694: heap size 1001 MB, throughput 0.840374
Reading from 21694: heap size 1005 MB, throughput 0.812111
Reading from 21694: heap size 1007 MB, throughput 0.814596
Reading from 21695: heap size 156 MB, throughput 0.997425
Reading from 21695: heap size 160 MB, throughput 0.997518
Reading from 21694: heap size 1001 MB, throughput 0.688806
Reading from 21695: heap size 161 MB, throughput 0.997244
Reading from 21694: heap size 1120 MB, throughput 0.832244
Reading from 21694: heap size 1131 MB, throughput 0.891343
Reading from 21694: heap size 1133 MB, throughput 0.88398
Reading from 21695: heap size 164 MB, throughput 0.997655
Reading from 21694: heap size 1133 MB, throughput 0.835054
Reading from 21694: heap size 1140 MB, throughput 0.800414
Reading from 21694: heap size 1142 MB, throughput 0.778217
Reading from 21694: heap size 1144 MB, throughput 0.756658
Reading from 21694: heap size 1156 MB, throughput 0.748852
Reading from 21695: heap size 165 MB, throughput 0.997679
Reading from 21694: heap size 1156 MB, throughput 0.743188
Reading from 21694: heap size 1170 MB, throughput 0.717472
Reading from 21695: heap size 169 MB, throughput 0.997692
Reading from 21694: heap size 1171 MB, throughput 0.87815
Reading from 21695: heap size 169 MB, throughput 0.997811
Reading from 21695: heap size 173 MB, throughput 0.99747
Reading from 21695: heap size 173 MB, throughput 0.992108
Numeric result:
Recommendation: 2 clients, utility 0.650897:
    h1: 723.828 MB (U(h) = 0.917386*h^0.0151135)
    h2: 1746.17 MB (U(h) = 0.489248*h^0.0364616)
Recommendation: 2 clients, utility 0.650897:
    h1: 723.805 MB (U(h) = 0.917386*h^0.0151135)
    h2: 1746.2 MB (U(h) = 0.489248*h^0.0364616)
Reading from 21694: heap size 1188 MB, throughput 0.966201
Reading from 21695: heap size 177 MB, throughput 0.991275
Reading from 21695: heap size 177 MB, throughput 0.994097
Reading from 21695: heap size 180 MB, throughput 0.994968
Reading from 21695: heap size 180 MB, throughput 0.99011
Reading from 21694: heap size 1192 MB, throughput 0.973916
Reading from 21695: heap size 184 MB, throughput 0.992864
Reading from 21695: heap size 185 MB, throughput 0.995463
Reading from 21695: heap size 191 MB, throughput 0.996694
Reading from 21695: heap size 191 MB, throughput 0.996769
Reading from 21694: heap size 1200 MB, throughput 0.97641
Reading from 21695: heap size 197 MB, throughput 0.996854
Numeric result:
Recommendation: 2 clients, utility 0.672426:
    h1: 601.813 MB (U(h) = 0.916374*h^0.0154088)
    h2: 1868.19 MB (U(h) = 0.463724*h^0.0478337)
Recommendation: 2 clients, utility 0.672426:
    h1: 601.807 MB (U(h) = 0.916374*h^0.0154088)
    h2: 1868.19 MB (U(h) = 0.463724*h^0.0478337)
Reading from 21695: heap size 197 MB, throughput 0.997173
Reading from 21695: heap size 201 MB, throughput 0.997648
Reading from 21694: heap size 1205 MB, throughput 0.977242
Reading from 21695: heap size 202 MB, throughput 0.997122
Reading from 21695: heap size 206 MB, throughput 0.996932
Reading from 21695: heap size 206 MB, throughput 0.997199
Reading from 21694: heap size 1197 MB, throughput 0.977266
Reading from 21695: heap size 211 MB, throughput 0.99764
Reading from 21695: heap size 211 MB, throughput 0.99751
Reading from 21695: heap size 216 MB, throughput 0.997165
Numeric result:
Recommendation: 2 clients, utility 0.686288:
    h1: 550.722 MB (U(h) = 0.915298*h^0.015717)
    h2: 1919.28 MB (U(h) = 0.448792*h^0.0547707)
Recommendation: 2 clients, utility 0.686288:
    h1: 550.748 MB (U(h) = 0.915298*h^0.015717)
    h2: 1919.25 MB (U(h) = 0.448792*h^0.0547707)
Reading from 21694: heap size 1205 MB, throughput 0.97876
Reading from 21695: heap size 216 MB, throughput 0.994126
Reading from 21695: heap size 221 MB, throughput 0.985254
Reading from 21695: heap size 221 MB, throughput 0.989791
Reading from 21694: heap size 1192 MB, throughput 0.975746
Reading from 21695: heap size 229 MB, throughput 0.99494
Reading from 21695: heap size 230 MB, throughput 0.996536
Reading from 21695: heap size 235 MB, throughput 0.997421
Reading from 21694: heap size 1200 MB, throughput 0.975288
Reading from 21695: heap size 236 MB, throughput 0.997805
Numeric result:
Recommendation: 2 clients, utility 0.685853:
    h1: 543.244 MB (U(h) = 0.916262*h^0.0154452)
    h2: 1926.76 MB (U(h) = 0.448771*h^0.0547804)
Recommendation: 2 clients, utility 0.685853:
    h1: 543.244 MB (U(h) = 0.916262*h^0.0154452)
    h2: 1926.76 MB (U(h) = 0.448771*h^0.0547804)
Reading from 21695: heap size 241 MB, throughput 0.997742
Reading from 21695: heap size 242 MB, throughput 0.997318
Reading from 21694: heap size 1193 MB, throughput 0.977397
Reading from 21695: heap size 248 MB, throughput 0.997885
Reading from 21695: heap size 248 MB, throughput 0.997794
Reading from 21695: heap size 252 MB, throughput 0.997922
Reading from 21694: heap size 1198 MB, throughput 0.977629
Reading from 21695: heap size 253 MB, throughput 0.99759
Reading from 21695: heap size 258 MB, throughput 0.984843
Numeric result:
Recommendation: 2 clients, utility 0.698048:
    h1: 490.481 MB (U(h) = 0.917334*h^0.0151535)
    h2: 1979.52 MB (U(h) = 0.435477*h^0.0611607)
Recommendation: 2 clients, utility 0.698048:
    h1: 490.46 MB (U(h) = 0.917334*h^0.0151535)
    h2: 1979.54 MB (U(h) = 0.435477*h^0.0611607)
Reading from 21695: heap size 258 MB, throughput 0.989098
Reading from 21694: heap size 1201 MB, throughput 0.977022
Reading from 21695: heap size 266 MB, throughput 0.994157
Reading from 21695: heap size 266 MB, throughput 0.995219
Reading from 21694: heap size 1202 MB, throughput 0.976247
Reading from 21695: heap size 272 MB, throughput 0.99665
Reading from 21695: heap size 272 MB, throughput 0.997289
Reading from 21695: heap size 277 MB, throughput 0.997756
Numeric result:
Recommendation: 2 clients, utility 0.7099:
    h1: 452.877 MB (U(h) = 0.91768*h^0.0150609)
    h2: 2017.12 MB (U(h) = 0.4235*h^0.0670708)
Recommendation: 2 clients, utility 0.7099:
    h1: 452.937 MB (U(h) = 0.91768*h^0.0150609)
    h2: 2017.06 MB (U(h) = 0.4235*h^0.0670708)
Reading from 21694: heap size 1206 MB, throughput 0.977951
Reading from 21695: heap size 278 MB, throughput 0.99779
Reading from 21695: heap size 283 MB, throughput 0.997895
Reading from 21694: heap size 1209 MB, throughput 0.977996
Reading from 21695: heap size 283 MB, throughput 0.997845
Reading from 21695: heap size 287 MB, throughput 0.989331
Reading from 21695: heap size 288 MB, throughput 0.990569
Reading from 21694: heap size 1213 MB, throughput 0.978715
Reading from 21695: heap size 297 MB, throughput 0.994437
Numeric result:
Recommendation: 2 clients, utility 0.796032:
    h1: 222.527 MB (U(h) = 0.919591*h^0.0145536)
    h2: 2247.47 MB (U(h) = 0.25728*h^0.14702)
Recommendation: 2 clients, utility 0.796032:
    h1: 222.483 MB (U(h) = 0.919591*h^0.0145536)
    h2: 2247.52 MB (U(h) = 0.25728*h^0.14702)
Reading from 21695: heap size 297 MB, throughput 0.996361
Reading from 21695: heap size 278 MB, throughput 0.996266
Reading from 21694: heap size 1217 MB, throughput 0.978559
Reading from 21695: heap size 263 MB, throughput 0.996232
Reading from 21695: heap size 251 MB, throughput 0.997223
Reading from 21695: heap size 237 MB, throughput 0.998071
Reading from 21694: heap size 1223 MB, throughput 0.978947
Reading from 21695: heap size 226 MB, throughput 0.998344
Numeric result:
Recommendation: 2 clients, utility 0.860941:
    h1: 165.493 MB (U(h) = 0.919351*h^0.0146218)
    h2: 2304.51 MB (U(h) = 0.179634*h^0.203612)
Recommendation: 2 clients, utility 0.860941:
    h1: 165.492 MB (U(h) = 0.919351*h^0.0146218)
    h2: 2304.51 MB (U(h) = 0.179634*h^0.203612)
Reading from 21695: heap size 221 MB, throughput 0.998692
Reading from 21695: heap size 205 MB, throughput 0.998759
Reading from 21694: heap size 1227 MB, throughput 0.977524
Reading from 21695: heap size 199 MB, throughput 0.998144
Reading from 21695: heap size 187 MB, throughput 0.996585
Reading from 21695: heap size 180 MB, throughput 0.996313
Reading from 21695: heap size 172 MB, throughput 0.996912
Reading from 21695: heap size 164 MB, throughput 0.9967
Reading from 21694: heap size 1232 MB, throughput 0.977629
Reading from 21695: heap size 170 MB, throughput 0.99731
Reading from 21695: heap size 164 MB, throughput 0.996511
Reading from 21695: heap size 170 MB, throughput 0.997239
Numeric result:
Recommendation: 2 clients, utility 0.926088:
    h1: 134.468 MB (U(h) = 0.918567*h^0.014879)
    h2: 2335.53 MB (U(h) = 0.126278*h^0.258444)
Recommendation: 2 clients, utility 0.926088:
    h1: 134.46 MB (U(h) = 0.918567*h^0.014879)
    h2: 2335.54 MB (U(h) = 0.126278*h^0.258444)
Reading from 21695: heap size 164 MB, throughput 0.997458
Reading from 21695: heap size 156 MB, throughput 0.997214
Reading from 21694: heap size 1234 MB, throughput 0.976498
Reading from 21695: heap size 149 MB, throughput 0.996638
Reading from 21695: heap size 143 MB, throughput 0.99679
Reading from 21695: heap size 138 MB, throughput 0.996188
Reading from 21695: heap size 133 MB, throughput 0.996169
Reading from 21695: heap size 138 MB, throughput 0.995823
Reading from 21695: heap size 133 MB, throughput 0.985683
Reading from 21695: heap size 137 MB, throughput 0.977596
Reading from 21695: heap size 131 MB, throughput 0.976248
Reading from 21694: heap size 1238 MB, throughput 0.952911
Reading from 21695: heap size 135 MB, throughput 0.987012
Numeric result:
Recommendation: 2 clients, utility 0.975853:
    h1: 117.368 MB (U(h) = 0.91844*h^0.0149123)
    h2: 2352.63 MB (U(h) = 0.097211*h^0.2989)
Recommendation: 2 clients, utility 0.975853:
    h1: 117.374 MB (U(h) = 0.91844*h^0.0149123)
    h2: 2352.63 MB (U(h) = 0.097211*h^0.2989)
Reading from 21695: heap size 130 MB, throughput 0.992421
Reading from 21695: heap size 129 MB, throughput 0.994192
Reading from 21695: heap size 122 MB, throughput 0.992128
Reading from 21695: heap size 119 MB, throughput 0.991716
Reading from 21695: heap size 115 MB, throughput 0.990069
Reading from 21695: heap size 123 MB, throughput 0.994857
Reading from 21695: heap size 118 MB, throughput 0.995351
Reading from 21694: heap size 1333 MB, throughput 0.974821
Reading from 21695: heap size 114 MB, throughput 0.995719
Reading from 21695: heap size 120 MB, throughput 0.990504
Reading from 21695: heap size 116 MB, throughput 0.991698
Reading from 21695: heap size 123 MB, throughput 0.99314
Reading from 21695: heap size 119 MB, throughput 0.994126
Reading from 21695: heap size 115 MB, throughput 0.9948
Reading from 21695: heap size 121 MB, throughput 0.995821
Reading from 21694: heap size 1333 MB, throughput 0.981677
Reading from 21695: heap size 117 MB, throughput 0.995957
Reading from 21695: heap size 113 MB, throughput 0.995017
Reading from 21695: heap size 119 MB, throughput 0.98623
Numeric result:
Recommendation: 2 clients, utility 0.857314:
    h1: 186.664 MB (U(h) = 0.919547*h^0.0147856)
    h2: 2283.34 MB (U(h) = 0.213084*h^0.180861)
Recommendation: 2 clients, utility 0.857314:
    h1: 186.665 MB (U(h) = 0.919547*h^0.0147856)
    h2: 2283.34 MB (U(h) = 0.213084*h^0.180861)
Reading from 21695: heap size 114 MB, throughput 0.982331
Reading from 21695: heap size 119 MB, throughput 0.977488
Reading from 21695: heap size 123 MB, throughput 0.980477
Reading from 21695: heap size 128 MB, throughput 0.987538
Reading from 21694: heap size 1338 MB, throughput 0.984956
Reading from 21695: heap size 136 MB, throughput 0.992851
Reading from 21695: heap size 137 MB, throughput 0.995747
Reading from 21695: heap size 144 MB, throughput 0.996582
Reading from 21695: heap size 145 MB, throughput 0.997495
Reading from 21695: heap size 152 MB, throughput 0.997886
Reading from 21694: heap size 1341 MB, throughput 0.985816
Reading from 21695: heap size 153 MB, throughput 0.998109
Reading from 21695: heap size 160 MB, throughput 0.996287
Reading from 21695: heap size 166 MB, throughput 0.994831
Reading from 21695: heap size 175 MB, throughput 0.995468
Numeric result:
Recommendation: 2 clients, utility 0.899312:
    h1: 251.347 MB (U(h) = 0.875072*h^0.0245991)
    h2: 2218.65 MB (U(h) = 0.168414*h^0.217102)
Recommendation: 2 clients, utility 0.899312:
    h1: 251.384 MB (U(h) = 0.875072*h^0.0245991)
    h2: 2218.62 MB (U(h) = 0.168414*h^0.217102)
Reading from 21695: heap size 183 MB, throughput 0.998036
Reading from 21694: heap size 1342 MB, throughput 0.98543
Reading from 21695: heap size 191 MB, throughput 0.998477
Reading from 21695: heap size 199 MB, throughput 0.998729
Reading from 21695: heap size 207 MB, throughput 0.998919
Reading from 21695: heap size 210 MB, throughput 0.998871
Reading from 21694: heap size 1335 MB, throughput 0.985074
Reading from 21695: heap size 210 MB, throughput 0.99889
Reading from 21695: heap size 214 MB, throughput 0.998985
Reading from 21695: heap size 215 MB, throughput 0.998781
Numeric result:
Recommendation: 2 clients, utility 0.954609:
    h1: 194.087 MB (U(h) = 0.881798*h^0.0231316)
    h2: 2275.91 MB (U(h) = 0.117743*h^0.271241)
Recommendation: 2 clients, utility 0.954609:
    h1: 194.092 MB (U(h) = 0.881798*h^0.0231316)
    h2: 2275.91 MB (U(h) = 0.117743*h^0.271241)
Reading from 21694: heap size 1247 MB, throughput 0.985584
Reading from 21695: heap size 220 MB, throughput 0.998818
Reading from 21695: heap size 207 MB, throughput 0.998756
Reading from 21695: heap size 198 MB, throughput 0.998825
Reading from 21695: heap size 193 MB, throughput 0.998627
Reading from 21695: heap size 195 MB, throughput 0.996078
Reading from 21695: heap size 190 MB, throughput 0.98863
Reading from 21694: heap size 1325 MB, throughput 0.982153
Reading from 21695: heap size 199 MB, throughput 0.992851
Reading from 21695: heap size 192 MB, throughput 0.995745
Reading from 21695: heap size 200 MB, throughput 0.996973
Numeric result:
Recommendation: 2 clients, utility 1.00334:
    h1: 42.8909 MB (U(h) = 0.967628*h^0.00540808)
    h2: 2427.11 MB (U(h) = 0.0935247*h^0.306044)
Recommendation: 2 clients, utility 1.00334:
    h1: 42.8893 MB (U(h) = 0.967628*h^0.00540808)
    h2: 2427.11 MB (U(h) = 0.0935247*h^0.306044)
Reading from 21695: heap size 192 MB, throughput 0.996701
Reading from 21694: heap size 1264 MB, throughput 0.981725
Reading from 21695: heap size 159 MB, throughput 0.997058
Reading from 21695: heap size 137 MB, throughput 0.997118
Reading from 21695: heap size 122 MB, throughput 0.996692
Reading from 21695: heap size 111 MB, throughput 0.996361
Reading from 21695: heap size 102 MB, throughput 0.99593
Reading from 21695: heap size 95 MB, throughput 0.995368
Reading from 21695: heap size 89 MB, throughput 0.993418
Reading from 21694: heap size 1323 MB, throughput 0.981809
Reading from 21695: heap size 84 MB, throughput 0.993505
Reading from 21695: heap size 80 MB, throughput 0.991091
Reading from 21695: heap size 76 MB, throughput 0.97987
Reading from 21695: heap size 72 MB, throughput 0.971958
Reading from 21695: heap size 69 MB, throughput 0.977901
Reading from 21695: heap size 66 MB, throughput 0.986281
Reading from 21695: heap size 68 MB, throughput 0.990628
Reading from 21695: heap size 62 MB, throughput 0.992923
Reading from 21695: heap size 64 MB, throughput 0.993867
Reading from 21695: heap size 59 MB, throughput 0.994919
Reading from 21695: heap size 61 MB, throughput 0.995136
Reading from 21695: heap size 56 MB, throughput 0.994398
Reading from 21695: heap size 58 MB, throughput 0.993906
Reading from 21695: heap size 54 MB, throughput 0.993628
Reading from 21695: heap size 56 MB, throughput 0.993411
Numeric result:
Recommendation: 2 clients, utility 1.0636:
    h1: 35.275 MB (U(h) = 0.968505*h^0.00520617)
    h2: 2434.72 MB (U(h) = 0.0654426*h^0.359302)
Recommendation: 2 clients, utility 1.0636:
    h1: 35.2783 MB (U(h) = 0.968505*h^0.00520617)
    h2: 2434.72 MB (U(h) = 0.0654426*h^0.359302)
Reading from 21695: heap size 52 MB, throughput 0.994056
Reading from 21695: heap size 54 MB, throughput 0.992555
Reading from 21694: heap size 1326 MB, throughput 0.980976
Reading from 21695: heap size 50 MB, throughput 0.993505
Reading from 21695: heap size 51 MB, throughput 0.993419
Reading from 21695: heap size 48 MB, throughput 0.993725
Reading from 21695: heap size 49 MB, throughput 0.99319
Reading from 21695: heap size 46 MB, throughput 0.992538
Reading from 21695: heap size 48 MB, throughput 0.991841
Reading from 21695: heap size 45 MB, throughput 0.992206
Reading from 21695: heap size 47 MB, throughput 0.99047
Reading from 21695: heap size 44 MB, throughput 0.992054
Reading from 21695: heap size 45 MB, throughput 0.992498
Reading from 21695: heap size 43 MB, throughput 0.991208
Reading from 21695: heap size 44 MB, throughput 0.992109
Reading from 21695: heap size 42 MB, throughput 0.992779
Reading from 21695: heap size 43 MB, throughput 0.985449
Reading from 21695: heap size 42 MB, throughput 0.978243
Reading from 21695: heap size 42 MB, throughput 0.96933
Reading from 21695: heap size 41 MB, throughput 0.966053
Reading from 21695: heap size 41 MB, throughput 0.93908
Reading from 21695: heap size 40 MB, throughput 0.937647
Reading from 21695: heap size 41 MB, throughput 0.927413
Reading from 21695: heap size 40 MB, throughput 0.936962
Reading from 21695: heap size 41 MB, throughput 0.920973
Reading from 21695: heap size 41 MB, throughput 0.921344
Reading from 21695: heap size 40 MB, throughput 0.924585
Reading from 21695: heap size 40 MB, throughput 0.883352
Reading from 21695: heap size 40 MB, throughput 0.896396
Reading from 21695: heap size 40 MB, throughput 0.911288
Reading from 21695: heap size 40 MB, throughput 0.920428
Reading from 21695: heap size 39 MB, throughput 0.929606
Reading from 21695: heap size 41 MB, throughput 0.940769
Reading from 21695: heap size 40 MB, throughput 0.943525
Reading from 21695: heap size 41 MB, throughput 0.96857
Reading from 21695: heap size 39 MB, throughput 0.982131
Reading from 21695: heap size 41 MB, throughput 0.984615
Reading from 21695: heap size 39 MB, throughput 0.988372
Reading from 21695: heap size 41 MB, throughput 0.988635
Reading from 21695: heap size 39 MB, throughput 0.988682
Reading from 21695: heap size 41 MB, throughput 0.988584
Reading from 21695: heap size 39 MB, throughput 0.989473
Reading from 21695: heap size 41 MB, throughput 0.990138
Reading from 21695: heap size 39 MB, throughput 0.990862
Reading from 21695: heap size 41 MB, throughput 0.9906
Reading from 21695: heap size 39 MB, throughput 0.990773
Reading from 21694: heap size 1328 MB, throughput 0.980041
Reading from 21695: heap size 40 MB, throughput 0.990255
Reading from 21695: heap size 39 MB, throughput 0.990665
Reading from 21695: heap size 40 MB, throughput 0.990359
Reading from 21695: heap size 39 MB, throughput 0.991143
Reading from 21695: heap size 40 MB, throughput 0.990315
Reading from 21695: heap size 39 MB, throughput 0.990931
Reading from 21695: heap size 40 MB, throughput 0.990667
Reading from 21695: heap size 39 MB, throughput 0.99041
Reading from 21695: heap size 40 MB, throughput 0.990022
Reading from 21695: heap size 39 MB, throughput 0.990628
Reading from 21695: heap size 40 MB, throughput 0.989999
Reading from 21695: heap size 39 MB, throughput 0.990977
Reading from 21695: heap size 40 MB, throughput 0.990741
Reading from 21695: heap size 39 MB, throughput 0.988804
Reading from 21695: heap size 40 MB, throughput 0.98883
Reading from 21695: heap size 39 MB, throughput 0.990141
Reading from 21695: heap size 40 MB, throughput 0.989239
Reading from 21695: heap size 39 MB, throughput 0.989858
Reading from 21695: heap size 40 MB, throughput 0.987318
Reading from 21695: heap size 39 MB, throughput 0.988584
Reading from 21695: heap size 39 MB, throughput 0.989047
Reading from 21695: heap size 39 MB, throughput 0.990202
Reading from 21695: heap size 39 MB, throughput 0.990254
Reading from 21695: heap size 39 MB, throughput 0.990206
Reading from 21695: heap size 39 MB, throughput 0.989042
Reading from 21695: heap size 39 MB, throughput 0.989832
Reading from 21695: heap size 39 MB, throughput 0.99008
Reading from 21695: heap size 39 MB, throughput 0.990509
Reading from 21695: heap size 39 MB, throughput 0.990863
Reading from 21695: heap size 39 MB, throughput 0.989668
Reading from 21695: heap size 39 MB, throughput 0.988455
Reading from 21695: heap size 39 MB, throughput 0.989258
Reading from 21695: heap size 39 MB, throughput 0.988559
Reading from 21695: heap size 39 MB, throughput 0.985578
Reading from 21695: heap size 39 MB, throughput 0.986156
Reading from 21695: heap size 39 MB, throughput 0.987855
Numeric result:
Recommendation: 2 clients, utility 1.08503:
    h1: 27.2202 MB (U(h) = 0.973553*h^0.00417859)
    h2: 2442.78 MB (U(h) = 0.0589804*h^0.374977)
Recommendation: 2 clients, utility 1.08503:
    h1: 27.2213 MB (U(h) = 0.973553*h^0.00417859)
    h2: 2442.78 MB (U(h) = 0.0589804*h^0.374977)
Reading from 21695: heap size 39 MB, throughput 0.989447
Reading from 21695: heap size 39 MB, throughput 0.989614
Reading from 21695: heap size 38 MB, throughput 0.990044
Reading from 21695: heap size 38 MB, throughput 0.990503
Reading from 21694: heap size 1330 MB, throughput 0.979445
Reading from 21695: heap size 37 MB, throughput 0.989465
Reading from 21695: heap size 37 MB, throughput 0.989257
Reading from 21695: heap size 37 MB, throughput 0.989377
Reading from 21695: heap size 37 MB, throughput 0.988576
Reading from 21695: heap size 37 MB, throughput 0.988536
Reading from 21695: heap size 37 MB, throughput 0.9894
Reading from 21695: heap size 37 MB, throughput 0.988863
Reading from 21695: heap size 37 MB, throughput 0.989343
Reading from 21695: heap size 37 MB, throughput 0.988831
Reading from 21695: heap size 37 MB, throughput 0.987901
Reading from 21695: heap size 37 MB, throughput 0.988022
Reading from 21695: heap size 37 MB, throughput 0.988788
Reading from 21695: heap size 37 MB, throughput 0.989876
Reading from 21695: heap size 37 MB, throughput 0.989187
Reading from 21695: heap size 37 MB, throughput 0.989823
Reading from 21695: heap size 37 MB, throughput 0.988894
Reading from 21695: heap size 37 MB, throughput 0.989491
Reading from 21695: heap size 37 MB, throughput 0.987805
Reading from 21695: heap size 37 MB, throughput 0.988864
Reading from 21695: heap size 37 MB, throughput 0.988414
Reading from 21695: heap size 37 MB, throughput 0.988257
Reading from 21695: heap size 37 MB, throughput 0.989384
Reading from 21695: heap size 37 MB, throughput 0.989798
Reading from 21695: heap size 37 MB, throughput 0.990064
Reading from 21695: heap size 37 MB, throughput 0.990119
Reading from 21695: heap size 37 MB, throughput 0.989062
Reading from 21695: heap size 37 MB, throughput 0.989642
Reading from 21695: heap size 37 MB, throughput 0.989966
Reading from 21695: heap size 37 MB, throughput 0.989536
Reading from 21695: heap size 37 MB, throughput 0.98978
Reading from 21695: heap size 37 MB, throughput 0.989398
Reading from 21695: heap size 37 MB, throughput 0.989516
Reading from 21695: heap size 37 MB, throughput 0.990231
Reading from 21695: heap size 37 MB, throughput 0.989521
Reading from 21695: heap size 37 MB, throughput 0.989634
Reading from 21695: heap size 37 MB, throughput 0.989447
Reading from 21695: heap size 37 MB, throughput 0.989446
Reading from 21695: heap size 37 MB, throughput 0.989686
Reading from 21695: heap size 37 MB, throughput 0.990166
Reading from 21695: heap size 37 MB, throughput 0.988308
Reading from 21695: heap size 37 MB, throughput 0.988825
Reading from 21695: heap size 37 MB, throughput 0.988249
Reading from 21695: heap size 37 MB, throughput 0.989137
Reading from 21694: heap size 1333 MB, throughput 0.979558
Reading from 21695: heap size 37 MB, throughput 0.989927
Reading from 21695: heap size 37 MB, throughput 0.988992
Reading from 21695: heap size 37 MB, throughput 0.987314
Reading from 21695: heap size 37 MB, throughput 0.987198
Reading from 21695: heap size 37 MB, throughput 0.988692
Reading from 21695: heap size 37 MB, throughput 0.987353
Reading from 21695: heap size 37 MB, throughput 0.98864
Reading from 21695: heap size 37 MB, throughput 0.987318
Reading from 21695: heap size 37 MB, throughput 0.987608
Reading from 21695: heap size 37 MB, throughput 0.986213
Reading from 21695: heap size 37 MB, throughput 0.987441
Reading from 21695: heap size 37 MB, throughput 0.988088
Reading from 21695: heap size 37 MB, throughput 0.988401
Reading from 21695: heap size 37 MB, throughput 0.98904
Reading from 21695: heap size 37 MB, throughput 0.988484
Reading from 21695: heap size 37 MB, throughput 0.988567
Reading from 21695: heap size 37 MB, throughput 0.988702
Reading from 21695: heap size 37 MB, throughput 0.98881
Reading from 21695: heap size 37 MB, throughput 0.989641
Reading from 21695: heap size 37 MB, throughput 0.988684
Reading from 21695: heap size 37 MB, throughput 0.987721
Reading from 21695: heap size 37 MB, throughput 0.98648
Reading from 21695: heap size 37 MB, throughput 0.987765
Reading from 21695: heap size 37 MB, throughput 0.988354
Reading from 21695: heap size 37 MB, throughput 0.988874
Reading from 21695: heap size 37 MB, throughput 0.98751
Reading from 21695: heap size 37 MB, throughput 0.987251
Reading from 21695: heap size 37 MB, throughput 0.989097
Reading from 21695: heap size 37 MB, throughput 0.988762
Reading from 21695: heap size 37 MB, throughput 0.988847
Reading from 21695: heap size 37 MB, throughput 0.987622
Reading from 21695: heap size 37 MB, throughput 0.988431
Reading from 21695: heap size 37 MB, throughput 0.988903
Reading from 21695: heap size 37 MB, throughput 0.988995
Reading from 21695: heap size 37 MB, throughput 0.988964
Reading from 21695: heap size 37 MB, throughput 0.989499
Reading from 21695: heap size 37 MB, throughput 0.986783
Reading from 21695: heap size 37 MB, throughput 0.987786
Reading from 21695: heap size 37 MB, throughput 0.989056
Numeric result:
Recommendation: 2 clients, utility 1.11369:
    h1: 24.4278 MB (U(h) = 0.974395*h^0.00399886)
    h2: 2445.57 MB (U(h) = 0.0496789*h^0.400282)
Recommendation: 2 clients, utility 1.11369:
    h1: 24.4315 MB (U(h) = 0.974395*h^0.00399886)
    h2: 2445.57 MB (U(h) = 0.0496789*h^0.400282)
Reading from 21695: heap size 37 MB, throughput 0.987097
Reading from 21695: heap size 36 MB, throughput 0.988013
Reading from 21695: heap size 36 MB, throughput 0.988449
Reading from 21695: heap size 36 MB, throughput 0.987545
Reading from 21695: heap size 36 MB, throughput 0.990924
Reading from 21695: heap size 36 MB, throughput 0.975237
Reading from 21695: heap size 36 MB, throughput 0.949076
Reading from 21695: heap size 36 MB, throughput 0.947015
Reading from 21695: heap size 36 MB, throughput 0.95604
Reading from 21695: heap size 36 MB, throughput 0.945121
Reading from 21694: heap size 1338 MB, throughput 0.978289
Reading from 21695: heap size 36 MB, throughput 0.949539
Reading from 21695: heap size 36 MB, throughput 0.947567
Reading from 21695: heap size 36 MB, throughput 0.932527
Reading from 21695: heap size 36 MB, throughput 0.992284
Reading from 21695: heap size 34 MB, throughput 0.950376
Reading from 21695: heap size 34 MB, throughput 0.921937
Reading from 21695: heap size 34 MB, throughput 0.919823
Reading from 21695: heap size 34 MB, throughput 0.92656
Reading from 21695: heap size 34 MB, throughput 0.935775
Reading from 21695: heap size 34 MB, throughput 0.933823
Reading from 21695: heap size 35 MB, throughput 0.937425
Reading from 21695: heap size 34 MB, throughput 0.938376
Reading from 21695: heap size 35 MB, throughput 0.936318
Reading from 21695: heap size 34 MB, throughput 0.942068
Reading from 21695: heap size 34 MB, throughput 0.946131
Reading from 21695: heap size 34 MB, throughput 0.945634
Reading from 21695: heap size 34 MB, throughput 0.942977
Reading from 21695: heap size 34 MB, throughput 0.964284
Reading from 21695: heap size 34 MB, throughput 0.975634
Reading from 21695: heap size 34 MB, throughput 0.981116
Reading from 21695: heap size 34 MB, throughput 0.984616
Reading from 21695: heap size 34 MB, throughput 0.986874
Reading from 21695: heap size 34 MB, throughput 0.987216
Reading from 21695: heap size 34 MB, throughput 0.986923
Reading from 21695: heap size 34 MB, throughput 0.984666
Reading from 21695: heap size 34 MB, throughput 0.985339
Reading from 21695: heap size 34 MB, throughput 0.986116
Reading from 21695: heap size 34 MB, throughput 0.986985
Reading from 21695: heap size 34 MB, throughput 0.988293
Reading from 21695: heap size 34 MB, throughput 0.988687
Reading from 21695: heap size 34 MB, throughput 0.98743
Reading from 21695: heap size 34 MB, throughput 0.988244
Reading from 21695: heap size 34 MB, throughput 0.988825
Reading from 21695: heap size 34 MB, throughput 0.988659
Reading from 21695: heap size 34 MB, throughput 0.988036
Reading from 21695: heap size 34 MB, throughput 0.988749
Reading from 21695: heap size 34 MB, throughput 0.989016
Reading from 21695: heap size 34 MB, throughput 0.986292
Reading from 21695: heap size 34 MB, throughput 0.987558
Reading from 21695: heap size 34 MB, throughput 0.985634
Reading from 21695: heap size 34 MB, throughput 0.98575
Reading from 21695: heap size 34 MB, throughput 0.98563
Reading from 21695: heap size 34 MB, throughput 0.987484
Reading from 21695: heap size 34 MB, throughput 0.988319
Reading from 21695: heap size 34 MB, throughput 0.988882
Reading from 21695: heap size 34 MB, throughput 0.98917
Reading from 21695: heap size 34 MB, throughput 0.988996
Reading from 21695: heap size 34 MB, throughput 0.987665
Reading from 21695: heap size 34 MB, throughput 0.989017
Reading from 21695: heap size 34 MB, throughput 0.989464
Reading from 21695: heap size 34 MB, throughput 0.989704
Reading from 21695: heap size 34 MB, throughput 0.98773
Reading from 21695: heap size 34 MB, throughput 0.98728
Reading from 21695: heap size 34 MB, throughput 0.988617
Reading from 21695: heap size 34 MB, throughput 0.98761
Reading from 21695: heap size 34 MB, throughput 0.988854
Reading from 21695: heap size 34 MB, throughput 0.989621
Reading from 21694: heap size 1342 MB, throughput 0.977279
Reading from 21695: heap size 34 MB, throughput 0.989589
Reading from 21695: heap size 34 MB, throughput 0.989595
Reading from 21695: heap size 34 MB, throughput 0.989303
Reading from 21695: heap size 34 MB, throughput 0.988911
Reading from 21695: heap size 34 MB, throughput 0.988451
Reading from 21695: heap size 34 MB, throughput 0.988826
Reading from 21695: heap size 34 MB, throughput 0.989273
Reading from 21695: heap size 34 MB, throughput 0.989081
Reading from 21695: heap size 34 MB, throughput 0.988616
Reading from 21695: heap size 34 MB, throughput 0.98848
Reading from 21695: heap size 34 MB, throughput 0.989284
Reading from 21695: heap size 34 MB, throughput 0.988941
Reading from 21695: heap size 34 MB, throughput 0.989192
Reading from 21695: heap size 34 MB, throughput 0.989188
Reading from 21695: heap size 34 MB, throughput 0.988771
Reading from 21695: heap size 34 MB, throughput 0.988957
Reading from 21695: heap size 34 MB, throughput 0.988696
Reading from 21695: heap size 34 MB, throughput 0.988599
Reading from 21695: heap size 34 MB, throughput 0.988813
Reading from 21695: heap size 34 MB, throughput 0.988251
Reading from 21695: heap size 34 MB, throughput 0.988869
Reading from 21695: heap size 34 MB, throughput 0.988758
Reading from 21695: heap size 34 MB, throughput 0.988706
Reading from 21695: heap size 34 MB, throughput 0.988885
Reading from 21695: heap size 34 MB, throughput 0.989078
Reading from 21695: heap size 34 MB, throughput 0.988337
Reading from 21695: heap size 34 MB, throughput 0.989094
Reading from 21695: heap size 34 MB, throughput 0.989
Reading from 21695: heap size 34 MB, throughput 0.988634
Reading from 21695: heap size 34 MB, throughput 0.988925
Reading from 21695: heap size 34 MB, throughput 0.989012
Reading from 21695: heap size 34 MB, throughput 0.988749
Reading from 21695: heap size 34 MB, throughput 0.988965
Reading from 21695: heap size 34 MB, throughput 0.988556
Reading from 21695: heap size 34 MB, throughput 0.988846
Reading from 21695: heap size 34 MB, throughput 0.989018
Reading from 21695: heap size 34 MB, throughput 0.988679
Reading from 21695: heap size 34 MB, throughput 0.988942
Reading from 21695: heap size 34 MB, throughput 0.989289
Reading from 21695: heap size 34 MB, throughput 0.988781
Reading from 21695: heap size 34 MB, throughput 0.98891
Numeric result:
Recommendation: 2 clients, utility 1.10918:
    h1: 39.3466 MB (U(h) = 0.962413*h^0.00647748)
    h2: 2430.65 MB (U(h) = 0.0497237*h^0.400135)
Recommendation: 2 clients, utility 1.10918:
    h1: 39.348 MB (U(h) = 0.962413*h^0.00647748)
    h2: 2430.65 MB (U(h) = 0.0497237*h^0.400135)
Reading from 21695: heap size 34 MB, throughput 0.98876
Reading from 21695: heap size 36 MB, throughput 0.989748
Reading from 21695: heap size 38 MB, throughput 0.990414
Reading from 21695: heap size 40 MB, throughput 0.991203
Reading from 21695: heap size 40 MB, throughput 0.99153
Reading from 21695: heap size 39 MB, throughput 0.991245
Reading from 21695: heap size 39 MB, throughput 0.991642
Reading from 21695: heap size 41 MB, throughput 0.992292
Reading from 21695: heap size 41 MB, throughput 0.992358
Reading from 21695: heap size 40 MB, throughput 0.992159
Reading from 21695: heap size 40 MB, throughput 0.991946
Reading from 21695: heap size 39 MB, throughput 0.991678
Reading from 21695: heap size 39 MB, throughput 0.991551
Reading from 21695: heap size 41 MB, throughput 0.9918
Reading from 21695: heap size 41 MB, throughput 0.992293
Reading from 21695: heap size 40 MB, throughput 0.991698
Reading from 21695: heap size 40 MB, throughput 0.991578
Reading from 21695: heap size 39 MB, throughput 0.991429
Reading from 21695: heap size 39 MB, throughput 0.991662
Reading from 21695: heap size 41 MB, throughput 0.991983
Reading from 21695: heap size 41 MB, throughput 0.992071
Reading from 21695: heap size 40 MB, throughput 0.991782
Reading from 21695: heap size 40 MB, throughput 0.991695
Reading from 21695: heap size 39 MB, throughput 0.991527
Reading from 21695: heap size 39 MB, throughput 0.991676
Reading from 21695: heap size 41 MB, throughput 0.99183
Reading from 21695: heap size 41 MB, throughput 0.992247
Reading from 21695: heap size 40 MB, throughput 0.991963
Reading from 21695: heap size 40 MB, throughput 0.992031
Reading from 21695: heap size 39 MB, throughput 0.991854
Reading from 21695: heap size 39 MB, throughput 0.991832
Reading from 21695: heap size 41 MB, throughput 0.991963
Reading from 21695: heap size 41 MB, throughput 0.992281
Reading from 21695: heap size 40 MB, throughput 0.992485
Reading from 21695: heap size 40 MB, throughput 0.991981
Reading from 21695: heap size 39 MB, throughput 0.99201
Reading from 21695: heap size 39 MB, throughput 0.991503
Reading from 21695: heap size 41 MB, throughput 0.991951
Reading from 21695: heap size 41 MB, throughput 0.992105
Reading from 21695: heap size 40 MB, throughput 0.99246
Reading from 21695: heap size 40 MB, throughput 0.992244
Reading from 21695: heap size 39 MB, throughput 0.991841
Reading from 21695: heap size 39 MB, throughput 0.99155
Reading from 21695: heap size 41 MB, throughput 0.992248
Reading from 21695: heap size 41 MB, throughput 0.99191
Reading from 21695: heap size 40 MB, throughput 0.992129
Reading from 21695: heap size 40 MB, throughput 0.991709
Reading from 21695: heap size 39 MB, throughput 0.991178
Reading from 21695: heap size 39 MB, throughput 0.990936
Reading from 21695: heap size 41 MB, throughput 0.991898
Reading from 21695: heap size 41 MB, throughput 0.991487
Reading from 21695: heap size 40 MB, throughput 0.991681
Reading from 21695: heap size 40 MB, throughput 0.991358
Reading from 21695: heap size 39 MB, throughput 0.990685
Reading from 21695: heap size 39 MB, throughput 0.96098
Reading from 21695: heap size 42 MB, throughput 0.933661
Reading from 21695: heap size 42 MB, throughput 0.923805
Reading from 21695: heap size 41 MB, throughput 0.936186
Reading from 21695: heap size 41 MB, throughput 0.939117
Reading from 21695: heap size 40 MB, throughput 0.941941
Reading from 21695: heap size 40 MB, throughput 0.947193
Reading from 21695: heap size 39 MB, throughput 0.936988
Reading from 21695: heap size 38 MB, throughput 0.942032
Reading from 21695: heap size 42 MB, throughput 0.946444
Reading from 21695: heap size 42 MB, throughput 0.942202
Reading from 21695: heap size 41 MB, throughput 0.947611
Reading from 21695: heap size 40 MB, throughput 0.946521
Reading from 21695: heap size 40 MB, throughput 0.95076
Reading from 21695: heap size 40 MB, throughput 0.951432
Reading from 21695: heap size 39 MB, throughput 0.963101
Reading from 21695: heap size 38 MB, throughput 0.978879
Reading from 21695: heap size 42 MB, throughput 0.985911
Reading from 21695: heap size 42 MB, throughput 0.989275
Reading from 21695: heap size 41 MB, throughput 0.990079
Reading from 21695: heap size 41 MB, throughput 0.990664
Reading from 21695: heap size 40 MB, throughput 0.990992
Reading from 21695: heap size 40 MB, throughput 0.990708
Reading from 21695: heap size 39 MB, throughput 0.991353
Reading from 21695: heap size 42 MB, throughput 0.992226
Reading from 21695: heap size 41 MB, throughput 0.992301
Reading from 21695: heap size 41 MB, throughput 0.991823
Numeric result:
Recommendation: 2 clients, utility 1.10836:
    h1: 42.554 MB (U(h) = 0.959785*h^0.0070145)
    h2: 2427.45 MB (U(h) = 0.0497237*h^0.400135)
Recommendation: 2 clients, utility 1.10836:
    h1: 42.554 MB (U(h) = 0.959785*h^0.0070145)
    h2: 2427.45 MB (U(h) = 0.0497237*h^0.400135)
Reading from 21695: heap size 40 MB, throughput 0.991797
Reading from 21695: heap size 43 MB, throughput 0.992282
Reading from 21695: heap size 45 MB, throughput 0.99314
Reading from 21695: heap size 45 MB, throughput 0.993139
Reading from 21695: heap size 44 MB, throughput 0.993004
Reading from 21695: heap size 44 MB, throughput 0.992697
Reading from 21695: heap size 43 MB, throughput 0.992549
Reading from 21695: heap size 43 MB, throughput 0.992305
Reading from 21695: heap size 42 MB, throughput 0.992622
Reading from 21695: heap size 45 MB, throughput 0.993318
Reading from 21695: heap size 44 MB, throughput 0.993232
Reading from 21695: heap size 44 MB, throughput 0.992177
Reading from 21695: heap size 43 MB, throughput 0.99129
Reading from 21695: heap size 43 MB, throughput 0.991158
Reading from 21695: heap size 46 MB, throughput 0.991456
Reading from 21695: heap size 45 MB, throughput 0.991014
Reading from 21695: heap size 45 MB, throughput 0.991172
Reading from 21695: heap size 44 MB, throughput 0.991113
Reading from 21695: heap size 44 MB, throughput 0.991064
Reading from 21695: heap size 43 MB, throughput 0.990629
Reading from 21695: heap size 43 MB, throughput 0.990172
Reading from 21695: heap size 46 MB, throughput 0.99176
Reading from 21694: heap size 1349 MB, throughput 0.961597
Reading from 21695: heap size 45 MB, throughput 0.992485
Reading from 21695: heap size 45 MB, throughput 0.992725
Reading from 21695: heap size 44 MB, throughput 0.992954
Reading from 21695: heap size 44 MB, throughput 0.993392
Reading from 21695: heap size 43 MB, throughput 0.993365
Reading from 21695: heap size 43 MB, throughput 0.993527
Reading from 21695: heap size 45 MB, throughput 0.993854
Reading from 21695: heap size 45 MB, throughput 0.994016
Reading from 21695: heap size 44 MB, throughput 0.993973
Reading from 21695: heap size 44 MB, throughput 0.993818
Reading from 21695: heap size 43 MB, throughput 0.99372
Reading from 21695: heap size 43 MB, throughput 0.99351
Reading from 21695: heap size 45 MB, throughput 0.993853
Reading from 21695: heap size 45 MB, throughput 0.993836
Reading from 21695: heap size 44 MB, throughput 0.993904
Reading from 21695: heap size 44 MB, throughput 0.993737
Reading from 21695: heap size 43 MB, throughput 0.99346
Reading from 21695: heap size 43 MB, throughput 0.993614
Reading from 21695: heap size 45 MB, throughput 0.993887
Reading from 21695: heap size 45 MB, throughput 0.994043
Reading from 21695: heap size 44 MB, throughput 0.99378
Reading from 21695: heap size 44 MB, throughput 0.993599
Reading from 21695: heap size 43 MB, throughput 0.993568
Reading from 21695: heap size 43 MB, throughput 0.993488
Reading from 21695: heap size 45 MB, throughput 0.99364
Reading from 21695: heap size 45 MB, throughput 0.993866
Reading from 21695: heap size 44 MB, throughput 0.993775
Reading from 21695: heap size 44 MB, throughput 0.993378
Reading from 21695: heap size 43 MB, throughput 0.993277
Reading from 21695: heap size 43 MB, throughput 0.993309
Reading from 21695: heap size 45 MB, throughput 0.993464
Reading from 21695: heap size 45 MB, throughput 0.993659
Reading from 21695: heap size 44 MB, throughput 0.993689
Reading from 21695: heap size 44 MB, throughput 0.993516
Reading from 21695: heap size 43 MB, throughput 0.993532
Reading from 21695: heap size 43 MB, throughput 0.993757
Reading from 21695: heap size 45 MB, throughput 0.993379
Numeric result:
Recommendation: 2 clients, utility 1.14199:
    h1: 37.2353 MB (U(h) = 0.961911*h^0.0065821)
    h2: 2432.76 MB (U(h) = 0.040557*h^0.430029)
Recommendation: 2 clients, utility 1.14199:
    h1: 37.2363 MB (U(h) = 0.961911*h^0.0065821)
    h2: 2432.76 MB (U(h) = 0.040557*h^0.430029)
Reading from 21695: heap size 45 MB, throughput 0.993897
Reading from 21695: heap size 44 MB, throughput 0.993638
Reading from 21695: heap size 44 MB, throughput 0.993858
Reading from 21695: heap size 43 MB, throughput 0.993534
Reading from 21695: heap size 43 MB, throughput 0.993556
Reading from 21695: heap size 42 MB, throughput 0.99229
Reading from 21695: heap size 42 MB, throughput 0.992695
Reading from 21695: heap size 41 MB, throughput 0.992771
Reading from 21695: heap size 41 MB, throughput 0.992321
Reading from 21695: heap size 40 MB, throughput 0.992398
Reading from 21695: heap size 40 MB, throughput 0.992329
Reading from 21695: heap size 39 MB, throughput 0.9921
Reading from 21695: heap size 39 MB, throughput 0.992433
Reading from 21695: heap size 38 MB, throughput 0.99095
Reading from 21695: heap size 38 MB, throughput 0.991205
Reading from 21695: heap size 38 MB, throughput 0.991197
Reading from 21695: heap size 38 MB, throughput 0.991166
Reading from 21695: heap size 38 MB, throughput 0.99089
Reading from 21695: heap size 38 MB, throughput 0.991145
Reading from 21695: heap size 38 MB, throughput 0.991487
Reading from 21695: heap size 38 MB, throughput 0.991678
Reading from 21695: heap size 38 MB, throughput 0.991831
Reading from 21695: heap size 38 MB, throughput 0.991942
Reading from 21695: heap size 38 MB, throughput 0.991423
Reading from 21695: heap size 38 MB, throughput 0.991767
Reading from 21695: heap size 38 MB, throughput 0.991727
Reading from 21695: heap size 38 MB, throughput 0.991675
Reading from 21695: heap size 38 MB, throughput 0.991911
Reading from 21695: heap size 38 MB, throughput 0.992046
Reading from 21695: heap size 38 MB, throughput 0.983375
Reading from 21695: heap size 38 MB, throughput 0.965886
Reading from 21695: heap size 38 MB, throughput 0.949681
Reading from 21695: heap size 38 MB, throughput 0.9422
Reading from 21695: heap size 38 MB, throughput 0.947405
Reading from 21695: heap size 39 MB, throughput 0.913168
Reading from 21695: heap size 38 MB, throughput 0.888061
Reading from 21695: heap size 39 MB, throughput 0.901629
Reading from 21695: heap size 39 MB, throughput 0.98869
Reading from 21695: heap size 40 MB, throughput 0.941802
Reading from 21695: heap size 39 MB, throughput 0.936902
Reading from 21695: heap size 39 MB, throughput 0.945516
Reading from 21695: heap size 39 MB, throughput 0.940216
Reading from 21695: heap size 40 MB, throughput 0.947666
Reading from 21695: heap size 39 MB, throughput 0.944003
Reading from 21695: heap size 40 MB, throughput 0.94695
Reading from 21695: heap size 39 MB, throughput 0.951327
Reading from 21695: heap size 40 MB, throughput 0.949487
Reading from 21695: heap size 39 MB, throughput 0.969656
Reading from 21695: heap size 39 MB, throughput 0.982477
Reading from 21695: heap size 39 MB, throughput 0.986997
Reading from 21695: heap size 40 MB, throughput 0.988657
Reading from 21695: heap size 39 MB, throughput 0.989762
Reading from 21695: heap size 40 MB, throughput 0.990319
Reading from 21695: heap size 39 MB, throughput 0.987932
Reading from 21695: heap size 40 MB, throughput 0.987821
Reading from 21694: heap size 1446 MB, throughput 0.98531
Reading from 21695: heap size 39 MB, throughput 0.98957
Reading from 21695: heap size 40 MB, throughput 0.990327
Reading from 21695: heap size 39 MB, throughput 0.990539
Reading from 21695: heap size 40 MB, throughput 0.99032
Reading from 21695: heap size 39 MB, throughput 0.990568
Reading from 21695: heap size 40 MB, throughput 0.990942
Reading from 21695: heap size 39 MB, throughput 0.991142
Reading from 21695: heap size 39 MB, throughput 0.991258
Reading from 21695: heap size 39 MB, throughput 0.990866
Reading from 21695: heap size 39 MB, throughput 0.990575
Reading from 21695: heap size 39 MB, throughput 0.990925
Reading from 21695: heap size 39 MB, throughput 0.990838
Reading from 21695: heap size 39 MB, throughput 0.991167
Reading from 21695: heap size 39 MB, throughput 0.990957
Reading from 21695: heap size 39 MB, throughput 0.991322
Reading from 21695: heap size 39 MB, throughput 0.991399
Reading from 21695: heap size 39 MB, throughput 0.991283
Reading from 21695: heap size 39 MB, throughput 0.99121
Reading from 21695: heap size 39 MB, throughput 0.991176
Reading from 21695: heap size 39 MB, throughput 0.991198
Reading from 21695: heap size 39 MB, throughput 0.990425
Reading from 21695: heap size 39 MB, throughput 0.990448
Reading from 21695: heap size 39 MB, throughput 0.990746
Reading from 21695: heap size 39 MB, throughput 0.991187
Reading from 21695: heap size 39 MB, throughput 0.991405
Reading from 21695: heap size 39 MB, throughput 0.989924
Reading from 21694: heap size 1480 MB, throughput 0.984622
Reading from 21695: heap size 39 MB, throughput 0.990675
Reading from 21695: heap size 39 MB, throughput 0.990912
Reading from 21695: heap size 39 MB, throughput 0.99096
Reading from 21694: heap size 1479 MB, throughput 0.975385
Reading from 21695: heap size 39 MB, throughput 0.992126
Numeric result:
Recommendation: 2 clients, utility 1.20054:
    h1: 37.5548 MB (U(h) = 0.957555*h^0.00747721)
    h2: 2432.45 MB (U(h) = 0.0279618*h^0.484304)
Recommendation: 2 clients, utility 1.20054:
    h1: 37.5547 MB (U(h) = 0.957555*h^0.00747721)
    h2: 2432.45 MB (U(h) = 0.0279618*h^0.484304)
Reading from 21695: heap size 39 MB, throughput 0.991808
Reading from 21694: heap size 1487 MB, throughput 0.956083
Reading from 21695: heap size 39 MB, throughput 0.992512
Reading from 21695: heap size 39 MB, throughput 0.992004
Reading from 21695: heap size 39 MB, throughput 0.99154
Reading from 21694: heap size 1506 MB, throughput 0.929881
Reading from 21695: heap size 39 MB, throughput 0.991806
Reading from 21695: heap size 39 MB, throughput 0.991572
Reading from 21694: heap size 1519 MB, throughput 0.894002
Reading from 21695: heap size 39 MB, throughput 0.992082
Reading from 21695: heap size 39 MB, throughput 0.991789
Reading from 21695: heap size 39 MB, throughput 0.992155
Reading from 21694: heap size 1514 MB, throughput 0.856619
Reading from 21695: heap size 39 MB, throughput 0.991978
Reading from 21695: heap size 39 MB, throughput 0.991709
Reading from 21694: heap size 1453 MB, throughput 0.822399
Reading from 21695: heap size 39 MB, throughput 0.992427
Reading from 21695: heap size 39 MB, throughput 0.990104
Reading from 21695: heap size 39 MB, throughput 0.990791
Reading from 21695: heap size 39 MB, throughput 0.990157
Reading from 21695: heap size 39 MB, throughput 0.99086
Reading from 21695: heap size 39 MB, throughput 0.990779
Reading from 21695: heap size 39 MB, throughput 0.991058
Reading from 21695: heap size 39 MB, throughput 0.990362
Reading from 21695: heap size 39 MB, throughput 0.990467
Reading from 21695: heap size 39 MB, throughput 0.989737
Reading from 21695: heap size 39 MB, throughput 0.990297
Reading from 21695: heap size 39 MB, throughput 0.990803
Reading from 21695: heap size 39 MB, throughput 0.991384
Reading from 21695: heap size 39 MB, throughput 0.991714
Reading from 21695: heap size 39 MB, throughput 0.991963
Reading from 21695: heap size 39 MB, throughput 0.991866
Reading from 21694: heap size 1511 MB, throughput 0.944473
Reading from 21695: heap size 39 MB, throughput 0.992134
Reading from 21695: heap size 39 MB, throughput 0.991461
Reading from 21695: heap size 39 MB, throughput 0.991131
Reading from 21695: heap size 39 MB, throughput 0.99073
Reading from 21695: heap size 39 MB, throughput 0.989079
Reading from 21695: heap size 39 MB, throughput 0.989627
Reading from 21695: heap size 39 MB, throughput 0.990603
Reading from 21695: heap size 39 MB, throughput 0.991174
Reading from 21695: heap size 39 MB, throughput 0.989223
Reading from 21695: heap size 39 MB, throughput 0.990667
Reading from 21695: heap size 39 MB, throughput 0.991457
Reading from 21695: heap size 39 MB, throughput 0.990255
Reading from 21695: heap size 39 MB, throughput 0.990863
Reading from 21695: heap size 39 MB, throughput 0.991264
Reading from 21695: heap size 39 MB, throughput 0.991441
Reading from 21695: heap size 39 MB, throughput 0.989097
Reading from 21695: heap size 39 MB, throughput 0.989799
Reading from 21695: heap size 39 MB, throughput 0.990633
Reading from 21695: heap size 39 MB, throughput 0.991054
Reading from 21695: heap size 39 MB, throughput 0.991699
Reading from 21695: heap size 39 MB, throughput 0.99068
Reading from 21695: heap size 39 MB, throughput 0.989875
Reading from 21695: heap size 39 MB, throughput 0.989758
Reading from 21695: heap size 39 MB, throughput 0.990349
Reading from 21695: heap size 39 MB, throughput 0.99073
Reading from 21695: heap size 39 MB, throughput 0.990967
Reading from 21695: heap size 39 MB, throughput 0.990586
Reading from 21695: heap size 39 MB, throughput 0.989344
Reading from 21695: heap size 39 MB, throughput 0.990199
Reading from 21695: heap size 39 MB, throughput 0.991075
Reading from 21695: heap size 39 MB, throughput 0.991447
Reading from 21695: heap size 39 MB, throughput 0.989426
Reading from 21694: heap size 1514 MB, throughput 0.97607
Reading from 21695: heap size 39 MB, throughput 0.990523
Reading from 21695: heap size 39 MB, throughput 0.989446
Reading from 21695: heap size 39 MB, throughput 0.988427
Reading from 21695: heap size 39 MB, throughput 0.987481
Reading from 21695: heap size 39 MB, throughput 0.989271
Reading from 21695: heap size 39 MB, throughput 0.990249
Reading from 21695: heap size 39 MB, throughput 0.991007
Reading from 21695: heap size 39 MB, throughput 0.991629
Reading from 21695: heap size 39 MB, throughput 0.991285
Reading from 21695: heap size 39 MB, throughput 0.987254
Reading from 21695: heap size 39 MB, throughput 0.988044
Reading from 21695: heap size 39 MB, throughput 0.989668
Reading from 21695: heap size 39 MB, throughput 0.99045
Reading from 21695: heap size 39 MB, throughput 0.989815
Reading from 21695: heap size 39 MB, throughput 0.990933
Numeric result:
Recommendation: 2 clients, utility 1.34691:
    h1: 29.2255 MB (U(h) = 0.957404*h^0.00750821)
    h2: 2440.77 MB (U(h) = 0.0103046*h^0.627068)
Recommendation: 2 clients, utility 1.34691:
    h1: 29.2247 MB (U(h) = 0.957404*h^0.00750821)
    h2: 2440.78 MB (U(h) = 0.0103046*h^0.627068)
Reading from 21695: heap size 39 MB, throughput 0.990129
Reading from 21695: heap size 38 MB, throughput 0.991079
Reading from 21695: heap size 38 MB, throughput 0.988665
Reading from 21695: heap size 37 MB, throughput 0.98997
Reading from 21695: heap size 37 MB, throughput 0.988973
Reading from 21695: heap size 37 MB, throughput 0.989185
Reading from 21695: heap size 37 MB, throughput 0.988563
Reading from 21695: heap size 37 MB, throughput 0.988838
Reading from 21695: heap size 37 MB, throughput 0.977489
Reading from 21695: heap size 37 MB, throughput 0.983915
Reading from 21695: heap size 37 MB, throughput 0.987045
Reading from 21695: heap size 37 MB, throughput 0.986427
Reading from 21695: heap size 37 MB, throughput 0.985258
Reading from 21695: heap size 37 MB, throughput 0.957651
Reading from 21695: heap size 37 MB, throughput 0.941206
Reading from 21695: heap size 37 MB, throughput 0.943945
Reading from 21695: heap size 37 MB, throughput 0.941628
Reading from 21695: heap size 37 MB, throughput 0.941793
Reading from 21695: heap size 37 MB, throughput 0.944954
Reading from 21695: heap size 37 MB, throughput 0.937733
Reading from 21695: heap size 37 MB, throughput 0.927498
Reading from 21695: heap size 38 MB, throughput 0.93504
Reading from 21695: heap size 37 MB, throughput 0.934466
Reading from 21695: heap size 37 MB, throughput 0.929827
Reading from 21695: heap size 37 MB, throughput 0.941887
Reading from 21695: heap size 38 MB, throughput 0.947371
Reading from 21695: heap size 37 MB, throughput 0.947686
Reading from 21695: heap size 37 MB, throughput 0.949143
Reading from 21695: heap size 37 MB, throughput 0.947901
Reading from 21695: heap size 37 MB, throughput 0.94627
Reading from 21695: heap size 37 MB, throughput 0.953615
Reading from 21694: heap size 1504 MB, throughput 0.980064
Reading from 21695: heap size 37 MB, throughput 0.956257
Reading from 21695: heap size 37 MB, throughput 0.967704
Reading from 21695: heap size 37 MB, throughput 0.979969
Reading from 21695: heap size 37 MB, throughput 0.984547
Reading from 21695: heap size 37 MB, throughput 0.98742
Reading from 21695: heap size 37 MB, throughput 0.985222
Reading from 21695: heap size 37 MB, throughput 0.986226
Reading from 21695: heap size 37 MB, throughput 0.98739
Reading from 21695: heap size 37 MB, throughput 0.988659
Reading from 21695: heap size 37 MB, throughput 0.989816
Reading from 21695: heap size 37 MB, throughput 0.987215
Reading from 21695: heap size 37 MB, throughput 0.988691
Reading from 21695: heap size 37 MB, throughput 0.98936
Reading from 21695: heap size 37 MB, throughput 0.989834
Reading from 21695: heap size 37 MB, throughput 0.989702
Reading from 21695: heap size 37 MB, throughput 0.990129
Reading from 21695: heap size 37 MB, throughput 0.98978
Reading from 21695: heap size 37 MB, throughput 0.990423
Reading from 21695: heap size 37 MB, throughput 0.989159
Reading from 21695: heap size 37 MB, throughput 0.988113
Reading from 21695: heap size 37 MB, throughput 0.989076
Reading from 21695: heap size 37 MB, throughput 0.989623
Reading from 21695: heap size 37 MB, throughput 0.985953
Reading from 21695: heap size 37 MB, throughput 0.985222
Reading from 21695: heap size 37 MB, throughput 0.987494
Reading from 21695: heap size 37 MB, throughput 0.988627
Reading from 21695: heap size 37 MB, throughput 0.988973
Reading from 21695: heap size 37 MB, throughput 0.989619
Reading from 21695: heap size 37 MB, throughput 0.98715
Reading from 21695: heap size 37 MB, throughput 0.988153
Reading from 21695: heap size 37 MB, throughput 0.987717
Reading from 21695: heap size 37 MB, throughput 0.989122
Reading from 21695: heap size 37 MB, throughput 0.988301
Reading from 21695: heap size 37 MB, throughput 0.989404
Reading from 21694: heap size 1509 MB, throughput 0.981054
Reading from 21695: heap size 37 MB, throughput 0.989654
Reading from 21695: heap size 37 MB, throughput 0.99064
Reading from 21695: heap size 37 MB, throughput 0.990658
Reading from 21695: heap size 37 MB, throughput 0.990215
Reading from 21695: heap size 37 MB, throughput 0.989426
Reading from 21695: heap size 37 MB, throughput 0.989758
Reading from 21695: heap size 37 MB, throughput 0.990214
Reading from 21695: heap size 37 MB, throughput 0.990246
Reading from 21695: heap size 37 MB, throughput 0.990461
Reading from 21695: heap size 37 MB, throughput 0.989098
Reading from 21695: heap size 37 MB, throughput 0.989273
Reading from 21695: heap size 37 MB, throughput 0.987647
Reading from 21695: heap size 37 MB, throughput 0.98948
Reading from 21695: heap size 37 MB, throughput 0.987611
Reading from 21695: heap size 37 MB, throughput 0.987454
Reading from 21695: heap size 37 MB, throughput 0.989116
Reading from 21695: heap size 37 MB, throughput 0.989618
Reading from 21695: heap size 37 MB, throughput 0.989767
Reading from 21695: heap size 37 MB, throughput 0.990387
Reading from 21695: heap size 37 MB, throughput 0.990164
Reading from 21695: heap size 37 MB, throughput 0.990663
Reading from 21695: heap size 37 MB, throughput 0.990282
Reading from 21695: heap size 37 MB, throughput 0.990549
Reading from 21695: heap size 37 MB, throughput 0.989093
Reading from 21695: heap size 37 MB, throughput 0.989013
Reading from 21695: heap size 37 MB, throughput 0.989275
Reading from 21695: heap size 37 MB, throughput 0.98935
Reading from 21695: heap size 37 MB, throughput 0.990009
Reading from 21695: heap size 37 MB, throughput 0.989845
Reading from 21695: heap size 37 MB, throughput 0.990339
Numeric result:
Recommendation: 2 clients, utility 1.40204:
    h1: 23.5379 MB (U(h) = 0.962288*h^0.00650689)
    h2: 2446.46 MB (U(h) = 0.00729186*h^0.676307)
Recommendation: 2 clients, utility 1.40204:
    h1: 23.5379 MB (U(h) = 0.962288*h^0.00650689)
    h2: 2446.46 MB (U(h) = 0.00729186*h^0.676307)
Reading from 21695: heap size 37 MB, throughput 0.988691
Reading from 21695: heap size 36 MB, throughput 0.987861
Reading from 21695: heap size 36 MB, throughput 0.985679
Reading from 21695: heap size 35 MB, throughput 0.987975
Reading from 21695: heap size 35 MB, throughput 0.988385
Reading from 21695: heap size 35 MB, throughput 0.988889
Reading from 21694: heap size 1504 MB, throughput 0.980379
Reading from 21695: heap size 35 MB, throughput 0.990562
Reading from 21695: heap size 35 MB, throughput 0.988539
Reading from 21695: heap size 35 MB, throughput 0.988713
Reading from 21695: heap size 35 MB, throughput 0.988142
Reading from 21695: heap size 35 MB, throughput 0.987881
Reading from 21695: heap size 35 MB, throughput 0.986329
Reading from 21695: heap size 35 MB, throughput 0.987267
Reading from 21695: heap size 35 MB, throughput 0.988036
Reading from 21695: heap size 35 MB, throughput 0.988729
Reading from 21695: heap size 35 MB, throughput 0.98813
Reading from 21695: heap size 35 MB, throughput 0.988562
Reading from 21695: heap size 35 MB, throughput 0.988326
Reading from 21695: heap size 35 MB, throughput 0.988118
Reading from 21695: heap size 35 MB, throughput 0.987994
Reading from 21695: heap size 35 MB, throughput 0.988745
Reading from 21695: heap size 35 MB, throughput 0.988712
Reading from 21695: heap size 35 MB, throughput 0.988078
Reading from 21695: heap size 35 MB, throughput 0.988421
Reading from 21695: heap size 35 MB, throughput 0.988674
Reading from 21695: heap size 35 MB, throughput 0.989399
Reading from 21695: heap size 35 MB, throughput 0.989172
Reading from 21695: heap size 35 MB, throughput 0.987738
Reading from 21695: heap size 35 MB, throughput 0.987548
Reading from 21695: heap size 35 MB, throughput 0.988008
Reading from 21695: heap size 35 MB, throughput 0.988609
Reading from 21695: heap size 35 MB, throughput 0.98854
Reading from 21695: heap size 35 MB, throughput 0.988333
Reading from 21695: heap size 35 MB, throughput 0.987877
Reading from 21695: heap size 35 MB, throughput 0.985952
Reading from 21695: heap size 35 MB, throughput 0.987183
Reading from 21695: heap size 35 MB, throughput 0.98794
Reading from 21695: heap size 35 MB, throughput 0.987872
Reading from 21695: heap size 35 MB, throughput 0.988476
Reading from 21695: heap size 35 MB, throughput 0.988719
Reading from 21695: heap size 35 MB, throughput 0.988735
Reading from 21695: heap size 35 MB, throughput 0.987318
Reading from 21695: heap size 35 MB, throughput 0.987704
Reading from 21695: heap size 35 MB, throughput 0.97463
Reading from 21695: heap size 35 MB, throughput 0.980919
Reading from 21695: heap size 35 MB, throughput 0.984005
Reading from 21694: heap size 1512 MB, throughput 0.98085
Reading from 21695: heap size 35 MB, throughput 0.986344
Reading from 21695: heap size 35 MB, throughput 0.987747
Reading from 21695: heap size 35 MB, throughput 0.98657
Reading from 21695: heap size 35 MB, throughput 0.987521
Reading from 21695: heap size 35 MB, throughput 0.98849
Reading from 21695: heap size 35 MB, throughput 0.988334
Reading from 21695: heap size 35 MB, throughput 0.987906
Reading from 21695: heap size 35 MB, throughput 0.988358
Reading from 21695: heap size 35 MB, throughput 0.98834
Reading from 21695: heap size 35 MB, throughput 0.988273
Reading from 21695: heap size 35 MB, throughput 0.988571
Reading from 21695: heap size 35 MB, throughput 0.986436
Reading from 21695: heap size 35 MB, throughput 0.986331
Reading from 21695: heap size 35 MB, throughput 0.987034
Reading from 21695: heap size 35 MB, throughput 0.986598
Reading from 21695: heap size 35 MB, throughput 0.986718
Reading from 21695: heap size 35 MB, throughput 0.986909
Reading from 21695: heap size 35 MB, throughput 0.986242
Reading from 21695: heap size 35 MB, throughput 0.98747
Reading from 21695: heap size 35 MB, throughput 0.987699
Reading from 21695: heap size 35 MB, throughput 0.98903
Reading from 21695: heap size 35 MB, throughput 0.98924
Reading from 21695: heap size 35 MB, throughput 0.988696
Reading from 21695: heap size 35 MB, throughput 0.988573
Reading from 21695: heap size 35 MB, throughput 0.987579
Reading from 21695: heap size 35 MB, throughput 0.987801
Reading from 21695: heap size 35 MB, throughput 0.986592
Reading from 21695: heap size 35 MB, throughput 0.987332
Reading from 21695: heap size 35 MB, throughput 0.988019
Reading from 21695: heap size 35 MB, throughput 0.987989
Reading from 21695: heap size 35 MB, throughput 0.987366
Reading from 21695: heap size 35 MB, throughput 0.988287
Reading from 21695: heap size 35 MB, throughput 0.986634
Reading from 21695: heap size 35 MB, throughput 0.987201
Reading from 21695: heap size 35 MB, throughput 0.988044
Reading from 21695: heap size 35 MB, throughput 0.987638
Reading from 21695: heap size 35 MB, throughput 0.988285
Reading from 21695: heap size 35 MB, throughput 0.988467
Reading from 21694: heap size 1500 MB, throughput 0.982963
Numeric result:
Recommendation: 2 clients, utility 1.41097:
    h1: 17.0439 MB (U(h) = 0.970955*h^0.00473395)
    h2: 2452.96 MB (U(h) = 0.00702878*h^0.681363)
Recommendation: 2 clients, utility 1.41097:
    h1: 17.0426 MB (U(h) = 0.970955*h^0.00473395)
    h2: 2452.96 MB (U(h) = 0.00702878*h^0.681363)
Client 21695 died
Clients: 1
Reading from 21694: heap size 1510 MB, throughput 0.959731
Reading from 21694: heap size 1468 MB, throughput 0.989157
Recommendation: one client; give it all the memory
Reading from 21694: heap size 1471 MB, throughput 0.991846
Reading from 21694: heap size 1487 MB, throughput 0.992533
Recommendation: one client; give it all the memory
Reading from 21694: heap size 1491 MB, throughput 0.992422
Reading from 21694: heap size 1482 MB, throughput 0.991464
Recommendation: one client; give it all the memory
Reading from 21694: heap size 1296 MB, throughput 0.990803
Reading from 21694: heap size 1467 MB, throughput 0.989618
Recommendation: one client; give it all the memory
Reading from 21694: heap size 1320 MB, throughput 0.988764
Reading from 21694: heap size 1449 MB, throughput 0.9882
Reading from 21694: heap size 1344 MB, throughput 0.987084
Recommendation: one client; give it all the memory
Reading from 21694: heap size 1442 MB, throughput 0.986072
Reading from 21694: heap size 1448 MB, throughput 0.984872
Recommendation: one client; give it all the memory
Reading from 21694: heap size 1451 MB, throughput 0.984024
Reading from 21694: heap size 1451 MB, throughput 0.983426
Recommendation: one client; give it all the memory
Reading from 21694: heap size 1456 MB, throughput 0.982762
Reading from 21694: heap size 1461 MB, throughput 0.981543
Recommendation: one client; give it all the memory
Reading from 21694: heap size 1470 MB, throughput 0.98008
Reading from 21694: heap size 1475 MB, throughput 0.979923
Recommendation: one client; give it all the memory
Reading from 21694: heap size 1484 MB, throughput 0.980076
Reading from 21694: heap size 1487 MB, throughput 0.979684
Recommendation: one client; give it all the memory
Reading from 21694: heap size 1496 MB, throughput 0.979328
Reading from 21694: heap size 1497 MB, throughput 0.979831
Recommendation: one client; give it all the memory
Reading from 21694: heap size 1506 MB, throughput 0.980479
Reading from 21694: heap size 1506 MB, throughput 0.980322
Recommendation: one client; give it all the memory
Reading from 21694: heap size 1513 MB, throughput 0.980777
Reading from 21694: heap size 1514 MB, throughput 0.980735
Recommendation: one client; give it all the memory
Reading from 21694: heap size 1520 MB, throughput 0.980491
Recommendation: one client; give it all the memory
Recommendation: one client; give it all the memory
Reading from 21694: heap size 1521 MB, throughput 0.993255
Recommendation: one client; give it all the memory
Reading from 21694: heap size 1511 MB, throughput 0.991179
Reading from 21694: heap size 1518 MB, throughput 0.981103
Reading from 21694: heap size 1516 MB, throughput 0.983894
Reading from 21694: heap size 1299 MB, throughput 0.9847
Reading from 21694: heap size 1518 MB, throughput 0.985773
Reading from 21694: heap size 1526 MB, throughput 0.987133
Reading from 21694: heap size 1526 MB, throughput 0.989004
Client 21694 died
Clients: 0
Recommendation: no clients; no recommendation
Recommendation: no clients; no recommendation
ReadingThread: finished
TimerThread: finished
CommandThread: finished
Main: All threads killed, cleaning up
