MemTotal:       16318588 kB
MemFree:        14141976 kB
Buffers:          222968 kB
Cached:          1496288 kB
SwapCached:            0 kB
Active:          1040224 kB
Inactive:         907236 kB
Active(anon):     228736 kB
Inactive(anon):      748 kB
Active(file):     811488 kB
Inactive(file):   906488 kB
Unevictable:           0 kB
Mlocked:               0 kB
SwapTotal:      16728060 kB
SwapFree:       16728060 kB
Dirty:                12 kB
Writeback:             0 kB
AnonPages:        227780 kB
Mapped:            17564 kB
Shmem:              1552 kB
Slab:             100164 kB
SReclaimable:      81020 kB
SUnreclaim:        19144 kB
KernelStack:        1720 kB
PageTables:         3192 kB
NFS_Unstable:          0 kB
Bounce:                0 kB
WritebackTmp:          0 kB
CommitLimit:    24887352 kB
Committed_AS:     404984 kB
VmallocTotal:   34359738367 kB
VmallocUsed:      375664 kB
VmallocChunk:   34359355992 kB
HardwareCorrupted:     0 kB
AnonHugePages:    247808 kB
HugePages_Total:       0
HugePages_Free:        0
HugePages_Rsvd:        0
HugePages_Surp:        0
Hugepagesize:       2048 kB
DirectMap4k:       66496 kB
DirectMap2M:    16594944 kB
