1414700128050 0 TOTAL_MEM 718
1414700148102 28914 CREATION
1414700148102 28914 READING 9 0.991653
1414700148102 28914 MINHEAP 2
1414700148102 28914 MINHEAP 276
1414700148104 28913 CREATION
1414700148104 28913 READING 9 0.992036
1414700148104 28913 MINHEAP 2
1414700148104 28913 MINHEAP 276
1414700148151 28913 READING 9 0.978805
1414700148152 28914 READING 9 0.981640
1414700148178 28914 READING 9 0.961483
1414700148183 28913 READING 9 0.954969
1414700148202 28914 READING 9 0.947454
1414700148210 28913 READING 9 0.929153
1414700148292 28914 READING 11 0.983233
1414700148337 28913 READING 11 0.961187
1414700148422 28914 READING 11 0.971513
1414700148452 28913 READING 11 0.969676
1414700148522 28914 READING 17 0.882766
1414700148544 28913 READING 17 0.917840
1414700148647 28914 READING 17 0.526981
1414700148702 28913 READING 17 0.512863
1414700148748 28914 READING 30 0.955005
1414700148849 28914 READING 31 0.890587
1414700148904 28913 READING 29 0.978185
1414700148998 28913 READING 30 0.904695
1414700149120 28914 READING 34 0.463514
1414700149249 28914 READING 44 0.912351
1414700149258 28913 READING 34 0.413054
1414700149359 28914 READING 47 0.875853
1414700149363 28913 READING 46 0.779327
1414700149609 28914 READING 49 0.259273
1414700149637 28913 READING 48 0.294012
1414700149691 28914 READING 67 0.772756
1414700149757 28914 READING 68 0.661518
1414700149758 28913 READING 61 0.812943
1414700149817 28913 READING 66 0.886376
1414700149978 28914 READING 73 0.322526
1414700150066 28914 READING 94 0.575333
1414700150182 28913 READING 67 0.173769
1414700150205 28914 READING 99 0.851719
1414700150286 28914 READING 100 0.716854
1414700150305 28913 READING 94 0.879525
1414700150620 28913 READING 95 0.263328
1414700150654 28914 READING 103 0.166132
1414700150717 28913 READING 125 0.827593
1414700150762 28914 READING 131 0.650399
1414700150865 28913 READING 124 0.743816
1414700150865 28914 READING 135 0.747796
1414700150971 28914 READING 139 0.678563
1414700150971 28913 READING 125 0.671236
1414700151043 28913 READING 129 0.830757
1414700151066 28914 READING 146 0.757339
1414700151181 28914 READING 149 0.599505
1414700151286 28914 READING 152 0.557892
1414700151537 28913 READING 132 0.147722
1414700151669 28913 READING 167 0.484183
1414700151813 28914 READING 159 0.113322
1414700151818 28913 READING 171 0.851304
1414700151949 28914 READING 200 0.521557
1414700152125 28914 READING 205 0.541731
1414700152191 28913 READING 174 0.172868
1414700152317 28913 READING 219 0.716768
1414700152423 28913 READING 221 0.756134
1414700153141 28913 READING 221 0.937561
1414700153149 28914 READING 208 0.368365
1414700153370 28913 READING 224 0.836604
1414700153465 28913 READING 231 0.583486
1414700153587 28914 READING 249 0.865667
1414700153753 28913 READING 235 0.830791
1414700153834 28914 READING 258 0.652331
1414700153841 28913 READING 240 0.446907
1414700153977 28914 READING 259 0.591027
1414700154076 28913 READING 243 0.871307
1414700154110 28914 READING 263 0.744381
1414700154187 28913 READING 249 0.715981
1414700154242 28914 READING 264 0.812379
1414700154295 28913 READING 250 0.746103
1414700154368 28913 READING 253 0.622525
1414700154408 28914 READING 270 0.853988
1414700154441 28913 READING 258 0.649467
1414700154519 28913 READING 264 0.607247
1414700154589 28914 READING 270 0.792642
1414700154606 28913 READING 267 0.552333
1414700154688 28914 READING 272 0.719150
1414700154726 28913 READING 274 0.863297
1414700154802 28914 READING 276 0.741752
1414700154902 28914 READING 282 0.746159
1414700154999 28914 READING 283 0.779459
1414700155069 28913 READING 275 0.916712
1414700155257 28914 READING 282 0.869726
1414700155802 28913 READING 276 0.073938
1414700155960 28913 READING 316 0.625411
1414700156044 28913 READING 317 0.806023
1414700156125 28913 READING 317 0.771778
1414700156199 28914 READING 284 0.363377
1414700156370 28913 READING 320 0.835336
1414700156370 28914 READING 325 0.513354
1414700156474 28914 READING 329 0.801108
1414700156501 28913 READING 321 0.765262
1414700156607 28913 READING 322 0.654200
1414700156607 28914 READING 334 0.759322
1414700156722 28913 READING 324 0.523587
1414700156825 28914 READING 334 0.814018
1414700156829 28913 READING 331 0.639033
1414700156937 28913 READING 332 0.640519
1414700157007 28914 READING 340 0.878614
1414700157060 28913 READING 340 0.614310
1414700157135 28914 READING 341 0.786821
1414700157223 28914 READING 343 0.792415
1414700157368 28914 READING 345 0.485493
1414700157501 28914 READING 351 0.590788
1414700157624 28914 READING 350 0.640734
1414700158051 28914 FUNCTION lru lambda h: 0.760961 * (h ** 0.001)
1414700158051 28913 FUNCTION lru lambda h: 0.772088 * (h ** 0.001)
1414700158051 28914 RECOMMEND 359
1414700158051 28913 RECOMMEND 359
1414700158137 28913 READING 341 0.949140
1414700158869 28914 READING 360 0.963601
1414700159612 28913 READING 347 0.979218
1414700160505 28914 READING 317 0.981976
1414700160810 28913 READING 350 0.979922
1414700161793 28914 READING 360 0.972522
1414700162746 28913 READING 350 0.641047
1414700163124 28914 READING 324 0.972418
1414700163818 28913 READING 395 0.995342
1414700164486 28914 READING 358 0.970825
1414700165069 28913 READING 392 0.992443
1414700165637 28914 READING 355 0.970004
1414700166365 28913 READING 396 0.991106
1414700167040 28914 READING 354 0.975353
1414700167596 28913 READING 395 0.980079
1414700168051 28914 FUNCTION lru lambda h: 0.622816 * (h ** 0.0101962)
1414700168051 28913 FUNCTION lru lambda h: 0.614422 * (h ** 0.00523502)
1414700168051 28914 RECOMMEND 359
1414700168051 28913 RECOMMEND 359
1414700168414 28914 READING 357 0.965272
1414700168753 28913 READING 339 0.987440
1414700169805 28914 READING 355 0.968561
1414700169940 28913 READING 394 0.985202
1414700171200 28913 READING 345 0.982841
1414700171294 28914 READING 357 0.974010
1414700172421 28913 READING 388 0.971902
1414700172617 28914 READING 358 0.968825
1414700173606 28913 READING 352 0.981746
1414700173897 28914 READING 359 0.968065
1414700174679 28913 READING 384 0.974701
1414700175213 28914 READING 362 0.968506
1414700175838 28913 READING 358 0.976103
1414700176681 28914 READING 361 0.965267
1414700177444 28913 READING 382 0.988384
1414700178051 28914 FUNCTION lru lambda h: 0.564796 * (h ** 0.0348581)
1414700178051 28913 FUNCTION lru lambda h: 0.503796 * (h ** 0.0551286)
1414700178051 28914 RECOMMEND 359
1414700178051 28913 RECOMMEND 359
1414700178161 28913 READING 380 0.962371
1414700178309 28913 READING 380 0.759180
1414700178428 28913 READING 381 0.675320
1414700178531 28913 READING 385 0.741482
1414700178629 28913 READING 389 0.742605
1414700178720 28913 READING 387 0.789601
1414700178848 28914 READING 361 0.980812
1414700179221 28914 READING 349 0.940670
1414700179372 28913 READING 342 0.960373
1414700179906 28914 READING 362 0.148685
1414700180035 28914 READING 395 0.679270
1414700180131 28914 READING 397 0.915350
1414700180235 28914 READING 350 0.889168
1414700180589 28913 READING 388 0.979466
1414700181262 28914 READING 398 0.984365
1414700181523 28913 READING 343 0.974720
1414700182544 28914 READING 351 0.982528
1414700182729 28913 READING 385 0.979995
1414700183712 28914 READING 398 0.987204
1414700183823 28913 READING 344 0.979613
1414700184911 28914 READING 356 0.983467
1414700184948 28913 READING 380 0.981837
1414700186311 28914 READING 395 0.987470
1414700186356 28913 READING 346 0.983519
1414700187602 28913 READING 377 0.981515
1414700187759 28914 READING 361 0.981320
1414700188051 28914 FUNCTION lru lambda h: 0.521052 * (h ** 0.0549654)
1414700188052 28913 FUNCTION lru lambda h: 0.456461 * (h ** 0.0802265)
1414700188052 28914 RECOMMEND 359
1414700188052 28913 RECOMMEND 359
1414700188560 28913 READING 347 0.972441
1414700189226 28914 READING 382 0.984126
1414700189876 28913 READING 374 0.979586
1414700190490 28914 READING 363 0.978941
1414700191009 28913 READING 341 0.970776
1414700191880 28914 READING 380 0.976937
1414700192172 28913 READING 371 0.970303
1414700193249 28914 READING 366 0.972204
1414700193328 28913 READING 346 0.974634
1414700194415 28913 READING 369 0.968503
1414700194416 28914 READING 380 0.949901
1414700195457 28913 READING 352 0.975043
1414700195697 28914 READING 359 0.975701
1414700196420 28913 READING 366 0.966788
1414700196748 28914 READING 375 0.969628
1414700197569 28913 READING 354 0.964550
1414700197764 28914 READING 362 0.967954
1414700198052 28914 FUNCTION lru lambda h: 0.475329 * (h ** 0.0779259)
1414700198052 28913 FUNCTION lru lambda h: 0.431538 * (h ** 0.0943474)
1414700198052 28914 RECOMMEND 359
1414700198052 28913 RECOMMEND 359
1414700198805 28913 READING 364 0.981823
1414700198965 28913 READING 344 0.891382
1414700199088 28913 READING 365 0.787189
1414700199181 28913 READING 363 0.753814
1414700199270 28913 READING 364 0.757591
1414700199356 28913 READING 366 0.768866
1414700199441 28913 READING 366 0.770291
1414700199472 28914 READING 375 0.985858
1414700200026 28913 READING 367 0.969229
1414700200215 28914 READING 351 0.969360
1414700200363 28914 READING 374 0.841733
1414700200463 28914 READING 373 0.764908
1414700200566 28914 READING 374 0.703141
1414700200661 28914 READING 376 0.768975
1414700200749 28914 READING 377 0.807351
1414700201027 28913 READING 367 0.981980
1414700201144 28914 READING 377 0.949558
1414700201920 28913 READING 331 0.980641
1414700202386 28914 READING 376 0.983482
1414700202932 28913 READING 367 0.977750
1414700203518 28914 READING 339 0.982826
1414700203959 28913 READING 332 0.973555
1414700204741 28914 READING 377 0.983462
1414700204877 28913 READING 366 0.974902
1414700205852 28914 READING 339 0.984062
1414700206109 28913 READING 334 0.982549
1414700206852 28914 READING 375 0.976311
1414700207316 28913 READING 364 0.977313
1414700208004 28914 READING 340 0.978816
1414700208052 28914 FUNCTION lru lambda h: 0.458748 * (h ** 0.0869569)
1414700208052 28913 FUNCTION lru lambda h: 0.416603 * (h ** 0.103605)
1414700208052 28914 RECOMMEND 359
1414700208052 28913 RECOMMEND 359
1414700208760 28913 READING 334 0.815680
1414700209025 28914 READING 373 0.974996
1414700209752 28913 READING 378 0.993899
1414700209953 28914 READING 342 0.980175
1414700210961 28914 READING 369 0.981397
1414700210987 28913 READING 377 0.992682
1414700211953 28914 READING 337 0.976746
1414700212068 28913 READING 378 0.991984
1414700212989 28914 READING 367 0.971636
1414700212997 28913 READING 331 0.974141
1414700213962 28914 READING 341 0.972573
1414700214217 28913 READING 378 0.987461
1414700215243 28913 READING 337 0.975620
1414700215245 28914 READING 363 0.961570
1414700216292 28914 READING 347 0.972337
1414700216325 28913 READING 374 0.980914
1414700216941 28913 READING 342 0.965381
1414700217249 28914 READING 362 0.968435
1414700217593 28913 READING 370 0.960587
1414700218052 28914 FUNCTION lru lambda h: 0.432504 * (h ** 0.102041)
1414700218052 28913 FUNCTION lru lambda h: 0.406448 * (h ** 0.109876)
1414700218052 28914 RECOMMEND 359
1414700218052 28913 RECOMMEND 359
1414700218421 28914 READING 350 0.740109
1414700218834 28913 READING 348 0.985207
1414700219397 28914 READING 375 0.980256
1414700219542 28913 READING 369 0.973383
1414700219708 28913 READING 354 0.878804
1414700219791 28913 READING 361 0.763260
1414700219875 28913 READING 368 0.743619
1414700219954 28913 READING 369 0.735825
1414700220033 28913 READING 372 0.726593
1414700220108 28913 READING 373 0.746388
1414700220185 28913 READING 375 0.825561
1414700220575 28914 READING 374 0.985604
1414700220731 28914 READING 372 0.939531
1414700220838 28914 READING 350 0.829701
1414700220919 28914 READING 369 0.786889
1414700221006 28914 READING 371 0.736953
1414700221093 28914 READING 372 0.743435
1414700221121 28913 READING 371 0.979953
1414700221178 28914 READING 373 0.800241
1414700221428 28914 READING 373 0.945267
1414700222066 28913 READING 335 0.979794
1414700222389 28914 READING 374 0.982812
1414700223067 28913 READING 373 0.983056
1414700223443 28914 READING 372 0.989093
1414700224213 28913 READING 337 0.984047
1414700224343 28914 READING 340 0.981022
1414700225203 28913 READING 370 0.981309
1414700225318 28914 READING 373 0.981951
1414700226248 28913 READING 339 0.980597
1414700226355 28914 READING 343 0.978293
1414700227202 28913 READING 367 0.969173
1414700227207 28914 READING 371 0.963843
1414700228052 28914 FUNCTION lru lambda h: 0.423559 * (h ** 0.107305)
1414700228052 28913 FUNCTION lru lambda h: 0.403043 * (h ** 0.112166)
1414700228052 28914 RECOMMEND 359
1414700228052 28913 RECOMMEND 359
1414700228152 28914 READING 346 0.977768
1414700228208 28913 READING 336 0.980480
1414700229164 28914 READING 369 0.978727
1414700229211 28913 READING 365 0.978833
1414700230145 28913 READING 334 0.979996
1414700230260 28914 READING 339 0.982626
1414700230955 28913 READING 363 0.974417
1414700231278 28914 READING 368 0.979054
1414700231938 28913 READING 339 0.983458
1414700232215 28914 READING 344 0.976000
1414700232825 28913 READING 361 0.976246
1414700233151 28914 READING 366 0.974867
1414700233778 28913 READING 345 0.973712
1414700234079 28914 READING 349 0.973498
1414700234586 28913 READING 360 0.962753
1414700235013 28914 READING 363 0.954128
1414700235546 28913 READING 359 0.969818
1414700235873 28914 READING 353 0.967955
1414700236668 28913 READING 359 0.974503
1414700236807 28914 READING 362 0.967299
1414700237549 28913 READING 359 0.969858
1414700237716 28914 READING 362 0.966456
1414700238053 28914 FUNCTION lru lambda h: 0.410143 * (h ** 0.115547)
1414700238053 28913 FUNCTION lru lambda h: 0.391246 * (h ** 0.119818)
1414700238053 28914 RECOMMEND 359
1414700238053 28913 RECOMMEND 359
1414700238427 28913 READING 357 0.970604
1414700238544 28914 READING 362 0.965135
1414700239213 28913 READING 359 0.961752
1414700239831 28914 READING 362 0.972153
1414700240334 28913 READING 356 0.977992
1414700240791 28914 READING 359 0.977865
1414700240898 28913 READING 359 0.962545
1414700240932 28914 READING 345 0.868562
1414700241058 28914 READING 361 0.659161
1414700241064 28913 READING 359 0.751372
1414700241153 28914 READING 360 0.630969
1414700241153 28913 READING 359 0.679150
1414700241245 28914 READING 362 0.622659
1414700241246 28913 READING 364 0.644026
1414700241334 28914 READING 364 0.641850
1414700241336 28913 READING 366 0.665195
1414700241423 28914 READING 365 0.638956
1414700241537 28914 READING 352 0.529113
1414700241681 28913 READING 367 0.171277
1414700241741 28913 READING 379 0.981690
1414700241805 28913 READING 376 0.976563
1414700241889 28914 READING 366 0.931090
1414700242696 28913 READING 379 0.995225
1414700243129 28914 READING 365 0.814494
1414700243498 28913 READING 381 0.989285
1414700243917 28914 READING 351 0.992377
1414700244474 28913 READING 327 0.989962
1414700244739 28914 READING 354 0.993524
1414700245533 28913 READING 382 0.989799
1414700245805 28914 READING 363 0.991071
1414700246410 28913 READING 332 0.986271
1414700246774 28914 READING 309 0.988689
1414700247156 28913 READING 381 0.981252
1414700247605 28914 READING 363 0.978074
1414700247980 28913 READING 337 0.968732
1414700248053 28914 FUNCTION lru lambda h: 0.421099 * (h ** 0.109131)
1414700248053 28913 FUNCTION lru lambda h: 0.38748 * (h ** 0.122346)
1414700248053 28914 RECOMMEND 359
1414700248053 28913 RECOMMEND 359
1414700248566 28914 READING 314 0.989216
1414700248946 28913 READING 377 0.982040
1414700249478 28914 READING 362 0.976447
1414700249789 28913 READING 343 0.978236
1414700250524 28914 READING 320 0.983411
1414700250706 28913 READING 373 0.979992
1414700251548 28914 READING 358 0.980456
1414700251625 28913 READING 349 0.973535
1414700252467 28914 READING 357 0.978141
1414700252665 28913 READING 371 0.979648
1414700253518 28913 READING 353 0.973252
1414700253518 28914 READING 353 0.960592
1414700254366 28913 READING 369 0.962561
1414700254459 28914 READING 355 0.973840
1414700255300 28913 READING 369 0.978668
1414700255598 28914 READING 357 0.977910
1414700256200 28913 READING 369 0.968751
1414700256635 28914 READING 357 0.972788
1414700257033 28913 READING 370 0.967891
1414700257599 28914 READING 360 0.970573
1414700258023 28913 READING 370 0.974148
1414700258053 28914 FUNCTION lru lambda h: 0.414123 * (h ** 0.113654)
1414700258053 28913 FUNCTION lru lambda h: 0.381736 * (h ** 0.126172)
1414700258053 28914 RECOMMEND 359
1414700258053 28913 RECOMMEND 359
1414700258497 28914 READING 360 0.960900
1414700258817 28913 READING 355 0.965434
1414700259528 28914 READING 360 0.970263
1414700259669 28913 READING 370 0.965028
1414700260368 28914 READING 360 0.957377
1414700260533 28913 READING 354 0.964139
1414700261522 28913 READING 369 0.967312
1414700261745 28914 READING 359 0.981841
1414700261933 28913 READING 369 0.936431
1414700261933 28914 READING 338 0.796138
1414700262064 28913 READING 370 0.791146
1414700262064 28914 READING 360 0.671034
1414700262153 28913 READING 370 0.593168
1414700262156 28914 READING 358 0.706177
1414700262247 28913 READING 371 0.544151
1414700262249 28914 READING 360 0.670405
1414700262335 28913 READING 374 0.556928
1414700262335 28914 READING 364 0.725021
1414700262400 28913 READING 375 0.745562
1414700262430 28914 READING 365 0.771330
1414700262471 28913 READING 376 0.699734
1414700262514 28914 READING 366 0.795725
1414700262540 28913 READING 376 0.707329
1414700262606 28913 READING 354 0.836261
1414700263239 28914 READING 364 0.963847
1414700263322 28913 READING 374 0.698211
1414700264226 28913 READING 358 0.995566
1414700264409 28914 READING 321 0.987337
1414700264952 28913 READING 359 0.990964
1414700265210 28914 READING 363 0.990703
1414700265672 28913 READING 361 0.988127
1414700265976 28914 READING 308 0.989815
1414700266332 28913 READING 360 0.985439
1414700266905 28914 READING 365 0.986953
1414700267139 28913 READING 302 0.986377
1414700267657 28914 READING 312 0.974997
1414700267764 28913 READING 361 0.981569
1414700268053 28914 FUNCTION lru lambda h: 0.408629 * (h ** 0.117456)
1414700268053 28913 FUNCTION lru lambda h: 0.313241 * (h ** 0.160118)
1414700268053 28914 RECOMMEND 359
1414700268053 28913 RECOMMEND 359
1414700268485 28913 READING 307 0.986631
1414700268507 28914 READING 364 0.981253
1414700269445 28913 READING 356 0.983042
1414700269481 28914 READING 317 0.982791
1414700270215 28913 READING 356 0.974592
1414700270493 28914 READING 360 0.986172
1414700271093 28913 READING 350 0.979685
1414700271663 28914 READING 324 0.981554
1414700271822 28913 READING 319 0.979083
1414700272527 28913 READING 346 0.979346
1414700272627 28914 READING 356 0.983147
1414700273416 28913 READING 349 0.978419
1414700273563 28914 READING 356 0.982262
1414700274356 28913 READING 348 0.982579
1414700274762 28914 READING 355 0.975745
1414700275218 28913 READING 349 0.967487
1414700275679 28914 READING 356 0.970235
1414700276131 28913 READING 351 0.978260
1414700276753 28914 READING 357 0.973792
1414700276994 28913 READING 351 0.972810
1414700277651 28914 READING 358 0.967847
1414700277979 28913 READING 354 0.970820
1414700278054 28914 FUNCTION lru lambda h: 0.404637 * (h ** 0.119921)
1414700278054 28913 FUNCTION lru lambda h: 0.13251 * (h ** 0.312481)
1414700278054 28914 RECOMMEND 359
1414700278054 28913 RECOMMEND 359
1414700278649 28914 READING 361 0.970897
1414700278808 28913 READING 354 0.975697
1414700279772 28913 READING 357 0.971508
1414700279856 28914 READING 346 0.975444
1414700280770 28913 READING 357 0.950037
1414700280774 28914 READING 361 0.950816
1414700281770 28913 READING 360 0.965936
1414700282361 28914 READING 361 0.987767
1414700282987 28913 READING 360 0.963815
1414700283165 28913 READING 360 0.825202
1414700283208 28914 READING 357 0.707292
1414700283296 28913 READING 343 0.825602
1414700283340 28914 READING 368 0.939521
1414700283378 28913 READING 353 0.708110
1414700283415 28914 READING 362 0.891255
1414700283458 28913 READING 359 0.728089
1414700283492 28914 READING 343 0.875513
1414700283534 28913 READING 358 0.746366
1414700283566 28914 READING 366 0.892347
1414700283615 28913 READING 365 0.719780
1414700283642 28914 READING 343 0.891486
1414700283691 28913 READING 357 0.747817
1414700283715 28914 READING 364 0.987645
1414700284069 28913 READING 366 0.941884
1414700284469 28914 READING 363 0.993353
1414700284955 28913 READING 356 0.984625
1414700285384 28914 READING 363 0.991197
1414700285752 28913 READING 366 0.988329
1414700286317 28914 READING 324 0.989477
1414700286606 28913 READING 360 0.987596
1414700287411 28914 READING 365 0.987471
1414700287503 28913 READING 314 0.989956
1414700288054 28914 FUNCTION lru lambda h: 0.40299 * (h ** 0.120933)
1414700288054 28913 FUNCTION lru lambda h: 0.0905522 * (h ** 0.378307)
1414700288054 28914 RECOMMEND 359
1414700288054 28913 RECOMMEND 359
1414700288307 28913 READING 368 0.983642
1414700288563 28914 READING 329 0.988764
1414700289079 28913 READING 319 0.982155
1414700289651 28914 READING 364 0.986192
1414700289949 28913 READING 367 0.981658
1414700290616 28914 READING 335 0.982632
1414700290770 28913 READING 324 0.973743
1414700291554 28914 READING 361 0.985547
1414700291749 28913 READING 363 0.980363
1414700292771 28914 READING 340 0.982334
1414700292828 28913 READING 330 0.980263
1414700293994 28913 READING 359 0.962098
1414700293996 28914 READING 358 0.973563
1414700294903 28913 READING 358 0.974032
1414700295061 28914 READING 358 0.981812
1414700295876 28913 READING 359 0.974483
1414700295956 28914 READING 360 0.980286
1414700297039 28913 READING 360 0.959904
1414700297044 28914 READING 360 0.965606
1414700297926 28913 READING 357 0.976999
1414700298045 28914 READING 360 0.968943
1414700298054 28914 FUNCTION lru lambda h: 0.397525 * (h ** 0.124491)
1414700298054 28913 FUNCTION lru lambda h: 0.0774182 * (h ** 0.408207)
1414700298054 28914 RECOMMEND 359
1414700298054 28913 RECOMMEND 359
1414700298856 28913 READING 360 0.965496
1414700298907 28914 READING 361 0.967743
1414700299765 28914 READING 361 0.965495
1414700300090 28913 READING 359 0.772387
1414700300982 28913 READING 382 0.993838
1414700301030 28914 READING 363 0.973915
1414700301824 28914 READING 364 0.961109
1414700301897 28913 READING 381 0.990154
1414700303009 28913 READING 340 0.977019
1414700303276 28914 READING 365 0.986325
1414700303947 28913 READING 383 0.983534
1414700304032 28914 READING 361 0.972495
1414700304095 28913 READING 360 0.923543
1414700304173 28914 READING 346 0.869283
1414700304205 28913 READING 376 0.841272
1414700304293 28913 READING 378 0.727051
1414700304297 28914 READING 363 0.658514
1414700304381 28913 READING 379 0.687418
1414700304393 28914 READING 362 0.651945
1414700304469 28913 READING 383 0.668912
1414700304489 28914 READING 364 0.593568
1414700304548 28913 READING 384 0.768534
1414700304568 28914 READING 367 0.738276
1414700304624 28913 READING 386 0.824859
1414700304646 28914 READING 368 0.735487
1414700304722 28914 READING 369 0.760413
1414700305145 28914 READING 368 0.962699
1414700305243 28913 READING 384 0.981071
1414700306026 28914 READING 368 0.983616
1414700306140 28913 READING 346 0.983006
1414700306923 28913 READING 383 0.991194
1414700307146 28914 READING 368 0.992070
1414700307736 28913 READING 332 0.986949
1414700307969 28914 READING 369 0.986758
1414700308054 28914 FUNCTION lru lambda h: 0.406368 * (h ** 0.118996)
1414700308054 28913 FUNCTION lru lambda h: 0.0569404 * (h ** 0.461318)
1414700308054 28914 RECOMMEND 359
1414700308054 28913 RECOMMEND 359
1414700308720 28913 READING 384 0.987216
1414700308765 28914 READING 368 0.983022
1414700309528 28913 READING 336 0.981665
1414700309671 28914 READING 313 0.984949
1414700310266 28913 READING 383 0.978697
1414700310391 28914 READING 369 0.980442
1414700311076 28913 READING 341 0.982151
1414700311325 28914 READING 318 0.983295
1414700312237 28913 READING 380 0.981859
1414700312308 28914 READING 366 0.982815
1414700313133 28914 READING 324 0.979463
1414700313270 28913 READING 346 0.981392
1414700314028 28914 READING 361 0.981717
1414700314306 28913 READING 376 0.978269
1414700314857 28914 READING 330 0.980713
1414700315262 28913 READING 352 0.976420
1414700315711 28914 READING 359 0.974788
1414700316153 28913 READING 373 0.970290
1414700316477 28914 READING 358 0.960145
1414700316955 28913 READING 356 0.977024
1414700317561 28914 READING 359 0.971742
1414700317755 28913 READING 372 0.964022
1414700318055 28914 FUNCTION lru lambda h: 0.40036 * (h ** 0.12308)
1414700318055 28913 FUNCTION lru lambda h: 0.0552671 * (h ** 0.467261)
1414700318055 28914 RECOMMEND 359
1414700318055 28913 RECOMMEND 359
1414700318373 28914 READING 343 0.965729
1414700318832 28913 READING 372 0.975424
1414700319426 28914 READING 358 0.973661
1414700319632 28913 READING 372 0.966104
1414700320273 28914 READING 359 0.966985
1414700320513 28913 READING 372 0.967159
1414700321275 28914 READING 363 0.972168
1414700321373 28913 READING 372 0.966796
1414700322245 28913 READING 357 0.949161
1414700322254 28914 READING 347 0.961028
1414700322985 28913 READING 372 0.960584
1414700323415 28914 READING 362 0.746146
1414700324219 28913 READING 357 0.983489
1414700324690 28914 READING 359 0.989383
1414700324800 28913 READING 374 0.968913
1414700324932 28913 READING 371 0.866783
1414700325029 28913 READING 370 0.714137
1414700325107 28913 READING 371 0.693172
1414700325180 28913 READING 373 0.716995
1414700325255 28913 READING 376 0.684163
1414700325284 28914 READING 372 0.972807
1414700325326 28913 READING 378 0.726155
1414700325422 28913 READING 378 0.526043
1414700325422 28914 READING 353 0.804028
1414700325505 28914 READING 366 0.695341
1414700325645 28914 READING 370 0.767207
1414700325689 28913 READING 378 0.208441
1414700325737 28914 READING 371 0.805608
1414700325808 28914 READING 372 0.805593
1414700325881 28914 READING 373 0.760389
1414700325952 28914 READING 374 0.836664
1414700326418 28913 READING 366 0.992288
1414700326565 28914 READING 372 0.961449
1414700327294 28913 READING 366 0.986997
1414700327330 28914 READING 373 0.988204
1414700327954 28913 READING 367 0.990767
1414700328055 28914 FUNCTION lru lambda h: 0.403795 * (h ** 0.120982)
1414700328055 28913 FUNCTION lru lambda h: 0.0574949 * (h ** 0.459486)
1414700328055 28914 RECOMMEND 359
1414700328055 28913 RECOMMEND 359
1414700328344 28914 READING 373 0.986859
1414700328722 28913 READING 367 0.988135
1414700329206 28914 READING 321 0.991580
1414700329524 28913 READING 311 0.984862
1414700330167 28914 READING 375 0.991829
1414700330482 28913 READING 367 0.982709
1414700330948 28914 READING 326 0.984719
1414700331275 28913 READING 310 0.987122
1414700331651 28914 READING 374 0.977809
1414700332117 28913 READING 365 0.987996
1414700332529 28914 READING 330 0.981882
1414700332907 28913 READING 313 0.985208
1414700333424 28914 READING 371 0.981465
1414700333649 28913 READING 363 0.980494
1414700334227 28914 READING 336 0.977037
1414700334475 28913 READING 318 0.981391
1414700335204 28913 READING 359 0.983758
1414700335350 28914 READING 367 0.982954
1414700335997 28913 READING 358 0.972530
1414700336092 28914 READING 342 0.969671
1414700336778 28913 READING 354 0.982756
1414700337044 28914 READING 365 0.977524
1414700337613 28913 READING 356 0.975780
1414700337842 28914 READING 346 0.971601
1414700338055 28914 FUNCTION lru lambda h: 0.397003 * (h ** 0.125351)
1414700338055 28913 FUNCTION lru lambda h: 0.0136075 * (h ** 0.710422)
1414700338055 28914 RECOMMEND 359
1414700338055 28913 RECOMMEND 359
1414700338538 28913 READING 357 0.978117
1414700338623 28914 READING 362 0.975585
1414700339461 28913 READING 358 0.969525
1414700339485 28914 READING 362 0.977402
1414700340494 28913 READING 361 0.976717
1414700340629 28914 READING 362 0.975279
1414700341508 28913 READING 361 0.973724
1414700341569 28914 READING 362 0.970690
1414700342338 28914 READING 362 0.964672
1414700342496 28913 READING 361 0.972454
1414700343209 28914 READING 347 0.970320
1414700343489 28913 READING 362 0.972318
1414700343948 28914 READING 362 0.963000
1414700344456 28913 READING 362 0.972060
1414700344630 28914 READING 347 0.961126
1414700345736 28913 READING 362 0.984506
1414700345987 28914 READING 361 0.984290
1414700346344 28913 READING 358 0.969110
1414700346487 28913 READING 361 0.862272
1414700346597 28914 READING 344 0.957280
1414700346601 28913 READING 359 0.671248
1414700346681 28913 READING 361 0.708904
1414700346725 28914 READING 359 0.830495
1414700346758 28913 READING 363 0.714642
1414700346833 28914 READING 359 0.664523
1414700346839 28913 READING 367 0.672643
1414700346920 28914 READING 353 0.555780
1414700346921 28913 READING 368 0.640110
1414700346999 28913 READING 369 0.667177
1414700346999 28914 READING 359 0.609133
1414700347069 28914 READING 355 0.665223
1414700347132 28914 READING 363 0.760575
1414700347205 28914 READING 353 0.641233
1414700347230 28913 READING 369 0.953711
1414700347529 28914 READING 364 0.186099
1414700347775 28914 READING 359 0.990730
1414700348055 28914 FUNCTION lru lambda h: 0.407376 * (h ** 0.118888)
1414700348055 28913 FUNCTION lru lambda h: 0.0195226 * (h ** 0.646874)
1414700348055 28914 RECOMMEND 359
1414700348055 28913 RECOMMEND 359
1414700348196 28913 READING 369 0.985346
1414700348669 28914 READING 369 0.995630
1414700349002 28913 READING 369 0.990255
1414700349344 28914 READING 365 0.992193
1414700349800 28913 READING 311 0.991214
1414700350155 28914 READING 373 0.992269
1414700350635 28913 READING 370 0.988234
1414700350790 28914 READING 373 0.978772
1414700351472 28913 READING 314 0.985558
1414700351543 28914 READING 323 0.983970
1414700352150 28913 READING 370 0.980886
1414700352192 28914 READING 373 0.984281
1414700352847 28913 READING 319 0.984611
1414700353026 28914 READING 322 0.991602
1414700353712 28913 READING 367 0.981168
1414700353792 28914 READING 372 0.984990
1414700354591 28913 READING 324 0.984631
1414700354794 28914 READING 326 0.987956
1414700355461 28913 READING 363 0.974966
1414700355643 28914 READING 369 0.983957
1414700356338 28913 READING 330 0.975080
1414700356409 28914 READING 332 0.980098
1414700357149 28913 READING 360 0.970033
1414700357149 28914 READING 366 0.954713
1414700358053 28914 READING 338 0.974424
1414700358056 28914 FUNCTION lru lambda h: 0.251223 * (h ** 0.206457)
1414700358056 28913 FUNCTION lru lambda h: 0.0182344 * (h ** 0.65991)
1414700358056 28914 RECOMMEND 359
1414700358056 28913 RECOMMEND 359
1414700358204 28913 READING 335 0.978546
1414700358922 28913 READING 357 0.963988
1414700359125 28914 READING 363 0.980416
1414700359916 28913 READING 356 0.973816
1414700359952 28914 READING 342 0.974109
1414700360714 28914 READING 360 0.971249
1414700360783 28913 READING 360 0.965619
1414700361426 28914 READING 359 0.966568
1414700361690 28913 READING 360 0.961431
1414700362197 28914 READING 359 0.968067
1414700362737 28913 READING 360 0.972560
1414700363288 28914 READING 360 0.972127
1414700363555 28913 READING 345 0.969984
1414700364110 28914 READING 357 0.973716
1414700364645 28913 READING 359 0.973718
1414700364865 28914 READING 361 0.970377
1414700365455 28913 READING 344 0.968390
1414700365565 28914 READING 357 0.960784
1414700366225 28914 READING 362 0.959937
1414700366560 28913 READING 360 0.724000
1414700367557 28914 READING 357 0.986508
1414700367641 28913 READING 375 0.976395
1414700368040 28913 READING 371 0.960956
1414700368056 28914 FUNCTION lru lambda h: 0.248174 * (h ** 0.209285)
1414700368056 28913 FUNCTION lru lambda h: 0.017656 * (h ** 0.665931)
1414700368056 28914 RECOMMEND 359
1414700368056 28913 RECOMMEND 359
1414700368155 28913 READING 355 0.860041
1414700368223 28913 READING 368 0.766685
1414700368306 28914 READING 362 0.958107
1414700368309 28913 READING 371 0.606048
1414700368377 28913 READING 372 0.750700
1414700368458 28914 READING 356 0.788321
1414700368458 28913 READING 373 0.641489
1414700368529 28913 READING 374 0.695137
1414700368557 28914 READING 360 0.760400
1414700368602 28913 READING 375 0.704332
1414700368627 28914 READING 359 0.711935
1414700368673 28913 READING 375 0.828371
1414700368696 28914 READING 366 0.735527
1414700368757 28914 READING 366 0.766205
1414700368829 28914 READING 369 0.636638
1414700368895 28914 READING 369 0.736466
1414700369200 28914 READING 370 0.151990
1414700369255 28914 READING 370 0.973900
1414700369533 28913 READING 375 0.992686
1414700369714 28914 READING 370 0.991538
1414700370382 28913 READING 376 0.991142
1414700370533 28914 READING 372 0.993835
1414700371199 28914 READING 373 0.991534
1414700371220 28913 READING 378 0.989691
1414700371919 28914 READING 372 0.987007
1414700372025 28913 READING 378 0.989183
1414700372572 28914 READING 321 0.984940
1414700372746 28913 READING 327 0.988023
1414700373502 28914 READING 372 0.990100
1414700373589 28913 READING 379 0.990021
1414700374235 28913 READING 326 0.983600
1414700374301 28914 READING 320 0.987803
1414700374939 28914 READING 371 0.987676
1414700374999 28913 READING 377 0.990320
1414700375662 28914 READING 325 0.981514
1414700375845 28913 READING 329 0.984270
1414700376432 28914 READING 369 0.981954
1414700376680 28913 READING 375 0.976075
1414700377281 28914 READING 330 0.982624
1414700377608 28913 READING 334 0.984096
1414700378035 28914 READING 364 0.978321
1414700378056 28914 FUNCTION lru lambda h: 0.245277 * (h ** 0.212182)
1414700378056 28913 FUNCTION lru lambda h: 0.00506387 * (h ** 0.882015)
1414700378056 28914 RECOMMEND 359
1414700378056 28913 RECOMMEND 359
1414700378440 28913 READING 372 0.981074
1414700378853 28914 READING 336 0.976554
1414700379292 28913 READING 340 0.976468
1414700379654 28914 READING 363 0.972618
1414700380085 28913 READING 369 0.975345
1414700380568 28914 READING 341 0.978689
1414700380883 28913 READING 346 0.981355
1414700381487 28914 READING 360 0.975984
1414700381745 28913 READING 366 0.973689
1414700382262 28914 READING 344 0.971432
1414700382590 28913 READING 349 0.978004
1414700383170 28914 READING 358 0.973461
1414700383406 28913 READING 364 0.969012
1414700384061 28914 READING 359 0.971660
1414700384329 28913 READING 364 0.972497
1414700384806 28914 READING 358 0.964220
1414700385083 28913 READING 364 0.958953
1414700385711 28914 READING 361 0.971328
1414700385785 28913 READING 365 0.960203
1414700386364 28914 READING 358 0.949728
1414700386539 28913 READING 365 0.963241
1414700387034 28914 READING 363 0.961352
1414700387202 28913 READING 365 0.961141
1414700387518 28914 READING 358 0.946099
1414700388056 28914 FUNCTION lru lambda h: 0.243204 * (h ** 0.214161)
1414700388056 28913 FUNCTION lru lambda h: 0.00479456 * (h ** 0.89225)
1414700388056 28914 RECOMMEND 359
1414700388056 28913 RECOMMEND 359
1414700388197 28913 READING 365 0.960812
1414700388831 28914 READING 363 0.983381
1414700389105 28913 READING 365 0.972065
1414700389316 28913 READING 369 0.921237
1414700389437 28913 READING 369 0.706095
1414700389449 28914 READING 353 0.939691
1414700389508 28913 READING 365 0.697165
1414700389589 28913 READING 370 0.541941
1414700389589 28914 READING 361 0.807066
1414700389652 28913 READING 370 0.674558
1414700389690 28914 READING 354 0.773609
1414700389717 28913 READING 373 0.668225
1414700389777 28914 READING 361 0.584406
1414700389788 28913 READING 374 0.616536
1414700389857 28914 READING 364 0.629280
1414700389953 28914 READING 370 0.560346
1414700390049 28914 READING 371 0.507574
1414700390141 28914 READING 372 0.551790
1414700390161 28913 READING 375 0.115334
1414700390206 28913 READING 371 0.977711
1414700390207 28914 READING 373 0.727241
1414700390254 28913 READING 373 0.968391
1414700390260 28914 READING 338 0.965878
1414700390590 28913 READING 375 0.987950
1414700390897 28914 READING 370 0.992095
1414700391174 28913 READING 376 0.989851
1414700391682 28914 READING 372 0.991161
1414700391889 28913 READING 377 0.992222
1414700392317 28914 READING 373 0.989897
1414700392545 28913 READING 317 0.988208
1414700392948 28914 READING 320 0.984301
1414700393283 28913 READING 377 0.991038
1414700393925 28913 READING 318 0.982937
1414700393945 28914 READING 373 0.770397
1414700394676 28914 READING 299 0.992491
1414700394725 28913 READING 375 0.991056
1414700395300 28913 READING 318 0.989874
1414700395370 28914 READING 353 0.990410
1414700395915 28913 READING 374 0.990489
1414700396028 28914 READING 351 0.989336
1414700396637 28913 READING 323 0.988136
1414700396808 28914 READING 352 0.988812
1414700397502 28913 READING 370 0.990455
1414700397692 28914 READING 354 0.988611
1414700398056 28914 FUNCTION lru lambda h: 0.206148 * (h ** 0.243273)
1414700398057 28913 FUNCTION lru lambda h: 0.00170896 * (h ** 0.999)
1414700398057 28914 RECOMMEND 359
1414700398057 28913 RECOMMEND 359
1414700398183 28913 READING 329 0.985483
1414700398802 28914 READING 352 0.990300
1414700398921 28913 READING 366 0.979532
1414700399707 28913 READING 335 0.981161
1414700399808 28914 READING 355 0.990585
1414700400619 28913 READING 364 0.982983
1414700400673 28914 READING 351 0.983956
1414700401326 28913 READING 340 0.973134
1414700401581 28914 READING 354 0.982790
1414700402097 28913 READING 361 0.975546
1414700402561 28914 READING 354 0.982117
1414700402839 28913 READING 343 0.969715
1414700403517 28914 READING 355 0.980099
1414700403631 28913 READING 359 0.972411
1414700404511 28913 READING 359 0.967780
1414700404521 28914 READING 360 0.972182
1414700405355 28913 READING 359 0.972340
1414700405779 28914 READING 359 0.982091
1414700406154 28913 READING 360 0.966958
1414700406724 28914 READING 358 0.973761
1414700406880 28913 READING 360 0.953727
1414700407674 28913 READING 361 0.966060
1414700407718 28914 READING 360 0.973073
1414700408057 28914 FUNCTION lru lambda h: 0.20264 * (h ** 0.247167)
1414700408057 28913 FUNCTION lru lambda h: 0.00161816 * (h ** 0.999)
1414700408057 28914 RECOMMEND 359
1414700408057 28913 RECOMMEND 359
1414700408135 28913 READING 361 0.941326
1414700408587 28913 READING 362 0.935632
1414700408626 28914 READING 358 0.969492
1414700409607 28913 READING 362 0.979428
1414700410171 28914 READING 363 0.983149
1414700410214 28913 READING 343 0.964920
1414700410340 28913 READING 360 0.882564
1414700410445 28913 READING 345 0.732888
1414700410504 28913 READING 353 0.685409
1414700410564 28913 READING 360 0.669169
1414700410626 28913 READING 360 0.652801
1414700410684 28913 READING 366 0.695818
1414700410745 28913 READING 367 0.651822
1414700410766 28914 READING 360 0.971924
1414700410903 28914 READING 366 0.760749
1414700410995 28914 READING 362 0.676624
1414700411088 28914 READING 368 0.674166
1414700411108 28913 READING 368 0.141703
1414700411178 28913 READING 370 0.581896
1414700411179 28914 READING 370 0.615888
1414700411220 28913 READING 371 0.977447
1414700411259 28914 READING 373 0.699581
1414700411337 28914 READING 373 0.761455
1414700411409 28914 READING 348 0.819293
1414700411440 28913 READING 372 0.986248
1414700412321 28914 READING 376 0.986377
1414700412331 28913 READING 373 0.992994
1414700412900 28913 READING 372 0.988276
1414700413102 28914 READING 374 0.989443
1414700413626 28913 READING 319 0.987010
1414700413979 28914 READING 374 0.988776
1414700414193 28913 READING 373 0.987521
1414700414775 28914 READING 313 0.989752
1414700414805 28913 READING 319 0.989393
1414700415489 28913 READING 372 0.992414
1414700415634 28914 READING 375 0.984085
1414700416143 28913 READING 320 0.989589
1414700416390 28914 READING 317 0.980770
1414700416745 28913 READING 371 0.985450
1414700417297 28914 READING 373 0.987423
1414700417468 28913 READING 326 0.985446
1414700418057 28914 FUNCTION lru lambda h: 0.161121 * (h ** 0.286592)
1414700418057 28913 FUNCTION lru lambda h: 0.00192607 * (h ** 0.999)
1414700418057 28914 RECOMMEND 359
1414700418057 28913 RECOMMEND 359
1414700418273 28913 READING 368 0.987373
1414700418293 28914 READING 314 0.989691
1414700418951 28913 READING 331 0.981260
1414700419298 28914 READING 371 0.992702
1414700419698 28913 READING 364 0.980652
1414700420177 28914 READING 318 0.980909
1414700420441 28913 READING 337 0.979454
1414700421065 28914 READING 368 0.983208
1414700421189 28913 READING 362 0.977659
1414700421996 28914 READING 324 0.987828
1414700422098 28913 READING 342 0.980865
1414700422855 28914 READING 364 0.984519
1414700423083 28913 READING 359 0.980683
1414700423752 28913 READING 359 0.970705
1414700423979 28914 READING 331 0.983527
1414700424523 28913 READING 359 0.972384
1414700424947 28914 READING 361 0.978980
1414700425356 28913 READING 359 0.973201
1414700425883 28914 READING 337 0.975627
1414700426232 28913 READING 357 0.972544
1414700426929 28914 READING 357 0.961579
1414700426933 28913 READING 361 0.944566
1414700427629 28913 READING 360 0.964092
1414700427768 28914 READING 357 0.969147
1414700428057 28914 FUNCTION lru lambda h: 0.116497 * (h ** 0.344966)
1414700428057 28913 FUNCTION lru lambda h: 0.00172541 * (h ** 0.999)
1414700428057 28914 RECOMMEND 359
1414700428057 28913 RECOMMEND 359
1414700428277 28913 READING 364 0.962512
1414700428671 28914 READING 363 0.969817
1414700428956 28913 READING 364 0.962997
1414700429577 28913 READING 365 0.956760
1414700429820 28914 READING 363 0.969634
1414700430210 28913 READING 365 0.955600
1414700431012 28913 READING 365 0.969780
1414700431144 28914 READING 361 0.982524
1414700431306 28914 READING 364 0.884622
1414700431416 28914 READING 364 0.783246
1414700431509 28913 READING 365 0.914303
1414700431513 28914 READING 364 0.646969
1414700431591 28914 READING 365 0.734897
1414700431629 28913 READING 349 0.815194
1414700431749 28913 READING 367 0.674817
1414700431840 28913 READING 366 0.528480
1414700431925 28913 READING 368 0.530249
1414700431944 28914 READING 370 0.194165
1414700431990 28913 READING 372 0.678435
1414700432004 28914 READING 386 0.984657
1414700432046 28913 READING 374 0.748610
1414700432076 28914 READING 387 0.986429
1414700432105 28913 READING 375 0.706614
1414700432122 28914 DEATH 420
1414700432156 28913 READING 373 0.827314
1414700432406 28913 READING 340 0.172944
1414700432452 28913 DEATH 452
