1413399193664 0 TOTAL_MEM 5948
1413399213714 585 CREATION
1413399213714 585 READING 9 0.991937
1413399213714 585 MINHEAP 2
1413399213714 585 MINHEAP 1211
1413399213718 587 CREATION
1413399213718 587 READING 9 0.991511
1413399213718 587 MINHEAP 2
1413399213718 587 MINHEAP 276
1413399213762 587 READING 9 0.977984
1413399213767 585 READING 9 0.981287
1413399213789 587 READING 9 0.966552
1413399213803 585 READING 9 0.970179
1413399213811 587 READING 9 0.951577
1413399213825 585 READING 9 0.954128
1413399213911 587 READING 11 0.987195
1413399213915 585 READING 11 0.982213
1413399214062 587 READING 11 0.976685
1413399214075 585 READING 11 0.983564
1413399214138 587 READING 17 0.870132
1413399214176 585 READING 17 0.932999
1413399214318 587 READING 17 0.750618
1413399214322 585 READING 17 0.630083
1413399214466 585 READING 30 0.804838
1413399214553 587 READING 30 0.920194
1413399214594 585 READING 31 0.841187
1413399214660 587 READING 31 0.865221
1413399214871 585 READING 35 0.491765
1413399214902 587 READING 35 0.467105
1413399214973 585 READING 49 0.893217
1413399215013 587 READING 47 0.855366
1413399215262 585 READING 51 0.270066
1413399215290 587 READING 50 0.368223
1413399215341 585 READING 67 0.836635
1413399215354 587 READING 65 0.858020
1413399215423 585 READING 72 0.827008
1413399215433 587 READING 69 0.865055
1413399215685 587 READING 71 0.236686
1413399215718 585 READING 73 0.231282
1413399215794 585 READING 102 0.836391
1413399215836 587 READING 100 0.762144
1413399216165 587 READING 100 0.199591
1413399216170 585 READING 102 0.272198
1413399216243 587 READING 132 0.894198
1413399216259 585 READING 135 0.783450
1413399216363 587 READING 132 0.802434
1413399216389 585 READING 135 0.762280
1413399216496 587 READING 134 0.699480
1413399216496 585 READING 136 0.665414
1413399216593 587 READING 137 0.673912
1413399216601 585 READING 139 0.724863
1413399217174 585 READING 142 0.114204
1413399217239 587 READING 141 0.118470
1413399217293 585 READING 181 0.779471
1413399217352 587 READING 182 0.784444
1413399217385 585 READING 185 0.764932
1413399217465 587 READING 188 0.798298
1413399217492 585 READING 188 0.772290
1413399217585 587 READING 190 0.715611
1413399217595 585 READING 196 0.798930
1413399217686 587 READING 197 0.812650
1413399217725 585 READING 198 0.751940
1413399218332 585 READING 201 0.128483
1413399218499 585 READING 250 0.506276
1413399218631 585 READING 253 0.640907
1413399218768 585 READING 258 0.561332
1413399218839 587 READING 200 0.461850
1413399218973 585 READING 261 0.570180
1413399219141 585 READING 270 0.500113
1413399219211 587 READING 249 0.901337
1413399219311 585 READING 274 0.421546
1413399219311 587 READING 254 0.747192
1413399219432 585 READING 284 0.513807
1413399219456 587 READING 260 0.851126
1413399219649 587 READING 262 0.765037
1413399219787 587 READING 268 0.796321
1413399219981 587 READING 269 0.798084
1413399220067 585 READING 292 0.094132
1413399220089 587 READING 271 0.751296
1413399220189 585 READING 346 0.476465
1413399220224 587 READING 276 0.781877
1413399220285 585 READING 339 0.695516
1413399220324 587 READING 282 0.728796
1413399220433 587 READING 285 0.660775
1413399220661 587 READING 292 0.697747
1413399220792 585 READING 288 0.136529
1413399220919 585 READING 388 0.552143
1413399221019 585 READING 393 0.733530
1413399221129 587 READING 293 0.872995
1413399221149 585 READING 386 0.618256
1413399221257 587 READING 293 0.576370
1413399221280 585 READING 390 0.628307
1413399221358 587 READING 297 0.743304
1413399221404 585 READING 390 0.669898
1413399221585 585 READING 393 0.517653
1413399221741 585 READING 395 0.569256
1413399221909 585 READING 403 0.414266
1413399222072 585 READING 406 0.423637
1413399222136 587 READING 296 0.107523
1413399222190 585 READING 417 0.497224
1413399222250 587 READING 346 0.728463
1413399222321 585 READING 424 0.520455
1413399222485 585 READING 430 0.391979
1413399222526 587 READING 351 0.918476
1413399222688 587 READING 352 0.818481
1413399222854 587 READING 354 0.853801
1413399222977 587 READING 355 0.585367
1413399223109 587 READING 361 0.610913
1413399223274 587 READING 361 0.723550
1413399223385 587 READING 369 0.697164
1413399223483 585 READING 435 0.095939
1413399223665 585 FUNCTION lru lambda h: 1.36642 * (h ** 0.001)
1413399223665 587 FUNCTION lru lambda h: 0.788008 * (h ** 0.001)
1413399223665 585 RECOMMEND 2974
1413399223665 587 RECOMMEND 2974
1413399223717 585 READING 496 0.328903
1413399223869 585 READING 486 0.453545
1413399224490 587 READING 369 0.954806
1413399224980 585 READING 428 0.074470
1413399225185 585 READING 553 0.403593
1413399225313 585 READING 556 0.619972
1413399225465 585 READING 556 0.654780
1413399225588 585 READING 558 0.667324
1413399225744 585 READING 549 0.616214
1413399225933 585 READING 554 0.528218
1413399225987 587 READING 374 0.977094
1413399226140 585 READING 554 0.540557
1413399226304 585 READING 558 0.576157
1413399226460 585 READING 564 0.620604
1413399226601 585 READING 573 0.546992
1413399226758 585 READING 576 0.502485
1413399226891 585 READING 586 0.510108
1413399227041 585 READING 591 0.465201
1413399227172 585 READING 601 0.495628
1413399227342 585 READING 607 0.376912
1413399227491 587 READING 377 0.951457
1413399228513 585 READING 614 0.053645
1413399228782 587 READING 376 0.953969
1413399229007 585 READING 689 0.773208
1413399229394 585 READING 612 0.803879
1413399229810 585 READING 683 0.820591
1413399230066 587 READING 380 0.973590
1413399230305 585 READING 686 0.831257
1413399230681 585 READING 684 0.812908
1413399231563 587 READING 381 0.960663
1413399232505 585 READING 689 0.028216
1413399232674 585 READING 771 0.402914
1413399232851 585 READING 696 0.592086
1413399232954 585 READING 756 0.373699
1413399233049 585 READING 762 0.389811
1413399233155 587 READING 384 0.964640
1413399233165 585 READING 759 0.365635
1413399233665 585 FUNCTION lru lambda h: 1.08558 * (h ** 0.001)
1413399233665 587 FUNCTION lru lambda h: 0.651863 * (h ** 0.0121374)
1413399233665 585 RECOMMEND 2974
1413399233666 587 RECOMMEND 2974
1413399234017 585 READING 761 0.049973
1413399234533 585 READING 843 0.780963
1413399234660 585 READING 843 0.701734
1413399234785 585 READING 849 0.540530
1413399234797 587 READING 381 0.975552
1413399234890 585 READING 850 0.651349
1413399235054 585 READING 854 0.811206
1413399235282 585 READING 855 0.835231
1413399236250 587 READING 384 0.949599
1413399236265 585 READING 861 0.233389
1413399236347 585 READING 947 0.912377
1413399236619 585 READING 950 0.984272
1413399236766 585 READING 954 0.939528
1413399237128 585 READING 955 0.953863
1413399237331 585 READING 812 0.861917
1413399237502 585 READING 933 0.834975
1413399237670 585 READING 827 0.850449
1413399237784 587 READING 385 0.974239
1413399237864 585 READING 920 0.805648
1413399238046 585 READING 831 0.838220
1413399238233 585 READING 911 0.849620
1413399238421 585 READING 836 0.862463
1413399238614 585 READING 904 0.874036
1413399238817 585 READING 911 0.834034
1413399239030 585 READING 900 0.850531
1413399239201 587 READING 386 0.972161
1413399239235 585 READING 905 0.874548
1413399240479 585 READING 898 0.982765
1413399240536 587 READING 389 0.970779
1413399241295 585 READING 902 0.947164
1413399241484 585 READING 901 0.742425
1413399241662 585 READING 905 0.784526
1413399241850 585 READING 912 0.775568
1413399242031 585 READING 914 0.795084
1413399242133 587 READING 389 0.975562
1413399242223 585 READING 922 0.807383
1413399242416 585 READING 923 0.797963
1413399242616 585 READING 932 0.807323
1413399242821 585 READING 932 0.800688
1413399243133 585 READING 939 0.889214
1413399243466 585 READING 939 0.839581
1413399243666 585 FUNCTION lru lambda h: 0.543558 * (h ** 0.001)
1413399243666 587 FUNCTION lru lambda h: 0.610604 * (h ** 0.0286251)
1413399243666 585 RECOMMEND 2974
1413399243666 587 RECOMMEND 2974
1413399243834 585 READING 940 0.880462
1413399244081 585 READING 943 0.615005
1413399244094 587 READING 392 0.981549
1413399244298 585 READING 943 0.670717
1413399244863 587 READING 393 0.923364
1413399245045 587 READING 393 0.726192
1413399245192 587 READING 394 0.732364
1413399245341 587 READING 402 0.751194
1413399246201 587 READING 405 0.973082
1413399246450 585 READING 949 0.055505
1413399246711 585 READING 1075 0.499929
1413399246889 585 READING 1080 0.717844
1413399247112 585 READING 1088 0.629462
1413399247306 585 READING 1090 0.727624
1413399247527 585 READING 1095 0.689269
1413399247774 585 READING 1098 0.630465
1413399248036 585 READING 1105 0.645815
1413399248116 587 READING 414 0.986151
1413399248300 585 READING 1108 0.695951
1413399249863 585 READING 1124 0.943104
1413399250081 587 READING 415 0.983129
1413399251697 585 READING 1125 0.956724
1413399251853 587 READING 417 0.983922
1413399253623 585 READING 1141 0.922493
1413399253666 585 FUNCTION lru lambda h: 0.0641975 * (h ** 0.332108)
1413399253666 587 FUNCTION lru lambda h: 0.555273 * (h ** 0.0521503)
1413399253666 585 RECOMMEND 2974
1413399253666 587 RECOMMEND 2974
1413399253782 587 READING 419 0.986017
1413399255487 585 READING 1144 0.936060
1413399255844 587 READING 418 0.986561
1413399257404 585 READING 1157 0.939243
1413399257744 587 READING 421 0.984190
1413399259326 585 READING 1163 0.942235
1413399259693 587 READING 418 0.984087
1413399261327 585 READING 1171 0.955406
1413399261558 587 READING 421 0.981734
1413399263359 587 READING 421 0.960197
1413399263374 585 READING 1174 0.946085
1413399263666 585 FUNCTION lru lambda h: 0.0247708 * (h ** 0.478838)
1413399263666 587 FUNCTION lru lambda h: 0.532679 * (h ** 0.0623228)
1413399263666 585 RECOMMEND 2974
1413399263666 587 RECOMMEND 2974
1413399265421 585 READING 1173 0.952094
1413399265523 587 READING 422 0.986086
1413399265849 587 READING 422 0.934015
1413399266000 587 READING 423 0.848603
1413399266149 587 READING 427 0.873993
1413399267188 587 READING 428 0.981932
1413399267524 585 READING 1178 0.950666
1413399269125 587 READING 434 0.987953
1413399269684 585 READING 1185 0.948429
1413399271233 587 READING 435 0.986674
1413399271836 585 READING 1185 0.948418
1413399273451 587 READING 438 0.988843
1413399273666 585 FUNCTION lru lambda h: 0.0146339 * (h ** 0.559256)
1413399273666 587 FUNCTION lru lambda h: 0.498762 * (h ** 0.0782682)
1413399273666 585 RECOMMEND 2974
1413399273666 587 RECOMMEND 2974
1413399274023 585 READING 1193 0.951976
1413399275458 587 READING 439 0.986305
1413399276273 585 READING 1196 0.950200
1413399277689 587 READING 438 0.987062
1413399278474 585 READING 1203 0.958655
1413399279824 587 READING 440 0.984881
1413399280715 585 READING 1208 0.950990
1413399281885 587 READING 438 0.983864
1413399282956 585 READING 1215 0.953293
1413399283667 585 FUNCTION lru lambda h: 0.00379889 * (h ** 0.761103)
1413399283667 587 FUNCTION lru lambda h: 0.489184 * (h ** 0.0829274)
1413399283667 585 RECOMMEND 2974
1413399283667 587 RECOMMEND 2974
1413399284033 587 READING 440 0.983149
1413399286193 587 READING 441 0.988330
1413399286433 587 READING 442 0.762142
1413399286637 587 READING 442 0.735389
1413399286965 585 READING 1221 0.553547
1413399287436 587 READING 444 0.979612
1413399289201 585 READING 1302 0.989265
1413399289684 587 READING 453 0.990223
1413399291466 585 READING 1306 0.989971
1413399292103 587 READING 454 0.990689
1413399293667 585 FUNCTION lru lambda h: 0.00398871 * (h ** 0.753534)
1413399293667 587 FUNCTION lru lambda h: 0.474094 * (h ** 0.0903915)
1413399293667 585 RECOMMEND 2974
1413399293667 587 RECOMMEND 2974
1413399293797 585 READING 1318 0.982545
1413399294519 587 READING 456 0.988642
1413399296132 585 READING 1323 0.977592
1413399296785 587 READING 459 0.986743
1413399298510 585 READING 1325 0.974451
1413399299526 587 READING 458 0.988564
1413399300845 585 READING 1328 0.971439
1413399301977 587 READING 460 0.986401
1413399303341 585 READING 1318 0.979792
1413399303667 585 FUNCTION lru lambda h: 0.00267671 * (h ** 0.812272)
1413399303667 587 FUNCTION lru lambda h: 0.4597 * (h ** 0.0976706)
1413399303667 585 RECOMMEND 2974
1413399303667 587 RECOMMEND 2974
1413399304363 587 READING 462 0.985468
1413399305777 585 READING 1241 0.967405
1413399306848 587 READING 463 0.990973
1413399307094 587 READING 464 0.922976
1413399307279 587 READING 465 0.880143
1413399308418 585 READING 1312 0.963131
1413399308630 587 READING 471 0.987173
1413399310910 585 READING 1317 0.961930
1413399311195 587 READING 472 0.990609
1413399313500 585 READING 1320 0.963052
1413399313667 585 FUNCTION lru lambda h: 0.001 * (h ** 0.992514)
1413399313667 587 FUNCTION lru lambda h: 0.445183 * (h ** 0.105188)
1413399313667 585 RECOMMEND 2974
1413399313667 587 RECOMMEND 2974
1413399313718 587 READING 475 0.989058
1413399316067 585 READING 1322 0.969849
1413399316438 587 READING 477 0.990011
1413399318712 585 READING 1327 0.956035
1413399319111 587 READING 476 0.988877
1413399321370 585 READING 1333 0.958956
1413399321599 587 READING 478 0.987794
1413399323667 585 FUNCTION lru lambda h: 0.001 * (h ** 0.999)
1413399323668 587 FUNCTION lru lambda h: 0.435005 * (h ** 0.110555)
1413399323668 585 RECOMMEND 2974
1413399323668 587 RECOMMEND 2974
1413399323960 585 READING 1339 0.953121
1413399324256 587 READING 478 0.987035
1413399326595 585 READING 1348 0.950879
1413399327212 587 READING 479 0.992478
1413399327507 587 READING 480 0.932717
1413399327709 587 READING 481 0.864632
1413399329317 585 READING 1359 0.942003
1413399329683 587 READING 486 0.751301
1413399332042 585 READING 1366 0.950755
1413399332184 587 READING 502 0.995167
1413399333668 585 FUNCTION lru lambda h: 0.001 * (h ** 0.999)
1413399333668 587 FUNCTION lru lambda h: 0.431273 * (h ** 0.112531)
1413399333668 585 RECOMMEND 2974
1413399333668 587 RECOMMEND 2974
1413399334865 585 READING 1378 0.949444
1413399334963 587 READING 505 0.993747
1413399337519 587 READING 508 0.991579
1413399337750 585 READING 1382 0.950511
1413399340334 587 READING 510 0.990596
1413399340646 585 READING 1393 0.949398
1413399343104 587 READING 512 0.989147
1413399343586 585 READING 1396 0.953063
1413399343668 585 FUNCTION lru lambda h: 0.00119358 * (h ** 0.92956)
1413399343668 587 FUNCTION lru lambda h: 0.422733 * (h ** 0.117041)
1413399343668 585 RECOMMEND 2974
1413399343668 587 RECOMMEND 2974
1413399345754 587 READING 510 0.986935
1413399347582 587 READING 512 0.982052
1413399347788 587 READING 510 0.892456
1413399348301 587 READING 516 0.958208
1413399351001 587 READING 523 0.991161
1413399353668 585 FUNCTION lru lambda h: 0.00119358 * (h ** 0.92956)
1413399353668 587 FUNCTION lru lambda h: 0.348597 * (h ** 0.150407)
1413399353668 585 RECOMMEND 2974
1413399353668 587 RECOMMEND 2974
1413399354036 587 READING 525 0.990770
1413399357029 587 READING 524 0.989462
1413399360097 587 READING 526 0.988768
1413399363369 587 READING 530 0.981925
1413399363668 585 FUNCTION lru lambda h: 0.00119358 * (h ** 0.92956)
1413399363668 587 FUNCTION lru lambda h: 0.12471 * (h ** 0.325434)
1413399363668 585 RECOMMEND 2974
1413399363668 587 RECOMMEND 2974
1413399364043 585 READING 1407 0.866248
1413399366371 587 READING 531 0.985787
1413399368141 587 READING 533 0.983736
1413399368366 587 READING 537 0.876647
1413399369642 587 READING 542 0.983594
1413399372943 587 READING 543 0.992657
1413399373669 585 FUNCTION lru lambda h: 0.00101151 * (h ** 0.95284)
1413399373669 587 FUNCTION lru lambda h: 0.0345674 * (h ** 0.539827)
1413399373669 585 RECOMMEND 2974
1413399373669 587 RECOMMEND 2974
1413399376005 587 READING 545 0.990641
1413399378886 585 READING 1561 0.981771
1413399379348 587 READING 547 0.991460
1413399381880 585 READING 1612 0.979168
1413399382371 585 READING 1615 0.815057
1413399382422 587 READING 545 0.989576
1413399382741 585 READING 1604 0.763048
1413399383115 585 READING 1616 0.757290
1413399383504 585 READING 1643 0.771728
1413399383669 585 FUNCTION lru lambda h: 0.001 * (h ** 0.970835)
1413399383669 587 FUNCTION lru lambda h: 0.0444285 * (h ** 0.4978)
1413399383669 585 RECOMMEND 2974
1413399383669 587 RECOMMEND 2974
1413399383903 585 READING 1649 0.762339
1413399385650 587 READING 548 0.987923
1413399385860 585 READING 1683 0.966007
1413399388747 587 READING 547 0.993167
1413399389023 587 READING 548 0.925309
1413399389114 585 READING 1685 0.974730
1413399389319 587 READING 548 0.951871
1413399392431 587 READING 550 0.992703
1413399392560 585 READING 1697 0.976010
1413399393669 585 FUNCTION lru lambda h: 0.00529612 * (h ** 0.712431)
1413399393669 587 FUNCTION lru lambda h: 0.0250732 * (h ** 0.592089)
1413399393669 585 RECOMMEND 2974
1413399393669 587 RECOMMEND 2974
1413399395950 585 READING 1706 0.976216
1413399396063 587 READING 553 0.989712
1413399399231 587 READING 555 0.990798
1413399399586 585 READING 1704 0.972998
1413399402447 587 READING 554 0.983395
1413399403162 585 READING 1715 0.972222
1413399403669 585 FUNCTION lru lambda h: 0.00272314 * (h ** 0.805133)
1413399403669 587 FUNCTION lru lambda h: 0.0524209 * (h ** 0.470025)
1413399403669 585 RECOMMEND 2974
1413399403669 587 RECOMMEND 2974
1413399405898 587 READING 556 0.989650
1413399406902 585 READING 1705 0.973387
1413399409017 587 READING 558 0.993603
1413399409286 587 READING 559 0.922977
1413399410222 587 READING 560 0.982751
1413399410589 585 READING 1716 0.967110
1413399413526 587 READING 562 0.993080
1413399413670 585 FUNCTION lru lambda h: 0.00274246 * (h ** 0.803546)
1413399413670 587 FUNCTION lru lambda h: 0.031905 * (h ** 0.550605)
1413399413670 585 RECOMMEND 2974
1413399413670 587 RECOMMEND 2974
1413399414498 585 READING 1705 0.968653
1413399417007 587 READING 564 0.992468
1413399418481 585 READING 1715 0.972427
1413399420589 587 READING 566 0.991694
1413399422649 585 READING 1716 0.972308
1413399423670 585 FUNCTION lru lambda h: 0.00274192 * (h ** 0.803575)
1413399423670 587 FUNCTION lru lambda h: 0.0257878 * (h ** 0.58495)
1413399423670 585 RECOMMEND 2974
1413399423670 587 RECOMMEND 2974
1413399424102 587 READING 565 0.989860
1413399426776 585 READING 1723 0.969201
1413399427238 587 READING 567 0.987953
1413399429168 587 READING 570 0.987888
1413399429420 587 READING 571 0.920232
1413399431070 585 READING 1723 0.968113
1413399431808 587 READING 575 0.990939
1413399433670 585 FUNCTION lru lambda h: 0.00346141 * (h ** 0.770797)
1413399433670 587 FUNCTION lru lambda h: 0.0158109 * (h ** 0.663273)
1413399433670 585 RECOMMEND 2974
1413399433670 587 RECOMMEND 2974
1413399435293 585 READING 1727 0.964224
1413399435565 587 READING 576 0.993322
1413399438993 587 READING 578 0.991573
1413399439581 585 READING 1736 0.970112
1413399442693 587 READING 580 0.991409
1413399443670 585 FUNCTION lru lambda h: 0.00459684 * (h ** 0.730734)
1413399443670 587 FUNCTION lru lambda h: 0.0160704 * (h ** 0.660078)
1413399443670 585 RECOMMEND 2974
1413399443670 587 RECOMMEND 2974
1413399443857 585 READING 1742 0.961176
1413399445993 587 READING 580 0.989601
1413399448127 585 READING 1755 0.960856
1413399448853 587 READING 582 0.991448
1413399449114 587 READING 584 0.927693
1413399451109 587 READING 585 0.990986
1413399452435 585 READING 1765 0.957627
1413399453671 585 FUNCTION lru lambda h: 0.0379127 * (h ** 0.436991)
1413399453671 587 FUNCTION lru lambda h: 0.163609 * (h ** 0.285129)
1413399453671 585 RECOMMEND 2974
1413399453671 587 RECOMMEND 2974
1413399454903 587 READING 592 0.993359
1413399456892 585 READING 1782 0.960781
1413399458650 587 READING 593 0.992466
1413399462041 587 READING 592 0.976100
1413399462559 585 READING 1789 0.749860
1413399463671 585 FUNCTION lru lambda h: 0.0500159 * (h ** 0.397854)
1413399463671 587 FUNCTION lru lambda h: 0.187121 * (h ** 0.263462)
1413399463671 585 RECOMMEND 2974
1413399463671 587 RECOMMEND 2974
1413399465954 587 READING 594 0.990712
1413399466880 585 READING 1794 0.991798
1413399468708 587 READING 597 0.991295
1413399468979 587 READING 597 0.923365
1413399471318 585 READING 1800 0.988823
1413399471593 587 READING 602 0.992252
1413399473671 585 FUNCTION lru lambda h: 0.0502285 * (h ** 0.397292)
1413399473671 587 FUNCTION lru lambda h: 0.31322 * (h ** 0.18075)
1413399473671 585 RECOMMEND 2974
1413399473671 587 RECOMMEND 2974
1413399475490 587 READING 603 0.993266
1413399476000 585 READING 1826 0.986744
1413399479688 587 READING 605 0.992951
1413399480640 585 READING 1833 0.984044
1413399483634 587 READING 607 0.991551
1413399483671 585 FUNCTION lru lambda h: 0.0815331 * (h ** 0.330722)
1413399483671 587 FUNCTION lru lambda h: 0.436137 * (h ** 0.12782)
1413399483671 585 RECOMMEND 2974
1413399483671 587 RECOMMEND 2974
1413399487655 587 READING 607 0.987895
1413399489014 587 READING 609 0.980701
1413399489271 587 DEATH 178
1413399493672 585 FUNCTION lru lambda h: 0.0815331 * (h ** 0.330722)
1413399493672 585 RECOMMEND 5948
1413399503672 585 FUNCTION lru lambda h: 0.0815331 * (h ** 0.330722)
1413399503672 585 RECOMMEND 5948
1413399510052 585 READING 1838 0.997370
1413399513672 585 FUNCTION lru lambda h: 0.0767034 * (h ** 0.3391)
1413399513672 585 RECOMMEND 5948
1413399517549 585 READING 1677 0.990203
1413399518197 585 READING 1837 0.874797
1413399518760 585 READING 1839 0.814092
1413399519309 585 READING 1869 0.851720
1413399519551 585 DEATH 207
