MemTotal:       16388228 kB
MemFree:        14421516 kB
Buffers:          188300 kB
Cached:          1253556 kB
SwapCached:            0 kB
Active:           970584 kB
Inactive:         622416 kB
Active(anon):     151916 kB
Inactive(anon):    16560 kB
Active(file):     818668 kB
Inactive(file):   605856 kB
Unevictable:           0 kB
Mlocked:               0 kB
SwapTotal:      16728060 kB
SwapFree:       16728060 kB
Dirty:                20 kB
Writeback:             0 kB
AnonPages:        151120 kB
Mapped:            85432 kB
Shmem:             17336 kB
Slab:             228984 kB
SReclaimable:     209004 kB
SUnreclaim:        19980 kB
KernelStack:        1824 kB
PageTables:         7512 kB
NFS_Unstable:          0 kB
Bounce:                0 kB
WritebackTmp:          0 kB
CommitLimit:    24922172 kB
Committed_AS:     462796 kB
VmallocTotal:   34359738367 kB
VmallocUsed:      114348 kB
VmallocChunk:   34359597580 kB
HardwareCorrupted:     0 kB
AnonHugePages:     34816 kB
HugePages_Total:       0
HugePages_Free:        0
HugePages_Rsvd:        0
HugePages_Surp:        0
Hugepagesize:       2048 kB
DirectMap4k:       82884 kB
DirectMap2M:    16648192 kB
