economemd
    total memory: 1728 MB
    timer interval: 10 s
    timer start state: running
    utility model: root

    caches:
        lru

    force utility function validity: yes
    make recommendations: yes
    equal recommendations: no

    reading receiver name: vengerov
    command receiver name: vengerov

    dump file: economemd.dump.log
    log file: /home/callum/economics_memory_code/dynamic_sizing/data/output/timerComparisonMany_2014_10_15_12_35_15/sub60_timerComparisonSingle/sub3_timeBenchmarkDaemon/daemon_run06_log.txt
    log readings: yes
    log functions: yes

PyOptimiser: initialising...
PyOptimiser: initialised
ReadingThread: starting
TimerThread: starting
CommandThread: starting
Recommendation: no clients; no recommendation
Recommendation: no clients; no recommendation
Reading from 20966: heap size 9 MB, throughput 0.989402
Clients: 1
Client 20966 has a minimum heap size of 12 MB
Reading from 20965: heap size 9 MB, throughput 0.991536
Clients: 2
Client 20965 has a minimum heap size of 276 MB
Reading from 20965: heap size 9 MB, throughput 0.987821
Reading from 20966: heap size 9 MB, throughput 0.989348
Reading from 20965: heap size 9 MB, throughput 0.981091
Reading from 20966: heap size 9 MB, throughput 0.984971
Reading from 20965: heap size 9 MB, throughput 0.976564
Reading from 20966: heap size 9 MB, throughput 0.980375
Reading from 20965: heap size 11 MB, throughput 0.984462
Reading from 20966: heap size 11 MB, throughput 0.966685
Reading from 20966: heap size 11 MB, throughput 0.970495
Reading from 20965: heap size 11 MB, throughput 0.984192
Reading from 20965: heap size 17 MB, throughput 0.929737
Reading from 20966: heap size 16 MB, throughput 0.984619
Reading from 20965: heap size 17 MB, throughput 0.90815
Reading from 20966: heap size 16 MB, throughput 0.985742
Reading from 20965: heap size 30 MB, throughput 0.810367
Reading from 20965: heap size 31 MB, throughput 0.228356
Reading from 20965: heap size 35 MB, throughput 0.662299
Reading from 20965: heap size 47 MB, throughput 0.38185
Reading from 20966: heap size 25 MB, throughput 0.961453
Reading from 20965: heap size 49 MB, throughput 0.530801
Reading from 20965: heap size 63 MB, throughput 0.354675
Reading from 20966: heap size 30 MB, throughput 0.920152
Reading from 20965: heap size 69 MB, throughput 0.333968
Reading from 20966: heap size 34 MB, throughput 0.942113
Reading from 20965: heap size 69 MB, throughput 0.445327
Reading from 20965: heap size 99 MB, throughput 0.54493
Reading from 20965: heap size 99 MB, throughput 0.286576
Reading from 20966: heap size 40 MB, throughput 0.727802
Reading from 20966: heap size 41 MB, throughput 0.80549
Reading from 20966: heap size 41 MB, throughput 0.87672
Reading from 20965: heap size 101 MB, throughput 0.350588
Reading from 20965: heap size 128 MB, throughput 0.353864
Reading from 20966: heap size 47 MB, throughput 0.949146
Reading from 20965: heap size 134 MB, throughput 0.292981
Reading from 20966: heap size 48 MB, throughput 0.908664
Reading from 20965: heap size 135 MB, throughput 0.789305
Reading from 20965: heap size 141 MB, throughput 0.700617
Reading from 20966: heap size 57 MB, throughput 0.916556
Reading from 20966: heap size 57 MB, throughput 0.953095
Reading from 20966: heap size 65 MB, throughput 0.949857
Reading from 20966: heap size 68 MB, throughput 0.971104
Reading from 20965: heap size 144 MB, throughput 0.365114
Reading from 20966: heap size 78 MB, throughput 0.984484
Reading from 20965: heap size 184 MB, throughput 0.61093
Reading from 20965: heap size 185 MB, throughput 0.66125
Reading from 20965: heap size 188 MB, throughput 0.697823
Reading from 20965: heap size 195 MB, throughput 0.799213
Reading from 20966: heap size 79 MB, throughput 0.99476
Reading from 20965: heap size 198 MB, throughput 0.604421
Reading from 20966: heap size 88 MB, throughput 0.996045
Reading from 20965: heap size 238 MB, throughput 0.867352
Reading from 20965: heap size 248 MB, throughput 0.842122
Reading from 20965: heap size 250 MB, throughput 0.855352
Reading from 20965: heap size 252 MB, throughput 0.866316
Reading from 20966: heap size 90 MB, throughput 0.996289
Reading from 20965: heap size 252 MB, throughput 0.862628
Reading from 20965: heap size 253 MB, throughput 0.857698
Reading from 20965: heap size 254 MB, throughput 0.832766
Reading from 20965: heap size 254 MB, throughput 0.822022
Reading from 20965: heap size 258 MB, throughput 0.790871
Reading from 20965: heap size 263 MB, throughput 0.753356
Reading from 20965: heap size 265 MB, throughput 0.767083
Reading from 20966: heap size 98 MB, throughput 0.996774
Reading from 20965: heap size 270 MB, throughput 0.917407
Reading from 20966: heap size 100 MB, throughput 0.996397
Reading from 20965: heap size 271 MB, throughput 0.686673
Reading from 20965: heap size 312 MB, throughput 0.809591
Reading from 20966: heap size 106 MB, throughput 0.996359
Reading from 20965: heap size 314 MB, throughput 0.827174
Reading from 20965: heap size 317 MB, throughput 0.859103
Reading from 20965: heap size 318 MB, throughput 0.856422
Reading from 20965: heap size 317 MB, throughput 0.832876
Reading from 20965: heap size 320 MB, throughput 0.780594
Reading from 20965: heap size 323 MB, throughput 0.803352
Reading from 20966: heap size 106 MB, throughput 0.996386
Reading from 20965: heap size 323 MB, throughput 0.735822
Reading from 20965: heap size 330 MB, throughput 0.699322
Reading from 20965: heap size 330 MB, throughput 0.709229
Numeric result:
Recommendation: 2 clients, utility 0.768406:
    h1: 279.191 MB (U(h) = 0.892285*h^0.0157647)
    h2: 1448.81 MB (U(h) = 0.434477*h^0.081797)
Recommendation: 2 clients, utility 0.768406:
    h1: 279.223 MB (U(h) = 0.892285*h^0.0157647)
    h2: 1448.78 MB (U(h) = 0.434477*h^0.081797)
Reading from 20965: heap size 339 MB, throughput 0.880333
Reading from 20966: heap size 110 MB, throughput 0.996647
Reading from 20966: heap size 111 MB, throughput 0.996434
Reading from 20965: heap size 340 MB, throughput 0.963597
Reading from 20966: heap size 115 MB, throughput 0.995795
Reading from 20966: heap size 116 MB, throughput 0.994729
Reading from 20965: heap size 342 MB, throughput 0.975935
Reading from 20966: heap size 120 MB, throughput 0.995753
Reading from 20966: heap size 120 MB, throughput 0.99582
Reading from 20965: heap size 344 MB, throughput 0.869159
Reading from 20966: heap size 124 MB, throughput 0.993157
Reading from 20966: heap size 124 MB, throughput 0.989938
Reading from 20965: heap size 392 MB, throughput 0.9781
Reading from 20966: heap size 128 MB, throughput 0.992326
Reading from 20966: heap size 128 MB, throughput 0.994507
Reading from 20965: heap size 393 MB, throughput 0.985334
Reading from 20966: heap size 131 MB, throughput 0.996006
Reading from 20966: heap size 131 MB, throughput 0.996857
Reading from 20965: heap size 400 MB, throughput 0.989537
Reading from 20966: heap size 134 MB, throughput 0.997426
Numeric result:
Recommendation: 2 clients, utility 0.90754:
    h1: 324.007 MB (U(h) = 0.855937*h^0.0283703)
    h2: 1403.99 MB (U(h) = 0.369223*h^0.122931)
Recommendation: 2 clients, utility 0.90754:
    h1: 324.014 MB (U(h) = 0.855937*h^0.0283703)
    h2: 1403.99 MB (U(h) = 0.369223*h^0.122931)
Reading from 20966: heap size 134 MB, throughput 0.997516
Reading from 20965: heap size 401 MB, throughput 0.989935
Reading from 20966: heap size 137 MB, throughput 0.997798
Reading from 20965: heap size 401 MB, throughput 0.989191
Reading from 20966: heap size 137 MB, throughput 0.997332
Reading from 20966: heap size 139 MB, throughput 0.996983
Reading from 20966: heap size 139 MB, throughput 0.990085
Reading from 20965: heap size 403 MB, throughput 0.984041
Reading from 20966: heap size 141 MB, throughput 0.983586
Reading from 20966: heap size 142 MB, throughput 0.986738
Reading from 20965: heap size 397 MB, throughput 0.984687
Reading from 20966: heap size 147 MB, throughput 0.992522
Reading from 20966: heap size 147 MB, throughput 0.994741
Reading from 20965: heap size 363 MB, throughput 0.986404
Reading from 20966: heap size 151 MB, throughput 0.995862
Reading from 20966: heap size 151 MB, throughput 0.995949
Reading from 20965: heap size 394 MB, throughput 0.98577
Reading from 20966: heap size 154 MB, throughput 0.996312
Numeric result:
Recommendation: 2 clients, utility 0.977609:
    h1: 296.721 MB (U(h) = 0.851016*h^0.0300272)
    h2: 1431.28 MB (U(h) = 0.337996*h^0.144841)
Recommendation: 2 clients, utility 0.977609:
    h1: 296.72 MB (U(h) = 0.851016*h^0.0300272)
    h2: 1431.28 MB (U(h) = 0.337996*h^0.144841)
Reading from 20965: heap size 397 MB, throughput 0.986789
Reading from 20966: heap size 155 MB, throughput 0.996694
Reading from 20966: heap size 158 MB, throughput 0.99707
Reading from 20965: heap size 396 MB, throughput 0.986216
Reading from 20966: heap size 158 MB, throughput 0.996965
Reading from 20965: heap size 397 MB, throughput 0.983167
Reading from 20965: heap size 398 MB, throughput 0.97037
Reading from 20965: heap size 402 MB, throughput 0.943579
Reading from 20965: heap size 408 MB, throughput 0.914889
Reading from 20966: heap size 162 MB, throughput 0.997228
Reading from 20965: heap size 414 MB, throughput 0.874628
Reading from 20966: heap size 162 MB, throughput 0.997149
Reading from 20965: heap size 424 MB, throughput 0.964969
Reading from 20966: heap size 165 MB, throughput 0.997051
Reading from 20965: heap size 427 MB, throughput 0.980824
Reading from 20966: heap size 165 MB, throughput 0.988124
Reading from 20966: heap size 168 MB, throughput 0.980659
Reading from 20965: heap size 422 MB, throughput 0.985619
Reading from 20966: heap size 168 MB, throughput 0.979774
Reading from 20966: heap size 171 MB, throughput 0.984651
Reading from 20965: heap size 427 MB, throughput 0.985311
Numeric result:
Recommendation: 2 clients, utility 1.0384:
    h1: 266.739 MB (U(h) = 0.8514*h^0.0299149)
    h2: 1461.26 MB (U(h) = 0.312686*h^0.163852)
Recommendation: 2 clients, utility 1.0384:
    h1: 266.779 MB (U(h) = 0.8514*h^0.0299149)
    h2: 1461.22 MB (U(h) = 0.312686*h^0.163852)
Reading from 20966: heap size 171 MB, throughput 0.991333
Reading from 20966: heap size 173 MB, throughput 0.993109
Reading from 20965: heap size 422 MB, throughput 0.984256
Reading from 20966: heap size 173 MB, throughput 0.992277
Reading from 20966: heap size 176 MB, throughput 0.99385
Reading from 20966: heap size 176 MB, throughput 0.995232
Reading from 20965: heap size 426 MB, throughput 0.986555
Reading from 20966: heap size 181 MB, throughput 0.996186
Reading from 20965: heap size 421 MB, throughput 0.986778
Reading from 20966: heap size 181 MB, throughput 0.996221
Reading from 20966: heap size 184 MB, throughput 0.996265
Reading from 20965: heap size 424 MB, throughput 0.986667
Reading from 20966: heap size 185 MB, throughput 0.996991
Reading from 20966: heap size 187 MB, throughput 0.9969
Numeric result:
Recommendation: 2 clients, utility 1.05421:
    h1: 262.218 MB (U(h) = 0.850659*h^0.0301503)
    h2: 1465.78 MB (U(h) = 0.306729*h^0.168503)
Recommendation: 2 clients, utility 1.05421:
    h1: 262.265 MB (U(h) = 0.850659*h^0.0301503)
    h2: 1465.74 MB (U(h) = 0.306729*h^0.168503)
Reading from 20965: heap size 419 MB, throughput 0.986537
Reading from 20966: heap size 188 MB, throughput 0.996776
Reading from 20965: heap size 422 MB, throughput 0.987024
Reading from 20966: heap size 191 MB, throughput 0.997082
Reading from 20966: heap size 191 MB, throughput 0.996715
Reading from 20965: heap size 419 MB, throughput 0.986415
Reading from 20966: heap size 194 MB, throughput 0.997223
Reading from 20966: heap size 194 MB, throughput 0.997169
Reading from 20965: heap size 421 MB, throughput 0.990098
Reading from 20965: heap size 421 MB, throughput 0.987535
Reading from 20966: heap size 198 MB, throughput 0.997229
Reading from 20965: heap size 421 MB, throughput 0.979081
Reading from 20965: heap size 422 MB, throughput 0.957085
Reading from 20965: heap size 424 MB, throughput 0.938351
Reading from 20966: heap size 198 MB, throughput 0.988091
Reading from 20965: heap size 431 MB, throughput 0.967315
Reading from 20966: heap size 201 MB, throughput 0.995471
Reading from 20966: heap size 205 MB, throughput 0.99041
Numeric result:
Recommendation: 2 clients, utility 1.06443:
    h1: 255.357 MB (U(h) = 0.851855*h^0.0297834)
    h2: 1472.64 MB (U(h) = 0.302614*h^0.171765)
Recommendation: 2 clients, utility 1.06443:
    h1: 255.352 MB (U(h) = 0.851855*h^0.0297834)
    h2: 1472.65 MB (U(h) = 0.302614*h^0.171765)
Reading from 20965: heap size 432 MB, throughput 0.982688
Reading from 20966: heap size 209 MB, throughput 0.994633
Reading from 20966: heap size 209 MB, throughput 0.996549
Reading from 20965: heap size 436 MB, throughput 0.987799
Reading from 20966: heap size 214 MB, throughput 0.997588
Reading from 20966: heap size 215 MB, throughput 0.99726
Reading from 20965: heap size 437 MB, throughput 0.989867
Reading from 20966: heap size 220 MB, throughput 0.99789
Reading from 20965: heap size 436 MB, throughput 0.990846
Reading from 20966: heap size 220 MB, throughput 0.997971
Reading from 20966: heap size 225 MB, throughput 0.997729
Numeric result:
Recommendation: 2 clients, utility 1.08201:
    h1: 246.618 MB (U(h) = 0.852814*h^0.0294944)
    h2: 1481.38 MB (U(h) = 0.295868*h^0.177163)
Recommendation: 2 clients, utility 1.08201:
    h1: 246.622 MB (U(h) = 0.852814*h^0.0294944)
    h2: 1481.38 MB (U(h) = 0.295868*h^0.177163)
Reading from 20965: heap size 439 MB, throughput 0.990458
Reading from 20966: heap size 225 MB, throughput 0.997855
Reading from 20965: heap size 436 MB, throughput 0.989664
Reading from 20966: heap size 230 MB, throughput 0.998153
Reading from 20966: heap size 230 MB, throughput 0.997791
Reading from 20965: heap size 438 MB, throughput 0.987982
Reading from 20966: heap size 234 MB, throughput 0.998179
Reading from 20966: heap size 234 MB, throughput 0.998097
Reading from 20965: heap size 438 MB, throughput 0.985291
Reading from 20966: heap size 239 MB, throughput 0.979074
Reading from 20966: heap size 239 MB, throughput 0.973734
Reading from 20965: heap size 439 MB, throughput 0.985249
Reading from 20966: heap size 247 MB, throughput 0.988276
Numeric result:
Recommendation: 2 clients, utility 1.09104:
    h1: 235.358 MB (U(h) = 0.856426*h^0.0284357)
    h2: 1492.64 MB (U(h) = 0.29196*h^0.180339)
Recommendation: 2 clients, utility 1.09104:
    h1: 235.359 MB (U(h) = 0.856426*h^0.0284357)
    h2: 1492.64 MB (U(h) = 0.29196*h^0.180339)
Reading from 20965: heap size 437 MB, throughput 0.98651
Reading from 20965: heap size 442 MB, throughput 0.979321
Reading from 20965: heap size 442 MB, throughput 0.967138
Reading from 20966: heap size 235 MB, throughput 0.99455
Reading from 20965: heap size 444 MB, throughput 0.940948
Reading from 20966: heap size 225 MB, throughput 0.995357
Reading from 20965: heap size 451 MB, throughput 0.985966
Reading from 20966: heap size 231 MB, throughput 0.996684
Reading from 20966: heap size 236 MB, throughput 0.997386
Reading from 20965: heap size 451 MB, throughput 0.990276
Reading from 20966: heap size 227 MB, throughput 0.997437
Reading from 20966: heap size 231 MB, throughput 0.997751
Reading from 20965: heap size 452 MB, throughput 0.991123
Numeric result:
Recommendation: 2 clients, utility 1.10695:
    h1: 228.155 MB (U(h) = 0.857338*h^0.0281667)
    h2: 1499.85 MB (U(h) = 0.286088*h^0.185152)
Recommendation: 2 clients, utility 1.10695:
    h1: 228.166 MB (U(h) = 0.857338*h^0.0281667)
    h2: 1499.83 MB (U(h) = 0.286088*h^0.185152)
Reading from 20966: heap size 236 MB, throughput 0.997973
Reading from 20965: heap size 455 MB, throughput 0.991503
Reading from 20966: heap size 226 MB, throughput 0.9979
Reading from 20966: heap size 230 MB, throughput 0.997997
Reading from 20965: heap size 453 MB, throughput 0.991433
Reading from 20966: heap size 221 MB, throughput 0.997407
Reading from 20966: heap size 226 MB, throughput 0.996103
Reading from 20966: heap size 237 MB, throughput 0.99769
Reading from 20965: heap size 456 MB, throughput 0.990168
Reading from 20966: heap size 228 MB, throughput 0.998278
Reading from 20965: heap size 454 MB, throughput 0.98956
Reading from 20966: heap size 237 MB, throughput 0.998613
Numeric result:
Recommendation: 2 clients, utility 1.12319:
    h1: 222.612 MB (U(h) = 0.85761*h^0.0280863)
    h2: 1505.39 MB (U(h) = 0.28034*h^0.189934)
Recommendation: 2 clients, utility 1.12319:
    h1: 222.608 MB (U(h) = 0.85761*h^0.0280863)
    h2: 1505.39 MB (U(h) = 0.28034*h^0.189934)
Reading from 20966: heap size 225 MB, throughput 0.998698
Reading from 20965: heap size 456 MB, throughput 0.988699
Reading from 20966: heap size 216 MB, throughput 0.998765
Reading from 20966: heap size 221 MB, throughput 0.998786
Reading from 20965: heap size 458 MB, throughput 0.988951
Reading from 20965: heap size 459 MB, throughput 0.984829
Reading from 20966: heap size 228 MB, throughput 0.998769
Reading from 20965: heap size 459 MB, throughput 0.976663
Reading from 20965: heap size 461 MB, throughput 0.970024
Reading from 20966: heap size 216 MB, throughput 0.998788
Reading from 20965: heap size 467 MB, throughput 0.988484
Reading from 20966: heap size 221 MB, throughput 0.998812
Reading from 20966: heap size 223 MB, throughput 0.998743
Reading from 20965: heap size 468 MB, throughput 0.992398
Reading from 20966: heap size 212 MB, throughput 0.998804
Numeric result:
Recommendation: 2 clients, utility 1.13911:
    h1: 218.624 MB (U(h) = 0.857315*h^0.0281752)
    h2: 1509.38 MB (U(h) = 0.274907*h^0.194513)
Recommendation: 2 clients, utility 1.13911:
    h1: 218.632 MB (U(h) = 0.857315*h^0.0281752)
    h2: 1509.37 MB (U(h) = 0.274907*h^0.194513)
Reading from 20966: heap size 219 MB, throughput 0.998735
Reading from 20966: heap size 220 MB, throughput 0.997238
Reading from 20965: heap size 469 MB, throughput 0.989929
Reading from 20966: heap size 214 MB, throughput 0.986706
Reading from 20966: heap size 218 MB, throughput 0.991923
Reading from 20966: heap size 222 MB, throughput 0.995022
Reading from 20965: heap size 471 MB, throughput 0.991724
Reading from 20966: heap size 210 MB, throughput 0.996793
Reading from 20966: heap size 217 MB, throughput 0.997162
Reading from 20965: heap size 469 MB, throughput 0.991576
Reading from 20966: heap size 226 MB, throughput 0.997844
Numeric result:
Recommendation: 2 clients, utility 1.14472:
    h1: 215.739 MB (U(h) = 0.857912*h^0.0279949)
    h2: 1512.26 MB (U(h) = 0.27288*h^0.196233)
Recommendation: 2 clients, utility 1.14472:
    h1: 215.741 MB (U(h) = 0.857912*h^0.0279949)
    h2: 1512.26 MB (U(h) = 0.27288*h^0.196233)
Reading from 20966: heap size 215 MB, throughput 0.998103
Reading from 20965: heap size 471 MB, throughput 0.990834
Reading from 20966: heap size 221 MB, throughput 0.998102
Reading from 20966: heap size 212 MB, throughput 0.997585
Reading from 20965: heap size 471 MB, throughput 0.991115
Reading from 20966: heap size 217 MB, throughput 0.997912
Reading from 20966: heap size 209 MB, throughput 0.997943
Reading from 20965: heap size 471 MB, throughput 0.99038
Reading from 20966: heap size 214 MB, throughput 0.998012
Reading from 20965: heap size 471 MB, throughput 0.989335
Reading from 20965: heap size 474 MB, throughput 0.982446
Reading from 20966: heap size 216 MB, throughput 0.997813
Reading from 20965: heap size 475 MB, throughput 0.973748
Reading from 20966: heap size 220 MB, throughput 0.993772
Reading from 20966: heap size 212 MB, throughput 0.981493
Reading from 20965: heap size 476 MB, throughput 0.987498
Numeric result:
Recommendation: 2 clients, utility 1.15153:
    h1: 213.23 MB (U(h) = 0.858185*h^0.027912)
    h2: 1514.77 MB (U(h) = 0.270509*h^0.198252)
Recommendation: 2 clients, utility 1.15153:
    h1: 213.261 MB (U(h) = 0.858185*h^0.027912)
    h2: 1514.74 MB (U(h) = 0.270509*h^0.198252)
Reading from 20966: heap size 216 MB, throughput 0.990004
Reading from 20966: heap size 209 MB, throughput 0.995244
Reading from 20965: heap size 483 MB, throughput 0.992644
Reading from 20966: heap size 216 MB, throughput 0.996476
Reading from 20966: heap size 206 MB, throughput 0.997477
Reading from 20966: heap size 213 MB, throughput 0.998052
Reading from 20965: heap size 483 MB, throughput 0.992582
Reading from 20966: heap size 203 MB, throughput 0.998154
Reading from 20966: heap size 210 MB, throughput 0.998352
Reading from 20965: heap size 484 MB, throughput 0.993178
Reading from 20966: heap size 210 MB, throughput 0.998366
Numeric result:
Recommendation: 2 clients, utility 1.15651:
    h1: 212.131 MB (U(h) = 0.858083*h^0.0279445)
    h2: 1515.87 MB (U(h) = 0.268828*h^0.199685)
Recommendation: 2 clients, utility 1.15651:
    h1: 212.135 MB (U(h) = 0.858083*h^0.0279445)
    h2: 1515.87 MB (U(h) = 0.268828*h^0.199685)
Reading from 20966: heap size 214 MB, throughput 0.998482
Reading from 20966: heap size 203 MB, throughput 0.998142
Reading from 20965: heap size 486 MB, throughput 0.992711
Reading from 20966: heap size 210 MB, throughput 0.997999
Reading from 20966: heap size 211 MB, throughput 0.997645
Reading from 20965: heap size 483 MB, throughput 0.992475
Reading from 20966: heap size 215 MB, throughput 0.99787
Reading from 20966: heap size 205 MB, throughput 0.991141
Reading from 20966: heap size 211 MB, throughput 0.990364
Reading from 20966: heap size 213 MB, throughput 0.994294
Reading from 20965: heap size 485 MB, throughput 0.991455
Reading from 20966: heap size 203 MB, throughput 0.996303
Numeric result:
Recommendation: 2 clients, utility 1.16096:
    h1: 210.689 MB (U(h) = 0.858196*h^0.0279098)
    h2: 1517.31 MB (U(h) = 0.267293*h^0.200998)
Recommendation: 2 clients, utility 1.16096:
    h1: 210.688 MB (U(h) = 0.858196*h^0.0279098)
    h2: 1517.31 MB (U(h) = 0.267293*h^0.200998)
Reading from 20966: heap size 210 MB, throughput 0.997084
Reading from 20965: heap size 487 MB, throughput 0.991186
Reading from 20966: heap size 218 MB, throughput 0.997588
Reading from 20965: heap size 487 MB, throughput 0.987351
Reading from 20965: heap size 488 MB, throughput 0.980712
Reading from 20966: heap size 208 MB, throughput 0.994178
Reading from 20965: heap size 490 MB, throughput 0.981689
Reading from 20966: heap size 214 MB, throughput 0.995831
Reading from 20966: heap size 206 MB, throughput 0.996869
Reading from 20965: heap size 496 MB, throughput 0.990999
Reading from 20966: heap size 212 MB, throughput 0.997386
Reading from 20966: heap size 204 MB, throughput 0.997264
Reading from 20965: heap size 496 MB, throughput 0.99269
Reading from 20966: heap size 210 MB, throughput 0.997587
Numeric result:
Recommendation: 2 clients, utility 1.16834:
    h1: 209.15 MB (U(h) = 0.857998*h^0.0279699)
    h2: 1518.85 MB (U(h) = 0.264823*h^0.203119)
Recommendation: 2 clients, utility 1.16834:
    h1: 209.149 MB (U(h) = 0.857998*h^0.0279699)
    h2: 1518.85 MB (U(h) = 0.264823*h^0.203119)
Reading from 20966: heap size 212 MB, throughput 0.997364
Reading from 20966: heap size 203 MB, throughput 0.997402
Reading from 20965: heap size 497 MB, throughput 0.993435
Reading from 20966: heap size 209 MB, throughput 0.997383
Reading from 20966: heap size 215 MB, throughput 0.994924
Reading from 20966: heap size 207 MB, throughput 0.996631
Reading from 20965: heap size 499 MB, throughput 0.993083
Reading from 20966: heap size 216 MB, throughput 0.996737
Reading from 20966: heap size 208 MB, throughput 0.997958
Reading from 20966: heap size 216 MB, throughput 0.998433
Reading from 20965: heap size 496 MB, throughput 0.992133
Reading from 20966: heap size 204 MB, throughput 0.998715
Numeric result:
Recommendation: 2 clients, utility 1.17209:
    h1: 208.645 MB (U(h) = 0.857777*h^0.0280378)
    h2: 1519.36 MB (U(h) = 0.263588*h^0.20418)
Recommendation: 2 clients, utility 1.17209:
    h1: 208.638 MB (U(h) = 0.857777*h^0.0280378)
    h2: 1519.36 MB (U(h) = 0.263588*h^0.20418)
Reading from 20966: heap size 212 MB, throughput 0.998446
Reading from 20965: heap size 498 MB, throughput 0.991321
Reading from 20966: heap size 200 MB, throughput 0.998706
Reading from 20966: heap size 207 MB, throughput 0.998831
Reading from 20966: heap size 207 MB, throughput 0.998875
Reading from 20965: heap size 500 MB, throughput 0.993228
Reading from 20965: heap size 500 MB, throughput 0.98903
Reading from 20965: heap size 500 MB, throughput 0.982152
Reading from 20966: heap size 211 MB, throughput 0.998883
Reading from 20966: heap size 200 MB, throughput 0.998821
Reading from 20965: heap size 502 MB, throughput 0.988056
Reading from 20966: heap size 208 MB, throughput 0.998852
Reading from 20966: heap size 208 MB, throughput 0.998926
Numeric result:
Recommendation: 2 clients, utility 1.17689:
    h1: 208.187 MB (U(h) = 0.857406*h^0.0281528)
    h2: 1519.81 MB (U(h) = 0.262033*h^0.20552)
Recommendation: 2 clients, utility 1.17689:
    h1: 208.188 MB (U(h) = 0.857406*h^0.0281528)
    h2: 1519.81 MB (U(h) = 0.262033*h^0.20552)
Reading from 20966: heap size 211 MB, throughput 0.998865
Reading from 20965: heap size 509 MB, throughput 0.991602
Reading from 20966: heap size 201 MB, throughput 0.996137
Reading from 20966: heap size 207 MB, throughput 0.995153
Reading from 20966: heap size 208 MB, throughput 0.996743
Reading from 20966: heap size 199 MB, throughput 0.996494
Reading from 20965: heap size 509 MB, throughput 0.992782
Reading from 20966: heap size 208 MB, throughput 0.996787
Reading from 20966: heap size 213 MB, throughput 0.997309
Reading from 20965: heap size 509 MB, throughput 0.993058
Reading from 20966: heap size 203 MB, throughput 0.997767
Reading from 20966: heap size 209 MB, throughput 0.99726
Reading from 20966: heap size 201 MB, throughput 0.997529
Numeric result:
Recommendation: 2 clients, utility 1.26891:
    h1: 172.122 MB (U(h) = 0.857341*h^0.0281732)
    h2: 1555.88 MB (U(h) = 0.196955*h^0.254676)
Recommendation: 2 clients, utility 1.26891:
    h1: 172.117 MB (U(h) = 0.857341*h^0.0281732)
    h2: 1555.88 MB (U(h) = 0.196955*h^0.254676)
Reading from 20965: heap size 511 MB, throughput 0.991459
Reading from 20966: heap size 206 MB, throughput 0.99771
Reading from 20966: heap size 197 MB, throughput 0.997535
Reading from 20966: heap size 190 MB, throughput 0.9976
Reading from 20965: heap size 510 MB, throughput 0.991565
Reading from 20966: heap size 183 MB, throughput 0.997553
Reading from 20966: heap size 176 MB, throughput 0.997418
Reading from 20966: heap size 171 MB, throughput 0.996621
Reading from 20965: heap size 511 MB, throughput 0.989746
Reading from 20966: heap size 176 MB, throughput 0.99378
Reading from 20966: heap size 170 MB, throughput 0.991634
Reading from 20966: heap size 178 MB, throughput 0.99114
Reading from 20965: heap size 513 MB, throughput 0.989815
Reading from 20966: heap size 172 MB, throughput 0.986855
Reading from 20965: heap size 514 MB, throughput 0.983886
Reading from 20965: heap size 517 MB, throughput 0.982674
Reading from 20966: heap size 165 MB, throughput 0.9928
Numeric result:
Recommendation: 2 clients, utility 1.75997:
    h1: 97.3745 MB (U(h) = 0.857095*h^0.0282567)
    h2: 1630.63 MB (U(h) = 0.0544824*h^0.473184)
Recommendation: 2 clients, utility 1.75997:
    h1: 97.3745 MB (U(h) = 0.857095*h^0.0282567)
    h2: 1630.63 MB (U(h) = 0.0544824*h^0.473184)
Reading from 20966: heap size 174 MB, throughput 0.995095
Reading from 20966: heap size 164 MB, throughput 0.996179
Reading from 20966: heap size 155 MB, throughput 0.996804
Reading from 20965: heap size 519 MB, throughput 0.992114
Reading from 20966: heap size 148 MB, throughput 0.996356
Reading from 20966: heap size 141 MB, throughput 0.996326
Reading from 20966: heap size 135 MB, throughput 0.996682
Reading from 20966: heap size 130 MB, throughput 0.996511
Reading from 20966: heap size 126 MB, throughput 0.99636
Reading from 20965: heap size 521 MB, throughput 0.993468
Reading from 20966: heap size 122 MB, throughput 0.995532
Reading from 20966: heap size 118 MB, throughput 0.994419
Reading from 20966: heap size 114 MB, throughput 0.995097
Reading from 20966: heap size 111 MB, throughput 0.991836
Reading from 20966: heap size 107 MB, throughput 0.990022
Reading from 20966: heap size 104 MB, throughput 0.9911
Reading from 20966: heap size 101 MB, throughput 0.993922
Reading from 20965: heap size 523 MB, throughput 0.993847
Numeric result:
Recommendation: 2 clients, utility 1.875:
    h1: 163.958 MB (U(h) = 0.749837*h^0.0547632)
    h2: 1564.04 MB (U(h) = 0.0405561*h^0.522405)
Recommendation: 2 clients, utility 1.875:
    h1: 163.957 MB (U(h) = 0.749837*h^0.0547632)
    h2: 1564.04 MB (U(h) = 0.0405561*h^0.522405)
Reading from 20966: heap size 99 MB, throughput 0.995695
Reading from 20966: heap size 102 MB, throughput 0.996468
Reading from 20966: heap size 106 MB, throughput 0.99622
Reading from 20966: heap size 113 MB, throughput 0.996267
Reading from 20966: heap size 114 MB, throughput 0.996895
Reading from 20966: heap size 121 MB, throughput 0.997147
Reading from 20965: heap size 520 MB, throughput 0.993477
Reading from 20966: heap size 122 MB, throughput 0.997098
Reading from 20966: heap size 129 MB, throughput 0.99735
Reading from 20966: heap size 130 MB, throughput 0.996777
Reading from 20966: heap size 137 MB, throughput 0.994106
Reading from 20966: heap size 143 MB, throughput 0.991374
Reading from 20966: heap size 153 MB, throughput 0.992962
Reading from 20966: heap size 155 MB, throughput 0.996148
Reading from 20965: heap size 523 MB, throughput 0.992607
Reading from 20966: heap size 155 MB, throughput 0.996691
Reading from 20966: heap size 163 MB, throughput 0.99687
Reading from 20966: heap size 163 MB, throughput 0.996859
Reading from 20965: heap size 524 MB, throughput 0.991939
Reading from 20966: heap size 170 MB, throughput 0.997179
Numeric result:
Recommendation: 2 clients, utility 1.954:
    h1: 12 MB (U(h) = 0.989347*h^0.0011748)
    h2: 1716 MB (U(h) = 0.0415732*h^0.518005)
Recommendation: 2 clients, utility 1.954:
    h1: 12 MB (U(h) = 0.989347*h^0.0011748)
    h2: 1716 MB (U(h) = 0.0415732*h^0.518005)
Reading from 20966: heap size 163 MB, throughput 0.997189
Reading from 20966: heap size 93 MB, throughput 0.996076
Reading from 20965: heap size 524 MB, throughput 0.990527
Reading from 20966: heap size 78 MB, throughput 0.995083
Reading from 20966: heap size 70 MB, throughput 0.99325
Reading from 20965: heap size 526 MB, throughput 0.98722
Reading from 20966: heap size 64 MB, throughput 0.991626
Reading from 20966: heap size 60 MB, throughput 0.988846
Reading from 20966: heap size 57 MB, throughput 0.980391
Reading from 20966: heap size 54 MB, throughput 0.966944
Reading from 20966: heap size 52 MB, throughput 0.956338
Reading from 20966: heap size 49 MB, throughput 0.971409
Reading from 20966: heap size 52 MB, throughput 0.979378
Reading from 20966: heap size 47 MB, throughput 0.981969
Reading from 20966: heap size 50 MB, throughput 0.983041
Reading from 20966: heap size 45 MB, throughput 0.985792
Reading from 20965: heap size 553 MB, throughput 0.988658
Reading from 20966: heap size 48 MB, throughput 0.987446
Reading from 20966: heap size 44 MB, throughput 0.986239
Reading from 20966: heap size 47 MB, throughput 0.986397
Reading from 20966: heap size 43 MB, throughput 0.986058
Reading from 20966: heap size 46 MB, throughput 0.985804
Reading from 20966: heap size 42 MB, throughput 0.984156
Reading from 20966: heap size 45 MB, throughput 0.98448
Reading from 20966: heap size 41 MB, throughput 0.983567
Reading from 20966: heap size 44 MB, throughput 0.983169
Reading from 20966: heap size 41 MB, throughput 0.982916
Reading from 20966: heap size 44 MB, throughput 0.983893
Reading from 20966: heap size 41 MB, throughput 0.983436
Reading from 20966: heap size 43 MB, throughput 0.982495
Reading from 20966: heap size 41 MB, throughput 0.98333
Reading from 20966: heap size 43 MB, throughput 0.982987
Reading from 20966: heap size 41 MB, throughput 0.982217
Reading from 20966: heap size 43 MB, throughput 0.977457
Reading from 20966: heap size 41 MB, throughput 0.982191
Reading from 20966: heap size 43 MB, throughput 0.982145
Reading from 20966: heap size 41 MB, throughput 0.983413
Reading from 20966: heap size 42 MB, throughput 0.982192
Reading from 20966: heap size 41 MB, throughput 0.983683
Reading from 20966: heap size 42 MB, throughput 0.981504
Reading from 20966: heap size 41 MB, throughput 0.980013
Reading from 20966: heap size 42 MB, throughput 0.98209
Reading from 20966: heap size 41 MB, throughput 0.983748
Reading from 20966: heap size 42 MB, throughput 0.981455
Reading from 20966: heap size 41 MB, throughput 0.982749
Reading from 20966: heap size 42 MB, throughput 0.982978
Reading from 20966: heap size 41 MB, throughput 0.982641
Reading from 20966: heap size 42 MB, throughput 0.980378
Reading from 20966: heap size 41 MB, throughput 0.980895
Reading from 20966: heap size 42 MB, throughput 0.981962
Reading from 20966: heap size 41 MB, throughput 0.981478
Reading from 20966: heap size 42 MB, throughput 0.981477
Reading from 20966: heap size 41 MB, throughput 0.983227
Reading from 20966: heap size 41 MB, throughput 0.983735
Reading from 20966: heap size 41 MB, throughput 0.984201
Reading from 20966: heap size 41 MB, throughput 0.984759
Reading from 20966: heap size 41 MB, throughput 0.984738
Reading from 20966: heap size 41 MB, throughput 0.984759
Reading from 20966: heap size 41 MB, throughput 0.983512
Reading from 20966: heap size 41 MB, throughput 0.981652
Reading from 20966: heap size 41 MB, throughput 0.982623
Reading from 20966: heap size 41 MB, throughput 0.984192
Reading from 20965: heap size 557 MB, throughput 0.994594
Reading from 20966: heap size 41 MB, throughput 0.985177
Reading from 20966: heap size 41 MB, throughput 0.985585
Reading from 20966: heap size 41 MB, throughput 0.984922
Reading from 20966: heap size 41 MB, throughput 0.980751
Reading from 20966: heap size 41 MB, throughput 0.979183
Reading from 20966: heap size 41 MB, throughput 0.981584
Reading from 20966: heap size 41 MB, throughput 0.982507
Reading from 20966: heap size 41 MB, throughput 0.98136
Reading from 20966: heap size 41 MB, throughput 0.983434
Reading from 20966: heap size 41 MB, throughput 0.983383
Reading from 20966: heap size 41 MB, throughput 0.984066
Reading from 20966: heap size 41 MB, throughput 0.984132
Reading from 20966: heap size 41 MB, throughput 0.982484
Reading from 20966: heap size 41 MB, throughput 0.98323
Reading from 20966: heap size 41 MB, throughput 0.981501
Reading from 20966: heap size 41 MB, throughput 0.982998
Reading from 20966: heap size 41 MB, throughput 0.983786
Reading from 20966: heap size 41 MB, throughput 0.983904
Reading from 20966: heap size 41 MB, throughput 0.984153
Reading from 20966: heap size 41 MB, throughput 0.978006
Reading from 20966: heap size 41 MB, throughput 0.981567
Reading from 20966: heap size 41 MB, throughput 0.982679
Reading from 20966: heap size 41 MB, throughput 0.980792
Reading from 20966: heap size 41 MB, throughput 0.982749
Reading from 20966: heap size 41 MB, throughput 0.982375
Reading from 20966: heap size 41 MB, throughput 0.982659
Reading from 20966: heap size 41 MB, throughput 0.980767
Reading from 20966: heap size 41 MB, throughput 0.983571
Reading from 20966: heap size 41 MB, throughput 0.980998
Reading from 20966: heap size 41 MB, throughput 0.983067
Reading from 20966: heap size 41 MB, throughput 0.98349
Reading from 20966: heap size 41 MB, throughput 0.984315
Reading from 20966: heap size 41 MB, throughput 0.984114
Reading from 20966: heap size 41 MB, throughput 0.983106
Reading from 20966: heap size 41 MB, throughput 0.984115
Reading from 20966: heap size 41 MB, throughput 0.982829
Reading from 20966: heap size 41 MB, throughput 0.983931
Reading from 20966: heap size 41 MB, throughput 0.984386
Reading from 20966: heap size 41 MB, throughput 0.98432
Reading from 20966: heap size 41 MB, throughput 0.981919
Reading from 20966: heap size 41 MB, throughput 0.979716
Reading from 20966: heap size 41 MB, throughput 0.982248
Reading from 20966: heap size 41 MB, throughput 0.979456
Numeric result:
Recommendation: 2 clients, utility 1.57577:
    h1: 38.9404 MB (U(h) = 0.951146*h^0.00874112)
    h2: 1689.06 MB (U(h) = 0.0958524*h^0.379144)
Recommendation: 2 clients, utility 1.57577:
    h1: 38.9411 MB (U(h) = 0.951146*h^0.00874112)
    h2: 1689.06 MB (U(h) = 0.0958524*h^0.379144)
Reading from 20966: heap size 41 MB, throughput 0.97845
Reading from 20966: heap size 41 MB, throughput 0.980989
Reading from 20966: heap size 41 MB, throughput 0.982584
Reading from 20966: heap size 41 MB, throughput 0.98342
Reading from 20966: heap size 41 MB, throughput 0.983508
Reading from 20966: heap size 41 MB, throughput 0.982895
Reading from 20965: heap size 560 MB, throughput 0.995232
Reading from 20966: heap size 41 MB, throughput 0.984907
Reading from 20966: heap size 41 MB, throughput 0.985064
Reading from 20966: heap size 41 MB, throughput 0.980479
Reading from 20966: heap size 41 MB, throughput 0.980897
Reading from 20966: heap size 41 MB, throughput 0.980951
Reading from 20966: heap size 41 MB, throughput 0.982882
Reading from 20966: heap size 41 MB, throughput 0.981558
Reading from 20966: heap size 41 MB, throughput 0.98237
Reading from 20966: heap size 41 MB, throughput 0.980919
Reading from 20966: heap size 41 MB, throughput 0.983088
Reading from 20966: heap size 41 MB, throughput 0.983748
Reading from 20966: heap size 41 MB, throughput 0.980444
Reading from 20966: heap size 41 MB, throughput 0.981083
Reading from 20966: heap size 41 MB, throughput 0.982696
Reading from 20966: heap size 41 MB, throughput 0.983272
Reading from 20966: heap size 41 MB, throughput 0.984218
Reading from 20966: heap size 41 MB, throughput 0.984612
Reading from 20966: heap size 41 MB, throughput 0.985396
Reading from 20966: heap size 41 MB, throughput 0.963691
Reading from 20966: heap size 41 MB, throughput 0.925351
Reading from 20966: heap size 41 MB, throughput 0.922845
Reading from 20966: heap size 41 MB, throughput 0.934173
Reading from 20966: heap size 42 MB, throughput 0.930964
Reading from 20966: heap size 41 MB, throughput 0.92789
Reading from 20966: heap size 42 MB, throughput 0.92829
Reading from 20966: heap size 41 MB, throughput 0.925542
Reading from 20966: heap size 42 MB, throughput 0.925362
Reading from 20966: heap size 41 MB, throughput 0.929568
Reading from 20966: heap size 42 MB, throughput 0.938242
Reading from 20966: heap size 41 MB, throughput 0.933796
Reading from 20966: heap size 42 MB, throughput 0.937448
Reading from 20966: heap size 41 MB, throughput 0.93257
Reading from 20966: heap size 42 MB, throughput 0.943715
Reading from 20966: heap size 42 MB, throughput 0.934177
Reading from 20966: heap size 41 MB, throughput 0.91797
Reading from 20966: heap size 42 MB, throughput 0.935202
Reading from 20966: heap size 42 MB, throughput 0.934703
Reading from 20966: heap size 41 MB, throughput 0.939735
Reading from 20966: heap size 42 MB, throughput 0.927135
Reading from 20966: heap size 42 MB, throughput 0.92429
Reading from 20966: heap size 42 MB, throughput 0.925856
Reading from 20966: heap size 41 MB, throughput 0.939101
Reading from 20966: heap size 42 MB, throughput 0.929626
Reading from 20966: heap size 42 MB, throughput 0.934551
Reading from 20966: heap size 41 MB, throughput 0.932085
Reading from 20966: heap size 41 MB, throughput 0.934321
Reading from 20966: heap size 42 MB, throughput 0.929465
Reading from 20966: heap size 41 MB, throughput 0.939172
Reading from 20966: heap size 42 MB, throughput 0.92951
Reading from 20966: heap size 41 MB, throughput 0.941415
Reading from 20966: heap size 42 MB, throughput 0.969322
Reading from 20966: heap size 41 MB, throughput 0.977778
Reading from 20966: heap size 42 MB, throughput 0.980354
Reading from 20966: heap size 41 MB, throughput 0.982449
Reading from 20966: heap size 42 MB, throughput 0.981884
Reading from 20966: heap size 41 MB, throughput 0.983534
Reading from 20966: heap size 42 MB, throughput 0.981235
Reading from 20966: heap size 41 MB, throughput 0.978592
Reading from 20966: heap size 42 MB, throughput 0.97791
Reading from 20966: heap size 41 MB, throughput 0.98047
Reading from 20966: heap size 42 MB, throughput 0.979373
Reading from 20966: heap size 41 MB, throughput 0.981586
Reading from 20966: heap size 42 MB, throughput 0.981826
Reading from 20966: heap size 41 MB, throughput 0.983105
Reading from 20966: heap size 42 MB, throughput 0.983176
Reading from 20966: heap size 41 MB, throughput 0.982392
Reading from 20966: heap size 41 MB, throughput 0.982711
Reading from 20965: heap size 564 MB, throughput 0.99496
Reading from 20966: heap size 41 MB, throughput 0.984224
Reading from 20966: heap size 41 MB, throughput 0.983271
Reading from 20966: heap size 41 MB, throughput 0.980139
Reading from 20966: heap size 41 MB, throughput 0.983141
Reading from 20966: heap size 41 MB, throughput 0.983409
Reading from 20966: heap size 41 MB, throughput 0.981715
Reading from 20966: heap size 41 MB, throughput 0.982522
Reading from 20966: heap size 41 MB, throughput 0.983881
Reading from 20966: heap size 41 MB, throughput 0.984589
Reading from 20966: heap size 41 MB, throughput 0.985029
Reading from 20966: heap size 41 MB, throughput 0.980489
Reading from 20966: heap size 41 MB, throughput 0.9816
Reading from 20966: heap size 41 MB, throughput 0.979345
Reading from 20966: heap size 41 MB, throughput 0.982163
Reading from 20966: heap size 41 MB, throughput 0.983999
Reading from 20966: heap size 41 MB, throughput 0.984651
Reading from 20966: heap size 41 MB, throughput 0.98333
Reading from 20966: heap size 41 MB, throughput 0.984194
Reading from 20966: heap size 41 MB, throughput 0.978801
Reading from 20966: heap size 41 MB, throughput 0.977962
Reading from 20966: heap size 41 MB, throughput 0.980885
Reading from 20966: heap size 41 MB, throughput 0.98241
Reading from 20966: heap size 41 MB, throughput 0.979489
Reading from 20966: heap size 41 MB, throughput 0.978683
Reading from 20966: heap size 41 MB, throughput 0.979154
Reading from 20966: heap size 41 MB, throughput 0.981652
Reading from 20966: heap size 41 MB, throughput 0.983386
Reading from 20966: heap size 41 MB, throughput 0.974202
Reading from 20966: heap size 41 MB, throughput 0.979428
Reading from 20966: heap size 41 MB, throughput 0.981776
Reading from 20966: heap size 41 MB, throughput 0.982691
Reading from 20966: heap size 41 MB, throughput 0.983648
Reading from 20966: heap size 41 MB, throughput 0.982178
Reading from 20966: heap size 41 MB, throughput 0.982925
Reading from 20966: heap size 41 MB, throughput 0.983057
Reading from 20966: heap size 41 MB, throughput 0.981117
Reading from 20966: heap size 41 MB, throughput 0.980594
Reading from 20966: heap size 41 MB, throughput 0.9787
Reading from 20966: heap size 41 MB, throughput 0.97751
Reading from 20966: heap size 41 MB, throughput 0.981084
Reading from 20966: heap size 41 MB, throughput 0.981955
Reading from 20966: heap size 41 MB, throughput 0.983779
Reading from 20966: heap size 41 MB, throughput 0.983715
Reading from 20966: heap size 41 MB, throughput 0.980039
Reading from 20966: heap size 41 MB, throughput 0.982339
Reading from 20966: heap size 41 MB, throughput 0.983103
Reading from 20966: heap size 41 MB, throughput 0.984211
Reading from 20966: heap size 41 MB, throughput 0.984766
Reading from 20966: heap size 41 MB, throughput 0.984272
Reading from 20966: heap size 41 MB, throughput 0.984631
Reading from 20966: heap size 41 MB, throughput 0.980265
Reading from 20966: heap size 41 MB, throughput 0.982388
Reading from 20966: heap size 41 MB, throughput 0.983016
Reading from 20966: heap size 41 MB, throughput 0.981657
Reading from 20965: heap size 565 MB, throughput 0.994578
Reading from 20966: heap size 41 MB, throughput 0.985045
Reading from 20966: heap size 41 MB, throughput 0.985435
Reading from 20966: heap size 41 MB, throughput 0.981903
Reading from 20966: heap size 41 MB, throughput 0.982879
Reading from 20966: heap size 41 MB, throughput 0.981459
Reading from 20966: heap size 41 MB, throughput 0.983236
Reading from 20966: heap size 41 MB, throughput 0.982496
Reading from 20966: heap size 41 MB, throughput 0.983259
Reading from 20966: heap size 41 MB, throughput 0.982854
Reading from 20966: heap size 41 MB, throughput 0.983547
Reading from 20966: heap size 41 MB, throughput 0.983319
Reading from 20966: heap size 41 MB, throughput 0.982051
Reading from 20966: heap size 41 MB, throughput 0.978916
Reading from 20966: heap size 41 MB, throughput 0.980345
Reading from 20966: heap size 41 MB, throughput 0.982963
Reading from 20966: heap size 41 MB, throughput 0.983947
Reading from 20966: heap size 41 MB, throughput 0.973087
Reading from 20966: heap size 41 MB, throughput 0.979568
Reading from 20966: heap size 41 MB, throughput 0.981607
Reading from 20966: heap size 41 MB, throughput 0.979355
Reading from 20966: heap size 41 MB, throughput 0.97969
Reading from 20966: heap size 41 MB, throughput 0.982653
Reading from 20966: heap size 41 MB, throughput 0.983481
Reading from 20966: heap size 41 MB, throughput 0.982415
Reading from 20966: heap size 41 MB, throughput 0.983858
Reading from 20966: heap size 41 MB, throughput 0.983887
Numeric result:
Recommendation: 2 clients, utility 1.50931:
    h1: 41.5666 MB (U(h) = 0.951823*h^0.00860375)
    h2: 1686.43 MB (U(h) = 0.114764*h^0.349086)
Recommendation: 2 clients, utility 1.50931:
    h1: 41.5648 MB (U(h) = 0.951823*h^0.00860375)
    h2: 1686.44 MB (U(h) = 0.114764*h^0.349086)
Reading from 20966: heap size 41 MB, throughput 0.983615
Reading from 20966: heap size 43 MB, throughput 0.985043
Reading from 20966: heap size 43 MB, throughput 0.985728
Reading from 20966: heap size 43 MB, throughput 0.984667
Reading from 20966: heap size 43 MB, throughput 0.985687
Reading from 20966: heap size 43 MB, throughput 0.984796
Reading from 20966: heap size 43 MB, throughput 0.985807
Reading from 20966: heap size 43 MB, throughput 0.98579
Reading from 20966: heap size 43 MB, throughput 0.986021
Reading from 20966: heap size 43 MB, throughput 0.983342
Reading from 20966: heap size 43 MB, throughput 0.982558
Reading from 20966: heap size 43 MB, throughput 0.984494
Reading from 20966: heap size 43 MB, throughput 0.985152
Reading from 20966: heap size 43 MB, throughput 0.981636
Reading from 20966: heap size 43 MB, throughput 0.983069
Reading from 20966: heap size 43 MB, throughput 0.984873
Reading from 20966: heap size 43 MB, throughput 0.985232
Reading from 20966: heap size 43 MB, throughput 0.985403
Reading from 20965: heap size 561 MB, throughput 0.993695
Reading from 20966: heap size 43 MB, throughput 0.98738
Reading from 20966: heap size 43 MB, throughput 0.987584
Reading from 20966: heap size 43 MB, throughput 0.985278
Reading from 20966: heap size 43 MB, throughput 0.98646
Reading from 20966: heap size 43 MB, throughput 0.986898
Reading from 20966: heap size 43 MB, throughput 0.98643
Reading from 20966: heap size 43 MB, throughput 0.984951
Reading from 20966: heap size 43 MB, throughput 0.985822
Reading from 20966: heap size 43 MB, throughput 0.982222
Reading from 20966: heap size 43 MB, throughput 0.982005
Reading from 20966: heap size 43 MB, throughput 0.984021
Reading from 20966: heap size 43 MB, throughput 0.985927
Reading from 20966: heap size 43 MB, throughput 0.982986
Reading from 20966: heap size 43 MB, throughput 0.985233
Reading from 20966: heap size 43 MB, throughput 0.986612
Reading from 20966: heap size 43 MB, throughput 0.985763
Reading from 20966: heap size 43 MB, throughput 0.985787
Reading from 20966: heap size 43 MB, throughput 0.986447
Reading from 20966: heap size 43 MB, throughput 0.983662
Reading from 20966: heap size 43 MB, throughput 0.985784
Reading from 20966: heap size 43 MB, throughput 0.986119
Reading from 20966: heap size 43 MB, throughput 0.983185
Reading from 20966: heap size 43 MB, throughput 0.985183
Reading from 20966: heap size 43 MB, throughput 0.986297
Reading from 20966: heap size 43 MB, throughput 0.985871
Reading from 20966: heap size 43 MB, throughput 0.985924
Reading from 20966: heap size 43 MB, throughput 0.986154
Reading from 20966: heap size 43 MB, throughput 0.985711
Reading from 20966: heap size 43 MB, throughput 0.986315
Reading from 20966: heap size 43 MB, throughput 0.985881
Reading from 20966: heap size 43 MB, throughput 0.986066
Reading from 20966: heap size 43 MB, throughput 0.986601
Reading from 20966: heap size 43 MB, throughput 0.985667
Reading from 20966: heap size 43 MB, throughput 0.986544
Reading from 20966: heap size 43 MB, throughput 0.986332
Reading from 20966: heap size 43 MB, throughput 0.985884
Reading from 20966: heap size 43 MB, throughput 0.986871
Reading from 20966: heap size 43 MB, throughput 0.987093
Reading from 20966: heap size 43 MB, throughput 0.98659
Reading from 20966: heap size 43 MB, throughput 0.986308
Reading from 20966: heap size 43 MB, throughput 0.986752
Reading from 20966: heap size 43 MB, throughput 0.986466
Reading from 20966: heap size 43 MB, throughput 0.986933
Reading from 20966: heap size 43 MB, throughput 0.986605
Reading from 20966: heap size 43 MB, throughput 0.986358
Reading from 20965: heap size 564 MB, throughput 0.994269
Reading from 20966: heap size 43 MB, throughput 0.98802
Reading from 20966: heap size 43 MB, throughput 0.986915
Reading from 20966: heap size 43 MB, throughput 0.986533
Reading from 20966: heap size 43 MB, throughput 0.986356
Reading from 20965: heap size 563 MB, throughput 0.989929
Reading from 20966: heap size 43 MB, throughput 0.987486
Reading from 20966: heap size 43 MB, throughput 0.986951
Reading from 20965: heap size 565 MB, throughput 0.979509
Reading from 20966: heap size 43 MB, throughput 0.987073
Reading from 20966: heap size 43 MB, throughput 0.985948
Reading from 20966: heap size 43 MB, throughput 0.982973
Reading from 20966: heap size 43 MB, throughput 0.985345
Reading from 20966: heap size 43 MB, throughput 0.980049
Reading from 20966: heap size 43 MB, throughput 0.98373
Reading from 20966: heap size 43 MB, throughput 0.984608
Reading from 20966: heap size 43 MB, throughput 0.983046
Reading from 20966: heap size 43 MB, throughput 0.985149
Reading from 20966: heap size 43 MB, throughput 0.985795
Reading from 20966: heap size 43 MB, throughput 0.986352
Reading from 20966: heap size 43 MB, throughput 0.983524
Reading from 20966: heap size 43 MB, throughput 0.984007
Reading from 20966: heap size 43 MB, throughput 0.983225
Reading from 20966: heap size 43 MB, throughput 0.985441
Reading from 20966: heap size 43 MB, throughput 0.985117
Reading from 20966: heap size 43 MB, throughput 0.982916
Reading from 20966: heap size 43 MB, throughput 0.982695
Reading from 20966: heap size 43 MB, throughput 0.984078
Reading from 20966: heap size 43 MB, throughput 0.985192
Reading from 20966: heap size 43 MB, throughput 0.984984
Reading from 20966: heap size 43 MB, throughput 0.985015
Reading from 20966: heap size 43 MB, throughput 0.985311
Reading from 20966: heap size 43 MB, throughput 0.9852
Reading from 20966: heap size 43 MB, throughput 0.986334
Reading from 20966: heap size 43 MB, throughput 0.986683
Reading from 20966: heap size 43 MB, throughput 0.984432
Reading from 20966: heap size 43 MB, throughput 0.984698
Reading from 20966: heap size 43 MB, throughput 0.982147
Reading from 20966: heap size 43 MB, throughput 0.983406
Reading from 20966: heap size 43 MB, throughput 0.98517
Reading from 20966: heap size 43 MB, throughput 0.982462
Reading from 20966: heap size 43 MB, throughput 0.984956
Reading from 20966: heap size 43 MB, throughput 0.985859
Reading from 20966: heap size 43 MB, throughput 0.985917
Reading from 20966: heap size 43 MB, throughput 0.985801
Reading from 20966: heap size 43 MB, throughput 0.985404
Reading from 20966: heap size 43 MB, throughput 0.96437
Reading from 20965: heap size 572 MB, throughput 0.984827
Reading from 20966: heap size 43 MB, throughput 0.946185
Reading from 20966: heap size 43 MB, throughput 0.935032
Reading from 20966: heap size 44 MB, throughput 0.941375
Reading from 20966: heap size 43 MB, throughput 0.937859
Reading from 20966: heap size 44 MB, throughput 0.934975
Reading from 20966: heap size 44 MB, throughput 0.935053
Reading from 20966: heap size 43 MB, throughput 0.928728
Reading from 20966: heap size 43 MB, throughput 0.991695
Reading from 20966: heap size 38 MB, throughput 0.925135
Reading from 20966: heap size 40 MB, throughput 0.940369
Reading from 20966: heap size 43 MB, throughput 0.950712
Reading from 20966: heap size 43 MB, throughput 0.951649
Reading from 20966: heap size 43 MB, throughput 0.947419
Reading from 20966: heap size 43 MB, throughput 0.953094
Reading from 20966: heap size 43 MB, throughput 0.948451
Reading from 20966: heap size 43 MB, throughput 0.941571
Numeric result:
Recommendation: 2 clients, utility 1.41669:
    h1: 84.8276 MB (U(h) = 0.916276*h^0.0159443)
    h2: 1643.17 MB (U(h) = 0.14632*h^0.30886)
Recommendation: 2 clients, utility 1.41669:
    h1: 84.8259 MB (U(h) = 0.916276*h^0.0159443)
    h2: 1643.17 MB (U(h) = 0.14632*h^0.30886)
Reading from 20966: heap size 43 MB, throughput 0.953768
Reading from 20966: heap size 46 MB, throughput 0.958451
Reading from 20966: heap size 50 MB, throughput 0.951525
Reading from 20966: heap size 54 MB, throughput 0.971018
Reading from 20966: heap size 59 MB, throughput 0.983939
Reading from 20966: heap size 64 MB, throughput 0.99091
Reading from 20966: heap size 70 MB, throughput 0.994098
Reading from 20966: heap size 76 MB, throughput 0.995737
Reading from 20966: heap size 83 MB, throughput 0.99652
Reading from 20966: heap size 89 MB, throughput 0.996918
Reading from 20966: heap size 87 MB, throughput 0.995993
Reading from 20965: heap size 576 MB, throughput 0.990088
Reading from 20966: heap size 85 MB, throughput 0.996691
Reading from 20966: heap size 90 MB, throughput 0.996311
Reading from 20966: heap size 88 MB, throughput 0.996189
Reading from 20966: heap size 86 MB, throughput 0.99674
Reading from 20966: heap size 84 MB, throughput 0.996785
Reading from 20966: heap size 88 MB, throughput 0.997038
Reading from 20966: heap size 86 MB, throughput 0.997291
Reading from 20966: heap size 84 MB, throughput 0.997325
Reading from 20966: heap size 87 MB, throughput 0.997464
Reading from 20966: heap size 86 MB, throughput 0.997411
Reading from 20965: heap size 575 MB, throughput 0.992361
Reading from 20966: heap size 83 MB, throughput 0.997456
Reading from 20966: heap size 87 MB, throughput 0.996697
Reading from 20966: heap size 85 MB, throughput 0.996807
Reading from 20966: heap size 89 MB, throughput 0.997075
Reading from 20966: heap size 86 MB, throughput 0.997237
Reading from 20966: heap size 84 MB, throughput 0.997379
Reading from 20966: heap size 88 MB, throughput 0.997267
Numeric result:
Recommendation: 2 clients, utility 1.36981:
    h1: 87.847 MB (U(h) = 0.920937*h^0.0151397)
    h2: 1640.15 MB (U(h) = 0.171519*h^0.282651)
Recommendation: 2 clients, utility 1.36981:
    h1: 87.8516 MB (U(h) = 0.920937*h^0.0151397)
    h2: 1640.15 MB (U(h) = 0.171519*h^0.282651)
Reading from 20966: heap size 86 MB, throughput 0.996235
Reading from 20965: heap size 579 MB, throughput 0.992402
Reading from 20966: heap size 90 MB, throughput 0.996921
Reading from 20966: heap size 88 MB, throughput 0.996434
Reading from 20966: heap size 92 MB, throughput 0.989766
Reading from 20966: heap size 89 MB, throughput 0.99324
Reading from 20966: heap size 87 MB, throughput 0.995351
Reading from 20966: heap size 92 MB, throughput 0.99646
Reading from 20966: heap size 90 MB, throughput 0.996768
Reading from 20966: heap size 88 MB, throughput 0.997162
Reading from 20966: heap size 92 MB, throughput 0.997222
Reading from 20966: heap size 89 MB, throughput 0.997312
Reading from 20965: heap size 583 MB, throughput 0.99258
Reading from 20966: heap size 87 MB, throughput 0.99735
Reading from 20966: heap size 91 MB, throughput 0.997456
Reading from 20966: heap size 89 MB, throughput 0.997408
Reading from 20966: heap size 87 MB, throughput 0.997249
Reading from 20965: heap size 584 MB, throughput 0.992706
Client 20966 died
Clients: 1
Reading from 20965: heap size 590 MB, throughput 0.989256
Reading from 20965: heap size 591 MB, throughput 0.980913
Recommendation: one client; give it all the memory
Reading from 20965: heap size 597 MB, throughput 0.989628
Reading from 20965: heap size 599 MB, throughput 0.992568
Reading from 20965: heap size 600 MB, throughput 0.993352
Recommendation: one client; give it all the memory
Reading from 20965: heap size 603 MB, throughput 0.993483
Reading from 20965: heap size 600 MB, throughput 0.993279
Recommendation: one client; give it all the memory
Reading from 20965: heap size 603 MB, throughput 0.994248
Reading from 20965: heap size 605 MB, throughput 0.990392
Reading from 20965: heap size 605 MB, throughput 0.990967
Reading from 20965: heap size 612 MB, throughput 0.994354
Recommendation: one client; give it all the memory
Reading from 20965: heap size 612 MB, throughput 0.994544
Reading from 20965: heap size 611 MB, throughput 0.994048
Reading from 20965: heap size 614 MB, throughput 0.993513
Recommendation: one client; give it all the memory
Reading from 20965: heap size 614 MB, throughput 0.994579
Reading from 20965: heap size 615 MB, throughput 0.990788
Client 20965 died
Clients: 0
Recommendation: no clients; no recommendation
Recommendation: no clients; no recommendation
ReadingThread: finished
TimerThread: finished
CommandThread: finished
Main: All threads killed, cleaning up
