economemd
    total memory: 7410 MB
    timer interval: 10 s
    timer start state: running
    utility model: root

    caches:
        lru

    force utility function validity: yes
    make recommendations: yes
    equal recommendations: yes

    reading receiver name: simple
    command receiver name: simple

    dump file: economemd.dump.log
    log file: /home/callum/economics_memory_code/dynamic_sizing/data/output/timerComparisonMany_2014_10_15_12_35_15/sub30_timerComparisonSingle/sub2_timeBenchmarkDaemonEqual/daemon_run10_log.txt
    log readings: yes
    log functions: yes

PyOptimiser: initialising...
PyOptimiser: initialised
TimerThread: starting
CommandThread: starting
ReadingThread: starting
Recommendation: no clients; no recommendation
Recommendation: no clients; no recommendation
Reading from 8664: heap size 9 MB, throughput 0.986088
Clients: 1
Client 8664 has a minimum heap size of 12 MB
Reading from 8662: heap size 9 MB, throughput 0.989695
Clients: 2
Client 8662 has a minimum heap size of 1223 MB
Reading from 8664: heap size 9 MB, throughput 0.98664
Reading from 8662: heap size 9 MB, throughput 0.98634
Reading from 8662: heap size 9 MB, throughput 0.968882
Reading from 8662: heap size 9 MB, throughput 0.929439
Reading from 8664: heap size 11 MB, throughput 0.982585
Reading from 8662: heap size 11 MB, throughput 0.982278
Reading from 8664: heap size 11 MB, throughput 0.980846
Reading from 8662: heap size 11 MB, throughput 0.966946
Reading from 8662: heap size 17 MB, throughput 0.94903
Reading from 8664: heap size 15 MB, throughput 0.992808
Reading from 8662: heap size 17 MB, throughput 0.661061
Reading from 8664: heap size 15 MB, throughput 0.979933
Reading from 8662: heap size 29 MB, throughput 0.950462
Reading from 8662: heap size 30 MB, throughput 0.843213
Reading from 8662: heap size 34 MB, throughput 0.245218
Reading from 8664: heap size 24 MB, throughput 0.911578
Reading from 8662: heap size 48 MB, throughput 0.804854
Reading from 8662: heap size 49 MB, throughput 0.866736
Reading from 8662: heap size 53 MB, throughput 0.283051
Reading from 8664: heap size 29 MB, throughput 0.992541
Reading from 8662: heap size 74 MB, throughput 0.798907
Reading from 8662: heap size 74 MB, throughput 0.31122
Reading from 8664: heap size 34 MB, throughput 0.989229
Reading from 8662: heap size 99 MB, throughput 0.692982
Reading from 8662: heap size 99 MB, throughput 0.688242
Reading from 8664: heap size 38 MB, throughput 0.990161
Reading from 8662: heap size 101 MB, throughput 0.78814
Reading from 8664: heap size 40 MB, throughput 0.965542
Reading from 8662: heap size 104 MB, throughput 0.240596
Reading from 8664: heap size 43 MB, throughput 0.989172
Reading from 8662: heap size 129 MB, throughput 0.668292
Reading from 8664: heap size 47 MB, throughput 0.981058
Reading from 8662: heap size 133 MB, throughput 0.720353
Reading from 8664: heap size 48 MB, throughput 0.983681
Reading from 8662: heap size 135 MB, throughput 0.920517
Reading from 8664: heap size 55 MB, throughput 0.989806
Reading from 8664: heap size 55 MB, throughput 0.946499
Reading from 8662: heap size 138 MB, throughput 0.122032
Reading from 8664: heap size 63 MB, throughput 0.663194
Reading from 8662: heap size 174 MB, throughput 0.687729
Reading from 8664: heap size 68 MB, throughput 0.986486
Reading from 8662: heap size 176 MB, throughput 0.676172
Reading from 8662: heap size 178 MB, throughput 0.716057
Reading from 8662: heap size 183 MB, throughput 0.668868
Reading from 8664: heap size 76 MB, throughput 0.994036
Reading from 8662: heap size 190 MB, throughput 0.720493
Reading from 8662: heap size 195 MB, throughput 0.643524
Reading from 8662: heap size 199 MB, throughput 0.660008
Reading from 8662: heap size 207 MB, throughput 0.672538
Reading from 8662: heap size 211 MB, throughput 0.554109
Reading from 8662: heap size 221 MB, throughput 0.56155
Reading from 8664: heap size 77 MB, throughput 0.996064
Reading from 8662: heap size 226 MB, throughput 0.0637509
Reading from 8662: heap size 267 MB, throughput 0.484588
Reading from 8664: heap size 83 MB, throughput 0.996796
Reading from 8662: heap size 270 MB, throughput 0.144426
Reading from 8664: heap size 84 MB, throughput 0.996633
Reading from 8662: heap size 313 MB, throughput 0.460362
Reading from 8662: heap size 302 MB, throughput 0.626019
Reading from 8662: heap size 308 MB, throughput 0.578516
Reading from 8662: heap size 307 MB, throughput 0.61138
Reading from 8662: heap size 307 MB, throughput 0.678596
Reading from 8662: heap size 308 MB, throughput 0.579129
Reading from 8662: heap size 312 MB, throughput 0.561306
Reading from 8664: heap size 90 MB, throughput 0.997557
Reading from 8662: heap size 314 MB, throughput 0.576144
Reading from 8662: heap size 322 MB, throughput 0.461236
Reading from 8662: heap size 327 MB, throughput 0.528685
Reading from 8664: heap size 91 MB, throughput 0.995274
Reading from 8662: heap size 331 MB, throughput 0.0775941
Reading from 8662: heap size 378 MB, throughput 0.431395
Reading from 8662: heap size 379 MB, throughput 0.611048
Reading from 8662: heap size 376 MB, throughput 0.587215
Reading from 8664: heap size 95 MB, throughput 0.997062
Reading from 8662: heap size 378 MB, throughput 0.612749
Reading from 8662: heap size 379 MB, throughput 0.593302
Reading from 8662: heap size 381 MB, throughput 0.549746
Reading from 8662: heap size 384 MB, throughput 0.561077
Reading from 8664: heap size 96 MB, throughput 0.996462
Reading from 8662: heap size 386 MB, throughput 0.0834071
Reading from 8664: heap size 99 MB, throughput 0.996653
Reading from 8662: heap size 435 MB, throughput 0.519544
Equal recommendation: 3705 MB each
Reading from 8662: heap size 436 MB, throughput 0.628364
Reading from 8662: heap size 439 MB, throughput 0.545082
Reading from 8662: heap size 440 MB, throughput 0.489668
Reading from 8664: heap size 99 MB, throughput 0.995859
Reading from 8662: heap size 444 MB, throughput 0.559737
Reading from 8662: heap size 445 MB, throughput 0.513562
Reading from 8664: heap size 102 MB, throughput 0.99569
Reading from 8662: heap size 449 MB, throughput 0.0950376
Reading from 8664: heap size 102 MB, throughput 0.996458
Reading from 8662: heap size 500 MB, throughput 0.427017
Reading from 8662: heap size 508 MB, throughput 0.514724
Reading from 8662: heap size 510 MB, throughput 0.475171
Reading from 8662: heap size 515 MB, throughput 0.481947
Reading from 8664: heap size 105 MB, throughput 0.997265
Reading from 8662: heap size 519 MB, throughput 0.529466
Reading from 8664: heap size 105 MB, throughput 0.996116
Reading from 8662: heap size 521 MB, throughput 0.108783
Reading from 8662: heap size 583 MB, throughput 0.456288
Reading from 8664: heap size 108 MB, throughput 0.994509
Reading from 8662: heap size 591 MB, throughput 0.609088
Reading from 8662: heap size 593 MB, throughput 0.587118
Reading from 8662: heap size 598 MB, throughput 0.584837
Reading from 8662: heap size 604 MB, throughput 0.574525
Reading from 8664: heap size 108 MB, throughput 0.996685
Reading from 8662: heap size 610 MB, throughput 0.474272
Reading from 8664: heap size 111 MB, throughput 0.996686
Reading from 8662: heap size 614 MB, throughput 0.0796525
Reading from 8664: heap size 111 MB, throughput 0.997525
Reading from 8662: heap size 676 MB, throughput 0.797918
Reading from 8664: heap size 113 MB, throughput 0.998234
Reading from 8662: heap size 679 MB, throughput 0.809788
Reading from 8664: heap size 113 MB, throughput 0.997824
Reading from 8662: heap size 679 MB, throughput 0.828506
Reading from 8664: heap size 115 MB, throughput 0.997152
Reading from 8662: heap size 689 MB, throughput 0.74595
Reading from 8662: heap size 697 MB, throughput 0.390523
Reading from 8664: heap size 115 MB, throughput 0.998199
Reading from 8664: heap size 117 MB, throughput 0.997468
Equal recommendation: 3705 MB each
Reading from 8664: heap size 117 MB, throughput 0.997713
Reading from 8662: heap size 704 MB, throughput 0.0702498
Reading from 8662: heap size 774 MB, throughput 0.261472
Reading from 8662: heap size 690 MB, throughput 0.325961
Reading from 8662: heap size 762 MB, throughput 0.421123
Reading from 8662: heap size 767 MB, throughput 0.401955
Reading from 8664: heap size 119 MB, throughput 0.998307
Reading from 8664: heap size 119 MB, throughput 0.997869
Reading from 8664: heap size 121 MB, throughput 0.997592
Reading from 8662: heap size 766 MB, throughput 0.145597
Reading from 8662: heap size 845 MB, throughput 0.685364
Reading from 8662: heap size 849 MB, throughput 0.617149
Reading from 8664: heap size 121 MB, throughput 0.998093
Reading from 8662: heap size 850 MB, throughput 0.633614
Reading from 8662: heap size 855 MB, throughput 0.784904
Reading from 8662: heap size 855 MB, throughput 0.827115
Reading from 8664: heap size 123 MB, throughput 0.99843
Reading from 8664: heap size 123 MB, throughput 0.997508
Reading from 8662: heap size 861 MB, throughput 0.2016
Reading from 8662: heap size 950 MB, throughput 0.485054
Reading from 8662: heap size 954 MB, throughput 0.927851
Reading from 8662: heap size 959 MB, throughput 0.912705
Reading from 8664: heap size 124 MB, throughput 0.99858
Reading from 8662: heap size 962 MB, throughput 0.93289
Reading from 8662: heap size 805 MB, throughput 0.791969
Reading from 8662: heap size 938 MB, throughput 0.803355
Reading from 8662: heap size 809 MB, throughput 0.802791
Reading from 8664: heap size 124 MB, throughput 0.998566
Reading from 8662: heap size 925 MB, throughput 0.814131
Reading from 8662: heap size 814 MB, throughput 0.787852
Reading from 8662: heap size 918 MB, throughput 0.826148
Reading from 8662: heap size 812 MB, throughput 0.835356
Reading from 8662: heap size 911 MB, throughput 0.839044
Reading from 8664: heap size 125 MB, throughput 0.998522
Reading from 8662: heap size 918 MB, throughput 0.842331
Reading from 8662: heap size 906 MB, throughput 0.828543
Reading from 8662: heap size 912 MB, throughput 0.96481
Reading from 8664: heap size 125 MB, throughput 0.998174
Reading from 8664: heap size 126 MB, throughput 0.998441
Reading from 8662: heap size 910 MB, throughput 0.980285
Reading from 8664: heap size 126 MB, throughput 0.998577
Reading from 8662: heap size 913 MB, throughput 0.85227
Reading from 8662: heap size 909 MB, throughput 0.808931
Reading from 8662: heap size 911 MB, throughput 0.809475
Reading from 8662: heap size 910 MB, throughput 0.816547
Reading from 8664: heap size 128 MB, throughput 0.998502
Equal recommendation: 3705 MB each
Reading from 8662: heap size 912 MB, throughput 0.80527
Reading from 8662: heap size 911 MB, throughput 0.826936
Reading from 8662: heap size 913 MB, throughput 0.824801
Reading from 8662: heap size 913 MB, throughput 0.831781
Reading from 8664: heap size 128 MB, throughput 0.998669
Reading from 8662: heap size 916 MB, throughput 0.828502
Reading from 8662: heap size 916 MB, throughput 0.879886
Reading from 8664: heap size 129 MB, throughput 0.99868
Reading from 8662: heap size 919 MB, throughput 0.91325
Reading from 8662: heap size 919 MB, throughput 0.808661
Reading from 8662: heap size 922 MB, throughput 0.718564
Reading from 8664: heap size 129 MB, throughput 0.9979
Reading from 8664: heap size 131 MB, throughput 0.997853
Reading from 8664: heap size 131 MB, throughput 0.9948
Reading from 8662: heap size 908 MB, throughput 0.0553971
Reading from 8662: heap size 1049 MB, throughput 0.58469
Reading from 8662: heap size 1044 MB, throughput 0.742598
Reading from 8664: heap size 132 MB, throughput 0.998594
Reading from 8662: heap size 1049 MB, throughput 0.744435
Reading from 8662: heap size 1049 MB, throughput 0.745424
Reading from 8662: heap size 1052 MB, throughput 0.733787
Reading from 8662: heap size 1059 MB, throughput 0.733711
Reading from 8664: heap size 132 MB, throughput 0.998292
Reading from 8662: heap size 1060 MB, throughput 0.732724
Reading from 8662: heap size 1072 MB, throughput 0.728067
Reading from 8662: heap size 1073 MB, throughput 0.756463
Reading from 8664: heap size 134 MB, throughput 0.997991
Reading from 8664: heap size 134 MB, throughput 0.998599
Reading from 8662: heap size 1085 MB, throughput 0.957681
Reading from 8664: heap size 135 MB, throughput 0.99821
Reading from 8664: heap size 135 MB, throughput 0.998623
Reading from 8664: heap size 137 MB, throughput 0.998137
Equal recommendation: 3705 MB each
Reading from 8662: heap size 1089 MB, throughput 0.977668
Reading from 8664: heap size 137 MB, throughput 0.998592
Reading from 8664: heap size 138 MB, throughput 0.998092
Reading from 8664: heap size 138 MB, throughput 0.998078
Reading from 8662: heap size 1103 MB, throughput 0.980116
Reading from 8664: heap size 140 MB, throughput 0.998728
Reading from 8664: heap size 140 MB, throughput 0.997964
Reading from 8664: heap size 141 MB, throughput 0.998754
Reading from 8664: heap size 141 MB, throughput 0.998412
Reading from 8662: heap size 1105 MB, throughput 0.982203
Reading from 8664: heap size 142 MB, throughput 0.998755
Reading from 8664: heap size 142 MB, throughput 0.99866
Reading from 8664: heap size 144 MB, throughput 0.998713
Reading from 8662: heap size 1106 MB, throughput 0.977406
Reading from 8664: heap size 144 MB, throughput 0.99855
Equal recommendation: 3705 MB each
Reading from 8664: heap size 145 MB, throughput 0.99878
Reading from 8664: heap size 145 MB, throughput 0.998388
Reading from 8662: heap size 1110 MB, throughput 0.976784
Reading from 8664: heap size 147 MB, throughput 0.998851
Reading from 8664: heap size 147 MB, throughput 0.998249
Reading from 8664: heap size 148 MB, throughput 0.99859
Reading from 8664: heap size 148 MB, throughput 0.998716
Reading from 8662: heap size 1102 MB, throughput 0.978175
Reading from 8664: heap size 150 MB, throughput 0.998841
Reading from 8664: heap size 150 MB, throughput 0.998596
Reading from 8664: heap size 151 MB, throughput 0.998839
Reading from 8662: heap size 1108 MB, throughput 0.973637
Reading from 8664: heap size 151 MB, throughput 0.998554
Equal recommendation: 3705 MB each
Reading from 8664: heap size 153 MB, throughput 0.998433
Reading from 8664: heap size 153 MB, throughput 0.9983
Reading from 8662: heap size 1104 MB, throughput 0.97939
Reading from 8664: heap size 154 MB, throughput 0.998592
Reading from 8664: heap size 154 MB, throughput 0.998333
Reading from 8664: heap size 156 MB, throughput 0.998867
Reading from 8662: heap size 1107 MB, throughput 0.978688
Reading from 8664: heap size 156 MB, throughput 0.998
Reading from 8664: heap size 157 MB, throughput 0.998814
Reading from 8664: heap size 157 MB, throughput 0.998389
Reading from 8662: heap size 1111 MB, throughput 0.97681
Reading from 8664: heap size 159 MB, throughput 0.9989
Reading from 8664: heap size 152 MB, throughput 0.998692
Reading from 8664: heap size 146 MB, throughput 0.998707
Equal recommendation: 3705 MB each
Reading from 8664: heap size 140 MB, throughput 0.998417
Reading from 8662: heap size 1111 MB, throughput 0.976853
Reading from 8664: heap size 134 MB, throughput 0.998401
Reading from 8664: heap size 129 MB, throughput 0.998737
Reading from 8664: heap size 124 MB, throughput 0.997992
Reading from 8664: heap size 119 MB, throughput 0.998505
Reading from 8664: heap size 114 MB, throughput 0.998137
Reading from 8662: heap size 1115 MB, throughput 0.977619
Reading from 8664: heap size 110 MB, throughput 0.998382
Reading from 8664: heap size 106 MB, throughput 0.997959
Reading from 8664: heap size 102 MB, throughput 0.998119
Reading from 8664: heap size 98 MB, throughput 0.998046
Reading from 8664: heap size 94 MB, throughput 0.998045
Reading from 8662: heap size 1117 MB, throughput 0.97775
Reading from 8664: heap size 91 MB, throughput 0.997979
Reading from 8664: heap size 88 MB, throughput 0.996882
Reading from 8664: heap size 85 MB, throughput 0.997037
Reading from 8664: heap size 82 MB, throughput 0.997722
Equal recommendation: 3705 MB each
Reading from 8664: heap size 79 MB, throughput 0.997807
Reading from 8664: heap size 76 MB, throughput 0.997722
Reading from 8664: heap size 74 MB, throughput 0.997317
Reading from 8664: heap size 71 MB, throughput 0.997305
Reading from 8662: heap size 1120 MB, throughput 0.97845
Reading from 8664: heap size 69 MB, throughput 0.99549
Reading from 8664: heap size 67 MB, throughput 0.997313
Reading from 8664: heap size 65 MB, throughput 0.996846
Reading from 8664: heap size 63 MB, throughput 0.997065
Reading from 8664: heap size 61 MB, throughput 0.996572
Reading from 8664: heap size 59 MB, throughput 0.996202
Reading from 8664: heap size 60 MB, throughput 0.994323
Reading from 8664: heap size 62 MB, throughput 0.996178
Reading from 8664: heap size 63 MB, throughput 0.995913
Reading from 8664: heap size 65 MB, throughput 0.997001
Reading from 8662: heap size 1123 MB, throughput 0.977926
Reading from 8664: heap size 66 MB, throughput 0.996079
Reading from 8664: heap size 68 MB, throughput 0.997087
Reading from 8664: heap size 69 MB, throughput 0.996552
Reading from 8664: heap size 71 MB, throughput 0.997554
Reading from 8664: heap size 69 MB, throughput 0.996665
Reading from 8664: heap size 67 MB, throughput 0.997083
Reading from 8664: heap size 65 MB, throughput 0.997073
Reading from 8664: heap size 63 MB, throughput 0.995046
Reading from 8664: heap size 61 MB, throughput 0.996711
Reading from 8664: heap size 59 MB, throughput 0.995964
Reading from 8662: heap size 1125 MB, throughput 0.978125
Reading from 8664: heap size 58 MB, throughput 0.996697
Reading from 8664: heap size 56 MB, throughput 0.994158
Reading from 8664: heap size 57 MB, throughput 0.996858
Reading from 8664: heap size 58 MB, throughput 0.996539
Reading from 8664: heap size 59 MB, throughput 0.995847
Reading from 8664: heap size 61 MB, throughput 0.996653
Equal recommendation: 3705 MB each
Reading from 8664: heap size 59 MB, throughput 0.996127
Reading from 8664: heap size 58 MB, throughput 0.996329
Reading from 8664: heap size 56 MB, throughput 0.9953
Reading from 8664: heap size 57 MB, throughput 0.996435
Reading from 8664: heap size 56 MB, throughput 0.996534
Reading from 8662: heap size 1130 MB, throughput 0.976136
Reading from 8664: heap size 54 MB, throughput 0.996498
Reading from 8664: heap size 53 MB, throughput 0.996435
Reading from 8664: heap size 51 MB, throughput 0.99473
Reading from 8664: heap size 52 MB, throughput 0.994536
Reading from 8664: heap size 53 MB, throughput 0.994034
Reading from 8664: heap size 55 MB, throughput 0.995996
Reading from 8664: heap size 56 MB, throughput 0.996512
Reading from 8664: heap size 57 MB, throughput 0.996212
Reading from 8664: heap size 59 MB, throughput 0.995894
Reading from 8664: heap size 60 MB, throughput 0.996857
Reading from 8664: heap size 59 MB, throughput 0.996102
Reading from 8664: heap size 57 MB, throughput 0.996549
Reading from 8664: heap size 56 MB, throughput 0.996228
Reading from 8662: heap size 1134 MB, throughput 0.975743
Reading from 8664: heap size 54 MB, throughput 0.995566
Reading from 8664: heap size 53 MB, throughput 0.995492
Reading from 8664: heap size 51 MB, throughput 0.995966
Reading from 8664: heap size 50 MB, throughput 0.995627
Reading from 8664: heap size 49 MB, throughput 0.994279
Reading from 8664: heap size 50 MB, throughput 0.994471
Reading from 8664: heap size 51 MB, throughput 0.995819
Reading from 8664: heap size 52 MB, throughput 0.99598
Reading from 8664: heap size 53 MB, throughput 0.995771
Reading from 8664: heap size 54 MB, throughput 0.996436
Reading from 8664: heap size 52 MB, throughput 0.994703
Reading from 8664: heap size 53 MB, throughput 0.985394
Reading from 8662: heap size 1136 MB, throughput 0.976865
Reading from 8664: heap size 55 MB, throughput 0.995832
Reading from 8664: heap size 56 MB, throughput 0.99544
Reading from 8664: heap size 58 MB, throughput 0.996054
Reading from 8664: heap size 59 MB, throughput 0.996078
Reading from 8664: heap size 61 MB, throughput 0.996778
Reading from 8664: heap size 62 MB, throughput 0.995058
Equal recommendation: 3705 MB each
Reading from 8664: heap size 64 MB, throughput 0.996752
Reading from 8664: heap size 62 MB, throughput 0.994816
Reading from 8664: heap size 63 MB, throughput 0.995568
Reading from 8664: heap size 61 MB, throughput 0.996555
Reading from 8664: heap size 59 MB, throughput 0.995308
Reading from 8662: heap size 1140 MB, throughput 0.97753
Reading from 8664: heap size 58 MB, throughput 0.996862
Reading from 8664: heap size 56 MB, throughput 0.995685
Reading from 8664: heap size 55 MB, throughput 0.995284
Reading from 8664: heap size 53 MB, throughput 0.9961
Reading from 8664: heap size 52 MB, throughput 0.996016
Reading from 8664: heap size 50 MB, throughput 0.995964
Reading from 8664: heap size 49 MB, throughput 0.993522
Reading from 8664: heap size 48 MB, throughput 0.992603
Reading from 8664: heap size 49 MB, throughput 0.993605
Reading from 8664: heap size 51 MB, throughput 0.995554
Reading from 8664: heap size 52 MB, throughput 0.993805
Reading from 8664: heap size 54 MB, throughput 0.995719
Reading from 8664: heap size 55 MB, throughput 0.996651
Reading from 8664: heap size 54 MB, throughput 0.996251
Reading from 8664: heap size 52 MB, throughput 0.994674
Reading from 8662: heap size 1141 MB, throughput 0.97521
Reading from 8664: heap size 51 MB, throughput 0.995182
Reading from 8664: heap size 50 MB, throughput 0.99468
Reading from 8664: heap size 51 MB, throughput 0.993961
Reading from 8664: heap size 52 MB, throughput 0.995085
Reading from 8664: heap size 54 MB, throughput 0.994757
Reading from 8664: heap size 55 MB, throughput 0.996398
Reading from 8664: heap size 54 MB, throughput 0.995836
Reading from 8664: heap size 52 MB, throughput 0.995578
Reading from 8664: heap size 51 MB, throughput 0.99329
Reading from 8664: heap size 52 MB, throughput 0.995596
Reading from 8664: heap size 51 MB, throughput 0.995829
Reading from 8664: heap size 50 MB, throughput 0.995347
Reading from 8664: heap size 49 MB, throughput 0.994788
Reading from 8664: heap size 48 MB, throughput 0.994828
Reading from 8664: heap size 47 MB, throughput 0.992856
Reading from 8662: heap size 1144 MB, throughput 0.978355
Reading from 8664: heap size 48 MB, throughput 0.995721
Reading from 8664: heap size 49 MB, throughput 0.995751
Reading from 8664: heap size 48 MB, throughput 0.995477
Reading from 8664: heap size 47 MB, throughput 0.994768
Equal recommendation: 3705 MB each
Reading from 8664: heap size 46 MB, throughput 0.994661
Reading from 8664: heap size 45 MB, throughput 0.994349
Reading from 8664: heap size 46 MB, throughput 0.99477
Reading from 8664: heap size 47 MB, throughput 0.9948
Reading from 8664: heap size 48 MB, throughput 0.995134
Reading from 8664: heap size 47 MB, throughput 0.994209
Reading from 8664: heap size 48 MB, throughput 0.995822
Reading from 8664: heap size 47 MB, throughput 0.993281
Reading from 8664: heap size 48 MB, throughput 0.994378
Reading from 8664: heap size 49 MB, throughput 0.994989
Reading from 8664: heap size 50 MB, throughput 0.992725
Reading from 8664: heap size 51 MB, throughput 0.995985
Reading from 8662: heap size 1145 MB, throughput 0.975547
Reading from 8664: heap size 53 MB, throughput 0.996324
Reading from 8664: heap size 51 MB, throughput 0.995889
Reading from 8664: heap size 50 MB, throughput 0.994675
Reading from 8664: heap size 49 MB, throughput 0.995478
Reading from 8664: heap size 48 MB, throughput 0.993773
Reading from 8664: heap size 47 MB, throughput 0.993163
Reading from 8664: heap size 48 MB, throughput 0.993615
Reading from 8664: heap size 50 MB, throughput 0.99573
Reading from 8664: heap size 51 MB, throughput 0.994326
Reading from 8664: heap size 53 MB, throughput 0.995604
Reading from 8664: heap size 51 MB, throughput 0.996005
Reading from 8664: heap size 50 MB, throughput 0.995607
Reading from 8664: heap size 49 MB, throughput 0.993986
Reading from 8664: heap size 48 MB, throughput 0.99358
Reading from 8664: heap size 49 MB, throughput 0.994007
Reading from 8664: heap size 50 MB, throughput 0.995369
Reading from 8662: heap size 1148 MB, throughput 0.977912
Reading from 8664: heap size 49 MB, throughput 0.995196
Reading from 8664: heap size 48 MB, throughput 0.995019
Reading from 8664: heap size 47 MB, throughput 0.995312
Reading from 8664: heap size 46 MB, throughput 0.993139
Reading from 8664: heap size 47 MB, throughput 0.993047
Reading from 8664: heap size 49 MB, throughput 0.994818
Reading from 8664: heap size 50 MB, throughput 0.994922
Reading from 8664: heap size 52 MB, throughput 0.995811
Reading from 8664: heap size 50 MB, throughput 0.99533
Reading from 8664: heap size 49 MB, throughput 0.992715
Reading from 8664: heap size 51 MB, throughput 0.995644
Reading from 8664: heap size 50 MB, throughput 0.995199
Reading from 8664: heap size 49 MB, throughput 0.994937
Reading from 8664: heap size 48 MB, throughput 0.994974
Reading from 8664: heap size 47 MB, throughput 0.995189
Equal recommendation: 3705 MB each
Reading from 8664: heap size 46 MB, throughput 0.9949
Reading from 8664: heap size 45 MB, throughput 0.994543
Reading from 8662: heap size 1148 MB, throughput 0.976275
Reading from 8664: heap size 44 MB, throughput 0.995324
Reading from 8664: heap size 43 MB, throughput 0.994597
Reading from 8664: heap size 42 MB, throughput 0.992837
Reading from 8664: heap size 43 MB, throughput 0.994986
Reading from 8664: heap size 42 MB, throughput 0.993858
Reading from 8664: heap size 43 MB, throughput 0.993792
Reading from 8664: heap size 44 MB, throughput 0.994652
Reading from 8664: heap size 45 MB, throughput 0.992026
Reading from 8664: heap size 46 MB, throughput 0.995468
Reading from 8664: heap size 47 MB, throughput 0.995412
Reading from 8664: heap size 46 MB, throughput 0.993679
Reading from 8664: heap size 47 MB, throughput 0.995759
Reading from 8664: heap size 46 MB, throughput 0.994714
Reading from 8664: heap size 45 MB, throughput 0.994022
Reading from 8664: heap size 44 MB, throughput 0.993466
Reading from 8664: heap size 45 MB, throughput 0.995113
Reading from 8664: heap size 44 MB, throughput 0.99495
Reading from 8664: heap size 43 MB, throughput 0.994215
Reading from 8664: heap size 42 MB, throughput 0.994266
Reading from 8664: heap size 41 MB, throughput 0.991973
Reading from 8664: heap size 42 MB, throughput 0.99133
Reading from 8664: heap size 44 MB, throughput 0.994843
Reading from 8664: heap size 45 MB, throughput 0.993344
Reading from 8664: heap size 46 MB, throughput 0.994642
Reading from 8664: heap size 48 MB, throughput 0.99388
Reading from 8664: heap size 49 MB, throughput 0.993952
Reading from 8664: heap size 51 MB, throughput 0.995513
Reading from 8662: heap size 1151 MB, throughput 0.66482
Reading from 8664: heap size 50 MB, throughput 0.994771
Reading from 8664: heap size 49 MB, throughput 0.994712
Reading from 8664: heap size 48 MB, throughput 0.995364
Reading from 8664: heap size 47 MB, throughput 0.99499
Reading from 8664: heap size 46 MB, throughput 0.992281
Reading from 8664: heap size 47 MB, throughput 0.991349
Reading from 8664: heap size 48 MB, throughput 0.992056
Reading from 8664: heap size 50 MB, throughput 0.99537
Reading from 8664: heap size 51 MB, throughput 0.996082
Reading from 8664: heap size 50 MB, throughput 0.996138
Reading from 8664: heap size 49 MB, throughput 0.995558
Reading from 8664: heap size 48 MB, throughput 0.99531
Reading from 8664: heap size 47 MB, throughput 0.993444
Reading from 8664: heap size 46 MB, throughput 0.995154
Reading from 8664: heap size 45 MB, throughput 0.994905
Reading from 8664: heap size 44 MB, throughput 0.992121
Reading from 8664: heap size 43 MB, throughput 0.993285
Reading from 8662: heap size 1250 MB, throughput 0.971891
Reading from 8664: heap size 44 MB, throughput 0.994803
Reading from 8664: heap size 43 MB, throughput 0.994598
Equal recommendation: 3705 MB each
Reading from 8664: heap size 42 MB, throughput 0.991436
Reading from 8664: heap size 43 MB, throughput 0.994483
Reading from 8664: heap size 44 MB, throughput 0.995307
Reading from 8664: heap size 43 MB, throughput 0.992663
Reading from 8664: heap size 44 MB, throughput 0.994633
Reading from 8664: heap size 45 MB, throughput 0.994942
Reading from 8664: heap size 44 MB, throughput 0.994192
Reading from 8664: heap size 43 MB, throughput 0.994624
Reading from 8664: heap size 42 MB, throughput 0.994667
Reading from 8664: heap size 41 MB, throughput 0.992331
Reading from 8664: heap size 42 MB, throughput 0.991977
Reading from 8664: heap size 43 MB, throughput 0.992439
Reading from 8664: heap size 44 MB, throughput 0.994174
Reading from 8664: heap size 46 MB, throughput 0.995067
Reading from 8664: heap size 47 MB, throughput 0.995597
Reading from 8664: heap size 46 MB, throughput 0.994114
Reading from 8662: heap size 1243 MB, throughput 0.992044
Reading from 8664: heap size 45 MB, throughput 0.994767
Reading from 8664: heap size 44 MB, throughput 0.994318
Reading from 8664: heap size 43 MB, throughput 0.994532
Reading from 8664: heap size 42 MB, throughput 0.994593
Reading from 8664: heap size 41 MB, throughput 0.988642
Reading from 8664: heap size 42 MB, throughput 0.994627
Reading from 8664: heap size 43 MB, throughput 0.994843
Reading from 8664: heap size 44 MB, throughput 0.994532
Reading from 8664: heap size 43 MB, throughput 0.99319
Reading from 8664: heap size 44 MB, throughput 0.993813
Reading from 8664: heap size 46 MB, throughput 0.994117
Reading from 8664: heap size 47 MB, throughput 0.993756
Reading from 8664: heap size 49 MB, throughput 0.994716
Reading from 8664: heap size 48 MB, throughput 0.995405
Reading from 8664: heap size 47 MB, throughput 0.993539
Reading from 8664: heap size 46 MB, throughput 0.994033
Reading from 8664: heap size 45 MB, throughput 0.994192
Reading from 8664: heap size 44 MB, throughput 0.995235
Reading from 8662: heap size 1253 MB, throughput 0.989318
Reading from 8664: heap size 43 MB, throughput 0.993317
Reading from 8664: heap size 42 MB, throughput 0.994003
Reading from 8664: heap size 41 MB, throughput 0.992455
Reading from 8664: heap size 42 MB, throughput 0.993995
Reading from 8664: heap size 43 MB, throughput 0.994228
Reading from 8664: heap size 42 MB, throughput 0.994123
Reading from 8664: heap size 41 MB, throughput 0.994624
Reading from 8664: heap size 40 MB, throughput 0.993669
Reading from 8664: heap size 39 MB, throughput 0.99363
Reading from 8664: heap size 39 MB, throughput 0.992069
Reading from 8664: heap size 40 MB, throughput 0.994111
Reading from 8664: heap size 41 MB, throughput 0.99345
Reading from 8664: heap size 42 MB, throughput 0.991941
Reading from 8664: heap size 43 MB, throughput 0.994556
Reading from 8664: heap size 44 MB, throughput 0.995026
Reading from 8664: heap size 43 MB, throughput 0.994106
Reading from 8664: heap size 42 MB, throughput 0.994549
Reading from 8664: heap size 41 MB, throughput 0.993266
Reading from 8664: heap size 40 MB, throughput 0.993576
Equal recommendation: 3705 MB each
Reading from 8664: heap size 40 MB, throughput 0.992008
Reading from 8662: heap size 1259 MB, throughput 0.989225
Reading from 8664: heap size 41 MB, throughput 0.993378
Reading from 8664: heap size 42 MB, throughput 0.982842
Reading from 8664: heap size 43 MB, throughput 0.977423
Reading from 8664: heap size 46 MB, throughput 0.981157
Reading from 8664: heap size 48 MB, throughput 0.979306
Reading from 8664: heap size 51 MB, throughput 0.979969
Reading from 8664: heap size 53 MB, throughput 0.982491
Reading from 8664: heap size 57 MB, throughput 0.968801
Reading from 8664: heap size 60 MB, throughput 0.98297
Reading from 8664: heap size 65 MB, throughput 0.61585
Reading from 8664: heap size 69 MB, throughput 0.995655
Reading from 8664: heap size 74 MB, throughput 0.995495
Reading from 8664: heap size 78 MB, throughput 0.997233
Reading from 8664: heap size 85 MB, throughput 0.996803
Reading from 8662: heap size 1261 MB, throughput 0.987128
Reading from 8664: heap size 86 MB, throughput 0.997844
Reading from 8664: heap size 93 MB, throughput 0.997255
Reading from 8664: heap size 94 MB, throughput 0.997245
Reading from 8664: heap size 100 MB, throughput 0.996151
Reading from 8664: heap size 100 MB, throughput 0.997869
Reading from 8664: heap size 106 MB, throughput 0.997356
Reading from 8664: heap size 106 MB, throughput 0.997847
Reading from 8662: heap size 1257 MB, throughput 0.984269
Reading from 8664: heap size 111 MB, throughput 0.996812
Reading from 8664: heap size 111 MB, throughput 0.997572
Reading from 8664: heap size 116 MB, throughput 0.997637
Reading from 8664: heap size 116 MB, throughput 0.998195
Equal recommendation: 3705 MB each
Reading from 8664: heap size 120 MB, throughput 0.997955
Reading from 8662: heap size 1167 MB, throughput 0.985013
Reading from 8664: heap size 121 MB, throughput 0.998236
Reading from 8664: heap size 125 MB, throughput 0.997268
Reading from 8664: heap size 126 MB, throughput 0.99844
Reading from 8664: heap size 130 MB, throughput 0.998371
Reading from 8662: heap size 1246 MB, throughput 0.984861
Reading from 8664: heap size 131 MB, throughput 0.998242
Reading from 8664: heap size 134 MB, throughput 0.998543
Reading from 8664: heap size 135 MB, throughput 0.997161
Reading from 8664: heap size 135 MB, throughput 0.998468
Reading from 8664: heap size 137 MB, throughput 0.998502
Reading from 8662: heap size 1182 MB, throughput 0.984021
Reading from 8664: heap size 137 MB, throughput 0.998345
Reading from 8664: heap size 139 MB, throughput 0.998215
Equal recommendation: 3705 MB each
Reading from 8664: heap size 139 MB, throughput 0.9987
Reading from 8664: heap size 141 MB, throughput 0.998694
Reading from 8662: heap size 1239 MB, throughput 0.982847
Reading from 8664: heap size 141 MB, throughput 0.998253
Reading from 8664: heap size 143 MB, throughput 0.998267
Reading from 8664: heap size 143 MB, throughput 0.998226
Reading from 8664: heap size 145 MB, throughput 0.998347
Reading from 8662: heap size 1244 MB, throughput 0.981217
Reading from 8664: heap size 145 MB, throughput 0.998132
Reading from 8664: heap size 147 MB, throughput 0.998499
Reading from 8664: heap size 147 MB, throughput 0.998547
Reading from 8664: heap size 149 MB, throughput 0.998519
Reading from 8662: heap size 1244 MB, throughput 0.980691
Reading from 8664: heap size 149 MB, throughput 0.997789
Equal recommendation: 3705 MB each
Reading from 8664: heap size 151 MB, throughput 0.998688
Reading from 8664: heap size 151 MB, throughput 0.998197
Reading from 8664: heap size 153 MB, throughput 0.998727
Reading from 8662: heap size 1244 MB, throughput 0.98014
Reading from 8664: heap size 153 MB, throughput 0.998776
Reading from 8664: heap size 154 MB, throughput 0.998281
Reading from 8664: heap size 154 MB, throughput 0.998671
Reading from 8664: heap size 156 MB, throughput 0.99848
Reading from 8662: heap size 1246 MB, throughput 0.977045
Reading from 8664: heap size 156 MB, throughput 0.998879
Reading from 8664: heap size 158 MB, throughput 0.998866
Reading from 8664: heap size 158 MB, throughput 0.998359
Reading from 8664: heap size 160 MB, throughput 0.998915
Reading from 8662: heap size 1249 MB, throughput 0.978094
Equal recommendation: 3705 MB each
Reading from 8664: heap size 160 MB, throughput 0.998831
Reading from 8664: heap size 162 MB, throughput 0.998645
Reading from 8664: heap size 162 MB, throughput 0.998191
Reading from 8662: heap size 1251 MB, throughput 0.974933
Reading from 8664: heap size 164 MB, throughput 0.998726
Reading from 8664: heap size 164 MB, throughput 0.998035
Reading from 8664: heap size 166 MB, throughput 0.998571
Reading from 8664: heap size 166 MB, throughput 0.99852
Reading from 8662: heap size 1257 MB, throughput 0.973654
Reading from 8664: heap size 169 MB, throughput 0.998574
Reading from 8664: heap size 169 MB, throughput 0.998691
Equal recommendation: 3705 MB each
Reading from 8664: heap size 171 MB, throughput 0.998295
Reading from 8662: heap size 1263 MB, throughput 0.976341
Reading from 8664: heap size 171 MB, throughput 0.998764
Reading from 8664: heap size 173 MB, throughput 0.998775
Reading from 8664: heap size 173 MB, throughput 0.998678
Reading from 8664: heap size 175 MB, throughput 0.998931
Reading from 8662: heap size 1266 MB, throughput 0.978562
Reading from 8664: heap size 175 MB, throughput 0.998199
Reading from 8664: heap size 177 MB, throughput 0.998851
Reading from 8664: heap size 177 MB, throughput 0.998697
Reading from 8662: heap size 1270 MB, throughput 0.975553
Reading from 8664: heap size 179 MB, throughput 0.998902
Equal recommendation: 3705 MB each
Reading from 8664: heap size 179 MB, throughput 0.998895
Reading from 8664: heap size 181 MB, throughput 0.998477
Reading from 8664: heap size 181 MB, throughput 0.998007
Reading from 8662: heap size 1272 MB, throughput 0.978277
Reading from 8664: heap size 183 MB, throughput 0.998484
Reading from 8664: heap size 183 MB, throughput 0.998412
Reading from 8664: heap size 186 MB, throughput 0.998755
Reading from 8662: heap size 1276 MB, throughput 0.976108
Reading from 8664: heap size 186 MB, throughput 0.998982
Reading from 8664: heap size 188 MB, throughput 0.999036
Reading from 8664: heap size 188 MB, throughput 0.99888
Equal recommendation: 3705 MB each
Reading from 8662: heap size 1276 MB, throughput 0.977675
Reading from 8664: heap size 190 MB, throughput 0.998681
Reading from 8664: heap size 190 MB, throughput 0.99889
Reading from 8664: heap size 192 MB, throughput 0.99889
Reading from 8664: heap size 192 MB, throughput 0.99892
Reading from 8664: heap size 194 MB, throughput 0.998847
Reading from 8664: heap size 194 MB, throughput 0.998944
Reading from 8664: heap size 196 MB, throughput 0.998942
Reading from 8664: heap size 196 MB, throughput 0.998981
Equal recommendation: 3705 MB each
Reading from 8664: heap size 198 MB, throughput 0.998879
Reading from 8664: heap size 198 MB, throughput 0.998974
Reading from 8664: heap size 200 MB, throughput 0.999023
Reading from 8664: heap size 200 MB, throughput 0.998541
Reading from 8664: heap size 202 MB, throughput 0.998442
Reading from 8662: heap size 1279 MB, throughput 0.836036
Reading from 8664: heap size 202 MB, throughput 0.998989
Reading from 8664: heap size 205 MB, throughput 0.999021
Reading from 8664: heap size 205 MB, throughput 0.998973
Equal recommendation: 3705 MB each
Reading from 8664: heap size 207 MB, throughput 0.998757
Reading from 8664: heap size 207 MB, throughput 0.998888
Reading from 8664: heap size 209 MB, throughput 0.998847
Reading from 8664: heap size 209 MB, throughput 0.998683
Reading from 8664: heap size 211 MB, throughput 0.998899
Reading from 8664: heap size 211 MB, throughput 0.99907
Reading from 8662: heap size 1438 MB, throughput 0.985864
Reading from 8664: heap size 213 MB, throughput 0.999155
Reading from 8664: heap size 214 MB, throughput 0.999036
Equal recommendation: 3705 MB each
Reading from 8664: heap size 215 MB, throughput 0.999061
Reading from 8664: heap size 215 MB, throughput 0.998895
Reading from 8664: heap size 217 MB, throughput 0.998849
Reading from 8664: heap size 217 MB, throughput 0.998654
Reading from 8662: heap size 1465 MB, throughput 0.988258
Reading from 8662: heap size 1472 MB, throughput 0.875907
Reading from 8662: heap size 1481 MB, throughput 0.782995
Reading from 8662: heap size 1486 MB, throughput 0.699974
Reading from 8664: heap size 219 MB, throughput 0.999156
Reading from 8662: heap size 1519 MB, throughput 0.726056
Reading from 8662: heap size 1533 MB, throughput 0.734947
Reading from 8662: heap size 1559 MB, throughput 0.734925
Reading from 8662: heap size 1567 MB, throughput 0.748375
Reading from 8664: heap size 219 MB, throughput 0.999001
Reading from 8662: heap size 1596 MB, throughput 0.782098
Reading from 8664: heap size 221 MB, throughput 0.99863
Equal recommendation: 3705 MB each
Reading from 8664: heap size 221 MB, throughput 0.998995
Reading from 8662: heap size 1599 MB, throughput 0.971573
Reading from 8664: heap size 224 MB, throughput 0.998852
Reading from 8664: heap size 224 MB, throughput 0.998996
Reading from 8664: heap size 226 MB, throughput 0.998668
Reading from 8662: heap size 1596 MB, throughput 0.984764
Reading from 8664: heap size 226 MB, throughput 0.999117
Reading from 8664: heap size 229 MB, throughput 0.998833
Reading from 8664: heap size 229 MB, throughput 0.998813
Equal recommendation: 3705 MB each
Reading from 8662: heap size 1608 MB, throughput 0.984337
Reading from 8664: heap size 231 MB, throughput 0.998801
Reading from 8664: heap size 231 MB, throughput 0.998831
Reading from 8664: heap size 234 MB, throughput 0.999213
Reading from 8664: heap size 234 MB, throughput 0.998901
Reading from 8662: heap size 1599 MB, throughput 0.982971
Reading from 8664: heap size 236 MB, throughput 0.998848
Reading from 8664: heap size 236 MB, throughput 0.999142
Reading from 8664: heap size 239 MB, throughput 0.998926
Equal recommendation: 3705 MB each
Reading from 8662: heap size 1611 MB, throughput 0.982879
Reading from 8664: heap size 239 MB, throughput 0.99893
Client 8664 died
Clients: 1
Reading from 8662: heap size 1609 MB, throughput 0.872906
Recommendation: one client; give it all the memory
Reading from 8662: heap size 1506 MB, throughput 0.996101
Reading from 8662: heap size 1510 MB, throughput 0.99453
Recommendation: one client; give it all the memory
Reading from 8662: heap size 1522 MB, throughput 0.993431
Reading from 8662: heap size 1538 MB, throughput 0.992011
Recommendation: one client; give it all the memory
Reading from 8662: heap size 1539 MB, throughput 0.991052
Reading from 8662: heap size 1530 MB, throughput 0.989897
Recommendation: one client; give it all the memory
Reading from 8662: heap size 1367 MB, throughput 0.989086
Reading from 8662: heap size 1513 MB, throughput 0.988375
Recommendation: one client; give it all the memory
Reading from 8662: heap size 1394 MB, throughput 0.987082
Reading from 8662: heap size 1499 MB, throughput 0.98619
Recommendation: one client; give it all the memory
Reading from 8662: heap size 1509 MB, throughput 0.985251
Reading from 8662: heap size 1508 MB, throughput 0.984356
Recommendation: one client; give it all the memory
Reading from 8662: heap size 1509 MB, throughput 0.983541
Reading from 8662: heap size 1512 MB, throughput 0.982196
Recommendation: one client; give it all the memory
Reading from 8662: heap size 1517 MB, throughput 0.980927
Reading from 8662: heap size 1521 MB, throughput 0.978666
Recommendation: one client; give it all the memory
Reading from 8662: heap size 1531 MB, throughput 0.979593
Reading from 8662: heap size 1540 MB, throughput 0.979968
Recommendation: one client; give it all the memory
Reading from 8662: heap size 1545 MB, throughput 0.978371
Recommendation: one client; give it all the memory
Reading from 8662: heap size 1555 MB, throughput 0.97861
Reading from 8662: heap size 1558 MB, throughput 0.978857
Recommendation: one client; give it all the memory
Reading from 8662: heap size 1567 MB, throughput 0.980009
Reading from 8662: heap size 1568 MB, throughput 0.97941
Recommendation: one client; give it all the memory
Reading from 8662: heap size 1576 MB, throughput 0.979654
Reading from 8662: heap size 1577 MB, throughput 0.978562
Recommendation: one client; give it all the memory
Recommendation: one client; give it all the memory
Reading from 8662: heap size 1584 MB, throughput 0.986848
Recommendation: one client; give it all the memory
Reading from 8662: heap size 1585 MB, throughput 0.943646
Recommendation: one client; give it all the memory
Reading from 8662: heap size 1660 MB, throughput 0.994536
Reading from 8662: heap size 1687 MB, throughput 0.944471
Reading from 8662: heap size 1708 MB, throughput 0.928649
Reading from 8662: heap size 1708 MB, throughput 0.92752
Reading from 8662: heap size 1712 MB, throughput 0.933065
Client 8662 died
Clients: 0
Recommendation: no clients; no recommendation
Recommendation: no clients; no recommendation
ReadingThread: finished
TimerThread: finished
CommandThread: finished
Main: All threads killed, cleaning up
