===== DaCapo 9.12 sunflow starting warmup 1 =====
===== DaCapo 9.12 sunflow completed warmup 1 in 5230 msec =====
===== DaCapo 9.12 sunflow starting warmup 2 =====
===== DaCapo 9.12 sunflow completed warmup 2 in 4152 msec =====
===== DaCapo 9.12 sunflow starting warmup 3 =====
===== DaCapo 9.12 sunflow completed warmup 3 in 4336 msec =====
===== DaCapo 9.12 sunflow starting warmup 4 =====
===== DaCapo 9.12 sunflow completed warmup 4 in 4321 msec =====
===== DaCapo 9.12 sunflow starting warmup 5 =====
===== DaCapo 9.12 sunflow completed warmup 5 in 4150 msec =====
===== DaCapo 9.12 sunflow starting warmup 6 =====
===== DaCapo 9.12 sunflow completed warmup 6 in 4166 msec =====
===== DaCapo 9.12 sunflow starting warmup 7 =====
===== DaCapo 9.12 sunflow completed warmup 7 in 4351 msec =====
===== DaCapo 9.12 sunflow starting warmup 8 =====
===== DaCapo 9.12 sunflow completed warmup 8 in 4184 msec =====
===== DaCapo 9.12 sunflow starting warmup 9 =====
===== DaCapo 9.12 sunflow completed warmup 9 in 4122 msec =====
===== DaCapo 9.12 sunflow starting warmup 10 =====
===== DaCapo 9.12 sunflow completed warmup 10 in 4159 msec =====
===== DaCapo 9.12 sunflow starting warmup 11 =====
===== DaCapo 9.12 sunflow completed warmup 11 in 4463 msec =====
===== DaCapo 9.12 sunflow starting warmup 12 =====
===== DaCapo 9.12 sunflow completed warmup 12 in 4182 msec =====
===== DaCapo 9.12 sunflow starting warmup 13 =====
===== DaCapo 9.12 sunflow completed warmup 13 in 4114 msec =====
===== DaCapo 9.12 sunflow starting warmup 14 =====
===== DaCapo 9.12 sunflow completed warmup 14 in 4488 msec =====
===== DaCapo 9.12 sunflow starting warmup 15 =====
===== DaCapo 9.12 sunflow completed warmup 15 in 4320 msec =====
===== DaCapo 9.12 sunflow starting warmup 16 =====
===== DaCapo 9.12 sunflow completed warmup 16 in 4085 msec =====
===== DaCapo 9.12 sunflow starting warmup 17 =====
===== DaCapo 9.12 sunflow completed warmup 17 in 4327 msec =====
===== DaCapo 9.12 sunflow starting warmup 18 =====
===== DaCapo 9.12 sunflow completed warmup 18 in 4333 msec =====
===== DaCapo 9.12 sunflow starting warmup 19 =====
===== DaCapo 9.12 sunflow completed warmup 19 in 4270 msec =====
===== DaCapo 9.12 sunflow starting warmup 20 =====
===== DaCapo 9.12 sunflow completed warmup 20 in 4132 msec =====
===== DaCapo 9.12 sunflow starting warmup 21 =====
===== DaCapo 9.12 sunflow completed warmup 21 in 4235 msec =====
===== DaCapo 9.12 sunflow starting warmup 22 =====
===== DaCapo 9.12 sunflow completed warmup 22 in 4068 msec =====
===== DaCapo 9.12 sunflow starting warmup 23 =====
===== DaCapo 9.12 sunflow completed warmup 23 in 4241 msec =====
===== DaCapo 9.12 sunflow starting warmup 24 =====
===== DaCapo 9.12 sunflow completed warmup 24 in 4203 msec =====
===== DaCapo 9.12 sunflow starting warmup 25 =====
===== DaCapo 9.12 sunflow completed warmup 25 in 4139 msec =====
===== DaCapo 9.12 sunflow starting warmup 26 =====
===== DaCapo 9.12 sunflow completed warmup 26 in 4513 msec =====
===== DaCapo 9.12 sunflow starting warmup 27 =====
===== DaCapo 9.12 sunflow completed warmup 27 in 4131 msec =====
===== DaCapo 9.12 sunflow starting warmup 28 =====
===== DaCapo 9.12 sunflow completed warmup 28 in 4129 msec =====
===== DaCapo 9.12 sunflow starting warmup 29 =====
===== DaCapo 9.12 sunflow completed warmup 29 in 4198 msec =====
===== DaCapo 9.12 sunflow starting warmup 30 =====
===== DaCapo 9.12 sunflow completed warmup 30 in 4159 msec =====
===== DaCapo 9.12 sunflow starting warmup 31 =====
===== DaCapo 9.12 sunflow completed warmup 31 in 4174 msec =====
===== DaCapo 9.12 sunflow starting warmup 32 =====
===== DaCapo 9.12 sunflow completed warmup 32 in 4367 msec =====
===== DaCapo 9.12 sunflow starting warmup 33 =====
===== DaCapo 9.12 sunflow completed warmup 33 in 4230 msec =====
===== DaCapo 9.12 sunflow starting warmup 34 =====
===== DaCapo 9.12 sunflow completed warmup 34 in 4201 msec =====
===== DaCapo 9.12 sunflow starting warmup 35 =====
===== DaCapo 9.12 sunflow completed warmup 35 in 4215 msec =====
===== DaCapo 9.12 sunflow starting warmup 36 =====
===== DaCapo 9.12 sunflow completed warmup 36 in 4315 msec =====
===== DaCapo 9.12 sunflow starting warmup 37 =====
===== DaCapo 9.12 sunflow completed warmup 37 in 4019 msec =====
===== DaCapo 9.12 sunflow starting warmup 38 =====
===== DaCapo 9.12 sunflow completed warmup 38 in 4139 msec =====
===== DaCapo 9.12 sunflow starting warmup 39 =====
===== DaCapo 9.12 sunflow completed warmup 39 in 4113 msec =====
===== DaCapo 9.12 sunflow starting warmup 40 =====
===== DaCapo 9.12 sunflow completed warmup 40 in 4280 msec =====
===== DaCapo 9.12 sunflow starting warmup 41 =====
===== DaCapo 9.12 sunflow completed warmup 41 in 4368 msec =====
===== DaCapo 9.12 sunflow starting warmup 42 =====
===== DaCapo 9.12 sunflow completed warmup 42 in 4192 msec =====
===== DaCapo 9.12 sunflow starting warmup 43 =====
===== DaCapo 9.12 sunflow completed warmup 43 in 4278 msec =====
===== DaCapo 9.12 sunflow starting warmup 44 =====
===== DaCapo 9.12 sunflow completed warmup 44 in 4149 msec =====
===== DaCapo 9.12 sunflow starting warmup 45 =====
===== DaCapo 9.12 sunflow completed warmup 45 in 4314 msec =====
===== DaCapo 9.12 sunflow starting warmup 46 =====
===== DaCapo 9.12 sunflow completed warmup 46 in 4151 msec =====
===== DaCapo 9.12 sunflow starting warmup 47 =====
===== DaCapo 9.12 sunflow completed warmup 47 in 4260 msec =====
===== DaCapo 9.12 sunflow starting warmup 48 =====
===== DaCapo 9.12 sunflow completed warmup 48 in 4323 msec =====
===== DaCapo 9.12 sunflow starting warmup 49 =====
===== DaCapo 9.12 sunflow completed warmup 49 in 4310 msec =====
===== DaCapo 9.12 sunflow starting warmup 50 =====
===== DaCapo 9.12 sunflow completed warmup 50 in 4234 msec =====
===== DaCapo 9.12 sunflow starting warmup 51 =====
===== DaCapo 9.12 sunflow completed warmup 51 in 4338 msec =====
===== DaCapo 9.12 sunflow starting warmup 52 =====
===== DaCapo 9.12 sunflow completed warmup 52 in 4205 msec =====
===== DaCapo 9.12 sunflow starting warmup 53 =====
===== DaCapo 9.12 sunflow completed warmup 53 in 4310 msec =====
===== DaCapo 9.12 sunflow starting warmup 54 =====
===== DaCapo 9.12 sunflow completed warmup 54 in 4293 msec =====
===== DaCapo 9.12 sunflow starting warmup 55 =====
===== DaCapo 9.12 sunflow completed warmup 55 in 4152 msec =====
===== DaCapo 9.12 sunflow starting warmup 56 =====
===== DaCapo 9.12 sunflow completed warmup 56 in 4130 msec =====
===== DaCapo 9.12 sunflow starting warmup 57 =====
===== DaCapo 9.12 sunflow completed warmup 57 in 4602 msec =====
===== DaCapo 9.12 sunflow starting warmup 58 =====
===== DaCapo 9.12 sunflow completed warmup 58 in 4237 msec =====
===== DaCapo 9.12 sunflow starting warmup 59 =====
===== DaCapo 9.12 sunflow completed warmup 59 in 4300 msec =====
===== DaCapo 9.12 sunflow starting warmup 60 =====
===== DaCapo 9.12 sunflow completed warmup 60 in 4166 msec =====
===== DaCapo 9.12 sunflow starting warmup 61 =====
===== DaCapo 9.12 sunflow completed warmup 61 in 4400 msec =====
===== DaCapo 9.12 sunflow starting warmup 62 =====
===== DaCapo 9.12 sunflow completed warmup 62 in 4356 msec =====
===== DaCapo 9.12 sunflow starting warmup 63 =====
===== DaCapo 9.12 sunflow completed warmup 63 in 4403 msec =====
===== DaCapo 9.12 sunflow starting warmup 64 =====
===== DaCapo 9.12 sunflow completed warmup 64 in 4153 msec =====
===== DaCapo 9.12 sunflow starting warmup 65 =====
===== DaCapo 9.12 sunflow completed warmup 65 in 4109 msec =====
===== DaCapo 9.12 sunflow starting warmup 66 =====
===== DaCapo 9.12 sunflow completed warmup 66 in 4201 msec =====
===== DaCapo 9.12 sunflow starting warmup 67 =====
===== DaCapo 9.12 sunflow completed warmup 67 in 4256 msec =====
===== DaCapo 9.12 sunflow starting warmup 68 =====
===== DaCapo 9.12 sunflow completed warmup 68 in 4255 msec =====
===== DaCapo 9.12 sunflow starting warmup 69 =====
===== DaCapo 9.12 sunflow completed warmup 69 in 4180 msec =====
===== DaCapo 9.12 sunflow starting warmup 70 =====
===== DaCapo 9.12 sunflow completed warmup 70 in 4146 msec =====
===== DaCapo 9.12 sunflow starting warmup 71 =====
===== DaCapo 9.12 sunflow completed warmup 71 in 4308 msec =====
===== DaCapo 9.12 sunflow starting warmup 72 =====
===== DaCapo 9.12 sunflow completed warmup 72 in 4337 msec =====
===== DaCapo 9.12 sunflow starting warmup 73 =====
===== DaCapo 9.12 sunflow completed warmup 73 in 4183 msec =====
===== DaCapo 9.12 sunflow starting warmup 74 =====
===== DaCapo 9.12 sunflow completed warmup 74 in 4159 msec =====
===== DaCapo 9.12 sunflow starting warmup 75 =====
===== DaCapo 9.12 sunflow completed warmup 75 in 4246 msec =====
===== DaCapo 9.12 sunflow starting warmup 76 =====
===== DaCapo 9.12 sunflow completed warmup 76 in 4381 msec =====
===== DaCapo 9.12 sunflow starting warmup 77 =====
===== DaCapo 9.12 sunflow completed warmup 77 in 4171 msec =====
===== DaCapo 9.12 sunflow starting warmup 78 =====
===== DaCapo 9.12 sunflow completed warmup 78 in 4483 msec =====
===== DaCapo 9.12 sunflow starting warmup 79 =====
===== DaCapo 9.12 sunflow completed warmup 79 in 4170 msec =====
===== DaCapo 9.12 sunflow starting warmup 80 =====
===== DaCapo 9.12 sunflow completed warmup 80 in 4177 msec =====
===== DaCapo 9.12 sunflow starting warmup 81 =====
===== DaCapo 9.12 sunflow completed warmup 81 in 4252 msec =====
===== DaCapo 9.12 sunflow starting warmup 82 =====
===== DaCapo 9.12 sunflow completed warmup 82 in 4182 msec =====
===== DaCapo 9.12 sunflow starting warmup 83 =====
===== DaCapo 9.12 sunflow completed warmup 83 in 4263 msec =====
===== DaCapo 9.12 sunflow starting warmup 84 =====
===== DaCapo 9.12 sunflow completed warmup 84 in 4530 msec =====
===== DaCapo 9.12 sunflow starting warmup 85 =====
===== DaCapo 9.12 sunflow completed warmup 85 in 4237 msec =====
===== DaCapo 9.12 sunflow starting warmup 86 =====
===== DaCapo 9.12 sunflow completed warmup 86 in 4311 msec =====
===== DaCapo 9.12 sunflow starting warmup 87 =====
===== DaCapo 9.12 sunflow completed warmup 87 in 4161 msec =====
===== DaCapo 9.12 sunflow starting warmup 88 =====
===== DaCapo 9.12 sunflow completed warmup 88 in 4538 msec =====
===== DaCapo 9.12 sunflow starting warmup 89 =====
===== DaCapo 9.12 sunflow completed warmup 89 in 4281 msec =====
===== DaCapo 9.12 sunflow starting warmup 90 =====
===== DaCapo 9.12 sunflow completed warmup 90 in 4257 msec =====
===== DaCapo 9.12 sunflow starting warmup 91 =====
===== DaCapo 9.12 sunflow completed warmup 91 in 4243 msec =====
===== DaCapo 9.12 sunflow starting warmup 92 =====
===== DaCapo 9.12 sunflow completed warmup 92 in 4360 msec =====
===== DaCapo 9.12 sunflow starting warmup 93 =====
===== DaCapo 9.12 sunflow completed warmup 93 in 4289 msec =====
===== DaCapo 9.12 sunflow starting warmup 94 =====
===== DaCapo 9.12 sunflow completed warmup 94 in 4082 msec =====
===== DaCapo 9.12 sunflow starting warmup 95 =====
===== DaCapo 9.12 sunflow completed warmup 95 in 4284 msec =====
===== DaCapo 9.12 sunflow starting warmup 96 =====
===== DaCapo 9.12 sunflow completed warmup 96 in 4255 msec =====
===== DaCapo 9.12 sunflow starting warmup 97 =====
===== DaCapo 9.12 sunflow completed warmup 97 in 4318 msec =====
===== DaCapo 9.12 sunflow starting warmup 98 =====
===== DaCapo 9.12 sunflow completed warmup 98 in 4215 msec =====
===== DaCapo 9.12 sunflow starting warmup 99 =====
===== DaCapo 9.12 sunflow completed warmup 99 in 4352 msec =====
===== DaCapo 9.12 sunflow starting warmup 100 =====
===== DaCapo 9.12 sunflow completed warmup 100 in 4191 msec =====
===== DaCapo 9.12 sunflow starting warmup 101 =====
===== DaCapo 9.12 sunflow completed warmup 101 in 4302 msec =====
===== DaCapo 9.12 sunflow starting warmup 102 =====
===== DaCapo 9.12 sunflow completed warmup 102 in 4274 msec =====
===== DaCapo 9.12 sunflow starting warmup 103 =====
===== DaCapo 9.12 sunflow completed warmup 103 in 4436 msec =====
===== DaCapo 9.12 sunflow starting warmup 104 =====
===== DaCapo 9.12 sunflow completed warmup 104 in 4209 msec =====
===== DaCapo 9.12 sunflow starting warmup 105 =====
===== DaCapo 9.12 sunflow completed warmup 105 in 4122 msec =====
===== DaCapo 9.12 sunflow starting warmup 106 =====
===== DaCapo 9.12 sunflow completed warmup 106 in 4643 msec =====
===== DaCapo 9.12 sunflow starting warmup 107 =====
===== DaCapo 9.12 sunflow completed warmup 107 in 4442 msec =====
===== DaCapo 9.12 sunflow starting warmup 108 =====
===== DaCapo 9.12 sunflow completed warmup 108 in 4313 msec =====
===== DaCapo 9.12 sunflow starting warmup 109 =====
===== DaCapo 9.12 sunflow completed warmup 109 in 4200 msec =====
===== DaCapo 9.12 sunflow starting warmup 110 =====
===== DaCapo 9.12 sunflow completed warmup 110 in 4215 msec =====
===== DaCapo 9.12 sunflow starting warmup 111 =====
===== DaCapo 9.12 sunflow completed warmup 111 in 4232 msec =====
===== DaCapo 9.12 sunflow starting warmup 112 =====
===== DaCapo 9.12 sunflow completed warmup 112 in 4234 msec =====
===== DaCapo 9.12 sunflow starting warmup 113 =====
===== DaCapo 9.12 sunflow completed warmup 113 in 4187 msec =====
===== DaCapo 9.12 sunflow starting warmup 114 =====
===== DaCapo 9.12 sunflow completed warmup 114 in 4212 msec =====
===== DaCapo 9.12 sunflow starting warmup 115 =====
===== DaCapo 9.12 sunflow completed warmup 115 in 4597 msec =====
===== DaCapo 9.12 sunflow starting warmup 116 =====
===== DaCapo 9.12 sunflow completed warmup 116 in 4412 msec =====
===== DaCapo 9.12 sunflow starting warmup 117 =====
===== DaCapo 9.12 sunflow completed warmup 117 in 4264 msec =====
===== DaCapo 9.12 sunflow starting warmup 118 =====
===== DaCapo 9.12 sunflow completed warmup 118 in 4105 msec =====
===== DaCapo 9.12 sunflow starting warmup 119 =====
===== DaCapo 9.12 sunflow completed warmup 119 in 4021 msec =====
===== DaCapo 9.12 sunflow starting warmup 120 =====
===== DaCapo 9.12 sunflow completed warmup 120 in 4217 msec =====
===== DaCapo 9.12 sunflow starting warmup 121 =====
===== DaCapo 9.12 sunflow completed warmup 121 in 4259 msec =====
===== DaCapo 9.12 sunflow starting warmup 122 =====
===== DaCapo 9.12 sunflow completed warmup 122 in 4375 msec =====
===== DaCapo 9.12 sunflow starting warmup 123 =====
===== DaCapo 9.12 sunflow completed warmup 123 in 4264 msec =====
===== DaCapo 9.12 sunflow starting warmup 124 =====
===== DaCapo 9.12 sunflow completed warmup 124 in 4112 msec =====
===== DaCapo 9.12 sunflow starting warmup 125 =====
===== DaCapo 9.12 sunflow completed warmup 125 in 4244 msec =====
===== DaCapo 9.12 sunflow starting warmup 126 =====
===== DaCapo 9.12 sunflow completed warmup 126 in 4122 msec =====
===== DaCapo 9.12 sunflow starting warmup 127 =====
===== DaCapo 9.12 sunflow completed warmup 127 in 4109 msec =====
===== DaCapo 9.12 sunflow starting warmup 128 =====
===== DaCapo 9.12 sunflow completed warmup 128 in 4136 msec =====
===== DaCapo 9.12 sunflow starting warmup 129 =====
===== DaCapo 9.12 sunflow completed warmup 129 in 4435 msec =====
===== DaCapo 9.12 sunflow starting warmup 130 =====
===== DaCapo 9.12 sunflow completed warmup 130 in 4338 msec =====
===== DaCapo 9.12 sunflow starting warmup 131 =====
===== DaCapo 9.12 sunflow completed warmup 131 in 4276 msec =====
===== DaCapo 9.12 sunflow starting warmup 132 =====
===== DaCapo 9.12 sunflow completed warmup 132 in 4283 msec =====
===== DaCapo 9.12 sunflow starting warmup 133 =====
===== DaCapo 9.12 sunflow completed warmup 133 in 4209 msec =====
===== DaCapo 9.12 sunflow starting warmup 134 =====
===== DaCapo 9.12 sunflow completed warmup 134 in 4335 msec =====
===== DaCapo 9.12 sunflow starting warmup 135 =====
===== DaCapo 9.12 sunflow completed warmup 135 in 4346 msec =====
===== DaCapo 9.12 sunflow starting warmup 136 =====
===== DaCapo 9.12 sunflow completed warmup 136 in 4149 msec =====
===== DaCapo 9.12 sunflow starting warmup 137 =====
===== DaCapo 9.12 sunflow completed warmup 137 in 4271 msec =====
===== DaCapo 9.12 sunflow starting warmup 138 =====
===== DaCapo 9.12 sunflow completed warmup 138 in 4345 msec =====
===== DaCapo 9.12 sunflow starting warmup 139 =====
===== DaCapo 9.12 sunflow completed warmup 139 in 4548 msec =====
===== DaCapo 9.12 sunflow starting warmup 140 =====
===== DaCapo 9.12 sunflow completed warmup 140 in 4116 msec =====
===== DaCapo 9.12 sunflow starting warmup 141 =====
===== DaCapo 9.12 sunflow completed warmup 141 in 4210 msec =====
===== DaCapo 9.12 sunflow starting warmup 142 =====
===== DaCapo 9.12 sunflow completed warmup 142 in 4538 msec =====
===== DaCapo 9.12 sunflow starting warmup 143 =====
===== DaCapo 9.12 sunflow completed warmup 143 in 4172 msec =====
===== DaCapo 9.12 sunflow starting warmup 144 =====
===== DaCapo 9.12 sunflow completed warmup 144 in 4249 msec =====
===== DaCapo 9.12 sunflow starting warmup 145 =====
===== DaCapo 9.12 sunflow completed warmup 145 in 4168 msec =====
===== DaCapo 9.12 sunflow starting warmup 146 =====
===== DaCapo 9.12 sunflow completed warmup 146 in 4231 msec =====
===== DaCapo 9.12 sunflow starting warmup 147 =====
===== DaCapo 9.12 sunflow completed warmup 147 in 4207 msec =====
===== DaCapo 9.12 sunflow starting warmup 148 =====
===== DaCapo 9.12 sunflow completed warmup 148 in 4270 msec =====
===== DaCapo 9.12 sunflow starting warmup 149 =====
===== DaCapo 9.12 sunflow completed warmup 149 in 4262 msec =====
===== DaCapo 9.12 sunflow starting warmup 150 =====
===== DaCapo 9.12 sunflow completed warmup 150 in 4236 msec =====
===== DaCapo 9.12 sunflow starting warmup 151 =====
===== DaCapo 9.12 sunflow completed warmup 151 in 4171 msec =====
===== DaCapo 9.12 sunflow starting warmup 152 =====
===== DaCapo 9.12 sunflow completed warmup 152 in 4325 msec =====
===== DaCapo 9.12 sunflow starting warmup 153 =====
===== DaCapo 9.12 sunflow completed warmup 153 in 4377 msec =====
===== DaCapo 9.12 sunflow starting warmup 154 =====
===== DaCapo 9.12 sunflow completed warmup 154 in 4310 msec =====
===== DaCapo 9.12 sunflow starting warmup 155 =====
===== DaCapo 9.12 sunflow completed warmup 155 in 4136 msec =====
===== DaCapo 9.12 sunflow starting warmup 156 =====
===== DaCapo 9.12 sunflow completed warmup 156 in 4263 msec =====
===== DaCapo 9.12 sunflow starting warmup 157 =====
===== DaCapo 9.12 sunflow completed warmup 157 in 4173 msec =====
===== DaCapo 9.12 sunflow starting warmup 158 =====
===== DaCapo 9.12 sunflow completed warmup 158 in 4163 msec =====
===== DaCapo 9.12 sunflow starting warmup 159 =====
===== DaCapo 9.12 sunflow completed warmup 159 in 4308 msec =====
===== DaCapo 9.12 sunflow starting warmup 160 =====
===== DaCapo 9.12 sunflow completed warmup 160 in 4101 msec =====
===== DaCapo 9.12 sunflow starting warmup 161 =====
===== DaCapo 9.12 sunflow completed warmup 161 in 4130 msec =====
===== DaCapo 9.12 sunflow starting warmup 162 =====
===== DaCapo 9.12 sunflow completed warmup 162 in 4347 msec =====
===== DaCapo 9.12 sunflow starting warmup 163 =====
===== DaCapo 9.12 sunflow completed warmup 163 in 4140 msec =====
===== DaCapo 9.12 sunflow starting warmup 164 =====
===== DaCapo 9.12 sunflow completed warmup 164 in 4164 msec =====
===== DaCapo 9.12 sunflow starting warmup 165 =====
===== DaCapo 9.12 sunflow completed warmup 165 in 4361 msec =====
===== DaCapo 9.12 sunflow starting warmup 166 =====
===== DaCapo 9.12 sunflow completed warmup 166 in 4178 msec =====
===== DaCapo 9.12 sunflow starting warmup 167 =====
===== DaCapo 9.12 sunflow completed warmup 167 in 4419 msec =====
===== DaCapo 9.12 sunflow starting warmup 168 =====
===== DaCapo 9.12 sunflow completed warmup 168 in 4318 msec =====
===== DaCapo 9.12 sunflow starting warmup 169 =====
===== DaCapo 9.12 sunflow completed warmup 169 in 4192 msec =====
===== DaCapo 9.12 sunflow starting warmup 170 =====
===== DaCapo 9.12 sunflow completed warmup 170 in 4185 msec =====
===== DaCapo 9.12 sunflow starting warmup 171 =====
===== DaCapo 9.12 sunflow completed warmup 171 in 4273 msec =====
===== DaCapo 9.12 sunflow starting warmup 172 =====
===== DaCapo 9.12 sunflow completed warmup 172 in 3991 msec =====
===== DaCapo 9.12 sunflow starting warmup 173 =====
===== DaCapo 9.12 sunflow completed warmup 173 in 4344 msec =====
===== DaCapo 9.12 sunflow starting warmup 174 =====
===== DaCapo 9.12 sunflow completed warmup 174 in 4096 msec =====
===== DaCapo 9.12 sunflow starting warmup 175 =====
===== DaCapo 9.12 sunflow completed warmup 175 in 4209 msec =====
===== DaCapo 9.12 sunflow starting warmup 176 =====
===== DaCapo 9.12 sunflow completed warmup 176 in 4080 msec =====
===== DaCapo 9.12 sunflow starting warmup 177 =====
===== DaCapo 9.12 sunflow completed warmup 177 in 4121 msec =====
===== DaCapo 9.12 sunflow starting warmup 178 =====
===== DaCapo 9.12 sunflow completed warmup 178 in 4137 msec =====
===== DaCapo 9.12 sunflow starting warmup 179 =====
===== DaCapo 9.12 sunflow completed warmup 179 in 4365 msec =====
===== DaCapo 9.12 sunflow starting warmup 180 =====
===== DaCapo 9.12 sunflow completed warmup 180 in 4212 msec =====
===== DaCapo 9.12 sunflow starting warmup 181 =====
===== DaCapo 9.12 sunflow completed warmup 181 in 4170 msec =====
===== DaCapo 9.12 sunflow starting warmup 182 =====
===== DaCapo 9.12 sunflow completed warmup 182 in 4485 msec =====
===== DaCapo 9.12 sunflow starting warmup 183 =====
===== DaCapo 9.12 sunflow completed warmup 183 in 4105 msec =====
===== DaCapo 9.12 sunflow starting warmup 184 =====
===== DaCapo 9.12 sunflow completed warmup 184 in 4090 msec =====
===== DaCapo 9.12 sunflow starting warmup 185 =====
===== DaCapo 9.12 sunflow completed warmup 185 in 4233 msec =====
===== DaCapo 9.12 sunflow starting warmup 186 =====
===== DaCapo 9.12 sunflow completed warmup 186 in 4541 msec =====
===== DaCapo 9.12 sunflow starting warmup 187 =====
===== DaCapo 9.12 sunflow completed warmup 187 in 4257 msec =====
===== DaCapo 9.12 sunflow starting warmup 188 =====
===== DaCapo 9.12 sunflow completed warmup 188 in 4254 msec =====
===== DaCapo 9.12 sunflow starting warmup 189 =====
===== DaCapo 9.12 sunflow completed warmup 189 in 4294 msec =====
===== DaCapo 9.12 sunflow starting warmup 190 =====
===== DaCapo 9.12 sunflow completed warmup 190 in 4238 msec =====
===== DaCapo 9.12 sunflow starting warmup 191 =====
===== DaCapo 9.12 sunflow completed warmup 191 in 4237 msec =====
===== DaCapo 9.12 sunflow starting warmup 192 =====
===== DaCapo 9.12 sunflow completed warmup 192 in 4171 msec =====
===== DaCapo 9.12 sunflow starting warmup 193 =====
===== DaCapo 9.12 sunflow completed warmup 193 in 4300 msec =====
===== DaCapo 9.12 sunflow starting warmup 194 =====
===== DaCapo 9.12 sunflow completed warmup 194 in 4281 msec =====
===== DaCapo 9.12 sunflow starting warmup 195 =====
===== DaCapo 9.12 sunflow completed warmup 195 in 4673 msec =====
===== DaCapo 9.12 sunflow starting warmup 196 =====
===== DaCapo 9.12 sunflow completed warmup 196 in 4161 msec =====
===== DaCapo 9.12 sunflow starting warmup 197 =====
===== DaCapo 9.12 sunflow completed warmup 197 in 4432 msec =====
===== DaCapo 9.12 sunflow starting warmup 198 =====
===== DaCapo 9.12 sunflow completed warmup 198 in 4317 msec =====
===== DaCapo 9.12 sunflow starting warmup 199 =====
===== DaCapo 9.12 sunflow completed warmup 199 in 4264 msec =====
===== DaCapo 9.12 sunflow starting warmup 200 =====
===== DaCapo 9.12 sunflow completed warmup 200 in 4163 msec =====
===== DaCapo 9.12 sunflow starting warmup 201 =====
===== DaCapo 9.12 sunflow completed warmup 201 in 4383 msec =====
===== DaCapo 9.12 sunflow starting warmup 202 =====
===== DaCapo 9.12 sunflow completed warmup 202 in 4142 msec =====
===== DaCapo 9.12 sunflow starting warmup 203 =====
===== DaCapo 9.12 sunflow completed warmup 203 in 4140 msec =====
===== DaCapo 9.12 sunflow starting warmup 204 =====
===== DaCapo 9.12 sunflow completed warmup 204 in 4076 msec =====
===== DaCapo 9.12 sunflow starting warmup 205 =====
===== DaCapo 9.12 sunflow completed warmup 205 in 4215 msec =====
===== DaCapo 9.12 sunflow starting warmup 206 =====
===== DaCapo 9.12 sunflow completed warmup 206 in 4261 msec =====
===== DaCapo 9.12 sunflow starting warmup 207 =====
===== DaCapo 9.12 sunflow completed warmup 207 in 4469 msec =====
===== DaCapo 9.12 sunflow starting warmup 208 =====
===== DaCapo 9.12 sunflow completed warmup 208 in 4207 msec =====
===== DaCapo 9.12 sunflow starting warmup 209 =====
===== DaCapo 9.12 sunflow completed warmup 209 in 4248 msec =====
===== DaCapo 9.12 sunflow starting warmup 210 =====
===== DaCapo 9.12 sunflow completed warmup 210 in 4303 msec =====
===== DaCapo 9.12 sunflow starting warmup 211 =====
===== DaCapo 9.12 sunflow completed warmup 211 in 4078 msec =====
===== DaCapo 9.12 sunflow starting warmup 212 =====
===== DaCapo 9.12 sunflow completed warmup 212 in 4290 msec =====
===== DaCapo 9.12 sunflow starting warmup 213 =====
===== DaCapo 9.12 sunflow completed warmup 213 in 4311 msec =====
===== DaCapo 9.12 sunflow starting warmup 214 =====
===== DaCapo 9.12 sunflow completed warmup 214 in 4339 msec =====
===== DaCapo 9.12 sunflow starting warmup 215 =====
===== DaCapo 9.12 sunflow completed warmup 215 in 4198 msec =====
===== DaCapo 9.12 sunflow starting warmup 216 =====
===== DaCapo 9.12 sunflow completed warmup 216 in 4285 msec =====
===== DaCapo 9.12 sunflow starting warmup 217 =====
===== DaCapo 9.12 sunflow completed warmup 217 in 4255 msec =====
===== DaCapo 9.12 sunflow starting warmup 218 =====
===== DaCapo 9.12 sunflow completed warmup 218 in 4522 msec =====
===== DaCapo 9.12 sunflow starting warmup 219 =====
===== DaCapo 9.12 sunflow completed warmup 219 in 4358 msec =====
===== DaCapo 9.12 sunflow starting warmup 220 =====
===== DaCapo 9.12 sunflow completed warmup 220 in 4280 msec =====
===== DaCapo 9.12 sunflow starting warmup 221 =====
===== DaCapo 9.12 sunflow completed warmup 221 in 4210 msec =====
===== DaCapo 9.12 sunflow starting warmup 222 =====
===== DaCapo 9.12 sunflow completed warmup 222 in 4120 msec =====
===== DaCapo 9.12 sunflow starting warmup 223 =====
===== DaCapo 9.12 sunflow completed warmup 223 in 4561 msec =====
===== DaCapo 9.12 sunflow starting warmup 224 =====
===== DaCapo 9.12 sunflow completed warmup 224 in 4676 msec =====
===== DaCapo 9.12 sunflow starting warmup 225 =====
===== DaCapo 9.12 sunflow completed warmup 225 in 4251 msec =====
===== DaCapo 9.12 sunflow starting warmup 226 =====
===== DaCapo 9.12 sunflow completed warmup 226 in 4244 msec =====
===== DaCapo 9.12 sunflow starting warmup 227 =====
===== DaCapo 9.12 sunflow completed warmup 227 in 4565 msec =====
===== DaCapo 9.12 sunflow starting warmup 228 =====
===== DaCapo 9.12 sunflow completed warmup 228 in 4522 msec =====
===== DaCapo 9.12 sunflow starting warmup 229 =====
===== DaCapo 9.12 sunflow completed warmup 229 in 4252 msec =====
===== DaCapo 9.12 sunflow starting warmup 230 =====
===== DaCapo 9.12 sunflow completed warmup 230 in 4204 msec =====
===== DaCapo 9.12 sunflow starting warmup 231 =====
===== DaCapo 9.12 sunflow completed warmup 231 in 4530 msec =====
===== DaCapo 9.12 sunflow starting warmup 232 =====
===== DaCapo 9.12 sunflow completed warmup 232 in 4345 msec =====
===== DaCapo 9.12 sunflow starting warmup 233 =====
===== DaCapo 9.12 sunflow completed warmup 233 in 4377 msec =====
===== DaCapo 9.12 sunflow starting warmup 234 =====
===== DaCapo 9.12 sunflow completed warmup 234 in 4216 msec =====
===== DaCapo 9.12 sunflow starting warmup 235 =====
===== DaCapo 9.12 sunflow completed warmup 235 in 4258 msec =====
===== DaCapo 9.12 sunflow starting warmup 236 =====
===== DaCapo 9.12 sunflow completed warmup 236 in 4398 msec =====
===== DaCapo 9.12 sunflow starting warmup 237 =====
===== DaCapo 9.12 sunflow completed warmup 237 in 4280 msec =====
===== DaCapo 9.12 sunflow starting warmup 238 =====
===== DaCapo 9.12 sunflow completed warmup 238 in 4618 msec =====
===== DaCapo 9.12 sunflow starting warmup 239 =====
===== DaCapo 9.12 sunflow completed warmup 239 in 4292 msec =====
===== DaCapo 9.12 sunflow starting warmup 240 =====
===== DaCapo 9.12 sunflow completed warmup 240 in 4282 msec =====
===== DaCapo 9.12 sunflow starting warmup 241 =====
===== DaCapo 9.12 sunflow completed warmup 241 in 4282 msec =====
===== DaCapo 9.12 sunflow starting warmup 242 =====
===== DaCapo 9.12 sunflow completed warmup 242 in 4157 msec =====
===== DaCapo 9.12 sunflow starting warmup 243 =====
===== DaCapo 9.12 sunflow completed warmup 243 in 4233 msec =====
===== DaCapo 9.12 sunflow starting warmup 244 =====
===== DaCapo 9.12 sunflow completed warmup 244 in 4312 msec =====
===== DaCapo 9.12 sunflow starting warmup 245 =====
===== DaCapo 9.12 sunflow completed warmup 245 in 4334 msec =====
===== DaCapo 9.12 sunflow starting warmup 246 =====
===== DaCapo 9.12 sunflow completed warmup 246 in 4174 msec =====
===== DaCapo 9.12 sunflow starting warmup 247 =====
===== DaCapo 9.12 sunflow completed warmup 247 in 4260 msec =====
===== DaCapo 9.12 sunflow starting warmup 248 =====
===== DaCapo 9.12 sunflow completed warmup 248 in 4075 msec =====
===== DaCapo 9.12 sunflow starting warmup 249 =====
===== DaCapo 9.12 sunflow completed warmup 249 in 4292 msec =====
===== DaCapo 9.12 sunflow starting warmup 250 =====
===== DaCapo 9.12 sunflow completed warmup 250 in 4139 msec =====
===== DaCapo 9.12 sunflow starting warmup 251 =====
===== DaCapo 9.12 sunflow completed warmup 251 in 4277 msec =====
===== DaCapo 9.12 sunflow starting warmup 252 =====
===== DaCapo 9.12 sunflow completed warmup 252 in 4128 msec =====
===== DaCapo 9.12 sunflow starting warmup 253 =====
===== DaCapo 9.12 sunflow completed warmup 253 in 4416 msec =====
===== DaCapo 9.12 sunflow starting warmup 254 =====
===== DaCapo 9.12 sunflow completed warmup 254 in 4156 msec =====
===== DaCapo 9.12 sunflow starting warmup 255 =====
===== DaCapo 9.12 sunflow completed warmup 255 in 4227 msec =====
===== DaCapo 9.12 sunflow starting warmup 256 =====
===== DaCapo 9.12 sunflow completed warmup 256 in 4579 msec =====
===== DaCapo 9.12 sunflow starting warmup 257 =====
===== DaCapo 9.12 sunflow completed warmup 257 in 4239 msec =====
===== DaCapo 9.12 sunflow starting warmup 258 =====
===== DaCapo 9.12 sunflow completed warmup 258 in 4304 msec =====
===== DaCapo 9.12 sunflow starting warmup 259 =====
===== DaCapo 9.12 sunflow completed warmup 259 in 4234 msec =====
===== DaCapo 9.12 sunflow starting warmup 260 =====
===== DaCapo 9.12 sunflow completed warmup 260 in 4253 msec =====
===== DaCapo 9.12 sunflow starting warmup 261 =====
===== DaCapo 9.12 sunflow completed warmup 261 in 4290 msec =====
===== DaCapo 9.12 sunflow starting warmup 262 =====
===== DaCapo 9.12 sunflow completed warmup 262 in 4226 msec =====
===== DaCapo 9.12 sunflow starting warmup 263 =====
===== DaCapo 9.12 sunflow completed warmup 263 in 4205 msec =====
===== DaCapo 9.12 sunflow starting warmup 264 =====
===== DaCapo 9.12 sunflow completed warmup 264 in 4497 msec =====
===== DaCapo 9.12 sunflow starting warmup 265 =====
===== DaCapo 9.12 sunflow completed warmup 265 in 4452 msec =====
===== DaCapo 9.12 sunflow starting warmup 266 =====
===== DaCapo 9.12 sunflow completed warmup 266 in 4323 msec =====
===== DaCapo 9.12 sunflow starting warmup 267 =====
===== DaCapo 9.12 sunflow completed warmup 267 in 4627 msec =====
===== DaCapo 9.12 sunflow starting warmup 268 =====
===== DaCapo 9.12 sunflow completed warmup 268 in 4460 msec =====
===== DaCapo 9.12 sunflow starting warmup 269 =====
===== DaCapo 9.12 sunflow completed warmup 269 in 4432 msec =====
===== DaCapo 9.12 sunflow starting warmup 270 =====
===== DaCapo 9.12 sunflow completed warmup 270 in 4416 msec =====
===== DaCapo 9.12 sunflow starting warmup 271 =====
===== DaCapo 9.12 sunflow completed warmup 271 in 4509 msec =====
===== DaCapo 9.12 sunflow starting warmup 272 =====
===== DaCapo 9.12 sunflow completed warmup 272 in 4264 msec =====
===== DaCapo 9.12 sunflow starting warmup 273 =====
===== DaCapo 9.12 sunflow completed warmup 273 in 4351 msec =====
===== DaCapo 9.12 sunflow starting warmup 274 =====
===== DaCapo 9.12 sunflow completed warmup 274 in 4234 msec =====
===== DaCapo 9.12 sunflow starting warmup 275 =====
===== DaCapo 9.12 sunflow completed warmup 275 in 4543 msec =====
===== DaCapo 9.12 sunflow starting warmup 276 =====
===== DaCapo 9.12 sunflow completed warmup 276 in 4168 msec =====
===== DaCapo 9.12 sunflow starting warmup 277 =====
===== DaCapo 9.12 sunflow completed warmup 277 in 4288 msec =====
===== DaCapo 9.12 sunflow starting warmup 278 =====
===== DaCapo 9.12 sunflow completed warmup 278 in 4344 msec =====
===== DaCapo 9.12 sunflow starting warmup 279 =====
===== DaCapo 9.12 sunflow completed warmup 279 in 4169 msec =====
===== DaCapo 9.12 sunflow starting warmup 280 =====
===== DaCapo 9.12 sunflow completed warmup 280 in 4283 msec =====
===== DaCapo 9.12 sunflow starting warmup 281 =====
===== DaCapo 9.12 sunflow completed warmup 281 in 4196 msec =====
===== DaCapo 9.12 sunflow starting warmup 282 =====
