             total       used       free     shared    buffers     cached
Mem:       3806920    2930648     876272          0     374300    2080316
-/+ buffers/cache:     476032    3330888
Swap:      6143992          0    6143992
