2 202 298.8 298.8 0.979795897113 0.979795897113 0.249 0.249 0.000816496580928 0.000816496580928 299.0 299.0 0.249166666667 0.249166666667
202 602 302.4 302.4 3.97994974843 3.97994974843 0.252 0.252 0.00331662479036 0.00331662479036 303.0 303.0 0.2525 0.2525
602 302 302.6 302.6 2.15406592285 2.15406592285 0.252166666667 0.251956702748 0.00179356030212 0.00179356030212 304.0 304.0 0.253122398002 0.253122398002
