===== DaCapo 9.12 xalan starting warmup 1 =====
===== DaCapo 9.12 xalan completed warmup 1 in 31390 msec =====
===== DaCapo 9.12 xalan starting warmup 2 =====
===== DaCapo 9.12 xalan completed warmup 2 in 24356 msec =====
===== DaCapo 9.12 xalan starting warmup 3 =====
===== DaCapo 9.12 xalan completed warmup 3 in 23889 msec =====
===== DaCapo 9.12 xalan starting warmup 4 =====
===== DaCapo 9.12 xalan completed warmup 4 in 23667 msec =====
===== DaCapo 9.12 xalan starting warmup 5 =====
===== DaCapo 9.12 xalan completed warmup 5 in 23790 msec =====
===== DaCapo 9.12 xalan starting warmup 6 =====
===== DaCapo 9.12 xalan completed warmup 6 in 23632 msec =====
===== DaCapo 9.12 xalan starting warmup 7 =====
===== DaCapo 9.12 xalan completed warmup 7 in 23721 msec =====
===== DaCapo 9.12 xalan starting warmup 8 =====
===== DaCapo 9.12 xalan completed warmup 8 in 23681 msec =====
===== DaCapo 9.12 xalan starting warmup 9 =====
===== DaCapo 9.12 xalan completed warmup 9 in 23781 msec =====
===== DaCapo 9.12 xalan starting warmup 10 =====
===== DaCapo 9.12 xalan completed warmup 10 in 23669 msec =====
===== DaCapo 9.12 xalan starting warmup 11 =====
===== DaCapo 9.12 xalan completed warmup 11 in 23741 msec =====
===== DaCapo 9.12 xalan starting warmup 12 =====
===== DaCapo 9.12 xalan completed warmup 12 in 23719 msec =====
===== DaCapo 9.12 xalan starting warmup 13 =====
===== DaCapo 9.12 xalan completed warmup 13 in 23589 msec =====
===== DaCapo 9.12 xalan starting warmup 14 =====
===== DaCapo 9.12 xalan completed warmup 14 in 23607 msec =====
===== DaCapo 9.12 xalan starting warmup 15 =====
===== DaCapo 9.12 xalan completed warmup 15 in 23701 msec =====
===== DaCapo 9.12 xalan starting warmup 16 =====
===== DaCapo 9.12 xalan completed warmup 16 in 23658 msec =====
===== DaCapo 9.12 xalan starting warmup 17 =====
===== DaCapo 9.12 xalan completed warmup 17 in 23690 msec =====
===== DaCapo 9.12 xalan starting warmup 18 =====
===== DaCapo 9.12 xalan completed warmup 18 in 23732 msec =====
===== DaCapo 9.12 xalan starting warmup 19 =====
===== DaCapo 9.12 xalan completed warmup 19 in 23728 msec =====
===== DaCapo 9.12 xalan starting warmup 20 =====
===== DaCapo 9.12 xalan completed warmup 20 in 23783 msec =====
===== DaCapo 9.12 xalan starting warmup 21 =====
===== DaCapo 9.12 xalan completed warmup 21 in 23625 msec =====
===== DaCapo 9.12 xalan starting warmup 22 =====
===== DaCapo 9.12 xalan completed warmup 22 in 23656 msec =====
===== DaCapo 9.12 xalan starting warmup 23 =====
===== DaCapo 9.12 xalan completed warmup 23 in 23715 msec =====
===== DaCapo 9.12 xalan starting warmup 24 =====
===== DaCapo 9.12 xalan completed warmup 24 in 23744 msec =====
===== DaCapo 9.12 xalan starting warmup 25 =====
===== DaCapo 9.12 xalan completed warmup 25 in 23694 msec =====
===== DaCapo 9.12 xalan starting warmup 26 =====
===== DaCapo 9.12 xalan completed warmup 26 in 23751 msec =====
===== DaCapo 9.12 xalan starting warmup 27 =====
===== DaCapo 9.12 xalan completed warmup 27 in 23647 msec =====
===== DaCapo 9.12 xalan starting warmup 28 =====
===== DaCapo 9.12 xalan completed warmup 28 in 23680 msec =====
===== DaCapo 9.12 xalan starting warmup 29 =====
===== DaCapo 9.12 xalan completed warmup 29 in 23667 msec =====
===== DaCapo 9.12 xalan starting warmup 30 =====
===== DaCapo 9.12 xalan completed warmup 30 in 23632 msec =====
===== DaCapo 9.12 xalan starting warmup 31 =====
===== DaCapo 9.12 xalan completed warmup 31 in 23689 msec =====
===== DaCapo 9.12 xalan starting warmup 32 =====
===== DaCapo 9.12 xalan completed warmup 32 in 23718 msec =====
===== DaCapo 9.12 xalan starting warmup 33 =====
===== DaCapo 9.12 xalan completed warmup 33 in 23690 msec =====
===== DaCapo 9.12 xalan starting warmup 34 =====
===== DaCapo 9.12 xalan completed warmup 34 in 23682 msec =====
===== DaCapo 9.12 xalan starting warmup 35 =====
===== DaCapo 9.12 xalan completed warmup 35 in 23644 msec =====
===== DaCapo 9.12 xalan starting warmup 36 =====
===== DaCapo 9.12 xalan completed warmup 36 in 23775 msec =====
===== DaCapo 9.12 xalan starting warmup 37 =====
===== DaCapo 9.12 xalan completed warmup 37 in 23676 msec =====
===== DaCapo 9.12 xalan starting warmup 38 =====
===== DaCapo 9.12 xalan completed warmup 38 in 24513 msec =====
===== DaCapo 9.12 xalan starting warmup 39 =====
===== DaCapo 9.12 xalan completed warmup 39 in 23519 msec =====
===== DaCapo 9.12 xalan starting warmup 40 =====
===== DaCapo 9.12 xalan completed warmup 40 in 23526 msec =====
===== DaCapo 9.12 xalan starting warmup 41 =====
===== DaCapo 9.12 xalan completed warmup 41 in 23541 msec =====
===== DaCapo 9.12 xalan starting warmup 42 =====
===== DaCapo 9.12 xalan completed warmup 42 in 23499 msec =====
===== DaCapo 9.12 xalan starting warmup 43 =====
===== DaCapo 9.12 xalan completed warmup 43 in 23556 msec =====
===== DaCapo 9.12 xalan starting warmup 44 =====
===== DaCapo 9.12 xalan completed warmup 44 in 23673 msec =====
===== DaCapo 9.12 xalan starting warmup 45 =====
===== DaCapo 9.12 xalan completed warmup 45 in 23547 msec =====
===== DaCapo 9.12 xalan starting warmup 46 =====
===== DaCapo 9.12 xalan completed warmup 46 in 23654 msec =====
===== DaCapo 9.12 xalan starting warmup 47 =====
===== DaCapo 9.12 xalan completed warmup 47 in 23798 msec =====
===== DaCapo 9.12 xalan starting warmup 48 =====
===== DaCapo 9.12 xalan completed warmup 48 in 24008 msec =====
===== DaCapo 9.12 xalan starting warmup 49 =====
===== DaCapo 9.12 xalan completed warmup 49 in 23552 msec =====
===== DaCapo 9.12 xalan starting warmup 50 =====
===== DaCapo 9.12 xalan completed warmup 50 in 23560 msec =====
===== DaCapo 9.12 xalan starting warmup 51 =====
