===== DaCapo 9.12 xalan starting warmup 1 =====
===== DaCapo 9.12 xalan completed warmup 1 in 31901 msec =====
===== DaCapo 9.12 xalan starting warmup 2 =====
===== DaCapo 9.12 xalan completed warmup 2 in 25211 msec =====
===== DaCapo 9.12 xalan starting warmup 3 =====
===== DaCapo 9.12 xalan completed warmup 3 in 23856 msec =====
===== DaCapo 9.12 xalan starting warmup 4 =====
===== DaCapo 9.12 xalan completed warmup 4 in 23892 msec =====
===== DaCapo 9.12 xalan starting warmup 5 =====
===== DaCapo 9.12 xalan completed warmup 5 in 23706 msec =====
===== DaCapo 9.12 xalan starting warmup 6 =====
===== DaCapo 9.12 xalan completed warmup 6 in 23731 msec =====
===== DaCapo 9.12 xalan starting warmup 7 =====
===== DaCapo 9.12 xalan completed warmup 7 in 23757 msec =====
===== DaCapo 9.12 xalan starting warmup 8 =====
===== DaCapo 9.12 xalan completed warmup 8 in 23682 msec =====
===== DaCapo 9.12 xalan starting warmup 9 =====
===== DaCapo 9.12 xalan completed warmup 9 in 23943 msec =====
===== DaCapo 9.12 xalan starting warmup 10 =====
===== DaCapo 9.12 xalan completed warmup 10 in 23687 msec =====
===== DaCapo 9.12 xalan starting warmup 11 =====
===== DaCapo 9.12 xalan completed warmup 11 in 23691 msec =====
===== DaCapo 9.12 xalan starting warmup 12 =====
===== DaCapo 9.12 xalan completed warmup 12 in 23643 msec =====
===== DaCapo 9.12 xalan starting warmup 13 =====
===== DaCapo 9.12 xalan completed warmup 13 in 23635 msec =====
===== DaCapo 9.12 xalan starting warmup 14 =====
===== DaCapo 9.12 xalan completed warmup 14 in 23710 msec =====
===== DaCapo 9.12 xalan starting warmup 15 =====
===== DaCapo 9.12 xalan completed warmup 15 in 23552 msec =====
===== DaCapo 9.12 xalan starting warmup 16 =====
===== DaCapo 9.12 xalan completed warmup 16 in 23769 msec =====
===== DaCapo 9.12 xalan starting warmup 17 =====
===== DaCapo 9.12 xalan completed warmup 17 in 23750 msec =====
===== DaCapo 9.12 xalan starting warmup 18 =====
===== DaCapo 9.12 xalan completed warmup 18 in 23731 msec =====
===== DaCapo 9.12 xalan starting warmup 19 =====
===== DaCapo 9.12 xalan completed warmup 19 in 23827 msec =====
===== DaCapo 9.12 xalan starting warmup 20 =====
===== DaCapo 9.12 xalan completed warmup 20 in 23672 msec =====
===== DaCapo 9.12 xalan starting warmup 21 =====
===== DaCapo 9.12 xalan completed warmup 21 in 23661 msec =====
===== DaCapo 9.12 xalan starting warmup 22 =====
===== DaCapo 9.12 xalan completed warmup 22 in 23675 msec =====
===== DaCapo 9.12 xalan starting warmup 23 =====
===== DaCapo 9.12 xalan completed warmup 23 in 23702 msec =====
===== DaCapo 9.12 xalan starting warmup 24 =====
===== DaCapo 9.12 xalan completed warmup 24 in 23678 msec =====
===== DaCapo 9.12 xalan starting warmup 25 =====
===== DaCapo 9.12 xalan completed warmup 25 in 23662 msec =====
===== DaCapo 9.12 xalan starting warmup 26 =====
===== DaCapo 9.12 xalan completed warmup 26 in 23726 msec =====
===== DaCapo 9.12 xalan starting warmup 27 =====
===== DaCapo 9.12 xalan completed warmup 27 in 23673 msec =====
===== DaCapo 9.12 xalan starting warmup 28 =====
===== DaCapo 9.12 xalan completed warmup 28 in 23816 msec =====
===== DaCapo 9.12 xalan starting warmup 29 =====
===== DaCapo 9.12 xalan completed warmup 29 in 23778 msec =====
===== DaCapo 9.12 xalan starting warmup 30 =====
===== DaCapo 9.12 xalan completed warmup 30 in 23764 msec =====
===== DaCapo 9.12 xalan starting warmup 31 =====
===== DaCapo 9.12 xalan completed warmup 31 in 23726 msec =====
===== DaCapo 9.12 xalan starting warmup 32 =====
===== DaCapo 9.12 xalan completed warmup 32 in 23693 msec =====
===== DaCapo 9.12 xalan starting warmup 33 =====
===== DaCapo 9.12 xalan completed warmup 33 in 23710 msec =====
===== DaCapo 9.12 xalan starting warmup 34 =====
===== DaCapo 9.12 xalan completed warmup 34 in 23682 msec =====
===== DaCapo 9.12 xalan starting warmup 35 =====
===== DaCapo 9.12 xalan completed warmup 35 in 23710 msec =====
===== DaCapo 9.12 xalan starting warmup 36 =====
===== DaCapo 9.12 xalan completed warmup 36 in 23635 msec =====
===== DaCapo 9.12 xalan starting warmup 37 =====
===== DaCapo 9.12 xalan completed warmup 37 in 23687 msec =====
===== DaCapo 9.12 xalan starting warmup 38 =====
===== DaCapo 9.12 xalan completed warmup 38 in 23788 msec =====
===== DaCapo 9.12 xalan starting warmup 39 =====
===== DaCapo 9.12 xalan completed warmup 39 in 23680 msec =====
===== DaCapo 9.12 xalan starting warmup 40 =====
===== DaCapo 9.12 xalan completed warmup 40 in 23771 msec =====
===== DaCapo 9.12 xalan starting warmup 41 =====
===== DaCapo 9.12 xalan completed warmup 41 in 23688 msec =====
===== DaCapo 9.12 xalan starting warmup 42 =====
===== DaCapo 9.12 xalan completed warmup 42 in 23740 msec =====
===== DaCapo 9.12 xalan starting warmup 43 =====
===== DaCapo 9.12 xalan completed warmup 43 in 23672 msec =====
===== DaCapo 9.12 xalan starting warmup 44 =====
===== DaCapo 9.12 xalan completed warmup 44 in 23786 msec =====
===== DaCapo 9.12 xalan starting warmup 45 =====
===== DaCapo 9.12 xalan completed warmup 45 in 23647 msec =====
===== DaCapo 9.12 xalan starting warmup 46 =====
===== DaCapo 9.12 xalan completed warmup 46 in 23685 msec =====
===== DaCapo 9.12 xalan starting warmup 47 =====
===== DaCapo 9.12 xalan completed warmup 47 in 23698 msec =====
===== DaCapo 9.12 xalan starting warmup 48 =====
===== DaCapo 9.12 xalan completed warmup 48 in 23729 msec =====
===== DaCapo 9.12 xalan starting warmup 49 =====
===== DaCapo 9.12 xalan completed warmup 49 in 23635 msec =====
===== DaCapo 9.12 xalan starting warmup 50 =====
===== DaCapo 9.12 xalan completed warmup 50 in 23696 msec =====
===== DaCapo 9.12 xalan starting warmup 51 =====
