Using scaled threading model. 4 processors detected, 1 threads used to drive the workload, in a possible range of [1,1000]
===== DaCapo 9.12 xalan starting warmup 1 =====
Normal completion.
===== DaCapo 9.12 xalan completed warmup 1 in 33551 msec =====
===== DaCapo 9.12 xalan starting warmup 2 =====
Normal completion.
===== DaCapo 9.12 xalan completed warmup 2 in 24581 msec =====
===== DaCapo 9.12 xalan starting warmup 3 =====
Normal completion.
===== DaCapo 9.12 xalan completed warmup 3 in 24100 msec =====
===== DaCapo 9.12 xalan starting warmup 4 =====
Normal completion.
===== DaCapo 9.12 xalan completed warmup 4 in 23980 msec =====
===== DaCapo 9.12 xalan starting warmup 5 =====
Normal completion.
===== DaCapo 9.12 xalan completed warmup 5 in 23977 msec =====
===== DaCapo 9.12 xalan starting warmup 6 =====
Normal completion.
===== DaCapo 9.12 xalan completed warmup 6 in 24640 msec =====
===== DaCapo 9.12 xalan starting warmup 7 =====
Normal completion.
===== DaCapo 9.12 xalan completed warmup 7 in 24022 msec =====
===== DaCapo 9.12 xalan starting warmup 8 =====
Normal completion.
===== DaCapo 9.12 xalan completed warmup 8 in 23988 msec =====
===== DaCapo 9.12 xalan starting warmup 9 =====
Normal completion.
===== DaCapo 9.12 xalan completed warmup 9 in 24001 msec =====
===== DaCapo 9.12 xalan starting warmup 10 =====
Normal completion.
===== DaCapo 9.12 xalan completed warmup 10 in 23939 msec =====
===== DaCapo 9.12 xalan starting warmup 11 =====
Normal completion.
===== DaCapo 9.12 xalan completed warmup 11 in 23948 msec =====
===== DaCapo 9.12 xalan starting warmup 12 =====
Normal completion.
===== DaCapo 9.12 xalan completed warmup 12 in 23959 msec =====
===== DaCapo 9.12 xalan starting warmup 13 =====
Normal completion.
===== DaCapo 9.12 xalan completed warmup 13 in 23946 msec =====
===== DaCapo 9.12 xalan starting warmup 14 =====
Normal completion.
===== DaCapo 9.12 xalan completed warmup 14 in 23973 msec =====
===== DaCapo 9.12 xalan starting warmup 15 =====
Normal completion.
===== DaCapo 9.12 xalan completed warmup 15 in 24189 msec =====
===== DaCapo 9.12 xalan starting warmup 16 =====
Normal completion.
===== DaCapo 9.12 xalan completed warmup 16 in 24012 msec =====
===== DaCapo 9.12 xalan starting warmup 17 =====
Normal completion.
===== DaCapo 9.12 xalan completed warmup 17 in 24071 msec =====
===== DaCapo 9.12 xalan starting warmup 18 =====
Normal completion.
===== DaCapo 9.12 xalan completed warmup 18 in 23990 msec =====
===== DaCapo 9.12 xalan starting warmup 19 =====
Normal completion.
===== DaCapo 9.12 xalan completed warmup 19 in 23975 msec =====
===== DaCapo 9.12 xalan starting warmup 20 =====
Normal completion.
===== DaCapo 9.12 xalan completed warmup 20 in 24108 msec =====
===== DaCapo 9.12 xalan starting warmup 21 =====
Normal completion.
===== DaCapo 9.12 xalan completed warmup 21 in 23923 msec =====
===== DaCapo 9.12 xalan starting warmup 22 =====
Normal completion.
===== DaCapo 9.12 xalan completed warmup 22 in 23947 msec =====
===== DaCapo 9.12 xalan starting warmup 23 =====
Normal completion.
===== DaCapo 9.12 xalan completed warmup 23 in 23980 msec =====
===== DaCapo 9.12 xalan starting warmup 24 =====
Normal completion.
===== DaCapo 9.12 xalan completed warmup 24 in 24018 msec =====
===== DaCapo 9.12 xalan starting warmup 25 =====
Normal completion.
===== DaCapo 9.12 xalan completed warmup 25 in 23968 msec =====
===== DaCapo 9.12 xalan starting warmup 26 =====
Normal completion.
===== DaCapo 9.12 xalan completed warmup 26 in 24082 msec =====
===== DaCapo 9.12 xalan starting warmup 27 =====
Normal completion.
===== DaCapo 9.12 xalan completed warmup 27 in 23974 msec =====
===== DaCapo 9.12 xalan starting warmup 28 =====
Normal completion.
===== DaCapo 9.12 xalan completed warmup 28 in 23983 msec =====
===== DaCapo 9.12 xalan starting warmup 29 =====
Normal completion.
===== DaCapo 9.12 xalan completed warmup 29 in 23943 msec =====
===== DaCapo 9.12 xalan starting warmup 30 =====
Normal completion.
===== DaCapo 9.12 xalan completed warmup 30 in 24805 msec =====
===== DaCapo 9.12 xalan starting warmup 31 =====
Normal completion.
===== DaCapo 9.12 xalan completed warmup 31 in 23919 msec =====
===== DaCapo 9.12 xalan starting warmup 32 =====
Normal completion.
===== DaCapo 9.12 xalan completed warmup 32 in 24091 msec =====
===== DaCapo 9.12 xalan starting warmup 33 =====
Normal completion.
===== DaCapo 9.12 xalan completed warmup 33 in 23931 msec =====
===== DaCapo 9.12 xalan starting warmup 34 =====
Normal completion.
===== DaCapo 9.12 xalan completed warmup 34 in 23944 msec =====
===== DaCapo 9.12 xalan starting warmup 35 =====
Normal completion.
===== DaCapo 9.12 xalan completed warmup 35 in 24033 msec =====
===== DaCapo 9.12 xalan starting warmup 36 =====
Normal completion.
===== DaCapo 9.12 xalan completed warmup 36 in 23990 msec =====
===== DaCapo 9.12 xalan starting warmup 37 =====
Normal completion.
===== DaCapo 9.12 xalan completed warmup 37 in 23947 msec =====
===== DaCapo 9.12 xalan starting warmup 38 =====
Normal completion.
===== DaCapo 9.12 xalan completed warmup 38 in 23921 msec =====
===== DaCapo 9.12 xalan starting warmup 39 =====
Normal completion.
===== DaCapo 9.12 xalan completed warmup 39 in 23944 msec =====
===== DaCapo 9.12 xalan starting warmup 40 =====
Normal completion.
===== DaCapo 9.12 xalan completed warmup 40 in 23936 msec =====
===== DaCapo 9.12 xalan starting warmup 41 =====
Normal completion.
===== DaCapo 9.12 xalan completed warmup 41 in 23912 msec =====
===== DaCapo 9.12 xalan starting warmup 42 =====
Normal completion.
===== DaCapo 9.12 xalan completed warmup 42 in 23978 msec =====
===== DaCapo 9.12 xalan starting warmup 43 =====
Normal completion.
===== DaCapo 9.12 xalan completed warmup 43 in 23938 msec =====
===== DaCapo 9.12 xalan starting warmup 44 =====
Normal completion.
===== DaCapo 9.12 xalan completed warmup 44 in 23957 msec =====
===== DaCapo 9.12 xalan starting warmup 45 =====
Normal completion.
===== DaCapo 9.12 xalan completed warmup 45 in 23964 msec =====
===== DaCapo 9.12 xalan starting warmup 46 =====
Normal completion.
===== DaCapo 9.12 xalan completed warmup 46 in 23959 msec =====
===== DaCapo 9.12 xalan starting warmup 47 =====
Normal completion.
===== DaCapo 9.12 xalan completed warmup 47 in 24069 msec =====
===== DaCapo 9.12 xalan starting warmup 48 =====
Normal completion.
===== DaCapo 9.12 xalan completed warmup 48 in 23996 msec =====
===== DaCapo 9.12 xalan starting warmup 49 =====
Normal completion.
===== DaCapo 9.12 xalan completed warmup 49 in 23949 msec =====
===== DaCapo 9.12 xalan starting warmup 50 =====
