economemd
    total memory: 1788 MB
    timer interval: 10 s
    timer start state: running
    utility model: root

    caches:
        lru

    force utility function validity: yes
    make recommendations: yes
    equal recommendations: yes

    reading receiver name: simple
    command receiver name: simple

    dump file: economemd.dump.log
    log file: /home/callum/economics_memory_code/dynamic_sizing/data/output/timerComparisonMany_2014_10_07_10_29_12/sub29_timerComparisonSingle/sub2_timeBenchmarkDaemonEqual/daemon_run01_log.txt
    log readings: yes
    log functions: yes

PyOptimiser: initialising...
PyOptimiser: initialised
ReadingThread: starting
TimerThread: starting
CommandThread: starting
Recommendation: no clients; no recommendation
Recommendation: no clients; no recommendation
Reading from 12198: heap size 9 MB, throughput 0.992747
Clients: 1
Client 12198 has a minimum heap size of 276 MB
Reading from 12200: heap size 9 MB, throughput 0.990988
Clients: 2
Client 12200 has a minimum heap size of 22 MB
Reading from 12198: heap size 9 MB, throughput 0.978898
Reading from 12198: heap size 9 MB, throughput 0.962453
Reading from 12200: heap size 9 MB, throughput 0.988419
Reading from 12198: heap size 9 MB, throughput 0.944503
Reading from 12200: heap size 9 MB, throughput 0.976284
Reading from 12200: heap size 9 MB, throughput 0.987061
Reading from 12198: heap size 11 MB, throughput 0.967151
Reading from 12200: heap size 11 MB, throughput 0.977215
Reading from 12198: heap size 11 MB, throughput 0.980877
Reading from 12200: heap size 11 MB, throughput 0.977015
Reading from 12198: heap size 17 MB, throughput 0.962547
Reading from 12198: heap size 17 MB, throughput 0.633788
Reading from 12198: heap size 30 MB, throughput 0.962628
Reading from 12198: heap size 31 MB, throughput 0.956603
Reading from 12198: heap size 34 MB, throughput 0.398939
Reading from 12198: heap size 47 MB, throughput 0.860703
Reading from 12198: heap size 48 MB, throughput 0.896839
Reading from 12200: heap size 15 MB, throughput 0.996439
Reading from 12200: heap size 16 MB, throughput 0.938352
Reading from 12198: heap size 50 MB, throughput 0.271302
Reading from 12198: heap size 74 MB, throughput 0.791132
Reading from 12200: heap size 23 MB, throughput 0.987042
Reading from 12198: heap size 74 MB, throughput 0.277166
Reading from 12200: heap size 24 MB, throughput 0.959951
Reading from 12198: heap size 99 MB, throughput 0.800671
Reading from 12198: heap size 100 MB, throughput 0.678981
Reading from 12198: heap size 101 MB, throughput 0.804413
Reading from 12198: heap size 104 MB, throughput 0.824174
Reading from 12200: heap size 33 MB, throughput 0.990009
Reading from 12198: heap size 107 MB, throughput 0.168522
Reading from 12200: heap size 34 MB, throughput 0.909441
Reading from 12198: heap size 142 MB, throughput 0.661609
Reading from 12200: heap size 50 MB, throughput 0.978584
Reading from 12198: heap size 147 MB, throughput 0.663249
Reading from 12198: heap size 148 MB, throughput 0.713656
Reading from 12200: heap size 50 MB, throughput 0.985075
Reading from 12198: heap size 156 MB, throughput 0.625872
Reading from 12200: heap size 65 MB, throughput 0.991137
Reading from 12200: heap size 65 MB, throughput 0.978132
Reading from 12200: heap size 85 MB, throughput 0.987415
Reading from 12198: heap size 159 MB, throughput 0.108501
Reading from 12200: heap size 85 MB, throughput 0.986301
Reading from 12198: heap size 202 MB, throughput 0.624979
Reading from 12198: heap size 204 MB, throughput 0.690278
Reading from 12200: heap size 103 MB, throughput 0.829531
Reading from 12198: heap size 206 MB, throughput 0.909217
Reading from 12200: heap size 110 MB, throughput 0.958362
Reading from 12198: heap size 211 MB, throughput 0.447276
Reading from 12198: heap size 263 MB, throughput 0.708475
Reading from 12200: heap size 126 MB, throughput 0.981646
Reading from 12198: heap size 266 MB, throughput 0.898754
Reading from 12198: heap size 269 MB, throughput 0.674653
Reading from 12198: heap size 269 MB, throughput 0.922327
Reading from 12198: heap size 272 MB, throughput 0.894582
Reading from 12198: heap size 273 MB, throughput 0.851792
Reading from 12198: heap size 273 MB, throughput 0.811031
Reading from 12198: heap size 277 MB, throughput 0.806363
Reading from 12198: heap size 282 MB, throughput 0.817022
Reading from 12198: heap size 284 MB, throughput 0.761025
Reading from 12200: heap size 135 MB, throughput 0.876858
Reading from 12200: heap size 161 MB, throughput 0.964949
Reading from 12200: heap size 161 MB, throughput 0.966129
Reading from 12200: heap size 175 MB, throughput 0.970694
Reading from 12200: heap size 175 MB, throughput 0.965113
Reading from 12200: heap size 190 MB, throughput 0.976574
Reading from 12200: heap size 190 MB, throughput 0.971155
Reading from 12200: heap size 207 MB, throughput 0.991381
Reading from 12200: heap size 207 MB, throughput 0.99024
Reading from 12198: heap size 290 MB, throughput 0.951603
Reading from 12200: heap size 221 MB, throughput 0.990399
Reading from 12198: heap size 291 MB, throughput 0.701833
Reading from 12198: heap size 299 MB, throughput 0.764431
Reading from 12198: heap size 299 MB, throughput 0.781136
Reading from 12198: heap size 299 MB, throughput 0.759126
Reading from 12198: heap size 301 MB, throughput 0.886205
Reading from 12200: heap size 223 MB, throughput 0.999029
Reading from 12198: heap size 303 MB, throughput 0.181811
Reading from 12198: heap size 348 MB, throughput 0.572798
Reading from 12198: heap size 349 MB, throughput 0.624915
Reading from 12200: heap size 232 MB, throughput 0.997833
Reading from 12198: heap size 351 MB, throughput 0.69407
Reading from 12198: heap size 355 MB, throughput 0.694803
Reading from 12198: heap size 356 MB, throughput 0.692955
Equal recommendation: 894 MB each
Reading from 12200: heap size 235 MB, throughput 0.998726
Reading from 12198: heap size 358 MB, throughput 0.957612
Reading from 12200: heap size 241 MB, throughput 0.998618
Reading from 12200: heap size 243 MB, throughput 0.995681
Reading from 12198: heap size 360 MB, throughput 0.971528
Reading from 12200: heap size 248 MB, throughput 0.998298
Reading from 12200: heap size 249 MB, throughput 0.995465
Reading from 12198: heap size 365 MB, throughput 0.977512
Reading from 12200: heap size 254 MB, throughput 0.998528
Reading from 12200: heap size 254 MB, throughput 0.976779
Reading from 12200: heap size 258 MB, throughput 0.982218
Reading from 12200: heap size 258 MB, throughput 0.976885
Reading from 12200: heap size 268 MB, throughput 0.983071
Reading from 12200: heap size 268 MB, throughput 0.9917
Reading from 12200: heap size 279 MB, throughput 0.991059
Reading from 12198: heap size 366 MB, throughput 0.976126
Reading from 12200: heap size 280 MB, throughput 0.998668
Reading from 12198: heap size 372 MB, throughput 0.972742
Reading from 12200: heap size 288 MB, throughput 0.997962
Reading from 12200: heap size 291 MB, throughput 0.998056
Reading from 12198: heap size 373 MB, throughput 0.968732
Reading from 12200: heap size 297 MB, throughput 0.996098
Reading from 12200: heap size 298 MB, throughput 0.997142
Reading from 12200: heap size 303 MB, throughput 0.994791
Reading from 12198: heap size 377 MB, throughput 0.958507
Reading from 12200: heap size 304 MB, throughput 0.998574
Reading from 12200: heap size 308 MB, throughput 0.982788
Reading from 12200: heap size 309 MB, throughput 0.984825
Reading from 12200: heap size 318 MB, throughput 0.992753
Reading from 12200: heap size 318 MB, throughput 0.992173
Reading from 12198: heap size 379 MB, throughput 0.97305
Equal recommendation: 894 MB each
Reading from 12200: heap size 328 MB, throughput 0.998858
Reading from 12198: heap size 383 MB, throughput 0.968649
Reading from 12200: heap size 328 MB, throughput 0.999047
Reading from 12200: heap size 334 MB, throughput 0.998393
Reading from 12198: heap size 386 MB, throughput 0.959104
Reading from 12200: heap size 336 MB, throughput 0.998347
Reading from 12200: heap size 341 MB, throughput 0.996985
Reading from 12200: heap size 341 MB, throughput 0.998771
Reading from 12200: heap size 345 MB, throughput 0.985744
Reading from 12200: heap size 345 MB, throughput 0.984949
Reading from 12200: heap size 353 MB, throughput 0.994519
Reading from 12198: heap size 389 MB, throughput 0.977866
Reading from 12200: heap size 353 MB, throughput 0.998187
Reading from 12200: heap size 361 MB, throughput 0.998309
Reading from 12198: heap size 391 MB, throughput 0.973813
Reading from 12200: heap size 363 MB, throughput 0.999382
Reading from 12198: heap size 388 MB, throughput 0.972443
Reading from 12200: heap size 368 MB, throughput 0.997172
Reading from 12200: heap size 368 MB, throughput 0.99797
Reading from 12200: heap size 373 MB, throughput 0.998328
Reading from 12200: heap size 374 MB, throughput 0.988279
Reading from 12200: heap size 378 MB, throughput 0.988606
Reading from 12200: heap size 378 MB, throughput 0.992457
Reading from 12198: heap size 390 MB, throughput 0.976195
Reading from 12200: heap size 387 MB, throughput 0.997271
Equal recommendation: 894 MB each
Reading from 12198: heap size 389 MB, throughput 0.981286
Reading from 12198: heap size 392 MB, throughput 0.860491
Reading from 12198: heap size 390 MB, throughput 0.771301
Reading from 12200: heap size 387 MB, throughput 0.998958
Reading from 12198: heap size 393 MB, throughput 0.14512
Reading from 12198: heap size 441 MB, throughput 0.939606
Reading from 12200: heap size 395 MB, throughput 0.998933
Reading from 12200: heap size 396 MB, throughput 0.998702
Reading from 12200: heap size 401 MB, throughput 0.998488
Reading from 12200: heap size 401 MB, throughput 0.988994
Reading from 12200: heap size 406 MB, throughput 0.989979
Reading from 12200: heap size 406 MB, throughput 0.993872
Reading from 12198: heap size 442 MB, throughput 0.99509
Reading from 12200: heap size 416 MB, throughput 0.998616
Reading from 12200: heap size 416 MB, throughput 0.998951
Reading from 12198: heap size 451 MB, throughput 0.994399
Reading from 12200: heap size 423 MB, throughput 0.998754
Reading from 12200: heap size 424 MB, throughput 0.998672
Reading from 12198: heap size 455 MB, throughput 0.992497
Reading from 12200: heap size 429 MB, throughput 0.997816
Reading from 12200: heap size 429 MB, throughput 0.98685
Reading from 12200: heap size 434 MB, throughput 0.989193
Reading from 12200: heap size 434 MB, throughput 0.994063
Reading from 12200: heap size 445 MB, throughput 0.998925
Reading from 12198: heap size 459 MB, throughput 0.992225
Reading from 12200: heap size 445 MB, throughput 0.999147
Equal recommendation: 894 MB each
Reading from 12200: heap size 452 MB, throughput 0.998343
Reading from 12198: heap size 460 MB, throughput 0.978798
Reading from 12200: heap size 454 MB, throughput 0.998428
Reading from 12200: heap size 459 MB, throughput 0.987641
Reading from 12200: heap size 459 MB, throughput 0.988451
Reading from 12200: heap size 469 MB, throughput 0.993234
Reading from 12200: heap size 469 MB, throughput 0.99865
Reading from 12198: heap size 458 MB, throughput 0.989494
Reading from 12200: heap size 479 MB, throughput 0.999204
Reading from 12200: heap size 481 MB, throughput 0.99861
Reading from 12198: heap size 460 MB, throughput 0.979312
Reading from 12200: heap size 488 MB, throughput 0.998209
Reading from 12200: heap size 488 MB, throughput 0.987657
Reading from 12200: heap size 494 MB, throughput 0.993998
Reading from 12200: heap size 494 MB, throughput 0.997023
Reading from 12198: heap size 452 MB, throughput 0.979534
Reading from 12200: heap size 504 MB, throughput 0.999147
Reading from 12200: heap size 505 MB, throughput 0.998076
Reading from 12200: heap size 513 MB, throughput 0.998158
Reading from 12198: heap size 456 MB, throughput 0.983531
Reading from 12200: heap size 513 MB, throughput 0.996245
Reading from 12200: heap size 519 MB, throughput 0.989921
Reading from 12200: heap size 519 MB, throughput 0.994916
Reading from 12198: heap size 453 MB, throughput 0.972687
Reading from 12200: heap size 530 MB, throughput 0.99843
Equal recommendation: 894 MB each
Reading from 12200: heap size 530 MB, throughput 0.998132
Reading from 12200: heap size 538 MB, throughput 0.997881
Reading from 12198: heap size 455 MB, throughput 0.977452
Reading from 12200: heap size 539 MB, throughput 0.9967
Reading from 12200: heap size 545 MB, throughput 0.990248
Reading from 12200: heap size 545 MB, throughput 0.99772
Reading from 12200: heap size 555 MB, throughput 0.998844
Reading from 12198: heap size 457 MB, throughput 0.989429
Reading from 12198: heap size 458 MB, throughput 0.879285
Reading from 12200: heap size 556 MB, throughput 0.998857
Reading from 12198: heap size 453 MB, throughput 0.786752
Reading from 12198: heap size 458 MB, throughput 0.813072
Reading from 12200: heap size 563 MB, throughput 0.997925
Reading from 12200: heap size 563 MB, throughput 0.990138
Reading from 12198: heap size 468 MB, throughput 0.92914
Reading from 12200: heap size 569 MB, throughput 0.993616
Reading from 12200: heap size 569 MB, throughput 0.998781
Reading from 12200: heap size 579 MB, throughput 0.998924
Reading from 12198: heap size 471 MB, throughput 0.988159
Reading from 12200: heap size 581 MB, throughput 0.998753
Reading from 12200: heap size 587 MB, throughput 0.997256
Reading from 12200: heap size 587 MB, throughput 0.987723
Reading from 12200: heap size 594 MB, throughput 0.998083
Reading from 12198: heap size 470 MB, throughput 0.982987
Reading from 12200: heap size 594 MB, throughput 0.998724
Reading from 12200: heap size 602 MB, throughput 0.998755
Reading from 12200: heap size 604 MB, throughput 0.997862
Reading from 12200: heap size 610 MB, throughput 0.991153
Reading from 12200: heap size 610 MB, throughput 0.995319
Reading from 12198: heap size 474 MB, throughput 0.985973
Equal recommendation: 894 MB each
Reading from 12200: heap size 620 MB, throughput 0.999061
Reading from 12200: heap size 620 MB, throughput 0.998481
Reading from 12198: heap size 471 MB, throughput 0.977207
Reading from 12200: heap size 625 MB, throughput 0.998485
Reading from 12200: heap size 625 MB, throughput 0.991155
Reading from 12200: heap size 625 MB, throughput 0.994467
Reading from 12200: heap size 625 MB, throughput 0.998929
Reading from 12200: heap size 625 MB, throughput 0.99862
Reading from 12198: heap size 475 MB, throughput 0.98603
Reading from 12200: heap size 625 MB, throughput 0.998118
Reading from 12200: heap size 625 MB, throughput 0.990114
Reading from 12200: heap size 625 MB, throughput 0.99402
Reading from 12200: heap size 625 MB, throughput 0.998705
Reading from 12198: heap size 472 MB, throughput 0.984981
Reading from 12200: heap size 625 MB, throughput 0.998712
Reading from 12200: heap size 625 MB, throughput 0.996443
Reading from 12200: heap size 625 MB, throughput 0.991152
Reading from 12200: heap size 625 MB, throughput 0.994398
Reading from 12200: heap size 625 MB, throughput 0.998293
Reading from 12198: heap size 475 MB, throughput 0.98618
Reading from 12200: heap size 625 MB, throughput 0.998568
Reading from 12200: heap size 625 MB, throughput 0.99823
Reading from 12200: heap size 625 MB, throughput 0.991089
Reading from 12200: heap size 625 MB, throughput 0.993984
Equal recommendation: 894 MB each
Reading from 12200: heap size 625 MB, throughput 0.998777
Reading from 12198: heap size 476 MB, throughput 0.981525
Reading from 12200: heap size 625 MB, throughput 0.99864
Reading from 12200: heap size 625 MB, throughput 0.998374
Reading from 12200: heap size 625 MB, throughput 0.990227
Reading from 12200: heap size 625 MB, throughput 0.993416
Reading from 12198: heap size 477 MB, throughput 0.980459
Reading from 12200: heap size 625 MB, throughput 0.998731
Reading from 12200: heap size 625 MB, throughput 0.998537
Reading from 12200: heap size 625 MB, throughput 0.998296
Reading from 12200: heap size 625 MB, throughput 0.991462
Reading from 12198: heap size 479 MB, throughput 0.986472
Reading from 12200: heap size 625 MB, throughput 0.994211
Reading from 12198: heap size 480 MB, throughput 0.899207
Reading from 12198: heap size 482 MB, throughput 0.874077
Reading from 12198: heap size 483 MB, throughput 0.952928
Reading from 12200: heap size 625 MB, throughput 0.998899
Reading from 12200: heap size 625 MB, throughput 0.997823
Reading from 12200: heap size 625 MB, throughput 0.997971
Reading from 12200: heap size 625 MB, throughput 0.991157
Reading from 12200: heap size 625 MB, throughput 0.994058
Reading from 12198: heap size 491 MB, throughput 0.990526
Reading from 12200: heap size 625 MB, throughput 0.998748
Reading from 12200: heap size 625 MB, throughput 0.997859
Reading from 12200: heap size 625 MB, throughput 0.998475
Reading from 12200: heap size 625 MB, throughput 0.989781
Reading from 12200: heap size 625 MB, throughput 0.993964
Reading from 12198: heap size 492 MB, throughput 0.990359
Reading from 12200: heap size 625 MB, throughput 0.998756
Equal recommendation: 894 MB each
Reading from 12200: heap size 625 MB, throughput 0.997915
Reading from 12200: heap size 625 MB, throughput 0.998142
Reading from 12200: heap size 625 MB, throughput 0.990833
Reading from 12200: heap size 625 MB, throughput 0.993281
Reading from 12198: heap size 494 MB, throughput 0.990005
Reading from 12200: heap size 625 MB, throughput 0.998716
Reading from 12200: heap size 625 MB, throughput 0.997921
Reading from 12200: heap size 625 MB, throughput 0.998545
Reading from 12200: heap size 625 MB, throughput 0.991943
Reading from 12200: heap size 625 MB, throughput 0.993952
Reading from 12198: heap size 496 MB, throughput 0.987894
Reading from 12200: heap size 625 MB, throughput 0.998748
Reading from 12200: heap size 625 MB, throughput 0.998086
Reading from 12200: heap size 625 MB, throughput 0.998236
Reading from 12200: heap size 625 MB, throughput 0.991589
Reading from 12200: heap size 625 MB, throughput 0.993071
Reading from 12200: heap size 625 MB, throughput 0.998455
Reading from 12198: heap size 494 MB, throughput 0.987528
Reading from 12200: heap size 625 MB, throughput 0.997908
Reading from 12200: heap size 625 MB, throughput 0.997627
Reading from 12200: heap size 625 MB, throughput 0.991624
Reading from 12200: heap size 625 MB, throughput 0.991169
Reading from 12200: heap size 625 MB, throughput 0.998329
Reading from 12198: heap size 496 MB, throughput 0.986177
Reading from 12200: heap size 625 MB, throughput 0.998587
Reading from 12200: heap size 625 MB, throughput 0.998365
Reading from 12200: heap size 625 MB, throughput 0.989897
Equal recommendation: 894 MB each
Reading from 12200: heap size 625 MB, throughput 0.992173
Reading from 12200: heap size 625 MB, throughput 0.998578
Reading from 12198: heap size 497 MB, throughput 0.987178
Reading from 12200: heap size 625 MB, throughput 0.99866
Reading from 12200: heap size 625 MB, throughput 0.998405
Reading from 12200: heap size 625 MB, throughput 0.991163
Reading from 12200: heap size 625 MB, throughput 0.993652
Reading from 12200: heap size 625 MB, throughput 0.99867
Reading from 12200: heap size 625 MB, throughput 0.998498
Reading from 12198: heap size 498 MB, throughput 0.99203
Reading from 12200: heap size 625 MB, throughput 0.998487
Reading from 12200: heap size 625 MB, throughput 0.990419
Reading from 12200: heap size 625 MB, throughput 0.993528
Reading from 12198: heap size 500 MB, throughput 0.967085
Reading from 12198: heap size 501 MB, throughput 0.87631
Reading from 12198: heap size 505 MB, throughput 0.92357
Reading from 12200: heap size 625 MB, throughput 0.998598
Reading from 12200: heap size 625 MB, throughput 0.998394
Reading from 12200: heap size 625 MB, throughput 0.998338
Reading from 12200: heap size 625 MB, throughput 0.994538
Reading from 12200: heap size 625 MB, throughput 0.993648
Reading from 12198: heap size 507 MB, throughput 0.991777
Reading from 12200: heap size 625 MB, throughput 0.998547
Reading from 12200: heap size 625 MB, throughput 0.998471
Reading from 12200: heap size 625 MB, throughput 0.997687
Reading from 12200: heap size 625 MB, throughput 0.996172
Reading from 12200: heap size 625 MB, throughput 0.993686
Reading from 12198: heap size 512 MB, throughput 0.991384
Reading from 12200: heap size 625 MB, throughput 0.998612
Equal recommendation: 894 MB each
Reading from 12200: heap size 625 MB, throughput 0.998423
Reading from 12200: heap size 625 MB, throughput 0.998443
Reading from 12200: heap size 625 MB, throughput 0.996292
Reading from 12200: heap size 625 MB, throughput 0.994367
Reading from 12200: heap size 625 MB, throughput 0.986355
Reading from 12198: heap size 513 MB, throughput 0.989398
Reading from 12200: heap size 625 MB, throughput 0.998108
Reading from 12200: heap size 625 MB, throughput 0.997287
Reading from 12200: heap size 625 MB, throughput 0.99686
Reading from 12200: heap size 625 MB, throughput 0.99307
Reading from 12200: heap size 625 MB, throughput 0.998464
Reading from 12198: heap size 513 MB, throughput 0.988897
Reading from 12200: heap size 625 MB, throughput 0.99845
Reading from 12200: heap size 625 MB, throughput 0.998375
Reading from 12200: heap size 625 MB, throughput 0.995982
Reading from 12200: heap size 625 MB, throughput 0.992688
Reading from 12200: heap size 625 MB, throughput 0.99845
Reading from 12198: heap size 515 MB, throughput 0.989
Reading from 12200: heap size 625 MB, throughput 0.998405
Reading from 12200: heap size 625 MB, throughput 0.998453
Reading from 12200: heap size 625 MB, throughput 0.996439
Reading from 12200: heap size 625 MB, throughput 0.992804
Reading from 12200: heap size 625 MB, throughput 0.998382
Reading from 12200: heap size 625 MB, throughput 0.998281
Reading from 12198: heap size 515 MB, throughput 0.988871
Reading from 12200: heap size 625 MB, throughput 0.998524
Equal recommendation: 894 MB each
Reading from 12200: heap size 625 MB, throughput 0.995968
Reading from 12200: heap size 625 MB, throughput 0.993152
Reading from 12200: heap size 625 MB, throughput 0.998181
Reading from 12200: heap size 625 MB, throughput 0.99827
Reading from 12200: heap size 625 MB, throughput 0.99833
Reading from 12200: heap size 625 MB, throughput 0.996497
Reading from 12200: heap size 625 MB, throughput 0.993803
Reading from 12198: heap size 516 MB, throughput 0.987903
Reading from 12200: heap size 625 MB, throughput 0.998026
Reading from 12200: heap size 625 MB, throughput 0.998354
Reading from 12200: heap size 625 MB, throughput 0.998511
Reading from 12200: heap size 625 MB, throughput 0.996296
Reading from 12200: heap size 625 MB, throughput 0.993226
Reading from 12198: heap size 519 MB, throughput 0.992463
Reading from 12198: heap size 520 MB, throughput 0.908054
Reading from 12200: heap size 625 MB, throughput 0.998077
Reading from 12198: heap size 520 MB, throughput 0.897683
Reading from 12200: heap size 625 MB, throughput 0.998324
Reading from 12200: heap size 625 MB, throughput 0.998364
Reading from 12200: heap size 625 MB, throughput 0.996127
Reading from 12200: heap size 625 MB, throughput 0.993792
Reading from 12198: heap size 523 MB, throughput 0.988357
Reading from 12200: heap size 625 MB, throughput 0.998471
Reading from 12200: heap size 625 MB, throughput 0.998431
Reading from 12200: heap size 625 MB, throughput 0.998719
Reading from 12200: heap size 625 MB, throughput 0.996268
Reading from 12200: heap size 625 MB, throughput 0.993728
Reading from 12198: heap size 531 MB, throughput 0.991154
Reading from 12200: heap size 625 MB, throughput 0.998238
Equal recommendation: 894 MB each
Reading from 12200: heap size 625 MB, throughput 0.998264
Reading from 12200: heap size 625 MB, throughput 0.998731
Reading from 12200: heap size 625 MB, throughput 0.996091
Reading from 12200: heap size 625 MB, throughput 0.993951
Reading from 12200: heap size 625 MB, throughput 0.997843
Reading from 12198: heap size 532 MB, throughput 0.991574
Reading from 12200: heap size 625 MB, throughput 0.998318
Reading from 12200: heap size 625 MB, throughput 0.99859
Reading from 12200: heap size 625 MB, throughput 0.996432
Reading from 12200: heap size 625 MB, throughput 0.993588
Reading from 12200: heap size 625 MB, throughput 0.99836
Reading from 12200: heap size 625 MB, throughput 0.998095
Reading from 12198: heap size 532 MB, throughput 0.989712
Reading from 12200: heap size 625 MB, throughput 0.998536
Reading from 12200: heap size 625 MB, throughput 0.996612
Reading from 12200: heap size 625 MB, throughput 0.992877
Reading from 12200: heap size 625 MB, throughput 0.998012
Reading from 12200: heap size 625 MB, throughput 0.998268
Reading from 12200: heap size 625 MB, throughput 0.998619
Reading from 12198: heap size 534 MB, throughput 0.988771
Reading from 12200: heap size 625 MB, throughput 0.996321
Reading from 12200: heap size 625 MB, throughput 0.99373
Reading from 12200: heap size 625 MB, throughput 0.998057
Reading from 12200: heap size 625 MB, throughput 0.998193
Equal recommendation: 894 MB each
Reading from 12200: heap size 625 MB, throughput 0.998498
Reading from 12200: heap size 625 MB, throughput 0.996227
Reading from 12200: heap size 625 MB, throughput 0.992733
Reading from 12198: heap size 535 MB, throughput 0.988723
Reading from 12200: heap size 625 MB, throughput 0.998258
Reading from 12200: heap size 625 MB, throughput 0.998414
Reading from 12200: heap size 625 MB, throughput 0.998673
Reading from 12200: heap size 596 MB, throughput 0.996251
Reading from 12200: heap size 604 MB, throughput 0.99017
Reading from 12200: heap size 615 MB, throughput 0.997886
Reading from 12200: heap size 625 MB, throughput 0.998521
Reading from 12198: heap size 536 MB, throughput 0.98968
Reading from 12200: heap size 625 MB, throughput 0.998562
Reading from 12200: heap size 625 MB, throughput 0.996718
Reading from 12200: heap size 625 MB, throughput 0.991385
Reading from 12198: heap size 536 MB, throughput 0.978204
Reading from 12198: heap size 540 MB, throughput 0.907481
Reading from 12200: heap size 625 MB, throughput 0.997849
Reading from 12200: heap size 625 MB, throughput 0.998677
Reading from 12198: heap size 543 MB, throughput 0.983863
Reading from 12200: heap size 625 MB, throughput 0.998529
Reading from 12200: heap size 596 MB, throughput 0.99668
Reading from 12200: heap size 604 MB, throughput 0.989366
Reading from 12200: heap size 616 MB, throughput 0.993821
Reading from 12200: heap size 625 MB, throughput 0.998716
Reading from 12200: heap size 625 MB, throughput 0.998706
Reading from 12198: heap size 545 MB, throughput 0.992353
Reading from 12200: heap size 625 MB, throughput 0.996951
Reading from 12200: heap size 625 MB, throughput 0.989838
Reading from 12200: heap size 625 MB, throughput 0.994434
Equal recommendation: 894 MB each
Reading from 12200: heap size 625 MB, throughput 0.998858
Reading from 12200: heap size 625 MB, throughput 0.998666
Reading from 12200: heap size 625 MB, throughput 0.997504
Reading from 12200: heap size 625 MB, throughput 0.99027
Reading from 12200: heap size 625 MB, throughput 0.993341
Reading from 12198: heap size 548 MB, throughput 0.990968
Reading from 12200: heap size 625 MB, throughput 0.998848
Reading from 12200: heap size 625 MB, throughput 0.998653
Reading from 12200: heap size 625 MB, throughput 0.997559
Reading from 12200: heap size 596 MB, throughput 0.989445
Reading from 12200: heap size 609 MB, throughput 0.992996
Reading from 12198: heap size 549 MB, throughput 0.990387
Reading from 12200: heap size 623 MB, throughput 0.998865
Reading from 12200: heap size 625 MB, throughput 0.998273
Reading from 12200: heap size 625 MB, throughput 0.997815
Reading from 12200: heap size 596 MB, throughput 0.989827
Reading from 12200: heap size 609 MB, throughput 0.990106
Reading from 12200: heap size 624 MB, throughput 0.99878
Reading from 12198: heap size 548 MB, throughput 0.988097
Reading from 12200: heap size 625 MB, throughput 0.998513
Reading from 12200: heap size 625 MB, throughput 0.998168
Reading from 12200: heap size 625 MB, throughput 0.990675
Reading from 12200: heap size 625 MB, throughput 0.993536
Reading from 12200: heap size 625 MB, throughput 0.998324
Equal recommendation: 894 MB each
Reading from 12200: heap size 625 MB, throughput 0.998594
Reading from 12198: heap size 550 MB, throughput 0.988292
Reading from 12200: heap size 625 MB, throughput 0.997765
Reading from 12200: heap size 596 MB, throughput 0.989621
Reading from 12200: heap size 609 MB, throughput 0.992432
Reading from 12200: heap size 623 MB, throughput 0.998523
Reading from 12200: heap size 625 MB, throughput 0.998521
Reading from 12200: heap size 625 MB, throughput 0.998423
Reading from 12200: heap size 596 MB, throughput 0.989208
Reading from 12200: heap size 609 MB, throughput 0.993973
Reading from 12198: heap size 552 MB, throughput 0.986325
Reading from 12200: heap size 623 MB, throughput 0.998466
Reading from 12200: heap size 625 MB, throughput 0.99841
Reading from 12200: heap size 596 MB, throughput 0.998207
Reading from 12198: heap size 552 MB, throughput 0.976615
Reading from 12200: heap size 569 MB, throughput 0.99601
Reading from 12200: heap size 542 MB, throughput 0.992252
Reading from 12198: heap size 559 MB, throughput 0.899961
Reading from 12200: heap size 553 MB, throughput 0.997759
Reading from 12200: heap size 562 MB, throughput 0.998352
Reading from 12198: heap size 560 MB, throughput 0.987332
Reading from 12200: heap size 536 MB, throughput 0.99846
Reading from 12200: heap size 512 MB, throughput 0.997717
Reading from 12200: heap size 488 MB, throughput 0.988899
Reading from 12200: heap size 498 MB, throughput 0.98977
Reading from 12200: heap size 511 MB, throughput 0.993943
Reading from 12200: heap size 523 MB, throughput 0.998629
Reading from 12200: heap size 534 MB, throughput 0.997824
Reading from 12200: heap size 544 MB, throughput 0.997931
Reading from 12200: heap size 519 MB, throughput 0.995298
Reading from 12200: heap size 495 MB, throughput 0.989295
Reading from 12198: heap size 568 MB, throughput 0.992318
Equal recommendation: 894 MB each
Reading from 12200: heap size 506 MB, throughput 0.993937
Reading from 12200: heap size 518 MB, throughput 0.998667
Reading from 12200: heap size 528 MB, throughput 0.998292
Reading from 12200: heap size 504 MB, throughput 0.996896
Reading from 12200: heap size 481 MB, throughput 0.995949
Reading from 12200: heap size 459 MB, throughput 0.987995
Reading from 12200: heap size 470 MB, throughput 0.992905
Reading from 12200: heap size 481 MB, throughput 0.998266
Reading from 12198: heap size 568 MB, throughput 0.990016
Reading from 12200: heap size 491 MB, throughput 0.997736
Reading from 12200: heap size 500 MB, throughput 0.997913
Reading from 12200: heap size 477 MB, throughput 0.997323
Reading from 12200: heap size 456 MB, throughput 0.986685
Reading from 12200: heap size 467 MB, throughput 0.9879
Reading from 12200: heap size 480 MB, throughput 0.991738
Reading from 12200: heap size 495 MB, throughput 0.99837
Reading from 12200: heap size 507 MB, throughput 0.997537
Reading from 12198: heap size 569 MB, throughput 0.990583
Reading from 12200: heap size 518 MB, throughput 0.998648
Reading from 12200: heap size 494 MB, throughput 0.995873
Reading from 12200: heap size 472 MB, throughput 0.988248
Reading from 12200: heap size 483 MB, throughput 0.992681
Reading from 12200: heap size 496 MB, throughput 0.998169
Reading from 12200: heap size 507 MB, throughput 0.998184
Reading from 12200: heap size 516 MB, throughput 0.998121
Reading from 12198: heap size 571 MB, throughput 0.989264
Reading from 12200: heap size 493 MB, throughput 0.997741
Reading from 12200: heap size 470 MB, throughput 0.987397
Reading from 12200: heap size 481 MB, throughput 0.989035
Reading from 12200: heap size 495 MB, throughput 0.989824
Reading from 12200: heap size 510 MB, throughput 0.998596
Equal recommendation: 894 MB each
Reading from 12200: heap size 522 MB, throughput 0.998188
Reading from 12200: heap size 533 MB, throughput 0.997906
Reading from 12200: heap size 509 MB, throughput 0.996336
Reading from 12200: heap size 485 MB, throughput 0.988933
Reading from 12200: heap size 497 MB, throughput 0.99187
Reading from 12200: heap size 510 MB, throughput 0.998046
Reading from 12198: heap size 570 MB, throughput 0.989784
Reading from 12200: heap size 521 MB, throughput 0.997967
Reading from 12200: heap size 497 MB, throughput 0.998451
Reading from 12200: heap size 474 MB, throughput 0.995565
Reading from 12200: heap size 453 MB, throughput 0.985518
Reading from 12200: heap size 465 MB, throughput 0.991909
Reading from 12200: heap size 477 MB, throughput 0.997426
Reading from 12200: heap size 489 MB, throughput 0.998108
Reading from 12200: heap size 499 MB, throughput 0.998167
Reading from 12200: heap size 476 MB, throughput 0.997456
Reading from 12198: heap size 571 MB, throughput 0.990183
Reading from 12200: heap size 454 MB, throughput 0.995775
Reading from 12198: heap size 573 MB, throughput 0.915241
Reading from 12200: heap size 434 MB, throughput 0.988076
Reading from 12200: heap size 444 MB, throughput 0.992094
Reading from 12198: heap size 574 MB, throughput 0.966814
Reading from 12200: heap size 455 MB, throughput 0.997896
Reading from 12200: heap size 465 MB, throughput 0.997412
Reading from 12200: heap size 444 MB, throughput 0.998246
Reading from 12200: heap size 424 MB, throughput 0.997891
Reading from 12200: heap size 405 MB, throughput 0.995945
Reading from 12200: heap size 387 MB, throughput 0.984285
Reading from 12200: heap size 397 MB, throughput 0.98223
Reading from 12200: heap size 411 MB, throughput 0.988363
Reading from 12200: heap size 426 MB, throughput 0.997889
Reading from 12200: heap size 439 MB, throughput 0.997918
Reading from 12198: heap size 582 MB, throughput 0.991433
Reading from 12200: heap size 450 MB, throughput 0.997914
Reading from 12200: heap size 460 MB, throughput 0.9973
Reading from 12200: heap size 439 MB, throughput 0.995653
Equal recommendation: 894 MB each
Reading from 12200: heap size 419 MB, throughput 0.986233
Reading from 12200: heap size 431 MB, throughput 0.991545
Reading from 12200: heap size 443 MB, throughput 0.997611
Reading from 12200: heap size 454 MB, throughput 0.997541
Reading from 12200: heap size 464 MB, throughput 0.998069
Reading from 12200: heap size 443 MB, throughput 0.99749
Reading from 12200: heap size 423 MB, throughput 0.995553
Reading from 12200: heap size 404 MB, throughput 0.985087
Reading from 12200: heap size 415 MB, throughput 0.99095
Reading from 12200: heap size 427 MB, throughput 0.990082
Reading from 12198: heap size 583 MB, throughput 0.992173
Reading from 12200: heap size 440 MB, throughput 0.998165
Reading from 12200: heap size 451 MB, throughput 0.997298
Reading from 12200: heap size 461 MB, throughput 0.998034
Reading from 12200: heap size 440 MB, throughput 0.997047
Reading from 12200: heap size 420 MB, throughput 0.985455
Reading from 12200: heap size 431 MB, throughput 0.985227
Reading from 12200: heap size 446 MB, throughput 0.99155
Reading from 12200: heap size 461 MB, throughput 0.998437
Reading from 12200: heap size 473 MB, throughput 0.997924
Reading from 12198: heap size 583 MB, throughput 0.991617
Reading from 12200: heap size 484 MB, throughput 0.997973
Reading from 12200: heap size 462 MB, throughput 0.997327
Reading from 12200: heap size 441 MB, throughput 0.988096
Reading from 12200: heap size 452 MB, throughput 0.986848
Reading from 12200: heap size 466 MB, throughput 0.992875
Reading from 12200: heap size 480 MB, throughput 0.998581
Reading from 12200: heap size 492 MB, throughput 0.997745
Reading from 12200: heap size 503 MB, throughput 0.998545
Reading from 12200: heap size 480 MB, throughput 0.996631
Reading from 12200: heap size 458 MB, throughput 0.986529
Reading from 12200: heap size 469 MB, throughput 0.991732
Reading from 12198: heap size 585 MB, throughput 0.989155
Reading from 12200: heap size 482 MB, throughput 0.9975
Reading from 12200: heap size 494 MB, throughput 0.997765
Equal recommendation: 894 MB each
Reading from 12200: heap size 471 MB, throughput 0.998345
Reading from 12200: heap size 450 MB, throughput 0.996955
Reading from 12200: heap size 429 MB, throughput 0.995238
Reading from 12200: heap size 410 MB, throughput 0.985399
Reading from 12200: heap size 420 MB, throughput 0.990868
Reading from 12200: heap size 432 MB, throughput 0.991081
Reading from 12200: heap size 445 MB, throughput 0.998208
Reading from 12198: heap size 587 MB, throughput 0.989384
Reading from 12200: heap size 456 MB, throughput 0.997719
Reading from 12200: heap size 466 MB, throughput 0.99827
Reading from 12200: heap size 445 MB, throughput 0.996759
Reading from 12200: heap size 425 MB, throughput 0.987046
Reading from 12200: heap size 436 MB, throughput 0.986176
Reading from 12200: heap size 449 MB, throughput 0.99213
Reading from 12200: heap size 463 MB, throughput 0.998275
Reading from 12200: heap size 475 MB, throughput 0.997738
Reading from 12198: heap size 587 MB, throughput 0.990891
Reading from 12200: heap size 486 MB, throughput 0.99824
Reading from 12198: heap size 592 MB, throughput 0.921853
Reading from 12200: heap size 464 MB, throughput 0.996944
Reading from 12200: heap size 443 MB, throughput 0.987585
Reading from 12200: heap size 454 MB, throughput 0.987665
Reading from 12200: heap size 467 MB, throughput 0.992343
Reading from 12200: heap size 481 MB, throughput 0.997955
Reading from 12198: heap size 592 MB, throughput 0.985259
Reading from 12200: heap size 493 MB, throughput 0.997796
Reading from 12200: heap size 471 MB, throughput 0.998033
Reading from 12200: heap size 449 MB, throughput 0.996038
Reading from 12200: heap size 429 MB, throughput 0.984286
Reading from 12200: heap size 441 MB, throughput 0.989614
Reading from 12200: heap size 454 MB, throughput 0.99077
Reading from 12200: heap size 469 MB, throughput 0.998531
Reading from 12200: heap size 481 MB, throughput 0.997169
Reading from 12200: heap size 492 MB, throughput 0.998447
Equal recommendation: 894 MB each
Reading from 12200: heap size 470 MB, throughput 0.99386
Reading from 12200: heap size 448 MB, throughput 0.98497
Reading from 12198: heap size 599 MB, throughput 0.993104
Reading from 12200: heap size 461 MB, throughput 0.992267
Reading from 12200: heap size 475 MB, throughput 0.997214
Reading from 12200: heap size 487 MB, throughput 0.998089
Reading from 12200: heap size 465 MB, throughput 0.998331
Reading from 12200: heap size 444 MB, throughput 0.997675
Reading from 12200: heap size 424 MB, throughput 0.99514
Reading from 12200: heap size 405 MB, throughput 0.984028
Reading from 12200: heap size 416 MB, throughput 0.988418
Reading from 12200: heap size 429 MB, throughput 0.989816
Reading from 12200: heap size 443 MB, throughput 0.99844
Reading from 12198: heap size 600 MB, throughput 0.991333
Reading from 12200: heap size 455 MB, throughput 0.997863
Reading from 12200: heap size 465 MB, throughput 0.998276
Reading from 12200: heap size 444 MB, throughput 0.995366
Reading from 12200: heap size 424 MB, throughput 0.985263
Reading from 12200: heap size 436 MB, throughput 0.985194
Reading from 12200: heap size 451 MB, throughput 0.992544
Reading from 12200: heap size 466 MB, throughput 0.998362
Reading from 12200: heap size 479 MB, throughput 0.998003
Reading from 12200: heap size 490 MB, throughput 0.998255
Reading from 12200: heap size 468 MB, throughput 0.997371
Reading from 12200: heap size 446 MB, throughput 0.985963
Reading from 12200: heap size 458 MB, throughput 0.982624
Reading from 12200: heap size 474 MB, throughput 0.993091
Reading from 12198: heap size 600 MB, throughput 0.992136
Reading from 12200: heap size 490 MB, throughput 0.998583
Reading from 12200: heap size 504 MB, throughput 0.997956
Reading from 12200: heap size 516 MB, throughput 0.998125
Reading from 12200: heap size 492 MB, throughput 0.99617
Reading from 12200: heap size 470 MB, throughput 0.988691
Reading from 12200: heap size 481 MB, throughput 0.991823
Reading from 12200: heap size 494 MB, throughput 0.997808
Equal recommendation: 894 MB each
Reading from 12200: heap size 472 MB, throughput 0.997921
Reading from 12200: heap size 450 MB, throughput 0.997904
Reading from 12200: heap size 430 MB, throughput 0.996998
Reading from 12198: heap size 602 MB, throughput 0.989639
Reading from 12200: heap size 410 MB, throughput 0.995656
Reading from 12200: heap size 392 MB, throughput 0.984213
Reading from 12200: heap size 402 MB, throughput 0.989804
Reading from 12200: heap size 414 MB, throughput 0.990073
Reading from 12200: heap size 427 MB, throughput 0.99836
Reading from 12200: heap size 438 MB, throughput 0.997428
Reading from 12200: heap size 418 MB, throughput 0.99773
Reading from 12200: heap size 399 MB, throughput 0.995927
Reading from 12200: heap size 381 MB, throughput 0.994894
Reading from 12200: heap size 364 MB, throughput 0.982276
Reading from 12200: heap size 375 MB, throughput 0.988302
Reading from 12200: heap size 388 MB, throughput 0.988107
Reading from 12200: heap size 401 MB, throughput 0.99838
Reading from 12198: heap size 604 MB, throughput 0.991243
Reading from 12200: heap size 413 MB, throughput 0.997766
Reading from 12198: heap size 605 MB, throughput 0.940746
Reading from 12198: heap size 605 MB, throughput 0.941199
Reading from 12200: heap size 424 MB, throughput 0.996581
Reading from 12200: heap size 405 MB, throughput 0.996376
Reading from 12200: heap size 387 MB, throughput 0.995663
Reading from 12200: heap size 370 MB, throughput 0.983961
Reading from 12200: heap size 381 MB, throughput 0.981046
Reading from 12200: heap size 395 MB, throughput 0.991006
Reading from 12200: heap size 410 MB, throughput 0.998072
Reading from 12200: heap size 422 MB, throughput 0.998
Reading from 12200: heap size 433 MB, throughput 0.997725
Reading from 12200: heap size 414 MB, throughput 0.997306
Reading from 12200: heap size 395 MB, throughput 0.995766
Reading from 12200: heap size 378 MB, throughput 0.985422
Reading from 12200: heap size 388 MB, throughput 0.987388
Reading from 12200: heap size 401 MB, throughput 0.991889
Reading from 12198: heap size 607 MB, throughput 0.993413
Reading from 12200: heap size 414 MB, throughput 0.998256
Reading from 12200: heap size 425 MB, throughput 0.997942
Reading from 12200: heap size 406 MB, throughput 0.997467
Equal recommendation: 894 MB each
Reading from 12200: heap size 388 MB, throughput 0.994598
Reading from 12200: heap size 370 MB, throughput 0.995453
Reading from 12200: heap size 354 MB, throughput 0.981073
Reading from 12200: heap size 365 MB, throughput 0.982855
Reading from 12200: heap size 379 MB, throughput 0.991812
Reading from 12200: heap size 393 MB, throughput 0.998025
Reading from 12200: heap size 405 MB, throughput 0.997343
Reading from 12200: heap size 416 MB, throughput 0.997106
Reading from 12200: heap size 397 MB, throughput 0.99797
Reading from 12198: heap size 611 MB, throughput 0.99239
Reading from 12200: heap size 380 MB, throughput 0.996486
Reading from 12200: heap size 363 MB, throughput 0.983745
Reading from 12200: heap size 373 MB, throughput 0.983702
Reading from 12200: heap size 386 MB, throughput 0.991276
Reading from 12200: heap size 400 MB, throughput 0.990371
Reading from 12200: heap size 414 MB, throughput 0.997775
Reading from 12200: heap size 426 MB, throughput 0.997564
Reading from 12200: heap size 437 MB, throughput 0.997832
Reading from 12200: heap size 417 MB, throughput 0.996754
Reading from 12200: heap size 399 MB, throughput 0.982532
Reading from 12200: heap size 411 MB, throughput 0.984183
Reading from 12200: heap size 426 MB, throughput 0.987593
Reading from 12200: heap size 442 MB, throughput 0.997861
Reading from 12200: heap size 456 MB, throughput 0.997594
Reading from 12198: heap size 613 MB, throughput 0.992048
Reading from 12200: heap size 469 MB, throughput 0.998025
Reading from 12200: heap size 447 MB, throughput 0.997122
Reading from 12200: heap size 427 MB, throughput 0.996087
Reading from 12200: heap size 408 MB, throughput 0.986582
Reading from 12200: heap size 419 MB, throughput 0.992088
Reading from 12200: heap size 431 MB, throughput 0.997597
Reading from 12200: heap size 411 MB, throughput 0.997285
Reading from 12200: heap size 393 MB, throughput 0.997146
Reading from 12200: heap size 375 MB, throughput 0.997905
Reading from 12200: heap size 359 MB, throughput 0.996516
Reading from 12200: heap size 343 MB, throughput 0.995636
Reading from 12200: heap size 328 MB, throughput 0.981203
Reading from 12200: heap size 337 MB, throughput 0.983077
Reading from 12200: heap size 349 MB, throughput 0.990574
Reading from 12200: heap size 362 MB, throughput 0.98745
Equal recommendation: 894 MB each
Reading from 12198: heap size 614 MB, throughput 0.991672
Reading from 12200: heap size 375 MB, throughput 0.998259
Reading from 12200: heap size 387 MB, throughput 0.997688
Reading from 12200: heap size 398 MB, throughput 0.997567
Reading from 12200: heap size 380 MB, throughput 0.996176
Reading from 12200: heap size 363 MB, throughput 0.995547
Reading from 12200: heap size 347 MB, throughput 0.98346
Reading from 12200: heap size 357 MB, throughput 0.982637
Reading from 12200: heap size 370 MB, throughput 0.991193
Reading from 12200: heap size 384 MB, throughput 0.997823
Reading from 12200: heap size 395 MB, throughput 0.997242
Reading from 12200: heap size 406 MB, throughput 0.996796
Reading from 12200: heap size 388 MB, throughput 0.997874
Reading from 12200: heap size 370 MB, throughput 0.996968
Reading from 12200: heap size 354 MB, throughput 0.98334
Reading from 12200: heap size 364 MB, throughput 0.985291
Reading from 12200: heap size 376 MB, throughput 0.99068
Reading from 12200: heap size 389 MB, throughput 0.988822
Reading from 12198: heap size 616 MB, throughput 0.99475
Reading from 12200: heap size 403 MB, throughput 0.998021
Reading from 12198: heap size 617 MB, throughput 0.976941
Reading from 12200: heap size 415 MB, throughput 0.997722
Reading from 12198: heap size 619 MB, throughput 0.946749
Reading from 12200: heap size 426 MB, throughput 0.997634
Reading from 12200: heap size 407 MB, throughput 0.996944
Reading from 12200: heap size 389 MB, throughput 0.996079
Reading from 12200: heap size 371 MB, throughput 0.983988
Reading from 12200: heap size 382 MB, throughput 0.987505
Reading from 12200: heap size 394 MB, throughput 0.990099
Reading from 12200: heap size 408 MB, throughput 0.998157
Reading from 12200: heap size 419 MB, throughput 0.997588
Reading from 12200: heap size 400 MB, throughput 0.997228
Reading from 12200: heap size 382 MB, throughput 0.997509
Reading from 12200: heap size 365 MB, throughput 0.99569
Reading from 12200: heap size 349 MB, throughput 0.983527
Reading from 12200: heap size 359 MB, throughput 0.982438
Reading from 12200: heap size 372 MB, throughput 0.991481
Reading from 12200: heap size 385 MB, throughput 0.997425
Reading from 12200: heap size 397 MB, throughput 0.997304
Reading from 12198: heap size 626 MB, throughput 0.994479
Reading from 12200: heap size 407 MB, throughput 0.997332
Reading from 12200: heap size 389 MB, throughput 0.997941
Equal recommendation: 894 MB each
Reading from 12200: heap size 372 MB, throughput 0.995599
Reading from 12200: heap size 355 MB, throughput 0.994502
Reading from 12200: heap size 340 MB, throughput 0.981407
Reading from 12200: heap size 350 MB, throughput 0.983465
Reading from 12200: heap size 363 MB, throughput 0.990431
Reading from 12200: heap size 377 MB, throughput 0.997543
Reading from 12200: heap size 388 MB, throughput 0.997274
Reading from 12200: heap size 399 MB, throughput 0.997305
Reading from 12200: heap size 381 MB, throughput 0.998017
Reading from 12200: heap size 364 MB, throughput 0.996783
Reading from 12200: heap size 348 MB, throughput 0.980517
Reading from 12200: heap size 358 MB, throughput 0.981853
Reading from 12200: heap size 372 MB, throughput 0.988844
Reading from 12200: heap size 387 MB, throughput 0.98928
Reading from 12200: heap size 402 MB, throughput 0.998327
Reading from 12198: heap size 626 MB, throughput 0.993224
Reading from 12200: heap size 415 MB, throughput 0.998065
Reading from 12200: heap size 426 MB, throughput 0.997624
Reading from 12200: heap size 407 MB, throughput 0.996656
Reading from 12200: heap size 389 MB, throughput 0.995431
Reading from 12200: heap size 371 MB, throughput 0.984478
Reading from 12200: heap size 382 MB, throughput 0.9873
Reading from 12200: heap size 395 MB, throughput 0.989777
Reading from 12200: heap size 408 MB, throughput 0.998338
Reading from 12200: heap size 420 MB, throughput 0.998014
Reading from 12200: heap size 401 MB, throughput 0.99696
Reading from 12200: heap size 383 MB, throughput 0.99725
Reading from 12200: heap size 366 MB, throughput 0.99534
Reading from 12200: heap size 350 MB, throughput 0.981288
Reading from 12200: heap size 361 MB, throughput 0.982482
Reading from 12198: heap size 626 MB, throughput 0.990658
Reading from 12200: heap size 374 MB, throughput 0.991789
Reading from 12200: heap size 388 MB, throughput 0.997195
Reading from 12200: heap size 400 MB, throughput 0.997778
Reading from 12200: heap size 410 MB, throughput 0.996909
Reading from 12200: heap size 392 MB, throughput 0.998077
Reading from 12200: heap size 374 MB, throughput 0.997099
Reading from 12200: heap size 358 MB, throughput 0.977546
Reading from 12200: heap size 370 MB, throughput 0.976361
Reading from 12200: heap size 386 MB, throughput 0.990304
Reading from 12200: heap size 402 MB, throughput 0.989021
Equal recommendation: 894 MB each
Reading from 12200: heap size 418 MB, throughput 0.9985
Reading from 12200: heap size 433 MB, throughput 0.997666
Reading from 12200: heap size 445 MB, throughput 0.997944
Reading from 12198: heap size 628 MB, throughput 0.990244
Reading from 12200: heap size 425 MB, throughput 0.996813
Reading from 12200: heap size 406 MB, throughput 0.986629
Reading from 12200: heap size 418 MB, throughput 0.982383
Reading from 12200: heap size 433 MB, throughput 0.991873
Reading from 12200: heap size 449 MB, throughput 0.997891
Reading from 12200: heap size 462 MB, throughput 0.996971
Reading from 12200: heap size 441 MB, throughput 0.998109
Reading from 12200: heap size 421 MB, throughput 0.997335
Reading from 12200: heap size 402 MB, throughput 0.995742
Reading from 12200: heap size 384 MB, throughput 0.984225
Reading from 12200: heap size 395 MB, throughput 0.983595
Reading from 12200: heap size 409 MB, throughput 0.991554
Reading from 12200: heap size 423 MB, throughput 0.998304
Reading from 12200: heap size 435 MB, throughput 0.99793
Reading from 12200: heap size 416 MB, throughput 0.997304
Reading from 12198: heap size 631 MB, throughput 0.995064
Reading from 12200: heap size 397 MB, throughput 0.996936
Reading from 12198: heap size 632 MB, throughput 0.938375
Reading from 12200: heap size 380 MB, throughput 0.995247
Reading from 12200: heap size 363 MB, throughput 0.98363
Reading from 12200: heap size 373 MB, throughput 0.982238
Reading from 12200: heap size 387 MB, throughput 0.990443
Reading from 12200: heap size 401 MB, throughput 0.997951
Reading from 12200: heap size 414 MB, throughput 0.99706
Reading from 12198: heap size 631 MB, throughput 0.986455
Reading from 12200: heap size 425 MB, throughput 0.998141
Reading from 12200: heap size 406 MB, throughput 0.997353
Reading from 12200: heap size 388 MB, throughput 0.995925
Reading from 12200: heap size 370 MB, throughput 0.984159
Reading from 12200: heap size 381 MB, throughput 0.983953
Reading from 12200: heap size 394 MB, throughput 0.992221
Reading from 12200: heap size 408 MB, throughput 0.997621
Reading from 12200: heap size 419 MB, throughput 0.996952
Reading from 12200: heap size 400 MB, throughput 0.997397
Equal recommendation: 894 MB each
Reading from 12200: heap size 382 MB, throughput 0.997873
Reading from 12200: heap size 365 MB, throughput 0.996606
Reading from 12200: heap size 349 MB, throughput 0.981694
Reading from 12200: heap size 360 MB, throughput 0.983504
Reading from 12200: heap size 373 MB, throughput 0.990594
Reading from 12200: heap size 386 MB, throughput 0.989721
Reading from 12198: heap size 634 MB, throughput 0.993238
Reading from 12200: heap size 400 MB, throughput 0.998459
Reading from 12200: heap size 412 MB, throughput 0.997725
Reading from 12200: heap size 394 MB, throughput 0.997454
Reading from 12200: heap size 376 MB, throughput 0.997146
Reading from 12200: heap size 360 MB, throughput 0.995591
Reading from 12200: heap size 344 MB, throughput 0.984215
Reading from 12200: heap size 354 MB, throughput 0.98055
Reading from 12200: heap size 367 MB, throughput 0.99101
Reading from 12200: heap size 381 MB, throughput 0.997235
Reading from 12200: heap size 393 MB, throughput 0.997724
Reading from 12200: heap size 403 MB, throughput 0.996993
Reading from 12200: heap size 385 MB, throughput 0.998029
Reading from 12200: heap size 368 MB, throughput 0.994609
Reading from 12200: heap size 352 MB, throughput 0.995382
Reading from 12198: heap size 636 MB, throughput 0.991552
Reading from 12200: heap size 336 MB, throughput 0.982295
Reading from 12200: heap size 347 MB, throughput 0.981916
Reading from 12200: heap size 360 MB, throughput 0.991308
Reading from 12200: heap size 373 MB, throughput 0.997767
Reading from 12200: heap size 384 MB, throughput 0.996313
Reading from 12200: heap size 395 MB, throughput 0.996371
Reading from 12200: heap size 377 MB, throughput 0.997991
Reading from 12200: heap size 361 MB, throughput 0.994892
Reading from 12200: heap size 345 MB, throughput 0.99333
Reading from 12200: heap size 330 MB, throughput 0.981935
Reading from 12200: heap size 340 MB, throughput 0.982449
Reading from 12200: heap size 353 MB, throughput 0.991325
Reading from 12200: heap size 366 MB, throughput 0.997847
Reading from 12200: heap size 378 MB, throughput 0.997017
Reading from 12200: heap size 388 MB, throughput 0.996078
Reading from 12198: heap size 638 MB, throughput 0.99135
Reading from 12200: heap size 371 MB, throughput 0.997655
Reading from 12200: heap size 354 MB, throughput 0.99497
Reading from 12200: heap size 339 MB, throughput 0.995674
Reading from 12200: heap size 324 MB, throughput 0.981894
Reading from 12200: heap size 334 MB, throughput 0.981641
Reading from 12200: heap size 347 MB, throughput 0.990853
Equal recommendation: 894 MB each
Reading from 12200: heap size 360 MB, throughput 0.997508
Reading from 12200: heap size 371 MB, throughput 0.996941
Reading from 12200: heap size 381 MB, throughput 0.997459
Reading from 12200: heap size 364 MB, throughput 0.997416
Reading from 12200: heap size 348 MB, throughput 0.996363
Reading from 12200: heap size 333 MB, throughput 0.994227
Reading from 12200: heap size 318 MB, throughput 0.979804
Reading from 12200: heap size 329 MB, throughput 0.9822
Reading from 12200: heap size 342 MB, throughput 0.989568
Reading from 12200: heap size 355 MB, throughput 0.985151
Reading from 12200: heap size 369 MB, throughput 0.998352
Reading from 12200: heap size 382 MB, throughput 0.997578
Reading from 12198: heap size 640 MB, throughput 0.991019
Reading from 12200: heap size 393 MB, throughput 0.997435
Reading from 12200: heap size 375 MB, throughput 0.997221
Reading from 12200: heap size 359 MB, throughput 0.994815
Reading from 12200: heap size 343 MB, throughput 0.983149
Reading from 12200: heap size 353 MB, throughput 0.98304
Reading from 12200: heap size 367 MB, throughput 0.991155
Reading from 12200: heap size 380 MB, throughput 0.989427
Reading from 12200: heap size 394 MB, throughput 0.998335
Reading from 12200: heap size 406 MB, throughput 0.997588
Reading from 12200: heap size 388 MB, throughput 0.995963
Reading from 12198: heap size 640 MB, throughput 0.978049
Reading from 12200: heap size 371 MB, throughput 0.996352
Reading from 12198: heap size 643 MB, throughput 0.938124
Client 12198 died
Clients: 1
Reading from 12200: heap size 354 MB, throughput 0.995344
Reading from 12200: heap size 339 MB, throughput 0.983024
Reading from 12200: heap size 349 MB, throughput 0.982217
Reading from 12200: heap size 362 MB, throughput 0.986511
Reading from 12200: heap size 377 MB, throughput 0.996804
Reading from 12200: heap size 390 MB, throughput 0.995923
Reading from 12200: heap size 402 MB, throughput 0.995202
Reading from 12200: heap size 413 MB, throughput 0.996801
Reading from 12200: heap size 394 MB, throughput 0.99527
Reading from 12200: heap size 377 MB, throughput 0.977326
Reading from 12200: heap size 390 MB, throughput 0.976283
Reading from 12200: heap size 408 MB, throughput 0.987021
Reading from 12200: heap size 427 MB, throughput 0.995781
Reading from 12200: heap size 444 MB, throughput 0.996411
Reading from 12200: heap size 459 MB, throughput 0.996343
Recommendation: one client; give it all the memory
Reading from 12200: heap size 473 MB, throughput 0.997188
Reading from 12200: heap size 451 MB, throughput 0.993202
Reading from 12200: heap size 431 MB, throughput 0.979984
Reading from 12200: heap size 446 MB, throughput 0.987431
Reading from 12200: heap size 463 MB, throughput 0.995654
Reading from 12200: heap size 479 MB, throughput 0.996545
Reading from 12200: heap size 493 MB, throughput 0.997897
Reading from 12200: heap size 470 MB, throughput 0.997322
Client 12200 died
Clients: 0
Recommendation: no clients; no recommendation
Recommendation: no clients; no recommendation
ReadingThread: finished
TimerThread: finished
CommandThread: finished
Main: All threads killed, cleaning up
