1413210285589 0 TOTAL_MEM 1116
1413210306627 8596 CREATION
1413210306627 8596 READING 9 0.999093
1413210306627 8596 MINHEAP 2
1413210306627 8596 MINHEAP 3
1413210306721 8595 CREATION
1413210306721 8595 READING 9 0.999011
1413210306721 8595 MINHEAP 2
1413210306721 8595 MINHEAP 276
1413210306927 8596 READING 9 0.996968
1413210306962 8596 READING 9 0.965806
1413210307022 8596 READING 9 0.978897
1413210307105 8595 READING 9 0.996948
1413210307173 8596 READING 11 0.989748
1413210307199 8595 READING 9 0.988011
1413210307225 8595 READING 9 0.966070
1413210307314 8596 READING 11 0.986882
1413210307469 8595 READING 9 0.996408
1413210307532 8596 READING 16 0.986746
1413210307565 8595 READING 9 0.985902
1413210307627 8596 READING 16 0.975036
1413210307693 8595 READING 10 0.977864
1413210307736 8595 READING 10 0.806174
1413210307792 8595 READING 12 0.925266
1413210307815 8596 READING 24 0.982615
1413210307833 8595 READING 12 0.796560
1413210307964 8596 READING 24 0.988056
1413210307989 8595 READING 15 0.638670
1413210308125 8595 READING 19 0.967304
1413210308177 8596 READING 33 0.993623
1413210308208 8595 READING 22 0.933878
1413210308330 8596 READING 33 0.990183
1413210308438 8595 READING 23 0.475236
1413210308561 8596 READING 48 0.996172
1413210308609 8595 READING 34 0.742669
1413210308730 8595 READING 34 0.948894
1413210308780 8596 READING 45 0.994051
1413210308903 8596 READING 43 0.992954
1413210308990 8595 READING 38 0.461691
1413210309088 8596 READING 42 0.992284
1413210309121 8595 READING 47 0.796722
1413210309204 8596 READING 40 0.992711
1413210309352 8596 READING 38 0.993999
1413210309415 8595 READING 51 0.344862
1413210309457 8596 READING 38 0.990876
1413210309501 8595 READING 65 0.844453
1413210309556 8595 READING 70 0.861073
1413210309574 8596 READING 37 0.986474
1413210309711 8596 READING 36 0.994446
1413210309812 8595 READING 70 0.273011
1413210309855 8596 READING 34 0.981540
1413210309957 8596 READING 34 0.988349
1413210309997 8595 READING 94 0.849805
1413210310050 8596 READING 33 0.990055
1413210310120 8595 READING 94 0.768374
1413210310132 8596 READING 31 0.991036
1413210310219 8595 READING 95 0.808656
1413210310224 8596 READING 32 0.987802
1413210310286 8596 READING 30 0.979529
1413210310329 8595 READING 98 0.710442
1413210310357 8596 READING 35 0.982599
1413210310420 8596 READING 37 0.980362
1413210310489 8596 READING 37 0.982121
1413210310592 8596 READING 46 0.992023
1413210310721 8595 READING 99 0.242368
1413210310740 8596 READING 46 0.991130
1413210310860 8595 READING 131 0.544996
1413210310893 8596 READING 58 0.991973
1413210310945 8595 READING 133 0.651555
1413210311012 8596 READING 58 0.988818
1413210311070 8595 READING 134 0.695965
1413210311172 8595 READING 137 0.592534
1413210311189 8596 READING 70 0.992827
1413210311334 8596 READING 67 0.995398
1413210311514 8596 READING 64 0.995601
1413210311668 8596 READING 62 0.994799
1413210311790 8595 READING 142 0.082002
1413210311803 8596 READING 59 0.992332
1413210311897 8595 READING 177 0.676793
1413210311907 8596 READING 57 0.992141
1413210311981 8595 READING 178 0.632641
1413210311989 8596 READING 55 0.988946
1413210312069 8595 READING 179 0.662283
1413210312070 8596 READING 53 0.988791
1413210312136 8596 READING 51 0.987889
1413210312164 8595 READING 180 0.802004
1413210312210 8596 READING 50 0.990982
1413210312257 8595 READING 181 0.618867
1413210312281 8596 READING 48 0.987677
1413210312344 8596 READING 46 0.983250
1413210312459 8596 READING 54 0.990209
1413210312586 8596 READING 65 0.991323
1413210312754 8596 READING 63 0.990981
1413210312755 8595 READING 187 0.918982
1413210312850 8596 READING 60 0.990925
1413210312982 8596 READING 57 0.990948
1413210313090 8596 READING 56 0.988382
1413210313187 8596 READING 54 0.986819
1413210313300 8596 READING 64 0.992028
1413210313419 8596 READING 61 0.992977
1413210313517 8596 READING 59 0.990062
1413210313628 8596 READING 57 0.991858
1413210313769 8595 READING 188 0.388814
1413210313773 8596 READING 55 0.991951
1413210313894 8596 READING 52 0.990232
1413210314026 8596 READING 51 0.990239
1413210314049 8595 READING 231 0.771014
1413210314110 8596 READING 49 0.982873
1413210314191 8595 READING 236 0.655777
1413210314210 8596 READING 57 0.989617
1413210314246 8595 READING 238 0.493767
1413210314293 8596 READING 64 0.988213
1413210314385 8595 READING 242 0.803104
1413210314398 8596 READING 64 0.991058
1413210314442 8595 READING 242 0.638653
1413210314477 8596 READING 62 0.989519
1413210314541 8596 READING 59 0.988213
1413210314602 8595 READING 243 0.747763
1413210314602 8596 READING 57 0.983246
1413210314679 8596 READING 67 0.989830
1413210314711 8595 READING 244 0.716236
1413210314768 8596 READING 75 0.991243
1413210314861 8595 READING 243 0.752934
1413210314870 8596 READING 75 0.989156
1413210314979 8596 READING 89 0.992034
1413210315057 8595 READING 245 0.807781
1413210315101 8596 READING 85 0.833081
1413210315159 8595 READING 246 0.697351
1413210315217 8596 READING 81 0.992094
1413210315264 8595 READING 249 0.669955
1413210315368 8595 READING 254 0.745440
1413210315369 8596 READING 88 0.987843
1413210315473 8595 READING 256 0.737213
1413210315473 8596 READING 95 0.987723
1413210315574 8596 READING 95 0.988795
1413210315589 8596 FUNCTION lru lambda h: 1.00774 * (h ** 0.001)
1413210315589 8595 FUNCTION lru lambda h: 0.873853 * (h ** 0.001)
1413210315589 8596 RECOMMEND 558
1413210315589 8595 RECOMMEND 558
1413210315753 8596 READING 108 0.987537
1413210315945 8596 READING 109 0.993852
1413210316064 8595 READING 254 0.140555
1413210316099 8596 READING 104 0.991960
1413210316207 8596 READING 99 0.990268
1413210316334 8596 READING 114 0.992909
1413210316453 8596 READING 110 0.992472
1413210316467 8595 READING 295 0.903280
1413210316578 8596 READING 105 0.992400
1413210316688 8596 READING 100 0.990837
1413210316697 8595 READING 299 0.874803
1413210316781 8595 READING 299 0.775221
1413210316800 8596 READING 95 0.989836
1413210316881 8595 READING 298 0.710586
1413210316933 8596 READING 111 0.991550
1413210316974 8595 READING 300 0.769541
1413210317050 8596 READING 105 0.990241
1413210317069 8595 READING 301 0.817211
1413210317193 8596 READING 121 0.993160
1413210317355 8596 READING 116 0.990369
1413210317373 8595 READING 302 0.867489
1413210317489 8596 READING 111 0.989236
1413210317553 8595 READING 303 0.839058
1413210317661 8595 READING 305 0.557696
1413210317665 8596 READING 121 0.993400
1413210317768 8595 READING 306 0.532096
1413210317850 8596 READING 115 0.992335
1413210317861 8595 READING 310 0.618579
1413210317953 8595 READING 317 0.682500
1413210317986 8596 READING 110 0.993485
1413210318054 8595 READING 317 0.627224
1413210318103 8596 READING 105 0.991428
1413210318157 8595 READING 326 0.706798
1413210318218 8596 READING 101 0.992631
1413210318325 8596 READING 96 0.987620
1413210318518 8596 READING 111 0.993078
1413210318665 8596 READING 106 0.992915
1413210318827 8596 READING 101 0.984207
1413210318986 8596 READING 117 0.991154
1413210319153 8596 READING 118 0.994526
1413210319425 8596 READING 118 0.996194
1413210319566 8595 READING 326 0.971027
1413210319636 8596 READING 112 0.993311
1413210319777 8596 READING 107 0.989564
1413210319888 8596 READING 103 0.987662
1413210320060 8596 READING 118 0.993085
1413210320222 8596 READING 113 0.992097
1413210320356 8596 READING 108 0.992827
1413210320469 8596 READING 104 0.989891
1413210320580 8596 READING 99 0.990598
1413210320682 8596 READING 95 0.985801
1413210320807 8596 READING 110 0.991316
1413210320951 8595 READING 334 0.978836
1413210320957 8596 READING 127 0.993668
1413210321101 8596 READING 130 0.992919
1413210321246 8596 READING 124 0.991921
1413210321377 8596 READING 119 0.991328
1413210321508 8596 READING 114 0.989735
1413210321623 8596 READING 109 0.991317
1413210321735 8596 READING 104 0.990363
1413210321863 8596 READING 120 0.991772
1413210321982 8596 READING 115 0.988660
1413210322127 8596 READING 132 0.993862
1413210322198 8595 READING 336 0.964397
1413210322268 8596 READING 126 0.993214
1413210322399 8596 READING 121 0.992381
1413210322520 8596 READING 115 0.991496
1413210322638 8596 READING 110 0.991957
1413210322750 8596 READING 105 0.992062
1413210322861 8596 READING 101 0.992564
1413210322968 8596 READING 96 0.990553
1413210323063 8596 READING 92 0.989894
1413210323154 8596 READING 88 0.990164
1413210323242 8596 READING 85 0.990128
1413210323351 8596 READING 97 0.989048
1413210323474 8596 READING 112 0.992089
1413210323488 8595 READING 342 0.972062
1413210323619 8596 READING 129 0.992812
1413210323751 8596 READING 124 0.993256
1413210323875 8596 READING 118 0.992033
1413210323995 8596 READING 114 0.992638
1413210324325 8596 READING 108 0.995513
1413210324509 8596 READING 104 0.991154
1413210324594 8595 READING 343 0.947265
1413210324702 8596 READING 99 0.995289
1413210324805 8596 READING 95 0.985880
1413210324908 8596 READING 91 0.990862
1413210325021 8596 READING 87 0.992351
1413210325111 8596 READING 84 0.987573
1413210325211 8596 READING 96 0.988378
1413210325328 8596 READING 111 0.991563
1413210325467 8596 READING 129 0.992192
1413210325589 8596 FUNCTION lru lambda h: 0.97844 * (h ** 0.00258559)
1413210325589 8595 FUNCTION lru lambda h: 0.68509 * (h ** 0.001)
1413210325589 8596 RECOMMEND 558
1413210325589 8595 RECOMMEND 558
1413210325608 8596 READING 132 0.993097
1413210325742 8596 READING 126 0.993409
1413210325906 8596 READING 120 0.993714
1413210326037 8596 READING 115 0.989348
1413210326041 8595 READING 343 0.962834
1413210326153 8596 READING 110 0.992095
1413210326265 8596 READING 105 0.988986
1413210326400 8596 READING 121 0.992503
1413210326524 8596 READING 116 0.992525
1413210326644 8596 READING 111 0.991364
1413210326756 8596 READING 106 0.991339
1413210326864 8596 READING 101 0.990696
1413210326967 8596 READING 97 0.989178
1413210327087 8596 READING 111 0.991232
1413210327223 8596 READING 127 0.991296
1413210327305 8595 READING 346 0.959273
1413210327367 8596 READING 129 0.993052
1413210327496 8596 READING 123 0.991476
1413210327622 8596 READING 117 0.991172
1413210327741 8596 READING 112 0.992075
1413210327854 8596 READING 107 0.992248
1413210327962 8596 READING 103 0.991491
1413210328065 8596 READING 98 0.990789
1413210328165 8596 READING 94 0.992014
1413210328259 8596 READING 90 0.991510
1413210328349 8596 READING 86 0.990710
1413210328433 8596 READING 83 0.990327
1413210328516 8596 READING 79 0.989734
1413210328596 8596 READING 76 0.987228
1413210328628 8595 READING 345 0.958099
1413210328687 8596 READING 88 0.990469
1413210328790 8596 READING 101 0.990625
1413210328915 8596 READING 116 0.992217
1413210329041 8596 READING 121 0.992108
1413210329175 8596 READING 121 0.991913
1413210329300 8596 READING 115 0.991806
1413210329418 8596 READING 110 0.990559
1413210329528 8596 READING 105 0.992624
1413210329638 8596 READING 101 0.991538
1413210329742 8596 READING 96 0.990170
1413210329838 8596 READING 92 0.991118
1413210329929 8596 READING 88 0.990734
1413210330006 8595 READING 347 0.962002
1413210330019 8596 READING 85 0.990552
1413210330103 8596 READING 81 0.990277
1413210330181 8596 READING 78 0.989991
1413210330272 8596 READING 89 0.989232
1413210330380 8596 READING 103 0.992899
1413210330507 8596 READING 118 0.993306
1413210330629 8596 READING 113 0.990551
1413210330747 8596 READING 108 0.988200
1413210330885 8596 READING 125 0.992118
1413210331024 8596 READING 133 0.991962
1413210331163 8596 READING 133 0.992198
1413210331297 8596 READING 127 0.990958
1413210331425 8596 READING 121 0.993499
1413210331549 8596 READING 116 0.991115
1413210331593 8595 READING 350 0.971567
1413210331687 8596 READING 111 0.993164
1413210331798 8596 READING 106 0.990481
1413210331905 8596 READING 101 0.990693
1413210332004 8596 READING 97 0.991282
1413210332102 8596 READING 93 0.990784
1413210332194 8596 READING 89 0.988646
1413210332301 8596 READING 102 0.990713
1413210332428 8596 READING 118 0.993014
1413210332548 8596 READING 113 0.990729
1413210332662 8596 READING 108 0.989816
1413210332792 8596 READING 124 0.991944
1413210332920 8596 READING 118 0.991677
1413210333109 8596 READING 113 0.992535
1413210333237 8596 READING 108 0.989745
1413210333411 8596 READING 104 0.994105
1413210333548 8596 READING 99 0.990071
1413210333630 8595 READING 351 0.655691
1413210333680 8596 READING 95 0.992845
1413210333776 8596 READING 91 0.989076
1413210333868 8596 READING 87 0.990816
1413210333954 8596 READING 84 0.990234
1413210334056 8596 READING 96 0.990728
1413210334170 8596 READING 111 0.990186
1413210334312 8596 READING 128 0.991824
1413210334463 8596 READING 141 0.993286
1413210334617 8596 READING 134 0.904549
1413210334757 8596 READING 127 0.992538
1413210334889 8596 READING 123 0.991254
1413210335005 8595 READING 394 0.961229
1413210335028 8596 READING 117 0.991239
1413210335256 8596 READING 112 0.995381
1413210335478 8596 READING 107 0.995501
1413210335590 8596 FUNCTION lru lambda h: 0.984357 * (h ** 0.00110135)
1413210335664 8595 FUNCTION lru lambda h: 0.620744 * (h ** 0.0211654)
1413210335664 8596 RECOMMEND 558
1413210335664 8595 RECOMMEND 558
1413210335761 8596 READING 102 0.996351
1413210335862 8596 READING 98 0.987712
1413210335959 8596 READING 94 0.989523
1413210336154 8596 READING 90 0.960164
1413210336160 8595 READING 395 0.988601
1413210336394 8596 READING 105 0.912589
1413210336647 8596 READING 123 0.996574
1413210336814 8596 READING 135 0.988314
1413210336968 8596 READING 140 0.991518
1413210337118 8596 READING 140 0.992847
1413210337290 8596 READING 158 0.992264
1413210337458 8596 READING 158 0.992778
1413210337633 8595 READING 400 0.982284
1413210337652 8596 READING 177 0.993540
1413210337840 8596 READING 178 0.993599
1413210338054 8596 READING 199 0.993644
1413210338271 8596 READING 199 0.992659
1413210338521 8596 READING 222 0.993945
1413210338785 8596 READING 222 0.992337
1413210339060 8596 READING 248 0.995365
1413210339332 8596 READING 248 0.994324
1413210339642 8596 READING 276 0.992779
1413210339946 8595 READING 401 0.984047
1413210339956 8596 READING 276 0.995127
1413210340294 8596 READING 307 0.994764
1413210340455 8595 READING 401 0.941103
1413210340593 8595 READING 403 0.767378
1413210340636 8596 READING 307 0.994465
1413210340721 8595 READING 404 0.749632
1413210340847 8595 READING 409 0.759902
1413210340969 8596 READING 293 0.990858
1413210341223 8595 READING 418 0.918908
1413210341352 8596 READING 326 0.995332
1413210341724 8596 READING 338 0.995410
1413210342130 8596 READING 323 0.995815
1413210342486 8596 READING 307 0.995634
1413210342644 8595 READING 421 0.979331
1413210342821 8596 READING 293 0.995671
1413210343130 8596 READING 279 0.995263
1413210343420 8596 READING 266 0.994651
1413210343728 8596 READING 253 0.994878
1413210343998 8596 READING 241 0.995427
1413210344308 8595 READING 422 0.914853
1413210344370 8596 READING 230 0.996396
1413210344659 8596 READING 219 0.995804
1413210344889 8596 READING 209 0.994416
1413210345107 8596 READING 200 0.994613
1413210345325 8596 READING 191 0.994072
1413210345525 8596 READING 182 0.993393
1413210345665 8596 FUNCTION lru lambda h: 0.974006 * (h ** 0.00343331)
1413210345665 8595 FUNCTION lru lambda h: 0.55992 * (h ** 0.0469883)
1413210345665 8596 RECOMMEND 558
1413210345665 8595 RECOMMEND 558
1413210345782 8596 READING 174 0.994422
1413210345963 8596 READING 166 0.992933
1413210345972 8595 READING 425 0.976059
1413210346145 8596 READING 158 0.993371
1413210346342 8596 READING 175 0.994240
1413210346526 8596 READING 167 0.989105
1413210346730 8596 READING 186 0.994458
1413210346965 8596 READING 207 0.994176
1413210347221 8596 READING 230 0.994917
1413210347460 8596 READING 220 0.994295
1413210347787 8595 READING 423 0.989201
1413210347966 8596 READING 210 0.996858
1413210348187 8596 READING 200 0.991634
1413210348396 8596 READING 191 0.994578
1413210348591 8596 READING 182 0.993380
1413210348813 8596 READING 202 0.994245
1413210349054 8596 READING 223 0.991384
1413210349333 8596 READING 248 0.994098
1413210349636 8596 READING 276 0.994636
1413210349644 8595 READING 426 0.975440
1413210350034 8596 READING 306 0.996036
1413210350354 8596 READING 291 0.994805
1413210350655 8596 READING 278 0.991927
1413210350998 8596 READING 307 0.994688
1413210351348 8595 READING 427 0.970661
1413210351354 8596 READING 320 0.994900
1413210351717 8596 READING 305 0.994131
1413210352053 8596 READING 291 0.946904
1413210352360 8596 READING 277 0.994800
1413210352647 8596 READING 265 0.995055
1413210352922 8596 READING 253 0.994923
1413210353077 8595 READING 429 0.977388
1413210353201 8596 READING 240 0.995439
1413210353449 8596 READING 229 0.993938
1413210353684 8596 READING 219 0.994606
1413210353909 8596 READING 209 0.993744
1413210354126 8596 READING 199 0.993599
1413210354327 8596 READING 190 0.993941
1413210354524 8596 READING 181 0.993937
1413210354705 8596 READING 174 0.992248
1413210354885 8596 READING 166 0.992827
1413210354909 8595 READING 433 0.975340
1413210355061 8596 READING 158 0.992786
1413210355223 8596 READING 151 0.993687
1413210355376 8596 READING 145 0.993373
1413210355521 8596 READING 138 0.992934
1413210355662 8596 READING 132 0.992050
1413210355665 8596 FUNCTION lru lambda h: 0.96194 * (h ** 0.00584729)
1413210355665 8595 FUNCTION lru lambda h: 0.51932 * (h ** 0.0655861)
1413210355665 8596 RECOMMEND 558
1413210355665 8595 RECOMMEND 558
1413210355796 8596 READING 126 0.992891
1413210355922 8596 READING 120 0.990981
1413210356064 8596 READING 135 0.992682
1413210356227 8596 READING 152 0.992406
1413210356410 8596 READING 171 0.993214
1413210357521 8596 READING 192 0.998875
1413210357612 8595 READING 433 0.577070
1413210357716 8596 READING 183 0.994046
1413210357903 8596 READING 174 0.992292
1413210358122 8596 READING 167 0.994027
1413210358318 8596 READING 159 0.993257
1413210358482 8596 READING 152 0.993776
1413210358636 8596 READING 145 0.993004
1413210358784 8596 READING 139 0.989827
1413210358987 8596 READING 155 0.910645
1413210359182 8596 READING 175 0.992720
1413210359352 8595 READING 437 0.936154
1413210359404 8596 READING 166 0.911798
1413210359587 8596 READING 159 0.925887
1413210359770 8596 READING 152 0.879597
1413210359970 8596 READING 145 0.993121
1413210360116 8596 READING 138 0.988142
1413210360281 8596 READING 156 0.993263
1413210360469 8596 READING 175 0.993317
1413210360678 8596 READING 198 0.993763
1413210360916 8596 READING 222 0.994088
1413210361145 8596 READING 212 0.994026
1413210361361 8596 READING 202 0.994254
1413210361565 8596 READING 193 0.993002
1413210361759 8596 READING 184 0.993385
1413210361950 8596 READING 175 0.958493
1413210361972 8595 READING 437 0.986673
1413210362166 8596 READING 202 0.994469
1413210362224 8595 READING 442 0.899813
1413210362385 8595 READING 444 0.793783
1413210362420 8596 READING 233 0.995074
1413210362547 8595 READING 453 0.837192
1413210362711 8596 READING 266 0.994985
1413210363041 8596 READING 304 0.995266
1413210363384 8596 READING 315 0.995227
1413210363727 8596 READING 316 0.995257
1413210363786 8595 READING 455 0.979845
1413210364053 8596 READING 301 0.994168
1413210364364 8596 READING 287 0.995387
1413210364661 8596 READING 273 0.995271
1413210364943 8596 READING 260 0.993163
1413210365211 8596 READING 248 0.994700
1413210365460 8596 READING 236 0.995059
1413210365665 8596 FUNCTION lru lambda h: 0.949782 * (h ** 0.00787419)
1413210365665 8595 FUNCTION lru lambda h: 0.508449 * (h ** 0.0707202)
1413210365665 8596 RECOMMEND 558
1413210365665 8595 RECOMMEND 558
1413210365703 8596 READING 225 0.992155
1413210365933 8596 READING 215 0.994423
1413210366138 8595 READING 464 0.981152
1413210366156 8596 READING 205 0.993750
1413210366363 8596 READING 195 0.994839
1413210366561 8596 READING 186 0.993648
1413210366750 8596 READING 178 0.993723
1413210366951 8596 READING 170 0.992735
1413210367125 8596 READING 162 0.993788
1413210367287 8596 READING 154 0.992611
1413210367444 8596 READING 147 0.993539
1413210368177 8596 READING 141 0.998563
1413210368318 8595 READING 466 0.945554
1413210368354 8596 READING 135 0.991220
1413210368547 8596 READING 129 0.994390
1413210368702 8596 READING 123 0.993944
1413210368841 8596 READING 118 0.870558
1413210369011 8596 READING 138 0.864465
1413210369337 8596 READING 163 0.909459
1413210369549 8596 READING 193 0.992529
1413210369816 8596 READING 228 0.932658
1413210370114 8596 READING 269 0.995407
1413210370467 8595 READING 472 0.986223
1413210370490 8596 READING 317 0.985259
1413210370942 8596 READING 340 0.995335
1413210371397 8596 READING 374 0.994574
1413210371846 8596 READING 374 0.994506
1413210372258 8596 READING 377 0.994291
1413210372670 8596 READING 378 0.995680
1413210372717 8595 READING 474 0.985251
1413210373091 8596 READING 378 0.993333
1413210373534 8596 READING 378 0.995667
1413210373947 8596 READING 378 0.995698
1413210374361 8596 READING 378 0.994912
1413210374771 8596 READING 378 0.995770
1413210375057 8595 READING 474 0.982973
1413210375200 8596 READING 378 0.995541
1413210375587 8596 READING 359 0.994734
1413210375665 8596 FUNCTION lru lambda h: 0.896931 * (h ** 0.0180695)
1413210375665 8595 FUNCTION lru lambda h: 0.48989 * (h ** 0.0796471)
1413210375665 8596 RECOMMEND 558
1413210375665 8595 RECOMMEND 558
1413210375955 8596 READING 342 0.994932
1413210376312 8596 READING 325 0.994836
1413210377288 8596 READING 310 0.998170
1413210377833 8595 READING 477 0.833725
1413210377851 8596 READING 296 0.993815
1413210378182 8596 READING 282 0.995252
1413210378483 8596 READING 268 0.994987
1413210378808 8596 READING 256 0.995485
1413210379075 8596 READING 244 0.994862
1413210379338 8596 READING 232 0.994357
1413210379582 8596 READING 222 0.994155
1413210379810 8596 READING 212 0.993007
1413210380025 8596 READING 202 0.993939
1413210380266 8595 READING 482 0.985083
1413210380273 8596 READING 193 0.994661
1413210380506 8596 READING 184 0.994243
1413210380826 8596 READING 176 0.995576
1413210381007 8596 READING 168 0.993631
1413210381204 8596 READING 160 0.989040
1413210381375 8596 READING 153 0.953744
1413210381547 8596 READING 146 0.895036
1413210381693 8596 READING 139 0.991245
1413210381855 8596 READING 133 0.916969
1413210382021 8596 READING 127 0.809273
1413210382171 8596 READING 122 0.898811
1413210382299 8596 READING 117 0.984558
1413210382462 8596 READING 131 0.835960
1413210382617 8596 READING 147 0.991566
1413210382862 8596 READING 165 0.891663
1413210383036 8596 READING 158 0.991290
1413210383095 8595 READING 482 0.989875
1413210383212 8596 READING 151 0.933271
1413210383358 8595 READING 486 0.894930
1413210383395 8596 READING 144 0.993721
1413210383594 8596 READING 138 0.834056
1413210383610 8595 READING 488 0.656872
1413210383827 8596 READING 131 0.619564
1413210384025 8596 READING 127 0.993573
1413210384171 8596 READING 121 0.868228
1413210384315 8596 READING 133 0.991827
1413210384455 8596 READING 128 0.992586
1413210384587 8596 READING 122 0.991392
1413210384706 8596 READING 116 0.991937
1413210384823 8596 READING 112 0.993137
1413210384935 8596 READING 106 0.992371
1413210385040 8596 READING 102 0.989796
1413210385161 8596 READING 116 0.992364
1413210385246 8595 READING 498 0.986572
1413210385309 8596 READING 132 0.992893
1413210385444 8596 READING 126 0.991516
1413210385572 8596 READING 120 0.992798
1413210385665 8596 FUNCTION lru lambda h: 0.77449 * (h ** 0.0442692)
1413210385665 8595 FUNCTION lru lambda h: 0.482555 * (h ** 0.083226)
1413210385665 8596 RECOMMEND 558
1413210385665 8595 RECOMMEND 558
1413210385693 8596 READING 115 0.992569
1413210385809 8596 READING 110 0.991656
1413210385919 8596 READING 106 0.990225
1413210386049 8596 READING 120 0.992413
1413210386194 8596 READING 137 0.992983
1413210386333 8596 READING 131 0.992630
1413210386464 8596 READING 125 0.992311
1413210386590 8596 READING 119 0.992217
1413210386712 8596 READING 114 0.992212
1413210386827 8596 READING 109 0.990385
1413210386958 8596 READING 124 0.992661
1413210387086 8596 READING 119 0.991517
1413210387232 8596 READING 135 0.992877
1413210387370 8596 READING 130 0.993561
1413210387503 8596 READING 124 0.991253
1413210387621 8595 READING 499 0.989812
1413210387645 8596 READING 118 0.991954
1413210387765 8596 READING 113 0.991319
1413210387901 8596 READING 129 0.992662
1413210388030 8596 READING 123 0.992410
1413210388154 8596 READING 118 0.991743
1413210388298 8596 READING 134 0.992823
1413210388433 8596 READING 128 0.992929
1413210388562 8596 READING 122 0.992781
1413210388690 8596 READING 117 0.991750
1413210388807 8596 READING 112 0.992244
1413210388919 8596 READING 107 0.991868
1413210389029 8596 READING 102 0.992411
1413210389134 8596 READING 98 0.990567
1413210389252 8596 READING 111 0.992228
1413210389363 8596 READING 106 0.991168
1413210389491 8596 READING 120 0.992737
1413210389615 8596 READING 115 0.992578
1413210389732 8596 READING 110 0.991714
1413210389845 8596 READING 106 0.991498
1413210389949 8596 READING 101 0.990816
1413210390073 8596 READING 115 0.991388
1413210390211 8596 READING 131 0.993115
1413210390487 8595 READING 505 0.993656
1413210390602 8596 READING 125 0.997159
1413210391167 8596 READING 119 0.998265
1413210391349 8596 READING 114 0.993980
1413210391555 8596 READING 110 0.994740
1413210391671 8596 READING 105 0.992611
1413210391779 8596 READING 100 0.991828
1413210391882 8596 READING 96 0.991042
1413210391985 8596 READING 92 0.991518
1413210392086 8596 READING 88 0.991138
1413210392176 8596 READING 85 0.990091
1413210392279 8596 READING 96 0.991353
1413210392400 8596 READING 109 0.988080
1413210392537 8596 READING 125 0.992721
1413210392698 8596 READING 143 0.993272
1413210392884 8596 READING 162 0.993702
1413210393056 8596 READING 154 0.993935
1413210393222 8596 READING 147 0.994307
1413210393357 8595 READING 508 0.983531
1413210393388 8596 READING 141 0.993276
1413210393528 8596 READING 135 0.993936
1413210393668 8596 READING 128 0.992682
1413210393804 8596 READING 123 0.993304
1413210393932 8596 READING 117 0.991554
1413210394056 8596 READING 112 0.991342
1413210394172 8596 READING 107 0.990967
1413210394285 8596 READING 103 0.990297
1413210394410 8596 READING 117 0.987639
1413210394555 8596 READING 133 0.993168
1413210394720 8596 READING 152 0.993202
1413210394909 8596 READING 174 0.993149
1413210395096 8596 READING 165 0.994231
1413210395266 8596 READING 158 0.993649
1413210395432 8596 READING 151 0.993516
1413210395588 8596 READING 144 0.993363
1413210395666 8596 FUNCTION lru lambda h: 0.928296 * (h ** 0.0114717)
1413210395666 8595 FUNCTION lru lambda h: 0.470895 * (h ** 0.0889737)
1413210395666 8596 RECOMMEND 558
1413210395666 8595 RECOMMEND 558
1413210395820 8596 READING 137 0.995256
1413210396036 8596 READING 132 0.993978
1413210396170 8596 READING 125 0.989368
1413210396295 8596 READING 120 0.987021
1413210396318 8595 READING 508 0.988005
1413210396449 8596 READING 137 0.989993
1413210396621 8596 READING 156 0.993132
1413210396815 8596 READING 179 0.994299
1413210397014 8596 READING 171 0.909276
1413210397241 8596 READING 163 0.995323
1413210397405 8596 READING 156 0.993824
1413210397565 8596 READING 149 0.993259
1413210397717 8596 READING 143 0.993605
1413210397862 8596 READING 135 0.992726
1413210397997 8596 READING 130 0.993867
1413210398128 8596 READING 125 0.992688
1413210398252 8596 READING 119 0.992721
1413210398371 8596 READING 114 0.992121
1413210398485 8596 READING 109 0.991776
1413210398592 8596 READING 104 0.991633
1413210398696 8596 READING 100 0.991446
1413210398805 8595 READING 511 0.983695
1413210398814 8596 READING 96 0.992603
1413210398911 8596 READING 92 0.990688
1413210399001 8596 READING 88 0.990992
1413210399092 8596 READING 84 0.988863
1413210399192 8596 READING 96 0.989538
1413210399308 8596 READING 110 0.992482
1413210399440 8596 READING 126 0.993111
1413210399571 8596 READING 121 0.993775
1413210399691 8596 READING 116 0.991466
1413210399814 8596 READING 111 0.992064
1413210399926 8596 READING 106 0.991910
1413210400033 8596 READING 102 0.990568
1413210400134 8596 READING 97 0.991686
1413210400230 8596 READING 93 0.989382
1413210400339 8596 READING 106 0.991962
1413210400467 8596 READING 122 0.991332
1413210400614 8596 READING 139 0.992619
1413210400754 8596 READING 134 0.993050
1413210400888 8596 READING 127 0.992526
1413210401016 8596 READING 122 0.991597
1413210401137 8596 READING 116 0.992232
1413210401253 8596 READING 112 0.991860
1413210401364 8596 READING 106 0.991835
1413210401481 8596 READING 102 0.887676
1413210401496 8595 READING 515 0.987473
1413210401617 8596 READING 120 0.992703
1413210401766 8596 READING 141 0.992091
1413210401942 8596 READING 165 0.993867
1413210402151 8596 READING 193 0.994273
1413210402393 8596 READING 224 0.993767
1413210402674 8596 READING 262 0.994330
1413210402994 8596 READING 294 0.994377
1413210403315 8596 READING 294 0.995148
1413210404566 8595 READING 516 0.817035
1413210404786 8595 READING 522 0.930063
1413210405097 8595 READING 522 0.621973
1413210405314 8596 READING 338 0.961288
1413210405666 8596 FUNCTION lru lambda h: 0.954645 * (h ** 0.00612896)
1413210405666 8595 FUNCTION lru lambda h: 0.465336 * (h ** 0.0917532)
1413210405666 8596 RECOMMEND 558
1413210405666 8595 RECOMMEND 558
1413210405686 8596 READING 322 0.964526
1413210406023 8596 READING 305 0.991561
1413210406401 8596 READING 293 0.995831
1413210406732 8596 READING 278 0.994442
1413210407024 8596 READING 265 0.990558
1413210407316 8596 READING 252 0.994670
1413210407575 8596 READING 240 0.994199
1413210407833 8596 READING 229 0.994780
1413210408087 8596 READING 219 0.994582
1413210408228 8595 READING 535 0.989675
1413210408321 8596 READING 209 0.994351
1413210408668 8596 READING 199 0.993236
1413210408887 8596 READING 191 0.955747
1413210409126 8596 READING 222 0.994331
1413210409405 8596 READING 259 0.994922
1413210409729 8596 READING 301 0.995145
1413210410090 8596 READING 329 0.995441
1413210410447 8596 READING 329 0.994675
1413210410791 8596 READING 314 0.994548
1413210411120 8596 READING 299 0.995152
1413210411233 8595 READING 535 0.987319
1413210411438 8596 READING 284 0.994843
1413210411733 8596 READING 271 0.995397
1413210412015 8596 READING 258 0.994837
1413210412281 8596 READING 246 0.995438
1413210412538 8596 READING 235 0.994473
1413210412786 8596 READING 224 0.994436
1413210413018 8596 READING 213 0.994210
1413210413240 8596 READING 203 0.995195
1413210413448 8596 READING 194 0.993745
1413210413647 8596 READING 184 0.994488
1413210413838 8596 READING 176 0.993874
1413210414017 8596 READING 168 0.993631
1413210414648 8595 READING 546 0.982991
1413210414761 8596 READING 161 0.705687
1413210414926 8596 READING 154 0.990545
1413210415085 8596 READING 147 0.992598
1413210415238 8596 READING 140 0.993105
1413210415386 8596 READING 134 0.958776
1413210415592 8596 READING 156 0.965349
1413210415666 8596 FUNCTION lru lambda h: 0.955393 * (h ** 0.00525236)
1413210415666 8595 FUNCTION lru lambda h: 0.458869 * (h ** 0.0949759)
1413210415666 8596 RECOMMEND 558
1413210415666 8595 RECOMMEND 558
1413210416177 8596 READING 183 0.996914
1413210416615 8596 READING 215 0.996463
1413210416893 8596 READING 250 0.985392
1413210417223 8596 READING 292 0.986630
1413210417633 8596 READING 341 0.995194
1413210417666 8595 READING 547 0.968566
1413210418064 8596 READING 361 0.994720
1413210418504 8596 READING 377 0.993311
1413210419033 8596 READING 377 0.996090
1413210419536 8596 READING 359 0.995873
1413210419948 8596 READING 342 0.995608
1413210420335 8596 READING 325 0.994984
1413210420750 8596 READING 310 0.964791
1413210420895 8595 READING 551 0.954607
1413210421114 8596 READING 296 0.994620
1413210421421 8596 READING 282 0.992800
1413210421714 8596 READING 268 0.994514
1413210421991 8596 READING 256 0.995001
1413210422254 8596 READING 244 0.994659
1413210422502 8596 READING 232 0.994367
1413210422740 8596 READING 221 0.994742
1413210422965 8596 READING 211 0.993487
1413210423185 8596 READING 202 0.993550
1413210423392 8596 READING 192 0.993612
1413210423588 8596 READING 183 0.994014
1413210423774 8596 READING 175 0.993207
1413210423950 8596 READING 167 0.993062
1413210424121 8596 READING 159 0.992825
1413210424285 8596 READING 152 0.993532
1413210424437 8596 READING 145 0.991962
1413210424583 8596 READING 139 0.991533
1413210424725 8595 READING 550 0.988627
1413210424729 8596 READING 132 0.967491
1413210424893 8596 READING 154 0.988399
1413210425666 8596 FUNCTION lru lambda h: 0.938045 * (h ** 0.00931455)
1413210425666 8595 FUNCTION lru lambda h: 0.303041 * (h ** 0.16819)
1413210425666 8596 RECOMMEND 558
1413210425666 8595 RECOMMEND 558
1413210426030 8595 READING 552 0.962340
1413210426300 8596 READING 179 0.878341
1413210426313 8595 READING 546 0.810346
1413210426590 8596 READING 207 0.872424
1413210426898 8596 READING 239 0.887944
1413210427154 8596 READING 228 0.994725
1413210427473 8596 READING 217 0.879726
1413210427714 8596 READING 207 0.964291
1413210427972 8596 READING 198 0.861955
1413210428214 8596 READING 189 0.867740
1413210428439 8596 READING 180 0.919596
1413210428638 8596 READING 172 0.938829
1413210428855 8596 READING 164 0.844760
1413210429046 8596 READING 157 0.919953
1413210429238 8596 READING 150 0.878240
1413210429412 8596 READING 143 0.888899
1413210429448 8595 READING 547 0.990310
1413210429572 8596 READING 137 0.993076
1413210429729 8596 READING 130 0.929859
1413210429895 8596 READING 125 0.814768
1413210430062 8596 READING 120 0.802677
1413210430186 8596 READING 114 0.966246
1413210430328 8596 READING 109 0.842061
1413210430468 8596 READING 129 0.991444
1413210430645 8596 READING 152 0.946823
1413210430912 8596 READING 179 0.892464
1413210431174 8596 READING 210 0.874219
1413210431931 8596 READING 249 0.367200
1413210432254 8596 READING 293 0.995269
1413210432660 8596 READING 341 0.995302
1413210432792 8595 READING 548 0.991186
1413210433129 8596 READING 344 0.996578
1413210433615 8596 READING 345 0.988202
1413210434105 8596 READING 376 0.994354
1413210434560 8596 READING 377 0.995103
1413210434978 8596 READING 377 0.994500
1413210435395 8596 READING 377 0.994862
1413210435667 8596 FUNCTION lru lambda h: 0.784393 * (h ** 0.0375886)
1413210435667 8595 FUNCTION lru lambda h: 0.224709 * (h ** 0.220065)
1413210435667 8596 RECOMMEND 558
1413210435667 8595 RECOMMEND 558
1413210435805 8596 READING 376 0.995491
1413210436215 8596 READING 376 0.994942
1413210436327 8595 READING 546 0.982071
1413210436630 8596 READING 376 0.995039
1413210437043 8596 READING 376 0.995029
1413210437458 8596 READING 375 0.995431
1413210438379 8596 READING 376 0.978864
1413210438886 8596 READING 376 0.914728
1413210439344 8596 READING 357 0.961817
1413210439752 8596 READING 340 0.937867
1413210439768 8595 READING 547 0.978510
1413210440143 8596 READING 324 0.935384
1413210440501 8596 READING 309 0.973156
1413210440925 8596 READING 294 0.947254
1413210441275 8596 READING 280 0.926039
1413210441600 8596 READING 267 0.960073
1413210441899 8596 READING 255 0.937113
1413210442191 8596 READING 242 0.926767
1413210442474 8596 READING 231 0.877572
1413210442740 8596 READING 220 0.897357
1413210443008 8596 READING 239 0.994504
1413210443209 8595 READING 547 0.963480
1413210443364 8596 READING 259 0.953610
1413210443730 8596 READING 281 0.994947
1413210444072 8596 READING 305 0.994402
1413210444539 8596 READING 331 0.819039
1413210444905 8596 READING 316 0.966774
1413210445271 8596 READING 300 0.910360
1413210445612 8596 READING 287 0.928271
1413210445667 8596 FUNCTION lru lambda h: 0.777907 * (h ** 0.0370103)
1413210445667 8595 FUNCTION lru lambda h: 0.224156 * (h ** 0.220572)
1413210445667 8596 RECOMMEND 558
1413210445667 8595 RECOMMEND 558
1413210446029 8596 READING 310 0.922240
1413210446411 8596 READING 296 0.945688
1413210446798 8596 READING 282 0.994763
1413210446914 8595 READING 548 0.991293
1413210447161 8596 READING 306 0.914556
1413210447561 8596 READING 346 0.995683
1413210447906 8595 READING 552 0.960025
1413210447962 8596 READING 361 0.994350
1413210448152 8595 READING 547 0.880931
1413210448380 8596 READING 378 0.995863
1413210448799 8596 READING 378 0.995772
1413210449214 8596 READING 378 0.995535
1413210449625 8596 READING 378 0.995761
1413210450283 8595 READING 547 0.992646
1413210450514 8596 READING 378 0.997319
1413210451077 8596 READING 360 0.996570
1413210451476 8596 READING 342 0.979299
1413210451859 8596 READING 327 0.994920
1413210452291 8596 READING 311 0.867692
1413210452635 8596 READING 297 0.995736
1413210452981 8596 READING 282 0.908912
1413210453323 8596 READING 270 0.915792
1413210453618 8596 READING 257 0.977996
1413210453854 8595 READING 548 0.994300
1413210453916 8596 READING 245 0.994036
1413210454196 8596 READING 233 0.994018
1413210454461 8596 READING 223 0.959563
1413210454723 8596 READING 213 0.993941
1413210454962 8596 READING 203 0.954056
1413210455262 8596 READING 194 0.701069
1413210455503 8596 READING 185 0.828075
1413210455667 8596 FUNCTION lru lambda h: 0.777583 * (h ** 0.035563)
1413210455667 8595 FUNCTION lru lambda h: 0.224329 * (h ** 0.220413)
1413210455667 8596 RECOMMEND 558
1413210455667 8595 RECOMMEND 558
1413210455820 8596 READING 177 0.711914
1413210456044 8596 READING 169 0.839268
1413210456252 8596 READING 161 0.862212
1413210456452 8596 READING 154 0.837154
1413210456660 8596 READING 147 0.782026
1413210456835 8596 READING 140 0.830087
1413210457010 8596 READING 135 0.843790
1413210457084 8595 READING 546 0.986878
1413210457218 8596 READING 148 0.812920
1413210457501 8596 READING 142 0.811881
1413210457675 8596 READING 136 0.869945
1413210457867 8596 READING 130 0.858751
1413210458025 8596 READING 125 0.848128
1413210458208 8596 READING 137 0.804119
1413210458400 8596 READING 131 0.785418
1413210458583 8596 READING 125 0.725214
1413210458783 8596 READING 120 0.647073
1413210458924 8596 READING 115 0.853281
1413210459059 8596 READING 127 0.989925
1413210459266 8596 READING 141 0.734710
1413210459490 8596 READING 157 0.787869
1413210459707 8596 READING 173 0.858487
1413210459975 8596 READING 191 0.994987
1413210460105 8595 READING 547 0.987321
1413210460182 8596 READING 182 0.994482
1413210460369 8596 READING 175 0.994035
1413210460547 8596 READING 166 0.993981
1413210460716 8596 READING 159 0.993191
1413210460900 8596 READING 175 0.993679
1413210461104 8596 READING 194 0.993512
1413210461328 8596 READING 215 0.994588
1413210461587 8596 READING 237 0.995349
1413210461830 8596 READING 226 0.994375
1413210462063 8596 READING 215 0.993897
1413210462284 8596 READING 204 0.994823
1413210462495 8596 READING 196 0.993483
1413210462726 8596 READING 216 0.994757
1413210462945 8596 READING 206 0.994424
1413210463154 8596 READING 197 0.993766
1413210463358 8596 READING 188 0.994407
1413210463439 8595 READING 547 0.985950
1413210463550 8596 READING 179 0.993092
1413210463763 8596 READING 198 0.993757
1413210463996 8596 READING 218 0.994485
1413210464254 8596 READING 241 0.994968
1413210464500 8596 READING 230 0.994470
1413210464736 8596 READING 220 0.994795
1413210464960 8596 READING 210 0.994018
1413210465173 8596 READING 200 0.994248
1413210465667 8596 FUNCTION lru lambda h: 0.529232 * (h ** 0.103471)
1413210465667 8595 FUNCTION lru lambda h: 0.223664 * (h ** 0.221025)
1413210465940 8596 RECOMMEND 558
1413210465940 8595 RECOMMEND 558
1413210465997 8596 READING 191 0.998434
1413210466195 8596 READING 182 0.993559
1413210466244 8595 READING 548 0.931051
1413210466554 8596 READING 175 0.996351
1413210466742 8596 READING 167 0.993549
1413210467080 8596 READING 159 0.996057
1413210467241 8596 READING 152 0.992467
1413210467424 8596 READING 145 0.993418
1413210467573 8596 READING 139 0.992413
1413210467740 8596 READING 153 0.993403
1413210467923 8596 READING 169 0.994259
1413210468122 8596 READING 187 0.994279
1413210468351 8596 READING 207 0.974899
1413210468447 8595 READING 550 0.961197
1413210468615 8596 READING 233 0.995023
1413210468685 8595 READING 545 0.902032
1413210468910 8596 READING 264 0.995455
1413210469235 8596 READING 296 0.995176
1413210469601 8596 READING 330 0.991204
1413210469972 8596 READING 331 0.995713
1413210470344 8596 READING 331 0.986082
1413210470950 8596 READING 369 0.947852
1413210471094 8595 READING 546 0.968166
1413210471600 8596 READING 369 0.961447
1413210472087 8596 READING 378 0.994713
1413210472528 8596 READING 378 0.995167
1413210472988 8596 READING 378 0.907602
1413210473447 8596 READING 380 0.996146
1413210473839 8596 READING 362 0.995301
1413210474116 8595 READING 517 0.970895
1413210474211 8596 READING 344 0.995557
1413210474567 8596 READING 327 0.995540
1413210474902 8596 READING 312 0.995387
1413210475224 8596 READING 298 0.994904
1413210475531 8596 READING 284 0.995350
1413210475821 8596 READING 271 0.994989
1413210475940 8596 FUNCTION lru lambda h: 0.523864 * (h ** 0.108601)
1413210475941 8595 FUNCTION lru lambda h: 0.165117 * (h ** 0.273204)
1413210475941 8596 RECOMMEND 558
1413210475941 8595 RECOMMEND 558
1413210476583 8596 READING 258 0.998053
1413210476889 8596 READING 246 0.994254
1413210477141 8595 READING 548 0.981644
1413210477166 8596 READING 235 0.994593
1413210477433 8596 READING 224 0.994991
1413210477655 8596 READING 214 0.993793
1413210477880 8596 READING 205 0.993489
1413210478107 8596 READING 196 0.992615
1413210478313 8596 READING 187 0.994623
1413210478506 8596 READING 179 0.993430
1413210478687 8596 READING 171 0.993618
1413210478864 8596 READING 163 0.994266
1413210479030 8596 READING 156 0.993447
1413210479220 8596 READING 149 0.993580
1413210479371 8596 READING 142 0.993336
1413210479513 8596 READING 136 0.992676
1413210479656 8596 READING 131 0.992644
1413210479786 8596 READING 125 0.991262
1413210479934 8596 READING 139 0.993162
1413210480102 8596 READING 156 0.993341
1413210480261 8596 READING 149 0.992404
1413210480438 8596 READING 166 0.993723
1413210480614 8596 READING 159 0.992206
1413210480656 8595 READING 523 0.965435
1413210480922 8596 READING 177 0.996200
1413210481103 8596 READING 169 0.993853
1413210481285 8596 READING 162 0.994328
1413210481464 8596 READING 155 0.994180
1413210481621 8596 READING 148 0.990240
1413210481802 8596 READING 165 0.992611
1413210482000 8596 READING 185 0.994183
1413210482193 8596 READING 176 0.993349
1413210482392 8596 READING 169 0.994604
1413210482568 8596 READING 161 0.993457
1413210482738 8596 READING 154 0.993466
1413210482895 8596 READING 147 0.993461
1413210483060 8596 READING 141 0.907646
1413210483270 8596 READING 164 0.992595
1413210483481 8596 READING 190 0.994778
1413210483741 8596 READING 220 0.994686
1413210484113 8596 READING 254 0.943508
1413210484129 8595 READING 548 0.989375
1413210484438 8596 READING 295 0.995089
1413210484814 8596 READING 344 0.995718
1413210485206 8596 READING 352 0.995868
1413210485590 8596 READING 352 0.995134
1413210485941 8596 FUNCTION lru lambda h: 0.672553 * (h ** 0.0671179)
1413210485941 8595 FUNCTION lru lambda h: 0.129452 * (h ** 0.314868)
1413210485941 8596 RECOMMEND 558
1413210485941 8595 RECOMMEND 558
1413210485999 8596 READING 380 0.995728
1413210486408 8596 READING 380 0.995648
1413210486814 8596 READING 380 0.995399
1413210486999 8595 READING 546 0.982238
1413210487232 8596 READING 380 0.995811
1413210487644 8596 READING 380 0.994897
1413210488848 8596 READING 361 0.992879
1413210489265 8596 READING 378 0.995263
1413210489417 8595 READING 548 0.988228
1413210489654 8595 READING 549 0.890619
1413210489919 8596 READING 361 0.749999
1413210490415 8596 READING 378 0.996132
1413210490850 8595 READING 546 0.989198
1413210491287 8596 READING 379 0.799493
1413210491755 8596 READING 380 0.996329
1413210492200 8596 READING 380 0.995616
1413210492629 8596 READING 380 0.995764
1413210493059 8596 READING 380 0.995140
1413210493487 8596 READING 362 0.995530
1413210493891 8596 READING 345 0.966601
1413210493898 8595 READING 516 0.993282
1413210494316 8596 READING 378 0.995815
1413210494802 8596 READING 379 0.914458
1413210495353 8596 READING 380 0.996706
1413210495848 8596 READING 380 0.995334
1413210495941 8596 FUNCTION lru lambda h: 0.71057 * (h ** 0.0565337)
1413210495941 8595 FUNCTION lru lambda h: 0.122727 * (h ** 0.32408)
1413210495941 8596 RECOMMEND 558
1413210495941 8595 RECOMMEND 558
1413210496282 8596 READING 380 0.994784
1413210496751 8596 READING 362 0.894574
1413210497259 8595 READING 548 0.988728
1413210497272 8596 READING 378 0.996048
1413210497687 8596 READING 380 0.994767
1413210498098 8596 READING 380 0.995885
1413210498509 8596 READING 380 0.995633
1413210498919 8596 READING 380 0.995684
1413210499334 8596 READING 380 0.995901
1413210499754 8596 READING 380 0.995758
1413210500164 8596 READING 380 0.995691
1413210500315 8595 READING 522 0.967153
1413210500575 8596 READING 380 0.994785
1413210500981 8596 READING 380 0.995533
1413210502236 8596 READING 362 0.959086
1413210502612 8596 READING 345 0.995388
1413210503016 8596 READING 328 0.995835
1413210503381 8596 READING 313 0.995821
1413210503519 8595 READING 547 0.985570
1413210503748 8596 READING 298 0.995172
1413210504077 8596 READING 285 0.994650
1413210504383 8596 READING 272 0.963635
1413210504666 8596 READING 259 0.993504
1413210504960 8596 READING 247 0.993232
1413210505249 8596 READING 236 0.919613
1413210505507 8596 READING 225 0.939153
1413210505806 8596 READING 215 0.874970
1413210505941 8596 FUNCTION lru lambda h: 0.689196 * (h ** 0.0624251)
1413210505941 8595 FUNCTION lru lambda h: 0.121458 * (h ** 0.326108)
1413210505941 8596 RECOMMEND 558
1413210505941 8595 RECOMMEND 558
1413210506073 8596 READING 206 0.935837
1413210506306 8596 READING 197 0.941177
1413210506514 8596 READING 188 0.970193
1413210506743 8595 READING 546 0.988482
1413210506747 8596 READING 180 0.815298
1413210506963 8596 READING 172 0.846195
1413210507163 8596 READING 164 0.868247
1413210507363 8596 READING 157 0.817436
1413210507524 8596 READING 150 0.992904
1413210507674 8596 READING 144 0.993288
1413210507857 8596 READING 138 0.993196
1413210508029 8596 READING 131 0.832676
1413210508186 8596 READING 126 0.864258
1413210508186 8596 READING 126 0.722222
1413210508190 8596 READING 126 0.753140
1413210508362 8596 READING 121 0.717902
1413210508483 8596 READING 116 0.991185
1413210508598 8596 READING 111 0.989500
1413210508736 8596 READING 124 0.974574
1413210508919 8596 READING 139 0.788170
1413210509078 8596 READING 133 0.881350
1413210509250 8596 READING 127 0.993741
1413210509386 8596 READING 121 0.990017
1413210509526 8596 READING 137 0.988633
1413210509683 8596 READING 154 0.993329
1413210509870 8596 READING 172 0.957274
1413210509880 8595 READING 548 0.994225
1413210510087 8596 READING 199 0.994359
1413210510154 8595 READING 548 0.855616
1413210510331 8596 READING 229 0.993913
1413210510610 8596 READING 262 0.994756
1413210510783 8595 READING 547 0.962562
1413210510934 8596 READING 298 0.992466
1413210511309 8596 READING 339 0.995475
1413210511682 8596 READING 348 0.995241
1413210512059 8596 READING 349 0.995032
1413210512471 8596 READING 380 0.995687
1413210512857 8596 READING 362 0.995261
1413210513230 8596 READING 344 0.995477
1413210514498 8596 READING 329 0.952560
1413210514852 8595 READING 519 0.992271
1413210514854 8596 READING 313 0.994206
1413210515174 8596 READING 298 0.995294
1413210515521 8596 READING 285 0.902334
1413210515890 8596 READING 272 0.996017
1413210515941 8596 FUNCTION lru lambda h: 0.757686 * (h ** 0.0447362)
1413210515941 8595 FUNCTION lru lambda h: 0.0953535 * (h ** 0.367094)
1413210515941 8596 RECOMMEND 558
1413210515941 8595 RECOMMEND 558
1413210516195 8596 READING 259 0.933963
1413210516512 8596 READING 247 0.861524
1413210516845 8596 READING 236 0.791959
1413210517111 8596 READING 225 0.960321
1413210517361 8596 READING 215 0.946555
1413210517627 8596 READING 206 0.872071
1413210517868 8596 READING 197 0.877410
1413210518085 8596 READING 188 0.947001
1413210518105 8595 READING 550 0.991528
1413210518318 8596 READING 180 0.900354
1413210518518 8596 READING 172 0.918187
1413210518726 8596 READING 164 0.868172
1413210518909 8596 READING 157 0.905976
1413210519100 8596 READING 150 0.855092
1413210519309 8596 READING 144 0.744652
1413210519466 8596 READING 138 0.950605
1413210519633 8596 READING 131 0.829371
1413210519800 8596 READING 126 0.793977
1413210519958 8596 READING 121 0.819045
1413210520078 8596 READING 116 0.991577
1413210520216 8596 READING 111 0.800665
1413210520374 8596 READING 107 0.866887
1413210520524 8596 READING 102 0.724546
1413210520682 8596 READING 98 0.889802
1413210520825 8596 READING 94 0.799314
1413210520919 8596 READING 91 0.988421
1413210521081 8596 READING 101 0.645548
1413210521198 8596 READING 113 0.989818
1413210521221 8595 READING 525 0.985465
1413210521398 8596 READING 127 0.702109
1413210521553 8596 READING 142 0.993888
1413210521748 8596 READING 160 0.847542
1413210521981 8596 READING 179 0.864588
1413210522221 8596 READING 172 0.993712
1413210522391 8596 READING 164 0.989401
1413210522588 8596 READING 185 0.994260
1413210522853 8596 READING 207 0.995011
1413210523065 8596 READING 198 0.994455
1413210523261 8596 READING 189 0.994234
1413210523450 8596 READING 180 0.994109
1413210523773 8596 READING 172 0.567968
1413210524118 8596 READING 163 0.996284
1413210524284 8596 READING 156 0.993214
1413210524441 8596 READING 149 0.993531
1413210524532 8595 READING 550 0.985318
1413210524606 8596 READING 142 0.991256
1413210524745 8596 READING 136 0.990408
1413210524906 8596 READING 152 0.993255
1413210525088 8596 READING 171 0.993883
1413210525293 8596 READING 191 0.994147
1413210525490 8596 READING 183 0.993710
1413210525677 8596 READING 174 0.993963
1413210525854 8596 READING 167 0.993670
1413210525942 8596 FUNCTION lru lambda h: 0.579601 * (h ** 0.0925647)
1413210525942 8595 FUNCTION lru lambda h: 0.101476 * (h ** 0.356664)
1413210525942 8596 RECOMMEND 558
1413210525942 8595 RECOMMEND 558
1413210526022 8596 READING 159 0.993968
1413210526185 8596 READING 153 0.994020
1413210526337 8596 READING 146 0.993330
1413210526484 8596 READING 140 0.994290
1413210526624 8596 READING 133 0.993787
1413210526757 8596 READING 128 0.993622
1413210526886 8596 READING 122 0.991872
1413210527008 8596 READING 117 0.990053
1413210527145 8596 READING 131 0.993117
1413210527300 8596 READING 147 0.993731
1413210527474 8596 READING 165 0.993814
1413210527641 8596 READING 158 0.994083
1413210527747 8595 READING 548 0.982670
1413210527804 8596 READING 150 0.992095
1413210527980 8596 READING 169 0.994403
1413210528151 8596 READING 161 0.993023
1413210528316 8596 READING 154 0.994250
1413210528472 8596 READING 147 0.993860
1413210529087 8596 READING 141 0.998346
1413210529315 8596 READING 135 0.995298
1413210529823 8596 READING 129 0.998075
1413210529959 8596 READING 123 0.992049
1413210530081 8596 READING 119 0.992175
1413210530199 8596 READING 113 0.991457
1413210530311 8596 READING 109 0.991888
1413210530419 8596 READING 104 0.991154
1413210530541 8596 READING 116 0.991397
1413210530678 8596 READING 130 0.990580
1413210530833 8596 READING 146 0.992251
1413210531013 8596 READING 164 0.992878
1413210531229 8596 READING 184 0.995123
1413210531459 8596 READING 207 0.991562
1413210531515 8595 READING 550 0.989974
1413210531719 8596 READING 232 0.996268
1413210531885 8595 READING 550 0.797844
1413210531970 8596 READING 221 0.994273
1413210532200 8596 READING 212 0.994944
1413210532260 8595 READING 548 0.932124
1413210532417 8596 READING 202 0.994123
1413210532631 8596 READING 193 0.994761
1413210532829 8596 READING 184 0.994136
1413210533021 8596 READING 177 0.994608
1413210533200 8596 READING 169 0.992809
1413210533429 8596 READING 161 0.977971
1413210533634 8596 READING 182 0.994545
1413210533901 8596 READING 208 0.995283
1413210534158 8596 READING 234 0.993868
1413210534554 8596 READING 263 0.816624
1413210534893 8596 READING 312 0.994947
1413210535257 8596 READING 332 0.994390
1413210535652 8596 READING 367 0.995320
1413210535942 8596 FUNCTION lru lambda h: 0.673719 * (h ** 0.0669703)
1413210535942 8595 FUNCTION lru lambda h: 0.102351 * (h ** 0.355045)
1413210535942 8596 RECOMMEND 558
1413210535942 8595 RECOMMEND 558
1413210536042 8595 READING 521 0.985549
1413210536058 8596 READING 367 0.995122
1413210536475 8596 READING 381 0.995656
1413210536887 8596 READING 381 0.995857
1413210537301 8596 READING 381 0.995892
1413210537706 8596 READING 381 0.995621
1413210538123 8596 READING 381 0.995740
1413210538538 8596 READING 381 0.995517
1413210539487 8596 READING 363 0.997115
1413210539671 8595 READING 551 0.987062
1413210539906 8596 READING 346 0.996121
1413210540268 8596 READING 329 0.995333
1413210540790 8596 READING 314 0.996926
1413210541165 8596 READING 300 0.995184
1413210541485 8596 READING 286 0.995219
1413210541790 8596 READING 272 0.995108
1413210542075 8596 READING 260 0.994980
1413210542344 8596 READING 248 0.994889
1413210542606 8596 READING 237 0.994205
1413210542849 8596 READING 226 0.994767
1413210542956 8595 READING 528 0.986355
1413210543083 8596 READING 216 0.994623
1413210543307 8596 READING 206 0.994774
1413210543517 8596 READING 198 0.993476
1413210543714 8596 READING 189 0.993022
1413210543912 8596 READING 181 0.993251
1413210544095 8596 READING 173 0.993807
1413210544268 8596 READING 165 0.993623
1413210544436 8596 READING 158 0.992679
1413210544594 8596 READING 151 0.992710
1413210544748 8596 READING 145 0.993352
1413210544892 8596 READING 139 0.992448
1413210545029 8596 READING 133 0.992732
1413210545165 8596 READING 128 0.992679
1413210545291 8596 READING 122 0.992168
1413210545409 8596 READING 117 0.991721
1413210545534 8596 READING 113 0.992426
1413210545642 8596 READING 108 0.990826
1413210545802 8596 READING 121 0.993372
1413210545942 8596 FUNCTION lru lambda h: 0.67358 * (h ** 0.0681561)
1413210545942 8595 FUNCTION lru lambda h: 0.0691784 * (h ** 0.421174)
1413210545942 8596 RECOMMEND 558
1413210545942 8595 RECOMMEND 558
1413210545944 8596 READING 136 0.992512
1413210546123 8596 READING 131 0.994916
1413210546260 8596 READING 124 0.989887
1413210546410 8596 READING 140 0.990241
1413210546494 8595 READING 551 0.960658
1413210546575 8596 READING 158 0.991948
1413210546760 8596 READING 177 0.992177
1413210546976 8596 READING 200 0.994332
1413210547218 8596 READING 225 0.994615
1413210547444 8596 READING 215 0.994887
1413210547660 8596 READING 206 0.994073
1413210547866 8596 READING 197 0.994455
1413210548065 8596 READING 188 0.994114
1413210548252 8596 READING 180 0.994210
1413210548430 8596 READING 172 0.992548
1413210548600 8596 READING 164 0.993868
1413210548766 8596 READING 157 0.993671
1413210548923 8596 READING 152 0.993685
1413210549069 8596 READING 145 0.993213
1413210549211 8596 READING 138 0.993041
1413210549346 8596 READING 132 0.992354
1413210549476 8596 READING 127 0.991416
1413210549642 8596 READING 142 0.992832
1413210549660 8595 READING 549 0.987681
1413210549799 8596 READING 137 0.993939
1413210549930 8596 READING 131 0.987738
1413210550080 8596 READING 147 0.993318
1413210550251 8596 READING 166 0.993452
1413210550448 8596 READING 187 0.993961
1413210550633 8596 READING 179 0.994044
1413210550811 8596 READING 171 0.993222
1413210550981 8596 READING 163 0.992960
1413210551141 8596 READING 157 0.993518
1413210551295 8596 READING 150 0.993884
1413210551441 8596 READING 143 0.993160
1413210551581 8596 READING 137 0.991994
1413210551717 8596 READING 132 0.990802
1413210551872 8596 READING 148 0.991938
1413210552050 8596 READING 166 0.992977
1413210552243 8596 READING 187 0.994131
1413210552428 8596 READING 180 0.994100
1413210552608 8596 READING 171 0.992548
1413210552777 8596 READING 164 0.993713
1413210553440 8595 READING 551 0.995939
1413210553605 8596 READING 157 0.998661
1413210553774 8596 READING 150 0.993152
1413210554203 8596 READING 144 0.997371
1413210554308 8595 READING 552 0.400101
1413210554395 8596 READING 138 0.995034
1413210554723 8596 READING 132 0.997379
1413210554863 8595 READING 548 0.965704
1413210554902 8596 READING 127 0.994152
1413210555031 8596 READING 122 0.992414
1413210555151 8596 READING 117 0.992316
1413210555265 8596 READING 112 0.992641
1413210555378 8596 READING 108 0.992172
1413210555488 8596 READING 104 0.991701
1413210555590 8596 READING 100 0.991324
1413210555685 8596 READING 96 0.990527
1413210555797 8596 READING 107 0.991676
1413210555922 8596 READING 120 0.991442
1413210555942 8596 FUNCTION lru lambda h: 0.989822 * (h ** 0.001)
1413210555942 8595 FUNCTION lru lambda h: 0.0716165 * (h ** 0.414751)
1413210555942 8596 RECOMMEND 558
1413210555942 8595 RECOMMEND 558
1413210556063 8596 READING 135 0.992886
1413210556225 8596 READING 151 0.993425
1413210556375 8596 READING 145 0.992463
1413210556547 8596 READING 163 0.994007
1413210556733 8596 READING 156 0.994224
1413210556890 8596 READING 149 0.992588
1413210557046 8596 READING 143 0.992733
1413210557188 8596 READING 137 0.992724
1413210557321 8596 READING 131 0.992201
1413210557449 8596 READING 126 0.992093
1413210557572 8596 READING 121 0.992471
1413210557689 8596 READING 116 0.990757
1413210557838 8596 READING 130 0.992751
1413210557991 8596 READING 146 0.991578
1413210558164 8596 READING 165 0.993921
1413210558427 8596 READING 186 0.994106
1413210558616 8596 READING 178 0.989649
1413210558682 8595 READING 551 0.993529
1413210558842 8596 READING 199 0.994886
1413210559083 8596 READING 226 0.994595
1413210559310 8596 READING 215 0.994139
1413210559525 8596 READING 206 0.994227
1413210559734 8596 READING 196 0.993306
1413210559931 8596 READING 188 0.993982
1413210560118 8596 READING 180 0.992844
1413210560297 8596 READING 172 0.993712
1413210560469 8596 READING 165 0.993529
1413210560635 8596 READING 157 0.992707
1413210560790 8596 READING 151 0.993233
1413210560936 8596 READING 144 0.992830
1413210561077 8596 READING 138 0.993490
1413210561213 8596 READING 132 0.991357
1413210561344 8596 READING 127 0.992450
1413210561468 8596 READING 122 0.993019
1413210561584 8596 READING 117 0.992783
1413210561694 8596 READING 112 0.990280
1413210561839 8596 READING 126 0.987986
1413210561862 8595 READING 549 0.989133
1413210561994 8596 READING 142 0.989632
1413210562158 8596 READING 161 0.993170
1413210562349 8596 READING 182 0.994033
1413210562566 8596 READING 205 0.994053
1413210562807 8596 READING 231 0.994832
1413210563042 8596 READING 220 0.994393
1413210563264 8596 READING 210 0.994290
1413210563496 8596 READING 201 0.994698
1413210563697 8596 READING 192 0.994029
1413210563886 8596 READING 183 0.994018
1413210564070 8596 READING 175 0.993201
1413210564243 8596 READING 167 0.993163
1413210564409 8596 READING 161 0.993110
1413210564564 8596 READING 154 0.992845
1413210564871 8596 READING 147 0.490478
1413210565016 8596 READING 138 0.992810
1413210565942 8596 FUNCTION lru lambda h: 0.975046 * (h ** 0.00193397)
1413210565943 8595 FUNCTION lru lambda h: 0.0713201 * (h ** 0.415521)
1413210566062 8596 RECOMMEND 558
1413210566062 8595 RECOMMEND 558
1413210566169 8596 READING 133 0.998687
1413210566296 8596 READING 127 0.992530
1413210566422 8595 READING 550 0.981080
1413210566422 8596 READING 121 0.991981
1413210566544 8596 READING 116 0.992417
1413210566659 8596 READING 111 0.992622
1413210566767 8596 READING 106 0.992030
1413210566889 8596 READING 120 0.992622
1413210567027 8596 READING 133 0.992785
1413210567182 8596 READING 149 0.993435
1413210567358 8596 READING 166 0.993785
1413210567525 8596 READING 159 0.994698
1413210567684 8596 READING 152 0.992873
1413210567837 8596 READING 145 0.993276
1413210567985 8596 READING 139 0.992852
1413210568124 8596 READING 133 0.993621
1413210568677 8596 READING 128 0.997511
1413210568806 8596 READING 122 0.991923
1413210568947 8596 READING 117 0.856384
1413210569097 8596 READING 112 0.765195
1413210569230 8596 READING 108 0.861470
1413210569397 8596 READING 103 0.648348
1413210569504 8595 READING 549 0.955035
1413210569521 8596 READING 115 0.964080
1413210569688 8596 READING 129 0.799998
1413210569855 8596 READING 144 0.909349
1413210570038 8596 READING 161 0.951674
1413210570213 8596 READING 154 0.935615
1413210570445 8596 READING 172 0.793800
1413210570645 8596 READING 164 0.874578
1413210570837 8596 READING 158 0.864230
1413210571107 8596 READING 150 0.993904
1413210571260 8596 READING 144 0.990250
1413210571430 8596 READING 161 0.993422
1413210571621 8596 READING 180 0.993777
1413210571839 8596 READING 201 0.994603
1413210572043 8596 READING 192 0.994617
1413210572238 8596 READING 183 0.994074
1413210572428 8596 READING 176 0.991875
1413210572459 8595 READING 550 0.987515
1413210572616 8596 READING 168 0.994346
1413210572785 8596 READING 161 0.993926
1413210572946 8596 READING 153 0.991949
1413210573151 8596 READING 172 0.888273
1413210573363 8596 READING 201 0.994280
1413210573616 8596 READING 235 0.994705
1413210573911 8596 READING 272 0.992229
1413210574222 8596 READING 290 0.994419
1413210574571 8596 READING 316 0.995506
1413210574912 8596 READING 316 0.993696
1413210575307 8596 READING 361 0.995428
1413210575698 8596 READING 362 0.995108
1413210576062 8596 FUNCTION lru lambda h: 0.765743 * (h ** 0.0473816)
1413210576062 8595 FUNCTION lru lambda h: 0.0706845 * (h ** 0.417182)
1413210576062 8596 RECOMMEND 558
1413210576062 8595 RECOMMEND 558
1413210576738 8595 READING 553 0.866323
1413210576931 8596 READING 379 0.998395
1413210577349 8595 READING 554 0.939802
1413210577539 8596 READING 379 0.965659
1413210577587 8595 READING 548 0.928718
1413210578313 8596 READING 360 0.941533
1413210578737 8596 READING 343 0.900501
1413210579129 8596 READING 327 0.946105
1413210579486 8596 READING 312 0.962103
1413210579836 8596 READING 297 0.956308
1413210580152 8596 READING 283 0.970202
1413210580452 8596 READING 270 0.969580
1413210580777 8596 READING 257 0.857528
1413210581059 8595 READING 551 0.984006
1413210581083 8596 READING 245 0.952841
1413210581083 8596 READING 245 0.722222
1413210581085 8596 READING 245 0.080566
1413210581368 8596 READING 234 0.910534
1413210581642 8596 READING 224 0.871372
1413210581909 8596 READING 214 0.873916
1413210582209 8596 READING 248 0.906183
1413210582525 8596 READING 287 0.981783
1413210582909 8596 READING 330 0.953206
1413210583356 8596 READING 368 0.927519
1413210583815 8596 READING 379 0.942168
1413210584225 8596 READING 379 0.994762
1413210584395 8595 READING 550 0.987171
1413210584639 8596 READING 379 0.995855
1413210585048 8596 READING 379 0.995708
1413210585464 8596 READING 379 0.995757
1413210585877 8596 READING 379 0.995440
1413210586062 8596 FUNCTION lru lambda h: 1.02514 * (h ** 0.001)
1413210586062 8595 FUNCTION lru lambda h: 0.0457414 * (h ** 0.48945)
1413210586062 8596 RECOMMEND 558
1413210586062 8595 RECOMMEND 558
1413210586292 8596 READING 379 0.995601
1413210586704 8596 READING 379 0.995676
1413210587119 8596 READING 379 0.995207
1413210587533 8596 READING 379 0.995880
1413210587669 8595 READING 551 0.988208
1413210587931 8596 READING 360 0.995310
1413210588306 8596 READING 343 0.995331
1413210589594 8596 READING 327 0.998792
1413210589932 8596 READING 311 0.995001
1413210590254 8596 READING 297 0.993596
1413210590558 8596 READING 283 0.994667
1413210590829 8595 READING 550 0.977383
1413210590870 8596 READING 270 0.995288
1413210591291 8596 READING 257 0.996413
1413210591626 8596 READING 245 0.994346
1413210591886 8596 READING 234 0.993999
1413210592127 8596 READING 224 0.994348
1413210592358 8596 READING 214 0.994142
1413210592581 8596 READING 204 0.994349
1413210592796 8596 READING 195 0.991392
1413210592997 8596 READING 187 0.994073
1413210593189 8596 READING 178 0.993307
1413210593372 8596 READING 170 0.993414
1413210593547 8596 READING 163 0.992987
1413210593717 8596 READING 156 0.992410
1413210593870 8596 READING 149 0.992973
1413210594019 8596 READING 142 0.993212
1413210594100 8595 READING 551 0.981032
1413210594177 8596 READING 137 0.992425
1413210594338 8596 READING 153 0.992202
1413210594519 8596 READING 171 0.993817
1413210594696 8596 READING 163 0.993516
1413210594859 8596 READING 156 0.992908
1413210595021 8596 READING 149 0.993563
1413210595171 8596 READING 142 0.992146
1413210595314 8596 READING 136 0.993242
1413210595451 8596 READING 130 0.991975
1413210595623 8596 READING 146 0.991573
1413210595818 8596 READING 163 0.875042
1413210596045 8596 READING 184 0.968549
1413210596062 8596 FUNCTION lru lambda h: 0.889945 * (h ** 0.0160736)
1413210596062 8595 FUNCTION lru lambda h: 0.0457431 * (h ** 0.489443)
1413210596062 8596 RECOMMEND 558
1413210596062 8595 RECOMMEND 558
1413210596275 8596 READING 212 0.969866
1413210596536 8596 READING 247 0.994603
1413210596843 8596 READING 285 0.995020
1413210597196 8596 READING 329 0.995144
1413210597574 8596 READING 352 0.994574
1413210597634 8595 READING 552 0.993853
1413210597945 8595 READING 554 0.914795
1413210597997 8596 READING 378 0.995843
1413210598402 8596 READING 378 0.992618
1413210598489 8595 DEATH 194
1413210598803 8596 READING 380 0.995808
1413210599183 8596 READING 361 0.995590
1413210599547 8596 READING 343 0.993104
1413210599889 8596 READING 328 0.994780
1413210600218 8596 READING 313 0.992129
1413210600531 8596 READING 298 0.995240
1413210600828 8596 READING 284 0.992380
1413210601110 8596 READING 271 0.994855
1413210601377 8596 READING 258 0.991377
1413210601634 8596 READING 246 0.991294
1413210601875 8596 READING 235 0.993621
1413210602107 8596 READING 225 0.994374
1413210602328 8596 READING 215 0.990843
1413210602538 8596 READING 205 0.993575
1413210602739 8596 READING 196 0.990184
1413210602931 8596 READING 188 0.993478
1413210603113 8596 READING 179 0.989242
1413210603319 8596 READING 203 0.991017
1413210603557 8596 READING 230 0.993764
1413210603826 8596 READING 261 0.995184
1413210604083 8596 READING 249 0.994843
1413210604330 8596 READING 238 0.995155
1413210604565 8596 READING 227 0.994528
1413210604788 8596 READING 217 0.991519
1413210604999 8596 READING 207 0.994466
1413210605203 8596 READING 198 0.994403
1413210605395 8596 READING 189 0.994239
1413210605580 8596 READING 180 0.993620
1413210605757 8596 READING 172 0.992350
1413210605928 8596 READING 165 0.993418
1413210606063 8596 FUNCTION lru lambda h: 0.800915 * (h ** 0.036301)
1413210606063 8596 RECOMMEND 1116
1413210606107 8596 READING 158 0.988677
1413210606259 8596 READING 151 0.990726
1413210606435 8596 READING 171 0.990131
1413210606634 8596 READING 194 0.989850
1413210606860 8596 READING 221 0.994404
1413210607120 8596 READING 250 0.991664
1413210607414 8596 READING 284 0.994408
1413210607703 8596 READING 272 0.992120
1413210608024 8596 READING 307 0.992154
1413210608394 8596 READING 350 0.994453
1413210608740 8596 READING 333 0.995618
1413210609072 8596 READING 318 0.992605
1413210609388 8596 READING 303 0.991700
1413210609689 8596 READING 289 0.992572
1413210609975 8596 READING 275 0.991111
1413210610301 8596 READING 313 0.995126
1413210610609 8596 READING 298 0.995197
1413210610904 8596 READING 284 0.995337
1413210611188 8596 READING 271 0.994614
1413210611456 8596 READING 259 0.992064
1413210611713 8596 READING 247 0.992393
1413210611984 8596 READING 235 0.907199
1413210612277 8596 READING 275 0.992064
1413210612616 8596 READING 323 0.991475
1413210612982 8596 READING 345 0.992985
1413210613346 8596 READING 346 0.994190
1413210613748 8596 READING 380 0.994706
1413210614152 8596 READING 380 0.995535
1413210614549 8596 READING 379 0.995518
1413210614947 8596 READING 380 0.993338
1413210615344 8596 READING 380 0.993209
1413210615744 8596 READING 380 0.993162
1413210616063 8596 FUNCTION lru lambda h: 0.907725 * (h ** 0.0137938)
1413210616063 8596 RECOMMEND 1116
1413210616142 8596 READING 380 0.992946
1413210616560 8596 READING 380 0.993243
1413210616965 8596 READING 380 0.993533
1413210617373 8596 READING 361 0.936564
1413210617773 8596 READING 378 0.992776
1413210618152 8596 READING 361 0.993340
1413210618514 8596 READING 343 0.993569
1413210618859 8596 READING 328 0.992786
1413210619185 8596 READING 313 0.994743
1413210619496 8596 READING 299 0.995150
1413210619791 8596 READING 284 0.992337
1413210620070 8596 READING 272 0.994690
1413210620337 8596 READING 259 0.991206
1413210620618 8596 READING 247 0.994788
1413210620863 8596 READING 236 0.991180
1413210621095 8596 READING 225 0.994281
1413210621316 8596 READING 215 0.993931
1413210621529 8596 READING 206 0.992837
1413210621731 8596 READING 197 0.993148
1413210621923 8596 READING 188 0.989969
1413210622105 8596 READING 180 0.993859
1413210622278 8596 READING 172 0.988666
1413210622450 8596 READING 164 0.999988
1413210622450 8596 READING 164 0.947368
1413210622451 8596 READING 164 0.096854
1413210622609 8596 READING 157 0.988347
1413210622794 8596 READING 179 0.991736
1413210622967 8596 READING 171 0.989547
1413210623165 8596 READING 196 0.990629
1413210623395 8596 READING 224 0.994105
1413210623622 8596 READING 214 0.994313
1413210623829 8596 READING 204 0.994673
1413210624032 8596 READING 195 0.994004
1413210624227 8596 READING 187 0.990221
1413210624408 8596 READING 178 0.993984
1413210624580 8596 READING 170 0.992910
1413210624742 8596 READING 163 0.993505
1413210624899 8596 READING 156 0.988301
1413210625050 8596 READING 149 0.988143
1413210625224 8596 READING 170 0.989958
1413210625421 8596 READING 195 0.992598
1413210625649 8596 READING 223 0.994482
1413210625870 8596 READING 213 0.993808
1413210626063 8596 FUNCTION lru lambda h: 0.86784 * (h ** 0.0216567)
1413210626540 8596 RECOMMEND 1116
1413210626540 8596 READING 204 0.995905
1413210626691 8596 READING 195 0.997077
1413210626968 8596 READING 186 0.996226
1413210627478 8596 READING 178 0.997355
1413210627699 8596 READING 170 0.992719
1413210627864 8596 READING 163 0.993218
1413210628020 8596 READING 156 0.989436
1413210628168 8596 READING 149 0.993038
1413210628310 8596 READING 142 0.993073
1413210628445 8596 READING 136 0.992591
1413210628577 8596 READING 131 0.987438
1413210628727 8596 READING 149 0.992421
1413210628898 8596 READING 170 0.990256
1413210629094 8596 READING 193 0.992931
1413210629280 8596 READING 185 0.993248
1413210629461 8596 READING 177 0.993956
1413210629630 8596 READING 170 0.993147
1413210629792 8596 READING 162 0.989251
1413210629950 8596 READING 155 0.990009
1413210630130 8596 READING 177 0.990084
1413210630340 8596 READING 203 0.994418
1413210630539 8596 READING 193 0.993325
1413210630730 8596 READING 185 0.992371
1413210630909 8596 READING 177 0.988442
1413210631122 8596 READING 202 0.990882
1413210631358 8596 READING 231 0.994148
1413210631582 8596 READING 221 0.994604
1413210631796 8596 READING 210 0.994521
1413210632010 8596 READING 201 0.991246
1413210632208 8596 READING 192 0.994280
1413210632394 8596 READING 184 0.991094
1413210632576 8596 READING 175 0.993759
1413210632751 8596 READING 168 0.994162
1413210632912 8596 READING 160 0.994146
1413210633068 8596 READING 153 0.989613
1413210633217 8596 READING 147 0.988457
1413210633385 8596 READING 168 0.989636
1413210633581 8596 READING 191 0.991035
1413210633807 8596 READING 219 0.994871
1413210634022 8596 READING 209 0.994389
1413210634227 8596 READING 200 0.994489
1413210634467 8596 READING 190 0.800791
1413210634655 8596 READING 182 0.993019
1413210634831 8596 READING 174 0.991895
1413210634999 8596 READING 166 0.992290
1413210635169 8596 READING 159 0.990329
1413210635384 8596 READING 152 0.992487
1413210635532 8596 READING 146 0.992126
1413210635672 8596 READING 140 0.992896
1413210635808 8596 READING 133 0.989315
1413210635962 8596 READING 152 0.989148
1413210636141 8596 READING 174 0.990043
1413210636345 8596 READING 199 0.994515
1413210636540 8596 FUNCTION lru lambda h: 0.84887 * (h ** 0.0272925)
1413210636540 8596 RECOMMEND 1116
1413210636579 8596 READING 227 0.994394
1413210636799 8596 READING 218 0.994744
1413210637012 8596 READING 208 0.993892
1413210637213 8596 READING 198 0.994320
1413210637405 8596 READING 189 0.993989
1413210637588 8596 READING 181 0.993956
1413210637762 8596 READING 172 0.993936
1413210637927 8596 READING 165 0.993463
1413210638018 8596 DEATH 1436
