MemTotal:       16318588 kB
MemFree:        13864124 kB
Buffers:          613292 kB
Cached:           682944 kB
SwapCached:          712 kB
Active:          1491808 kB
Inactive:         602108 kB
Active(anon):     797736 kB
Inactive(anon):     1476 kB
Active(file):     694072 kB
Inactive(file):   600632 kB
Unevictable:           0 kB
Mlocked:               0 kB
SwapTotal:      16728060 kB
SwapFree:       16727348 kB
Dirty:                12 kB
Writeback:             0 kB
AnonPages:        796800 kB
Mapped:            15836 kB
Shmem:              1536 kB
Slab:             232064 kB
SReclaimable:     214760 kB
SUnreclaim:        17304 kB
KernelStack:        1560 kB
PageTables:         4360 kB
NFS_Unstable:          0 kB
Bounce:                0 kB
WritebackTmp:          0 kB
CommitLimit:    24887352 kB
Committed_AS:     938932 kB
VmallocTotal:   34359738367 kB
VmallocUsed:      370636 kB
VmallocChunk:   34359363072 kB
HardwareCorrupted:     0 kB
AnonHugePages:    774144 kB
HugePages_Total:       0
HugePages_Free:        0
HugePages_Rsvd:        0
HugePages_Surp:        0
Hugepagesize:       2048 kB
DirectMap4k:       72640 kB
DirectMap2M:    16588800 kB
