economemd
    total memory: 1000 MB
    timer interval: 10 s
    timer start state: running
    utility model: root

    caches:
        lru

    force utility function validity: yes
    make recommendations: no
    equal recommendations: no

    reading receiver name: simple
    command receiver name: simple

    dump file: economemd.dump.log
    log file: /home/callum/economics_memory_code/dynamic_sizing/data/output/gcFactor_2014_09_24_12_05_40/daemon_log_50.txt
    log readings: yes
    log functions: yes

PyOptimiser: initialising...
PyOptimiser: initialised
ReadingThread: starting
TimerThread: starting
CommandThread: starting
Reading from 15902: heap size 9 MB, throughput 0.989561
Clients: 1
Reading from 15902: heap size 9 MB, throughput 0.976936
Reading from 15902: heap size 9 MB, throughput 0.956421
Reading from 15902: heap size 9 MB, throughput 0.965034
Reading from 15902: heap size 11 MB, throughput 0.629781
Reading from 15902: heap size 11 MB, throughput 0.433117
Reading from 15902: heap size 16 MB, throughput 0.729317
Reading from 15902: heap size 16 MB, throughput 0.678702
Reading from 15902: heap size 24 MB, throughput 0.815086
Reading from 15902: heap size 24 MB, throughput 0.791753
Reading from 15902: heap size 34 MB, throughput 0.907607
Reading from 15902: heap size 34 MB, throughput 0.87455
Reading from 15902: heap size 50 MB, throughput 0.898713
Reading from 15902: heap size 50 MB, throughput 0.922933
Reading from 15902: heap size 76 MB, throughput 0.937008
Reading from 15902: heap size 76 MB, throughput 0.920368
Reading from 15902: heap size 105 MB, throughput 0.927105
Reading from 15902: heap size 104 MB, throughput 0.960674
Reading from 15902: heap size 107 MB, throughput 0.814838
Reading from 15902: heap size 120 MB, throughput 0.847986
Reading from 15902: heap size 121 MB, throughput 0.991229
Reading from 15902: heap size 115 MB, throughput 0.973745
Reading from 15902: heap size 117 MB, throughput 0.983407
Reading from 15902: heap size 112 MB, throughput 0.908159
Reading from 15902: heap size 119 MB, throughput 0.98569
Reading from 15902: heap size 117 MB, throughput 0.99453
Reading from 15902: heap size 118 MB, throughput 0.992799
Reading from 15902: heap size 119 MB, throughput 0.992834
Reading from 15902: heap size 120 MB, throughput 0.947463
Reading from 15902: heap size 112 MB, throughput 0.966157
Reading from 15902: heap size 115 MB, throughput 0.976087
Reading from 15902: heap size 112 MB, throughput 0.957643
Reading from 15902: heap size 112 MB, throughput 0.975766
Reading from 15902: heap size 110 MB, throughput 0.968848
Reading from 15902: heap size 111 MB, throughput 0.978391
Reading from 15902: heap size 110 MB, throughput 0.97775
Reading from 15902: heap size 111 MB, throughput 0.9848
Reading from 15902: heap size 111 MB, throughput 0.978528
Reading from 15902: heap size 106 MB, throughput 0.97865
Reading from 15902: heap size 111 MB, throughput 0.954789
Reading from 15902: heap size 110 MB, throughput 0.941915
Reading from 15902: heap size 104 MB, throughput 0.977807
Reading from 15902: heap size 103 MB, throughput 0.960327
Reading from 15902: heap size 104 MB, throughput 0.856578
Reading from 15902: heap size 118 MB, throughput 0.983556
Reading from 15902: heap size 117 MB, throughput 0.989373
Reading from 15902: heap size 118 MB, throughput 0.984078
Reading from 15902: heap size 119 MB, throughput 0.982876
Reading from 15902: heap size 119 MB, throughput 0.959217
Reading from 15902: heap size 118 MB, throughput 0.97776
Reading from 15902: heap size 119 MB, throughput 0.975396
Reading from 15902: heap size 119 MB, throughput 0.979951
Reading from 15902: heap size 121 MB, throughput 0.98259
Reading from 15902: heap size 122 MB, throughput 0.87553
Reading from 15902: heap size 123 MB, throughput 0.971226
Reading from 15902: heap size 117 MB, throughput 0.970872
Reading from 15902: heap size 116 MB, throughput 0.969583
Reading from 15902: heap size 117 MB, throughput 0.980529
Reading from 15902: heap size 110 MB, throughput 0.932365
Reading from 15902: heap size 114 MB, throughput 0.973482
Reading from 15902: heap size 116 MB, throughput 0.977459
Reading from 15902: heap size 113 MB, throughput 0.976243
Reading from 15902: heap size 115 MB, throughput 0.928454
Reading from 15902: heap size 115 MB, throughput 0.948976
Reading from 15902: heap size 117 MB, throughput 0.958664
Reading from 15902: heap size 117 MB, throughput 0.965604
Reading from 15902: heap size 118 MB, throughput 0.97033
Reading from 15902: heap size 120 MB, throughput 0.967437
Reading from 15902: heap size 121 MB, throughput 0.999971
Reading from 15902: heap size 121 MB, throughput 0.962963
Reading from 15902: heap size 121 MB, throughput 0.0521943
Reading from 15902: heap size 118 MB, throughput 0.991434
Reading from 15902: heap size 101 MB, throughput 0.988983
Reading from 15902: heap size 117 MB, throughput 0.991922
Reading from 15902: heap size 117 MB, throughput 0.993005
Reading from 15902: heap size 117 MB, throughput 0.981641
Reading from 15902: heap size 104 MB, throughput 0.986319
Reading from 15902: heap size 117 MB, throughput 0.981851
Reading from 15902: heap size 116 MB, throughput 0.944184
Reading from 15902: heap size 118 MB, throughput 0.971091
Reading from 15902: heap size 117 MB, throughput 0.97227
Reading from 15902: heap size 119 MB, throughput 0.974105
Reading from 15902: heap size 119 MB, throughput 0.971653
Reading from 15902: heap size 121 MB, throughput 0.890499
Reading from 15902: heap size 121 MB, throughput 0.974579
Reading from 15902: heap size 111 MB, throughput 0.972089
Reading from 15902: heap size 110 MB, throughput 0.974966
Reading from 15902: heap size 116 MB, throughput 0.974174
Reading from 15902: heap size 107 MB, throughput 0.964461
Reading from 15902: heap size 114 MB, throughput 0.972685
Reading from 15902: heap size 115 MB, throughput 0.97546
Reading from 15902: heap size 114 MB, throughput 0.961402
Reading from 15902: heap size 115 MB, throughput 0.946194
Reading from 15902: heap size 116 MB, throughput 0.9701
Reading from 15902: heap size 116 MB, throughput 0.974946
Reading from 15902: heap size 117 MB, throughput 0.98328
Reading from 15902: heap size 117 MB, throughput 0.983667
Reading from 15902: heap size 118 MB, throughput 0.897928
Reading from 15902: heap size 118 MB, throughput 0.970382
Reading from 15902: heap size 118 MB, throughput 0.977577
Reading from 15902: heap size 111 MB, throughput 0.981772
Reading from 15902: heap size 118 MB, throughput 0.987323
Reading from 15902: heap size 117 MB, throughput 0.974192
Reading from 15902: heap size 118 MB, throughput 0.984955
Reading from 15902: heap size 118 MB, throughput 0.94476
Reading from 15902: heap size 120 MB, throughput 0.986076
Reading from 15902: heap size 120 MB, throughput 0.990427
Reading from 15902: heap size 120 MB, throughput 0.982844
Reading from 15902: heap size 120 MB, throughput 0.988569
Reading from 15902: heap size 120 MB, throughput 0.979851
Reading from 15902: heap size 112 MB, throughput 0.950824
Reading from 15902: heap size 119 MB, throughput 0.985918
Reading from 15902: heap size 120 MB, throughput 0.976018
Reading from 15902: heap size 119 MB, throughput 0.987183
Reading from 15902: heap size 119 MB, throughput 0.962886
Reading from 15902: heap size 118 MB, throughput 0.984996
Reading from 15902: heap size 119 MB, throughput 0.985101
Reading from 15902: heap size 118 MB, throughput 0.9184
Reading from 15902: heap size 119 MB, throughput 0.986549
Reading from 15902: heap size 120 MB, throughput 0.988904
Reading from 15902: heap size 120 MB, throughput 0.975389
Reading from 15902: heap size 119 MB, throughput 0.987452
Reading from 15902: heap size 120 MB, throughput 0.925309
Reading from 15902: heap size 118 MB, throughput 0.981447
Reading from 15902: heap size 119 MB, throughput 0.983473
Reading from 15902: heap size 118 MB, throughput 0.980291
Reading from 15902: heap size 119 MB, throughput 0.986084
Reading from 15902: heap size 117 MB, throughput 0.973577
Reading from 15902: heap size 118 MB, throughput 0.980983
Reading from 15902: heap size 119 MB, throughput 0.976343
Reading from 15902: heap size 118 MB, throughput 0.968597
Reading from 15902: heap size 118 MB, throughput 0.986935
Reading from 15902: heap size 118 MB, throughput 0.973038
Reading from 15902: heap size 118 MB, throughput 0.989563
Reading from 15902: heap size 119 MB, throughput 0.990976
Reading from 15902: heap size 118 MB, throughput 0.909779
Reading from 15902: heap size 118 MB, throughput 0.977225
Reading from 15902: heap size 118 MB, throughput 0.984624
Reading from 15902: heap size 112 MB, throughput 0.983729
Reading from 15902: heap size 118 MB, throughput 0.984151
Reading from 15902: heap size 109 MB, throughput 0.973119
Reading from 15902: heap size 116 MB, throughput 0.982944
Reading from 15902: heap size 117 MB, throughput 0.976123
Reading from 15902: heap size 116 MB, throughput 0.915272
Reading from 15902: heap size 117 MB, throughput 0.987842
Reading from 15902: heap size 118 MB, throughput 0.989037
Reading from 15902: heap size 119 MB, throughput 0.972496
Reading from 15902: heap size 118 MB, throughput 0.991219
Reading from 15902: heap size 118 MB, throughput 0.928315
Reading from 15902: heap size 117 MB, throughput 0.977676
Reading from 15902: heap size 118 MB, throughput 0.980838
Reading from 15902: heap size 117 MB, throughput 0.983307
Reading from 15902: heap size 118 MB, throughput 0.986106
Reading from 15902: heap size 116 MB, throughput 0.967095
Reading from 15902: heap size 117 MB, throughput 0.984425
Reading from 15902: heap size 118 MB, throughput 0.978025
Reading from 15902: heap size 118 MB, throughput 0.941296
Reading from 15902: heap size 118 MB, throughput 0.982748
Reading from 15902: heap size 118 MB, throughput 0.98628
Reading from 15902: heap size 119 MB, throughput 0.974596
Reading from 15902: heap size 107 MB, throughput 0.990797
Reading from 15902: heap size 119 MB, throughput 0.941989
Reading from 15902: heap size 119 MB, throughput 0.978261
Reading from 15902: heap size 119 MB, throughput 0.983729
Reading from 15902: heap size 119 MB, throughput 0.983274
Reading from 15902: heap size 119 MB, throughput 0.98648
Reading from 15902: heap size 111 MB, throughput 0.977113
Reading from 15902: heap size 117 MB, throughput 0.983323
Reading from 15902: heap size 118 MB, throughput 0.97865
Reading from 15902: heap size 117 MB, throughput 0.90829
Reading from 15902: heap size 118 MB, throughput 0.983613
Reading from 15902: heap size 119 MB, throughput 0.985574
Reading from 15902: heap size 119 MB, throughput 0.968984
Reading from 15902: heap size 118 MB, throughput 0.992134
Reading from 15902: heap size 119 MB, throughput 0.924704
Reading from 15902: heap size 118 MB, throughput 0.977898
Reading from 15902: heap size 119 MB, throughput 0.982245
Reading from 15902: heap size 118 MB, throughput 0.98323
Reading from 15902: heap size 118 MB, throughput 0.986969
Reading from 15902: heap size 116 MB, throughput 0.966792
Reading from 15902: heap size 117 MB, throughput 0.981256
Reading from 15902: heap size 118 MB, throughput 0.982455
Reading from 15902: heap size 118 MB, throughput 0.912883
Reading from 15902: heap size 118 MB, throughput 0.98397
Reading from 15902: heap size 118 MB, throughput 0.986291
Reading from 15902: heap size 119 MB, throughput 0.967787
Reading from 15902: heap size 107 MB, throughput 0.992277
Reading from 15902: heap size 119 MB, throughput 0.919434
Reading from 15902: heap size 119 MB, throughput 0.974744
Reading from 15902: heap size 119 MB, throughput 0.981433
Reading from 15902: heap size 113 MB, throughput 0.979227
Reading from 15902: heap size 119 MB, throughput 0.986222
Reading from 15902: heap size 110 MB, throughput 0.965556
Reading from 15902: heap size 117 MB, throughput 0.982071
Reading from 15902: heap size 118 MB, throughput 0.974632
Reading from 15902: heap size 117 MB, throughput 0.928935
Reading from 15902: heap size 118 MB, throughput 0.983323
Reading from 15902: heap size 119 MB, throughput 0.988663
Reading from 15902: heap size 119 MB, throughput 0.972308
Reading from 15902: heap size 118 MB, throughput 0.990922
Reading from 15902: heap size 119 MB, throughput 0.911658
Reading from 15902: heap size 118 MB, throughput 0.978582
Reading from 15902: heap size 119 MB, throughput 0.974597
Reading from 15902: heap size 118 MB, throughput 0.945717
Reading from 15902: heap size 118 MB, throughput 0.954112
Reading from 15902: heap size 117 MB, throughput 0.970766
Reading from 15902: heap size 118 MB, throughput 0.964347
Reading from 15902: heap size 116 MB, throughput 0.963741
Reading from 15902: heap size 117 MB, throughput 0.968024
Reading from 15902: heap size 117 MB, throughput 0.965856
Reading from 15902: heap size 118 MB, throughput 0.951361
Reading from 15902: heap size 119 MB, throughput 0.957773
Reading from 15902: heap size 120 MB, throughput 0.991495
Reading from 15902: heap size 119 MB, throughput 0.924193
Reading from 15902: heap size 114 MB, throughput 0.975308
Reading from 15902: heap size 119 MB, throughput 0.982465
Reading from 15902: heap size 119 MB, throughput 0.982302
Reading from 15902: heap size 119 MB, throughput 0.98538
Reading from 15902: heap size 119 MB, throughput 0.978743
Reading from 15902: heap size 118 MB, throughput 0.983499
Reading from 15902: heap size 119 MB, throughput 0.972895
Reading from 15902: heap size 118 MB, throughput 0.971551
Reading from 15902: heap size 119 MB, throughput 0.981869
Reading from 15902: heap size 119 MB, throughput 0.967239
Reading from 15902: heap size 119 MB, throughput 0.991148
Reading from 15902: heap size 119 MB, throughput 0.987999
Reading from 15902: heap size 107 MB, throughput 0.923869
Reading from 15902: heap size 118 MB, throughput 0.98483
Reading from 15902: heap size 119 MB, throughput 0.982259
Reading from 15902: heap size 118 MB, throughput 0.984922
Reading from 15902: heap size 119 MB, throughput 0.986796
Reading from 15902: heap size 119 MB, throughput 0.979237
Reading from 15902: heap size 115 MB, throughput 0.985215
Reading from 15902: heap size 119 MB, throughput 0.940152
Reading from 15902: heap size 110 MB, throughput 0.977922
Reading from 15902: heap size 117 MB, throughput 0.981162
Reading from 15902: heap size 117 MB, throughput 0.973451
Reading from 15902: heap size 119 MB, throughput 0.991426
Reading from 15902: heap size 104 MB, throughput 0.989014
Reading from 15902: heap size 119 MB, throughput 0.911156
Reading from 15902: heap size 118 MB, throughput 0.984174
Reading from 15902: heap size 119 MB, throughput 0.976658
Reading from 15902: heap size 113 MB, throughput 0.987793
Reading from 15902: heap size 118 MB, throughput 0.975179
Reading from 15902: heap size 113 MB, throughput 0.984742
Reading from 15902: heap size 118 MB, throughput 0.982638
Reading from 15902: heap size 109 MB, throughput 0.970226
Reading from 15902: heap size 118 MB, throughput 0.974938
Reading from 15902: heap size 117 MB, throughput 0.981114
Reading from 15902: heap size 119 MB, throughput 0.970345
Reading from 15902: heap size 105 MB, throughput 0.978937
Reading from 15902: heap size 118 MB, throughput 0.988845
Reading from 15902: heap size 118 MB, throughput 0.906508
Reading from 15902: heap size 118 MB, throughput 0.981904
Reading from 15902: heap size 119 MB, throughput 0.981798
Reading from 15902: heap size 118 MB, throughput 0.9867
Reading from 15902: heap size 118 MB, throughput 0.985695
Reading from 15902: heap size 116 MB, throughput 0.973723
Reading from 15902: heap size 117 MB, throughput 0.980888
Reading from 15902: heap size 118 MB, throughput 0.950082
Reading from 15902: heap size 118 MB, throughput 0.977624
Reading from 15902: heap size 117 MB, throughput 0.975956
Reading from 15902: heap size 118 MB, throughput 0.971103
Reading from 15902: heap size 119 MB, throughput 0.988713
Reading from 15902: heap size 103 MB, throughput 0.991343
Reading from 15902: heap size 119 MB, throughput 0.904781
Reading from 15902: heap size 118 MB, throughput 0.980565
Reading from 15902: heap size 118 MB, throughput 0.980394
Reading from 15902: heap size 112 MB, throughput 0.983221
Reading from 15902: heap size 118 MB, throughput 0.984249
Reading from 15902: heap size 109 MB, throughput 0.977058
Reading from 15902: heap size 116 MB, throughput 0.983337
Reading from 15902: heap size 117 MB, throughput 0.969884
Reading from 15902: heap size 116 MB, throughput 0.970575
Reading from 15902: heap size 117 MB, throughput 0.98193
Reading from 15902: heap size 118 MB, throughput 0.983795
Reading from 15902: heap size 118 MB, throughput 0.969575
Reading from 15902: heap size 116 MB, throughput 0.991334
Reading from 15902: heap size 117 MB, throughput 0.920696
Reading from 15902: heap size 117 MB, throughput 0.974217
Reading from 15902: heap size 118 MB, throughput 0.983247
Reading from 15902: heap size 117 MB, throughput 0.982692
Reading from 15902: heap size 118 MB, throughput 0.985341
Reading from 15902: heap size 117 MB, throughput 0.953308
Reading from 15902: heap size 114 MB, throughput 0.984651
Reading from 15902: heap size 118 MB, throughput 0.983353
Reading from 15902: heap size 109 MB, throughput 0.902783
Reading from 15902: heap size 117 MB, throughput 0.982912
Reading from 15902: heap size 117 MB, throughput 0.980794
Reading from 15902: heap size 119 MB, throughput 0.971336
Reading from 15902: heap size 107 MB, throughput 0.991597
Reading from 15902: heap size 118 MB, throughput 0.962609
Reading from 15902: heap size 118 MB, throughput 0.957983
Reading from 15902: heap size 118 MB, throughput 0.985612
Reading from 15902: heap size 113 MB, throughput 0.978307
Reading from 15902: heap size 118 MB, throughput 0.986719
Reading from 15902: heap size 110 MB, throughput 0.948428
Reading from 15902: heap size 117 MB, throughput 0.97862
Reading from 15902: heap size 118 MB, throughput 0.981753
Reading from 15902: heap size 117 MB, throughput 0.926553
Reading from 15902: heap size 117 MB, throughput 0.98255
Reading from 15902: heap size 119 MB, throughput 0.983232
Reading from 15902: heap size 119 MB, throughput 0.976279
Reading from 15902: heap size 118 MB, throughput 0.992145
Reading from 15902: heap size 119 MB, throughput 0.964075
Reading from 15902: heap size 120 MB, throughput 0.958345
Reading from 15902: heap size 116 MB, throughput 0.982982
Reading from 15902: heap size 118 MB, throughput 0.980746
Reading from 15902: heap size 118 MB, throughput 0.987001
Reading from 15902: heap size 117 MB, throughput 0.95132
Reading from 15902: heap size 118 MB, throughput 0.985749
Reading from 15902: heap size 118 MB, throughput 0.983672
Reading from 15902: heap size 118 MB, throughput 0.904398
Reading from 15902: heap size 118 MB, throughput 0.980894
Reading from 15902: heap size 118 MB, throughput 0.98682
Reading from 15902: heap size 119 MB, throughput 0.970426
Reading from 15902: heap size 108 MB, throughput 0.989712
Reading from 15902: heap size 119 MB, throughput 0.956783
Reading from 15902: heap size 119 MB, throughput 0.971768
Reading from 15902: heap size 120 MB, throughput 0.985104
Reading from 15902: heap size 115 MB, throughput 0.98298
Reading from 15902: heap size 119 MB, throughput 0.988962
Reading from 15902: heap size 111 MB, throughput 0.967325
Reading from 15902: heap size 117 MB, throughput 0.98398
Reading from 15902: heap size 118 MB, throughput 0.979829
Reading from 15902: heap size 117 MB, throughput 0.91165
Reading from 15902: heap size 118 MB, throughput 0.984663
Reading from 15902: heap size 119 MB, throughput 0.984046
Reading from 15902: heap size 120 MB, throughput 0.970618
Reading from 15902: heap size 120 MB, throughput 0.992837
Reading from 15902: heap size 120 MB, throughput 0.912324
Reading from 15902: heap size 118 MB, throughput 0.978214
Reading from 15902: heap size 119 MB, throughput 0.981114
Reading from 15902: heap size 117 MB, throughput 0.980144
Reading from 15902: heap size 118 MB, throughput 0.981057
Reading from 15902: heap size 118 MB, throughput 0.978046
Reading from 15902: heap size 114 MB, throughput 0.980694
Reading from 15902: heap size 119 MB, throughput 0.979416
Reading from 15902: heap size 110 MB, throughput 0.962587
Reading from 15902: heap size 117 MB, throughput 0.982841
Reading from 15902: heap size 117 MB, throughput 0.987801
Reading from 15902: heap size 119 MB, throughput 0.979664
Reading from 15902: heap size 106 MB, throughput 0.991838
Reading from 15902: heap size 118 MB, throughput 0.90983
Reading from 15902: heap size 118 MB, throughput 0.976024
Reading from 15902: heap size 118 MB, throughput 0.999997
Reading from 15902: heap size 118 MB, throughput 1
Reading from 15902: heap size 118 MB, throughput 0.0372566
Reading from 15902: heap size 113 MB, throughput 0.983021
Reading from 15902: heap size 118 MB, throughput 0.986072
Reading from 15902: heap size 109 MB, throughput 0.967477
Reading from 15902: heap size 116 MB, throughput 0.978344
Reading from 15902: heap size 117 MB, throughput 0.978631
Reading from 15902: heap size 116 MB, throughput 0.888786
Reading from 15902: heap size 117 MB, throughput 0.980199
Reading from 15902: heap size 118 MB, throughput 0.978241
Reading from 15902: heap size 118 MB, throughput 0.970035
Reading from 15902: heap size 118 MB, throughput 0.992342
Reading from 15902: heap size 118 MB, throughput 0.953981
Reading from 15902: heap size 119 MB, throughput 0.968958
Reading from 15902: heap size 119 MB, throughput 0.986336
Reading from 15902: heap size 118 MB, throughput 0.971651
Reading from 15902: heap size 119 MB, throughput 0.98419
Reading from 15902: heap size 118 MB, throughput 0.96867
Reading from 15902: heap size 118 MB, throughput 0.984538
Reading from 15902: heap size 119 MB, throughput 0.981078
Reading from 15902: heap size 118 MB, throughput 0.91205
Reading from 15902: heap size 119 MB, throughput 0.985428
Reading from 15902: heap size 118 MB, throughput 0.985067
Reading from 15902: heap size 119 MB, throughput 0.978972
Reading from 15902: heap size 108 MB, throughput 0.991396
Reading from 15902: heap size 118 MB, throughput 0.923005
Reading from 15902: heap size 119 MB, throughput 0.978888
Reading from 15902: heap size 119 MB, throughput 0.982955
Reading from 15902: heap size 113 MB, throughput 0.981613
Reading from 15902: heap size 119 MB, throughput 0.987336
Reading from 15902: heap size 110 MB, throughput 0.974501
Reading from 15902: heap size 117 MB, throughput 0.984005
Reading from 15902: heap size 118 MB, throughput 0.978253
Reading from 15902: heap size 117 MB, throughput 0.921335
Reading from 15902: heap size 118 MB, throughput 0.983259
Reading from 15902: heap size 119 MB, throughput 0.984314
Reading from 15902: heap size 119 MB, throughput 0.976919
Reading from 15902: heap size 118 MB, throughput 0.991882
Reading from 15902: heap size 119 MB, throughput 0.916469
Reading from 15902: heap size 118 MB, throughput 0.999992
Reading from 15902: heap size 118 MB, throughput 1
Reading from 15902: heap size 118 MB, throughput 0.061769
Reading from 15902: heap size 119 MB, throughput 0.981608
Reading from 15902: heap size 118 MB, throughput 0.981946
Reading from 15902: heap size 112 MB, throughput 0.985745
Reading from 15902: heap size 118 MB, throughput 0.974397
Reading from 15902: heap size 115 MB, throughput 0.981545
Reading from 15902: heap size 117 MB, throughput 0.974784
Reading from 15902: heap size 109 MB, throughput 0.903589
Reading from 15902: heap size 116 MB, throughput 0.980696
Reading from 15902: heap size 116 MB, throughput 0.972901
Reading from 15902: heap size 118 MB, throughput 0.966692
Reading from 15902: heap size 106 MB, throughput 0.989031
Reading from 15902: heap size 118 MB, throughput 0.964836
Reading from 15902: heap size 117 MB, throughput 0.9557
Reading from 15902: heap size 118 MB, throughput 0.98611
Reading from 15902: heap size 118 MB, throughput 0.972835
Reading from 15902: heap size 118 MB, throughput 0.987279
Reading from 15902: heap size 118 MB, throughput 0.967961
Reading from 15902: heap size 117 MB, throughput 0.983467
Reading from 15902: heap size 118 MB, throughput 0.9809
Reading from 15902: heap size 117 MB, throughput 0.952862
Reading from 15902: heap size 118 MB, throughput 0.978612
Reading from 15902: heap size 118 MB, throughput 0.983581
Reading from 15902: heap size 119 MB, throughput 0.975733
Reading from 15902: heap size 119 MB, throughput 0.99261
Reading from 15902: heap size 119 MB, throughput 0.956728
Reading from 15902: heap size 120 MB, throughput 0.966743
Reading from 15902: heap size 120 MB, throughput 0.983844
Reading from 15902: heap size 119 MB, throughput 0.982956
Reading from 15902: heap size 119 MB, throughput 0.987372
Reading from 15902: heap size 118 MB, throughput 0.969146
Reading from 15902: heap size 119 MB, throughput 0.984869
Reading from 15902: heap size 119 MB, throughput 0.978021
Reading from 15902: heap size 112 MB, throughput 0.966652
Reading from 15902: heap size 118 MB, throughput 0.984317
Reading from 15902: heap size 118 MB, throughput 0.986774
Reading from 15902: heap size 119 MB, throughput 0.974739
Reading from 15902: heap size 107 MB, throughput 0.989002
Reading from 15902: heap size 119 MB, throughput 0.914423
Reading from 15902: heap size 119 MB, throughput 0.97383
Reading from 15902: heap size 119 MB, throughput 0.98463
Reading from 15902: heap size 113 MB, throughput 0.982131
Reading from 15902: heap size 118 MB, throughput 0.987288
Reading from 15902: heap size 110 MB, throughput 0.968583
Reading from 15902: heap size 117 MB, throughput 0.980221
Reading from 15902: heap size 118 MB, throughput 0.999996
Reading from 15902: heap size 118 MB, throughput 0.941176
Reading from 15902: heap size 118 MB, throughput 0.0140728
Reading from 15902: heap size 117 MB, throughput 0.915577
Reading from 15902: heap size 117 MB, throughput 0.963885
Reading from 15902: heap size 118 MB, throughput 0.967637
Reading from 15902: heap size 119 MB, throughput 0.965561
Reading from 15902: heap size 118 MB, throughput 0.97963
Reading from 15902: heap size 119 MB, throughput 0.567822
Reading from 15902: heap size 112 MB, throughput 0.990068
Reading from 15902: heap size 97 MB, throughput 0.99348
Reading from 15902: heap size 115 MB, throughput 0.988248
Reading from 15902: heap size 115 MB, throughput 0.992153
Reading from 15902: heap size 114 MB, throughput 0.977743
Reading from 15902: heap size 114 MB, throughput 0.987779
Reading from 15902: heap size 114 MB, throughput 0.984226
Reading from 15902: heap size 114 MB, throughput 0.95423
Reading from 15902: heap size 115 MB, throughput 0.955015
Reading from 15902: heap size 116 MB, throughput 0.969314
Reading from 15902: heap size 116 MB, throughput 0.981066
Reading from 15902: heap size 118 MB, throughput 0.977711
Reading from 15902: heap size 119 MB, throughput 0.966142
Reading from 15902: heap size 120 MB, throughput 0.931623
Reading from 15902: heap size 109 MB, throughput 0.97817
Reading from 15902: heap size 114 MB, throughput 0.970323
Reading from 15902: heap size 113 MB, throughput 0.975604
Reading from 15902: heap size 114 MB, throughput 0.98207
Reading from 15902: heap size 114 MB, throughput 0.978577
Reading from 15902: heap size 115 MB, throughput 0.979996
Reading from 15902: heap size 116 MB, throughput 0.969438
Reading from 15902: heap size 116 MB, throughput 0.934119
Reading from 15902: heap size 116 MB, throughput 0.964122
Reading from 15902: heap size 116 MB, throughput 0.967377
Reading from 15902: heap size 116 MB, throughput 0.957551
Reading from 15902: heap size 117 MB, throughput 0.986462
Reading from 15902: heap size 119 MB, throughput 0.898236
Reading from 15902: heap size 118 MB, throughput 0.848175
Reading from 15902: heap size 120 MB, throughput 0.992839
Reading from 15902: heap size 104 MB, throughput 0.992617
Reading from 15902: heap size 119 MB, throughput 0.992624
Reading from 15902: heap size 119 MB, throughput 0.985768
Reading from 15902: heap size 117 MB, throughput 0.987549
Reading from 15902: heap size 118 MB, throughput 0.985178
Reading from 15902: heap size 119 MB, throughput 0.947559
Reading from 15902: heap size 120 MB, throughput 0.971145
Reading from 15902: heap size 119 MB, throughput 0.985187
Reading from 15902: heap size 120 MB, throughput 0.980327
Reading from 15902: heap size 122 MB, throughput 0.980151
Reading from 15902: heap size 121 MB, throughput 0.909379
Reading from 15902: heap size 115 MB, throughput 0.976722
Reading from 15902: heap size 113 MB, throughput 0.966054
Reading from 15902: heap size 116 MB, throughput 0.984997
Reading from 15902: heap size 117 MB, throughput 0.974199
Reading from 15902: heap size 115 MB, throughput 0.967617
Reading from 15902: heap size 116 MB, throughput 0.979004
Reading from 15902: heap size 117 MB, throughput 0.999995
Reading from 15902: heap size 117 MB, throughput 1
Reading from 15902: heap size 117 MB, throughput 0.0327748
Reading from 15902: heap size 117 MB, throughput 0.934663
Reading from 15902: heap size 118 MB, throughput 0.968798
Reading from 15902: heap size 118 MB, throughput 0.986571
Reading from 15902: heap size 118 MB, throughput 0.986036
Reading from 15902: heap size 104 MB, throughput 0.985787
Reading from 15902: heap size 118 MB, throughput 0.958572
Reading from 15902: heap size 117 MB, throughput 0.947705
Reading from 15902: heap size 116 MB, throughput 0.985293
Reading from 15902: heap size 118 MB, throughput 0.969046
Reading from 15902: heap size 117 MB, throughput 0.88436
Reading from 15902: heap size 111 MB, throughput 0.990575
Reading from 15902: heap size 122 MB, throughput 0.985357
Reading from 15902: heap size 122 MB, throughput 0.987504
Reading from 15902: heap size 123 MB, throughput 0.970635
Reading from 15902: heap size 123 MB, throughput 0.963686
Reading from 15902: heap size 124 MB, throughput 0.970226
Reading from 15902: heap size 123 MB, throughput 0.988129
Reading from 15902: heap size 125 MB, throughput 0.989407
Reading from 15902: heap size 125 MB, throughput 0.988995
Reading from 15902: heap size 125 MB, throughput 0.901709
Reading from 15902: heap size 125 MB, throughput 0.974502
Reading from 15902: heap size 124 MB, throughput 0.97747
Reading from 15902: heap size 125 MB, throughput 0.982556
Reading from 15902: heap size 125 MB, throughput 0.991852
Reading from 15902: heap size 125 MB, throughput 0.98923
Reading from 15902: heap size 123 MB, throughput 0.989656
Reading from 15902: heap size 124 MB, throughput 0.98522
Reading from 15902: heap size 124 MB, throughput 0.964505
Reading from 15902: heap size 125 MB, throughput 0.976697
Reading from 15902: heap size 125 MB, throughput 0.987596
Reading from 15902: heap size 126 MB, throughput 0.985528
Reading from 15902: heap size 125 MB, throughput 0.970872
Reading from 15902: heap size 127 MB, throughput 0.963397
Reading from 15902: heap size 126 MB, throughput 0.980387
Reading from 15902: heap size 124 MB, throughput 0.871378
Reading from 15902: heap size 129 MB, throughput 0.996039
Reading from 15902: heap size 128 MB, throughput 0.98576
Reading from 15902: heap size 127 MB, throughput 0.990874
Reading from 15902: heap size 128 MB, throughput 0.988181
Reading from 15902: heap size 128 MB, throughput 0.95765
Reading from 15902: heap size 129 MB, throughput 0.978005
Reading from 15902: heap size 130 MB, throughput 0.992268
Reading from 15902: heap size 130 MB, throughput 0.999994
Reading from 15902: heap size 130 MB, throughput 0.962963
Reading from 15902: heap size 130 MB, throughput 0.139225
Reading from 15902: heap size 130 MB, throughput 0.985335
Reading from 15902: heap size 130 MB, throughput 0.858162
Reading from 15902: heap size 122 MB, throughput 0.982038
Reading from 15902: heap size 127 MB, throughput 0.980269
Reading from 15902: heap size 126 MB, throughput 0.982051
Reading from 15902: heap size 127 MB, throughput 0.993282
Reading from 15902: heap size 127 MB, throughput 0.861801
Reading from 15902: heap size 131 MB, throughput 0.994093
Reading from 15902: heap size 131 MB, throughput 0.985011
Reading from 15902: heap size 131 MB, throughput 0.985373
Reading from 15902: heap size 132 MB, throughput 0.989637
Reading from 15902: heap size 132 MB, throughput 0.982709
Reading from 15902: heap size 132 MB, throughput 0.987779
Reading from 15902: heap size 132 MB, throughput 0.965514
Reading from 15902: heap size 133 MB, throughput 0.961223
Reading from 15902: heap size 128 MB, throughput 0.980206
Reading from 15902: heap size 134 MB, throughput 0.991703
Reading from 15902: heap size 119 MB, throughput 0.99634
Reading from 15902: heap size 133 MB, throughput 0.988459
Reading from 15902: heap size 133 MB, throughput 0.991881
Reading from 15902: heap size 134 MB, throughput 0.980457
Reading from 15902: heap size 134 MB, throughput 0.977229
Reading from 15902: heap size 136 MB, throughput 0.970427
Reading from 15902: heap size 136 MB, throughput 0.987018
Reading from 15902: heap size 137 MB, throughput 0.987418
Reading from 15902: heap size 137 MB, throughput 0.908836
Reading from 15902: heap size 133 MB, throughput 0.898483
Reading from 15902: heap size 143 MB, throughput 0.987928
Reading from 15902: heap size 142 MB, throughput 0.994172
Reading from 15902: heap size 142 MB, throughput 0.988738
Reading from 15902: heap size 141 MB, throughput 0.990474
Reading from 15902: heap size 142 MB, throughput 0.991555
Reading from 15902: heap size 144 MB, throughput 0.986106
Reading from 15902: heap size 134 MB, throughput 0.988105
Reading from 15902: heap size 144 MB, throughput 0.990007
Reading from 15902: heap size 144 MB, throughput 0.988627
Reading from 15902: heap size 143 MB, throughput 0.946168
Reading from 15902: heap size 144 MB, throughput 0.988972
Reading from 15902: heap size 141 MB, throughput 0.982497
Reading from 15902: heap size 142 MB, throughput 0.995955
Reading from 15902: heap size 142 MB, throughput 0.983303
Reading from 15902: heap size 142 MB, throughput 0.990674
Reading from 15902: heap size 142 MB, throughput 0.983554
Reading from 15902: heap size 142 MB, throughput 0.989649
Reading from 15902: heap size 143 MB, throughput 0.992551
Reading from 15902: heap size 143 MB, throughput 0.986874
Reading from 15902: heap size 144 MB, throughput 0.984321
Reading from 15902: heap size 143 MB, throughput 0.949401
Reading from 15902: heap size 138 MB, throughput 0.893971
Reading from 15902: heap size 143 MB, throughput 0.985164
Reading from 15902: heap size 140 MB, throughput 0.991217
Reading from 15902: heap size 142 MB, throughput 0.988931
Reading from 15902: heap size 142 MB, throughput 0.991835
Reading from 15902: heap size 143 MB, throughput 0.987229
Reading from 15902: heap size 144 MB, throughput 0.990066
Reading from 15902: heap size 145 MB, throughput 0.988218
Reading from 15902: heap size 145 MB, throughput 0.989766
Reading from 15902: heap size 145 MB, throughput 0.989202
Reading from 15902: heap size 144 MB, throughput 0.91925
Reading from 15902: heap size 145 MB, throughput 0.982277
Reading from 15902: heap size 145 MB, throughput 0.988798
Reading from 15902: heap size 135 MB, throughput 0.994906
Reading from 15902: heap size 144 MB, throughput 0.988116
Reading from 15902: heap size 144 MB, throughput 0.990937
Reading from 15902: heap size 146 MB, throughput 0.983288
Reading from 15902: heap size 146 MB, throughput 0.988151
Reading from 15902: heap size 146 MB, throughput 0.993468
Reading from 15902: heap size 147 MB, throughput 0.892519
Reading from 15902: heap size 142 MB, throughput 0.981488
Reading from 15902: heap size 143 MB, throughput 0.971788
Reading from 15902: heap size 143 MB, throughput 0.985371
Reading from 15902: heap size 136 MB, throughput 0.993074
Reading from 15902: heap size 142 MB, throughput 0.987301
Reading from 15902: heap size 142 MB, throughput 0.990506
Reading from 15902: heap size 144 MB, throughput 0.993522
Reading from 15902: heap size 136 MB, throughput 0.98511
Reading from 15902: heap size 144 MB, throughput 0.989284
Reading from 15902: heap size 144 MB, throughput 0.988676
Reading from 15902: heap size 144 MB, throughput 0.984804
Reading from 15902: heap size 144 MB, throughput 0.967445
Reading from 15902: heap size 144 MB, throughput 0.894957
Reading from 15902: heap size 156 MB, throughput 0.995678
Reading from 15902: heap size 155 MB, throughput 0.984508
Reading from 15902: heap size 155 MB, throughput 0.993465
Reading from 15902: heap size 156 MB, throughput 0.99297
Reading from 15902: heap size 148 MB, throughput 0.98748
Reading from 15902: heap size 156 MB, throughput 0.99307
Reading from 15902: heap size 156 MB, throughput 0.988987
Reading from 15902: heap size 156 MB, throughput 0.98085
Reading from 15902: heap size 156 MB, throughput 0.979296
Reading from 15902: heap size 154 MB, throughput 0.989613
Reading from 15902: heap size 155 MB, throughput 0.995792
Reading from 15902: heap size 154 MB, throughput 0.987917
Reading from 15902: heap size 155 MB, throughput 0.992762
Reading from 15902: heap size 156 MB, throughput 0.991704
Reading from 15902: heap size 156 MB, throughput 0.988692
Reading from 15902: heap size 155 MB, throughput 0.993859
Reading from 15902: heap size 156 MB, throughput 0.985386
Reading from 15902: heap size 156 MB, throughput 0.973675
Reading from 15902: heap size 157 MB, throughput 0.979406
Reading from 15902: heap size 151 MB, throughput 0.986445
Reading from 15902: heap size 154 MB, throughput 0.914972
Reading from 15902: heap size 158 MB, throughput 0.982791
Reading from 15902: heap size 158 MB, throughput 0.993286
Reading from 15902: heap size 159 MB, throughput 0.993094
Reading from 15902: heap size 159 MB, throughput 0.98634
Reading from 15902: heap size 159 MB, throughput 0.990209
Reading from 15902: heap size 159 MB, throughput 0.990454
Reading from 15902: heap size 159 MB, throughput 0.988074
Reading from 15902: heap size 159 MB, throughput 0.958302
Reading from 15902: heap size 158 MB, throughput 0.988631
Reading from 15902: heap size 159 MB, throughput 0.99319
Reading from 15902: heap size 158 MB, throughput 0.993435
Reading from 15902: heap size 159 MB, throughput 0.991881
Reading from 15902: heap size 160 MB, throughput 0.992953
Reading from 15902: heap size 160 MB, throughput 0.981483
Reading from 15902: heap size 161 MB, throughput 0.988951
Reading from 15902: heap size 161 MB, throughput 0.988726
Reading from 15902: heap size 161 MB, throughput 0.987675
Reading from 15902: heap size 161 MB, throughput 0.942643
Reading from 15902: heap size 156 MB, throughput 0.984078
Reading from 15902: heap size 159 MB, throughput 0.993955
Reading from 15902: heap size 158 MB, throughput 0.990144
Reading from 15902: heap size 159 MB, throughput 0.899579
Reading from 15902: heap size 163 MB, throughput 0.995053
Reading from 15902: heap size 163 MB, throughput 0.97846
Reading from 15902: heap size 163 MB, throughput 0.988836
Reading from 15902: heap size 163 MB, throughput 0.99012
Reading from 15902: heap size 163 MB, throughput 0.991337
Reading from 15902: heap size 164 MB, throughput 0.930682
Reading from 15902: heap size 160 MB, throughput 0.987147
Reading from 15902: heap size 163 MB, throughput 0.988344
Reading from 15902: heap size 162 MB, throughput 0.993816
Reading from 15902: heap size 162 MB, throughput 0.987467
Reading from 15902: heap size 163 MB, throughput 0.986387
Reading from 15902: heap size 163 MB, throughput 0.980815
Reading from 15902: heap size 163 MB, throughput 0.98785
Reading from 15902: heap size 163 MB, throughput 0.988009
Reading from 15902: heap size 165 MB, throughput 0.992085
Reading from 15902: heap size 165 MB, throughput 0.938612
Reading from 15902: heap size 160 MB, throughput 0.984549
Reading from 15902: heap size 162 MB, throughput 0.989433
Reading from 15902: heap size 161 MB, throughput 0.995107
Reading from 15902: heap size 162 MB, throughput 0.989871
Reading from 15902: heap size 163 MB, throughput 0.999995
Reading from 15902: heap size 163 MB, throughput 1
Reading from 15902: heap size 163 MB, throughput 0.00312265
Reading from 15902: heap size 157 MB, throughput 0.982689
Reading from 15902: heap size 167 MB, throughput 0.987878
Reading from 15902: heap size 167 MB, throughput 0.989618
Reading from 15902: heap size 167 MB, throughput 0.990048
Reading from 15902: heap size 167 MB, throughput 0.968522
Reading from 15902: heap size 164 MB, throughput 0.975137
Reading from 15902: heap size 167 MB, throughput 0.989206
Reading from 15902: heap size 165 MB, throughput 0.99581
Reading from 15902: heap size 166 MB, throughput 0.986842
Reading from 15902: heap size 167 MB, throughput 0.989442
Reading from 15902: heap size 168 MB, throughput 0.991136
Reading from 15902: heap size 168 MB, throughput 0.989684
Reading from 15902: heap size 160 MB, throughput 0.992864
Reading from 15902: heap size 168 MB, throughput 0.991376
Reading from 15902: heap size 168 MB, throughput 0.979566
Reading from 15902: heap size 165 MB, throughput 0.972879
Reading from 15902: heap size 167 MB, throughput 0.988385
Reading from 15902: heap size 166 MB, throughput 0.992817
Reading from 15902: heap size 167 MB, throughput 0.988771
Reading from 15902: heap size 168 MB, throughput 0.993995
Reading from 15902: heap size 168 MB, throughput 0.988634
Reading from 15902: heap size 167 MB, throughput 0.988363
Reading from 15902: heap size 168 MB, throughput 0.992714
Reading from 15902: heap size 168 MB, throughput 0.987445
Reading from 15902: heap size 168 MB, throughput 0.981603
Reading from 15902: heap size 167 MB, throughput 0.819402
Reading from 15902: heap size 174 MB, throughput 0.992812
Reading from 15902: heap size 173 MB, throughput 0.991473
Reading from 15902: heap size 174 MB, throughput 0.988859
Reading from 15902: heap size 175 MB, throughput 0.987519
Reading from 15902: heap size 175 MB, throughput 0.991324
Reading from 15902: heap size 174 MB, throughput 0.990272
Reading from 15902: heap size 174 MB, throughput 0.994024
Reading from 15902: heap size 174 MB, throughput 0.988643
Reading from 15902: heap size 175 MB, throughput 0.973531
Reading from 15902: heap size 170 MB, throughput 0.976229
Reading from 15902: heap size 173 MB, throughput 0.989374
Reading from 15902: heap size 171 MB, throughput 0.993679
Reading from 15902: heap size 173 MB, throughput 0.98535
Reading from 15902: heap size 175 MB, throughput 0.992269
Reading from 15902: heap size 175 MB, throughput 0.990642
Reading from 15902: heap size 174 MB, throughput 0.989204
Reading from 15902: heap size 174 MB, throughput 0.994552
Reading from 15902: heap size 174 MB, throughput 0.986464
Reading from 15902: heap size 175 MB, throughput 0.973624
Reading from 15902: heap size 170 MB, throughput 0.976634
Reading from 15902: heap size 173 MB, throughput 0.988284
Reading from 15902: heap size 172 MB, throughput 0.997077
Reading from 15902: heap size 173 MB, throughput 0.989003
Reading from 15902: heap size 174 MB, throughput 0.880747
Reading from 15902: heap size 177 MB, throughput 0.991451
Reading from 15902: heap size 176 MB, throughput 0.988025
Reading from 15902: heap size 177 MB, throughput 0.993785
Reading from 15902: heap size 177 MB, throughput 0.988075
Reading from 15902: heap size 177 MB, throughput 0.969835
Reading from 15902: heap size 173 MB, throughput 0.97602
Reading from 15902: heap size 176 MB, throughput 0.991652
Reading from 15902: heap size 174 MB, throughput 0.994594
Reading from 15902: heap size 175 MB, throughput 0.990664
Reading from 15902: heap size 177 MB, throughput 0.990044
Reading from 15902: heap size 168 MB, throughput 0.988893
Reading from 15902: heap size 176 MB, throughput 0.991252
Reading from 15902: heap size 176 MB, throughput 0.993647
Reading from 15902: heap size 177 MB, throughput 0.986841
Reading from 15902: heap size 177 MB, throughput 0.975412
Reading from 15902: heap size 173 MB, throughput 0.981465
Reading from 15902: heap size 176 MB, throughput 0.990254
Reading from 15902: heap size 174 MB, throughput 0.995807
Reading from 15902: heap size 175 MB, throughput 0.983793
Reading from 15902: heap size 176 MB, throughput 0.990421
Reading from 15902: heap size 177 MB, throughput 0.989323
Reading from 15902: heap size 176 MB, throughput 0.987478
Reading from 15902: heap size 177 MB, throughput 0.993908
Reading from 15902: heap size 177 MB, throughput 0.988774
Reading from 15902: heap size 177 MB, throughput 0.973842
Reading from 15902: heap size 173 MB, throughput 0.817357
Reading from 15902: heap size 183 MB, throughput 0.991998
Reading from 15902: heap size 181 MB, throughput 0.995805
Reading from 15902: heap size 182 MB, throughput 0.987415
Reading from 15902: heap size 184 MB, throughput 0.992892
Reading from 15902: heap size 184 MB, throughput 0.991198
Reading from 15902: heap size 183 MB, throughput 0.992227
Reading from 15902: heap size 184 MB, throughput 0.993626
Reading from 15902: heap size 184 MB, throughput 0.987799
Reading from 15902: heap size 184 MB, throughput 0.973443
Reading from 15902: heap size 180 MB, throughput 0.974475
Reading from 15902: heap size 183 MB, throughput 0.989921
Reading from 15902: heap size 181 MB, throughput 0.993997
Reading from 15902: heap size 182 MB, throughput 0.986657
Reading from 15902: heap size 183 MB, throughput 0.989989
Reading from 15902: heap size 184 MB, throughput 0.989254
Reading from 15902: heap size 184 MB, throughput 0.988572
Reading from 15902: heap size 177 MB, throughput 0.993174
Reading from 15902: heap size 184 MB, throughput 0.987745
Reading from 15902: heap size 184 MB, throughput 0.973561
Reading from 15902: heap size 180 MB, throughput 0.966479
Reading from 15902: heap size 183 MB, throughput 0.989803
Reading from 15902: heap size 182 MB, throughput 0.993454
Reading from 15902: heap size 183 MB, throughput 0.985007
Reading from 15902: heap size 183 MB, throughput 0.988515
Reading from 15902: heap size 184 MB, throughput 0.98903
Reading from 15902: heap size 184 MB, throughput 0.989028
Reading from 15902: heap size 177 MB, throughput 0.994564
Reading from 15902: heap size 184 MB, throughput 0.988764
Reading from 15902: heap size 184 MB, throughput 0.969655
Reading from 15902: heap size 180 MB, throughput 0.821164
Reading from 15902: heap size 186 MB, throughput 0.992287
Reading from 15902: heap size 185 MB, throughput 0.994544
Reading from 15902: heap size 186 MB, throughput 0.987454
Reading from 15902: heap size 187 MB, throughput 0.992703
Reading from 15902: heap size 187 MB, throughput 0.990284
Reading from 15902: heap size 188 MB, throughput 0.990837
Reading from 15902: heap size 180 MB, throughput 0.994698
Reading from 15902: heap size 188 MB, throughput 0.98859
Reading from 15902: heap size 187 MB, throughput 0.972296
Reading from 15902: heap size 183 MB, throughput 0.97261
Reading from 15902: heap size 186 MB, throughput 0.989863
Reading from 15902: heap size 184 MB, throughput 0.994862
Reading from 15902: heap size 186 MB, throughput 0.989423
Reading from 15902: heap size 188 MB, throughput 0.988441
Reading from 15902: heap size 188 MB, throughput 0.992187
Reading from 15902: heap size 187 MB, throughput 0.987241
Reading from 15902: heap size 187 MB, throughput 0.994611
Reading from 15902: heap size 187 MB, throughput 0.990857
Reading from 15902: heap size 188 MB, throughput 0.968637
Reading from 15902: heap size 183 MB, throughput 0.970564
Reading from 15902: heap size 186 MB, throughput 0.989768
Reading from 15902: heap size 185 MB, throughput 0.993397
Reading from 15902: heap size 186 MB, throughput 0.989324
Reading from 15902: heap size 187 MB, throughput 0.990599
Reading from 15902: heap size 178 MB, throughput 0.991564
Reading from 15902: heap size 187 MB, throughput 0.986985
Reading from 15902: heap size 187 MB, throughput 0.992959
Reading from 15902: heap size 187 MB, throughput 0.990435
Reading from 15902: heap size 187 MB, throughput 0.973987
Reading from 15902: heap size 184 MB, throughput 0.811772
Reading from 15902: heap size 190 MB, throughput 0.992745
Reading from 15902: heap size 188 MB, throughput 0.992694
Reading from 15902: heap size 189 MB, throughput 0.9884
Reading from 15902: heap size 190 MB, throughput 0.990964
Reading from 15902: heap size 191 MB, throughput 0.989763
Reading from 15902: heap size 191 MB, throughput 0.991508
Reading from 15902: heap size 191 MB, throughput 0.99282
Reading from 15902: heap size 191 MB, throughput 0.990491
Reading from 15902: heap size 191 MB, throughput 0.97779
Reading from 15902: heap size 188 MB, throughput 0.974286
Reading from 15902: heap size 190 MB, throughput 0.987951
Reading from 15902: heap size 189 MB, throughput 0.994586
Reading from 15902: heap size 190 MB, throughput 0.987391
Reading from 15902: heap size 191 MB, throughput 0.99116
Reading from 15902: heap size 182 MB, throughput 0.990822
Reading from 15902: heap size 190 MB, throughput 0.988768
Reading from 15902: heap size 190 MB, throughput 0.994097
Reading from 15902: heap size 191 MB, throughput 0.986295
Reading from 15902: heap size 191 MB, throughput 0.977405
Reading from 15902: heap size 187 MB, throughput 0.967216
Reading from 15902: heap size 190 MB, throughput 0.988261
Reading from 15902: heap size 188 MB, throughput 0.994254
Reading from 15902: heap size 189 MB, throughput 0.984201
Reading from 15902: heap size 191 MB, throughput 0.991008
Reading from 15902: heap size 182 MB, throughput 0.991419
Reading from 15902: heap size 190 MB, throughput 0.984318
Reading from 15902: heap size 190 MB, throughput 0.991333
Reading from 15902: heap size 191 MB, throughput 0.989349
Reading from 15902: heap size 191 MB, throughput 0.980401
Reading from 15902: heap size 189 MB, throughput 0.969128
Reading from 15902: heap size 191 MB, throughput 0.986041
Reading from 15902: heap size 190 MB, throughput 0.891996
Reading from 15902: heap size 195 MB, throughput 0.988339
Reading from 15902: heap size 196 MB, throughput 0.992248
Reading from 15902: heap size 196 MB, throughput 0.990627
Reading from 15902: heap size 195 MB, throughput 0.990233
Reading from 15902: heap size 196 MB, throughput 0.992025
Reading from 15902: heap size 196 MB, throughput 0.991084
Reading from 15902: heap size 196 MB, throughput 0.975285
Reading from 15902: heap size 193 MB, throughput 0.972141
Reading from 15902: heap size 195 MB, throughput 0.988972
Reading from 15902: heap size 194 MB, throughput 0.99612
Reading from 15902: heap size 195 MB, throughput 0.987922
Reading from 15902: heap size 196 MB, throughput 0.99047
Reading from 15902: heap size 196 MB, throughput 0.990035
Reading from 15902: heap size 195 MB, throughput 0.98812
Reading from 15902: heap size 196 MB, throughput 0.992595
Reading from 15902: heap size 196 MB, throughput 0.988023
Reading from 15902: heap size 196 MB, throughput 0.96774
Reading from 15902: heap size 192 MB, throughput 0.975047
Reading from 15902: heap size 195 MB, throughput 0.986809
Reading from 15902: heap size 193 MB, throughput 0.994671
Reading from 15902: heap size 194 MB, throughput 0.988288
Reading from 15902: heap size 195 MB, throughput 0.989476
Reading from 15902: heap size 195 MB, throughput 0.987586
Reading from 15902: heap size 196 MB, throughput 0.989781
Reading from 15902: heap size 188 MB, throughput 0.991619
Reading from 15902: heap size 196 MB, throughput 0.988796
Reading from 15902: heap size 196 MB, throughput 0.96968
Reading from 15902: heap size 192 MB, throughput 0.969073
Reading from 15902: heap size 195 MB, throughput 0.986771
Reading from 15902: heap size 193 MB, throughput 0.994597
Reading from 15902: heap size 194 MB, throughput 0.989473
Reading from 15902: heap size 195 MB, throughput 0.868959
Reading from 15902: heap size 199 MB, throughput 0.99061
Reading from 15902: heap size 200 MB, throughput 0.987876
Reading from 15902: heap size 192 MB, throughput 0.994642
Reading from 15902: heap size 200 MB, throughput 0.989874
Reading from 15902: heap size 200 MB, throughput 0.969986
Reading from 15902: heap size 196 MB, throughput 0.97362
Reading from 15902: heap size 199 MB, throughput 0.990663
Reading from 15902: heap size 197 MB, throughput 0.993377
Reading from 15902: heap size 198 MB, throughput 0.98854
Reading from 15902: heap size 199 MB, throughput 0.990606
Reading from 15902: heap size 200 MB, throughput 0.990627
Reading from 15902: heap size 200 MB, throughput 0.988725
Reading from 15902: heap size 192 MB, throughput 0.992098
Reading from 15902: heap size 200 MB, throughput 0.986425
Reading from 15902: heap size 200 MB, throughput 0.969471
Reading from 15902: heap size 196 MB, throughput 0.977324
Reading from 15902: heap size 199 MB, throughput 0.990184
Reading from 15902: heap size 197 MB, throughput 0.9951
Reading from 15902: heap size 198 MB, throughput 0.988824
Reading from 15902: heap size 199 MB, throughput 0.99202
Reading from 15902: heap size 200 MB, throughput 0.988542
Reading from 15902: heap size 200 MB, throughput 0.989925
Reading from 15902: heap size 200 MB, throughput 0.993364
Reading from 15902: heap size 200 MB, throughput 0.987814
Reading from 15902: heap size 200 MB, throughput 0.974723
Reading from 15902: heap size 196 MB, throughput 0.973498
Reading from 15902: heap size 199 MB, throughput 0.990094
Reading from 15902: heap size 198 MB, throughput 0.993781
Reading from 15902: heap size 199 MB, throughput 0.985939
Reading from 15902: heap size 199 MB, throughput 0.991434
Reading from 15902: heap size 200 MB, throughput 0.991155
Reading from 15902: heap size 200 MB, throughput 0.987584
Reading from 15902: heap size 192 MB, throughput 0.991439
Reading from 15902: heap size 200 MB, throughput 0.986358
Reading from 15902: heap size 200 MB, throughput 0.973766
Reading from 15902: heap size 196 MB, throughput 0.797119
Reading from 15902: heap size 207 MB, throughput 0.994719
Reading from 15902: heap size 206 MB, throughput 0.994436
Reading from 15902: heap size 207 MB, throughput 0.988004
Reading from 15902: heap size 207 MB, throughput 0.992269
Reading from 15902: heap size 208 MB, throughput 0.999993
Reading from 15902: heap size 208 MB, throughput 1
Reading from 15902: heap size 208 MB, throughput 0.425439
Reading from 15902: heap size 207 MB, throughput 0.988924
Reading from 15902: heap size 208 MB, throughput 0.991863
Reading from 15902: heap size 208 MB, throughput 0.989024
Reading from 15902: heap size 208 MB, throughput 0.966761
Reading from 15902: heap size 204 MB, throughput 0.97269
Reading from 15902: heap size 207 MB, throughput 0.987187
Reading from 15902: heap size 205 MB, throughput 0.994849
Reading from 15902: heap size 206 MB, throughput 0.987587
Reading from 15902: heap size 207 MB, throughput 0.991775
Reading from 15902: heap size 208 MB, throughput 0.988638
Reading from 15902: heap size 208 MB, throughput 0.988256
Reading from 15902: heap size 200 MB, throughput 0.991508
Reading from 15902: heap size 208 MB, throughput 0.990207
Reading from 15902: heap size 208 MB, throughput 0.968097
Reading from 15902: heap size 204 MB, throughput 0.975572
Reading from 15902: heap size 207 MB, throughput 0.989436
Reading from 15902: heap size 205 MB, throughput 0.995959
Reading from 15902: heap size 206 MB, throughput 0.990458
Reading from 15902: heap size 208 MB, throughput 0.990876
Reading from 15902: heap size 199 MB, throughput 0.988351
Reading from 15902: heap size 207 MB, throughput 0.987442
Reading from 15902: heap size 207 MB, throughput 0.993048
Reading from 15902: heap size 208 MB, throughput 0.98891
Reading from 15902: heap size 208 MB, throughput 0.971016
Reading from 15902: heap size 204 MB, throughput 0.977806
Reading from 15902: heap size 207 MB, throughput 0.989585
Reading from 15902: heap size 205 MB, throughput 0.993332
Reading from 15902: heap size 206 MB, throughput 0.984419
Reading from 15902: heap size 207 MB, throughput 0.991888
Reading from 15902: heap size 208 MB, throughput 0.988133
Reading from 15902: heap size 208 MB, throughput 0.987972
Reading from 15902: heap size 200 MB, throughput 0.992809
Reading from 15902: heap size 208 MB, throughput 0.988668
Reading from 15902: heap size 208 MB, throughput 0.969034
Reading from 15902: heap size 204 MB, throughput 0.798155
Reading from 15902: heap size 211 MB, throughput 0.99368
Reading from 15902: heap size 210 MB, throughput 0.994069
Reading from 15902: heap size 211 MB, throughput 0.989016
Reading from 15902: heap size 212 MB, throughput 0.992063
Reading from 15902: heap size 204 MB, throughput 0.991264
Reading from 15902: heap size 212 MB, throughput 0.987267
Reading from 15902: heap size 212 MB, throughput 0.993838
Reading from 15902: heap size 212 MB, throughput 0.987732
Reading from 15902: heap size 212 MB, throughput 0.975527
Reading from 15902: heap size 209 MB, throughput 0.978467
Reading from 15902: heap size 211 MB, throughput 0.988947
Reading from 15902: heap size 210 MB, throughput 0.994107
Reading from 15902: heap size 211 MB, throughput 0.989239
Reading from 15902: heap size 212 MB, throughput 0.993663
Reading from 15902: heap size 212 MB, throughput 0.993377
Reading from 15902: heap size 213 MB, throughput 0.985402
Reading from 15902: heap size 205 MB, throughput 0.9924
Reading from 15902: heap size 213 MB, throughput 0.989237
Reading from 15902: heap size 212 MB, throughput 0.974883
Reading from 15902: heap size 209 MB, throughput 0.972416
Reading from 15902: heap size 211 MB, throughput 0.986636
Reading from 15902: heap size 210 MB, throughput 0.993465
Reading from 15902: heap size 211 MB, throughput 0.983655
Reading from 15902: heap size 212 MB, throughput 0.992863
Reading from 15902: heap size 212 MB, throughput 0.990457
Reading from 15902: heap size 212 MB, throughput 0.986593
Reading from 15902: heap size 212 MB, throughput 0.99245
Reading from 15902: heap size 212 MB, throughput 0.991109
Reading from 15902: heap size 212 MB, throughput 0.979333
Reading from 15902: heap size 211 MB, throughput 0.962582
Reading from 15902: heap size 212 MB, throughput 0.98659
Reading from 15902: heap size 211 MB, throughput 0.993754
Reading from 15902: heap size 212 MB, throughput 0.987942
Reading from 15902: heap size 213 MB, throughput 0.992119
Reading from 15902: heap size 204 MB, throughput 0.992388
Reading from 15902: heap size 212 MB, throughput 0.985154
Reading from 15902: heap size 212 MB, throughput 0.994136
Reading from 15902: heap size 212 MB, throughput 0.98742
Reading from 15902: heap size 213 MB, throughput 0.971294
Reading from 15902: heap size 208 MB, throughput 0.785244
Reading from 15902: heap size 216 MB, throughput 0.991973
Reading from 15902: heap size 214 MB, throughput 0.994213
Reading from 15902: heap size 215 MB, throughput 0.989288
Reading from 15902: heap size 217 MB, throughput 0.991832
Reading from 15902: heap size 217 MB, throughput 0.9905
Reading from 15902: heap size 216 MB, throughput 0.991655
Reading from 15902: heap size 217 MB, throughput 0.993028
Reading from 15902: heap size 217 MB, throughput 0.98754
Reading from 15902: heap size 217 MB, throughput 0.966801
Reading from 15902: heap size 213 MB, throughput 0.980178
Reading from 15902: heap size 216 MB, throughput 0.999995
Reading from 15902: heap size 216 MB, throughput 0.961538
Reading from 15902: heap size 216 MB, throughput 0.0477919
Reading from 15902: heap size 214 MB, throughput 0.995487
Reading from 15902: heap size 215 MB, throughput 0.98765
Reading from 15902: heap size 216 MB, throughput 0.990494
Reading from 15902: heap size 217 MB, throughput 0.985971
Reading from 15902: heap size 217 MB, throughput 0.988162
Reading from 15902: heap size 209 MB, throughput 0.992958
Reading from 15902: heap size 217 MB, throughput 0.987646
Reading from 15902: heap size 217 MB, throughput 0.969217
Reading from 15902: heap size 213 MB, throughput 0.977039
Reading from 15902: heap size 216 MB, throughput 0.99146
Reading from 15902: heap size 214 MB, throughput 0.994072
Reading from 15902: heap size 215 MB, throughput 0.988682
Reading from 15902: heap size 217 MB, throughput 0.992616
Reading from 15902: heap size 208 MB, throughput 0.987194
Reading from 15902: heap size 216 MB, throughput 0.987651
Reading from 15902: heap size 216 MB, throughput 0.993387
Reading from 15902: heap size 217 MB, throughput 0.99054
Reading from 15902: heap size 217 MB, throughput 0.970766
Reading from 15902: heap size 213 MB, throughput 0.971077
Reading from 15902: heap size 216 MB, throughput 0.986403
Reading from 15902: heap size 214 MB, throughput 0.995104
Reading from 15902: heap size 215 MB, throughput 0.988542
Reading from 15902: heap size 217 MB, throughput 0.98926
Reading from 15902: heap size 217 MB, throughput 0.990246
Reading from 15902: heap size 216 MB, throughput 0.986772
Reading from 15902: heap size 217 MB, throughput 0.99349
Reading from 15902: heap size 217 MB, throughput 0.988304
Reading from 15902: heap size 217 MB, throughput 0.971524
Reading from 15902: heap size 213 MB, throughput 0.979142
Reading from 15902: heap size 216 MB, throughput 0.852198
Reading from 15902: heap size 220 MB, throughput 0.99634
Reading from 15902: heap size 221 MB, throughput 0.987615
Reading from 15902: heap size 222 MB, throughput 0.990317
Reading from 15902: heap size 222 MB, throughput 0.991909
Reading from 15902: heap size 222 MB, throughput 0.988001
Reading from 15902: heap size 222 MB, throughput 0.993213
Reading from 15902: heap size 222 MB, throughput 0.987169
Reading from 15902: heap size 223 MB, throughput 0.970579
Reading from 15902: heap size 218 MB, throughput 0.975279
Reading from 15902: heap size 221 MB, throughput 0.989864
Reading from 15902: heap size 220 MB, throughput 0.994849
Reading from 15902: heap size 221 MB, throughput 0.989317
Reading from 15902: heap size 222 MB, throughput 0.992246
Reading from 15902: heap size 222 MB, throughput 0.989989
Reading from 15902: heap size 222 MB, throughput 0.989464
Client 15902 died
Clients: 0
ReadingThread: finished
TimerThread: finished
CommandThread: finished
Main: All threads killed, cleaning up
