             total       used       free     shared    buffers     cached
Mem:          3.8G       1.8G       2.0G         0B       142M       1.5G
-/+ buffers/cache:       165M       3.6G
Swap:         3.8G         0B       3.8G
