MemTotal:       16388228 kB
MemFree:        15173112 kB
Buffers:          149652 kB
Cached:           644956 kB
SwapCached:          244 kB
Active:           495864 kB
Inactive:         505420 kB
Active(anon):     207260 kB
Inactive(anon):    16824 kB
Active(file):     288604 kB
Inactive(file):   488596 kB
Unevictable:           0 kB
Mlocked:               0 kB
SwapTotal:      16728060 kB
SwapFree:       16727816 kB
Dirty:               304 kB
Writeback:             0 kB
AnonPages:        206456 kB
Mapped:            85344 kB
Shmem:             17408 kB
Slab:              69356 kB
SReclaimable:      49340 kB
SUnreclaim:        20016 kB
KernelStack:        1824 kB
PageTables:         7320 kB
NFS_Unstable:          0 kB
Bounce:                0 kB
WritebackTmp:          0 kB
CommitLimit:    24922172 kB
Committed_AS:     509812 kB
VmallocTotal:   34359738367 kB
VmallocUsed:      114388 kB
VmallocChunk:   34359584800 kB
HardwareCorrupted:     0 kB
AnonHugePages:     94208 kB
HugePages_Total:       0
HugePages_Free:        0
HugePages_Rsvd:        0
HugePages_Surp:        0
Hugepagesize:       2048 kB
DirectMap4k:       70596 kB
DirectMap2M:    16660480 kB
