1414041523210 0 TOTAL_MEM 576
1414041543224 4848 CREATION
1414041543224 4848 READING 9 0.985688
1414041543224 4848 MINHEAP 2
1414041543224 4848 MINHEAP 12
1414041543261 4847 CREATION
1414041543261 4847 READING 9 0.989966
1414041543261 4847 MINHEAP 2
1414041543261 4847 MINHEAP 276
1414041543313 4848 READING 9 0.991356
1414041543318 4847 READING 9 0.976773
1414041543350 4847 READING 9 0.962149
1414041543372 4847 READING 9 0.955178
1414041543395 4848 READING 11 0.984081
1414041543471 4847 READING 11 0.982841
1414041543475 4848 READING 11 0.980052
1414041543639 4847 READING 11 0.986701
1414041543653 4848 READING 15 0.981167
1414041543763 4847 READING 17 0.952407
1414041543806 4848 READING 15 0.973639
1414041543918 4847 READING 17 0.546931
1414041544034 4847 READING 30 0.925630
1414041544205 4847 READING 31 0.806893
1414041544440 4848 READING 24 0.915958
1414041544507 4847 READING 33 0.515934
1414041544569 4847 READING 46 0.871542
1414041544639 4847 READING 48 0.882791
1414041544881 4848 READING 30 0.991799
1414041544928 4847 READING 50 0.186893
1414041545041 4847 READING 71 0.816278
1414041545181 4848 READING 35 0.962228
1414041545258 4847 READING 71 0.326021
1414041545335 4847 READING 98 0.784781
1414041545436 4847 READING 98 0.807648
1414041545458 4848 READING 40 0.980917
1414041545537 4847 READING 99 0.734176
1414041545649 4847 READING 102 0.831307
1414041545799 4848 READING 42 0.987614
1414041545962 4848 READING 46 0.976843
1414041546139 4847 READING 104 0.146192
1414041546171 4848 READING 52 0.984917
1414041546245 4847 READING 135 0.750262
1414041546347 4847 READING 138 0.599528
1414041546411 4848 READING 52 0.988428
1414041546478 4847 READING 140 0.793919
1414041546605 4847 READING 148 0.774785
1414041546644 4848 READING 57 0.986298
1414041546743 4847 READING 150 0.693302
1414041546819 4848 READING 58 0.950851
1414041546974 4848 READING 65 0.561404
1414041547186 4848 READING 70 0.988409
1414041547473 4848 READING 79 0.991140
1414041547545 4847 READING 152 0.074948
1414041547651 4847 READING 193 0.563942
1414041547764 4847 READING 195 0.665998
1414041547872 4847 READING 199 0.576667
1414041548249 4847 READING 202 0.832457
1414041548263 4848 READING 79 0.997556
1414041548717 4847 READING 209 0.849362
1414041549064 4848 READING 85 0.997696
1414041549484 4847 READING 218 0.231621
1414041549593 4847 READING 261 0.416077
1414041549677 4848 READING 87 0.994703
1414041550097 4847 READING 264 0.418176
1414041550149 4847 READING 307 0.897195
1414041550233 4847 READING 309 0.979473
1414041550325 4847 READING 310 0.873254
1414041550390 4848 READING 93 0.997572
1414041550451 4847 READING 312 0.979398
1414041550588 4847 READING 312 0.943865
1414041550655 4847 READING 313 0.866491
1414041550721 4847 READING 262 0.830930
1414041550789 4847 READING 307 0.913268
1414041550855 4847 READING 265 0.887385
1414041550923 4847 READING 304 0.903048
1414041551026 4848 READING 94 0.996570
1414041551398 4847 READING 267 0.980485
1414041551486 4847 READING 300 0.908521
1414041551558 4847 READING 303 0.853462
1414041551634 4847 READING 300 0.860263
1414041551660 4848 READING 98 0.996964
1414041551712 4847 READING 302 0.876465
1414041551788 4847 READING 300 0.893535
1414041551934 4847 READING 302 0.914410
1414041552085 4847 READING 300 0.878749
1414041552198 4847 READING 302 0.755366
1414041552280 4847 READING 299 0.704275
1414041552354 4847 READING 304 0.663249
1414041552382 4848 READING 99 0.996962
1414041552425 4847 READING 308 0.739183
1414041552504 4847 READING 312 0.599099
1414041552575 4847 READING 317 0.674551
1414041552655 4847 READING 320 0.594998
1414041552737 4847 READING 325 0.637343
1414041552825 4847 READING 327 0.646667
1414041553119 4848 READING 102 0.995978
1414041553211 4848 FUNCTION lru lambda h: 0.974921 * (h ** 0.001)
1414041553211 4847 FUNCTION lru lambda h: 0.678838 * (h ** 0.001)
1414041553211 4848 RECOMMEND 288
1414041553211 4847 RECOMMEND 288
1414041553858 4848 READING 102 0.994882
1414041554206 4847 READING 332 0.981684
1414041554587 4848 READING 105 0.996620
1414041555166 4847 READING 288 0.961547
1414041555324 4848 READING 105 0.995136
1414041556071 4848 READING 109 0.995567
1414041556194 4847 READING 327 0.966871
1414041556808 4848 READING 109 0.996652
1414041557121 4847 READING 291 0.970253
1414041557536 4848 READING 111 0.996303
1414041558053 4847 READING 322 0.977038
1414041558235 4848 READING 111 0.997194
1414041558795 4847 READING 293 0.974536
1414041558913 4848 READING 114 0.997423
1414041559609 4848 READING 114 0.996665
1414041559639 4847 READING 316 0.976783
1414041560317 4848 READING 116 0.998247
1414041560541 4847 READING 295 0.968561
1414041561040 4848 READING 116 0.997557
1414041561473 4847 READING 312 0.974559
1414041561760 4848 READING 118 0.997390
1414041562385 4847 READING 295 0.964554
1414041562494 4848 READING 118 0.998560
1414041563142 4847 READING 308 0.961303
1414041563211 4848 FUNCTION lru lambda h: 0.93705 * (h ** 0.00759891)
1414041563211 4847 FUNCTION lru lambda h: 0.56222 * (h ** 0.0406946)
1414041563211 4848 RECOMMEND 288
1414041563211 4847 RECOMMEND 288
1414041563246 4848 READING 120 0.998456
1414041563878 4847 READING 296 0.973954
1414041563995 4848 READING 120 0.998190
1414041564734 4848 READING 121 0.991448
1414041564750 4847 READING 307 0.975065
1414041565475 4848 READING 121 0.998054
1414041565608 4847 READING 296 0.971194
1414041566243 4848 READING 124 0.998610
1414041566372 4847 READING 306 0.973001
1414041567006 4848 READING 124 0.996477
1414041567077 4847 READING 297 0.949284
1414041567350 4848 READING 125 0.994050
1414041567678 4848 READING 125 0.990766
1414041568001 4847 READING 305 0.966738
1414041568152 4848 READING 127 0.992973
1414041568854 4847 READING 295 0.958361
1414041569002 4848 READING 128 0.996942
1414041569814 4847 READING 303 0.976736
1414041569857 4848 READING 132 0.995919
1414041570541 4847 READING 293 0.972715
1414041570669 4848 READING 132 0.996928
1414041571322 4847 READING 301 0.973286
1414041571511 4848 READING 136 0.996052
1414041572030 4847 READING 292 0.973387
1414041572365 4848 READING 136 0.997548
1414041572876 4847 READING 299 0.969902
1414041573211 4848 FUNCTION lru lambda h: 0.916655 * (h ** 0.0140579)
1414041573211 4847 FUNCTION lru lambda h: 0.509764 * (h ** 0.0669305)
1414041573211 4848 RECOMMEND 288
1414041573211 4847 RECOMMEND 288
1414041573236 4848 READING 139 0.997836
1414041573638 4847 READING 291 0.964273
1414041574088 4848 READING 139 0.997005
1414041574456 4847 READING 296 0.960601
1414041574952 4848 READING 141 0.997334
1414041574977 4847 READING 298 0.965377
1414041575105 4847 READING 302 0.811309
1414041575704 4847 READING 292 0.118463
1414041575749 4847 READING 332 0.975512
1414041575794 4847 READING 339 0.976482
1414041575828 4848 READING 141 0.996336
1414041575834 4847 READING 340 0.984554
1414041575875 4847 READING 343 0.974551
1414041575911 4847 READING 344 0.971026
1414041575952 4847 READING 288 0.971656
1414041575991 4847 READING 343 0.973100
1414041576027 4847 READING 288 0.981660
1414041576070 4847 READING 339 0.983998
1414041576111 4847 READING 288 0.972258
1414041576418 4847 READING 334 0.988297
1414041576700 4848 READING 144 0.997105
1414041576956 4847 READING 289 0.990077
1414041577513 4847 READING 330 0.985869
1414041577575 4848 READING 144 0.996962
1414041578000 4847 READING 292 0.984347
1414041578458 4848 READING 145 0.997079
1414041578615 4847 READING 325 0.977748
1414041579392 4848 READING 146 0.997005
1414041579547 4847 READING 294 0.991300
1414041580324 4848 READING 148 0.996634
1414041580327 4847 READING 319 0.984191
1414041580967 4847 READING 296 0.979213
1414041581269 4848 READING 148 0.998357
1414041581878 4847 READING 316 0.989417
1414041582216 4848 READING 150 0.998625
1414041582363 4847 READING 299 0.980797
1414041582956 4847 READING 315 0.976391
1414041583152 4848 READING 150 0.998758
1414041583211 4848 FUNCTION lru lambda h: 0.907081 * (h ** 0.0170105)
1414041583211 4847 FUNCTION lru lambda h: 0.448939 * (h ** 0.099566)
1414041583211 4848 RECOMMEND 288
1414041583211 4847 RECOMMEND 288
1414041583509 4847 READING 301 0.976819
1414041584094 4848 READING 152 0.998716
1414041584376 4847 READING 315 0.986684
1414041584887 4847 READING 315 0.975796
1414041585049 4848 READING 152 0.998343
1414041585572 4847 READING 315 0.956702
1414041585586 4848 READING 154 0.995081
1414041585958 4848 READING 154 0.992161
1414041586169 4847 READING 316 0.944832
1414041586515 4848 READING 155 0.992274
1414041586674 4847 READING 316 0.968465
1414041587160 4847 READING 317 0.969757
1414041587492 4848 READING 156 0.997383
1414041587797 4847 READING 317 0.979111
1414041588538 4848 READING 158 0.997434
1414041588598 4847 READING 317 0.983442
1414041589286 4847 READING 317 0.979442
1414041589561 4848 READING 159 0.996198
1414041589948 4847 READING 317 0.976986
1414041590480 4847 READING 316 0.973496
1414041590589 4848 READING 162 0.997999
1414041591176 4847 READING 317 0.979693
1414041591600 4848 READING 162 0.997700
1414041591678 4847 READING 316 0.969109
1414041592260 4847 READING 305 0.975739
1414041592637 4848 READING 164 0.997844
1414041592824 4847 READING 315 0.974808
1414041593211 4848 FUNCTION lru lambda h: 0.902063 * (h ** 0.0185288)
1414041593211 4847 FUNCTION lru lambda h: 0.44263 * (h ** 0.103248)
1414041593211 4848 RECOMMEND 288
1414041593211 4847 RECOMMEND 288
1414041593356 4847 READING 315 0.967406
1414041593668 4848 READING 165 0.997485
1414041593995 4847 READING 314 0.976409
1414041594541 4847 READING 305 0.974000
1414041594732 4848 READING 167 0.997071
1414041595319 4847 READING 313 0.980976
1414041595779 4848 READING 167 0.997142
1414041595821 4847 READING 305 0.957321
1414041596422 4847 READING 312 0.972463
1414041596853 4848 READING 169 0.996165
1414041597068 4847 READING 305 0.974083
1414041597598 4847 READING 311 0.973068
1414041597895 4848 READING 169 0.997180
1414041598429 4847 READING 305 0.973901
1414041598903 4847 READING 308 0.949948
1414041598955 4848 READING 171 0.997565
1414041599323 4847 READING 311 0.960911
1414041599414 4847 READING 313 0.856126
1414041599477 4847 READING 315 0.773687
1414041599753 4847 READING 317 0.198676
1414041599788 4847 READING 316 0.980891
1414041599821 4847 READING 321 0.841950
1414041599853 4847 READING 323 0.977311
1414041599881 4847 READING 324 0.975995
1414041599910 4847 READING 325 0.977680
1414041599943 4847 READING 324 0.971698
1414041599973 4847 READING 279 0.968732
1414041600006 4847 READING 324 0.976603
1414041600020 4848 READING 171 0.996837
1414041600036 4847 READING 280 0.964863
1414041600069 4847 READING 322 0.966595
1414041600100 4847 READING 281 0.978176
1414041600132 4847 READING 319 0.979497
1414041600170 4847 READING 282 0.966564
1414041600650 4847 READING 316 0.987899
1414041601089 4848 READING 174 0.997061
1414041601264 4847 READING 284 0.991384
1414041602038 4847 READING 313 0.993779
1414041602305 4848 READING 174 0.932492
1414041602504 4847 READING 288 0.986938
1414041603186 4847 READING 310 0.989881
1414041603212 4848 FUNCTION lru lambda h: 0.90278 * (h ** 0.018324)
1414041603212 4847 FUNCTION lru lambda h: 0.423923 * (h ** 0.115231)
1414041603212 4848 RECOMMEND 288
1414041603212 4847 RECOMMEND 288
1414041603354 4848 READING 179 0.997218
1414041603670 4847 READING 291 0.978539
1414041603776 4848 READING 179 0.992249
1414041604222 4847 READING 307 0.976890
1414041604226 4848 READING 182 0.994427
1414041604901 4847 READING 293 0.976741
1414041605393 4848 READING 182 0.997825
1414041605455 4847 READING 306 0.977711
1414041605940 4847 READING 307 0.980063
1414041606444 4847 READING 306 0.978910
1414041606561 4848 READING 187 0.998056
1414041606938 4847 READING 307 0.976687
1414041607580 4847 READING 307 0.973983
1414041607751 4848 READING 188 0.997574
1414041608217 4847 READING 307 0.980107
1414041608825 4847 READING 307 0.975186
1414041608972 4848 READING 192 0.998180
1414041609446 4847 READING 308 0.976151
1414041610063 4847 READING 309 0.973176
1414041610214 4848 READING 192 0.994825
1414041610672 4847 READING 310 0.976133
1414041611097 4847 READING 310 0.966114
1414041611442 4848 READING 196 0.998046
1414041611586 4847 READING 310 0.971123
1414041612168 4847 READING 310 0.977125
1414041612700 4848 READING 196 0.997203
1414041612716 4847 READING 310 0.967331
1414041613212 4848 FUNCTION lru lambda h: 0.90134 * (h ** 0.0187383)
1414041613212 4847 FUNCTION lru lambda h: 0.422242 * (h ** 0.116284)
1414041613212 4848 RECOMMEND 288
1414041613212 4847 RECOMMEND 288
1414041613234 4847 READING 309 0.974310
1414041613727 4847 READING 299 0.971901
1414041613960 4848 READING 200 0.998018
1414041614318 4847 READING 309 0.977690
1414041614815 4847 READING 299 0.973152
1414041615227 4848 READING 200 0.997818
1414041615279 4847 READING 308 0.970788
1414041615845 4847 READING 299 0.974919
1414041616377 4847 READING 307 0.972586
1414041616536 4848 READING 204 0.998117
1414041616840 4847 READING 299 0.970683
1414041617307 4847 READING 306 0.968438
1414041617791 4847 READING 299 0.971167
1414041617814 4848 READING 204 0.997307
1414041618440 4847 READING 305 0.978694
1414041619066 4847 READING 298 0.978223
1414041619150 4848 READING 207 0.997490
1414041619508 4847 READING 305 0.968675
1414041620066 4847 READING 298 0.975564
1414041620458 4848 READING 206 0.997924
1414041620582 4847 READING 303 0.973463
1414041620996 4847 READING 298 0.967194
1414041621337 4848 READING 207 0.995358
1414041621780 4848 READING 207 0.992204
1414041621905 4847 READING 302 0.953653
1414041622668 4847 READING 303 0.740864
1414041622802 4848 READING 206 0.997680
1414041623199 4847 READING 288 0.991456
1414041623212 4848 FUNCTION lru lambda h: 0.900999 * (h ** 0.0188346)
1414041623212 4847 FUNCTION lru lambda h: 0.421234 * (h ** 0.116936)
1414041623212 4848 RECOMMEND 288
1414041623212 4847 RECOMMEND 288
1414041623273 4847 READING 291 0.930376
1414041623353 4847 READING 292 0.949984
1414041623398 4847 READING 292 0.860960
1414041623452 4847 READING 292 0.831518
1414041623492 4847 READING 292 0.728194
1414041623528 4847 READING 293 0.737497
1414041623569 4847 READING 294 0.736638
1414041623611 4847 READING 295 0.716478
1414041623648 4847 READING 296 0.749144
1414041623689 4847 READING 297 0.766316
1414041623724 4847 READING 297 0.754774
1414041623765 4847 READING 295 0.717722
1414041623801 4847 READING 282 0.770637
1414041623833 4847 READING 293 0.799891
1414041623860 4847 READING 295 0.947558
1414041623896 4847 READING 296 0.874638
1414041623931 4847 READING 296 0.967840
1414041623966 4847 READING 296 0.959674
1414041624133 4848 READING 207 0.995918
1414041624431 4847 READING 260 0.991334
1414041624940 4847 READING 296 0.992738
1414041625444 4847 READING 261 0.991770
1414041625472 4848 READING 206 0.998354
1414041625862 4847 READING 294 0.987574
1414041626278 4847 READING 265 0.986887
1414041626710 4847 READING 292 0.978231
1414041626750 4848 READING 206 0.998251
1414041627398 4847 READING 268 0.989454
1414041627846 4847 READING 289 0.973429
1414041628091 4848 READING 207 0.997444
1414041628520 4847 READING 271 0.988351
1414041629104 4847 READING 288 0.981904
1414041629424 4848 READING 207 0.998495
1414041629685 4847 READING 288 0.984653
1414041630116 4847 READING 288 0.978707
1414041630757 4847 READING 288 0.982953
1414041630771 4848 READING 207 0.997986
1414041631282 4847 READING 289 0.980353
1414041631843 4847 READING 289 0.977832
1414041632078 4848 READING 206 0.997184
1414041632346 4847 READING 289 0.976599
1414041632822 4847 READING 289 0.972440
1414041633212 4848 FUNCTION lru lambda h: 0.900741 * (h ** 0.018907)
1414041633212 4847 FUNCTION lru lambda h: 0.419035 * (h ** 0.119444)
1414041633212 4848 RECOMMEND 288
1414041633212 4847 RECOMMEND 288
1414041633356 4847 READING 289 0.977648
1414041633390 4848 READING 207 0.998037
1414041634040 4847 READING 290 0.972835
1414041634532 4847 READING 290 0.975768
1414041634715 4848 READING 207 0.998055
1414041634996 4847 READING 290 0.973839
1414041635589 4847 READING 290 0.962762
1414041636046 4848 READING 208 0.997233
1414041636211 4847 READING 281 0.979567
1414041637282 4847 READING 290 0.787531
1414041637390 4848 READING 208 0.998054
1414041637700 4847 READING 294 0.992303
1414041638205 4847 READING 293 0.992228
1414041638669 4847 READING 294 0.983582
1414041638678 4848 READING 208 0.997142
1414041639158 4848 READING 208 0.990579
1414041639212 4847 READING 294 0.984681
1414041639707 4848 READING 207 0.994084
1414041639733 4847 READING 273 0.988218
1414041640293 4847 READING 294 0.981796
1414041640748 4847 READING 276 0.984471
1414041641030 4848 READING 207 0.998673
1414041641336 4847 READING 292 0.983670
1414041641792 4847 READING 279 0.980732
1414041642320 4847 READING 291 0.977913
1414041642336 4848 READING 206 0.997902
1414041642830 4847 READING 282 0.981200
1414041643212 4848 FUNCTION lru lambda h: 0.900945 * (h ** 0.0188498)
1414041643213 4847 FUNCTION lru lambda h: 0.412616 * (h ** 0.123944)
1414041643213 4848 RECOMMEND 288
1414041643213 4847 RECOMMEND 288
1414041643436 4847 READING 291 0.978050
1414041643661 4848 READING 207 0.998274
1414041643913 4847 READING 291 0.977647
1414041644355 4847 READING 291 0.975273
1414041644824 4847 READING 291 0.974358
1414041644958 4848 READING 207 0.998476
1414041645251 4847 READING 291 0.970088
1414041645905 4847 READING 292 0.969542
1414041646232 4848 READING 207 0.998146
1414041646546 4847 READING 290 0.980130
1414041646948 4847 READING 293 0.934331
1414041647181 4847 READING 287 0.920820
1414041647256 4847 READING 293 0.820900
1414041647318 4847 READING 294 0.796165
1414041647365 4847 READING 297 0.696535
1414041647422 4847 READING 295 0.679117
1414041647467 4847 READING 297 0.486740
1414041647508 4847 READING 300 0.476143
1414041647538 4848 READING 207 0.994514
1414041647545 4847 READING 303 0.533808
1414041647578 4847 READING 305 0.522783
1414041647831 4847 READING 281 0.074751
1414041647852 4847 READING 321 0.955376
1414041647873 4847 READING 320 0.899302
1414041647898 4847 READING 321 0.973724
1414041647922 4847 READING 322 0.933232
1414041647945 4847 READING 322 0.968201
1414041647964 4847 READING 270 0.966041
1414041647986 4847 READING 322 0.961049
1414041648006 4847 READING 271 0.967355
1414041648032 4847 READING 320 0.968427
1414041648056 4847 READING 273 0.974486
1414041648079 4847 READING 318 0.968972
1414041648102 4847 READING 274 0.956153
1414041648127 4847 READING 315 0.951731
1414041648161 4847 READING 276 0.954983
1414041648405 4847 READING 312 0.990545
1414041648826 4847 READING 279 0.991939
1414041648848 4848 READING 207 0.998109
1414041649365 4847 READING 310 0.992147
1414041649798 4847 READING 282 0.979061
1414041650149 4848 READING 207 0.998068
1414041650213 4847 READING 307 0.984415
1414041650609 4847 READING 286 0.985749
1414041651204 4847 READING 304 0.989080
1414041651452 4848 READING 207 0.998031
1414041651657 4847 READING 289 0.984613
1414041652278 4847 READING 303 0.981629
1414041652676 4847 READING 291 0.979561
1414041652780 4848 READING 206 0.998020
1414041653088 4847 READING 303 0.979058
1414041653213 4848 FUNCTION lru lambda h: 0.900899 * (h ** 0.0188629)
1414041653213 4847 FUNCTION lru lambda h: 0.411941 * (h ** 0.124045)
1414041653213 4848 RECOMMEND 288
1414041653213 4847 RECOMMEND 288
1414041653503 4847 READING 303 0.976799
1414041653904 4847 READING 302 0.972205
1414041654078 4848 READING 207 0.998049
1414041654331 4847 READING 303 0.972085
1414041654939 4847 READING 302 0.982646
1414041655354 4847 READING 303 0.971295
1414041655418 4848 READING 208 0.997711
1414041655810 4847 READING 303 0.972449
1414041656209 4847 READING 304 0.971162
1414041656442 4848 READING 208 0.997236
1414041656702 4847 READING 304 0.975779
1414041656867 4848 READING 208 0.980154
1414041657192 4847 READING 304 0.971585
1414041657618 4847 READING 304 0.973917
1414041657808 4848 READING 208 0.995559
1414041658127 4847 READING 304 0.976633
1414041658552 4847 READING 303 0.954885
1414041658915 4847 READING 304 0.968050
1414041659118 4848 READING 207 0.998294
1414041659496 4847 READING 303 0.974863
1414041659896 4847 READING 294 0.960778
1414041660447 4848 READING 207 0.998025
1414041660488 4847 READING 302 0.978699
1414041660867 4847 READING 294 0.968309
1414041661345 4847 READING 302 0.975998
1414041661763 4848 READING 207 0.998322
1414041661780 4847 READING 294 0.971647
1414041662267 4847 READING 300 0.972348
1414041662700 4847 READING 294 0.964626
1414041663084 4848 READING 207 0.998481
1414041663176 4847 READING 299 0.975618
1414041663213 4848 FUNCTION lru lambda h: 0.901018 * (h ** 0.0188293)
1414041663213 4847 FUNCTION lru lambda h: 0.406361 * (h ** 0.127692)
1414041663213 4848 RECOMMEND 288
1414041663213 4847 RECOMMEND 288
1414041663574 4847 READING 300 0.964378
1414041663987 4847 READING 299 0.971160
1414041664400 4848 READING 207 0.996746
1414041664509 4847 READING 294 0.975269
1414041664928 4847 READING 299 0.965312
1414041665405 4847 READING 294 0.969895
1414041665720 4848 READING 207 0.997617
1414041665927 4847 READING 297 0.963089
1414041666397 4847 READING 298 0.975040
1414041666942 4847 READING 297 0.977388
1414041667050 4848 READING 207 0.998160
1414041667337 4847 READING 297 0.968292
1414041667772 4847 READING 296 0.973016
1414041668199 4847 READING 297 0.971879
1414041668355 4848 READING 207 0.998036
1414041668607 4847 READING 296 0.972503
1414041668867 4847 READING 296 0.954437
1414041669346 4847 READING 296 0.963182
1414041669642 4848 READING 206 0.997982
1414041669954 4847 READING 296 0.977931
1414041670457 4847 READING 296 0.555559
1414041670815 4847 READING 288 0.968913
1414041670883 4847 READING 294 0.869293
1414041670930 4848 READING 207 0.998027
1414041670956 4847 READING 294 0.961535
1414041670983 4847 READING 294 0.893145
1414041671041 4847 READING 294 0.823133
1414041671071 4847 READING 292 0.713415
1414041671101 4847 READING 295 0.720735
1414041671130 4847 READING 295 0.705575
1414041671160 4847 READING 297 0.683269
1414041671188 4847 READING 297 0.682225
1414041671219 4847 READING 298 0.718691
1414041671248 4847 READING 297 0.750105
1414041671278 4847 READING 283 0.651929
1414041671300 4847 READING 296 0.964220
1414041671318 4847 READING 297 0.942091
1414041671344 4847 READING 297 0.958416
1414041671370 4847 READING 298 0.937488
1414041671393 4847 READING 297 0.963143
1414041671416 4847 READING 260 0.950035
1414041671441 4847 READING 297 0.960737
1414041671468 4847 READING 261 0.957898
1414041671490 4847 READING 296 0.937936
1414041671515 4847 READING 262 0.967586
1414041671545 4847 READING 295 0.950218
1414041671574 4847 READING 265 0.946210
1414041671865 4847 READING 292 0.986421
1414041672203 4847 READING 266 0.989408
1414041672284 4848 READING 208 0.998034
1414041672668 4847 READING 290 0.992052
1414041673064 4847 READING 269 0.982895
1414041673213 4848 FUNCTION lru lambda h: 0.900806 * (h ** 0.018889)
1414041673213 4847 FUNCTION lru lambda h: 0.402155 * (h ** 0.130915)
1414041673213 4848 RECOMMEND 288
1414041673213 4847 RECOMMEND 288
1414041673437 4847 READING 289 0.980040
1414041673582 4848 READING 208 0.998175
1414041673792 4847 READING 272 0.985318
1414041674100 4848 READING 208 0.992769
1414041674166 4847 READING 288 0.974651
1414041674505 4847 READING 287 0.978396
1414041674593 4848 READING 208 0.992844
1414041674914 4847 READING 287 0.973847
1414041675456 4847 READING 287 0.985450
1414041675912 4848 READING 206 0.998139
1414041676022 4847 READING 288 0.980383
1414041676407 4847 READING 289 0.978439
1414041676799 4847 READING 289 0.972879
1414041677206 4848 READING 207 0.998300
1414041677275 4847 READING 289 0.980330
1414041677838 4847 READING 289 0.983098
1414041678291 4847 READING 290 0.969401
1414041678541 4848 READING 207 0.997376
1414041678836 4847 READING 289 0.972040
1414041679370 4847 READING 290 0.977722
1414041679750 4847 READING 290 0.971881
1414041679852 4848 READING 207 0.998469
1414041680176 4847 READING 291 0.973762
1414041680674 4847 READING 291 0.977760
1414041681172 4847 READING 291 0.978374
1414041681180 4848 READING 206 0.998275
1414041681564 4847 READING 291 0.970055
1414041681950 4847 READING 291 0.971478
1414041682296 4847 READING 290 0.963208
1414041682447 4848 READING 206 0.998033
1414041682645 4847 READING 290 0.967960
1414041683026 4847 READING 289 0.971461
1414041683213 4848 FUNCTION lru lambda h: 0.90088 * (h ** 0.018868)
1414041683213 4847 FUNCTION lru lambda h: 0.400685 * (h ** 0.13203)
1414041683213 4848 RECOMMEND 288
1414041683213 4847 RECOMMEND 288
1414041683513 4847 READING 282 0.977114
1414041683767 4848 READING 207 0.998394
1414041683961 4847 READING 289 0.966315
1414041684328 4847 READING 282 0.968810
1414041684932 4847 READING 289 0.632706
1414041685091 4848 READING 207 0.996883
1414041685447 4847 READING 277 0.995028
1414041685836 4847 READING 282 0.991242
1414041686307 4847 READING 283 0.980410
1414041686377 4848 READING 207 0.997985
1414041686679 4847 READING 285 0.980903
1414041687244 4847 READING 285 0.984633
1414041687686 4847 READING 285 0.986064
1414041687698 4848 READING 207 0.997505
1414041688113 4847 READING 286 0.984522
1414041688650 4847 READING 285 0.986966
1414041688985 4848 READING 207 0.997438
1414041689088 4847 READING 286 0.955639
1414041689571 4847 READING 286 0.983350
1414041690085 4847 READING 286 0.980079
1414041690287 4848 READING 206 0.997987
1414041690554 4847 READING 288 0.976578
1414041691306 4847 READING 288 0.959961
1414041691343 4848 READING 207 0.995504
1414041691799 4848 READING 207 0.990934
1414041691938 4847 READING 290 0.950109
1414041692535 4847 READING 291 0.980569
1414041692677 4848 READING 207 0.996790
1414041693043 4847 READING 291 0.970341
1414041693214 4848 FUNCTION lru lambda h: 0.901104 * (h ** 0.0188052)
1414041693214 4847 FUNCTION lru lambda h: 0.398288 * (h ** 0.133835)
1414041693214 4848 RECOMMEND 288
1414041693214 4847 RECOMMEND 288
1414041693759 4847 READING 292 0.976750
1414041693936 4848 READING 207 0.998249
1414041694218 4847 READING 292 0.948980
1414041694423 4847 READING 294 0.932473
1414041694517 4847 READING 297 0.864245
1414041694560 4847 READING 299 0.686209
1414041694630 4847 READING 300 0.751473
1414041694679 4847 READING 300 0.587339
1414041694720 4847 READING 305 0.641580
1414041694763 4847 READING 308 0.614815
1414041694811 4847 READING 309 0.563946
1414041695050 4847 READING 310 0.105160
1414041695083 4847 READING 326 0.972534
1414041695116 4847 READING 326 0.976680
1414041695147 4847 READING 327 0.963597
1414041695179 4847 READING 327 0.974275
1414041695209 4847 READING 326 0.969514
1414041695237 4847 READING 280 0.950340
1414041695266 4848 READING 207 0.998338
1414041695269 4847 READING 327 0.968958
1414041695298 4847 READING 281 0.974188
1414041695330 4847 READING 326 0.965023
1414041695455 4847 READING 284 0.987329
1414041696038 4847 READING 324 0.994951
1414041696604 4848 READING 207 0.998079
1414041696684 4847 READING 286 0.990853
1414041697303 4847 READING 321 0.989158
1414041697867 4847 READING 290 0.988894
1414041697909 4848 READING 207 0.998140
1414041698447 4847 READING 313 0.986032
1414041699055 4847 READING 292 0.989488
1414041699238 4848 READING 207 0.998232
1414041699481 4847 READING 309 0.980835
1414041700071 4847 READING 294 0.986460
1414041700518 4847 READING 308 0.981217
1414041700536 4848 READING 207 0.997971
1414041700928 4847 READING 296 0.978955
1414041701384 4847 READING 309 0.979224
1414041701815 4848 READING 207 0.997373
1414041701846 4847 READING 309 0.978849
1414041702298 4847 READING 309 0.977191
1414041702782 4847 READING 309 0.977441
1414041703106 4848 READING 207 0.997733
1414041703214 4848 FUNCTION lru lambda h: 0.900915 * (h ** 0.0188583)
1414041703214 4847 FUNCTION lru lambda h: 0.402003 * (h ** 0.13153)
1414041703214 4848 RECOMMEND 288
1414041703214 4847 RECOMMEND 288
1414041703365 4847 READING 308 0.977670
1414041703992 4847 READING 309 0.980828
1414041704436 4848 READING 206 0.997257
1414041704660 4847 READING 309 0.982059
1414041705177 4847 READING 310 0.972736
1414041705713 4847 READING 310 0.974057
1414041705771 4848 READING 207 0.998029
1414041706249 4847 READING 310 0.973876
1414041706773 4847 READING 309 0.974442
1414041707087 4848 READING 207 0.996656
1414041707281 4847 READING 310 0.975953
1414041707737 4847 READING 309 0.969628
1414041708369 4847 READING 309 0.980388
1414041708416 4848 READING 208 0.997737
1414041708782 4847 READING 308 0.943237
1414041709027 4848 READING 208 0.993201
1414041709237 4847 READING 300 0.960499
1414041709467 4848 READING 207 0.985419
1414041709793 4847 READING 307 0.976270
1414041710451 4847 READING 308 0.974745
1414041710778 4848 READING 207 0.997496
1414041711003 4847 READING 307 0.977157
1414041711441 4847 READING 300 0.971966
1414041711931 4847 READING 307 0.970639
1414041712097 4848 READING 206 0.998366
1414041712514 4847 READING 300 0.976664
1414041712925 4847 READING 305 0.968712
1414041713214 4848 FUNCTION lru lambda h: 0.901116 * (h ** 0.0188019)
1414041713214 4847 FUNCTION lru lambda h: 0.39058 * (h ** 0.139029)
1414041713214 4848 RECOMMEND 288
1414041713214 4847 RECOMMEND 288
1414041713387 4847 READING 300 0.953588
1414041713398 4848 READING 207 0.997557
1414041713857 4847 READING 305 0.968587
1414041714380 4847 READING 300 0.972320
1414041714686 4848 READING 207 0.998252
1414041714782 4847 READING 304 0.962774
1414041715301 4847 READING 304 0.974890
1414041715773 4847 READING 303 0.973134
1414041716011 4848 READING 207 0.998410
1414041716252 4847 READING 300 0.970096
1414041716717 4847 READING 303 0.967916
1414041717099 4847 READING 300 0.965476
1414041717316 4848 READING 207 0.997662
1414041718035 4847 READING 303 0.987408
1414041718361 4847 READING 303 0.934781
1414041718568 4848 READING 207 0.997872
1414041718751 4847 READING 298 0.964681
1414041718819 4847 READING 303 0.830745
1414041718899 4847 READING 301 0.858722
1414041718934 4847 READING 296 0.698138
1414041719211 4847 READING 301 0.170812
1414041719241 4847 READING 300 0.966099
1414041719264 4847 READING 305 0.947740
1414041719294 4847 READING 307 0.835640
1414041719318 4847 READING 308 0.930571
1414041719343 4847 READING 308 0.956918
1414041719366 4847 READING 309 0.946932
1414041719390 4847 READING 273 0.955824
1414041719420 4847 READING 309 0.975240
1414041719442 4847 READING 274 0.971653
1414041719469 4847 READING 308 0.975898
1414041719499 4847 READING 275 0.971607
1414041719529 4847 READING 308 0.964675
1414041719554 4847 READING 277 0.957017
1414041719581 4847 READING 306 0.956446
1414041719608 4847 READING 278 0.969936
1414041719636 4847 READING 305 0.963376
1414041719673 4847 READING 279 0.961919
1414041719860 4848 READING 207 0.998011
1414041720048 4847 READING 303 0.990071
1414041720580 4847 READING 282 0.993246
1414041721049 4847 READING 302 0.986149
1414041721145 4848 READING 207 0.997903
1414041721685 4847 READING 285 0.992292
1414041722206 4847 READING 299 0.988962
1414041722474 4848 READING 207 0.997789
1414041722878 4847 READING 288 0.990854
1414041723214 4848 FUNCTION lru lambda h: 0.900852 * (h ** 0.0188759)
1414041723214 4847 FUNCTION lru lambda h: 0.394044 * (h ** 0.136833)
1414041723214 4848 RECOMMEND 288
1414041723214 4847 RECOMMEND 288
1414041723524 4847 READING 299 0.988324
1414041723812 4848 READING 206 0.996348
1414041723977 4847 READING 298 0.978178
1414041724695 4847 READING 298 0.984210
1414041725129 4848 READING 207 0.998203
1414041725223 4847 READING 298 0.984035
1414041725732 4847 READING 298 0.976580
1414041726124 4847 READING 299 0.977332
1414041726271 4848 READING 207 0.997755
1414041726514 4848 READING 208 0.659649
1414041726603 4847 READING 298 0.960971
1414041726954 4848 READING 211 0.992956
1414041727045 4847 READING 299 0.977909
1414041727665 4847 READING 299 0.983302
1414041728090 4847 READING 300 0.973264
1414041728118 4848 READING 210 0.997953
1414041728586 4847 READING 301 0.977748
1414041728994 4847 READING 302 0.966809
1414041729430 4848 READING 211 0.998073
1414041729445 4847 READING 302 0.974184
1414041729861 4847 READING 302 0.973707
1414041730438 4847 READING 302 0.978392
1414041730762 4848 READING 211 0.998462
1414041730822 4847 READING 302 0.967006
1414041731280 4847 READING 301 0.971758
1414041732001 4847 READING 302 0.984326
1414041732131 4848 READING 211 0.998086
1414041732409 4847 READING 301 0.963853
1414041732923 4847 READING 292 0.976813
1414041733214 4848 FUNCTION lru lambda h: 0.914247 * (h ** 0.0151458)
1414041733215 4847 FUNCTION lru lambda h: 0.388037 * (h ** 0.140906)
1414041733215 4848 RECOMMEND 288
1414041733215 4847 RECOMMEND 288
1414041733394 4847 READING 300 0.974552
1414041733462 4848 READING 211 0.998401
1414041733917 4847 READING 292 0.977827
1414041734249 4847 READING 299 0.957041
1414041734773 4847 READING 292 0.978530
1414041734800 4848 READING 211 0.998521
1414041735177 4847 READING 299 0.970097
1414041735577 4847 READING 292 0.972187
1414041735947 4847 READING 297 0.969967
1414041736103 4848 READING 211 0.998383
1414041736445 4847 READING 292 0.974010
1414041736857 4847 READING 296 0.971628
1414041737239 4847 READING 297 0.970350
1414041737440 4848 READING 209 0.998613
1414041737781 4847 READING 296 0.973884
1414041738274 4847 READING 296 0.968451
1414041738631 4847 READING 295 0.967338
1414041738769 4848 READING 210 0.998422
1414041738888 4847 READING 292 0.932752
1414041739126 4847 READING 295 0.952167
1414041739366 4847 READING 295 0.950128
1414041739624 4847 READING 294 0.955251
1414041739876 4847 READING 295 0.953968
1414041740073 4848 READING 210 0.998306
1414041740132 4847 READING 294 0.955942
1414041740379 4847 READING 294 0.954959
1414041740684 4847 READING 293 0.955575
1414041741344 4848 READING 211 0.998269
1414041741471 4847 READING 294 0.978536
1414041741713 4847 READING 294 0.937752
1414041742159 4847 READING 294 0.972087
1414041742226 4847 READING 298 0.792884
1414041742492 4847 READING 298 0.268596
1414041742518 4847 READING 274 0.955830
1414041742579 4847 READING 274 0.821749
1414041742613 4847 READING 279 0.800888
1414041742638 4848 READING 211 0.998327
1414041742653 4847 READING 281 0.789126
1414041742694 4847 READING 288 0.826870
1414041742737 4847 READING 289 0.771940
1414041742776 4847 READING 285 0.826098
1414041742815 4847 READING 291 0.792991
1414041742846 4847 READING 287 0.968847
1414041742882 4847 READING 293 0.977852
1414041742915 4847 READING 288 0.952537
1414041742947 4847 READING 294 0.970092
1414041742980 4847 READING 294 0.972252
1414041743017 4847 READING 262 0.968024
1414041743215 4848 FUNCTION lru lambda h: 0.913636 * (h ** 0.0153144)
1414041743215 4847 FUNCTION lru lambda h: 0.391957 * (h ** 0.138127)
1414041743215 4848 RECOMMEND 288
1414041743215 4847 RECOMMEND 288
1414041743308 4847 READING 295 0.992094
1414041743819 4847 READING 263 0.985120
1414041743935 4848 READING 211 0.997956
1414041744330 4848 READING 211 0.990587
1414041744482 4847 READING 294 0.991739
1414041744963 4848 READING 209 0.994548
1414041745002 4847 READING 265 0.992559
1414041745500 4847 READING 293 0.969316
1414041746138 4847 READING 269 0.991452
1414041746261 4848 READING 210 0.998301
1414041746646 4847 READING 291 0.988009
1414041747252 4847 READING 273 0.987342
1414041747549 4848 READING 210 0.997390
1414041747916 4847 READING 289 0.988568
1414041748574 4847 READING 276 0.981529
1414041748842 4848 READING 210 0.997154
1414041749099 4847 READING 287 0.972795
1414041749619 4847 READING 287 0.980104
1414041750117 4848 READING 210 0.998156
1414041750281 4847 READING 291 0.981507
1414041751027 4847 READING 291 0.986053
1414041751414 4848 READING 210 0.998140
1414041751561 4847 READING 290 0.965398
1414041752190 4847 READING 292 0.979700
1414041752732 4848 READING 211 0.997986
1414041752995 4847 READING 291 0.984303
1414041753215 4848 FUNCTION lru lambda h: 0.913961 * (h ** 0.0152249)
1414041753215 4847 FUNCTION lru lambda h: 0.308889 * (h ** 0.182144)
1414041753215 4848 RECOMMEND 288
1414041753215 4847 RECOMMEND 288
1414041753780 4847 READING 293 0.976461
1414041754077 4848 READING 211 0.998073
1414041754520 4847 READING 293 0.981701
1414041755213 4847 READING 294 0.976054
1414041755395 4848 READING 211 0.996763
1414041755814 4847 READING 295 0.977937
1414041756522 4847 READING 295 0.978173
1414041756724 4848 READING 209 0.998112
1414041757081 4847 READING 296 0.963881
1414041757601 4847 READING 296 0.973096
1414041758020 4848 READING 210 0.998198
1414041758254 4847 READING 296 0.979104
1414041758734 4847 READING 296 0.967459
1414041759303 4848 READING 210 0.997866
1414041759594 4847 READING 296 0.735316
1414041760223 4847 READING 298 0.989063
1414041760597 4848 READING 211 0.997626
1414041760722 4847 READING 307 0.987701
1414041761294 4847 READING 308 0.987107
1414041761485 4848 READING 211 0.996735
1414041761902 4848 READING 211 0.991108
1414041761909 4847 READING 309 0.986662
1414041762577 4847 READING 283 0.987416
1414041762959 4848 READING 211 0.997262
1414041763130 4847 READING 309 0.986068
1414041763215 4848 FUNCTION lru lambda h: 0.913944 * (h ** 0.0152297)
1414041763215 4847 FUNCTION lru lambda h: 0.305793 * (h ** 0.18474)
1414041763215 4848 RECOMMEND 288
1414041763215 4847 RECOMMEND 288
1414041763634 4847 READING 286 0.982545
1414041764101 4847 READING 308 0.975566
1414041764233 4848 READING 210 0.998317
1414041764789 4847 READING 290 0.978140
1414041765491 4847 READING 304 0.983522
1414041765496 4848 READING 211 0.998321
1414041766050 4847 READING 305 0.975701
1414041766142 4847 READING 303 0.873221
1414041766225 4847 READING 306 0.830728
1414041766299 4847 READING 309 0.785720
1414041766349 4847 READING 310 0.608062
1414041766393 4847 READING 314 0.658071
1414041766438 4847 READING 318 0.665678
1414041766478 4847 READING 318 0.657054
1414041766518 4847 READING 299 0.673341
1414041766552 4847 READING 318 0.790455
1414041766792 4847 READING 284 0.112843
1414041766795 4848 READING 211 0.998193
1414041766822 4847 READING 333 0.967091
1414041766851 4847 READING 334 0.970777
1414041766885 4847 READING 334 0.929814
1414041766912 4847 READING 286 0.966909
1414041766940 4847 READING 335 0.976601
1414041766968 4847 READING 287 0.975910
1414041767004 4847 READING 334 0.941257
1414041767364 4847 READING 290 0.992607
1414041767824 4847 READING 326 0.980137
1414041768099 4848 READING 211 0.998057
1414041768489 4847 READING 289 0.993726
1414041768916 4847 READING 322 0.990360
1414041769305 4847 READING 289 0.982675
1414041769392 4848 READING 211 0.997666
1414041769891 4847 READING 319 0.993475
1414041770374 4847 READING 290 0.990800
1414041770714 4848 READING 211 0.998086
1414041770975 4847 READING 315 0.992348
1414041771484 4847 READING 292 0.984866
1414041772012 4847 READING 310 0.988146
1414041772033 4848 READING 210 0.997103
1414041772436 4847 READING 294 0.979583
1414041772858 4847 READING 309 0.983019
1414041773215 4848 FUNCTION lru lambda h: 0.913803 * (h ** 0.0152685)
1414041773215 4847 FUNCTION lru lambda h: 0.176834 * (h ** 0.281249)
1414041773215 4848 RECOMMEND 288
1414041773215 4847 RECOMMEND 288
1414041773263 4847 READING 296 0.981385
1414041773325 4848 READING 210 0.996805
1414041773884 4847 READING 308 0.987028
1414041774364 4847 READING 308 0.973829
1414041774655 4848 READING 211 0.997802
1414041775186 4847 READING 308 0.987459
1414041775608 4847 READING 308 0.963559
1414041775986 4848 READING 211 0.997353
1414041776055 4847 READING 307 0.976603
1414041776509 4847 READING 308 0.974583
1414041776967 4847 READING 308 0.975470
1414041777299 4848 READING 211 0.997945
1414041777377 4847 READING 309 0.972336
1414041777800 4847 READING 309 0.973896
1414041778207 4847 READING 309 0.972936
1414041778632 4848 READING 211 0.998287
1414041778704 4847 READING 310 0.958478
1414041779025 4848 READING 211 0.991189
1414041779069 4847 READING 310 0.966081
1414041779622 4847 READING 309 0.977739
1414041779681 4848 READING 211 0.993525
1414041779995 4847 READING 309 0.969743
1414041780468 4847 READING 308 0.973378
1414041780957 4847 READING 300 0.968724
1414041781007 4848 READING 209 0.997739
1414041781421 4847 READING 308 0.974512
1414041781824 4847 READING 299 0.971918
1414041782314 4848 READING 210 0.997198
1414041782518 4847 READING 307 0.980254
1414041782896 4847 READING 299 0.968853
1414041783216 4848 FUNCTION lru lambda h: 0.914104 * (h ** 0.0151856)
1414041783216 4847 FUNCTION lru lambda h: 0.174697 * (h ** 0.284084)
1414041783216 4848 RECOMMEND 288
1414041783216 4847 RECOMMEND 288
1414041783385 4847 READING 306 0.976402
1414041783650 4848 READING 210 0.997223
1414041784076 4847 READING 299 0.980144
1414041784657 4847 READING 306 0.980393
1414041784979 4848 READING 208 0.998227
1414041785084 4847 READING 299 0.969342
1414041785495 4847 READING 304 0.969477
1414041785931 4847 READING 299 0.973475
1414041786283 4848 READING 210 0.997751
1414041786321 4847 READING 304 0.969169
1414041786813 4847 READING 299 0.974316
1414041787233 4847 READING 304 0.973304
1414041787591 4848 READING 210 0.998032
1414041787655 4847 READING 299 0.972538
1414041788166 4847 READING 302 0.973847
1414041788548 4847 READING 303 0.969601
1414041788894 4848 READING 211 0.998024
1414041789010 4847 READING 302 0.964707
1414041789628 4847 READING 302 0.981238
1414041790136 4847 READING 304 0.581834
1414041790159 4848 READING 211 0.998000
1414041790490 4847 READING 289 0.985865
1414041790552 4847 READING 293 0.935921
1414041790626 4847 READING 294 0.956437
1414041790661 4847 READING 294 0.892892
1414041790720 4847 READING 277 0.798572
1414041790753 4847 READING 291 0.692826
1414041790788 4847 READING 294 0.692638
1414041790821 4847 READING 295 0.736576
1414041790852 4847 READING 296 0.770499
1414041790880 4847 READING 294 0.768710
1414041790902 4847 READING 295 0.954374
1414041790929 4847 READING 296 0.957719
1414041790953 4847 READING 297 0.957912
1414041790981 4847 READING 297 0.963081
1414041791003 4847 READING 264 0.952457
1414041791026 4847 READING 298 0.965048
1414041791051 4847 READING 265 0.969955
1414041791082 4847 READING 297 0.971640
1414041791105 4847 READING 266 0.968332
1414041791130 4847 READING 296 0.963411
1414041791155 4847 READING 267 0.936053
1414041791185 4847 READING 294 0.938821
1414041791471 4848 READING 211 0.998031
1414041791576 4847 READING 269 0.990453
1414041791978 4847 READING 293 0.991623
1414041792372 4847 READING 270 0.991069
1414041792747 4848 READING 209 0.997928
1414041792838 4847 READING 291 0.992144
1414041793216 4848 FUNCTION lru lambda h: 0.906753 * (h ** 0.0172256)
1414041793216 4847 FUNCTION lru lambda h: 0.175199 * (h ** 0.283875)
1414041793216 4848 RECOMMEND 288
1414041793216 4847 RECOMMEND 288
1414041793246 4847 READING 271 0.985030
1414041793748 4847 READING 290 0.991096
1414041794038 4848 READING 210 0.997968
1414041794128 4847 READING 275 0.986972
1414041794578 4847 READING 289 0.988344
1414041795125 4847 READING 277 0.989400
1414041795326 4848 READING 210 0.997287
1414041795600 4847 READING 288 0.979394
1414041796126 4847 READING 287 0.984713
1414041796205 4848 READING 211 0.996543
1414041796606 4848 READING 211 0.990582
1414041796652 4847 READING 290 0.979978
1414041797081 4847 READING 290 0.976448
1414041797618 4848 READING 210 0.996007
1414041797705 4847 READING 290 0.982187
1414041798281 4847 READING 291 0.981597
1414041798872 4847 READING 291 0.981765
1414041798959 4848 READING 211 0.997801
1414041799358 4847 READING 292 0.977439
1414041799878 4847 READING 291 0.979333
1414041800264 4848 READING 211 0.997829
1414041800338 4847 READING 293 0.973546
1414041800761 4847 READING 293 0.969847
1414041801207 4847 READING 294 0.969502
1414041801592 4848 READING 211 0.998229
1414041801702 4847 READING 293 0.976288
1414041802091 4847 READING 294 0.971180
1414041802530 4847 READING 294 0.968472
1414041802905 4848 READING 211 0.998195
1414041803018 4847 READING 294 0.977076
1414041803216 4848 FUNCTION lru lambda h: 0.906799 * (h ** 0.0172129)
1414041803216 4847 FUNCTION lru lambda h: 0.173832 * (h ** 0.28582)
1414041803216 4848 RECOMMEND 288
1414041803216 4847 RECOMMEND 288
1414041803792 4847 READING 292 0.719976
1414041804137 4847 READING 279 0.991101
1414041804246 4848 READING 211 0.997490
1414041804637 4847 READING 289 0.993351
1414041805239 4847 READING 289 0.990230
1414041805581 4848 READING 211 0.997526
1414041805723 4847 READING 289 0.984947
1414041806320 4847 READING 270 0.991116
1414041806916 4848 READING 211 0.996664
1414041806925 4847 READING 290 0.980682
1414041807291 4847 READING 273 0.982008
1414041807910 4847 READING 290 0.985859
1414041808233 4848 READING 210 0.998029
1414041808434 4847 READING 277 0.985398
1414041808862 4847 READING 288 0.980202
1414041809329 4847 READING 287 0.979715
1414041809540 4848 READING 210 0.997250
1414041809898 4847 READING 290 0.983069
1414041810552 4847 READING 290 0.984456
1414041810868 4848 READING 211 0.996687
1414041811261 4847 READING 290 0.983567
1414041811918 4847 READING 291 0.970223
1414041812198 4848 READING 211 0.997582
1414041812370 4847 READING 291 0.971918
1414041812872 4847 READING 292 0.975704
1414041813154 4847 READING 292 0.958881
1414041813216 4848 FUNCTION lru lambda h: 0.906805 * (h ** 0.0172113)
1414041813216 4847 FUNCTION lru lambda h: 0.173615 * (h ** 0.286175)
1414041813216 4848 RECOMMEND 288
1414041813216 4847 RECOMMEND 288
1414041813495 4848 READING 211 0.997906
1414041813785 4847 READING 292 0.964304
1414041814209 4847 READING 287 0.970921
1414041814615 4847 READING 293 0.937708
1414041814784 4847 READING 292 0.924664
1414041814856 4847 READING 298 0.823313
1414041814912 4847 READING 297 0.793370
1414041814948 4847 READING 283 0.694477
1414041815005 4847 READING 300 0.749232
1414041815219 4847 READING 299 0.096544
1414041815244 4847 READING 315 0.960327
1414041815267 4847 READING 316 0.967499
1414041815291 4847 READING 317 0.971245
1414041815316 4847 READING 318 0.963592
1414041815340 4847 READING 318 0.954846
1414041815365 4847 READING 277 0.966205
1414041815389 4847 READING 318 0.971148
1414041815410 4847 READING 277 0.955870
1414041815436 4847 READING 318 0.961669
1414041815462 4847 READING 279 0.968203
1414041815495 4847 READING 316 0.978843
1414041815521 4847 READING 280 0.961107
1414041815549 4847 READING 315 0.954598
1414041815582 4847 READING 282 0.969966
1414041815621 4847 READING 314 0.952969
1414041815832 4847 READING 285 0.988459
1414041816032 4848 DEATH 263
1414041816239 4847 READING 312 0.989779
1414041816729 4847 READING 287 0.992764
1414041817171 4847 READING 310 0.990949
1414041817746 4847 READING 288 0.992545
1414041818271 4847 READING 304 0.991090
1414041818650 4847 READING 290 0.985299
1414041819077 4847 READING 302 0.986123
1414041819748 4847 READING 292 0.990277
1414041820298 4847 READING 303 0.986835
1414041820774 4847 READING 303 0.983988
1414041821170 4847 READING 302 0.980275
1414041821585 4847 READING 303 0.978474
1414041822001 4847 READING 302 0.977657
1414041822418 4847 READING 303 0.976192
1414041823038 4847 READING 304 0.983274
1414041823217 4847 FUNCTION lru lambda h: 0.172513 * (h ** 0.287279)
1414041823217 4847 RECOMMEND 576
1414041823420 4847 READING 304 0.974677
1414041823983 4847 READING 305 0.980264
1414041824521 4847 READING 305 0.979628
1414041825081 4847 READING 309 0.982271
1414041825520 4847 READING 309 0.975500
1414041826240 4847 READING 313 0.982770
1414041826731 4847 READING 313 0.976950
1414041827489 4847 READING 318 0.985772
1414041828014 4847 READING 318 0.977094
1414041828714 4847 READING 323 0.983835
1414041829393 4847 READING 323 0.981263
1414041830126 4847 READING 328 0.983875
1414041830999 4847 READING 328 0.984147
1414041831808 4847 READING 334 0.983553
1414041832676 4847 READING 335 0.981733
1414041833217 4847 FUNCTION lru lambda h: 0.125358 * (h ** 0.344661)
1414041833217 4847 RECOMMEND 576
1414041833497 4847 READING 341 0.981603
1414041834354 4847 READING 342 0.979727
1414041835244 4847 READING 349 0.981212
1414041836348 4847 READING 351 0.985177
1414041836912 4847 READING 358 0.974756
1414041837044 4847 READING 360 0.835799
1414041837118 4847 READING 364 0.812666
1414041837194 4847 READING 372 0.777575
1414041837279 4847 READING 387 0.840857
1414041837361 4847 READING 389 0.833795
1414041837444 4847 READING 391 0.845909
1414041838049 4847 READING 391 0.981824
1414041839347 4847 READING 388 0.868397
1414041840383 4847 READING 371 0.994966
1414041841561 4847 READING 371 0.994622
1414041842860 4847 READING 372 0.993982
1414041843217 4847 FUNCTION lru lambda h: 0.00539619 * (h ** 0.896174)
1414041843217 4847 RECOMMEND 576
1414041844078 4847 READING 369 0.992506
1414041845149 4847 READING 371 0.990158
1414041846379 4847 READING 371 0.991010
1414041847576 4847 READING 372 0.992137
1414041849167 4847 READING 375 0.995457
1414041850485 4847 READING 376 0.993649
1414041851741 4847 READING 376 0.993443
1414041853148 4847 READING 377 0.993250
1414041853217 4847 FUNCTION lru lambda h: 0.0541348 * (h ** 0.493987)
1414041853217 4847 RECOMMEND 576
1414041854511 4847 READING 377 0.991812
1414041855943 4847 READING 379 0.990162
1414041857799 4847 READING 383 0.993051
1414041858583 4847 READING 384 0.981514
1414041858713 4847 READING 384 0.876024
1414041858822 4847 READING 387 0.857719
1414041858906 4847 READING 361 0.840497
1414041859171 4847 READING 357 0.265959
1414041859252 4847 READING 395 0.982912
1414041859284 4847 DEATH 811
