===== DaCapo 9.12 lusearch starting warmup 1 =====
===== DaCapo 9.12 lusearch completed warmup 1 in 13183 msec =====
===== DaCapo 9.12 lusearch starting warmup 2 =====
===== DaCapo 9.12 lusearch completed warmup 2 in 11229 msec =====
===== DaCapo 9.12 lusearch starting warmup 3 =====
===== DaCapo 9.12 lusearch completed warmup 3 in 11278 msec =====
===== DaCapo 9.12 lusearch starting warmup 4 =====
===== DaCapo 9.12 lusearch completed warmup 4 in 10833 msec =====
===== DaCapo 9.12 lusearch starting warmup 5 =====
===== DaCapo 9.12 lusearch completed warmup 5 in 10210 msec =====
===== DaCapo 9.12 lusearch starting warmup 6 =====
===== DaCapo 9.12 lusearch completed warmup 6 in 10216 msec =====
===== DaCapo 9.12 lusearch starting warmup 7 =====
===== DaCapo 9.12 lusearch completed warmup 7 in 9957 msec =====
===== DaCapo 9.12 lusearch starting warmup 8 =====
===== DaCapo 9.12 lusearch completed warmup 8 in 10365 msec =====
===== DaCapo 9.12 lusearch starting warmup 9 =====
===== DaCapo 9.12 lusearch completed warmup 9 in 10183 msec =====
===== DaCapo 9.12 lusearch starting warmup 10 =====
===== DaCapo 9.12 lusearch completed warmup 10 in 10154 msec =====
===== DaCapo 9.12 lusearch starting warmup 11 =====
===== DaCapo 9.12 lusearch completed warmup 11 in 10221 msec =====
===== DaCapo 9.12 lusearch starting warmup 12 =====
===== DaCapo 9.12 lusearch completed warmup 12 in 9734 msec =====
===== DaCapo 9.12 lusearch starting warmup 13 =====
===== DaCapo 9.12 lusearch completed warmup 13 in 9454 msec =====
===== DaCapo 9.12 lusearch starting warmup 14 =====
===== DaCapo 9.12 lusearch completed warmup 14 in 9828 msec =====
===== DaCapo 9.12 lusearch starting warmup 15 =====
===== DaCapo 9.12 lusearch completed warmup 15 in 9519 msec =====
===== DaCapo 9.12 lusearch starting warmup 16 =====
===== DaCapo 9.12 lusearch completed warmup 16 in 9792 msec =====
===== DaCapo 9.12 lusearch starting warmup 17 =====
===== DaCapo 9.12 lusearch completed warmup 17 in 9477 msec =====
===== DaCapo 9.12 lusearch starting warmup 18 =====
===== DaCapo 9.12 lusearch completed warmup 18 in 9862 msec =====
===== DaCapo 9.12 lusearch starting warmup 19 =====
===== DaCapo 9.12 lusearch completed warmup 19 in 9510 msec =====
===== DaCapo 9.12 lusearch starting warmup 20 =====
===== DaCapo 9.12 lusearch completed warmup 20 in 9672 msec =====
===== DaCapo 9.12 lusearch starting warmup 21 =====
===== DaCapo 9.12 lusearch completed warmup 21 in 9902 msec =====
===== DaCapo 9.12 lusearch starting warmup 22 =====
===== DaCapo 9.12 lusearch completed warmup 22 in 9519 msec =====
===== DaCapo 9.12 lusearch starting warmup 23 =====
===== DaCapo 9.12 lusearch completed warmup 23 in 9682 msec =====
===== DaCapo 9.12 lusearch starting warmup 24 =====
===== DaCapo 9.12 lusearch completed warmup 24 in 9493 msec =====
===== DaCapo 9.12 lusearch starting warmup 25 =====
===== DaCapo 9.12 lusearch completed warmup 25 in 9997 msec =====
===== DaCapo 9.12 lusearch starting warmup 26 =====
===== DaCapo 9.12 lusearch completed warmup 26 in 9529 msec =====
===== DaCapo 9.12 lusearch starting warmup 27 =====
===== DaCapo 9.12 lusearch completed warmup 27 in 9890 msec =====
===== DaCapo 9.12 lusearch starting warmup 28 =====
===== DaCapo 9.12 lusearch completed warmup 28 in 9492 msec =====
===== DaCapo 9.12 lusearch starting warmup 29 =====
===== DaCapo 9.12 lusearch completed warmup 29 in 9638 msec =====
===== DaCapo 9.12 lusearch starting warmup 30 =====
===== DaCapo 9.12 lusearch completed warmup 30 in 9582 msec =====
===== DaCapo 9.12 lusearch starting warmup 31 =====
===== DaCapo 9.12 lusearch completed warmup 31 in 9628 msec =====
===== DaCapo 9.12 lusearch starting warmup 32 =====
===== DaCapo 9.12 lusearch completed warmup 32 in 9669 msec =====
===== DaCapo 9.12 lusearch starting warmup 33 =====
===== DaCapo 9.12 lusearch completed warmup 33 in 9600 msec =====
===== DaCapo 9.12 lusearch starting warmup 34 =====
===== DaCapo 9.12 lusearch completed warmup 34 in 9742 msec =====
===== DaCapo 9.12 lusearch starting warmup 35 =====
===== DaCapo 9.12 lusearch completed warmup 35 in 9497 msec =====
===== DaCapo 9.12 lusearch starting warmup 36 =====
===== DaCapo 9.12 lusearch completed warmup 36 in 9609 msec =====
===== DaCapo 9.12 lusearch starting warmup 37 =====
===== DaCapo 9.12 lusearch completed warmup 37 in 9553 msec =====
===== DaCapo 9.12 lusearch starting warmup 38 =====
===== DaCapo 9.12 lusearch completed warmup 38 in 9744 msec =====
===== DaCapo 9.12 lusearch starting warmup 39 =====
===== DaCapo 9.12 lusearch completed warmup 39 in 9524 msec =====
===== DaCapo 9.12 lusearch starting warmup 40 =====
===== DaCapo 9.12 lusearch completed warmup 40 in 9656 msec =====
===== DaCapo 9.12 lusearch starting warmup 41 =====
===== DaCapo 9.12 lusearch completed warmup 41 in 9514 msec =====
===== DaCapo 9.12 lusearch starting warmup 42 =====
===== DaCapo 9.12 lusearch completed warmup 42 in 9944 msec =====
===== DaCapo 9.12 lusearch starting warmup 43 =====
===== DaCapo 9.12 lusearch completed warmup 43 in 10233 msec =====
===== DaCapo 9.12 lusearch starting warmup 44 =====
===== DaCapo 9.12 lusearch completed warmup 44 in 10036 msec =====
===== DaCapo 9.12 lusearch starting warmup 45 =====
===== DaCapo 9.12 lusearch completed warmup 45 in 9907 msec =====
===== DaCapo 9.12 lusearch starting warmup 46 =====
===== DaCapo 9.12 lusearch completed warmup 46 in 9623 msec =====
===== DaCapo 9.12 lusearch starting warmup 47 =====
===== DaCapo 9.12 lusearch completed warmup 47 in 9472 msec =====
===== DaCapo 9.12 lusearch starting warmup 48 =====
===== DaCapo 9.12 lusearch completed warmup 48 in 9667 msec =====
===== DaCapo 9.12 lusearch starting warmup 49 =====
===== DaCapo 9.12 lusearch completed warmup 49 in 9447 msec =====
===== DaCapo 9.12 lusearch starting warmup 50 =====
===== DaCapo 9.12 lusearch completed warmup 50 in 9787 msec =====
===== DaCapo 9.12 lusearch starting warmup 51 =====
===== DaCapo 9.12 lusearch completed warmup 51 in 10155 msec =====
===== DaCapo 9.12 lusearch starting warmup 52 =====
===== DaCapo 9.12 lusearch completed warmup 52 in 10291 msec =====
===== DaCapo 9.12 lusearch starting warmup 53 =====
===== DaCapo 9.12 lusearch completed warmup 53 in 9821 msec =====
===== DaCapo 9.12 lusearch starting warmup 54 =====
===== DaCapo 9.12 lusearch completed warmup 54 in 9685 msec =====
===== DaCapo 9.12 lusearch starting warmup 55 =====
===== DaCapo 9.12 lusearch completed warmup 55 in 9562 msec =====
===== DaCapo 9.12 lusearch starting warmup 56 =====
===== DaCapo 9.12 lusearch completed warmup 56 in 9585 msec =====
===== DaCapo 9.12 lusearch starting warmup 57 =====
===== DaCapo 9.12 lusearch completed warmup 57 in 9542 msec =====
===== DaCapo 9.12 lusearch starting warmup 58 =====
===== DaCapo 9.12 lusearch completed warmup 58 in 9704 msec =====
===== DaCapo 9.12 lusearch starting warmup 59 =====
===== DaCapo 9.12 lusearch completed warmup 59 in 9778 msec =====
===== DaCapo 9.12 lusearch starting warmup 60 =====
===== DaCapo 9.12 lusearch completed warmup 60 in 9559 msec =====
===== DaCapo 9.12 lusearch starting warmup 61 =====
===== DaCapo 9.12 lusearch completed warmup 61 in 9805 msec =====
===== DaCapo 9.12 lusearch starting warmup 62 =====
===== DaCapo 9.12 lusearch completed warmup 62 in 9579 msec =====
===== DaCapo 9.12 lusearch starting warmup 63 =====
===== DaCapo 9.12 lusearch completed warmup 63 in 9700 msec =====
===== DaCapo 9.12 lusearch starting warmup 64 =====
===== DaCapo 9.12 lusearch completed warmup 64 in 9532 msec =====
===== DaCapo 9.12 lusearch starting warmup 65 =====
===== DaCapo 9.12 lusearch completed warmup 65 in 9766 msec =====
===== DaCapo 9.12 lusearch starting warmup 66 =====
===== DaCapo 9.12 lusearch completed warmup 66 in 9574 msec =====
===== DaCapo 9.12 lusearch starting warmup 67 =====
===== DaCapo 9.12 lusearch completed warmup 67 in 9651 msec =====
===== DaCapo 9.12 lusearch starting warmup 68 =====
===== DaCapo 9.12 lusearch completed warmup 68 in 9532 msec =====
===== DaCapo 9.12 lusearch starting warmup 69 =====
===== DaCapo 9.12 lusearch completed warmup 69 in 9688 msec =====
===== DaCapo 9.12 lusearch starting warmup 70 =====
===== DaCapo 9.12 lusearch completed warmup 70 in 9543 msec =====
===== DaCapo 9.12 lusearch starting warmup 71 =====
===== DaCapo 9.12 lusearch completed warmup 71 in 9912 msec =====
===== DaCapo 9.12 lusearch starting warmup 72 =====
===== DaCapo 9.12 lusearch completed warmup 72 in 9484 msec =====
===== DaCapo 9.12 lusearch starting warmup 73 =====
===== DaCapo 9.12 lusearch completed warmup 73 in 9893 msec =====
===== DaCapo 9.12 lusearch starting warmup 74 =====
===== DaCapo 9.12 lusearch completed warmup 74 in 9443 msec =====
===== DaCapo 9.12 lusearch starting warmup 75 =====
===== DaCapo 9.12 lusearch completed warmup 75 in 9894 msec =====
===== DaCapo 9.12 lusearch starting warmup 76 =====
===== DaCapo 9.12 lusearch completed warmup 76 in 9549 msec =====
===== DaCapo 9.12 lusearch starting warmup 77 =====
===== DaCapo 9.12 lusearch completed warmup 77 in 9804 msec =====
===== DaCapo 9.12 lusearch starting warmup 78 =====
===== DaCapo 9.12 lusearch completed warmup 78 in 9513 msec =====
===== DaCapo 9.12 lusearch starting warmup 79 =====
===== DaCapo 9.12 lusearch completed warmup 79 in 9774 msec =====
===== DaCapo 9.12 lusearch starting warmup 80 =====
===== DaCapo 9.12 lusearch completed warmup 80 in 9570 msec =====
===== DaCapo 9.12 lusearch starting warmup 81 =====
===== DaCapo 9.12 lusearch completed warmup 81 in 9821 msec =====
===== DaCapo 9.12 lusearch starting warmup 82 =====
===== DaCapo 9.12 lusearch completed warmup 82 in 9802 msec =====
===== DaCapo 9.12 lusearch starting warmup 83 =====
===== DaCapo 9.12 lusearch completed warmup 83 in 9751 msec =====
===== DaCapo 9.12 lusearch starting warmup 84 =====
===== DaCapo 9.12 lusearch completed warmup 84 in 9775 msec =====
===== DaCapo 9.12 lusearch starting warmup 85 =====
===== DaCapo 9.12 lusearch completed warmup 85 in 9611 msec =====
===== DaCapo 9.12 lusearch starting warmup 86 =====
===== DaCapo 9.12 lusearch completed warmup 86 in 9799 msec =====
===== DaCapo 9.12 lusearch starting warmup 87 =====
===== DaCapo 9.12 lusearch completed warmup 87 in 9760 msec =====
===== DaCapo 9.12 lusearch starting warmup 88 =====
===== DaCapo 9.12 lusearch completed warmup 88 in 9674 msec =====
===== DaCapo 9.12 lusearch starting warmup 89 =====
===== DaCapo 9.12 lusearch completed warmup 89 in 9779 msec =====
===== DaCapo 9.12 lusearch starting warmup 90 =====
===== DaCapo 9.12 lusearch completed warmup 90 in 9978 msec =====
===== DaCapo 9.12 lusearch starting warmup 91 =====
===== DaCapo 9.12 lusearch completed warmup 91 in 9746 msec =====
===== DaCapo 9.12 lusearch starting warmup 92 =====
===== DaCapo 9.12 lusearch completed warmup 92 in 9917 msec =====
===== DaCapo 9.12 lusearch starting warmup 93 =====
===== DaCapo 9.12 lusearch completed warmup 93 in 9688 msec =====
===== DaCapo 9.12 lusearch starting warmup 94 =====
===== DaCapo 9.12 lusearch completed warmup 94 in 9871 msec =====
===== DaCapo 9.12 lusearch starting warmup 95 =====
===== DaCapo 9.12 lusearch completed warmup 95 in 9620 msec =====
===== DaCapo 9.12 lusearch starting warmup 96 =====
===== DaCapo 9.12 lusearch completed warmup 96 in 10040 msec =====
===== DaCapo 9.12 lusearch starting warmup 97 =====
===== DaCapo 9.12 lusearch completed warmup 97 in 10399 msec =====
===== DaCapo 9.12 lusearch starting warmup 98 =====
===== DaCapo 9.12 lusearch completed warmup 98 in 9815 msec =====
===== DaCapo 9.12 lusearch starting warmup 99 =====
===== DaCapo 9.12 lusearch completed warmup 99 in 9819 msec =====
===== DaCapo 9.12 lusearch starting warmup 100 =====
===== DaCapo 9.12 lusearch completed warmup 100 in 9660 msec =====
===== DaCapo 9.12 lusearch starting warmup 101 =====
===== DaCapo 9.12 lusearch completed warmup 101 in 9833 msec =====
===== DaCapo 9.12 lusearch starting warmup 102 =====
===== DaCapo 9.12 lusearch completed warmup 102 in 9661 msec =====
===== DaCapo 9.12 lusearch starting warmup 103 =====
===== DaCapo 9.12 lusearch completed warmup 103 in 9829 msec =====
===== DaCapo 9.12 lusearch starting warmup 104 =====
===== DaCapo 9.12 lusearch completed warmup 104 in 9734 msec =====
===== DaCapo 9.12 lusearch starting warmup 105 =====
===== DaCapo 9.12 lusearch completed warmup 105 in 9818 msec =====
===== DaCapo 9.12 lusearch starting warmup 106 =====
===== DaCapo 9.12 lusearch completed warmup 106 in 10374 msec =====
===== DaCapo 9.12 lusearch starting warmup 107 =====
===== DaCapo 9.12 lusearch completed warmup 107 in 9757 msec =====
===== DaCapo 9.12 lusearch starting warmup 108 =====
===== DaCapo 9.12 lusearch completed warmup 108 in 9875 msec =====
===== DaCapo 9.12 lusearch starting warmup 109 =====
===== DaCapo 9.12 lusearch completed warmup 109 in 9819 msec =====
===== DaCapo 9.12 lusearch starting warmup 110 =====
===== DaCapo 9.12 lusearch completed warmup 110 in 9763 msec =====
===== DaCapo 9.12 lusearch starting warmup 111 =====
===== DaCapo 9.12 lusearch completed warmup 111 in 9717 msec =====
===== DaCapo 9.12 lusearch starting warmup 112 =====
===== DaCapo 9.12 lusearch completed warmup 112 in 9747 msec =====
===== DaCapo 9.12 lusearch starting warmup 113 =====
===== DaCapo 9.12 lusearch completed warmup 113 in 9807 msec =====
===== DaCapo 9.12 lusearch starting warmup 114 =====
===== DaCapo 9.12 lusearch completed warmup 114 in 9711 msec =====
===== DaCapo 9.12 lusearch starting warmup 115 =====
===== DaCapo 9.12 lusearch completed warmup 115 in 10164 msec =====
===== DaCapo 9.12 lusearch starting warmup 116 =====
===== DaCapo 9.12 lusearch completed warmup 116 in 9700 msec =====
===== DaCapo 9.12 lusearch starting warmup 117 =====
===== DaCapo 9.12 lusearch completed warmup 117 in 9924 msec =====
===== DaCapo 9.12 lusearch starting warmup 118 =====
===== DaCapo 9.12 lusearch completed warmup 118 in 9883 msec =====
===== DaCapo 9.12 lusearch starting warmup 119 =====
===== DaCapo 9.12 lusearch completed warmup 119 in 9685 msec =====
===== DaCapo 9.12 lusearch starting warmup 120 =====
===== DaCapo 9.12 lusearch completed warmup 120 in 10168 msec =====
===== DaCapo 9.12 lusearch starting warmup 121 =====
