===== DaCapo 9.12 lusearch starting warmup 1 =====
===== DaCapo 9.12 lusearch completed warmup 1 in 7597 msec =====
===== DaCapo 9.12 lusearch starting warmup 2 =====
===== DaCapo 9.12 lusearch completed warmup 2 in 5821 msec =====
===== DaCapo 9.12 lusearch starting warmup 3 =====
===== DaCapo 9.12 lusearch completed warmup 3 in 5806 msec =====
===== DaCapo 9.12 lusearch starting warmup 4 =====
===== DaCapo 9.12 lusearch completed warmup 4 in 5802 msec =====
===== DaCapo 9.12 lusearch starting warmup 5 =====
===== DaCapo 9.12 lusearch completed warmup 5 in 5838 msec =====
===== DaCapo 9.12 lusearch starting warmup 6 =====
===== DaCapo 9.12 lusearch completed warmup 6 in 5794 msec =====
===== DaCapo 9.12 lusearch starting warmup 7 =====
===== DaCapo 9.12 lusearch completed warmup 7 in 5786 msec =====
===== DaCapo 9.12 lusearch starting warmup 8 =====
===== DaCapo 9.12 lusearch completed warmup 8 in 5766 msec =====
===== DaCapo 9.12 lusearch starting warmup 9 =====
===== DaCapo 9.12 lusearch completed warmup 9 in 5815 msec =====
===== DaCapo 9.12 lusearch starting warmup 10 =====
===== DaCapo 9.12 lusearch completed warmup 10 in 5794 msec =====
===== DaCapo 9.12 lusearch starting warmup 11 =====
===== DaCapo 9.12 lusearch completed warmup 11 in 5773 msec =====
===== DaCapo 9.12 lusearch starting warmup 12 =====
===== DaCapo 9.12 lusearch completed warmup 12 in 5761 msec =====
===== DaCapo 9.12 lusearch starting warmup 13 =====
===== DaCapo 9.12 lusearch completed warmup 13 in 5763 msec =====
===== DaCapo 9.12 lusearch starting warmup 14 =====
===== DaCapo 9.12 lusearch completed warmup 14 in 5797 msec =====
===== DaCapo 9.12 lusearch starting warmup 15 =====
===== DaCapo 9.12 lusearch completed warmup 15 in 5810 msec =====
===== DaCapo 9.12 lusearch starting warmup 16 =====
===== DaCapo 9.12 lusearch completed warmup 16 in 5777 msec =====
===== DaCapo 9.12 lusearch starting warmup 17 =====
===== DaCapo 9.12 lusearch completed warmup 17 in 5790 msec =====
===== DaCapo 9.12 lusearch starting warmup 18 =====
===== DaCapo 9.12 lusearch completed warmup 18 in 5778 msec =====
===== DaCapo 9.12 lusearch starting warmup 19 =====
===== DaCapo 9.12 lusearch completed warmup 19 in 5848 msec =====
===== DaCapo 9.12 lusearch starting warmup 20 =====
===== DaCapo 9.12 lusearch completed warmup 20 in 5794 msec =====
===== DaCapo 9.12 lusearch starting warmup 21 =====
===== DaCapo 9.12 lusearch completed warmup 21 in 5802 msec =====
===== DaCapo 9.12 lusearch starting warmup 22 =====
===== DaCapo 9.12 lusearch completed warmup 22 in 5772 msec =====
===== DaCapo 9.12 lusearch starting warmup 23 =====
===== DaCapo 9.12 lusearch completed warmup 23 in 5805 msec =====
===== DaCapo 9.12 lusearch starting warmup 24 =====
===== DaCapo 9.12 lusearch completed warmup 24 in 5778 msec =====
===== DaCapo 9.12 lusearch starting warmup 25 =====
===== DaCapo 9.12 lusearch completed warmup 25 in 5778 msec =====
===== DaCapo 9.12 lusearch starting warmup 26 =====
===== DaCapo 9.12 lusearch completed warmup 26 in 5815 msec =====
===== DaCapo 9.12 lusearch starting warmup 27 =====
===== DaCapo 9.12 lusearch completed warmup 27 in 5827 msec =====
===== DaCapo 9.12 lusearch starting warmup 28 =====
===== DaCapo 9.12 lusearch completed warmup 28 in 5830 msec =====
===== DaCapo 9.12 lusearch starting warmup 29 =====
===== DaCapo 9.12 lusearch completed warmup 29 in 5781 msec =====
===== DaCapo 9.12 lusearch starting warmup 30 =====
===== DaCapo 9.12 lusearch completed warmup 30 in 5833 msec =====
===== DaCapo 9.12 lusearch starting warmup 31 =====
===== DaCapo 9.12 lusearch completed warmup 31 in 5775 msec =====
===== DaCapo 9.12 lusearch starting warmup 32 =====
===== DaCapo 9.12 lusearch completed warmup 32 in 5778 msec =====
===== DaCapo 9.12 lusearch starting warmup 33 =====
===== DaCapo 9.12 lusearch completed warmup 33 in 5785 msec =====
===== DaCapo 9.12 lusearch starting warmup 34 =====
===== DaCapo 9.12 lusearch completed warmup 34 in 5796 msec =====
===== DaCapo 9.12 lusearch starting warmup 35 =====
===== DaCapo 9.12 lusearch completed warmup 35 in 5764 msec =====
===== DaCapo 9.12 lusearch starting warmup 36 =====
===== DaCapo 9.12 lusearch completed warmup 36 in 5771 msec =====
===== DaCapo 9.12 lusearch starting warmup 37 =====
===== DaCapo 9.12 lusearch completed warmup 37 in 5781 msec =====
===== DaCapo 9.12 lusearch starting warmup 38 =====
===== DaCapo 9.12 lusearch completed warmup 38 in 5775 msec =====
===== DaCapo 9.12 lusearch starting warmup 39 =====
===== DaCapo 9.12 lusearch completed warmup 39 in 5784 msec =====
===== DaCapo 9.12 lusearch starting warmup 40 =====
===== DaCapo 9.12 lusearch completed warmup 40 in 5779 msec =====
===== DaCapo 9.12 lusearch starting warmup 41 =====
===== DaCapo 9.12 lusearch completed warmup 41 in 5759 msec =====
===== DaCapo 9.12 lusearch starting warmup 42 =====
===== DaCapo 9.12 lusearch completed warmup 42 in 5774 msec =====
===== DaCapo 9.12 lusearch starting warmup 43 =====
===== DaCapo 9.12 lusearch completed warmup 43 in 5773 msec =====
===== DaCapo 9.12 lusearch starting warmup 44 =====
===== DaCapo 9.12 lusearch completed warmup 44 in 5785 msec =====
===== DaCapo 9.12 lusearch starting warmup 45 =====
===== DaCapo 9.12 lusearch completed warmup 45 in 5802 msec =====
===== DaCapo 9.12 lusearch starting warmup 46 =====
===== DaCapo 9.12 lusearch completed warmup 46 in 5768 msec =====
===== DaCapo 9.12 lusearch starting warmup 47 =====
===== DaCapo 9.12 lusearch completed warmup 47 in 5804 msec =====
===== DaCapo 9.12 lusearch starting warmup 48 =====
===== DaCapo 9.12 lusearch completed warmup 48 in 5780 msec =====
===== DaCapo 9.12 lusearch starting warmup 49 =====
===== DaCapo 9.12 lusearch completed warmup 49 in 5813 msec =====
===== DaCapo 9.12 lusearch starting warmup 50 =====
===== DaCapo 9.12 lusearch completed warmup 50 in 5807 msec =====
===== DaCapo 9.12 lusearch starting warmup 51 =====
===== DaCapo 9.12 lusearch completed warmup 51 in 5817 msec =====
===== DaCapo 9.12 lusearch starting warmup 52 =====
===== DaCapo 9.12 lusearch completed warmup 52 in 5800 msec =====
===== DaCapo 9.12 lusearch starting warmup 53 =====
===== DaCapo 9.12 lusearch completed warmup 53 in 5798 msec =====
===== DaCapo 9.12 lusearch starting warmup 54 =====
===== DaCapo 9.12 lusearch completed warmup 54 in 5777 msec =====
===== DaCapo 9.12 lusearch starting warmup 55 =====
===== DaCapo 9.12 lusearch completed warmup 55 in 5805 msec =====
===== DaCapo 9.12 lusearch starting warmup 56 =====
===== DaCapo 9.12 lusearch completed warmup 56 in 5808 msec =====
===== DaCapo 9.12 lusearch starting warmup 57 =====
===== DaCapo 9.12 lusearch completed warmup 57 in 5763 msec =====
===== DaCapo 9.12 lusearch starting warmup 58 =====
===== DaCapo 9.12 lusearch completed warmup 58 in 5783 msec =====
===== DaCapo 9.12 lusearch starting warmup 59 =====
===== DaCapo 9.12 lusearch completed warmup 59 in 5794 msec =====
===== DaCapo 9.12 lusearch starting warmup 60 =====
===== DaCapo 9.12 lusearch completed warmup 60 in 5798 msec =====
===== DaCapo 9.12 lusearch starting warmup 61 =====
===== DaCapo 9.12 lusearch completed warmup 61 in 5797 msec =====
===== DaCapo 9.12 lusearch starting warmup 62 =====
===== DaCapo 9.12 lusearch completed warmup 62 in 5761 msec =====
===== DaCapo 9.12 lusearch starting warmup 63 =====
===== DaCapo 9.12 lusearch completed warmup 63 in 5789 msec =====
===== DaCapo 9.12 lusearch starting warmup 64 =====
===== DaCapo 9.12 lusearch completed warmup 64 in 5805 msec =====
===== DaCapo 9.12 lusearch starting warmup 65 =====
===== DaCapo 9.12 lusearch completed warmup 65 in 5751 msec =====
===== DaCapo 9.12 lusearch starting warmup 66 =====
===== DaCapo 9.12 lusearch completed warmup 66 in 5792 msec =====
===== DaCapo 9.12 lusearch starting warmup 67 =====
===== DaCapo 9.12 lusearch completed warmup 67 in 5814 msec =====
===== DaCapo 9.12 lusearch starting warmup 68 =====
===== DaCapo 9.12 lusearch completed warmup 68 in 5820 msec =====
===== DaCapo 9.12 lusearch starting warmup 69 =====
===== DaCapo 9.12 lusearch completed warmup 69 in 5816 msec =====
===== DaCapo 9.12 lusearch starting warmup 70 =====
===== DaCapo 9.12 lusearch completed warmup 70 in 5793 msec =====
===== DaCapo 9.12 lusearch starting warmup 71 =====
===== DaCapo 9.12 lusearch completed warmup 71 in 5839 msec =====
===== DaCapo 9.12 lusearch starting warmup 72 =====
===== DaCapo 9.12 lusearch completed warmup 72 in 5799 msec =====
===== DaCapo 9.12 lusearch starting warmup 73 =====
===== DaCapo 9.12 lusearch completed warmup 73 in 5798 msec =====
===== DaCapo 9.12 lusearch starting warmup 74 =====
===== DaCapo 9.12 lusearch completed warmup 74 in 5790 msec =====
===== DaCapo 9.12 lusearch starting warmup 75 =====
===== DaCapo 9.12 lusearch completed warmup 75 in 5771 msec =====
===== DaCapo 9.12 lusearch starting warmup 76 =====
===== DaCapo 9.12 lusearch completed warmup 76 in 5757 msec =====
===== DaCapo 9.12 lusearch starting warmup 77 =====
===== DaCapo 9.12 lusearch completed warmup 77 in 5777 msec =====
===== DaCapo 9.12 lusearch starting warmup 78 =====
===== DaCapo 9.12 lusearch completed warmup 78 in 5886 msec =====
===== DaCapo 9.12 lusearch starting warmup 79 =====
===== DaCapo 9.12 lusearch completed warmup 79 in 5868 msec =====
===== DaCapo 9.12 lusearch starting warmup 80 =====
===== DaCapo 9.12 lusearch completed warmup 80 in 5819 msec =====
===== DaCapo 9.12 lusearch starting warmup 81 =====
===== DaCapo 9.12 lusearch completed warmup 81 in 5785 msec =====
===== DaCapo 9.12 lusearch starting warmup 82 =====
===== DaCapo 9.12 lusearch completed warmup 82 in 5840 msec =====
===== DaCapo 9.12 lusearch starting warmup 83 =====
===== DaCapo 9.12 lusearch completed warmup 83 in 5825 msec =====
===== DaCapo 9.12 lusearch starting warmup 84 =====
===== DaCapo 9.12 lusearch completed warmup 84 in 5833 msec =====
===== DaCapo 9.12 lusearch starting warmup 85 =====
===== DaCapo 9.12 lusearch completed warmup 85 in 5798 msec =====
===== DaCapo 9.12 lusearch starting warmup 86 =====
===== DaCapo 9.12 lusearch completed warmup 86 in 5797 msec =====
===== DaCapo 9.12 lusearch starting warmup 87 =====
===== DaCapo 9.12 lusearch completed warmup 87 in 5819 msec =====
===== DaCapo 9.12 lusearch starting warmup 88 =====
===== DaCapo 9.12 lusearch completed warmup 88 in 5785 msec =====
===== DaCapo 9.12 lusearch starting warmup 89 =====
===== DaCapo 9.12 lusearch completed warmup 89 in 5776 msec =====
===== DaCapo 9.12 lusearch starting warmup 90 =====
===== DaCapo 9.12 lusearch completed warmup 90 in 5796 msec =====
===== DaCapo 9.12 lusearch starting warmup 91 =====
===== DaCapo 9.12 lusearch completed warmup 91 in 5763 msec =====
===== DaCapo 9.12 lusearch starting warmup 92 =====
===== DaCapo 9.12 lusearch completed warmup 92 in 5810 msec =====
===== DaCapo 9.12 lusearch starting warmup 93 =====
===== DaCapo 9.12 lusearch completed warmup 93 in 5813 msec =====
===== DaCapo 9.12 lusearch starting warmup 94 =====
===== DaCapo 9.12 lusearch completed warmup 94 in 5803 msec =====
===== DaCapo 9.12 lusearch starting warmup 95 =====
===== DaCapo 9.12 lusearch completed warmup 95 in 5794 msec =====
===== DaCapo 9.12 lusearch starting warmup 96 =====
===== DaCapo 9.12 lusearch completed warmup 96 in 5823 msec =====
===== DaCapo 9.12 lusearch starting warmup 97 =====
===== DaCapo 9.12 lusearch completed warmup 97 in 5812 msec =====
===== DaCapo 9.12 lusearch starting warmup 98 =====
===== DaCapo 9.12 lusearch completed warmup 98 in 5805 msec =====
===== DaCapo 9.12 lusearch starting warmup 99 =====
===== DaCapo 9.12 lusearch completed warmup 99 in 5807 msec =====
===== DaCapo 9.12 lusearch starting warmup 100 =====
===== DaCapo 9.12 lusearch completed warmup 100 in 5788 msec =====
===== DaCapo 9.12 lusearch starting warmup 101 =====
===== DaCapo 9.12 lusearch completed warmup 101 in 5830 msec =====
===== DaCapo 9.12 lusearch starting warmup 102 =====
===== DaCapo 9.12 lusearch completed warmup 102 in 5749 msec =====
===== DaCapo 9.12 lusearch starting warmup 103 =====
===== DaCapo 9.12 lusearch completed warmup 103 in 5783 msec =====
===== DaCapo 9.12 lusearch starting warmup 104 =====
===== DaCapo 9.12 lusearch completed warmup 104 in 5810 msec =====
===== DaCapo 9.12 lusearch starting warmup 105 =====
===== DaCapo 9.12 lusearch completed warmup 105 in 5804 msec =====
===== DaCapo 9.12 lusearch starting warmup 106 =====
===== DaCapo 9.12 lusearch completed warmup 106 in 5791 msec =====
===== DaCapo 9.12 lusearch starting warmup 107 =====
===== DaCapo 9.12 lusearch completed warmup 107 in 5781 msec =====
===== DaCapo 9.12 lusearch starting warmup 108 =====
===== DaCapo 9.12 lusearch completed warmup 108 in 5831 msec =====
===== DaCapo 9.12 lusearch starting warmup 109 =====
===== DaCapo 9.12 lusearch completed warmup 109 in 5778 msec =====
===== DaCapo 9.12 lusearch starting warmup 110 =====
===== DaCapo 9.12 lusearch completed warmup 110 in 5810 msec =====
===== DaCapo 9.12 lusearch starting warmup 111 =====
===== DaCapo 9.12 lusearch completed warmup 111 in 5857 msec =====
===== DaCapo 9.12 lusearch starting warmup 112 =====
===== DaCapo 9.12 lusearch completed warmup 112 in 5801 msec =====
===== DaCapo 9.12 lusearch starting warmup 113 =====
===== DaCapo 9.12 lusearch completed warmup 113 in 5786 msec =====
===== DaCapo 9.12 lusearch starting warmup 114 =====
===== DaCapo 9.12 lusearch completed warmup 114 in 5796 msec =====
===== DaCapo 9.12 lusearch starting warmup 115 =====
===== DaCapo 9.12 lusearch completed warmup 115 in 5784 msec =====
===== DaCapo 9.12 lusearch starting warmup 116 =====
===== DaCapo 9.12 lusearch completed warmup 116 in 5799 msec =====
===== DaCapo 9.12 lusearch starting warmup 117 =====
===== DaCapo 9.12 lusearch completed warmup 117 in 5796 msec =====
===== DaCapo 9.12 lusearch starting warmup 118 =====
===== DaCapo 9.12 lusearch completed warmup 118 in 5769 msec =====
===== DaCapo 9.12 lusearch starting warmup 119 =====
===== DaCapo 9.12 lusearch completed warmup 119 in 5769 msec =====
===== DaCapo 9.12 lusearch starting warmup 120 =====
===== DaCapo 9.12 lusearch completed warmup 120 in 5777 msec =====
===== DaCapo 9.12 lusearch starting warmup 121 =====
===== DaCapo 9.12 lusearch completed warmup 121 in 5791 msec =====
===== DaCapo 9.12 lusearch starting warmup 122 =====
===== DaCapo 9.12 lusearch completed warmup 122 in 5798 msec =====
===== DaCapo 9.12 lusearch starting warmup 123 =====
===== DaCapo 9.12 lusearch completed warmup 123 in 5771 msec =====
===== DaCapo 9.12 lusearch starting warmup 124 =====
===== DaCapo 9.12 lusearch completed warmup 124 in 5796 msec =====
===== DaCapo 9.12 lusearch starting warmup 125 =====
===== DaCapo 9.12 lusearch completed warmup 125 in 5766 msec =====
===== DaCapo 9.12 lusearch starting warmup 126 =====
===== DaCapo 9.12 lusearch completed warmup 126 in 5819 msec =====
===== DaCapo 9.12 lusearch starting warmup 127 =====
===== DaCapo 9.12 lusearch completed warmup 127 in 5803 msec =====
===== DaCapo 9.12 lusearch starting warmup 128 =====
===== DaCapo 9.12 lusearch completed warmup 128 in 5782 msec =====
===== DaCapo 9.12 lusearch starting warmup 129 =====
===== DaCapo 9.12 lusearch completed warmup 129 in 5819 msec =====
===== DaCapo 9.12 lusearch starting warmup 130 =====
===== DaCapo 9.12 lusearch completed warmup 130 in 5799 msec =====
===== DaCapo 9.12 lusearch starting warmup 131 =====
===== DaCapo 9.12 lusearch completed warmup 131 in 5810 msec =====
===== DaCapo 9.12 lusearch starting warmup 132 =====
===== DaCapo 9.12 lusearch completed warmup 132 in 5805 msec =====
===== DaCapo 9.12 lusearch starting warmup 133 =====
===== DaCapo 9.12 lusearch completed warmup 133 in 5834 msec =====
===== DaCapo 9.12 lusearch starting warmup 134 =====
===== DaCapo 9.12 lusearch completed warmup 134 in 5791 msec =====
===== DaCapo 9.12 lusearch starting warmup 135 =====
===== DaCapo 9.12 lusearch completed warmup 135 in 5783 msec =====
===== DaCapo 9.12 lusearch starting warmup 136 =====
===== DaCapo 9.12 lusearch completed warmup 136 in 5770 msec =====
===== DaCapo 9.12 lusearch starting warmup 137 =====
===== DaCapo 9.12 lusearch completed warmup 137 in 5782 msec =====
===== DaCapo 9.12 lusearch starting warmup 138 =====
===== DaCapo 9.12 lusearch completed warmup 138 in 5807 msec =====
===== DaCapo 9.12 lusearch starting warmup 139 =====
===== DaCapo 9.12 lusearch completed warmup 139 in 5945 msec =====
===== DaCapo 9.12 lusearch starting warmup 140 =====
===== DaCapo 9.12 lusearch completed warmup 140 in 5775 msec =====
===== DaCapo 9.12 lusearch starting warmup 141 =====
===== DaCapo 9.12 lusearch completed warmup 141 in 5784 msec =====
===== DaCapo 9.12 lusearch starting warmup 142 =====
===== DaCapo 9.12 lusearch completed warmup 142 in 5797 msec =====
===== DaCapo 9.12 lusearch starting warmup 143 =====
===== DaCapo 9.12 lusearch completed warmup 143 in 5794 msec =====
===== DaCapo 9.12 lusearch starting warmup 144 =====
===== DaCapo 9.12 lusearch completed warmup 144 in 5772 msec =====
===== DaCapo 9.12 lusearch starting warmup 145 =====
===== DaCapo 9.12 lusearch completed warmup 145 in 5802 msec =====
===== DaCapo 9.12 lusearch starting warmup 146 =====
===== DaCapo 9.12 lusearch completed warmup 146 in 5797 msec =====
===== DaCapo 9.12 lusearch starting warmup 147 =====
===== DaCapo 9.12 lusearch completed warmup 147 in 5786 msec =====
===== DaCapo 9.12 lusearch starting warmup 148 =====
===== DaCapo 9.12 lusearch completed warmup 148 in 5818 msec =====
===== DaCapo 9.12 lusearch starting warmup 149 =====
===== DaCapo 9.12 lusearch completed warmup 149 in 5828 msec =====
===== DaCapo 9.12 lusearch starting warmup 150 =====
===== DaCapo 9.12 lusearch completed warmup 150 in 5764 msec =====
===== DaCapo 9.12 lusearch starting warmup 151 =====
===== DaCapo 9.12 lusearch completed warmup 151 in 5814 msec =====
===== DaCapo 9.12 lusearch starting warmup 152 =====
===== DaCapo 9.12 lusearch completed warmup 152 in 5813 msec =====
===== DaCapo 9.12 lusearch starting warmup 153 =====
===== DaCapo 9.12 lusearch completed warmup 153 in 5817 msec =====
===== DaCapo 9.12 lusearch starting warmup 154 =====
===== DaCapo 9.12 lusearch completed warmup 154 in 5809 msec =====
===== DaCapo 9.12 lusearch starting warmup 155 =====
===== DaCapo 9.12 lusearch completed warmup 155 in 5818 msec =====
===== DaCapo 9.12 lusearch starting warmup 156 =====
===== DaCapo 9.12 lusearch completed warmup 156 in 5791 msec =====
===== DaCapo 9.12 lusearch starting warmup 157 =====
===== DaCapo 9.12 lusearch completed warmup 157 in 5848 msec =====
===== DaCapo 9.12 lusearch starting warmup 158 =====
===== DaCapo 9.12 lusearch completed warmup 158 in 5808 msec =====
===== DaCapo 9.12 lusearch starting warmup 159 =====
===== DaCapo 9.12 lusearch completed warmup 159 in 5820 msec =====
===== DaCapo 9.12 lusearch starting warmup 160 =====
===== DaCapo 9.12 lusearch completed warmup 160 in 5803 msec =====
===== DaCapo 9.12 lusearch starting warmup 161 =====
===== DaCapo 9.12 lusearch completed warmup 161 in 5840 msec =====
===== DaCapo 9.12 lusearch starting warmup 162 =====
===== DaCapo 9.12 lusearch completed warmup 162 in 5829 msec =====
===== DaCapo 9.12 lusearch starting warmup 163 =====
===== DaCapo 9.12 lusearch completed warmup 163 in 5800 msec =====
===== DaCapo 9.12 lusearch starting warmup 164 =====
===== DaCapo 9.12 lusearch completed warmup 164 in 5841 msec =====
===== DaCapo 9.12 lusearch starting warmup 165 =====
===== DaCapo 9.12 lusearch completed warmup 165 in 5788 msec =====
===== DaCapo 9.12 lusearch starting warmup 166 =====
===== DaCapo 9.12 lusearch completed warmup 166 in 5817 msec =====
===== DaCapo 9.12 lusearch starting warmup 167 =====
===== DaCapo 9.12 lusearch completed warmup 167 in 5801 msec =====
===== DaCapo 9.12 lusearch starting warmup 168 =====
===== DaCapo 9.12 lusearch completed warmup 168 in 5782 msec =====
===== DaCapo 9.12 lusearch starting warmup 169 =====
===== DaCapo 9.12 lusearch completed warmup 169 in 5848 msec =====
===== DaCapo 9.12 lusearch starting warmup 170 =====
===== DaCapo 9.12 lusearch completed warmup 170 in 5796 msec =====
===== DaCapo 9.12 lusearch starting warmup 171 =====
===== DaCapo 9.12 lusearch completed warmup 171 in 5801 msec =====
===== DaCapo 9.12 lusearch starting warmup 172 =====
===== DaCapo 9.12 lusearch completed warmup 172 in 5836 msec =====
===== DaCapo 9.12 lusearch starting warmup 173 =====
===== DaCapo 9.12 lusearch completed warmup 173 in 5771 msec =====
===== DaCapo 9.12 lusearch starting warmup 174 =====
===== DaCapo 9.12 lusearch completed warmup 174 in 5863 msec =====
===== DaCapo 9.12 lusearch starting warmup 175 =====
===== DaCapo 9.12 lusearch completed warmup 175 in 5803 msec =====
===== DaCapo 9.12 lusearch starting warmup 176 =====
===== DaCapo 9.12 lusearch completed warmup 176 in 5816 msec =====
===== DaCapo 9.12 lusearch starting warmup 177 =====
===== DaCapo 9.12 lusearch completed warmup 177 in 5795 msec =====
===== DaCapo 9.12 lusearch starting warmup 178 =====
===== DaCapo 9.12 lusearch completed warmup 178 in 5795 msec =====
===== DaCapo 9.12 lusearch starting warmup 179 =====
===== DaCapo 9.12 lusearch completed warmup 179 in 5773 msec =====
===== DaCapo 9.12 lusearch starting warmup 180 =====
===== DaCapo 9.12 lusearch completed warmup 180 in 5838 msec =====
===== DaCapo 9.12 lusearch starting warmup 181 =====
===== DaCapo 9.12 lusearch completed warmup 181 in 5807 msec =====
===== DaCapo 9.12 lusearch starting warmup 182 =====
===== DaCapo 9.12 lusearch completed warmup 182 in 5799 msec =====
===== DaCapo 9.12 lusearch starting warmup 183 =====
===== DaCapo 9.12 lusearch completed warmup 183 in 5817 msec =====
===== DaCapo 9.12 lusearch starting warmup 184 =====
===== DaCapo 9.12 lusearch completed warmup 184 in 5905 msec =====
===== DaCapo 9.12 lusearch starting warmup 185 =====
===== DaCapo 9.12 lusearch completed warmup 185 in 5840 msec =====
===== DaCapo 9.12 lusearch starting warmup 186 =====
===== DaCapo 9.12 lusearch completed warmup 186 in 5824 msec =====
===== DaCapo 9.12 lusearch starting warmup 187 =====
===== DaCapo 9.12 lusearch completed warmup 187 in 5784 msec =====
===== DaCapo 9.12 lusearch starting warmup 188 =====
===== DaCapo 9.12 lusearch completed warmup 188 in 5790 msec =====
===== DaCapo 9.12 lusearch starting warmup 189 =====
===== DaCapo 9.12 lusearch completed warmup 189 in 5771 msec =====
===== DaCapo 9.12 lusearch starting warmup 190 =====
===== DaCapo 9.12 lusearch completed warmup 190 in 5813 msec =====
===== DaCapo 9.12 lusearch starting warmup 191 =====
===== DaCapo 9.12 lusearch completed warmup 191 in 5828 msec =====
===== DaCapo 9.12 lusearch starting warmup 192 =====
===== DaCapo 9.12 lusearch completed warmup 192 in 5825 msec =====
===== DaCapo 9.12 lusearch starting warmup 193 =====
===== DaCapo 9.12 lusearch completed warmup 193 in 5791 msec =====
===== DaCapo 9.12 lusearch starting warmup 194 =====
===== DaCapo 9.12 lusearch completed warmup 194 in 5830 msec =====
===== DaCapo 9.12 lusearch starting warmup 195 =====
===== DaCapo 9.12 lusearch completed warmup 195 in 5832 msec =====
===== DaCapo 9.12 lusearch starting warmup 196 =====
===== DaCapo 9.12 lusearch completed warmup 196 in 5779 msec =====
===== DaCapo 9.12 lusearch starting warmup 197 =====
===== DaCapo 9.12 lusearch completed warmup 197 in 5801 msec =====
===== DaCapo 9.12 lusearch starting warmup 198 =====
===== DaCapo 9.12 lusearch completed warmup 198 in 5818 msec =====
===== DaCapo 9.12 lusearch starting warmup 199 =====
===== DaCapo 9.12 lusearch completed warmup 199 in 5813 msec =====
===== DaCapo 9.12 lusearch starting warmup 200 =====
