===== DaCapo 9.12 sunflow starting warmup 1 =====
===== DaCapo 9.12 sunflow completed warmup 1 in 9239 msec =====
===== DaCapo 9.12 sunflow starting warmup 2 =====
===== DaCapo 9.12 sunflow completed warmup 2 in 8413 msec =====
===== DaCapo 9.12 sunflow starting warmup 3 =====
===== DaCapo 9.12 sunflow completed warmup 3 in 8458 msec =====
===== DaCapo 9.12 sunflow starting warmup 4 =====
===== DaCapo 9.12 sunflow completed warmup 4 in 7752 msec =====
===== DaCapo 9.12 sunflow starting warmup 5 =====
===== DaCapo 9.12 sunflow completed warmup 5 in 8229 msec =====
===== DaCapo 9.12 sunflow starting warmup 6 =====
===== DaCapo 9.12 sunflow completed warmup 6 in 7310 msec =====
===== DaCapo 9.12 sunflow starting warmup 7 =====
===== DaCapo 9.12 sunflow completed warmup 7 in 7403 msec =====
===== DaCapo 9.12 sunflow starting warmup 8 =====
===== DaCapo 9.12 sunflow completed warmup 8 in 7384 msec =====
===== DaCapo 9.12 sunflow starting warmup 9 =====
===== DaCapo 9.12 sunflow completed warmup 9 in 7727 msec =====
===== DaCapo 9.12 sunflow starting warmup 10 =====
===== DaCapo 9.12 sunflow completed warmup 10 in 7620 msec =====
===== DaCapo 9.12 sunflow starting warmup 11 =====
===== DaCapo 9.12 sunflow completed warmup 11 in 7643 msec =====
===== DaCapo 9.12 sunflow starting warmup 12 =====
===== DaCapo 9.12 sunflow completed warmup 12 in 7962 msec =====
===== DaCapo 9.12 sunflow starting warmup 13 =====
===== DaCapo 9.12 sunflow completed warmup 13 in 7549 msec =====
===== DaCapo 9.12 sunflow starting warmup 14 =====
===== DaCapo 9.12 sunflow completed warmup 14 in 7439 msec =====
===== DaCapo 9.12 sunflow starting warmup 15 =====
===== DaCapo 9.12 sunflow completed warmup 15 in 7439 msec =====
===== DaCapo 9.12 sunflow starting warmup 16 =====
===== DaCapo 9.12 sunflow completed warmup 16 in 7382 msec =====
===== DaCapo 9.12 sunflow starting warmup 17 =====
===== DaCapo 9.12 sunflow completed warmup 17 in 8047 msec =====
===== DaCapo 9.12 sunflow starting warmup 18 =====
===== DaCapo 9.12 sunflow completed warmup 18 in 7462 msec =====
===== DaCapo 9.12 sunflow starting warmup 19 =====
===== DaCapo 9.12 sunflow completed warmup 19 in 7519 msec =====
===== DaCapo 9.12 sunflow starting warmup 20 =====
===== DaCapo 9.12 sunflow completed warmup 20 in 7473 msec =====
===== DaCapo 9.12 sunflow starting warmup 21 =====
===== DaCapo 9.12 sunflow completed warmup 21 in 7551 msec =====
===== DaCapo 9.12 sunflow starting warmup 22 =====
===== DaCapo 9.12 sunflow completed warmup 22 in 8150 msec =====
===== DaCapo 9.12 sunflow starting warmup 23 =====
===== DaCapo 9.12 sunflow completed warmup 23 in 7439 msec =====
===== DaCapo 9.12 sunflow starting warmup 24 =====
===== DaCapo 9.12 sunflow completed warmup 24 in 7438 msec =====
===== DaCapo 9.12 sunflow starting warmup 25 =====
===== DaCapo 9.12 sunflow completed warmup 25 in 7526 msec =====
===== DaCapo 9.12 sunflow starting warmup 26 =====
===== DaCapo 9.12 sunflow completed warmup 26 in 8239 msec =====
===== DaCapo 9.12 sunflow starting warmup 27 =====
===== DaCapo 9.12 sunflow completed warmup 27 in 7545 msec =====
===== DaCapo 9.12 sunflow starting warmup 28 =====
===== DaCapo 9.12 sunflow completed warmup 28 in 7653 msec =====
===== DaCapo 9.12 sunflow starting warmup 29 =====
===== DaCapo 9.12 sunflow completed warmup 29 in 7517 msec =====
===== DaCapo 9.12 sunflow starting warmup 30 =====
===== DaCapo 9.12 sunflow completed warmup 30 in 7509 msec =====
===== DaCapo 9.12 sunflow starting warmup 31 =====
===== DaCapo 9.12 sunflow completed warmup 31 in 7467 msec =====
===== DaCapo 9.12 sunflow starting warmup 32 =====
===== DaCapo 9.12 sunflow completed warmup 32 in 7463 msec =====
===== DaCapo 9.12 sunflow starting warmup 33 =====
===== DaCapo 9.12 sunflow completed warmup 33 in 8207 msec =====
===== DaCapo 9.12 sunflow starting warmup 34 =====
===== DaCapo 9.12 sunflow completed warmup 34 in 7372 msec =====
===== DaCapo 9.12 sunflow starting warmup 35 =====
===== DaCapo 9.12 sunflow completed warmup 35 in 7500 msec =====
===== DaCapo 9.12 sunflow starting warmup 36 =====
===== DaCapo 9.12 sunflow completed warmup 36 in 7551 msec =====
===== DaCapo 9.12 sunflow starting warmup 37 =====
===== DaCapo 9.12 sunflow completed warmup 37 in 8558 msec =====
===== DaCapo 9.12 sunflow starting warmup 38 =====
===== DaCapo 9.12 sunflow completed warmup 38 in 7246 msec =====
===== DaCapo 9.12 sunflow starting warmup 39 =====
===== DaCapo 9.12 sunflow completed warmup 39 in 7955 msec =====
===== DaCapo 9.12 sunflow starting warmup 40 =====
===== DaCapo 9.12 sunflow completed warmup 40 in 7608 msec =====
===== DaCapo 9.12 sunflow starting warmup 41 =====
===== DaCapo 9.12 sunflow completed warmup 41 in 7335 msec =====
===== DaCapo 9.12 sunflow starting warmup 42 =====
===== DaCapo 9.12 sunflow completed warmup 42 in 7993 msec =====
===== DaCapo 9.12 sunflow starting warmup 43 =====
===== DaCapo 9.12 sunflow completed warmup 43 in 7555 msec =====
===== DaCapo 9.12 sunflow starting warmup 44 =====
===== DaCapo 9.12 sunflow completed warmup 44 in 7465 msec =====
===== DaCapo 9.12 sunflow starting warmup 45 =====
===== DaCapo 9.12 sunflow completed warmup 45 in 7583 msec =====
===== DaCapo 9.12 sunflow starting warmup 46 =====
===== DaCapo 9.12 sunflow completed warmup 46 in 7480 msec =====
===== DaCapo 9.12 sunflow starting warmup 47 =====
===== DaCapo 9.12 sunflow completed warmup 47 in 8354 msec =====
===== DaCapo 9.12 sunflow starting warmup 48 =====
===== DaCapo 9.12 sunflow completed warmup 48 in 8327 msec =====
===== DaCapo 9.12 sunflow starting warmup 49 =====
===== DaCapo 9.12 sunflow completed warmup 49 in 7206 msec =====
===== DaCapo 9.12 sunflow starting warmup 50 =====
===== DaCapo 9.12 sunflow completed warmup 50 in 8383 msec =====
===== DaCapo 9.12 sunflow starting warmup 51 =====
===== DaCapo 9.12 sunflow completed warmup 51 in 7916 msec =====
===== DaCapo 9.12 sunflow starting warmup 52 =====
===== DaCapo 9.12 sunflow completed warmup 52 in 7732 msec =====
===== DaCapo 9.12 sunflow starting warmup 53 =====
===== DaCapo 9.12 sunflow completed warmup 53 in 7565 msec =====
===== DaCapo 9.12 sunflow starting warmup 54 =====
===== DaCapo 9.12 sunflow completed warmup 54 in 7799 msec =====
===== DaCapo 9.12 sunflow starting warmup 55 =====
===== DaCapo 9.12 sunflow completed warmup 55 in 7625 msec =====
===== DaCapo 9.12 sunflow starting warmup 56 =====
===== DaCapo 9.12 sunflow completed warmup 56 in 8250 msec =====
===== DaCapo 9.12 sunflow starting warmup 57 =====
===== DaCapo 9.12 sunflow completed warmup 57 in 7326 msec =====
===== DaCapo 9.12 sunflow starting warmup 58 =====
===== DaCapo 9.12 sunflow completed warmup 58 in 7821 msec =====
===== DaCapo 9.12 sunflow starting warmup 59 =====
===== DaCapo 9.12 sunflow completed warmup 59 in 7775 msec =====
===== DaCapo 9.12 sunflow starting warmup 60 =====
===== DaCapo 9.12 sunflow completed warmup 60 in 7337 msec =====
===== DaCapo 9.12 sunflow starting warmup 61 =====
===== DaCapo 9.12 sunflow completed warmup 61 in 7614 msec =====
===== DaCapo 9.12 sunflow starting warmup 62 =====
===== DaCapo 9.12 sunflow completed warmup 62 in 7522 msec =====
===== DaCapo 9.12 sunflow starting warmup 63 =====
===== DaCapo 9.12 sunflow completed warmup 63 in 7800 msec =====
===== DaCapo 9.12 sunflow starting warmup 64 =====
===== DaCapo 9.12 sunflow completed warmup 64 in 7598 msec =====
===== DaCapo 9.12 sunflow starting warmup 65 =====
===== DaCapo 9.12 sunflow completed warmup 65 in 8469 msec =====
===== DaCapo 9.12 sunflow starting warmup 66 =====
===== DaCapo 9.12 sunflow completed warmup 66 in 7829 msec =====
===== DaCapo 9.12 sunflow starting warmup 67 =====
===== DaCapo 9.12 sunflow completed warmup 67 in 8350 msec =====
===== DaCapo 9.12 sunflow starting warmup 68 =====
===== DaCapo 9.12 sunflow completed warmup 68 in 7536 msec =====
===== DaCapo 9.12 sunflow starting warmup 69 =====
===== DaCapo 9.12 sunflow completed warmup 69 in 7574 msec =====
===== DaCapo 9.12 sunflow starting warmup 70 =====
===== DaCapo 9.12 sunflow completed warmup 70 in 7545 msec =====
===== DaCapo 9.12 sunflow starting warmup 71 =====
===== DaCapo 9.12 sunflow completed warmup 71 in 7434 msec =====
===== DaCapo 9.12 sunflow starting warmup 72 =====
===== DaCapo 9.12 sunflow completed warmup 72 in 7278 msec =====
===== DaCapo 9.12 sunflow starting warmup 73 =====
===== DaCapo 9.12 sunflow completed warmup 73 in 7927 msec =====
===== DaCapo 9.12 sunflow starting warmup 74 =====
===== DaCapo 9.12 sunflow completed warmup 74 in 7746 msec =====
===== DaCapo 9.12 sunflow starting warmup 75 =====
===== DaCapo 9.12 sunflow completed warmup 75 in 7426 msec =====
===== DaCapo 9.12 sunflow starting warmup 76 =====
===== DaCapo 9.12 sunflow completed warmup 76 in 7945 msec =====
===== DaCapo 9.12 sunflow starting warmup 77 =====
===== DaCapo 9.12 sunflow completed warmup 77 in 8454 msec =====
===== DaCapo 9.12 sunflow starting warmup 78 =====
===== DaCapo 9.12 sunflow completed warmup 78 in 7801 msec =====
===== DaCapo 9.12 sunflow starting warmup 79 =====
===== DaCapo 9.12 sunflow completed warmup 79 in 7444 msec =====
===== DaCapo 9.12 sunflow starting warmup 80 =====
===== DaCapo 9.12 sunflow completed warmup 80 in 8097 msec =====
===== DaCapo 9.12 sunflow starting warmup 81 =====
===== DaCapo 9.12 sunflow completed warmup 81 in 7581 msec =====
===== DaCapo 9.12 sunflow starting warmup 82 =====
===== DaCapo 9.12 sunflow completed warmup 82 in 7621 msec =====
===== DaCapo 9.12 sunflow starting warmup 83 =====
===== DaCapo 9.12 sunflow completed warmup 83 in 7356 msec =====
===== DaCapo 9.12 sunflow starting warmup 84 =====
===== DaCapo 9.12 sunflow completed warmup 84 in 7496 msec =====
===== DaCapo 9.12 sunflow starting warmup 85 =====
===== DaCapo 9.12 sunflow completed warmup 85 in 7411 msec =====
===== DaCapo 9.12 sunflow starting warmup 86 =====
===== DaCapo 9.12 sunflow completed warmup 86 in 8197 msec =====
===== DaCapo 9.12 sunflow starting warmup 87 =====
===== DaCapo 9.12 sunflow completed warmup 87 in 7745 msec =====
===== DaCapo 9.12 sunflow starting warmup 88 =====
===== DaCapo 9.12 sunflow completed warmup 88 in 7535 msec =====
===== DaCapo 9.12 sunflow starting warmup 89 =====
===== DaCapo 9.12 sunflow completed warmup 89 in 7551 msec =====
===== DaCapo 9.12 sunflow starting warmup 90 =====
===== DaCapo 9.12 sunflow completed warmup 90 in 7357 msec =====
===== DaCapo 9.12 sunflow starting warmup 91 =====
===== DaCapo 9.12 sunflow completed warmup 91 in 7432 msec =====
===== DaCapo 9.12 sunflow starting warmup 92 =====
===== DaCapo 9.12 sunflow completed warmup 92 in 7451 msec =====
===== DaCapo 9.12 sunflow starting warmup 93 =====
===== DaCapo 9.12 sunflow completed warmup 93 in 7624 msec =====
===== DaCapo 9.12 sunflow starting warmup 94 =====
===== DaCapo 9.12 sunflow completed warmup 94 in 7492 msec =====
===== DaCapo 9.12 sunflow starting warmup 95 =====
===== DaCapo 9.12 sunflow completed warmup 95 in 7728 msec =====
===== DaCapo 9.12 sunflow starting warmup 96 =====
===== DaCapo 9.12 sunflow completed warmup 96 in 7661 msec =====
===== DaCapo 9.12 sunflow starting warmup 97 =====
===== DaCapo 9.12 sunflow completed warmup 97 in 7742 msec =====
===== DaCapo 9.12 sunflow starting warmup 98 =====
===== DaCapo 9.12 sunflow completed warmup 98 in 7491 msec =====
===== DaCapo 9.12 sunflow starting warmup 99 =====
===== DaCapo 9.12 sunflow completed warmup 99 in 7539 msec =====
===== DaCapo 9.12 sunflow starting warmup 100 =====
===== DaCapo 9.12 sunflow completed warmup 100 in 7400 msec =====
===== DaCapo 9.12 sunflow starting warmup 101 =====
===== DaCapo 9.12 sunflow completed warmup 101 in 7419 msec =====
===== DaCapo 9.12 sunflow starting warmup 102 =====
===== DaCapo 9.12 sunflow completed warmup 102 in 7539 msec =====
===== DaCapo 9.12 sunflow starting warmup 103 =====
===== DaCapo 9.12 sunflow completed warmup 103 in 8295 msec =====
===== DaCapo 9.12 sunflow starting warmup 104 =====
===== DaCapo 9.12 sunflow completed warmup 104 in 7813 msec =====
===== DaCapo 9.12 sunflow starting warmup 105 =====
===== DaCapo 9.12 sunflow completed warmup 105 in 7926 msec =====
===== DaCapo 9.12 sunflow starting warmup 106 =====
===== DaCapo 9.12 sunflow completed warmup 106 in 8284 msec =====
===== DaCapo 9.12 sunflow starting warmup 107 =====
===== DaCapo 9.12 sunflow completed warmup 107 in 7447 msec =====
===== DaCapo 9.12 sunflow starting warmup 108 =====
===== DaCapo 9.12 sunflow completed warmup 108 in 7349 msec =====
===== DaCapo 9.12 sunflow starting warmup 109 =====
===== DaCapo 9.12 sunflow completed warmup 109 in 7581 msec =====
===== DaCapo 9.12 sunflow starting warmup 110 =====
===== DaCapo 9.12 sunflow completed warmup 110 in 7702 msec =====
===== DaCapo 9.12 sunflow starting warmup 111 =====
===== DaCapo 9.12 sunflow completed warmup 111 in 7400 msec =====
===== DaCapo 9.12 sunflow starting warmup 112 =====
===== DaCapo 9.12 sunflow completed warmup 112 in 7531 msec =====
===== DaCapo 9.12 sunflow starting warmup 113 =====
===== DaCapo 9.12 sunflow completed warmup 113 in 7641 msec =====
===== DaCapo 9.12 sunflow starting warmup 114 =====
===== DaCapo 9.12 sunflow completed warmup 114 in 7773 msec =====
===== DaCapo 9.12 sunflow starting warmup 115 =====
===== DaCapo 9.12 sunflow completed warmup 115 in 7651 msec =====
===== DaCapo 9.12 sunflow starting warmup 116 =====
===== DaCapo 9.12 sunflow completed warmup 116 in 7766 msec =====
===== DaCapo 9.12 sunflow starting warmup 117 =====
===== DaCapo 9.12 sunflow completed warmup 117 in 7566 msec =====
===== DaCapo 9.12 sunflow starting warmup 118 =====
===== DaCapo 9.12 sunflow completed warmup 118 in 7596 msec =====
===== DaCapo 9.12 sunflow starting warmup 119 =====
===== DaCapo 9.12 sunflow completed warmup 119 in 7525 msec =====
===== DaCapo 9.12 sunflow starting warmup 120 =====
===== DaCapo 9.12 sunflow completed warmup 120 in 7594 msec =====
===== DaCapo 9.12 sunflow starting warmup 121 =====
===== DaCapo 9.12 sunflow completed warmup 121 in 7404 msec =====
===== DaCapo 9.12 sunflow starting warmup 122 =====
===== DaCapo 9.12 sunflow completed warmup 122 in 7641 msec =====
===== DaCapo 9.12 sunflow starting warmup 123 =====
===== DaCapo 9.12 sunflow completed warmup 123 in 8290 msec =====
===== DaCapo 9.12 sunflow starting warmup 124 =====
===== DaCapo 9.12 sunflow completed warmup 124 in 7504 msec =====
===== DaCapo 9.12 sunflow starting warmup 125 =====
===== DaCapo 9.12 sunflow completed warmup 125 in 8155 msec =====
===== DaCapo 9.12 sunflow starting warmup 126 =====
===== DaCapo 9.12 sunflow completed warmup 126 in 7550 msec =====
===== DaCapo 9.12 sunflow starting warmup 127 =====
===== DaCapo 9.12 sunflow completed warmup 127 in 8420 msec =====
===== DaCapo 9.12 sunflow starting warmup 128 =====
===== DaCapo 9.12 sunflow completed warmup 128 in 7936 msec =====
===== DaCapo 9.12 sunflow starting warmup 129 =====
===== DaCapo 9.12 sunflow completed warmup 129 in 7904 msec =====
===== DaCapo 9.12 sunflow starting warmup 130 =====
===== DaCapo 9.12 sunflow completed warmup 130 in 7479 msec =====
===== DaCapo 9.12 sunflow starting warmup 131 =====
===== DaCapo 9.12 sunflow completed warmup 131 in 7864 msec =====
===== DaCapo 9.12 sunflow starting warmup 132 =====
===== DaCapo 9.12 sunflow completed warmup 132 in 7580 msec =====
===== DaCapo 9.12 sunflow starting warmup 133 =====
===== DaCapo 9.12 sunflow completed warmup 133 in 7479 msec =====
===== DaCapo 9.12 sunflow starting warmup 134 =====
===== DaCapo 9.12 sunflow completed warmup 134 in 7539 msec =====
===== DaCapo 9.12 sunflow starting warmup 135 =====
===== DaCapo 9.12 sunflow completed warmup 135 in 7578 msec =====
===== DaCapo 9.12 sunflow starting warmup 136 =====
===== DaCapo 9.12 sunflow completed warmup 136 in 7641 msec =====
===== DaCapo 9.12 sunflow starting warmup 137 =====
===== DaCapo 9.12 sunflow completed warmup 137 in 8141 msec =====
===== DaCapo 9.12 sunflow starting warmup 138 =====
===== DaCapo 9.12 sunflow completed warmup 138 in 7796 msec =====
===== DaCapo 9.12 sunflow starting warmup 139 =====
===== DaCapo 9.12 sunflow completed warmup 139 in 7597 msec =====
===== DaCapo 9.12 sunflow starting warmup 140 =====
===== DaCapo 9.12 sunflow completed warmup 140 in 7693 msec =====
===== DaCapo 9.12 sunflow starting warmup 141 =====
===== DaCapo 9.12 sunflow completed warmup 141 in 7594 msec =====
===== DaCapo 9.12 sunflow starting warmup 142 =====
===== DaCapo 9.12 sunflow completed warmup 142 in 8362 msec =====
===== DaCapo 9.12 sunflow starting warmup 143 =====
===== DaCapo 9.12 sunflow completed warmup 143 in 7449 msec =====
===== DaCapo 9.12 sunflow starting warmup 144 =====
===== DaCapo 9.12 sunflow completed warmup 144 in 7513 msec =====
===== DaCapo 9.12 sunflow starting warmup 145 =====
===== DaCapo 9.12 sunflow completed warmup 145 in 7565 msec =====
===== DaCapo 9.12 sunflow starting warmup 146 =====
===== DaCapo 9.12 sunflow completed warmup 146 in 8369 msec =====
===== DaCapo 9.12 sunflow starting warmup 147 =====
===== DaCapo 9.12 sunflow completed warmup 147 in 7684 msec =====
===== DaCapo 9.12 sunflow starting warmup 148 =====
===== DaCapo 9.12 sunflow completed warmup 148 in 8395 msec =====
===== DaCapo 9.12 sunflow starting warmup 149 =====
===== DaCapo 9.12 sunflow completed warmup 149 in 7569 msec =====
===== DaCapo 9.12 sunflow starting warmup 150 =====
===== DaCapo 9.12 sunflow completed warmup 150 in 7619 msec =====
===== DaCapo 9.12 sunflow starting warmup 151 =====
===== DaCapo 9.12 sunflow completed warmup 151 in 7543 msec =====
===== DaCapo 9.12 sunflow starting warmup 152 =====
===== DaCapo 9.12 sunflow completed warmup 152 in 7422 msec =====
===== DaCapo 9.12 sunflow starting warmup 153 =====
===== DaCapo 9.12 sunflow completed warmup 153 in 8428 msec =====
===== DaCapo 9.12 sunflow starting warmup 154 =====
===== DaCapo 9.12 sunflow completed warmup 154 in 7626 msec =====
===== DaCapo 9.12 sunflow starting warmup 155 =====
