             total       used       free     shared    buffers     cached
Mem:       3806920    3233736     573184          0     393308    1875656
-/+ buffers/cache:     964772    2842148
Swap:      6143992          0    6143992
