2 202 131.4 148.2 1.49666295471 2.71293199325 0.1095 0.1235 0.00124721912893 0.00226077666104 131.0 150.0 0.109166666667 0.125
2 102 128.0 141.2 1.09544511501 0.748331477355 0.106666666667 0.117666666667 0.000912870929175 0.000623609564463 128.0 141.0 0.106666666667 0.1175
2 602 131.8 152.4 3.37045990927 2.41660919472 0.109833333333 0.127 0.00280871659106 0.0020138409956 134.0 152.0 0.111666666667 0.126666666667
2 902 130.8 153.2 2.13541565041 2.31516738056 0.109 0.127666666667 0.00177951304201 0.00192930615047 131.0 152.0 0.109166666667 0.126666666667
2 702 133.2 152.2 0.979795897113 2.56124969497 0.111 0.126833333333 0.000816496580928 0.00213437474581 134.0 152.0 0.111666666667 0.126666666667
2 2 118.2 52.6 1.32664991614 3.07245829915 0.0985 0.0438333333333 0.00110554159678 0.00256038191596 118.0 54.0 0.0983333333333 0.045
2 998 130.4 154.4 2.57681974535 3.07245829915 0.108666666667 0.128666666667 0.00214734978779 0.00256038191596 130.0 153.0 0.108333333333 0.1275
2 802 133.2 152.4 0.748331477355 4.02988833592 0.111 0.127 0.000623609564463 0.00335824027993 133.0 151.0 0.110833333333 0.125833333333
2 302 132.4 148.6 1.8547236991 1.2 0.110333333333 0.123833333333 0.00154560308258 0.001 133.0 148.0 0.110833333333 0.123333333333
2 402 133.6 151.4 0.8 2.57681974535 0.111333333333 0.126166666667 0.000666666666667 0.00214734978779 133.0 150.0 0.110741049126 0.124895920067
2 502 131.4 149.4 2.7276363394 1.49666295471 0.1095 0.1245 0.00227303028283 0.00124721912893 133.0 149.0 0.110833333333 0.124166666667
102 502 200.2 155.6 2.63818119165 3.38230690506 0.166833333333 0.129666666667 0.00219848432638 0.00281858908755 200.0 158.0 0.166666666667 0.131666666667
102 602 202.0 156.2 3.63318042492 3.54400902933 0.168333333333 0.130166666667 0.0030276503541 0.00295334085777 202.0 158.0 0.168333333333 0.131666666667
102 802 190.8 154.6 2.31516738056 4.63033476112 0.159 0.128833333333 0.00192930615047 0.00385861230093 190.0 153.0 0.158333333333 0.1275
102 898 199.0 157.0 3.577708764 3.28633534503 0.165833333333 0.130833333333 0.00298142397 0.00273861278753 200.0 155.0 0.166666666667 0.129166666667
102 102 196.4 142.6 5.08330601086 2.7276363394 0.163666666667 0.118833333333 0.00423608834238 0.00227303028283 198.0 143.0 0.165 0.119166666667
102 402 195.6 151.6 4.49888875168 0.8 0.163 0.126333333333 0.00374907395973 0.000666666666667 194.0 151.0 0.161666666667 0.125833333333
102 2 201.8 46.0 2.4819347292 3.46410161514 0.168166666667 0.0383333333333 0.002068278941 0.00288675134595 203.0 47.0 0.169166666667 0.0391666666667
102 702 195.8 156.2 4.5782092569 2.63818119165 0.163166666667 0.130166666667 0.00381517438075 0.00219848432638 196.0 157.0 0.163333333333 0.130833333333
102 202 198.4 149.6 1.2 3.07245829915 0.165333333333 0.124666666667 0.001 0.00256038191596 199.0 148.0 0.165833333333 0.123333333333
102 302 203.0 150.8 2.52982212813 1.72046505341 0.169166666667 0.125666666667 0.00210818510678 0.00143372087784 201.0 150.0 0.1675 0.125
202 102 207.2 140.2 2.63818119165 2.13541565041 0.172666666667 0.116833333333 0.00219848432638 0.00177951304201 208.0 139.0 0.173333333333 0.115833333333
202 602 210.0 155.8 3.74165738677 2.92574776767 0.175 0.129833333333 0.00311804782231 0.00243812313972 212.0 154.0 0.176666666667 0.128333333333
202 502 207.2 154.6 1.72046505341 3.55527776693 0.172666666667 0.128833333333 0.00143372087784 0.00296273147244 208.0 154.0 0.173333333333 0.128333333333
202 2 212.4 46.2 3.00665927567 2.63818119165 0.177 0.0385 0.00250554939639 0.00219848432638 211.0 46.0 0.175833333333 0.0383333333333
202 402 206.4 155.4 5.23832034148 2.41660919472 0.172 0.1295 0.00436526695123 0.0020138409956 209.0 157.0 0.174166666667 0.130833333333
202 798 207.0 153.2 2.2803508502 2.78567765544 0.1725 0.127666666667 0.00190029237517 0.0023213980462 208.0 154.0 0.173333333333 0.128333333333
202 702 207.8 153.8 3.1874754901 0.979795897113 0.173166666667 0.128166666667 0.00265622957508 0.000816496580928 206.0 153.0 0.171666666667 0.1275
202 202 205.4 147.8 5.04380808517 2.78567765544 0.171166666667 0.123166666667 0.00420317340431 0.0023213980462 206.0 147.0 0.171666666667 0.1225
202 302 209.4 151.4 2.24499443206 3.00665927567 0.1745 0.126166666667 0.00187082869338 0.00250554939639 209.0 150.0 0.174166666667 0.125
276 724 209.8 153.8 3.6551333765 4.21426150114 0.174833333333 0.128166666667 0.00304594448042 0.00351188458428 212.0 154.0 0.176666666667 0.128333333333
302 202 211.8 147.2 3.48711915483 0.748331477355 0.1765 0.122666666667 0.00290593262903 0.000623609564463 213.0 147.0 0.1775 0.1225
302 502 211.2 155.8 4.66476151588 2.63818119165 0.176 0.129833333333 0.00388730126323 0.00219848432638 212.0 154.0 0.176666666667 0.128333333333
302 302 211.4 151.4 3.92937654088 3.38230690506 0.176166666667 0.126166666667 0.00327448045073 0.00281858908755 213.0 149.0 0.1775 0.124166666667
302 698 211.4 153.8 0.8 1.16619037897 0.176166666667 0.128166666667 0.000666666666667 0.000971825315808 212.0 153.0 0.176666666667 0.1275
302 402 213.2 154.2 1.16619037897 2.4 0.177666666667 0.1285 0.000971825315808 0.002 214.0 153.0 0.178333333333 0.1275
302 2 216.2 49.2 4.66476151588 0.748331477355 0.180166666667 0.041 0.00388730126323 0.000623609564463 218.0 49.0 0.181666666667 0.0408333333333
302 102 212.6 141.0 1.95959179423 1.26491106407 0.177166666667 0.1175 0.00163299316186 0.00105409255339 212.0 140.0 0.176519567027 0.116569525396
302 602 209.4 153.0 2.33238075794 1.67332005307 0.1745 0.1275 0.00194365063162 0.00139443337756 210.0 153.0 0.175 0.1275
340 660 212.6 154.8 2.0591260282 1.72046505341 0.177166666667 0.129 0.00171593835683 0.00143372087784 213.0 154.0 0.1775 0.128333333333
402 402 218.6 152.8 1.74355957742 1.93907194297 0.182166666667 0.127333333333 0.00145296631452 0.00161589328581 218.0 153.0 0.181666666667 0.1275
402 502 216.6 151.8 2.0591260282 0.748331477355 0.1805 0.1265 0.00171593835683 0.000623609564463 217.0 152.0 0.180833333333 0.126666666667
402 598 213.4 154.0 1.8547236991 3.03315017762 0.177833333333 0.128333333333 0.00154560308258 0.00252762514802 213.0 153.0 0.1775 0.1275
402 2 213.8 48.6 4.48998886413 2.57681974535 0.178166666667 0.0405 0.00374165738677 0.00214734978779 215.0 48.0 0.179166666667 0.04
402 302 210.2 152.8 2.22710574513 3.48711915483 0.175166666667 0.127333333333 0.00185592145427 0.00290593262903 211.0 151.0 0.175833333333 0.125833333333
402 102 212.8 137.4 1.6 0.8 0.177333333333 0.1145 0.00133333333333 0.000666666666667 213.0 138.0 0.1775 0.115
402 202 214.2 147.2 6.3371918071 0.4 0.1785 0.122666666667 0.00528099317258 0.000333333333333 216.0 147.0 0.18 0.1225
500 500 213.8 152.8 2.31516738056 1.32664991614 0.178166666667 0.127333333333 0.00192930615047 0.00110554159679 214.0 153.0 0.178333333333 0.1275
502 302 211.6 152.6 4.36348484585 1.35646599663 0.176333333333 0.127166666667 0.00363623737154 0.00113038833052 213.0 152.0 0.1775 0.126666666667
502 202 215.4 146.2 2.87054001888 4.5343136195 0.1795 0.121833333333 0.0023921166824 0.00377859468292 214.0 146.0 0.178333333333 0.121666666667
502 102 204.8 138.6 2.22710574513 2.33238075794 0.170666666667 0.1155 0.00185592145427 0.00194365063162 204.0 137.0 0.17 0.114166666667
502 498 214.2 155.6 3.86781592116 2.57681974535 0.1785 0.129666666667 0.0032231799343 0.00214734978779 215.0 155.0 0.179166666667 0.129166666667
502 402 212.6 155.6 1.95959179423 2.7276363394 0.177166666667 0.129666666667 0.00163299316186 0.00227303028283 212.0 156.0 0.176666666667 0.13
502 2 215.0 49.4 2.44948974278 1.2 0.179166666667 0.0411666666667 0.00204124145232 0.001 215.0 50.0 0.179166666667 0.0416666666667
602 302 216.0 152.8 2.60768096208 2.4 0.18 0.127333333333 0.0021730674684 0.002 217.0 154.0 0.180833333333 0.128333333333
602 202 214.4 148.2 2.24499443206 1.32664991614 0.178666666667 0.1235 0.00187082869338 0.00110554159678 213.0 148.0 0.1775 0.123333333333
602 102 214.8 138.6 2.13541565041 2.65329983228 0.179 0.1155 0.00177951304201 0.00221108319357 215.0 139.0 0.179166666667 0.115833333333
602 398 207.2 154.8 4.79165942028 3.48711915483 0.172666666667 0.129 0.0039930495169 0.00290593262903 206.0 153.0 0.171666666667 0.1275
602 2 222.6 46.6 1.62480768093 5.08330601086 0.1855 0.0388333333333 0.00135400640078 0.00423608834238 222.0 49.0 0.185 0.0408333333333
702 298 212.0 152.4 6.06630035524 3.77359245282 0.176666666667 0.127 0.00505525029603 0.00314466037735 213.0 154.0 0.1775 0.128333333333
702 2 224.2 48.6 2.03960780544 3.26190128606 0.186833333333 0.0405 0.0016996731712 0.00271825107172 224.0 47.0 0.186666666667 0.0391666666667
702 102 219.2 139.6 2.13541565041 2.93938769134 0.182666666667 0.116333333333 0.00177951304201 0.00244948974278 218.0 139.0 0.181666666667 0.115833333333
702 202 215.8 148.4 2.71293199325 1.49666295471 0.179833333333 0.123666666667 0.00226077666104 0.00124721912893 217.0 148.0 0.180833333333 0.123333333333
802 2 222.6 47.8 2.0591260282 1.16619037897 0.1855 0.0398001665279 0.00171450959883 0.000971016135695 223.0 47.0 0.185678601166 0.0391340549542
802 102 217.8 140.6 2.71293199325 2.15406592285 0.1815 0.117166666667 0.00226077666104 0.00179505493571 218.0 140.0 0.181666666667 0.116666666667
802 198 219.4 148.4 1.95959179423 1.8547236991 0.182833333333 0.123666666667 0.00163299316186 0.00154560308258 220.0 148.0 0.183333333333 0.123333333333
902 98 211.2 139.2 5.77581163128 1.16619037897 0.176 0.116 0.0048131763594 0.000971825315808 213.0 139.0 0.1775 0.115833333333
902 2 222.4 51.2 0.8 1.32664991614 0.185333333333 0.0426666666667 0.000666666666667 0.00110554159678 223.0 51.0 0.185833333333 0.0425
