economemd
    total memory: 200 MB
    timer interval: 10 s
    timer start state: running
    utility model: root

    caches:
        lru

    force utility function validity: yes
    make recommendations: yes
    equal recommendations: yes

    reading receiver name: simple
    command receiver name: simple

    dump file: economemd.dump.log
    log file: /home/callum/economics_memory_code/dynamic_sizing/data/output/timerComparisonMany_2014_08_12_14_51_20/sub13_timerComparisonSingle/sub2_timeDacapoDaemonEqual/daemon_run1_log.txt
    log readings: yes
    log functions: yes

PyOptimiser: initialising...
PyOptimiser: initialised
ReadingThread: starting
TimerThread: starting
CommandThread: starting
Recommendation: no clients; no recommendation
Recommendation: no clients; no recommendation
Reading from 4867: heap size 9 MB, throughput 0.988882
Clients: 1
Reading from 4866: heap size 9 MB, throughput 0.989622
Clients: 2
Reading from 4866: heap size 9 MB, throughput 0.96094
Reading from 4866: heap size 9 MB, throughput 0.952279
Reading from 4866: heap size 9 MB, throughput 0.966981
Reading from 4867: heap size 9 MB, throughput 0.984811
Reading from 4867: heap size 11 MB, throughput 0.989071
Reading from 4866: heap size 11 MB, throughput 0.953952
Reading from 4867: heap size 11 MB, throughput 0.90944
Reading from 4866: heap size 11 MB, throughput 0.965991
Reading from 4867: heap size 15 MB, throughput 0.990018
Reading from 4867: heap size 15 MB, throughput 0.991949
Reading from 4866: heap size 16 MB, throughput 0.841755
Reading from 4867: heap size 25 MB, throughput 0.933321
Reading from 4866: heap size 22 MB, throughput 0.998978
Reading from 4867: heap size 30 MB, throughput 0.988464
Reading from 4867: heap size 37 MB, throughput 0.981844
Reading from 4867: heap size 42 MB, throughput 0.979274
Reading from 4867: heap size 43 MB, throughput 0.752931
Reading from 4867: heap size 50 MB, throughput 0.977279
Reading from 4866: heap size 22 MB, throughput 0.99806
Reading from 4867: heap size 55 MB, throughput 0.992808
Reading from 4867: heap size 55 MB, throughput 0.954623
Reading from 4867: heap size 61 MB, throughput 0.959938
Reading from 4867: heap size 61 MB, throughput 0.985426
Reading from 4866: heap size 23 MB, throughput 0.990334
Reading from 4867: heap size 70 MB, throughput 0.990126
Reading from 4867: heap size 71 MB, throughput 0.98928
Reading from 4867: heap size 77 MB, throughput 0.992141
Reading from 4866: heap size 27 MB, throughput 0.997868
Reading from 4867: heap size 78 MB, throughput 0.994649
Reading from 4867: heap size 83 MB, throughput 0.994549
Reading from 4867: heap size 84 MB, throughput 0.992825
Reading from 4866: heap size 27 MB, throughput 0.999009
Reading from 4867: heap size 89 MB, throughput 0.992663
Reading from 4867: heap size 89 MB, throughput 0.992331
Reading from 4867: heap size 94 MB, throughput 0.992896
Reading from 4866: heap size 27 MB, throughput 0.998695
Reading from 4867: heap size 94 MB, throughput 0.991415
Reading from 4867: heap size 98 MB, throughput 0.993305
Reading from 4866: heap size 27 MB, throughput 0.997983
Reading from 4867: heap size 98 MB, throughput 0.987896
Reading from 4867: heap size 102 MB, throughput 0.993609
Reading from 4867: heap size 102 MB, throughput 0.9933
Reading from 4866: heap size 26 MB, throughput 0.998447
Equal recommendation: 100 MB each
Reading from 4867: heap size 107 MB, throughput 0.995327
Reading from 4867: heap size 101 MB, throughput 0.992164
Reading from 4867: heap size 97 MB, throughput 0.991491
Reading from 4866: heap size 27 MB, throughput 0.998105
Reading from 4867: heap size 102 MB, throughput 0.993506
Reading from 4867: heap size 96 MB, throughput 0.995348
Reading from 4867: heap size 100 MB, throughput 0.994593
Reading from 4866: heap size 27 MB, throughput 0.998399
Reading from 4867: heap size 94 MB, throughput 0.994564
Reading from 4867: heap size 99 MB, throughput 0.996346
Reading from 4867: heap size 100 MB, throughput 0.995681
Reading from 4867: heap size 94 MB, throughput 0.996033
Reading from 4866: heap size 28 MB, throughput 0.998484
Reading from 4867: heap size 97 MB, throughput 0.994268
Reading from 4867: heap size 97 MB, throughput 0.995224
Reading from 4867: heap size 98 MB, throughput 0.994749
Reading from 4866: heap size 28 MB, throughput 0.998043
Reading from 4867: heap size 99 MB, throughput 0.995412
Reading from 4867: heap size 100 MB, throughput 0.989873
Reading from 4867: heap size 95 MB, throughput 0.995168
Reading from 4867: heap size 99 MB, throughput 0.995497
Reading from 4866: heap size 28 MB, throughput 0.997547
Reading from 4867: heap size 99 MB, throughput 0.986883
Reading from 4867: heap size 101 MB, throughput 0.996251
Reading from 4867: heap size 96 MB, throughput 0.994612
Reading from 4867: heap size 100 MB, throughput 0.996394
Reading from 4866: heap size 29 MB, throughput 0.997817
Reading from 4867: heap size 99 MB, throughput 0.995197
Reading from 4867: heap size 102 MB, throughput 0.994488
Reading from 4867: heap size 97 MB, throughput 0.996031
Reading from 4867: heap size 100 MB, throughput 0.996456
Reading from 4866: heap size 29 MB, throughput 0.996791
Reading from 4867: heap size 96 MB, throughput 0.994272
Reading from 4867: heap size 98 MB, throughput 0.996353
Reading from 4867: heap size 99 MB, throughput 0.995625
Reading from 4867: heap size 101 MB, throughput 0.996001
Reading from 4866: heap size 30 MB, throughput 0.994621
Reading from 4867: heap size 96 MB, throughput 0.995397
Equal recommendation: 100 MB each
Reading from 4867: heap size 99 MB, throughput 0.996099
Reading from 4867: heap size 99 MB, throughput 0.995029
Reading from 4867: heap size 100 MB, throughput 0.994265
Reading from 4866: heap size 30 MB, throughput 0.997459
Reading from 4867: heap size 97 MB, throughput 0.995076
Reading from 4867: heap size 99 MB, throughput 0.996277
Reading from 4867: heap size 100 MB, throughput 0.993864
Reading from 4867: heap size 96 MB, throughput 0.988051
Reading from 4866: heap size 31 MB, throughput 0.99822
Reading from 4867: heap size 99 MB, throughput 0.996587
Reading from 4867: heap size 101 MB, throughput 0.996296
Reading from 4867: heap size 97 MB, throughput 0.985408
Reading from 4867: heap size 100 MB, throughput 0.996021
Reading from 4866: heap size 31 MB, throughput 0.997342
Reading from 4867: heap size 96 MB, throughput 0.982879
Reading from 4867: heap size 100 MB, throughput 0.996769
Reading from 4867: heap size 100 MB, throughput 0.992402
Reading from 4867: heap size 103 MB, throughput 0.996088
Reading from 4866: heap size 31 MB, throughput 0.997418
Reading from 4867: heap size 99 MB, throughput 0.996696
Reading from 4867: heap size 101 MB, throughput 0.99644
Reading from 4867: heap size 98 MB, throughput 0.996163
Reading from 4867: heap size 100 MB, throughput 0.9703
Reading from 4866: heap size 32 MB, throughput 0.958189
Reading from 4867: heap size 102 MB, throughput 0.995879
Reading from 4867: heap size 99 MB, throughput 0.996403
Reading from 4867: heap size 102 MB, throughput 0.994057
Reading from 4867: heap size 98 MB, throughput 0.995732
Reading from 4866: heap size 34 MB, throughput 0.999387
Reading from 4867: heap size 101 MB, throughput 0.995629
Reading from 4867: heap size 97 MB, throughput 0.995868
Reading from 4867: heap size 100 MB, throughput 0.994478
Reading from 4867: heap size 102 MB, throughput 0.992188
Reading from 4866: heap size 36 MB, throughput 0.99903
Reading from 4867: heap size 99 MB, throughput 0.995972
Reading from 4867: heap size 101 MB, throughput 0.993524
Equal recommendation: 100 MB each
Reading from 4867: heap size 98 MB, throughput 0.994786
Reading from 4867: heap size 100 MB, throughput 0.991134
Reading from 4866: heap size 36 MB, throughput 0.999134
Reading from 4867: heap size 97 MB, throughput 0.996479
Reading from 4867: heap size 99 MB, throughput 0.994919
Reading from 4867: heap size 102 MB, throughput 0.994331
Reading from 4867: heap size 98 MB, throughput 0.99533
Reading from 4866: heap size 36 MB, throughput 0.998957
Reading from 4867: heap size 101 MB, throughput 0.996047
Reading from 4867: heap size 97 MB, throughput 0.99656
Reading from 4867: heap size 99 MB, throughput 0.996026
Reading from 4867: heap size 101 MB, throughput 0.996503
Reading from 4866: heap size 37 MB, throughput 0.998893
Reading from 4867: heap size 98 MB, throughput 0.979535
Reading from 4867: heap size 101 MB, throughput 0.995891
Reading from 4867: heap size 97 MB, throughput 0.995313
Reading from 4867: heap size 100 MB, throughput 0.995789
Reading from 4866: heap size 37 MB, throughput 0.998799
Reading from 4867: heap size 102 MB, throughput 0.996842
Reading from 4867: heap size 99 MB, throughput 0.993942
Reading from 4867: heap size 101 MB, throughput 0.994902
Reading from 4867: heap size 98 MB, throughput 0.996214
Reading from 4866: heap size 36 MB, throughput 0.998088
Reading from 4867: heap size 100 MB, throughput 0.994393
Reading from 4867: heap size 102 MB, throughput 0.996101
Reading from 4867: heap size 99 MB, throughput 0.996324
Reading from 4867: heap size 101 MB, throughput 0.996614
Reading from 4866: heap size 36 MB, throughput 0.998145
Reading from 4867: heap size 97 MB, throughput 0.996487
Reading from 4867: heap size 99 MB, throughput 0.993921
Reading from 4867: heap size 101 MB, throughput 0.996912
Reading from 4867: heap size 98 MB, throughput 0.996684
Reading from 4866: heap size 36 MB, throughput 0.997451
Reading from 4867: heap size 100 MB, throughput 0.996624
Reading from 4867: heap size 102 MB, throughput 0.995306
Reading from 4867: heap size 98 MB, throughput 0.995117
Reading from 4867: heap size 100 MB, throughput 0.99634
Equal recommendation: 100 MB each
Reading from 4867: heap size 97 MB, throughput 0.99695
Reading from 4866: heap size 36 MB, throughput 0.999025
Reading from 4867: heap size 99 MB, throughput 0.995063
Reading from 4867: heap size 101 MB, throughput 0.995485
Reading from 4867: heap size 97 MB, throughput 0.995442
Reading from 4867: heap size 99 MB, throughput 0.994395
Reading from 4866: heap size 36 MB, throughput 0.996557
Reading from 4867: heap size 101 MB, throughput 0.996327
Reading from 4867: heap size 98 MB, throughput 0.994378
Reading from 4867: heap size 100 MB, throughput 0.995289
Reading from 4867: heap size 102 MB, throughput 0.994385
Reading from 4867: heap size 98 MB, throughput 0.996515
Reading from 4866: heap size 36 MB, throughput 0.998363
Reading from 4867: heap size 100 MB, throughput 0.99628
Reading from 4867: heap size 97 MB, throughput 0.995491
Reading from 4867: heap size 99 MB, throughput 0.996276
Reading from 4867: heap size 101 MB, throughput 0.995295
Reading from 4867: heap size 97 MB, throughput 0.994552
Reading from 4866: heap size 37 MB, throughput 0.9986
Reading from 4867: heap size 99 MB, throughput 0.995742
Reading from 4867: heap size 101 MB, throughput 0.996229
Reading from 4867: heap size 98 MB, throughput 0.995136
Reading from 4867: heap size 100 MB, throughput 0.99551
Reading from 4866: heap size 37 MB, throughput 0.998089
Reading from 4867: heap size 102 MB, throughput 0.995867
Reading from 4867: heap size 98 MB, throughput 0.995985
Reading from 4867: heap size 100 MB, throughput 0.99646
Reading from 4867: heap size 97 MB, throughput 0.982256
Reading from 4867: heap size 100 MB, throughput 0.993414
Reading from 4866: heap size 37 MB, throughput 0.998373
Reading from 4867: heap size 103 MB, throughput 0.997249
Reading from 4867: heap size 99 MB, throughput 0.993128
Reading from 4867: heap size 102 MB, throughput 0.995759
Reading from 4867: heap size 98 MB, throughput 0.994141
Reading from 4867: heap size 101 MB, throughput 0.995536
Reading from 4866: heap size 37 MB, throughput 0.997391
Equal recommendation: 100 MB each
Reading from 4867: heap size 97 MB, throughput 0.99251
Reading from 4867: heap size 100 MB, throughput 0.996541
Reading from 4867: heap size 102 MB, throughput 0.996162
Reading from 4866: heap size 38 MB, throughput 0.992636
Reading from 4867: heap size 99 MB, throughput 0.99658
Reading from 4867: heap size 101 MB, throughput 0.996678
Reading from 4867: heap size 97 MB, throughput 0.995735
Reading from 4867: heap size 99 MB, throughput 0.993391
Reading from 4867: heap size 101 MB, throughput 0.995399
Reading from 4867: heap size 98 MB, throughput 0.996185
Reading from 4866: heap size 38 MB, throughput 0.994934
Reading from 4867: heap size 100 MB, throughput 0.996058
Reading from 4867: heap size 102 MB, throughput 0.994364
Reading from 4867: heap size 98 MB, throughput 0.993145
Reading from 4867: heap size 100 MB, throughput 0.970674
Reading from 4867: heap size 97 MB, throughput 0.995691
Reading from 4866: heap size 41 MB, throughput 0.996455
Reading from 4867: heap size 100 MB, throughput 0.996263
Reading from 4867: heap size 97 MB, throughput 0.994404
Reading from 4867: heap size 100 MB, throughput 0.994826
Reading from 4867: heap size 103 MB, throughput 0.996413
Reading from 4866: heap size 41 MB, throughput 0.996993
Reading from 4867: heap size 99 MB, throughput 0.995599
Reading from 4867: heap size 102 MB, throughput 0.996442
Reading from 4867: heap size 98 MB, throughput 0.996246
Reading from 4867: heap size 100 MB, throughput 0.996261
Reading from 4867: heap size 97 MB, throughput 0.993153
Reading from 4866: heap size 42 MB, throughput 0.995677
Reading from 4867: heap size 99 MB, throughput 0.996917
Reading from 4867: heap size 101 MB, throughput 0.993971
Reading from 4867: heap size 97 MB, throughput 0.996
Reading from 4867: heap size 99 MB, throughput 0.99332
Reading from 4867: heap size 102 MB, throughput 0.996441
Reading from 4866: heap size 42 MB, throughput 0.996538
Reading from 4867: heap size 98 MB, throughput 0.996387
Reading from 4867: heap size 100 MB, throughput 0.996321
Equal recommendation: 100 MB each
Reading from 4867: heap size 97 MB, throughput 0.995598
Reading from 4867: heap size 99 MB, throughput 0.995316
Reading from 4867: heap size 101 MB, throughput 0.993361
Reading from 4867: heap size 97 MB, throughput 0.995725
Reading from 4866: heap size 43 MB, throughput 0.995464
Reading from 4867: heap size 99 MB, throughput 0.994791
Reading from 4867: heap size 101 MB, throughput 0.994066
Reading from 4867: heap size 98 MB, throughput 0.995684
Reading from 4867: heap size 100 MB, throughput 0.9958
Reading from 4867: heap size 102 MB, throughput 0.994071
Reading from 4866: heap size 43 MB, throughput 0.994741
Reading from 4867: heap size 98 MB, throughput 0.99522
Reading from 4867: heap size 100 MB, throughput 0.995143
Reading from 4867: heap size 97 MB, throughput 0.994428
Reading from 4867: heap size 99 MB, throughput 0.995018
Reading from 4867: heap size 101 MB, throughput 0.995307
Reading from 4866: heap size 44 MB, throughput 0.995112
Reading from 4867: heap size 97 MB, throughput 0.995891
Reading from 4867: heap size 99 MB, throughput 0.993973
Reading from 4867: heap size 101 MB, throughput 0.996171
Reading from 4867: heap size 98 MB, throughput 0.996288
Reading from 4867: heap size 100 MB, throughput 0.994489
Reading from 4867: heap size 102 MB, throughput 0.995698
Reading from 4866: heap size 44 MB, throughput 0.995701
Reading from 4867: heap size 98 MB, throughput 0.995499
Reading from 4867: heap size 100 MB, throughput 0.995874
Reading from 4867: heap size 97 MB, throughput 0.995307
Reading from 4867: heap size 99 MB, throughput 0.994658
Reading from 4867: heap size 101 MB, throughput 0.99646
Reading from 4866: heap size 45 MB, throughput 0.994951
Reading from 4867: heap size 97 MB, throughput 0.996073
Reading from 4867: heap size 99 MB, throughput 0.992357
Reading from 4867: heap size 102 MB, throughput 0.995849
Reading from 4867: heap size 98 MB, throughput 0.996452
Reading from 4867: heap size 100 MB, throughput 0.996806
Reading from 4866: heap size 45 MB, throughput 0.995312
Equal recommendation: 100 MB each
Reading from 4867: heap size 97 MB, throughput 0.994819
Reading from 4867: heap size 99 MB, throughput 0.994724
Reading from 4867: heap size 101 MB, throughput 0.996334
Reading from 4867: heap size 97 MB, throughput 0.993865
Reading from 4867: heap size 99 MB, throughput 0.99648
Reading from 4867: heap size 101 MB, throughput 0.994899
Reading from 4866: heap size 45 MB, throughput 0.994987
Reading from 4867: heap size 98 MB, throughput 0.995028
Reading from 4867: heap size 100 MB, throughput 0.995251
Reading from 4867: heap size 102 MB, throughput 0.996224
Reading from 4867: heap size 98 MB, throughput 0.995163
Reading from 4867: heap size 100 MB, throughput 0.993534
Reading from 4866: heap size 45 MB, throughput 0.991749
Reading from 4867: heap size 97 MB, throughput 0.995699
Reading from 4867: heap size 99 MB, throughput 0.996739
Reading from 4867: heap size 101 MB, throughput 0.997238
Reading from 4867: heap size 97 MB, throughput 0.995325
Reading from 4867: heap size 99 MB, throughput 0.992167
Reading from 4866: heap size 45 MB, throughput 0.965472
Reading from 4867: heap size 102 MB, throughput 0.993978
Reading from 4867: heap size 98 MB, throughput 0.99483
Reading from 4867: heap size 101 MB, throughput 0.995141
Reading from 4867: heap size 97 MB, throughput 0.995895
Reading from 4867: heap size 99 MB, throughput 0.994658
Reading from 4867: heap size 101 MB, throughput 0.995719
Reading from 4866: heap size 49 MB, throughput 0.999467
Reading from 4867: heap size 98 MB, throughput 0.995511
Reading from 4867: heap size 100 MB, throughput 0.996096
Reading from 4867: heap size 102 MB, throughput 0.996225
Reading from 4867: heap size 98 MB, throughput 0.995488
Reading from 4867: heap size 100 MB, throughput 0.995859
Reading from 4867: heap size 97 MB, throughput 0.995943
Reading from 4866: heap size 52 MB, throughput 0.999303
Reading from 4867: heap size 99 MB, throughput 0.995903
Reading from 4867: heap size 101 MB, throughput 0.995606
Equal recommendation: 100 MB each
Reading from 4867: heap size 97 MB, throughput 0.99564
Reading from 4867: heap size 99 MB, throughput 0.995053
Reading from 4867: heap size 101 MB, throughput 0.996961
Reading from 4866: heap size 52 MB, throughput 0.999309
Reading from 4867: heap size 98 MB, throughput 0.99548
Reading from 4867: heap size 100 MB, throughput 0.993737
Reading from 4867: heap size 102 MB, throughput 0.99306
Reading from 4867: heap size 98 MB, throughput 0.996052
Reading from 4867: heap size 100 MB, throughput 0.993174
Reading from 4866: heap size 53 MB, throughput 0.999139
Reading from 4867: heap size 97 MB, throughput 0.993427
Reading from 4867: heap size 100 MB, throughput 0.830881
Reading from 4867: heap size 108 MB, throughput 0.994467
Reading from 4867: heap size 105 MB, throughput 0.989792
Reading from 4867: heap size 102 MB, throughput 0.995509
Reading from 4866: heap size 53 MB, throughput 0.99922
Reading from 4867: heap size 99 MB, throughput 0.993193
Reading from 4867: heap size 102 MB, throughput 0.994863
Reading from 4867: heap size 99 MB, throughput 0.992111
Reading from 4867: heap size 103 MB, throughput 0.992594
Reading from 4867: heap size 100 MB, throughput 0.994234
Reading from 4867: heap size 103 MB, throughput 0.994688
Reading from 4866: heap size 52 MB, throughput 0.999129
Reading from 4867: heap size 99 MB, throughput 0.996004
Reading from 4867: heap size 101 MB, throughput 0.992913
Reading from 4867: heap size 99 MB, throughput 0.993595
Reading from 4867: heap size 101 MB, throughput 0.994085
Reading from 4867: heap size 98 MB, throughput 0.993726
Reading from 4867: heap size 100 MB, throughput 0.992279
Reading from 4867: heap size 97 MB, throughput 0.987948
Reading from 4866: heap size 53 MB, throughput 0.998883
Reading from 4867: heap size 99 MB, throughput 0.994824
Reading from 4867: heap size 100 MB, throughput 0.994315
Reading from 4867: heap size 103 MB, throughput 0.994195
Equal recommendation: 100 MB each
Reading from 4867: heap size 99 MB, throughput 0.994995
Reading from 4867: heap size 102 MB, throughput 0.9952
Reading from 4867: heap size 97 MB, throughput 0.991737
Reading from 4867: heap size 100 MB, throughput 0.966703
Reading from 4866: heap size 52 MB, throughput 0.99919
Reading from 4867: heap size 96 MB, throughput 0.994975
Reading from 4867: heap size 99 MB, throughput 0.995975
Reading from 4867: heap size 99 MB, throughput 0.993863
Reading from 4867: heap size 101 MB, throughput 0.995742
Reading from 4867: heap size 99 MB, throughput 0.995163
Reading from 4867: heap size 102 MB, throughput 0.993249
Reading from 4866: heap size 52 MB, throughput 0.998549
Reading from 4867: heap size 98 MB, throughput 0.995456
Reading from 4867: heap size 101 MB, throughput 0.995226
Reading from 4867: heap size 97 MB, throughput 0.994703
Reading from 4867: heap size 100 MB, throughput 0.994438
Reading from 4867: heap size 96 MB, throughput 0.9938
Reading from 4867: heap size 99 MB, throughput 0.995928
Reading from 4867: heap size 99 MB, throughput 0.993075
Reading from 4866: heap size 51 MB, throughput 0.998085
Reading from 4867: heap size 102 MB, throughput 0.994103
Reading from 4867: heap size 98 MB, throughput 0.993019
Reading from 4867: heap size 101 MB, throughput 0.994443
Reading from 4867: heap size 98 MB, throughput 0.994796
Reading from 4867: heap size 101 MB, throughput 0.993377
Reading from 4867: heap size 97 MB, throughput 0.995933
Reading from 4867: heap size 100 MB, throughput 0.994608
Reading from 4866: heap size 44 MB, throughput 0.999066
Reading from 4867: heap size 97 MB, throughput 0.995418
Reading from 4867: heap size 100 MB, throughput 0.994044
Reading from 4867: heap size 100 MB, throughput 0.993692
Reading from 4867: heap size 103 MB, throughput 0.99685
Reading from 4867: heap size 99 MB, throughput 0.99674
Reading from 4867: heap size 102 MB, throughput 0.995258
Reading from 4866: heap size 50 MB, throughput 0.996716
Reading from 4867: heap size 99 MB, throughput 0.99474
Reading from 4867: heap size 101 MB, throughput 0.995222
Equal recommendation: 100 MB each
Reading from 4867: heap size 98 MB, throughput 0.992556
Reading from 4867: heap size 101 MB, throughput 0.991324
Reading from 4867: heap size 98 MB, throughput 0.995535
Reading from 4867: heap size 101 MB, throughput 0.996039
Reading from 4867: heap size 98 MB, throughput 0.994504
Reading from 4866: heap size 51 MB, throughput 0.997432
Reading from 4867: heap size 101 MB, throughput 0.995467
Reading from 4867: heap size 98 MB, throughput 0.995215
Reading from 4867: heap size 101 MB, throughput 0.995645
Reading from 4867: heap size 98 MB, throughput 0.995546
Reading from 4867: heap size 101 MB, throughput 0.995193
Reading from 4867: heap size 98 MB, throughput 0.995128
Reading from 4866: heap size 51 MB, throughput 0.995931
Reading from 4867: heap size 100 MB, throughput 0.996749
Reading from 4867: heap size 97 MB, throughput 0.996281
Reading from 4867: heap size 100 MB, throughput 0.993807
Reading from 4867: heap size 102 MB, throughput 0.994966
Reading from 4867: heap size 99 MB, throughput 0.993193
Reading from 4867: heap size 102 MB, throughput 0.99605
Reading from 4867: heap size 99 MB, throughput 0.994998
Reading from 4866: heap size 53 MB, throughput 0.9971
Reading from 4867: heap size 102 MB, throughput 0.993288
Reading from 4867: heap size 99 MB, throughput 0.995036
Reading from 4867: heap size 102 MB, throughput 0.995297
Reading from 4867: heap size 99 MB, throughput 0.993808
Reading from 4867: heap size 102 MB, throughput 0.995258
Reading from 4867: heap size 99 MB, throughput 0.993166
Reading from 4866: heap size 53 MB, throughput 0.997451
Reading from 4867: heap size 102 MB, throughput 0.995945
Reading from 4867: heap size 99 MB, throughput 0.996289
Reading from 4867: heap size 101 MB, throughput 0.995371
Reading from 4867: heap size 98 MB, throughput 0.996556
Reading from 4867: heap size 101 MB, throughput 0.995261
Reading from 4867: heap size 98 MB, throughput 0.983774
Reading from 4867: heap size 101 MB, throughput 0.995096
Reading from 4866: heap size 54 MB, throughput 0.997758
Reading from 4867: heap size 98 MB, throughput 0.994746
Equal recommendation: 100 MB each
Reading from 4867: heap size 102 MB, throughput 0.981211
Reading from 4867: heap size 99 MB, throughput 0.994529
Reading from 4867: heap size 102 MB, throughput 0.993316
Reading from 4867: heap size 99 MB, throughput 0.994054
Reading from 4867: heap size 103 MB, throughput 0.995543
Reading from 4866: heap size 55 MB, throughput 0.996801
Reading from 4867: heap size 100 MB, throughput 0.994991
Reading from 4867: heap size 103 MB, throughput 0.994314
Reading from 4867: heap size 100 MB, throughput 0.994382
Reading from 4867: heap size 97 MB, throughput 0.996455
Reading from 4867: heap size 100 MB, throughput 0.99494
Reading from 4867: heap size 97 MB, throughput 0.993917
Reading from 4866: heap size 55 MB, throughput 0.998043
Reading from 4867: heap size 100 MB, throughput 0.993026
Reading from 4867: heap size 97 MB, throughput 0.994832
Reading from 4867: heap size 100 MB, throughput 0.995532
Reading from 4867: heap size 97 MB, throughput 0.993597
Reading from 4867: heap size 100 MB, throughput 0.99525
Reading from 4867: heap size 97 MB, throughput 0.996069
Reading from 4867: heap size 100 MB, throughput 0.969381
Reading from 4866: heap size 55 MB, throughput 0.998145
Reading from 4867: heap size 97 MB, throughput 0.992321
Reading from 4867: heap size 102 MB, throughput 0.995121
Reading from 4867: heap size 99 MB, throughput 0.99431
Reading from 4867: heap size 103 MB, throughput 0.993535
Reading from 4867: heap size 100 MB, throughput 0.995165
Reading from 4867: heap size 97 MB, throughput 0.993756
Reading from 4867: heap size 101 MB, throughput 0.995296
Reading from 4866: heap size 55 MB, throughput 0.998209
Reading from 4867: heap size 98 MB, throughput 0.994626
Reading from 4867: heap size 101 MB, throughput 0.99458
Reading from 4867: heap size 98 MB, throughput 0.993135
Reading from 4867: heap size 101 MB, throughput 0.995909
Reading from 4867: heap size 98 MB, throughput 0.994005
Reading from 4867: heap size 101 MB, throughput 0.994726
Reading from 4867: heap size 98 MB, throughput 0.995316
Reading from 4866: heap size 54 MB, throughput 0.997122
Equal recommendation: 100 MB each
Reading from 4867: heap size 101 MB, throughput 0.995395
Reading from 4867: heap size 98 MB, throughput 0.996032
Reading from 4867: heap size 100 MB, throughput 0.993198
Reading from 4867: heap size 97 MB, throughput 0.9955
Reading from 4867: heap size 100 MB, throughput 0.99558
Reading from 4867: heap size 97 MB, throughput 0.995299
Reading from 4867: heap size 100 MB, throughput 0.993402
Reading from 4866: heap size 55 MB, throughput 0.998485
Reading from 4867: heap size 103 MB, throughput 0.969306
Reading from 4867: heap size 100 MB, throughput 0.995519
Reading from 4867: heap size 103 MB, throughput 0.995111
Reading from 4867: heap size 100 MB, throughput 0.992283
Reading from 4867: heap size 97 MB, throughput 0.994722
Reading from 4867: heap size 101 MB, throughput 0.994042
Reading from 4867: heap size 98 MB, throughput 0.964363
Reading from 4867: heap size 103 MB, throughput 0.994288
Reading from 4866: heap size 54 MB, throughput 0.997845
Reading from 4867: heap size 100 MB, throughput 0.99577
Reading from 4867: heap size 97 MB, throughput 0.993295
Reading from 4867: heap size 102 MB, throughput 0.995485
Reading from 4867: heap size 99 MB, throughput 0.995205
Reading from 4867: heap size 102 MB, throughput 0.995027
Reading from 4867: heap size 99 MB, throughput 0.992799
Reading from 4867: heap size 103 MB, throughput 0.996277
Reading from 4866: heap size 54 MB, throughput 0.995705
Reading from 4867: heap size 100 MB, throughput 0.995273
Reading from 4867: heap size 103 MB, throughput 0.995944
Reading from 4867: heap size 100 MB, throughput 0.9947
Reading from 4867: heap size 103 MB, throughput 0.996138
Reading from 4867: heap size 100 MB, throughput 0.995662
Reading from 4867: heap size 102 MB, throughput 0.995901
Reading from 4867: heap size 99 MB, throughput 0.995133
Reading from 4866: heap size 53 MB, throughput 0.997399
Reading from 4867: heap size 102 MB, throughput 0.994299
Reading from 4867: heap size 99 MB, throughput 0.994396
Reading from 4867: heap size 102 MB, throughput 0.99326
Equal recommendation: 100 MB each
Reading from 4867: heap size 99 MB, throughput 0.994776
Reading from 4867: heap size 102 MB, throughput 0.986026
Reading from 4867: heap size 99 MB, throughput 0.995513
Reading from 4867: heap size 102 MB, throughput 0.995679
Reading from 4866: heap size 54 MB, throughput 0.998306
Reading from 4867: heap size 99 MB, throughput 0.99638
Reading from 4867: heap size 102 MB, throughput 0.995017
Reading from 4867: heap size 99 MB, throughput 0.995807
Reading from 4867: heap size 102 MB, throughput 0.995482
Reading from 4867: heap size 99 MB, throughput 0.995571
Reading from 4867: heap size 102 MB, throughput 0.995013
Reading from 4867: heap size 99 MB, throughput 0.994845
Reading from 4866: heap size 53 MB, throughput 0.998725
Reading from 4867: heap size 101 MB, throughput 0.99504
Reading from 4867: heap size 98 MB, throughput 0.995625
Reading from 4867: heap size 101 MB, throughput 0.994943
Reading from 4867: heap size 98 MB, throughput 0.994185
Reading from 4867: heap size 101 MB, throughput 0.987051
Reading from 4867: heap size 98 MB, throughput 0.993477
Reading from 4867: heap size 101 MB, throughput 0.994572
Reading from 4867: heap size 98 MB, throughput 0.994423
Reading from 4866: heap size 54 MB, throughput 0.998031
Reading from 4867: heap size 102 MB, throughput 0.995615
Reading from 4867: heap size 99 MB, throughput 0.996121
Reading from 4867: heap size 102 MB, throughput 0.995995
Reading from 4867: heap size 99 MB, throughput 0.996059
Reading from 4867: heap size 101 MB, throughput 0.994424
Reading from 4867: heap size 98 MB, throughput 0.994171
Reading from 4867: heap size 101 MB, throughput 0.994103
Reading from 4866: heap size 53 MB, throughput 0.998734
Reading from 4867: heap size 98 MB, throughput 0.99383
Reading from 4867: heap size 101 MB, throughput 0.993386
Reading from 4867: heap size 98 MB, throughput 0.993505
Reading from 4867: heap size 101 MB, throughput 0.994058
Reading from 4867: heap size 98 MB, throughput 0.995761
Reading from 4867: heap size 101 MB, throughput 0.994283
Reading from 4867: heap size 98 MB, throughput 0.994713
Equal recommendation: 100 MB each
Reading from 4867: heap size 101 MB, throughput 0.994098
Reading from 4866: heap size 54 MB, throughput 0.99839
Reading from 4867: heap size 98 MB, throughput 0.994496
Reading from 4867: heap size 101 MB, throughput 0.995424
Reading from 4867: heap size 98 MB, throughput 0.995419
Reading from 4867: heap size 101 MB, throughput 0.995878
Reading from 4867: heap size 98 MB, throughput 0.995145
Reading from 4867: heap size 101 MB, throughput 0.994908
Reading from 4867: heap size 98 MB, throughput 0.992429
Reading from 4867: heap size 101 MB, throughput 0.993158
Reading from 4866: heap size 53 MB, throughput 0.997535
Reading from 4867: heap size 98 MB, throughput 0.994597
Reading from 4867: heap size 101 MB, throughput 0.994565
Reading from 4867: heap size 98 MB, throughput 0.994385
Reading from 4867: heap size 101 MB, throughput 0.995438
Reading from 4867: heap size 98 MB, throughput 0.995617
Reading from 4867: heap size 101 MB, throughput 0.992822
Reading from 4867: heap size 98 MB, throughput 0.991756
Reading from 4867: heap size 101 MB, throughput 0.994708
Reading from 4866: heap size 54 MB, throughput 0.994634
Reading from 4867: heap size 98 MB, throughput 0.996242
Reading from 4867: heap size 101 MB, throughput 0.99396
Reading from 4867: heap size 98 MB, throughput 0.994516
Reading from 4867: heap size 101 MB, throughput 0.994974
Reading from 4867: heap size 98 MB, throughput 0.994284
Reading from 4867: heap size 101 MB, throughput 0.994598
Reading from 4867: heap size 98 MB, throughput 0.992876
Reading from 4866: heap size 53 MB, throughput 0.997754
Reading from 4867: heap size 101 MB, throughput 0.996156
Reading from 4867: heap size 98 MB, throughput 0.995814
Reading from 4867: heap size 101 MB, throughput 0.995914
Reading from 4867: heap size 98 MB, throughput 0.993596
Reading from 4867: heap size 101 MB, throughput 0.995019
Reading from 4867: heap size 98 MB, throughput 0.992613
Reading from 4867: heap size 101 MB, throughput 0.994917
Reading from 4867: heap size 98 MB, throughput 0.994803
Equal recommendation: 100 MB each
Reading from 4867: heap size 101 MB, throughput 0.99441
Reading from 4866: heap size 54 MB, throughput 0.998819
Reading from 4867: heap size 98 MB, throughput 0.995899
Reading from 4867: heap size 101 MB, throughput 0.994269
Reading from 4867: heap size 98 MB, throughput 0.99382
Reading from 4867: heap size 101 MB, throughput 0.995718
Reading from 4867: heap size 98 MB, throughput 0.994656
Reading from 4867: heap size 101 MB, throughput 0.996026
Reading from 4867: heap size 98 MB, throughput 0.995177
Reading from 4867: heap size 101 MB, throughput 0.980843
Reading from 4866: heap size 53 MB, throughput 0.99809
Reading from 4867: heap size 98 MB, throughput 0.994112
Reading from 4867: heap size 102 MB, throughput 0.995641
Reading from 4867: heap size 99 MB, throughput 0.996157
Reading from 4867: heap size 102 MB, throughput 0.995996
Reading from 4867: heap size 99 MB, throughput 0.995188
Reading from 4867: heap size 102 MB, throughput 0.994397
Reading from 4867: heap size 99 MB, throughput 0.993627
Reading from 4867: heap size 102 MB, throughput 0.99455
Reading from 4867: heap size 99 MB, throughput 0.994869
Reading from 4866: heap size 54 MB, throughput 0.998565
Reading from 4867: heap size 102 MB, throughput 0.994135
Reading from 4867: heap size 99 MB, throughput 0.994818
Reading from 4867: heap size 102 MB, throughput 0.995796
Reading from 4867: heap size 99 MB, throughput 0.9956
Reading from 4867: heap size 101 MB, throughput 0.994537
Reading from 4867: heap size 98 MB, throughput 0.995536
Reading from 4867: heap size 101 MB, throughput 0.995093
Reading from 4867: heap size 98 MB, throughput 0.993654
Reading from 4866: heap size 53 MB, throughput 0.998936
Reading from 4867: heap size 101 MB, throughput 0.995141
Reading from 4867: heap size 98 MB, throughput 0.995817
Reading from 4867: heap size 100 MB, throughput 0.995779
Reading from 4867: heap size 97 MB, throughput 0.989327
Reading from 4867: heap size 101 MB, throughput 0.991526
Reading from 4867: heap size 98 MB, throughput 0.990005
Reading from 4867: heap size 102 MB, throughput 0.987191
Equal recommendation: 100 MB each
Reading from 4867: heap size 100 MB, throughput 0.989661
Reading from 4866: heap size 54 MB, throughput 0.998696
Reading from 4867: heap size 102 MB, throughput 0.990108
Reading from 4867: heap size 100 MB, throughput 0.95684
Reading from 4867: heap size 96 MB, throughput 0.992042
Reading from 4867: heap size 101 MB, throughput 0.991601
Reading from 4867: heap size 96 MB, throughput 0.986382
Reading from 4867: heap size 103 MB, throughput 0.992377
Reading from 4867: heap size 98 MB, throughput 0.992215
Reading from 4867: heap size 102 MB, throughput 0.990906
Reading from 4867: heap size 97 MB, throughput 0.991677
Reading from 4866: heap size 53 MB, throughput 0.997864
Reading from 4867: heap size 102 MB, throughput 0.990369
Reading from 4867: heap size 99 MB, throughput 0.963807
Reading from 4867: heap size 102 MB, throughput 0.991949
Reading from 4867: heap size 98 MB, throughput 0.99342
Reading from 4867: heap size 102 MB, throughput 0.991979
Reading from 4867: heap size 99 MB, throughput 0.993745
Reading from 4867: heap size 104 MB, throughput 0.995152
Reading from 4867: heap size 99 MB, throughput 0.994569
Reading from 4866: heap size 54 MB, throughput 0.99836
Reading from 4867: heap size 103 MB, throughput 0.994713
Reading from 4867: heap size 98 MB, throughput 0.995084
Reading from 4867: heap size 103 MB, throughput 0.970469
Reading from 4867: heap size 98 MB, throughput 0.995624
Reading from 4867: heap size 102 MB, throughput 0.995034
Reading from 4867: heap size 97 MB, throughput 0.99459
Reading from 4867: heap size 102 MB, throughput 0.995633
Reading from 4867: heap size 98 MB, throughput 0.994403
Reading from 4867: heap size 101 MB, throughput 0.994673
Reading from 4867: heap size 97 MB, throughput 0.994457
Reading from 4866: heap size 53 MB, throughput 0.998323
Reading from 4867: heap size 101 MB, throughput 0.995419
Reading from 4867: heap size 97 MB, throughput 0.995103
Reading from 4867: heap size 100 MB, throughput 0.995048
Reading from 4867: heap size 96 MB, throughput 0.99295
Equal recommendation: 100 MB each
Reading from 4867: heap size 100 MB, throughput 0.991133
Reading from 4867: heap size 100 MB, throughput 0.969544
Reading from 4867: heap size 96 MB, throughput 0.995433
Reading from 4866: heap size 54 MB, throughput 0.998677
Reading from 4867: heap size 99 MB, throughput 0.994594
Reading from 4867: heap size 99 MB, throughput 0.993038
Reading from 4867: heap size 102 MB, throughput 0.992149
Reading from 4867: heap size 100 MB, throughput 0.994869
Reading from 4867: heap size 103 MB, throughput 0.995621
Reading from 4867: heap size 100 MB, throughput 0.995399
Reading from 4867: heap size 103 MB, throughput 0.994518
Reading from 4867: heap size 99 MB, throughput 0.99257
Reading from 4867: heap size 102 MB, throughput 0.994732
Reading from 4867: heap size 99 MB, throughput 0.995875
Reading from 4866: heap size 54 MB, throughput 0.998486
Reading from 4867: heap size 102 MB, throughput 0.995285
Reading from 4867: heap size 98 MB, throughput 0.972341
Reading from 4867: heap size 101 MB, throughput 0.99386
Reading from 4867: heap size 98 MB, throughput 0.994369
Reading from 4867: heap size 101 MB, throughput 0.994349
Reading from 4867: heap size 97 MB, throughput 0.994082
Reading from 4867: heap size 101 MB, throughput 0.994732
Reading from 4867: heap size 97 MB, throughput 0.994791
Reading from 4866: heap size 54 MB, throughput 0.998102
Reading from 4867: heap size 100 MB, throughput 0.992608
Reading from 4867: heap size 97 MB, throughput 0.994969
Reading from 4867: heap size 100 MB, throughput 0.994679
Reading from 4867: heap size 97 MB, throughput 0.995742
Reading from 4867: heap size 100 MB, throughput 0.994498
Reading from 4867: heap size 97 MB, throughput 0.993658
Reading from 4867: heap size 100 MB, throughput 0.99422
Reading from 4867: heap size 97 MB, throughput 0.995691
Reading from 4867: heap size 100 MB, throughput 0.966013
Reading from 4866: heap size 54 MB, throughput 0.999021
Reading from 4867: heap size 97 MB, throughput 0.995483
Reading from 4867: heap size 100 MB, throughput 0.994351
Reading from 4867: heap size 97 MB, throughput 0.993342
Equal recommendation: 100 MB each
Reading from 4867: heap size 100 MB, throughput 0.995416
Reading from 4867: heap size 97 MB, throughput 0.993163
Reading from 4867: heap size 100 MB, throughput 0.995111
Reading from 4867: heap size 97 MB, throughput 0.993503
Reading from 4867: heap size 100 MB, throughput 0.995765
Reading from 4867: heap size 97 MB, throughput 0.99506
Reading from 4866: heap size 54 MB, throughput 0.996524
Reading from 4867: heap size 100 MB, throughput 0.994136
Reading from 4867: heap size 97 MB, throughput 0.994742
Reading from 4867: heap size 100 MB, throughput 0.995245
Reading from 4867: heap size 97 MB, throughput 0.993697
Reading from 4867: heap size 100 MB, throughput 0.994252
Reading from 4867: heap size 97 MB, throughput 0.994469
Reading from 4867: heap size 100 MB, throughput 0.995233
Reading from 4867: heap size 97 MB, throughput 0.995479
Reading from 4867: heap size 100 MB, throughput 0.993885
Reading from 4867: heap size 97 MB, throughput 0.983804
Reading from 4866: heap size 54 MB, throughput 0.998973
Reading from 4867: heap size 100 MB, throughput 0.995496
Reading from 4867: heap size 97 MB, throughput 0.993917
Reading from 4867: heap size 100 MB, throughput 0.996222
Reading from 4867: heap size 97 MB, throughput 0.99522
Reading from 4867: heap size 100 MB, throughput 0.990366
Reading from 4867: heap size 97 MB, throughput 0.995671
Reading from 4867: heap size 100 MB, throughput 0.994858
Reading from 4867: heap size 97 MB, throughput 0.994764
Reading from 4866: heap size 54 MB, throughput 0.998892
Reading from 4867: heap size 100 MB, throughput 0.992243
Reading from 4867: heap size 97 MB, throughput 0.994062
Reading from 4867: heap size 100 MB, throughput 0.995071
Reading from 4867: heap size 97 MB, throughput 0.993997
Reading from 4867: heap size 100 MB, throughput 0.994286
Reading from 4867: heap size 97 MB, throughput 0.994203
Reading from 4867: heap size 100 MB, throughput 0.99536
Reading from 4867: heap size 97 MB, throughput 0.993619
Reading from 4867: heap size 100 MB, throughput 0.993197
Equal recommendation: 100 MB each
Reading from 4866: heap size 54 MB, throughput 0.998233
Reading from 4867: heap size 97 MB, throughput 0.994793
Reading from 4867: heap size 100 MB, throughput 0.968879
Reading from 4867: heap size 97 MB, throughput 0.993695
Reading from 4867: heap size 100 MB, throughput 0.994037
Reading from 4867: heap size 97 MB, throughput 0.993878
Reading from 4867: heap size 100 MB, throughput 0.996094
Reading from 4867: heap size 97 MB, throughput 0.995264
Reading from 4867: heap size 100 MB, throughput 0.994295
Reading from 4867: heap size 97 MB, throughput 0.993563
Reading from 4866: heap size 54 MB, throughput 0.99791
Reading from 4867: heap size 100 MB, throughput 0.994389
Reading from 4867: heap size 97 MB, throughput 0.994035
Reading from 4867: heap size 100 MB, throughput 0.995125
Reading from 4867: heap size 97 MB, throughput 0.980016
Reading from 4867: heap size 100 MB, throughput 0.994906
Reading from 4867: heap size 97 MB, throughput 0.995626
Reading from 4867: heap size 100 MB, throughput 0.99582
Reading from 4867: heap size 97 MB, throughput 0.99562
Reading from 4866: heap size 55 MB, throughput 0.998766
Reading from 4867: heap size 100 MB, throughput 0.996214
Reading from 4867: heap size 97 MB, throughput 0.995535
Reading from 4867: heap size 100 MB, throughput 0.995135
Reading from 4867: heap size 97 MB, throughput 0.97628
Reading from 4867: heap size 100 MB, throughput 0.992518
Reading from 4867: heap size 97 MB, throughput 0.995501
Reading from 4867: heap size 100 MB, throughput 0.995707
Reading from 4867: heap size 97 MB, throughput 0.992258
Reading from 4867: heap size 100 MB, throughput 0.995809
Reading from 4867: heap size 97 MB, throughput 0.992588
Reading from 4867: heap size 100 MB, throughput 0.99304
Reading from 4866: heap size 55 MB, throughput 0.999053
Reading from 4867: heap size 97 MB, throughput 0.994923
Reading from 4867: heap size 100 MB, throughput 0.994468
Reading from 4867: heap size 97 MB, throughput 0.99149
Reading from 4867: heap size 100 MB, throughput 0.993788
Reading from 4867: heap size 97 MB, throughput 0.993654
Equal recommendation: 100 MB each
Reading from 4867: heap size 100 MB, throughput 0.9955
Reading from 4867: heap size 97 MB, throughput 0.995514
Reading from 4867: heap size 100 MB, throughput 0.992613
Reading from 4867: heap size 97 MB, throughput 0.995532
Reading from 4867: heap size 100 MB, throughput 0.995359
Reading from 4866: heap size 55 MB, throughput 0.998341
Reading from 4867: heap size 97 MB, throughput 0.993249
Reading from 4867: heap size 100 MB, throughput 0.9948
Reading from 4867: heap size 97 MB, throughput 0.993395
Reading from 4867: heap size 100 MB, throughput 0.97138
Reading from 4867: heap size 97 MB, throughput 0.994352
Reading from 4867: heap size 100 MB, throughput 0.995621
Reading from 4867: heap size 97 MB, throughput 0.993167
Reading from 4867: heap size 100 MB, throughput 0.993131
Reading from 4867: heap size 97 MB, throughput 0.994139
Reading from 4867: heap size 100 MB, throughput 0.993886
Reading from 4866: heap size 55 MB, throughput 0.998727
Reading from 4867: heap size 97 MB, throughput 0.994571
Reading from 4867: heap size 100 MB, throughput 0.995562
Reading from 4867: heap size 97 MB, throughput 0.995255
Reading from 4867: heap size 100 MB, throughput 0.99299
Reading from 4867: heap size 97 MB, throughput 0.995095
Reading from 4867: heap size 100 MB, throughput 0.994814
Reading from 4867: heap size 97 MB, throughput 0.995
Reading from 4867: heap size 100 MB, throughput 0.963115
Reading from 4867: heap size 97 MB, throughput 0.995968
Reading from 4867: heap size 100 MB, throughput 0.989109
Reading from 4866: heap size 55 MB, throughput 0.998525
Reading from 4867: heap size 97 MB, throughput 0.994942
Reading from 4867: heap size 100 MB, throughput 0.995361
Reading from 4867: heap size 97 MB, throughput 0.994706
Reading from 4867: heap size 100 MB, throughput 0.994009
Reading from 4867: heap size 97 MB, throughput 0.992824
Reading from 4867: heap size 100 MB, throughput 0.99316
Reading from 4867: heap size 97 MB, throughput 0.994816
Reading from 4867: heap size 100 MB, throughput 0.995779
Equal recommendation: 100 MB each
Reading from 4867: heap size 97 MB, throughput 0.995091
Reading from 4867: heap size 100 MB, throughput 0.996305
Reading from 4866: heap size 55 MB, throughput 0.998916
Reading from 4867: heap size 97 MB, throughput 0.995372
Reading from 4867: heap size 100 MB, throughput 0.995572
Reading from 4867: heap size 97 MB, throughput 0.968523
Reading from 4867: heap size 100 MB, throughput 0.995228
Reading from 4867: heap size 97 MB, throughput 0.99434
Reading from 4867: heap size 100 MB, throughput 0.995452
Reading from 4867: heap size 97 MB, throughput 0.995013
Reading from 4867: heap size 100 MB, throughput 0.995575
Reading from 4867: heap size 97 MB, throughput 0.99545
Reading from 4866: heap size 56 MB, throughput 0.998332
Reading from 4867: heap size 100 MB, throughput 0.982418
Reading from 4867: heap size 97 MB, throughput 0.993634
Reading from 4867: heap size 100 MB, throughput 0.995134
Reading from 4867: heap size 97 MB, throughput 0.994219
Reading from 4867: heap size 100 MB, throughput 0.994022
Reading from 4867: heap size 97 MB, throughput 0.995935
Reading from 4867: heap size 100 MB, throughput 0.994264
Reading from 4867: heap size 97 MB, throughput 0.99466
Reading from 4867: heap size 100 MB, throughput 0.995068
Reading from 4867: heap size 97 MB, throughput 0.996033
Reading from 4866: heap size 56 MB, throughput 0.998763
Reading from 4867: heap size 100 MB, throughput 0.995645
Reading from 4867: heap size 97 MB, throughput 0.995204
Reading from 4867: heap size 100 MB, throughput 0.995356
Reading from 4867: heap size 100 MB, throughput 0.995124
Reading from 4867: heap size 97 MB, throughput 0.995318
Reading from 4867: heap size 100 MB, throughput 0.993997
Reading from 4867: heap size 102 MB, throughput 0.991989
Reading from 4867: heap size 99 MB, throughput 0.993619
Reading from 4866: heap size 56 MB, throughput 0.998893
Reading from 4867: heap size 102 MB, throughput 0.995761
Reading from 4867: heap size 99 MB, throughput 0.993857
Reading from 4867: heap size 102 MB, throughput 0.996478
Equal recommendation: 100 MB each
Reading from 4867: heap size 99 MB, throughput 0.993301
Reading from 4867: heap size 102 MB, throughput 0.995707
Reading from 4867: heap size 99 MB, throughput 0.993432
Reading from 4867: heap size 102 MB, throughput 0.993776
Reading from 4867: heap size 99 MB, throughput 0.995611
Reading from 4867: heap size 102 MB, throughput 0.993193
Reading from 4867: heap size 99 MB, throughput 0.994102
Reading from 4867: heap size 102 MB, throughput 0.995455
Reading from 4866: heap size 56 MB, throughput 0.999092
Reading from 4867: heap size 99 MB, throughput 0.99444
Reading from 4867: heap size 102 MB, throughput 0.99382
Reading from 4867: heap size 99 MB, throughput 0.994864
Reading from 4867: heap size 102 MB, throughput 0.994372
Reading from 4867: heap size 99 MB, throughput 0.987096
Reading from 4867: heap size 102 MB, throughput 0.995189
Reading from 4867: heap size 99 MB, throughput 0.991962
Reading from 4867: heap size 102 MB, throughput 0.992346
Reading from 4867: heap size 99 MB, throughput 0.995078
Reading from 4867: heap size 102 MB, throughput 0.995026
Reading from 4866: heap size 56 MB, throughput 0.998944
Reading from 4867: heap size 99 MB, throughput 0.994007
Reading from 4867: heap size 102 MB, throughput 0.994823
Reading from 4867: heap size 99 MB, throughput 0.99557
Reading from 4867: heap size 102 MB, throughput 0.99394
Reading from 4867: heap size 99 MB, throughput 0.992405
Reading from 4867: heap size 102 MB, throughput 0.995743
Reading from 4867: heap size 99 MB, throughput 0.994846
Reading from 4867: heap size 102 MB, throughput 0.99597
Reading from 4867: heap size 99 MB, throughput 0.995589
Reading from 4867: heap size 102 MB, throughput 0.994306
Reading from 4866: heap size 56 MB, throughput 0.9988
Reading from 4867: heap size 99 MB, throughput 0.995687
Reading from 4867: heap size 101 MB, throughput 0.995465
Reading from 4867: heap size 98 MB, throughput 0.991949
Reading from 4867: heap size 101 MB, throughput 0.995623
Equal recommendation: 100 MB each
Reading from 4867: heap size 98 MB, throughput 0.994089
Reading from 4867: heap size 101 MB, throughput 0.994254
Reading from 4867: heap size 98 MB, throughput 0.995687
Reading from 4867: heap size 101 MB, throughput 0.99367
Reading from 4867: heap size 98 MB, throughput 0.994348
Reading from 4867: heap size 101 MB, throughput 0.995631
Reading from 4867: heap size 98 MB, throughput 0.995779
Reading from 4866: heap size 57 MB, throughput 0.998653
Reading from 4867: heap size 101 MB, throughput 0.995
Reading from 4867: heap size 98 MB, throughput 0.994996
Reading from 4867: heap size 100 MB, throughput 0.991198
Reading from 4867: heap size 97 MB, throughput 0.994785
Reading from 4867: heap size 100 MB, throughput 0.995714
Reading from 4867: heap size 97 MB, throughput 0.993615
Reading from 4867: heap size 100 MB, throughput 0.99404
Reading from 4867: heap size 97 MB, throughput 0.994743
Reading from 4867: heap size 100 MB, throughput 0.995511
Reading from 4866: heap size 57 MB, throughput 0.997587
Reading from 4867: heap size 97 MB, throughput 0.874078
Reading from 4867: heap size 103 MB, throughput 0.9914
Reading from 4867: heap size 100 MB, throughput 0.993314
Reading from 4867: heap size 98 MB, throughput 0.967025
Reading from 4867: heap size 103 MB, throughput 0.981548
Reading from 4867: heap size 101 MB, throughput 0.992041
Reading from 4867: heap size 98 MB, throughput 0.982417
Reading from 4867: heap size 103 MB, throughput 0.990239
Reading from 4867: heap size 100 MB, throughput 0.992657
Reading from 4867: heap size 97 MB, throughput 0.990418
Reading from 4867: heap size 102 MB, throughput 0.990925
Reading from 4866: heap size 57 MB, throughput 0.998727
Reading from 4867: heap size 98 MB, throughput 0.990681
Reading from 4867: heap size 103 MB, throughput 0.990464
Reading from 4867: heap size 100 MB, throughput 0.989153
Reading from 4867: heap size 103 MB, throughput 0.990552
Reading from 4867: heap size 100 MB, throughput 0.980906
Reading from 4867: heap size 105 MB, throughput 0.989092
Equal recommendation: 100 MB each
Reading from 4867: heap size 101 MB, throughput 0.98957
Reading from 4867: heap size 98 MB, throughput 0.992929
Reading from 4867: heap size 105 MB, throughput 0.993379
Reading from 4867: heap size 100 MB, throughput 0.990533
Reading from 4867: heap size 102 MB, throughput 0.992827
Reading from 4866: heap size 57 MB, throughput 0.998791
Reading from 4867: heap size 98 MB, throughput 0.99268
Reading from 4867: heap size 100 MB, throughput 0.993387
Reading from 4867: heap size 95 MB, throughput 0.995064
Reading from 4867: heap size 98 MB, throughput 0.995157
Reading from 4867: heap size 98 MB, throughput 0.991579
Reading from 4867: heap size 102 MB, throughput 0.994896
Reading from 4867: heap size 97 MB, throughput 0.993545
Reading from 4867: heap size 100 MB, throughput 0.995885
Reading from 4867: heap size 100 MB, throughput 0.992024
Reading from 4867: heap size 103 MB, throughput 0.995454
Reading from 4867: heap size 99 MB, throughput 0.996077
Reading from 4866: heap size 58 MB, throughput 0.996234
Reading from 4867: heap size 102 MB, throughput 0.995081
Reading from 4867: heap size 98 MB, throughput 0.990847
Reading from 4867: heap size 100 MB, throughput 0.993587
Reading from 4867: heap size 96 MB, throughput 0.993794
Reading from 4867: heap size 99 MB, throughput 0.994886
Reading from 4867: heap size 99 MB, throughput 0.993219
Reading from 4867: heap size 102 MB, throughput 0.995048
Reading from 4867: heap size 99 MB, throughput 0.995384
Reading from 4867: heap size 101 MB, throughput 0.995333
Reading from 4867: heap size 98 MB, throughput 0.995778
Reading from 4867: heap size 101 MB, throughput 0.994581
Reading from 4866: heap size 58 MB, throughput 0.99894
Reading from 4867: heap size 97 MB, throughput 0.996248
Reading from 4867: heap size 100 MB, throughput 0.995697
Reading from 4867: heap size 100 MB, throughput 0.99276
Reading from 4867: heap size 103 MB, throughput 0.995423
Reading from 4867: heap size 99 MB, throughput 0.994057
Reading from 4867: heap size 102 MB, throughput 0.994975
Reading from 4867: heap size 99 MB, throughput 0.992696
Equal recommendation: 100 MB each
Reading from 4867: heap size 102 MB, throughput 0.994828
Reading from 4867: heap size 99 MB, throughput 0.995278
Reading from 4867: heap size 101 MB, throughput 0.995425
Reading from 4867: heap size 98 MB, throughput 0.995335
Reading from 4866: heap size 58 MB, throughput 0.998598
Reading from 4867: heap size 101 MB, throughput 0.994573
Reading from 4867: heap size 98 MB, throughput 0.968563
Reading from 4867: heap size 101 MB, throughput 0.995711
Reading from 4867: heap size 98 MB, throughput 0.994662
Reading from 4867: heap size 100 MB, throughput 0.994238
Reading from 4867: heap size 98 MB, throughput 0.995868
Reading from 4867: heap size 100 MB, throughput 0.995532
Reading from 4867: heap size 98 MB, throughput 0.994077
Reading from 4867: heap size 100 MB, throughput 0.98649
Reading from 4867: heap size 98 MB, throughput 0.993779
Reading from 4867: heap size 100 MB, throughput 0.995077
Reading from 4866: heap size 58 MB, throughput 0.997155
Reading from 4867: heap size 98 MB, throughput 0.994614
Reading from 4867: heap size 100 MB, throughput 0.995315
Reading from 4867: heap size 98 MB, throughput 0.992816
Reading from 4867: heap size 100 MB, throughput 0.99433
Reading from 4867: heap size 98 MB, throughput 0.995951
Reading from 4867: heap size 100 MB, throughput 0.995006
Reading from 4867: heap size 98 MB, throughput 0.995166
Reading from 4867: heap size 100 MB, throughput 0.994679
Reading from 4867: heap size 98 MB, throughput 0.995401
Reading from 4867: heap size 100 MB, throughput 0.995508
Reading from 4867: heap size 98 MB, throughput 0.995495
Reading from 4867: heap size 100 MB, throughput 0.993754
Reading from 4866: heap size 59 MB, throughput 0.998436
Reading from 4867: heap size 98 MB, throughput 0.992016
Reading from 4867: heap size 100 MB, throughput 0.995016
Reading from 4867: heap size 98 MB, throughput 0.99302
Reading from 4867: heap size 100 MB, throughput 0.984907
Reading from 4867: heap size 98 MB, throughput 0.994322
Reading from 4867: heap size 100 MB, throughput 0.994521
Reading from 4867: heap size 98 MB, throughput 0.994976
Equal recommendation: 100 MB each
Reading from 4867: heap size 100 MB, throughput 0.995189
Reading from 4867: heap size 98 MB, throughput 0.995158
Reading from 4867: heap size 100 MB, throughput 0.992747
Reading from 4867: heap size 98 MB, throughput 0.994276
Reading from 4866: heap size 59 MB, throughput 0.999144
Reading from 4867: heap size 100 MB, throughput 0.994863
Reading from 4867: heap size 98 MB, throughput 0.995131
Reading from 4867: heap size 100 MB, throughput 0.993652
Reading from 4867: heap size 98 MB, throughput 0.994825
Reading from 4867: heap size 100 MB, throughput 0.994523
Reading from 4867: heap size 98 MB, throughput 0.973647
Reading from 4867: heap size 100 MB, throughput 0.994766
Reading from 4867: heap size 98 MB, throughput 0.991402
Reading from 4867: heap size 100 MB, throughput 0.992031
Reading from 4867: heap size 98 MB, throughput 0.993157
Reading from 4867: heap size 100 MB, throughput 0.994735
Reading from 4867: heap size 98 MB, throughput 0.995789
Reading from 4866: heap size 59 MB, throughput 0.998804
Reading from 4867: heap size 100 MB, throughput 0.995632
Reading from 4867: heap size 98 MB, throughput 0.991269
Reading from 4867: heap size 100 MB, throughput 0.996026
Reading from 4867: heap size 98 MB, throughput 0.99339
Reading from 4867: heap size 100 MB, throughput 0.993128
Reading from 4867: heap size 98 MB, throughput 0.992853
Reading from 4867: heap size 100 MB, throughput 0.995034
Reading from 4867: heap size 98 MB, throughput 0.993655
Reading from 4867: heap size 100 MB, throughput 0.995864
Reading from 4867: heap size 98 MB, throughput 0.993104
Reading from 4867: heap size 100 MB, throughput 0.993921
Reading from 4866: heap size 59 MB, throughput 0.99823
Reading from 4867: heap size 98 MB, throughput 0.993177
Reading from 4867: heap size 100 MB, throughput 0.993971
Reading from 4867: heap size 98 MB, throughput 0.992577
Reading from 4867: heap size 100 MB, throughput 0.995924
Reading from 4867: heap size 98 MB, throughput 0.994071
Reading from 4867: heap size 100 MB, throughput 0.994254
Equal recommendation: 100 MB each
Reading from 4867: heap size 98 MB, throughput 0.99542
Reading from 4867: heap size 100 MB, throughput 0.995265
Reading from 4867: heap size 98 MB, throughput 0.994557
Reading from 4867: heap size 100 MB, throughput 0.996131
Reading from 4867: heap size 98 MB, throughput 0.994305
Reading from 4867: heap size 100 MB, throughput 0.995952
Reading from 4866: heap size 60 MB, throughput 0.999254
Reading from 4867: heap size 98 MB, throughput 0.99429
Reading from 4867: heap size 100 MB, throughput 0.995599
Reading from 4867: heap size 98 MB, throughput 0.992699
Reading from 4867: heap size 100 MB, throughput 0.990215
Reading from 4867: heap size 98 MB, throughput 0.995262
Reading from 4867: heap size 100 MB, throughput 0.993315
Reading from 4867: heap size 98 MB, throughput 0.995601
Reading from 4867: heap size 100 MB, throughput 0.994544
Reading from 4867: heap size 98 MB, throughput 0.993678
Reading from 4867: heap size 100 MB, throughput 0.994225
Reading from 4867: heap size 98 MB, throughput 0.993258
Reading from 4867: heap size 100 MB, throughput 0.994716
Reading from 4866: heap size 60 MB, throughput 0.997859
Reading from 4867: heap size 98 MB, throughput 0.99352
Reading from 4867: heap size 100 MB, throughput 0.995757
Reading from 4867: heap size 98 MB, throughput 0.994089
Reading from 4867: heap size 100 MB, throughput 0.994469
Reading from 4867: heap size 98 MB, throughput 0.994915
Reading from 4867: heap size 100 MB, throughput 0.993848
Reading from 4867: heap size 98 MB, throughput 0.983144
Reading from 4867: heap size 100 MB, throughput 0.994053
Reading from 4867: heap size 98 MB, throughput 0.993729
Reading from 4867: heap size 100 MB, throughput 0.995389
Reading from 4867: heap size 98 MB, throughput 0.993721
Reading from 4867: heap size 100 MB, throughput 0.996272
Reading from 4866: heap size 60 MB, throughput 0.998997
Reading from 4867: heap size 98 MB, throughput 0.992284
Reading from 4867: heap size 100 MB, throughput 0.993555
Reading from 4867: heap size 98 MB, throughput 0.994899
Reading from 4867: heap size 100 MB, throughput 0.994992
Equal recommendation: 100 MB each
Reading from 4867: heap size 98 MB, throughput 0.994068
Reading from 4867: heap size 100 MB, throughput 0.994874
Reading from 4867: heap size 98 MB, throughput 0.976799
Reading from 4867: heap size 100 MB, throughput 0.994411
Reading from 4867: heap size 98 MB, throughput 0.99472
Reading from 4867: heap size 100 MB, throughput 0.994716
Reading from 4867: heap size 98 MB, throughput 0.995322
Reading from 4867: heap size 100 MB, throughput 0.994941
Reading from 4867: heap size 98 MB, throughput 0.994321
Reading from 4866: heap size 60 MB, throughput 0.999075
Reading from 4867: heap size 100 MB, throughput 0.995164
Reading from 4867: heap size 98 MB, throughput 0.95898
Reading from 4867: heap size 100 MB, throughput 0.994671
Reading from 4867: heap size 98 MB, throughput 0.993699
Reading from 4867: heap size 100 MB, throughput 0.994945
Reading from 4867: heap size 98 MB, throughput 0.994723
Reading from 4867: heap size 100 MB, throughput 0.994134
Reading from 4867: heap size 98 MB, throughput 0.994996
Reading from 4867: heap size 100 MB, throughput 0.995103
Reading from 4867: heap size 98 MB, throughput 0.994768
Reading from 4867: heap size 100 MB, throughput 0.995544
Reading from 4867: heap size 98 MB, throughput 0.994859
Reading from 4866: heap size 60 MB, throughput 0.997938
Reading from 4867: heap size 100 MB, throughput 0.995613
Reading from 4867: heap size 98 MB, throughput 0.99285
Reading from 4867: heap size 100 MB, throughput 0.995105
Reading from 4867: heap size 98 MB, throughput 0.99505
Reading from 4867: heap size 100 MB, throughput 0.995665
Reading from 4867: heap size 98 MB, throughput 0.991996
Reading from 4867: heap size 100 MB, throughput 0.99323
Reading from 4867: heap size 98 MB, throughput 0.995889
Reading from 4867: heap size 100 MB, throughput 0.99527
Reading from 4867: heap size 98 MB, throughput 0.964692
Reading from 4867: heap size 100 MB, throughput 0.995509
Reading from 4867: heap size 98 MB, throughput 0.994587
Reading from 4866: heap size 60 MB, throughput 0.998941
Reading from 4867: heap size 100 MB, throughput 0.996042
Equal recommendation: 100 MB each
Reading from 4867: heap size 98 MB, throughput 0.994353
Reading from 4867: heap size 100 MB, throughput 0.992986
Reading from 4867: heap size 98 MB, throughput 0.995194
Reading from 4867: heap size 100 MB, throughput 0.993713
Reading from 4867: heap size 98 MB, throughput 0.994447
Client 4866 died
Clients: 1
Reading from 4867: heap size 100 MB, throughput 0.993542
Reading from 4867: heap size 98 MB, throughput 0.993628
Reading from 4867: heap size 100 MB, throughput 0.992972
Reading from 4867: heap size 98 MB, throughput 0.993954
Reading from 4867: heap size 100 MB, throughput 0.994065
Reading from 4867: heap size 98 MB, throughput 0.966817
Reading from 4867: heap size 100 MB, throughput 0.994299
Reading from 4867: heap size 98 MB, throughput 0.993234
Reading from 4867: heap size 100 MB, throughput 0.993817
Reading from 4867: heap size 98 MB, throughput 0.993474
Reading from 4867: heap size 100 MB, throughput 0.993849
Reading from 4867: heap size 98 MB, throughput 0.993408
Reading from 4867: heap size 100 MB, throughput 0.993143
Reading from 4867: heap size 98 MB, throughput 0.99499
Reading from 4867: heap size 100 MB, throughput 0.994337
Reading from 4867: heap size 98 MB, throughput 0.994797
Reading from 4867: heap size 100 MB, throughput 0.994158
Reading from 4867: heap size 98 MB, throughput 0.993551
Reading from 4867: heap size 100 MB, throughput 0.993955
Reading from 4867: heap size 98 MB, throughput 0.993786
Reading from 4867: heap size 100 MB, throughput 0.99258
Reading from 4867: heap size 98 MB, throughput 0.992494
Reading from 4867: heap size 100 MB, throughput 0.994255
Reading from 4867: heap size 98 MB, throughput 0.993509
Reading from 4867: heap size 100 MB, throughput 0.99428
Reading from 4867: heap size 98 MB, throughput 0.994547
Reading from 4867: heap size 100 MB, throughput 0.993565
Reading from 4867: heap size 98 MB, throughput 0.98953
Recommendation: one client; give it all the memory
Reading from 4867: heap size 100 MB, throughput 0.991416
Reading from 4867: heap size 100 MB, throughput 0.995646
Reading from 4867: heap size 104 MB, throughput 0.993542
Reading from 4867: heap size 105 MB, throughput 0.992132
Reading from 4867: heap size 109 MB, throughput 0.994913
Reading from 4867: heap size 109 MB, throughput 0.995543
Reading from 4867: heap size 113 MB, throughput 0.994524
Reading from 4867: heap size 113 MB, throughput 0.996083
Reading from 4867: heap size 117 MB, throughput 0.994689
Reading from 4867: heap size 117 MB, throughput 0.994443
Reading from 4867: heap size 122 MB, throughput 0.994827
Reading from 4867: heap size 122 MB, throughput 0.995296
Reading from 4867: heap size 126 MB, throughput 0.995358
Reading from 4867: heap size 126 MB, throughput 0.994925
Reading from 4867: heap size 131 MB, throughput 0.996467
Reading from 4867: heap size 131 MB, throughput 0.995131
Reading from 4867: heap size 135 MB, throughput 0.994927
Reading from 4867: heap size 135 MB, throughput 0.994691
Reading from 4867: heap size 140 MB, throughput 0.995239
Reading from 4867: heap size 140 MB, throughput 0.995703
Reading from 4867: heap size 145 MB, throughput 0.988836
Reading from 4867: heap size 145 MB, throughput 0.995333
Reading from 4867: heap size 151 MB, throughput 0.995418
Reading from 4867: heap size 151 MB, throughput 0.995317
Recommendation: one client; give it all the memory
Reading from 4867: heap size 156 MB, throughput 0.996214
Reading from 4867: heap size 157 MB, throughput 0.994447
Reading from 4867: heap size 162 MB, throughput 0.996291
Client 4867 died
Clients: 0
Recommendation: no clients; no recommendation
Recommendation: no clients; no recommendation
ReadingThread: finished
TimerThread: finished
CommandThread: finished
Main: All threads killed, cleaning up
