2014-09-03 14:26:39    minHeapAttempt: Initialising...
2014-09-03 14:26:39    minHeapAttempt: Initialised
2014-09-03 14:26:39    minHeapAttempt: 
2014-09-03 14:26:39    minHeapAttempt: Testing benchmark:
2014-09-03 14:26:39    minHeapAttempt:     gcbench, default, 2
2014-09-03 14:26:39    minHeapAttempt: At heap size:
2014-09-03 14:26:39    minHeapAttempt:     1320 MB
2014-09-03 14:26:39    minHeapAttempt: 
2014-09-03 14:26:39    minHeapAttempt: Started main process runs
2014-09-03 14:26:39    minHeapAttempt: 
2014-09-03 14:26:39    minHeapAttempt: Run 1 of 1: started
2014-09-03 14:26:39    minHeapAttempt: Starting auxiliary processes...
2014-09-03 14:26:49    minHeapAttempt: Started auxiliary processes
2014-09-03 14:26:49    minHeapAttempt: Running main processes...
2014-09-03 14:27:24    minHeapAttempt: Main processes completed in 34.55475s
2014-09-03 14:27:24    minHeapAttempt: Cleaning up auxiliary processes...
2014-09-03 14:27:34    minHeapAttempt: Cleaned up auxiliary processes
2014-09-03 14:27:34    minHeapAttempt: Run 1 of 1: completed with main runtime of 34.55475s
2014-09-03 14:27:34    minHeapAttempt: 
2014-09-03 14:27:34    minHeapAttempt: Completed main process runs; average runtime (34.55475 +/- 0.0) s
2014-09-03 14:27:34    minHeapAttempt: 
2014-09-03 14:27:34    minHeapAttempt: Cleaning up...
2014-09-03 14:27:34    minHeapAttempt: Benchmark completed successfully
2014-09-03 14:27:34    minHeapAttempt: Cleaned up
2014-09-03 14:27:34    minHeapAttempt: 
2014-09-03 14:27:34    minHeapAttempt: Completed in total time 54.596554s
