MemTotal:       16318588 kB
MemFree:        15414576 kB
Buffers:          122728 kB
Cached:           509080 kB
SwapCached:            0 kB
Active:           352776 kB
Inactive:         354876 kB
Active(anon):      76660 kB
Inactive(anon):      748 kB
Active(file):     276116 kB
Inactive(file):   354128 kB
Unevictable:           0 kB
Mlocked:               0 kB
SwapTotal:      16728060 kB
SwapFree:       16728060 kB
Dirty:                40 kB
Writeback:             0 kB
AnonPages:         75856 kB
Mapped:            17096 kB
Shmem:              1552 kB
Slab:              63228 kB
SReclaimable:      42544 kB
SUnreclaim:        20684 kB
KernelStack:        1576 kB
PageTables:         2812 kB
NFS_Unstable:          0 kB
Bounce:                0 kB
WritebackTmp:          0 kB
CommitLimit:    24887352 kB
Committed_AS:     234668 kB
VmallocTotal:   34359738367 kB
VmallocUsed:      370636 kB
VmallocChunk:   34359363072 kB
HardwareCorrupted:     0 kB
AnonHugePages:     51200 kB
HugePages_Total:       0
HugePages_Free:        0
HugePages_Rsvd:        0
HugePages_Surp:        0
Hugepagesize:       2048 kB
DirectMap4k:       68544 kB
DirectMap2M:    16592896 kB
