MemTotal:       16318588 kB
MemFree:        14249752 kB
Buffers:          529720 kB
Cached:           622304 kB
SwapCached:            0 kB
Active:          1093792 kB
Inactive:         612764 kB
Active(anon):     555268 kB
Inactive(anon):      748 kB
Active(file):     538524 kB
Inactive(file):   612016 kB
Unevictable:           0 kB
Mlocked:               0 kB
SwapTotal:      16728060 kB
SwapFree:       16728060 kB
Dirty:                24 kB
Writeback:             0 kB
AnonPages:        554504 kB
Mapped:            17296 kB
Shmem:              1552 kB
Slab:             231360 kB
SReclaimable:     214004 kB
SUnreclaim:        17356 kB
KernelStack:        1680 kB
PageTables:         4024 kB
NFS_Unstable:          0 kB
Bounce:                0 kB
WritebackTmp:          0 kB
CommitLimit:    24887352 kB
Committed_AS:     715380 kB
VmallocTotal:   34359738367 kB
VmallocUsed:      370636 kB
VmallocChunk:   34359363072 kB
HardwareCorrupted:     0 kB
AnonHugePages:    536576 kB
HugePages_Total:       0
HugePages_Free:        0
HugePages_Rsvd:        0
HugePages_Surp:        0
Hugepagesize:       2048 kB
DirectMap4k:       62400 kB
DirectMap2M:    16599040 kB
