             total       used       free     shared    buffers     cached
Mem:       3806920    2938868     868052          0     374324    2080728
-/+ buffers/cache:     483816    3323104
Swap:      6143992          0    6143992
