F S UID        PID  PPID  C PRI  NI ADDR SZ WCHAN  STIME TTY          TIME CMD
4 S root         1     0  0  80   0 -  5896 poll_s  2013 ?        00:00:00 /sbin/init
1 S root         2     0  0  80   0 -     0 kthrea  2013 ?        00:00:00 [kthreadd]
1 S root         3     2  0 -40   - -     0 migrat  2013 ?        00:00:00 [migration/0]
1 S root         4     2  0  80   0 -     0 ksofti  2013 ?        00:00:04 [ksoftirqd/0]
1 S root         5     2  0 -40   - -     0 cpu_st  2013 ?        00:00:00 [migration/0]
5 S root         6     2  0 -40   - -     0 watchd  2013 ?        00:00:02 [watchdog/0]
1 S root         7     2  0 -40   - -     0 migrat  2013 ?        00:00:00 [migration/1]
1 S root         8     2  0 -40   - -     0 cpu_st  2013 ?        00:00:00 [migration/1]
1 S root         9     2  0  80   0 -     0 ksofti  2013 ?        00:00:06 [ksoftirqd/1]
5 S root        10     2  0 -40   - -     0 watchd  2013 ?        00:00:02 [watchdog/1]
1 S root        11     2  0 -40   - -     0 migrat  2013 ?        00:00:00 [migration/2]
1 S root        12     2  0 -40   - -     0 cpu_st  2013 ?        00:00:00 [migration/2]
1 S root        13     2  0  80   0 -     0 ksofti  2013 ?        00:00:02 [ksoftirqd/2]
5 S root        14     2  0 -40   - -     0 watchd  2013 ?        00:00:01 [watchdog/2]
1 S root        15     2  0 -40   - -     0 migrat  2013 ?        00:00:00 [migration/3]
1 S root        16     2  0 -40   - -     0 cpu_st  2013 ?        00:00:00 [migration/3]
1 S root        17     2  0  80   0 -     0 ksofti  2013 ?        00:00:14 [ksoftirqd/3]
5 S root        18     2  0 -40   - -     0 watchd  2013 ?        00:00:01 [watchdog/3]
1 S root        19     2  0  80   0 -     0 worker  2013 ?        00:01:44 [events/0]
1 S root        20     2  0  80   0 -     0 worker  2013 ?        00:01:04 [events/1]
1 S root        21     2  0  80   0 -     0 worker  2013 ?        00:01:01 [events/2]
1 S root        22     2  0  80   0 -     0 worker  2013 ?        00:01:03 [events/3]
1 S root        23     2  0  80   0 -     0 worker  2013 ?        00:00:00 [cgroup]
1 S root        24     2  0  80   0 -     0 worker  2013 ?        00:00:00 [khelper]
1 S root        25     2  0  80   0 -     0 worker  2013 ?        00:00:00 [netns]
1 S root        26     2  0  80   0 -     0 async_  2013 ?        00:00:00 [async/mgr]
1 S root        27     2  0  80   0 -     0 worker  2013 ?        00:00:00 [pm]
1 S root        28     2  0  80   0 -     0 bdi_sy  2013 ?        00:00:08 [sync_supers]
1 S root        29     2  0  80   0 -     0 bdi_fo  2013 ?        00:00:08 [bdi-default]
1 S root        30     2  0  80   0 -     0 worker  2013 ?        00:00:00 [kintegrityd/0]
1 S root        31     2  0  80   0 -     0 worker  2013 ?        00:00:00 [kintegrityd/1]
1 S root        32     2  0  80   0 -     0 worker  2013 ?        00:00:00 [kintegrityd/2]
1 S root        33     2  0  80   0 -     0 worker  2013 ?        00:00:00 [kintegrityd/3]
1 S root        34     2  0  80   0 -     0 worker  2013 ?        00:00:01 [kblockd/0]
1 S root        35     2  0  80   0 -     0 worker  2013 ?        00:00:00 [kblockd/1]
1 S root        36     2  0  80   0 -     0 worker  2013 ?        00:00:00 [kblockd/2]
1 S root        37     2  0  80   0 -     0 worker  2013 ?        00:00:49 [kblockd/3]
1 S root        38     2  0  80   0 -     0 worker  2013 ?        00:00:00 [kacpid]
1 S root        39     2  0  80   0 -     0 worker  2013 ?        00:00:00 [kacpi_notify]
1 S root        40     2  0  80   0 -     0 worker  2013 ?        00:00:00 [kacpi_hotplug]
1 S root        41     2  0  80   0 -     0 worker  2013 ?        00:00:00 [ata/0]
1 S root        42     2  0  80   0 -     0 worker  2013 ?        00:00:00 [ata/1]
1 S root        43     2  0  80   0 -     0 worker  2013 ?        00:00:00 [ata/2]
1 S root        44     2  0  80   0 -     0 worker  2013 ?        00:00:00 [ata/3]
1 S root        45     2  0  80   0 -     0 worker  2013 ?        00:00:00 [ata_aux]
1 S root        46     2  0  80   0 -     0 worker  2013 ?        00:00:00 [ksuspend_usbd]
5 S root        47     2  0  80   0 -     0 hub_th  2013 ?        00:00:00 [khubd]
1 S root        48     2  0  80   0 -     0 serio_  2013 ?        00:00:00 [kseriod]
1 S root        49     2  0  80   0 -     0 worker  2013 ?        00:00:00 [md/0]
1 S root        50     2  0  80   0 -     0 worker  2013 ?        00:00:00 [md/1]
1 S root        51     2  0  80   0 -     0 worker  2013 ?        00:00:00 [md/2]
1 S root        52     2  0  80   0 -     0 worker  2013 ?        00:00:00 [md/3]
1 S root        53     2  0  80   0 -     0 worker  2013 ?        00:00:00 [md_misc/0]
1 S root        54     2  0  80   0 -     0 worker  2013 ?        00:00:00 [md_misc/1]
1 S root        55     2  0  80   0 -     0 worker  2013 ?        00:00:00 [md_misc/2]
1 S root        56     2  0  80   0 -     0 worker  2013 ?        00:00:00 [md_misc/3]
1 S root        57     2  0  80   0 -     0 watchd  2013 ?        00:00:00 [khungtaskd]
1 S root        58     2  0  80   0 -     0 kswapd  2013 ?        00:00:00 [kswapd0]
1 S root        59     2  0  85   5 -     0 ksm_sc  2013 ?        00:00:00 [ksmd]
1 S root        60     2  0  99  19 -     0 khugep  2013 ?        00:00:08 [khugepaged]
1 S root        61     2  0  80   0 -     0 worker  2013 ?        00:00:00 [aio/0]
1 S root        62     2  0  80   0 -     0 worker  2013 ?        00:00:00 [aio/1]
1 S root        63     2  0  80   0 -     0 worker  2013 ?        00:00:00 [aio/2]
1 S root        64     2  0  80   0 -     0 worker  2013 ?        00:00:00 [aio/3]
1 S root        65     2  0  80   0 -     0 worker  2013 ?        00:00:00 [crypto/0]
1 S root        66     2  0  80   0 -     0 worker  2013 ?        00:00:00 [crypto/1]
1 S root        67     2  0  80   0 -     0 worker  2013 ?        00:00:00 [crypto/2]
1 S root        68     2  0  80   0 -     0 worker  2013 ?        00:00:00 [crypto/3]
1 S root        73     2  0  80   0 -     0 worker  2013 ?        00:00:00 [kthrotld/0]
1 S root        74     2  0  80   0 -     0 worker  2013 ?        00:00:00 [kthrotld/1]
1 S root        75     2  0  80   0 -     0 worker  2013 ?        00:00:00 [kthrotld/2]
1 S root        76     2  0  80   0 -     0 worker  2013 ?        00:00:00 [kthrotld/3]
1 S root        78     2  0  80   0 -     0 worker  2013 ?        00:00:00 [kpsmoused]
1 S root        79     2  0  80   0 -     0 worker  2013 ?        00:00:00 [usbhid_resumer]
1 S root       109     2  0  80   0 -     0 worker  2013 ?        00:00:00 [kstriped]
1 S root       137     2  0  80   0 -     0 worker  2013 ?        00:00:33 [i915]
1 S root       139     2  0  75  -5 -     0 slow_w  2013 ?        00:00:00 [kslowd000]
1 S root       140     2  0  75  -5 -     0 slow_w  2013 ?        00:00:00 [kslowd001]
1 S root       279     2  0  80   0 -     0 scsi_e  2013 ?        00:00:00 [scsi_eh_0]
1 S root       280     2  0  80   0 -     0 scsi_e  2013 ?        00:05:49 [scsi_eh_1]
1 S root       281     2  0  80   0 -     0 scsi_e  2013 ?        00:00:00 [scsi_eh_2]
1 S root       282     2  0  80   0 -     0 scsi_e  2013 ?        00:00:00 [scsi_eh_3]
1 S root       283     2  0  80   0 -     0 scsi_e  2013 ?        00:00:00 [scsi_eh_4]
1 S root       284     2  0  80   0 -     0 scsi_e  2013 ?        00:00:00 [scsi_eh_5]
1 S root       418     2  0  80   0 -     0 kjourn  2013 ?        00:00:50 [jbd2/sda1-8]
1 S root       419     2  0  80   0 -     0 worker  2013 ?        00:00:00 [ext4-dio-unwrit]
1 S root       420     2  0  80   0 -     0 worker  2013 ?        00:00:00 [ext4-dio-unwrit]
1 S root       421     2  0  80   0 -     0 worker  2013 ?        00:00:00 [ext4-dio-unwrit]
1 S root       422     2  0  80   0 -     0 worker  2013 ?        00:00:00 [ext4-dio-unwrit]
1 S root       473     2  0  80   0 -     0 kaudit  2013 ?        00:00:00 [kauditd]
1 S root       519     2  0  80   0 -     0 bdi_wr  2013 ?        00:00:36 [flush-8:0]
5 S root       520     1  0  76  -4 -  2821 poll_s  2013 ?        00:00:00 /sbin/udevd -d
1 S root       759     2  0  80   0 -     0 worker  2013 ?        00:00:00 [hd-audio0]
1 S root      1487     2  0  80   0 -     0 kjourn  2013 ?        00:00:00 [jbd2/sda3-8]
1 S root      1488     2  0  80   0 -     0 worker  2013 ?        00:00:00 [ext4-dio-unwrit]
1 S root      1489     2  0  80   0 -     0 worker  2013 ?        00:00:00 [ext4-dio-unwrit]
1 S root      1490     2  0  80   0 -     0 worker  2013 ?        00:00:00 [ext4-dio-unwrit]
1 S root      1491     2  0  80   0 -     0 worker  2013 ?        00:00:00 [ext4-dio-unwrit]
1 S root      1772     1  0  80   0 -  3340 poll_s  2013 ?        00:00:24 /sbin/dhclient -1 -q -cf /etc/dhcp/dhclient-em1.conf -lf /var/lib/dhclient/dhclient-em1.leases -pf /var/run/dhclient-em1.pid em1
5 S root      1818     1  0  80   0 -  2600 poll_s  2013 ?        00:00:00 /sbin/portreserve
5 S root      1825     1  0  80   0 - 64917 poll_s  2013 ?        00:00:00 /sbin/rsyslogd -i /var/run/syslogd.pid -c 5
5 S root      1837     1  0  80   0 -  2705 hrtime  2013 ?        00:01:15 irqbalance
5 S rpc       1851     1  0  80   0 -  4759 poll_s  2013 ?        00:01:29 rpcbind
5 S dbus      1861     1  0  80   0 -  6612 poll_s  2013 ?        00:00:00 dbus-daemon --system
5 S rpcuser   1879     1  0  80   0 -  6462 poll_s  2013 ?        00:00:00 rpc.statd
5 S root      1913     2  0  80   0 -     0 worker  2013 ?        00:00:00 [rpciod/0]
5 S root      1914     2  0  80   0 -     0 worker  2013 ?        00:00:00 [rpciod/1]
5 S root      1915     2  0  80   0 -     0 worker  2013 ?        00:00:00 [rpciod/2]
5 S root      1916     2  0  80   0 -     0 worker  2013 ?        00:00:00 [rpciod/3]
1 S root      1920     1  0  80   0 -  6814 ep_pol  2013 ?        00:00:00 rpc.idmapd
5 S root      1934     1  0  80   0 - 53901 poll_s  2013 ?        00:00:09 /usr/sbin/ypbind
1 S root      1987     1  0  80   0 -  1020 poll_s  2013 ?        00:00:00 /usr/sbin/acpid
5 S 68        1996     1  0  80   0 - 10797 poll_s  2013 ?        00:00:08 hald
0 S root      1997  1996  0  80   0 -  5082 poll_s  2013 ?        00:00:00 hald-runner
0 S root      2041  1997  0  80   0 -  5610 poll_s  2013 ?        00:00:00 /usr/libexec/hald-addon-generic-backlight
0 S root      2043  1997  0  80   0 -  5612 poll_s  2013 ?        00:00:00 hald-addon-input: Listening on /dev/input/event5 /dev/input/event10 /dev/input/event0 /dev/input/event3 /dev/input/event1
0 S root      2047  1997  0  80   0 -  5611 poll_s  2013 ?        00:09:30 hald-addon-storage: polling /dev/sr0 (every 2 sec)
4 S 68        2048  1997  0  80   0 -  4484 unix_s  2013 ?        00:00:00 hald-addon-acpi: listening on acpid socket /var/run/acpid.socket
5 S root      2071     1  0  80   0 - 152405 rt_sig 2013 ?        00:00:29 automount --pid-file /var/run/autofs.pid
5 S nscd      2090     1  0  80   0 - 275832 ep_pol 2013 ?        00:00:04 /usr/sbin/nscd
1 S root      2148     1  0  80   0 -  1218 poll_s  2013 ?        00:00:00 /usr/sbin/mcelog --daemon
5 S root      2160     1  0  80   0 - 16166 poll_s  2013 ?        00:00:00 /usr/sbin/sshd
5 S root      2168     1  0  80   0 -  6216 poll_s  2013 ?        00:00:00 xinetd -stayalive -pidfile /var/run/xinetd.pid
5 S ntp       2176     1  0  80   0 -  6240 poll_s  2013 ?        00:00:02 ntpd -u ntp:ntp -p /var/run/ntpd.pid -g
4 S qmails    2188     1  0  80   0 -   511 poll_s  2013 ?        00:00:00 qmail-send
1 S root      2209     1  0  80   0 - 27626 poll_s  2013 ?        00:00:00 /usr/sbin/abrtd
1 S root      2217     1  0  80   0 - 28839 hrtime  2013 ?        00:00:02 crond
5 S root      2228     1  0  80   0 -  4954 hrtime  2013 ?        00:00:00 /usr/sbin/atd
4 S qmaill    2234  2188  0  80   0 -   503 pipe_w  2013 ?        00:00:00 splogger qmail
0 S root      2235  2188  0  80   0 -   504 poll_s  2013 ?        00:00:00 qmail-lspawn ./Mailbox
4 S qmailr    2236  2188  0  80   0 -   503 poll_s  2013 ?        00:00:00 qmail-rspawn
4 S qmailq    2237  2188  0  80   0 -   501 pipe_w  2013 ?        00:00:00 qmail-clean
1 S root      2254     1  0  80   0 - 15565 ep_pol  2013 ?        00:00:04 /usr/sbin/certmonger -S -p /var/run/certmonger.pid
4 S root      2277     1  0  80   0 - 33602 poll_s  2013 ?        00:00:00 /usr/sbin/gdm-binary -nodaemon
4 S root      2284     1  0  80   0 -  1016 n_tty_  2013 tty2     00:00:00 /sbin/mingetty /dev/tty2
4 S root      2286     1  0  80   0 -  1016 n_tty_  2013 tty3     00:00:00 /sbin/mingetty /dev/tty3
4 S root      2288     1  0  80   0 -  1016 n_tty_  2013 tty4     00:00:00 /sbin/mingetty /dev/tty4
4 S root      2290     1  0  80   0 -  1016 n_tty_  2013 tty5     00:00:00 /sbin/mingetty /dev/tty5
4 S root      2292     1  0  80   0 -  1016 n_tty_  2013 tty6     00:00:00 /sbin/mingetty /dev/tty6
5 S root      2293   520  0  78  -2 -  2820 poll_s  2013 ?        00:00:00 /sbin/udevd -d
5 S root      2294   520  0  78  -2 -  2820 poll_s  2013 ?        00:00:00 /sbin/udevd -d
4 S root      2342     1  0  80   0 - 521782 poll_s 2013 ?        00:00:00 /usr/sbin/console-kit-daemon --no-daemon
4 S root      2423     1  0  80   0 - 12470 poll_s  2013 ?        00:00:00 /usr/libexec/devkit-power-daemon
4 S root      2485     1  0  80   0 - 12749 poll_s  2013 ?        00:00:00 /usr/libexec/polkit-1/polkitd
4 S rtkit     2508     1  0  81   1 - 41641 poll_s  2013 ?        00:00:35 /usr/libexec/rtkit-daemon
1 S root     16727     2  0  80   0 -     0 worker  2013 ?        00:00:00 [nfsiod]
4 S root     16842     1  0  80   0 - 13919 poll_s  2013 ?        00:01:08 /usr/libexec/udisks-daemon
1 S root     16843 16842  0  80   0 - 11277 poll_s  2013 ?        00:00:00 udisks-daemon: not polling any devices
0 S 1002723b 16892     1  0  80   0 - 210117 poll_s 2013 ?        00:00:00 /usr/libexec/e-calendar-factory
0 S root     17244  2277  0  80   0 - 41308 poll_s  2013 ?        00:00:00 /usr/libexec/gdm-simple-slave --display-id /org/gnome/DisplayManager/Display1
4 S root     17246 17244  0  80   0 - 25044 poll_s  2013 tty7     00:01:47 /usr/bin/Xorg :0 -br -verbose -audit 4 -auth /var/run/gdm/auth-for-gdm-xIYJ0q/database -nolisten tcp
1 S gdm      17265     1  0  80   0 -  4537 poll_s  2013 ?        00:00:00 /usr/bin/dbus-launch --exit-with-session
1 S gdm      17266     1  0  80   0 -  4964 poll_s  2013 ?        00:00:00 /bin/dbus-daemon --fork --print-pid 5 --print-address 7 --session
4 S gdm      17267 17244  0  80   0 - 67464 poll_s  2013 ?        00:00:00 /usr/bin/gnome-session --autostart=/usr/share/gdm/autostart/LoginWindow/
0 S gdm      17270     1  0  80   0 - 33490 poll_s  2013 ?        00:00:05 /usr/libexec/gconfd-2
0 S gdm      17273 17267  0  80   0 - 29625 poll_s  2013 ?        00:00:05 /usr/libexec/at-spi-registryd
1 S gdm      17275     1  0  80   0 - 95615 poll_s  2013 ?        00:15:34 /usr/libexec/gnome-settings-daemon --gconf-prefix=/apps/gdm/simple-greeter/settings-manager-plugins
0 S gdm      17277     1  0  80   0 - 89685 poll_s  2013 ?        00:00:00 /usr/libexec/bonobo-activation-server --ac-activate --ior-output-fd=12
0 S gdm      17284     1  0  80   0 - 33826 poll_s  2013 ?        00:00:00 /usr/libexec/gvfsd
0 S gdm      17285 17267  0  80   0 - 119321 poll_s 2013 ?        00:00:09 metacity
0 S gdm      17286 17267  0  80   0 - 102662 poll_s 2013 ?        00:00:33 /usr/libexec/gdm-simple-greeter
0 S gdm      17287 17267  0  80   0 - 62206 poll_s  2013 ?        00:00:00 /usr/libexec/polkit-gnome-authentication-agent-1
0 S gdm      17290 17267  0  80   0 - 77180 poll_s  2013 ?        00:00:19 gnome-power-manager
1 S gdm      17298     1  0  69 -11 - 107441 poll_s 2013 ?        00:00:00 /usr/bin/pulseaudio --start --log-target=syslog
4 S root     18829 17244  0  80   0 - 45436 poll_s  2013 ?        00:00:00 pam: gdm-password
1 S root     21817     2  0  80   0 -     0 svc_re 09:40 ?        00:00:00 [lockd]
1 S callumc  21931     1  0  80   0 - 29816 poll_s 09:47 ?        00:00:00 SCREEN -d -m bash -l -c distribute_run /users/staff/callumc/distributed_run /users/staff/callumc/distributed_run/callum@Sulabesi_2014_01_06_09_46_10 0 5 /users/staff/callumc/distributed_run/callum@Sulabesi_2014_01_06_09_46_10/input_0 economics_memory_code/fixed_time/utilitySpace_remoteHarness.sh sunflow sunflow large large 2 2 20m 902 902 5 economics_memory_code/fixed_time/utilitySpace_20m_sunflow_20m_large_2_sunflow_20m_large_2_callum@Sulabesi_2014_01_06_09_46_08 cjcameron7@gmail.com
0 S callumc  21932 21931  2  80   0 - 27295 wait   09:47 pts/0    00:00:00 /bin/bash /users/staff/callumc/linuxconfig/LinuxBin/distribute_run /users/staff/callumc/distributed_run /users/staff/callumc/distributed_run/callum@Sulabesi_2014_01_06_09_46_10 0 5 /users/staff/callumc/distributed_run/callum@Sulabesi_2014_01_06_09_46_10/input_0 economics_memory_code/fixed_time/utilitySpace_remoteHarness.sh sunflow sunflow large large 2 2 20m 902 902 5 economics_memory_code/fixed_time/utilitySpace_20m_sunflow_20m_large_2_sunflow_20m_large_2_callum@Sulabesi_2014_01_06_09_46_08 cjcameron7@gmail.com
0 S callumc  21972 21932  0  80   0 - 27038 wait   09:47 pts/0    00:00:00 /bin/bash economics_memory_code/fixed_time/utilitySpace_remoteHarness.sh sunflow sunflow large large 2 2 20m 902 902 5 economics_memory_code/fixed_time/utilitySpace_20m_sunflow_20m_large_2_sunflow_20m_large_2_callum@Sulabesi_2014_01_06_09_46_08 cjcameron7@gmail.com
0 S callumc  21981 21972  0  80   0 - 27038 wait   09:47 pts/0    00:00:00 /bin/bash /users/staff/callumc/economics_memory_code/fixed_time/../machineInfo.sh /users/staff/callumc/economics_memory_code/fixed_time/utilitySpace_20m_sunflow_20m_large_2_sunflow_20m_large_2_callum@Sulabesi_2014_01_06_09_46_08
0 R callumc  22003 21981  0  80   0 - 27335 -      09:47 pts/0    00:00:00 ps -elf
0 S jenkins  29581     1  0  80   0 - 874213 futex_ Jan01 ?       00:18:08 /etc/alternatives/java -Dcom.sun.akuma.Daemon=daemonized -Djava.awt.headless=true -DJENKINS_HOME=/var/lib/jenkins -jar /usr/lib/jenkins/jenkins.war --logfile=/var/log/jenkins/jenkins.log --webroot=/var/cache/jenkins/war --daemon --httpPort=8080 --ajp13Port=8009 --debug=5 --handlerCountMax=100 --handlerCountMaxIdle=20
