BENCHMARK,SIZE,THREADS,SIZE_MB
avrora,large,1,4
gcbench,default,1,167
gcbench,default,2,0
h2,huge,1,1017621
h2,huge,2,0
h2,large,2,66
h2,large,4,50
jbb2005,default,4,1209
jython,large,1,55
pmd,large,1,0
sunflow,large,2,0
sunflow,large,4,0
tomcat,huge,2,0
tomcat,huge,4,0
tomcat,large,2,58
tomcat,large,4,0
xalan,large,2,0
xalan,large,4,119
