1413421764464 0 TOTAL_MEM 8922
1413421784512 6076 CREATION
1413421784512 6076 READING 9 0.991384
1413421784512 6076 MINHEAP 2
1413421784512 6076 MINHEAP 276
1413421784514 6075 CREATION
1413421784514 6075 READING 9 0.992371
1413421784514 6075 MINHEAP 2
1413421784514 6075 MINHEAP 1211
1413421784557 6076 READING 9 0.987386
1413421784571 6075 READING 9 0.989323
1413421784585 6076 READING 9 0.974334
1413421784598 6075 READING 9 0.982185
1413421784610 6076 READING 9 0.969509
1413421784622 6075 READING 9 0.974097
1413421784704 6076 READING 11 0.976783
1413421784722 6075 READING 11 0.973996
1413421784837 6076 READING 11 0.978925
1413421784873 6075 READING 11 0.976385
1413421784972 6076 READING 17 0.972561
1413421785030 6075 READING 17 0.942288
1413421785116 6076 READING 17 0.872166
1413421785177 6075 READING 17 0.866516
1413421785225 6076 READING 30 0.756123
1413421785377 6075 READING 30 0.800041
1413421785432 6076 READING 31 0.484576
1413421785584 6075 READING 31 0.478904
1413421785724 6076 READING 35 0.722558
1413421785788 6076 READING 45 0.231832
1413421785867 6075 READING 34 0.681837
1413421785928 6076 READING 50 0.103422
1413421785936 6075 READING 46 0.449083
1413421786004 6075 READING 47 0.389362
1413421786203 6076 READING 51 0.431258
1413421786290 6075 READING 49 0.490068
1413421786377 6075 READING 73 0.443496
1413421786438 6076 READING 70 0.397468
1413421786521 6076 READING 92 0.588520
1413421786590 6075 READING 73 0.441015
1413421786636 6076 READING 97 0.590364
1413421786689 6075 READING 99 0.667337
1413421786733 6076 READING 97 0.174743
1413421786789 6075 READING 100 0.613728
1413421786915 6075 READING 102 0.427109
1413421787003 6075 READING 104 0.320343
1413421787015 6076 READING 103 0.544142
1413421787108 6076 READING 127 0.010253
1413421787317 6076 READING 133 0.231825
1413421787418 6076 READING 135 0.772498
1413421787429 6075 READING 107 0.488456
1413421787537 6075 READING 138 0.269781
1413421787681 6075 READING 142 0.180490
1413421787811 6075 READING 145 0.751642
1413421787927 6075 READING 153 0.679475
1413421787933 6076 READING 139 0.437920
1413421788041 6075 READING 155 0.679554
1413421788063 6076 READING 172 0.679658
1413421788194 6076 READING 179 0.656385
1413421788588 6075 READING 159 0.415144
1413421788648 6076 READING 184 0.344215
1413421788716 6075 READING 201 0.695691
1413421788772 6076 READING 229 0.683980
1413421788807 6075 READING 206 0.738473
1413421788937 6075 READING 210 0.675668
1413421789065 6075 READING 213 0.638554
1413421789205 6075 READING 222 0.595817
1413421789313 6076 READING 232 0.865614
1413421789333 6075 READING 225 0.514758
1413421789690 6076 READING 232 0.888878
1413421789805 6076 READING 239 0.810044
1413421790010 6076 READING 245 0.766529
1413421790039 6075 READING 236 0.366155
1413421790081 6076 READING 250 0.725915
1413421790148 6075 READING 283 0.527304
1413421790237 6076 READING 257 0.721582
1413421790248 6075 READING 232 0.541897
1413421790381 6076 READING 261 0.697595
1413421790585 6076 READING 266 0.681488
1413421790707 6076 READING 269 0.647661
1413421790718 6075 READING 276 0.272654
1413421790836 6076 READING 277 0.602770
1413421790840 6075 READING 324 0.523060
1413421790953 6076 READING 281 0.606699
1413421790957 6075 READING 319 0.586979
1413421791077 6076 READING 289 0.633821
1413421791077 6075 READING 322 0.595570
1413421791196 6075 READING 320 0.651464
1413421791308 6075 READING 321 0.657389
1413421791389 6076 READING 289 0.834437
1413421791431 6075 READING 324 0.662392
1413421791556 6075 READING 330 0.645204
1413421791654 6076 READING 286 0.828728
1413421791689 6075 READING 333 0.570880
1413421791853 6075 READING 343 0.482814
1413421792029 6075 READING 349 0.483350
1413421792182 6075 READING 357 0.473471
1413421792508 6076 READING 290 0.621538
1413421792661 6076 READING 328 0.623944
1413421792817 6076 READING 331 0.729604
1413421792930 6075 READING 364 0.395902
1413421793051 6076 READING 337 0.770422
1413421793081 6075 READING 415 0.410393
1413421793274 6076 READING 337 0.788512
1413421793398 6076 READING 340 0.744773
1413421793506 6076 READING 341 0.696525
1413421793657 6076 READING 346 0.675021
1413421793761 6075 READING 411 0.154974
1413421793801 6076 READING 347 0.703485
1413421793915 6075 READING 402 0.421051
1413421793915 6076 READING 354 0.730378
1413421794042 6075 READING 467 0.479449
1413421794188 6075 READING 468 0.486160
1413421794341 6075 READING 460 0.510343
1413421794465 6076 FUNCTION lru lambda h: 0.387611 * (h ** 0.0686184)
1413421794465 6075 FUNCTION lru lambda h: 0.990689 * (h ** 0.001)
1413421794466 6076 RECOMMEND 7711
1413421794466 6075 RECOMMEND 1211
1413421794491 6075 READING 406 0.513849
1413421794632 6075 READING 455 0.581488
1413421794800 6075 READING 459 0.542912
1413421794982 6075 READING 459 0.566736
1413421795483 6076 READING 354 0.954050
1413421796108 6075 READING 460 0.320153
1413421796317 6075 READING 517 0.510749
1413421796517 6075 READING 520 0.505183
1413421796751 6075 READING 522 0.517117
1413421796857 6076 READING 357 0.965096
1413421796958 6075 READING 526 0.587264
1413421797110 6075 READING 529 0.567888
1413421797281 6075 READING 536 0.579706
1413421797450 6075 READING 542 0.594299
1413421798310 6076 READING 360 0.961510
1413421798504 6075 READING 550 0.344297
1413421798721 6075 READING 610 0.498017
1413421798880 6075 READING 616 0.541553
1413421799021 6075 READING 618 0.556049
1413421799185 6075 READING 625 0.552494
1413421799435 6075 READING 628 0.631740
1413421799866 6076 READING 358 0.963424
1413421799977 6075 READING 638 0.768256
1413421800371 6075 READING 639 0.779324
1413421800753 6075 READING 652 0.757010
1413421802546 6076 READING 362 0.831740
1413421802916 6075 READING 656 0.416456
1413421803345 6075 READING 733 0.704301
1413421803501 6075 READING 743 0.651289
1413421803640 6075 READING 654 0.553817
1413421804169 6076 READING 410 0.965365
1413421804466 6076 FUNCTION lru lambda h: 0.320737 * (h ** 0.116879)
1413421804466 6075 FUNCTION lru lambda h: 0.71463 * (h ** 0.001)
1413421804467 6076 RECOMMEND 7711
1413421804467 6075 RECOMMEND 1211
1413421805198 6075 READING 723 0.202766
1413421805445 6075 READING 705 0.512046
1413421805596 6075 READING 794 0.557720
1413421805738 6076 READING 412 0.975980
1413421805764 6075 READING 798 0.551226
1413421805876 6075 READING 796 0.535567
1413421805952 6075 READING 797 0.509445
1413421806022 6075 READING 798 0.490655
1413421806093 6075 READING 799 0.477694
1413421807333 6076 READING 418 0.975709
1413421807691 6075 READING 801 0.216056
1413421808124 6075 READING 877 0.744642
1413421808201 6075 READING 881 0.735059
1413421808273 6075 READING 882 0.736956
1413421808347 6075 READING 886 0.751340
1413421808419 6075 READING 886 0.780070
1413421808689 6075 READING 881 0.910802
1413421808800 6075 READING 699 0.901891
1413421808939 6076 READING 419 0.981194
1413421809001 6075 READING 873 0.925150
1413421809103 6075 READING 702 0.904886
1413421809356 6075 READING 861 0.928750
1413421809503 6075 READING 712 0.915253
1413421809677 6075 READING 847 0.853017
1413421810033 6075 READING 713 0.890750
1413421810223 6075 READING 837 0.867730
1413421810383 6075 READING 844 0.825485
1413421810445 6076 READING 418 0.983819
1413421810564 6075 READING 840 0.813406
1413421810721 6075 READING 757 0.809389
1413421810888 6075 READING 829 0.809262
1413421811057 6075 READING 761 0.805464
1413421811226 6075 READING 824 0.821610
1413421811403 6075 READING 765 0.820315
1413421811582 6075 READING 818 0.827383
1413421811766 6075 READING 766 0.833733
1413421811945 6076 READING 420 0.977740
1413421811958 6075 READING 812 0.832007
1413421812145 6075 READING 817 0.836938
1413421812339 6075 READING 812 0.843038
1413421813378 6076 READING 415 0.979190
1413421813461 6075 READING 815 0.963552
1413421814377 6075 READING 814 0.955244
1413421814467 6076 FUNCTION lru lambda h: 0.276079 * (h ** 0.153788)
1413421814467 6075 FUNCTION lru lambda h: 0.232534 * (h ** 0.15049)
1413421814468 6076 RECOMMEND 4509
1413421814468 6075 RECOMMEND 4413
1413421814558 6075 READING 815 0.910065
1413421814726 6075 READING 820 0.870234
1413421814892 6075 READING 825 0.830561
1413421815059 6075 READING 831 0.804620
1413421815249 6075 READING 834 0.751083
1413421815437 6075 READING 840 0.742731
1413421815500 6076 READING 418 0.983527
1413421815621 6075 READING 841 0.746958
1413421815807 6075 READING 849 0.763540
1413421815996 6075 READING 849 0.770567
1413421816142 6076 READING 418 0.978147
1413421816199 6075 READING 855 0.773036
1413421816280 6076 READING 419 0.961295
1413421816424 6076 READING 422 0.932041
1413421816526 6075 READING 855 0.834319
1413421816570 6076 READING 426 0.890991
1413421816821 6075 READING 858 0.805586
1413421817118 6075 READING 860 0.843650
1413421817962 6076 READING 434 0.965980
1413421819479 6075 READING 863 0.693640
1413421819721 6076 READING 436 0.965169
1413421819754 6075 READING 961 0.632764
1413421819919 6075 READING 959 0.637100
1413421820084 6075 READING 966 0.641197
1413421820251 6075 READING 976 0.638588
1413421820426 6075 READING 982 0.639389
1413421820607 6075 READING 994 0.647096
1413421820785 6075 READING 999 0.641373
1413421820976 6075 READING 1012 0.634511
1413421821175 6075 READING 1017 0.627258
1413421821386 6075 READING 1031 0.635277
1413421821449 6076 READING 437 0.977303
1413421821625 6075 READING 1035 0.596690
1413421821849 6075 READING 1050 0.640043
1413421823101 6075 READING 1054 0.894364
1413421823589 6076 READING 440 0.980598
1413421824469 6076 FUNCTION lru lambda h: 0.246247 * (h ** 0.181637)
1413421824469 6075 FUNCTION lru lambda h: 0.0444121 * (h ** 0.406941)
1413421824470 6076 RECOMMEND 2753
1413421824470 6075 RECOMMEND 6169
1413421824681 6075 READING 1071 0.932897
1413421825496 6076 READING 437 0.983046
1413421826103 6075 READING 1074 0.940743
1413421827520 6076 READING 441 0.984408
1413421827667 6075 READING 1080 0.947206
1413421829154 6075 READING 1084 0.948106
1413421829486 6076 READING 439 0.980607
1413421830750 6075 READING 1080 0.950429
1413421831436 6076 READING 441 0.982154
1413421832326 6075 READING 1086 0.950030
1413421833488 6076 READING 442 0.982822
1413421833993 6075 READING 1075 0.949650
1413421834470 6076 FUNCTION lru lambda h: 0.234349 * (h ** 0.193633)
1413421834470 6075 FUNCTION lru lambda h: 0.0275739 * (h ** 0.481178)
1413421834471 6076 RECOMMEND 2560
1413421834471 6075 RECOMMEND 6362
1413421835674 6076 READING 443 0.972200
1413421835693 6075 READING 1082 0.942510
1413421836896 6076 READING 442 0.976772
1413421837070 6076 READING 447 0.965611
1413421837226 6076 READING 449 0.946134
1413421837361 6075 READING 1069 0.946104
1413421837622 6076 READING 450 0.953904
1413421839104 6075 READING 1076 0.950002
1413421839832 6076 READING 457 0.978837
1413421840853 6075 READING 1071 0.949424
1413421842025 6076 READING 458 0.985829
1413421842602 6075 READING 1075 0.953244
1413421844265 6076 READING 460 0.987749
1413421844439 6075 READING 1078 0.949540
1413421844472 6076 FUNCTION lru lambda h: 0.215299 * (h ** 0.213995)
1413421844472 6075 FUNCTION lru lambda h: 0.0101934 * (h ** 0.630992)
1413421844472 6076 RECOMMEND 2260
1413421844472 6075 RECOMMEND 6662
1413421846250 6075 READING 1079 0.947082
1413421846252 6076 READING 462 0.982448
1413421848141 6075 READING 1083 0.946349
1413421848592 6076 READING 461 0.985592
1413421850007 6075 READING 1085 0.949180
1413421850829 6076 READING 463 0.986277
1413421851928 6075 READING 1092 0.949543
1413421853319 6076 READING 462 0.986991
1413421853852 6075 READING 1094 0.950914
1413421854473 6076 FUNCTION lru lambda h: 0.208743 * (h ** 0.221363)
1413421854473 6075 FUNCTION lru lambda h: 0.00477125 * (h ** 0.744881)
1413421854474 6076 RECOMMEND 2044
1413421854474 6075 RECOMMEND 6878
1413421855463 6076 READING 464 0.985420
1413421855791 6075 READING 1100 0.949853
1413421857659 6076 READING 466 0.987802
1413421857812 6075 READING 1101 0.948337
1413421857864 6076 READING 466 0.980006
1413421858032 6076 READING 468 0.968598
1413421859097 6076 READING 469 0.977950
1413421861589 6076 READING 477 0.982695
1413421861763 6075 READING 1107 0.887538
1413421863885 6075 READING 1200 0.935559
1413421864044 6076 READING 477 0.987708
1413421864474 6076 FUNCTION lru lambda h: 0.200134 * (h ** 0.231344)
1413421864474 6075 FUNCTION lru lambda h: 0.00935901 * (h ** 0.645903)
1413421864475 6076 RECOMMEND 2353
1413421864475 6075 RECOMMEND 6569
1413421865956 6075 READING 1204 0.952716
1413421866343 6076 READING 478 0.988441
1413421868059 6075 READING 1206 0.958860
1413421868610 6076 READING 480 0.986895
1413421870208 6075 READING 1208 0.963199
1413421871132 6076 READING 477 0.987549
1413421872346 6075 READING 1211 0.964297
1413421873607 6076 READING 480 0.987042
1413421874475 6076 FUNCTION lru lambda h: 0.197087 * (h ** 0.234948)
1413421874475 6075 FUNCTION lru lambda h: 0.0061883 * (h ** 0.707042)
1413421874476 6076 RECOMMEND 2225
1413421874476 6075 RECOMMEND 6697
1413421874494 6075 READING 1206 0.964255
1413421875986 6076 READING 482 0.986444
1413421876715 6075 READING 1210 0.964011
1413421877969 6076 READING 482 0.987304
1413421878156 6076 READING 485 0.980451
1413421878340 6076 READING 486 0.968116
1413421878991 6075 READING 1204 0.965238
1413421880540 6076 READING 492 0.985907
1413421881292 6075 READING 1208 0.963012
1413421883266 6076 READING 493 0.989888
1413421883637 6075 READING 1212 0.965938
1413421884476 6076 FUNCTION lru lambda h: 0.190842 * (h ** 0.242463)
1413421884476 6075 FUNCTION lru lambda h: 0.00669823 * (h ** 0.695609)
1413421884477 6076 RECOMMEND 2306
1413421884477 6075 RECOMMEND 6616
1413421885959 6075 READING 1212 0.959477
1413421886084 6076 READING 497 0.990755
1413421888306 6075 READING 1217 0.962441
1413421888837 6076 READING 499 0.990506
1413421890710 6075 READING 1220 0.964292
1413421891547 6076 READING 497 0.989855
1413421893153 6075 READING 1225 0.960573
1413421894050 6076 READING 500 0.988704
1413421894477 6076 FUNCTION lru lambda h: 0.187527 * (h ** 0.246515)
1413421894478 6075 FUNCTION lru lambda h: 0.00609965 * (h ** 0.709408)
1413421894479 6076 RECOMMEND 2301
1413421894479 6075 RECOMMEND 6621
1413421895626 6075 READING 1229 0.957913
1413421896968 6076 READING 501 0.989164
1413421898077 6075 READING 1235 0.956018
1413421898649 6076 READING 502 0.987371
1413421898845 6076 READING 505 0.980530
1413421899306 6076 READING 507 0.975721
1413421900521 6075 READING 1241 0.952931
1413421902174 6076 READING 513 0.988722
1413421902988 6075 READING 1249 0.951907
1413421904479 6076 FUNCTION lru lambda h: 0.183053 * (h ** 0.25207)
1413421904479 6075 FUNCTION lru lambda h: 0.00681506 * (h ** 0.693341)
1413421904480 6076 RECOMMEND 2379
1413421904480 6075 RECOMMEND 6543
1413421904945 6076 READING 514 0.990579
1413421905554 6075 READING 1253 0.950346
1413421907873 6076 READING 514 0.990875
1413421908100 6075 READING 1262 0.954586
1413421910773 6076 READING 516 0.985972
1413421912650 6075 READING 1264 0.921636
1413421914089 6076 READING 515 0.988395
1413421914480 6076 FUNCTION lru lambda h: 0.180688 * (h ** 0.255039)
1413421914480 6075 FUNCTION lru lambda h: 0.00868461 * (h ** 0.658174)
1413421914482 6076 RECOMMEND 2492
1413421914482 6075 RECOMMEND 6430
1413421915376 6075 READING 1379 0.942994
1413421916936 6076 READING 517 0.988299
1413421917982 6075 READING 1380 0.956714
1413421919202 6076 READING 518 0.989494
1413421919426 6076 READING 519 0.983374
1413421919808 6076 READING 520 0.978987
1413421920690 6075 READING 1390 0.963598
1413421922763 6076 READING 521 0.989697
1413421924482 6076 FUNCTION lru lambda h: 0.177373 * (h ** 0.259252)
1413421924482 6075 FUNCTION lru lambda h: 0.00854692 * (h ** 0.659959)
1413421924483 6076 RECOMMEND 2516
1413421924483 6075 RECOMMEND 6406
1413421926007 6076 READING 526 0.991442
1413421928969 6076 READING 527 0.991131
1413421931869 6076 READING 525 0.990515
1413421934483 6076 FUNCTION lru lambda h: 0.0778777 * (h ** 0.400087)
1413421934483 6075 FUNCTION lru lambda h: 0.00854692 * (h ** 0.659959)
1413421934484 6076 RECOMMEND 3367
1413421934484 6075 RECOMMEND 5555
1413421934813 6076 READING 527 0.989856
1413421937879 6076 READING 529 0.988484
1413421938291 6075 READING 1391 0.984890
1413421939204 6076 READING 530 0.986349
1413421939426 6076 READING 536 0.977964
1413421941363 6076 READING 538 0.985581
1413421944484 6076 FUNCTION lru lambda h: 0.013753 * (h ** 0.691829)
1413421944484 6075 FUNCTION lru lambda h: 0.00728471 * (h ** 0.682843)
1413421944484 6076 RECOMMEND 4490
1413421944484 6075 RECOMMEND 4432
1413421944839 6076 READING 543 0.990929
1413421948012 6076 READING 544 0.991309
1413421951034 6076 READING 543 0.989985
1413421951806 6075 READING 1368 0.988723
1413421954322 6076 READING 546 0.989884
1413421954485 6076 FUNCTION lru lambda h: 0.0123259 * (h ** 0.709603)
1413421954485 6075 FUNCTION lru lambda h: 0.00632896 * (h ** 0.702973)
1413421954485 6076 RECOMMEND 4482
1413421954485 6075 RECOMMEND 4440
1413421957362 6076 READING 547 0.986544
1413421957437 6075 READING 1398 0.985500
1413421958004 6075 READING 1405 0.975558
1413421958417 6075 READING 1415 0.953585
1413421958731 6075 READING 1412 0.921033
1413421959057 6075 READING 1442 0.870800
1413421959374 6075 READING 1469 0.816618
1413421959700 6075 READING 1486 0.762950
1413421959989 6076 READING 547 0.982317
1413421960057 6075 READING 1517 0.719651
1413421960251 6076 READING 549 0.978396
1413421961138 6075 READING 1525 0.858062
1413421961672 6076 READING 552 0.982547
1413421963840 6075 READING 1538 0.944088
1413421964485 6076 FUNCTION lru lambda h: 0.00548198 * (h ** 0.842981)
1413421964486 6075 FUNCTION lru lambda h: 0.0858721 * (h ** 0.328355)
1413421964486 6076 RECOMMEND 6421
1413421964486 6075 RECOMMEND 2501
1413421965008 6076 READING 557 0.989751
1413421966475 6075 READING 1550 0.958542
1413421968693 6076 READING 558 0.991476
1413421969263 6075 READING 1543 0.961011
1413421972059 6075 READING 1556 0.963795
1413421972061 6076 READING 557 0.983109
1413421974486 6076 FUNCTION lru lambda h: 0.0291805 * (h ** 0.567839)
1413421974486 6075 FUNCTION lru lambda h: 0.177572 * (h ** 0.226522)
1413421974487 6076 RECOMMEND 6378
1413421974487 6075 RECOMMEND 2544
1413421975729 6076 READING 560 0.980498
1413421975863 6075 READING 1545 0.953281
1413421978679 6075 READING 1534 0.978307
1413421979045 6076 READING 560 0.985031
1413421981089 6076 READING 561 0.985745
1413421981333 6076 READING 564 0.980629
1413421981637 6075 READING 1536 0.982789
1413421983685 6076 READING 565 0.987375
1413421984487 6076 FUNCTION lru lambda h: 0.0356917 * (h ** 0.534118)
1413421984487 6075 FUNCTION lru lambda h: 0.176979 * (h ** 0.227436)
1413421984488 6076 RECOMMEND 6257
1413421984488 6075 RECOMMEND 2665
1413421984666 6075 READING 1547 0.984563
1413421987149 6076 READING 572 0.990839
1413421987800 6075 READING 1561 0.984808
1413421990447 6076 READING 572 0.991239
1413421991008 6075 READING 1564 0.982686
1413421994073 6076 READING 573 0.991346
1413421994280 6075 READING 1553 0.980658
1413421994488 6076 FUNCTION lru lambda h: 0.0511878 * (h ** 0.475053)
1413421994488 6075 FUNCTION lru lambda h: 0.126746 * (h ** 0.274642)
1413421994490 6076 RECOMMEND 5654
1413421994490 6075 RECOMMEND 3268
1413421997472 6076 READING 574 0.990646
1413421997601 6075 READING 1562 0.976188
1413422000898 6076 READING 575 0.992665
1413422001008 6075 READING 1538 0.974416
1413422001184 6076 READING 576 0.987904
1413422002417 6076 READING 577 0.986300
1413422004477 6075 READING 1389 0.972551
1413422004490 6076 FUNCTION lru lambda h: 0.0360629 * (h ** 0.531249)
1413422004490 6075 FUNCTION lru lambda h: 0.107656 * (h ** 0.297722)
1413422004491 6076 RECOMMEND 5718
1413422004491 6075 RECOMMEND 3204
1413422006295 6076 READING 579 0.991773
1413422008044 6075 READING 1521 0.974627
1413422009883 6076 READING 581 0.991817
1413422011544 6075 READING 1534 0.970986
1413422013922 6076 READING 583 0.992214
1413422014491 6076 FUNCTION lru lambda h: 0.0346342 * (h ** 0.53732)
1413422014491 6075 FUNCTION lru lambda h: 0.0964012 * (h ** 0.313255)
1413422014492 6076 RECOMMEND 5636
1413422014492 6075 RECOMMEND 3286
1413422015109 6075 READING 1530 0.965697
1413422017709 6076 READING 582 0.991588
1413422018801 6075 READING 1533 0.964955
1413422021856 6076 READING 584 0.993793
1413422022195 6076 READING 586 0.989994
1413422022471 6075 READING 1542 0.962712
1413422023309 6076 READING 586 0.988188
1413422024492 6076 FUNCTION lru lambda h: 0.0489157 * (h ** 0.481249)
1413422024492 6075 FUNCTION lru lambda h: 0.0877363 * (h ** 0.326405)
1413422024493 6076 RECOMMEND 5316
1413422024493 6075 RECOMMEND 3606
1413422026117 6075 READING 1546 0.960884
1413422027259 6076 READING 593 0.992239
1413422029790 6075 READING 1557 0.959946
1413422031124 6076 READING 593 0.992245
1413422033539 6075 READING 1566 0.960958
1413422034493 6076 FUNCTION lru lambda h: 0.0615045 * (h ** 0.444255)
1413422034493 6075 FUNCTION lru lambda h: 0.0823126 * (h ** 0.335242)
1413422034494 6076 RECOMMEND 5085
1413422034494 6075 RECOMMEND 3837
1413422034989 6076 READING 591 0.992811
1413422037358 6075 READING 1582 0.963012
1413422038679 6076 READING 594 0.991650
1413422041167 6075 READING 1587 0.959695
1413422042497 6076 READING 596 0.993160
1413422042797 6076 READING 596 0.987721
1413422044492 6076 READING 596 0.988400
1413422044494 6076 FUNCTION lru lambda h: 0.0813228 * (h ** 0.399004)
1413422044494 6075 FUNCTION lru lambda h: 0.0765721 * (h ** 0.345242)
1413422044495 6076 RECOMMEND 4783
1413422044495 6075 RECOMMEND 4139
1413422045078 6075 READING 1603 0.959891
1413422048379 6076 READING 599 0.991978
1413422048964 6075 READING 1607 0.961312
1413422052317 6076 READING 600 0.992471
1413422053042 6075 READING 1623 0.963891
1413422054495 6076 FUNCTION lru lambda h: 0.130688 * (h ** 0.322818)
1413422054495 6075 FUNCTION lru lambda h: 0.06632 * (h ** 0.365071)
1413422054496 6076 RECOMMEND 4187
1413422054496 6075 RECOMMEND 4735
1413422056377 6076 READING 602 0.992377
1413422057116 6075 READING 1625 0.961564
1413422060109 6076 READING 603 0.991462
1413422062829 6076 READING 603 0.990783
1413422063105 6076 READING 606 0.985933
1413422063171 6076 DEATH 175
1413422064496 6075 FUNCTION lru lambda h: 0.0579602 * (h ** 0.3837)
1413422064496 6075 RECOMMEND 8922
1413422072999 6075 READING 1641 0.984395
1413422074497 6075 FUNCTION lru lambda h: 0.0503748 * (h ** 0.403127)
1413422074497 6075 RECOMMEND 8922
1413422084497 6075 FUNCTION lru lambda h: 0.0503748 * (h ** 0.403127)
1413422084497 6075 RECOMMEND 8922
1413422090403 6075 READING 1642 0.988343
1413422092637 6075 READING 1660 0.983949
1413422093145 6075 READING 1672 0.971908
1413422093622 6075 READING 1684 0.954385
1413422094113 6075 READING 1702 0.926279
1413422094426 6075 DEATH 234
