F S UID        PID  PPID  C PRI  NI ADDR SZ WCHAN    RSS PSR STIME TTY          TIME CMD
4 S root         1     0  0  80   0 -  8475 poll_s  3216   2 Sep01 ?        00:00:01 /sbin/init
1 S root         2     0  0  80   0 -     0 kthrea     0   2 Sep01 ?        00:00:00 [kthreadd]
1 S root         3     2  0  80   0 -     0 smpboo     0   0 Sep01 ?        00:00:00 [ksoftirqd/0]
1 S root         5     2  0  60 -20 -     0 worker     0   0 Sep01 ?        00:00:00 [kworker/0:0H]
1 S root         7     2  0  80   0 -     0 rcu_gp     0   3 Sep01 ?        00:03:51 [rcu_sched]
1 S root         8     2  0  80   0 -     0 rcu_no     0   1 Sep01 ?        00:02:49 [rcuos/0]
1 S root         9     2  0  80   0 -     0 rcu_no     0   0 Sep01 ?        00:03:38 [rcuos/1]
1 S root        10     2  0  80   0 -     0 rcu_no     0   0 Sep01 ?        00:02:41 [rcuos/2]
1 S root        11     2  0  80   0 -     0 rcu_no     0   3 Sep01 ?        00:02:23 [rcuos/3]
1 S root        12     2  0  80   0 -     0 rcu_gp     0   0 Sep01 ?        00:00:00 [rcu_bh]
1 S root        13     2  0  80   0 -     0 rcu_no     0   0 Sep01 ?        00:00:00 [rcuob/0]
1 S root        14     2  0  80   0 -     0 rcu_no     0   0 Sep01 ?        00:00:00 [rcuob/1]
1 S root        15     2  0  80   0 -     0 rcu_no     0   0 Sep01 ?        00:00:00 [rcuob/2]
1 S root        16     2  0  80   0 -     0 rcu_no     0   0 Sep01 ?        00:00:00 [rcuob/3]
1 S root        17     2  0 -40   - -     0 smpboo     0   0 Sep01 ?        00:00:01 [migration/0]
5 S root        18     2  0 -40   - -     0 smpboo     0   0 Sep01 ?        00:00:00 [watchdog/0]
5 S root        19     2  0 -40   - -     0 smpboo     0   1 Sep01 ?        00:00:00 [watchdog/1]
1 S root        20     2  0 -40   - -     0 smpboo     0   1 Sep01 ?        00:00:01 [migration/1]
1 S root        21     2  0  80   0 -     0 smpboo     0   1 Sep01 ?        00:00:01 [ksoftirqd/1]
1 S root        23     2  0  60 -20 -     0 worker     0   1 Sep01 ?        00:00:00 [kworker/1:0H]
5 S root        24     2  0 -40   - -     0 smpboo     0   2 Sep01 ?        00:00:00 [watchdog/2]
1 S root        25     2  0 -40   - -     0 smpboo     0   2 Sep01 ?        00:00:01 [migration/2]
1 S root        26     2  0  80   0 -     0 smpboo     0   2 Sep01 ?        00:00:00 [ksoftirqd/2]
1 S root        28     2  0  60 -20 -     0 worker     0   2 Sep01 ?        00:00:00 [kworker/2:0H]
5 S root        29     2  0 -40   - -     0 smpboo     0   3 Sep01 ?        00:00:00 [watchdog/3]
1 S root        30     2  0 -40   - -     0 smpboo     0   3 Sep01 ?        00:00:01 [migration/3]
1 S root        31     2  0  80   0 -     0 smpboo     0   3 Sep01 ?        00:00:00 [ksoftirqd/3]
1 S root        33     2  0  60 -20 -     0 worker     0   3 Sep01 ?        00:00:00 [kworker/3:0H]
1 S root        34     2  0  60 -20 -     0 rescue     0   3 Sep01 ?        00:00:00 [khelper]
5 S root        35     2  0  80   0 -     0 devtmp     0   0 Sep01 ?        00:00:00 [kdevtmpfs]
1 S root        36     2  0  60 -20 -     0 rescue     0   3 Sep01 ?        00:00:00 [netns]
1 S root        37     2  0  60 -20 -     0 rescue     0   3 Sep01 ?        00:00:00 [writeback]
1 S root        38     2  0  60 -20 -     0 rescue     0   1 Sep01 ?        00:00:00 [kintegrityd]
1 S root        39     2  0  60 -20 -     0 rescue     0   1 Sep01 ?        00:00:00 [bioset]
1 S root        41     2  0  60 -20 -     0 rescue     0   2 Sep01 ?        00:00:00 [kblockd]
1 S root        42     2  0  60 -20 -     0 rescue     0   2 Sep01 ?        00:00:00 [ata_sff]
1 S root        43     2  0  80   0 -     0 hub_th     0   1 Sep01 ?        00:00:00 [khubd]
1 S root        44     2  0  60 -20 -     0 rescue     0   2 Sep01 ?        00:00:00 [md]
1 S root        45     2  0  60 -20 -     0 rescue     0   3 Sep01 ?        00:00:00 [devfreq_wq]
1 S root        46     2  1  80   0 -     0 worker     0   0 Sep01 ?        00:18:32 [kworker/0:1]
1 S root        48     2  0  80   0 -     0 watchd     0   3 Sep01 ?        00:00:00 [khungtaskd]
1 S root        49     2  0  80   0 -     0 kswapd     0   3 Sep01 ?        00:00:00 [kswapd0]
1 S root        50     2  0  85   5 -     0 ksm_sc     0   3 Sep01 ?        00:00:00 [ksmd]
1 S root        51     2  0  99  19 -     0 khugep     0   1 Sep01 ?        00:00:03 [khugepaged]
1 S root        52     2  0  80   0 -     0 fsnoti     0   2 Sep01 ?        00:00:00 [fsnotify_mark]
1 S root        53     2  0  80   0 -     0 ecrypt     0   3 Sep01 ?        00:00:00 [ecryptfs-kthrea]
1 S root        54     2  0  60 -20 -     0 rescue     0   3 Sep01 ?        00:00:00 [crypto]
1 S root        66     2  0  60 -20 -     0 rescue     0   3 Sep01 ?        00:00:00 [kthrotld]
1 S root        87     2  0  60 -20 -     0 rescue     0   1 Sep01 ?        00:00:00 [deferwq]
1 S root        88     2  0  60 -20 -     0 rescue     0   1 Sep01 ?        00:00:00 [charger_manager]
1 S root       136     2  0  60 -20 -     0 rescue     0   1 Sep01 ?        00:00:00 [kpsmoused]
1 S root       138     2  0  80   0 -     0 scsi_e     0   2 Sep01 ?        00:00:00 [scsi_eh_0]
1 S root       139     2  0  80   0 -     0 scsi_e     0   2 Sep01 ?        00:00:00 [scsi_eh_1]
1 S root       140     2  0  80   0 -     0 scsi_e     0   1 Sep01 ?        00:00:00 [scsi_eh_2]
1 S root       141     2  0  80   0 -     0 scsi_e     0   3 Sep01 ?        00:00:00 [scsi_eh_3]
1 S root       142     2  0  80   0 -     0 scsi_e     0   1 Sep01 ?        00:00:00 [scsi_eh_4]
1 S root       143     2  0  80   0 -     0 scsi_e     0   3 Sep01 ?        00:00:00 [scsi_eh_5]
1 S root       150     2  0  60 -20 -     0 rescue     0   2 Sep01 ?        00:00:00 [ttm_swap]
1 S root       192     2  0  60 -20 -     0 rescue     0   1 Sep01 ?        00:00:00 [kdmflush]
1 S root       193     2  0  60 -20 -     0 rescue     0   1 Sep01 ?        00:00:00 [bioset]
1 S root       195     2  0  60 -20 -     0 rescue     0   1 Sep01 ?        00:00:00 [kdmflush]
1 S root       196     2  0  60 -20 -     0 rescue     0   1 Sep01 ?        00:00:00 [bioset]
1 S root       286     2  0  80   0 -     0 kjourn     0   2 Sep01 ?        00:00:02 [jbd2/dm-0-8]
1 S root       287     2  0  60 -20 -     0 rescue     0   0 Sep01 ?        00:00:00 [ext4-rsv-conver]
1 S root       459     1  0  80   0 -  4869 poll_s   652   3 Sep01 ?        00:00:00 upstart-udev-bridge --daemon
5 S root       494     1  0  80   0 - 12983 ep_pol  2164   0 Sep01 ?        00:00:00 /lib/systemd/systemd-udevd --daemon
1 S root       504     2  0  60 -20 -     0 rescue     0   3 Sep01 ?        00:00:00 [ext4-rsv-conver]
1 S root       562     1  0  80   0 -  3819 poll_s   636   2 Sep01 ?        00:00:00 upstart-file-bridge --daemon
1 S root       614     2  0   9   - -     0 irq_th     0   3 Sep01 ?        00:00:00 [irq/46-mei_me]
1 S root       626     2  0  60 -20 -     0 rescue     0   0 Sep01 ?        00:00:00 [kmpathd]
1 S root       627     2  0  60 -20 -     0 rescue     0   1 Sep01 ?        00:00:00 [kmpath_handlerd]
1 S root       720     2  0  60 -20 -     0 rescue     0   3 Sep01 ?        00:00:00 [hd-audio0]
1 S root       781     1  0  80   0 -  3815 poll_s   632   0 Sep01 ?        00:00:00 upstart-socket-bridge --daemon
4 S root       784     1  0  80   0 - 68176 poll_s  7876   2 Sep01 ?        00:00:01 smbd -F
5 S syslog     799     1  0  80   0 - 63961 poll_s  1608   3 Sep01 ?        00:00:00 rsyslogd
1 S root       828     2  0  60 -20 -     0 rescue     0   1 Sep01 ?        00:00:00 [kvm-irqfd-clean]
5 S message+   916     1  0  80   0 - 10025 ep_pol  2140   0 Sep01 ?        00:00:00 dbus-daemon --system --fork
5 S root       938     1  0  80   0 -  4823 poll_s  1724   2 Sep01 ?        00:00:00 /usr/sbin/bluetoothd
5 S avahi      941     1  0  80   0 -  8220 poll_s  2264   1 Sep01 ?        00:00:25 avahi-daemon: running [Sulabesi.local]
1 S avahi      947   941  0  80   0 -  8056 unix_s   468   2 Sep01 ?        00:00:00 avahi-daemon: chroot helper
4 S root       960     1  0  80   0 - 10863 ep_pol  1924   1 Sep01 ?        00:00:00 /lib/systemd/systemd-logind
5 S root       962     2  0  70 -10 -     0 rfcomm     0   2 Sep01 ?        00:00:00 [krfcommd]
1 S root       973     2  0  80   0 -     0 kaudit     0   2 Sep01 ?        00:00:00 [kauditd]
4 S root       997     1  0  80   0 - 82566 poll_s  4940   1 Sep01 ?        00:00:00 /usr/sbin/ModemManager
5 S root      1177     1  0  80   0 - 88100 poll_s  6824   3 Sep01 ?        00:00:01 NetworkManager
4 S root      1186     1  0  80   0 - 73980 poll_s  7964   0 Sep01 ?        00:00:00 /usr/lib/policykit-1/polkitd --no-debug
5 S root      1193   784  0  80   0 - 68176 poll_s  4760   2 Sep01 ?        00:00:00 smbd -F
4 S root      1363  1177  0  80   0 -  2558 poll_s  3712   2 Sep01 ?        00:00:02 /sbin/dhclient -d -sf /usr/lib/NetworkManager/nm-dhcp-client.action -pf /run/sendsigs.omit.d/network-manager.dhclient-eth0.pid -lf /var/lib/NetworkManager/dhclient-cc7eb453-0c57-4e2f-b6fb-b4f3679ff551-eth0.lease -cf /var/lib/NetworkManager/dhclient-eth0.conf eth0
4 S root      1409     1  0  80   0 -  3955 n_tty_   960   2 Sep01 tty4     00:00:00 /sbin/getty -8 38400 tty4
4 S root      1411     1  0  80   0 -  3955 n_tty_   956   0 Sep01 tty5     00:00:00 /sbin/getty -8 38400 tty5
4 S root      1419     1  0  80   0 -  3955 n_tty_   960   1 Sep01 tty2     00:00:00 /sbin/getty -8 38400 tty2
4 S root      1420     1  0  80   0 -  3955 n_tty_   960   2 Sep01 tty3     00:00:00 /sbin/getty -8 38400 tty3
4 S root      1423     1  0  80   0 -  3955 n_tty_   964   2 Sep01 tty6     00:00:00 /sbin/getty -8 38400 tty6
4 S root      1457     1  0  80   0 - 18338 poll_s  3620   0 Sep01 ?        00:00:00 /usr/sbin/cups-browsed
1 S root      1460     1  0  80   0 -  1092 poll_s   700   2 Sep01 ?        00:00:00 acpid -c /etc/acpi/events -s /var/run/acpid.socket
1 S root      1466     1  0  80   0 -  5914 hrtime  1048   1 Sep01 ?        00:00:00 cron
5 S root      1467     1  0  80   0 -  4797 hrtime   740   2 Sep01 ?        00:00:04 /usr/sbin/irqbalance
4 S root      1537     1  0  80   0 - 15341 poll_s  3076   2 Sep01 ?        00:00:00 /usr/sbin/sshd -D
4 S root      1548     1  0  80   0 - 33230 poll_s  4232   3 Sep01 ?        00:00:00 mdm
4 S nobody    1562  1177  0  80   0 -  7758 poll_s  1536   1 Sep01 ?        00:00:00 /usr/sbin/dnsmasq --no-resolv --keep-in-foreground --no-hosts --bind-interfaces --pid-file=/run/sendsigs.omit.d/network-manager.dnsmasq.pid --listen-address=127.0.1.1 --conf-file=/var/run/NetworkManager/dnsmasq.conf --cache-size=0 --proxy-dnssec --enable-dbus=org.freedesktop.NetworkManager.dnsmasq --conf-dir=/etc/NetworkManager/dnsmasq.d
1 S dictd     1675     1  0  80   0 - 13072 inet_c  8884   0 Sep01 ?        00:00:00 dictd 1.12.1: 0/0
1 S kernoops  1759     1  0  80   0 -  9286 poll_s  1012   1 Sep01 ?        00:00:00 /usr/sbin/kerneloops
5 S root      1801     1  0  80   0 - 47862 poll_s  2784   1 Sep01 ?        00:00:00 nmbd -D
1 S root      1821     2  0  60 -20 -     0 rescue     0   3 Sep01 ?        00:00:00 [iprt]
4 S root      1909     1  0  80   0 -  3955 n_tty_   960   3 Sep01 tty1     00:00:00 /sbin/getty -8 38400 tty1
4 S colord    2005     1  0  80   0 - 77768 poll_s  8432   2 Sep01 ?        00:00:00 /usr/lib/colord/colord
4 S root      2059     1  0  80   0 - 525656 poll_s 4240   1 Sep01 ?        00:00:00 /usr/sbin/console-kit-daemon --no-daemon
4 S rtkit     2395     1  0  81   1 - 42229 poll_s  1316   1 Sep01 ?        00:00:00 /usr/lib/rtkit/rtkit-daemon
4 S root      2403     1  0  80   0 - 59841 poll_s  4604   0 Sep01 ?        00:00:00 /usr/lib/upower/upowerd
4 S root      2570     1  0  80   0 - 96566 poll_s  8428   1 Sep01 ?        00:00:09 /usr/lib/udisks2/udisksd --no-debug
1 S callum    3964     1  0  80   0 -  6833 poll_s  1752   3 Sep01 ?        00:00:00 SCREEN
0 S callum    3965  3964  0  80   0 - 13161 sigsus 12484   2 Sep01 pts/4    00:00:01 /bin/zsh
5 S root      4165  1548  0  80   0 - 48315 pipe_w  4564   0 Sep01 ?        00:00:00 mdm
4 S root      4173  4165 23  80   0 - 54592 poll_s 40268   3 Sep01 tty7     06:58:05 /usr/bin/X :0 -audit 0 -auth /var/lib/mdm/:0.Xauth -nolisten tcp vt7
4 S mdm       4184  4165 14  80   0 - 625794 poll_s 151732 0 Sep01 ?        04:15:42 /usr/lib/mdm/mdmwebkit
1 S mdm       4218     1  0  80   0 -  6143 poll_s   588   3 Sep01 ?        00:00:00 dbus-launch --autolaunch=c5eecb21099843cdb66b8a3e53a16a25 --binary-syntax --close-stderr
1 S mdm       4220     1  0  80   0 -  9779 ep_pol  1004   3 Sep01 ?        00:00:00 //bin/dbus-daemon --fork --print-pid 5 --print-address 7 --session
1 S root      5718     2  1  80   0 -     0 worker     0   1 Sep01 ?        00:20:01 [kworker/1:2]
4 S root     15550     1  0  80   0 - 18998 ep_pol  5276   0 07:56 ?        00:00:00 /usr/sbin/cupsd -f
1 S root     15669     2  0  80   0 -     0 worker     0   3 08:25 ?        00:03:34 [kworker/3:0]
1 S callum   16275     1  0  80   0 - 64455 poll_s 37000   2 08:29 ?        00:00:23 emacs --daemon
0 S callum   16291 16275  0  80   0 -  7412 pipe_w  2576   0 08:29 ?        00:00:00 /usr/bin/aspell -a -m -d en_GB --encoding=utf-8
0 S callum   16320  3965  0  80   0 - 49041 futex_ 15504   0 08:32 pts/4    00:00:01 ./cgroup_overhead_calculator -r 5 cgroup_overhead_input.csv 500
1 S root     18236     2  0  80   0 -     0 worker     0   2 10:10 ?        00:01:47 [kworker/2:0]
1 S root     19983     2  0  60 -20 -     0 worker     0   0 11:35 ?        00:00:00 [kworker/u9:2]
1 S root     20385     2  0  80   0 -     0 worker     0   0 12:08 ?        00:00:00 [kworker/0:0]
1 S root     20783     2  0  60 -20 -     0 worker     0   1 12:24 ?        00:00:00 [kworker/u9:0]
1 S root     20946     2  0  80   0 -     0 worker     0   3 12:32 ?        00:00:00 [kworker/3:1]
1 S root     21318     2  0  80   0 -     0 worker     0   0 12:47 ?        00:00:00 [kworker/u8:0]
1 S root     21820     2  0  80   0 -     0 worker     0   2 13:26 ?        00:00:42 [kworker/2:2]
1 S root     21843     2  0  80   0 -     0 worker     0   1 13:26 ?        00:00:00 [kworker/1:1]
1 S root     22907     2  0  80   0 -     0 worker     0   1 14:37 ?        00:00:00 [kworker/u8:1]
0 R callum   23007 16320  0  80   0 -  4615 -       1300   2 14:43 pts/4    00:00:00 ps -elFww
