MemTotal:       16318588 kB
MemFree:        13457108 kB
Buffers:          227688 kB
Cached:          2159376 kB
SwapCached:            0 kB
Active:          1328880 kB
Inactive:        1285984 kB
Active(anon):     228600 kB
Inactive(anon):      748 kB
Active(file):    1100280 kB
Inactive(file):  1285236 kB
Unevictable:           0 kB
Mlocked:               0 kB
SwapTotal:      16728060 kB
SwapFree:       16728060 kB
Dirty:                40 kB
Writeback:             0 kB
AnonPages:        227648 kB
Mapped:            17328 kB
Shmem:              1552 kB
Slab:             117284 kB
SReclaimable:      99928 kB
SUnreclaim:        17356 kB
KernelStack:        1560 kB
PageTables:         3404 kB
NFS_Unstable:          0 kB
Bounce:                0 kB
WritebackTmp:          0 kB
CommitLimit:    24887352 kB
Committed_AS:     405856 kB
VmallocTotal:   34359738367 kB
VmallocUsed:      375664 kB
VmallocChunk:   34359355992 kB
HardwareCorrupted:     0 kB
AnonHugePages:    198656 kB
HugePages_Total:       0
HugePages_Free:        0
HugePages_Rsvd:        0
HugePages_Surp:        0
Hugepagesize:       2048 kB
DirectMap4k:       66496 kB
DirectMap2M:    16594944 kB
