Using scaled threading model. 4 processors detected, 2 threads used to drive the workload, in a possible range of [1,64000]
===== DaCapo 9.12 h2 starting warmup 1 =====
................................
Completed 32000 transactions
	Stock level .............  1277 ( 4.0%)
	Order status by name ....   765 ( 2.4%)
	Order status by ID ......   518 ( 1.6%)
	Payment by name .........  8262 (25.8%)
	Payment by ID ...........  5489 (17.2%)
	Delivery schedule .......  1299 ( 4.1%)
	New order ............... 14241 (44.5%)
	New order rollback ......   149 ( 0.5%)
Resetting database to initial state
===== DaCapo 9.12 h2 completed warmup 1 in 23521 msec =====
===== DaCapo 9.12 h2 starting warmup 2 =====
................................
Completed 32000 transactions
	Stock level .............  1277 ( 4.0%)
	Order status by name ....   765 ( 2.4%)
	Order status by ID ......   518 ( 1.6%)
	Payment by name .........  8262 (25.8%)
	Payment by ID ...........  5489 (17.2%)
	Delivery schedule .......  1299 ( 4.1%)
	New order ............... 14241 (44.5%)
	New order rollback ......   149 ( 0.5%)
Resetting database to initial state
===== DaCapo 9.12 h2 completed warmup 2 in 24061 msec =====
===== DaCapo 9.12 h2 starting warmup 3 =====
................................
Completed 32000 transactions
	Stock level .............  1277 ( 4.0%)
	Order status by name ....   765 ( 2.4%)
	Order status by ID ......   518 ( 1.6%)
	Payment by name .........  8262 (25.8%)
	Payment by ID ...........  5489 (17.2%)
	Delivery schedule .......  1299 ( 4.1%)
	New order ............... 14241 (44.5%)
	New order rollback ......   149 ( 0.5%)
Resetting database to initial state
===== DaCapo 9.12 h2 completed warmup 3 in 22386 msec =====
===== DaCapo 9.12 h2 starting warmup 4 =====
................................
Completed 32000 transactions
	Stock level .............  1277 ( 4.0%)
	Order status by name ....   765 ( 2.4%)
	Order status by ID ......   518 ( 1.6%)
	Payment by name .........  8262 (25.8%)
	Payment by ID ...........  5489 (17.2%)
	Delivery schedule .......  1299 ( 4.1%)
	New order ............... 14241 (44.5%)
	New order rollback ......   149 ( 0.5%)
Resetting database to initial state
===== DaCapo 9.12 h2 completed warmup 4 in 21410 msec =====
===== DaCapo 9.12 h2 starting warmup 5 =====
................................
Completed 32000 transactions
	Stock level .............  1277 ( 4.0%)
	Order status by name ....   765 ( 2.4%)
	Order status by ID ......   518 ( 1.6%)
	Payment by name .........  8262 (25.8%)
	Payment by ID ...........  5489 (17.2%)
	Delivery schedule .......  1299 ( 4.1%)
	New order ............... 14241 (44.5%)
	New order rollback ......   149 ( 0.5%)
Resetting database to initial state
===== DaCapo 9.12 h2 completed warmup 5 in 22766 msec =====
===== DaCapo 9.12 h2 starting warmup 6 =====
................................
Completed 32000 transactions
	Stock level .............  1277 ( 4.0%)
	Order status by name ....   765 ( 2.4%)
	Order status by ID ......   518 ( 1.6%)
	Payment by name .........  8262 (25.8%)
	Payment by ID ...........  5489 (17.2%)
	Delivery schedule .......  1299 ( 4.1%)
	New order ............... 14241 (44.5%)
	New order rollback ......   149 ( 0.5%)
Resetting database to initial state
===== DaCapo 9.12 h2 completed warmup 6 in 21488 msec =====
===== DaCapo 9.12 h2 starting warmup 7 =====
................................
Completed 32000 transactions
	Stock level .............  1277 ( 4.0%)
	Order status by name ....   765 ( 2.4%)
	Order status by ID ......   518 ( 1.6%)
	Payment by name .........  8262 (25.8%)
	Payment by ID ...........  5489 (17.2%)
	Delivery schedule .......  1299 ( 4.1%)
	New order ............... 14241 (44.5%)
	New order rollback ......   149 ( 0.5%)
Resetting database to initial state
===== DaCapo 9.12 h2 completed warmup 7 in 22371 msec =====
===== DaCapo 9.12 h2 starting warmup 8 =====
................................
Completed 32000 transactions
	Stock level .............  1277 ( 4.0%)
	Order status by name ....   765 ( 2.4%)
	Order status by ID ......   518 ( 1.6%)
	Payment by name .........  8262 (25.8%)
	Payment by ID ...........  5489 (17.2%)
	Delivery schedule .......  1299 ( 4.1%)
	New order ............... 14241 (44.5%)
	New order rollback ......   149 ( 0.5%)
Resetting database to initial state
===== DaCapo 9.12 h2 completed warmup 8 in 21947 msec =====
===== DaCapo 9.12 h2 starting warmup 9 =====
................................
Completed 32000 transactions
	Stock level .............  1277 ( 4.0%)
	Order status by name ....   765 ( 2.4%)
	Order status by ID ......   518 ( 1.6%)
	Payment by name .........  8262 (25.8%)
	Payment by ID ...........  5489 (17.2%)
	Delivery schedule .......  1299 ( 4.1%)
	New order ............... 14241 (44.5%)
	New order rollback ......   149 ( 0.5%)
Resetting database to initial state
===== DaCapo 9.12 h2 completed warmup 9 in 21948 msec =====
===== DaCapo 9.12 h2 starting warmup 10 =====
................................
Completed 32000 transactions
	Stock level .............  1277 ( 4.0%)
	Order status by name ....   765 ( 2.4%)
	Order status by ID ......   518 ( 1.6%)
	Payment by name .........  8262 (25.8%)
	Payment by ID ...........  5489 (17.2%)
	Delivery schedule .......  1299 ( 4.1%)
	New order ............... 14241 (44.5%)
	New order rollback ......   149 ( 0.5%)
Resetting database to initial state
===== DaCapo 9.12 h2 completed warmup 10 in 21835 msec =====
===== DaCapo 9.12 h2 starting warmup 11 =====
................................
Completed 32000 transactions
	Stock level .............  1277 ( 4.0%)
	Order status by name ....   765 ( 2.4%)
	Order status by ID ......   518 ( 1.6%)
	Payment by name .........  8262 (25.8%)
	Payment by ID ...........  5489 (17.2%)
	Delivery schedule .......  1299 ( 4.1%)
	New order ............... 14241 (44.5%)
	New order rollback ......   149 ( 0.5%)
Resetting database to initial state
===== DaCapo 9.12 h2 completed warmup 11 in 22037 msec =====
===== DaCapo 9.12 h2 starting warmup 12 =====
................................
Completed 32000 transactions
	Stock level .............  1277 ( 4.0%)
	Order status by name ....   765 ( 2.4%)
	Order status by ID ......   518 ( 1.6%)
	Payment by name .........  8262 (25.8%)
	Payment by ID ...........  5489 (17.2%)
	Delivery schedule .......  1299 ( 4.1%)
	New order ............... 14241 (44.5%)
	New order rollback ......   149 ( 0.5%)
Resetting database to initial state
===== DaCapo 9.12 h2 completed warmup 12 in 21038 msec =====
===== DaCapo 9.12 h2 starting =====
................................
Completed 32000 transactions
	Stock level .............  1277 ( 4.0%)
	Order status by name ....   765 ( 2.4%)
	Order status by ID ......   518 ( 1.6%)
	Payment by name .........  8262 (25.8%)
	Payment by ID ...........  5489 (17.2%)
	Delivery schedule .......  1299 ( 4.1%)
	New order ............... 14241 (44.5%)
	New order rollback ......   149 ( 0.5%)
Resetting database to initial state
===== DaCapo 9.12 h2 PASSED in 20253 msec =====
