F S UID        PID  PPID  C PRI  NI ADDR SZ WCHAN    RSS PSR STIME TTY          TIME CMD
4 S root         1     0  0  80   0 -  8479 poll_s  3176   0 Aug15 ?        00:00:01 /sbin/init
1 S root         2     0  0  80   0 -     0 kthrea     0   2 Aug15 ?        00:00:00 [kthreadd]
1 S root         3     2  0  80   0 -     0 smpboo     0   0 Aug15 ?        00:00:01 [ksoftirqd/0]
1 S root         5     2  0  60 -20 -     0 worker     0   0 Aug15 ?        00:00:00 [kworker/0:0H]
1 S root         7     2  0  80   0 -     0 rcu_gp     0   0 Aug15 ?        00:27:44 [rcu_sched]
1 S root         8     2  0  80   0 -     0 rcu_no     0   1 Aug15 ?        00:19:03 [rcuos/0]
1 S root         9     2  0  80   0 -     0 rcu_no     0   3 Aug15 ?        00:31:26 [rcuos/1]
1 S root        10     2  0  80   0 -     0 rcu_no     0   3 Aug15 ?        00:18:20 [rcuos/2]
1 S root        11     2  0  80   0 -     0 rcu_no     0   2 Aug15 ?        00:10:42 [rcuos/3]
1 S root        12     2  0  80   0 -     0 rcu_gp     0   0 Aug15 ?        00:00:00 [rcu_bh]
1 S root        13     2  0  80   0 -     0 rcu_no     0   0 Aug15 ?        00:00:00 [rcuob/0]
1 S root        14     2  0  80   0 -     0 rcu_no     0   0 Aug15 ?        00:00:00 [rcuob/1]
1 S root        15     2  0  80   0 -     0 rcu_no     0   0 Aug15 ?        00:00:00 [rcuob/2]
1 S root        16     2  0  80   0 -     0 rcu_no     0   0 Aug15 ?        00:00:00 [rcuob/3]
1 S root        17     2  0 -40   - -     0 smpboo     0   0 Aug15 ?        00:00:04 [migration/0]
5 S root        18     2  0 -40   - -     0 smpboo     0   0 Aug15 ?        00:00:02 [watchdog/0]
5 S root        19     2  0 -40   - -     0 smpboo     0   1 Aug15 ?        00:00:02 [watchdog/1]
1 S root        20     2  0 -40   - -     0 smpboo     0   1 Aug15 ?        00:00:04 [migration/1]
1 S root        21     2  0  80   0 -     0 smpboo     0   1 Aug15 ?        00:00:03 [ksoftirqd/1]
1 S root        23     2  0  60 -20 -     0 worker     0   1 Aug15 ?        00:00:00 [kworker/1:0H]
5 S root        24     2  0 -40   - -     0 smpboo     0   2 Aug15 ?        00:00:01 [watchdog/2]
1 S root        25     2  0 -40   - -     0 smpboo     0   2 Aug15 ?        00:00:03 [migration/2]
1 S root        26     2  0  80   0 -     0 smpboo     0   2 Aug15 ?        00:00:00 [ksoftirqd/2]
1 S root        28     2  0  60 -20 -     0 worker     0   2 Aug15 ?        00:00:00 [kworker/2:0H]
5 S root        29     2  0 -40   - -     0 smpboo     0   3 Aug15 ?        00:00:01 [watchdog/3]
1 S root        30     2  0 -40   - -     0 smpboo     0   3 Aug15 ?        00:00:03 [migration/3]
1 S root        31     2  0  80   0 -     0 smpboo     0   3 Aug15 ?        00:00:00 [ksoftirqd/3]
1 S root        33     2  0  60 -20 -     0 worker     0   3 Aug15 ?        00:00:00 [kworker/3:0H]
1 S root        34     2  0  60 -20 -     0 rescue     0   3 Aug15 ?        00:00:00 [khelper]
5 S root        35     2  0  80   0 -     0 devtmp     0   2 Aug15 ?        00:00:00 [kdevtmpfs]
1 S root        36     2  0  60 -20 -     0 rescue     0   3 Aug15 ?        00:00:00 [netns]
1 S root        37     2  0  60 -20 -     0 rescue     0   3 Aug15 ?        00:00:00 [writeback]
1 S root        38     2  0  60 -20 -     0 rescue     0   1 Aug15 ?        00:00:00 [kintegrityd]
1 S root        39     2  0  60 -20 -     0 rescue     0   1 Aug15 ?        00:00:00 [bioset]
1 S root        40     2  0  60 -20 -     0 worker     0   1 Aug15 ?        00:00:00 [kworker/u9:0]
1 S root        41     2  0  60 -20 -     0 rescue     0   2 Aug15 ?        00:00:00 [kblockd]
1 S root        42     2  0  60 -20 -     0 rescue     0   2 Aug15 ?        00:00:00 [ata_sff]
1 S root        43     2  0  80   0 -     0 hub_th     0   2 Aug15 ?        00:00:00 [khubd]
1 S root        44     2  0  60 -20 -     0 rescue     0   2 Aug15 ?        00:00:00 [md]
1 S root        45     2  0  60 -20 -     0 rescue     0   3 Aug15 ?        00:00:00 [devfreq_wq]
1 S root        47     2  1  80   0 -     0 worker     0   1 Aug15 ?        02:28:09 [kworker/1:1]
1 S root        49     2  0  80   0 -     0 watchd     0   3 Aug15 ?        00:00:00 [khungtaskd]
1 S root        50     2  0  80   0 -     0 kswapd     0   3 Aug15 ?        00:00:00 [kswapd0]
1 S root        51     2  0  85   5 -     0 ksm_sc     0   3 Aug15 ?        00:00:00 [ksmd]
1 S root        52     2  0  99  19 -     0 khugep     0   3 Aug15 ?        00:00:03 [khugepaged]
1 S root        53     2  0  80   0 -     0 fsnoti     0   0 Aug15 ?        00:00:00 [fsnotify_mark]
1 S root        54     2  0  80   0 -     0 ecrypt     0   3 Aug15 ?        00:00:00 [ecryptfs-kthrea]
1 S root        55     2  0  60 -20 -     0 rescue     0   3 Aug15 ?        00:00:00 [crypto]
1 S root        67     2  0  60 -20 -     0 rescue     0   3 Aug15 ?        00:00:00 [kthrotld]
1 S root        87     2  0  60 -20 -     0 rescue     0   2 Aug15 ?        00:00:00 [deferwq]
1 S root        88     2  0  60 -20 -     0 rescue     0   2 Aug15 ?        00:00:00 [charger_manager]
1 S root       136     2  0  60 -20 -     0 rescue     0   1 Aug15 ?        00:00:00 [kpsmoused]
1 S root       137     2  0  60 -20 -     0 rescue     0   0 Aug15 ?        00:00:00 [ttm_swap]
1 S root       162     2  1  80   0 -     0 worker     0   0 Aug15 ?        01:45:36 [kworker/0:3]
1 S root       163     2  0  80   0 -     0 worker     0   3 Aug15 ?        00:59:34 [kworker/3:1]
1 S root       164     2  0  80   0 -     0 scsi_e     0   3 Aug15 ?        00:00:00 [scsi_eh_0]
1 S root       165     2  0  80   0 -     0 scsi_e     0   0 Aug15 ?        00:00:00 [scsi_eh_1]
1 S root       166     2  0  80   0 -     0 scsi_e     0   3 Aug15 ?        00:00:00 [scsi_eh_2]
1 S root       167     2  0  80   0 -     0 scsi_e     0   3 Aug15 ?        00:00:00 [scsi_eh_3]
1 S root       168     2  0  80   0 -     0 scsi_e     0   0 Aug15 ?        00:00:00 [scsi_eh_4]
1 S root       169     2  0  80   0 -     0 scsi_e     0   0 Aug15 ?        00:00:00 [scsi_eh_5]
1 S root       176     2  1  80   0 -     0 worker     0   2 Aug15 ?        01:40:14 [kworker/2:1]
1 S root       188     2  0  60 -20 -     0 rescue     0   3 Aug15 ?        00:00:00 [kdmflush]
1 S root       189     2  0  60 -20 -     0 rescue     0   2 Aug15 ?        00:00:00 [bioset]
1 S root       191     2  0  60 -20 -     0 rescue     0   2 Aug15 ?        00:00:00 [kdmflush]
1 S root       192     2  0  60 -20 -     0 rescue     0   0 Aug15 ?        00:00:00 [bioset]
1 S root       285     2  0  80   0 -     0 kjourn     0   0 Aug15 ?        00:00:00 [jbd2/dm-0-8]
1 S root       286     2  0  60 -20 -     0 rescue     0   0 Aug15 ?        00:00:00 [ext4-rsv-conver]
1 S root       454     1  0  80   0 -  4869 poll_s   652   0 Aug15 ?        00:00:00 upstart-udev-bridge --daemon
5 S root       459     1  0  80   0 - 12937 ep_pol  1984   0 Aug15 ?        00:00:00 /lib/systemd/systemd-udevd --daemon
1 S root       513     2  0   9   - -     0 irq_th     0   0 Aug15 ?        00:00:00 [irq/46-mei_me]
1 S root       542     2  0  60 -20 -     0 worker     0   3 Aug15 ?        00:00:00 [kworker/u9:1]
1 S root       581     2  0  60 -20 -     0 rescue     0   1 Aug15 ?        00:00:00 [kvm-irqfd-clean]
1 S root       582     2  0  60 -20 -     0 rescue     0   3 Aug15 ?        00:00:00 [hd-audio0]
1 S root       597     2  0  60 -20 -     0 rescue     0   0 Aug15 ?        00:00:00 [kmpathd]
1 S root       598     2  0  60 -20 -     0 rescue     0   1 Aug15 ?        00:00:00 [kmpath_handlerd]
1 S root       657     1  0  80   0 -  3815 poll_s   668   3 Aug15 ?        00:00:00 upstart-socket-bridge --daemon
1 S root       754     2  0  80   0 -     0 kaudit     0   3 Aug15 ?        00:00:00 [kauditd]
1 S root       868     2  0  60 -20 -     0 rescue     0   1 Aug15 ?        00:00:00 [ext4-rsv-conver]
4 S root       915     1  0  80   0 - 68176 poll_s  7860   3 Aug15 ?        00:00:09 smbd -F
5 S message+   951     1  0  80   0 - 10018 ep_pol  2084   1 Aug15 ?        00:00:01 dbus-daemon --system --fork
1 S root       961     1  0  80   0 -  3819 poll_s   636   2 Aug15 ?        00:00:00 upstart-file-bridge --daemon
4 S root       974     1  0  80   0 - 82566 poll_s  4924   3 Aug15 ?        00:00:00 /usr/sbin/ModemManager
5 S root       978     1  0  80   0 -  4823 poll_s  1460   3 Aug15 ?        00:00:00 /usr/sbin/bluetoothd
5 S root       989     2  0  70 -10 -     0 rfcomm     0   0 Aug15 ?        00:00:00 [krfcommd]
5 S avahi     1034     1  0  80   0 -  8396 poll_s  3112   0 Aug15 ?        00:13:20 avahi-daemon: running [Sulabesi.local]
1 S avahi     1039  1034  0  80   0 -  8056 unix_s   468   1 Aug15 ?        00:00:00 avahi-daemon: chroot helper
5 S syslog    1040     1  0  80   0 - 63961 poll_s  1860   3 Aug15 ?        00:00:00 rsyslogd
4 S root      1054     1  0  80   0 - 10863 ep_pol  1920   3 Aug15 ?        00:00:00 /lib/systemd/systemd-logind
5 S root      1137     1  0  80   0 - 88099 poll_s  6796   1 Aug15 ?        00:00:10 NetworkManager
4 S root      1160     1  0  80   0 - 73979 poll_s  7940   0 Aug15 ?        00:00:00 /usr/lib/policykit-1/polkitd --no-debug
5 S root      1221   915  0  80   0 - 68190 poll_s  4824   0 Aug15 ?        00:00:02 smbd -F
4 S root      1350     1  0  80   0 -  3955 n_tty_   952   1 Aug15 tty4     00:00:00 /sbin/getty -8 38400 tty4
4 S root      1352     1  0  80   0 -  3955 n_tty_   952   1 Aug15 tty5     00:00:00 /sbin/getty -8 38400 tty5
4 S root      1359     1  0  80   0 -  3955 n_tty_   952   1 Aug15 tty2     00:00:00 /sbin/getty -8 38400 tty2
4 S root      1360     1  0  80   0 -  3955 n_tty_   956   1 Aug15 tty3     00:00:00 /sbin/getty -8 38400 tty3
4 S root      1363     1  0  80   0 -  3955 n_tty_   948   1 Aug15 tty6     00:00:00 /sbin/getty -8 38400 tty6
4 S root      1382     1  0  80   0 - 15341 poll_s  3044   2 Aug15 ?        00:00:00 /usr/sbin/sshd -D
1 S root      1415     1  0  80   0 -  5914 hrtime  1032   3 Aug15 ?        00:00:00 cron
1 S root      1416     1  0  80   0 -  1092 poll_s   696   0 Aug15 ?        00:00:00 acpid -c /etc/acpi/events -s /var/run/acpid.socket
5 S root      1417     1  0  80   0 -  4797 hrtime   752   3 Aug15 ?        00:00:32 /usr/sbin/irqbalance
4 S root      1418     1  0  80   0 - 18338 poll_s  3600   0 Aug15 ?        00:00:00 /usr/sbin/cups-browsed
4 S root      1425     1  0  80   0 - 33230 poll_s  4200   1 Aug15 ?        00:00:00 mdm
1 S dictd     1559     1  0  80   0 - 13072 inet_c  8880   1 Aug15 ?        00:00:00 dictd 1.12.1: 0/0
1 S kernoops  1577     1  0  80   0 -  9286 poll_s  1008   0 Aug15 ?        00:00:04 /usr/sbin/kerneloops
1 S root      1597     2  0  60 -20 -     0 rescue     0   2 Aug15 ?        00:00:00 [iprt]
4 S root      1664     1  0  80   0 -  3955 n_tty_   952   3 Aug15 tty1     00:00:00 /sbin/getty -8 38400 tty1
4 S root      1699  1137  0  80   0 -  2558 poll_s  3700   1 Aug15 ?        00:00:18 /sbin/dhclient -d -sf /usr/lib/NetworkManager/nm-dhcp-client.action -pf /run/sendsigs.omit.d/network-manager.dhclient-eth0.pid -lf /var/lib/NetworkManager/dhclient-f0c86b13-bcf3-497f-a255-4688f695125a-eth0.lease -cf /var/lib/NetworkManager/dhclient-eth0.conf eth0
4 S nobody    1725  1137  0  80   0 -  7758 poll_s  1540   3 Aug15 ?        00:00:00 /usr/sbin/dnsmasq --no-resolv --keep-in-foreground --no-hosts --bind-interfaces --pid-file=/run/sendsigs.omit.d/network-manager.dnsmasq.pid --listen-address=127.0.1.1 --conf-file=/var/run/NetworkManager/dnsmasq.conf --cache-size=0 --proxy-dnssec --enable-dbus=org.freedesktop.NetworkManager.dnsmasq --conf-dir=/etc/NetworkManager/dnsmasq.d
5 S root      1870     1  0  80   0 - 47862 poll_s  2776   0 Aug15 ?        00:00:04 nmbd -D
4 S root      1921     1  0  80   0 - 525656 poll_s 4196   3 Aug15 ?        00:00:00 /usr/sbin/console-kit-daemon --no-daemon
4 S rtkit     2261     1  0  81   1 - 42229 poll_s  1320   3 Aug15 ?        00:00:06 /usr/lib/rtkit/rtkit-daemon
4 S root      2273     1  0  80   0 - 59841 poll_s  4584   2 Aug15 ?        00:00:02 /usr/lib/upower/upowerd
4 S root      2442     1  0  80   0 - 96565 poll_s  8548   0 Aug15 ?        00:00:51 /usr/lib/udisks2/udisksd --no-debug
4 S colord    2466     1  0  80   0 - 77768 poll_s  8408   1 Aug15 ?        00:00:00 /usr/lib/colord/colord
1 S callum    2768     1  0  80   0 -  6837 poll_s  1788   3 Aug15 ?        00:00:00 SCREEN
0 S callum    2769  2768  0  80   0 - 13810 sigsus 15144   0 Aug15 pts/2    00:00:00 /bin/zsh
5 S root      3115  1425  0  80   0 - 48315 pipe_w  4544   3 Aug15 ?        00:00:00 mdm
4 S root      3120  3115 28  80   0 - 54592 poll_s 40012   2 Aug15 tty8     1-22:53:18 /usr/bin/X :0 -audit 0 -auth /var/lib/mdm/:0.Xauth -nolisten tcp vt8
4 S mdm       3130  3115 16  80   0 - 625674 poll_s 154080 1 Aug15 ?        1-03:04:13 /usr/lib/mdm/mdmwebkit
1 S mdm       3163     1  0  80   0 -  6143 poll_s   592   3 Aug15 ?        00:00:00 dbus-launch --autolaunch=c5eecb21099843cdb66b8a3e53a16a25 --binary-syntax --close-stderr
1 S mdm       3166     1  0  80   0 -  9779 ep_pol  1004   0 Aug15 ?        00:00:00 //bin/dbus-daemon --fork --print-pid 5 --print-address 7 --session
4 S root     27573     1  0  80   0 - 18998 ep_pol  5244   3 08:05 ?        00:00:00 /usr/sbin/cupsd -f
0 S callum   28034  2769  0  80   0 - 46909 futex_ 11960   1 09:09 pts/2    00:00:00 ./dacapo_iteration_length ../../data/saved/iteration_length_input.csv
1 S root     28397     2  0  80   0 -     0 worker     0   1 09:10 ?        00:00:00 [kworker/1:0]
1 S root     30514     2  0  80   0 -     0 worker     0   3 09:43 ?        00:00:00 [kworker/u8:0]
1 S root     31155     2  0  80   0 -     0 worker     0   1 09:53 ?        00:00:00 [kworker/u8:2]
1 S root     31350     2  0  80   0 -     0 worker     0   3 10:09 ?        00:00:08 [kworker/3:2]
1 S root     31410     2  0  80   0 -     0 worker     0   2 10:09 ?        00:00:00 [kworker/2:0]
1 S root     31434     2  0  80   0 -     0 worker     0   0 10:09 ?        00:00:00 [kworker/0:1]
1 S root     32239     2  0  80   0 -     0 worker     0   3 10:36 ?        00:00:00 [kworker/u8:1]
0 R callum   32263 28034  0  80   0 -  4615 -       1308   3 10:38 pts/2    00:00:00 ps -elFww
