economemd
    total memory: 7410 MB
    timer interval: 10 s
    timer start state: running
    utility model: root

    caches:
        lru

    force utility function validity: yes
    make recommendations: yes
    equal recommendations: no

    reading receiver name: vengerov
    command receiver name: vengerov

    dump file: economemd.dump.log
    log file: /home/callum/economics_memory_code/dynamic_sizing/data/output/timerComparisonMany_2014_10_07_10_29_12/sub14_timerComparisonSingle/sub3_timeBenchmarkDaemon/daemon_run06_log.txt
    log readings: yes
    log functions: yes

PyOptimiser: initialising...
PyOptimiser: initialised
CommandThread: starting
TimerThread: starting
ReadingThread: starting
Recommendation: no clients; no recommendation
Recommendation: no clients; no recommendation
Reading from 1596: heap size 9 MB, throughput 0.989752
Clients: 1
Client 1596 has a minimum heap size of 12 MB
Reading from 1595: heap size 9 MB, throughput 0.992341
Clients: 2
Client 1595 has a minimum heap size of 1223 MB
Reading from 1595: heap size 9 MB, throughput 0.987838
Reading from 1596: heap size 9 MB, throughput 0.96895
Reading from 1596: heap size 9 MB, throughput 0.968528
Reading from 1595: heap size 9 MB, throughput 0.977058
Reading from 1595: heap size 9 MB, throughput 0.964633
Reading from 1596: heap size 9 MB, throughput 0.973313
Reading from 1596: heap size 11 MB, throughput 0.972942
Reading from 1595: heap size 11 MB, throughput 0.978195
Reading from 1596: heap size 11 MB, throughput 0.969171
Reading from 1595: heap size 11 MB, throughput 0.984763
Reading from 1596: heap size 16 MB, throughput 0.964805
Reading from 1595: heap size 17 MB, throughput 0.951025
Reading from 1595: heap size 17 MB, throughput 0.906102
Reading from 1595: heap size 30 MB, throughput 0.746778
Reading from 1596: heap size 16 MB, throughput 0.983077
Reading from 1595: heap size 31 MB, throughput 0.431866
Reading from 1595: heap size 35 MB, throughput 0.722391
Reading from 1595: heap size 46 MB, throughput 0.421363
Reading from 1596: heap size 24 MB, throughput 0.989143
Reading from 1595: heap size 49 MB, throughput 0.512438
Reading from 1595: heap size 63 MB, throughput 0.365894
Reading from 1595: heap size 68 MB, throughput 0.352271
Reading from 1596: heap size 25 MB, throughput 0.958412
Reading from 1595: heap size 70 MB, throughput 0.469115
Reading from 1596: heap size 39 MB, throughput 0.84659
Reading from 1595: heap size 100 MB, throughput 0.579748
Reading from 1596: heap size 40 MB, throughput 0.985354
Reading from 1595: heap size 100 MB, throughput 0.397637
Reading from 1595: heap size 132 MB, throughput 0.714799
Reading from 1596: heap size 46 MB, throughput 0.86799
Reading from 1595: heap size 132 MB, throughput 0.710462
Reading from 1595: heap size 134 MB, throughput 0.44018
Reading from 1596: heap size 47 MB, throughput 0.917239
Reading from 1595: heap size 137 MB, throughput 0.338101
Reading from 1596: heap size 55 MB, throughput 0.944672
Reading from 1596: heap size 56 MB, throughput 0.970325
Reading from 1595: heap size 140 MB, throughput 0.403664
Reading from 1596: heap size 65 MB, throughput 0.983577
Reading from 1595: heap size 176 MB, throughput 0.269021
Reading from 1595: heap size 181 MB, throughput 0.0958095
Reading from 1596: heap size 66 MB, throughput 0.979933
Reading from 1595: heap size 185 MB, throughput 0.674053
Reading from 1596: heap size 74 MB, throughput 0.965733
Reading from 1595: heap size 194 MB, throughput 0.674313
Reading from 1595: heap size 197 MB, throughput 0.677495
Reading from 1596: heap size 74 MB, throughput 0.931775
Reading from 1595: heap size 200 MB, throughput 0.37855
Reading from 1595: heap size 254 MB, throughput 0.641664
Reading from 1595: heap size 261 MB, throughput 0.649004
Reading from 1596: heap size 84 MB, throughput 0.971639
Reading from 1595: heap size 263 MB, throughput 0.61891
Reading from 1595: heap size 267 MB, throughput 0.606751
Reading from 1595: heap size 275 MB, throughput 0.596502
Reading from 1596: heap size 86 MB, throughput 0.985191
Reading from 1595: heap size 282 MB, throughput 0.390796
Reading from 1595: heap size 332 MB, throughput 0.558087
Reading from 1595: heap size 343 MB, throughput 0.631475
Reading from 1596: heap size 96 MB, throughput 0.990319
Reading from 1595: heap size 344 MB, throughput 0.668692
Reading from 1595: heap size 348 MB, throughput 0.669459
Reading from 1595: heap size 355 MB, throughput 0.638458
Reading from 1595: heap size 359 MB, throughput 0.583819
Reading from 1595: heap size 370 MB, throughput 0.59557
Reading from 1596: heap size 97 MB, throughput 0.994166
Reading from 1595: heap size 377 MB, throughput 0.391377
Reading from 1596: heap size 105 MB, throughput 0.992741
Reading from 1595: heap size 430 MB, throughput 0.56433
Reading from 1595: heap size 439 MB, throughput 0.603284
Reading from 1595: heap size 440 MB, throughput 0.582077
Reading from 1595: heap size 442 MB, throughput 0.566489
Reading from 1595: heap size 448 MB, throughput 0.576545
Reading from 1595: heap size 453 MB, throughput 0.596849
Reading from 1596: heap size 107 MB, throughput 0.993206
Reading from 1595: heap size 459 MB, throughput 0.337675
Numeric result:
Recommendation: 2 clients, utility 0.761341:
    h1: 6187 MB (U(h) = 0.932829*h^0.00775113)
    h2: 1223 MB (U(h) = 0.757359*h^0.001)
Recommendation: 2 clients, utility 0.761341:
    h1: 6187 MB (U(h) = 0.932829*h^0.00775113)
    h2: 1223 MB (U(h) = 0.757359*h^0.001)
Reading from 1596: heap size 115 MB, throughput 0.990926
Reading from 1595: heap size 514 MB, throughput 0.471243
Reading from 1595: heap size 439 MB, throughput 0.478222
Reading from 1596: heap size 115 MB, throughput 0.992381
Reading from 1595: heap size 507 MB, throughput 0.19446
Reading from 1595: heap size 566 MB, throughput 0.458936
Reading from 1596: heap size 122 MB, throughput 0.990988
Reading from 1595: heap size 553 MB, throughput 0.506921
Reading from 1595: heap size 561 MB, throughput 0.520131
Reading from 1595: heap size 564 MB, throughput 0.576272
Reading from 1595: heap size 566 MB, throughput 0.551604
Reading from 1595: heap size 568 MB, throughput 0.55749
Reading from 1596: heap size 123 MB, throughput 0.993694
Reading from 1595: heap size 578 MB, throughput 0.550401
Reading from 1595: heap size 585 MB, throughput 0.55772
Reading from 1596: heap size 130 MB, throughput 0.990744
Reading from 1595: heap size 593 MB, throughput 0.354026
Reading from 1595: heap size 653 MB, throughput 0.523585
Reading from 1595: heap size 660 MB, throughput 0.549001
Reading from 1596: heap size 131 MB, throughput 0.989743
Reading from 1595: heap size 664 MB, throughput 0.793982
Reading from 1596: heap size 137 MB, throughput 0.990337
Reading from 1595: heap size 667 MB, throughput 0.824987
Reading from 1595: heap size 669 MB, throughput 0.828717
Reading from 1596: heap size 138 MB, throughput 0.987077
Reading from 1595: heap size 680 MB, throughput 0.802645
Reading from 1596: heap size 144 MB, throughput 0.990556
Reading from 1596: heap size 144 MB, throughput 0.993176
Reading from 1595: heap size 687 MB, throughput 0.48101
Reading from 1595: heap size 758 MB, throughput 0.604956
Reading from 1595: heap size 763 MB, throughput 0.5497
Reading from 1595: heap size 678 MB, throughput 0.471782
Reading from 1596: heap size 149 MB, throughput 0.995417
Reading from 1595: heap size 748 MB, throughput 0.192991
Numeric result:
Recommendation: 2 clients, utility 0.728321:
    h1: 6187 MB (U(h) = 0.906523*h^0.0163295)
    h2: 1223 MB (U(h) = 0.691741*h^0.001)
Recommendation: 2 clients, utility 0.728321:
    h1: 6187 MB (U(h) = 0.906523*h^0.0163295)
    h2: 1223 MB (U(h) = 0.691741*h^0.001)
Reading from 1595: heap size 826 MB, throughput 0.362862
Reading from 1595: heap size 825 MB, throughput 0.401684
Reading from 1596: heap size 149 MB, throughput 0.996654
Reading from 1595: heap size 826 MB, throughput 0.766162
Reading from 1595: heap size 822 MB, throughput 0.708313
Reading from 1595: heap size 826 MB, throughput 0.67381
Reading from 1596: heap size 153 MB, throughput 0.997456
Reading from 1595: heap size 827 MB, throughput 0.315973
Reading from 1596: heap size 154 MB, throughput 0.997536
Reading from 1595: heap size 905 MB, throughput 0.685618
Reading from 1595: heap size 908 MB, throughput 0.714353
Reading from 1595: heap size 910 MB, throughput 0.809688
Reading from 1596: heap size 157 MB, throughput 0.997208
Reading from 1595: heap size 915 MB, throughput 0.404546
Reading from 1595: heap size 998 MB, throughput 0.899338
Reading from 1596: heap size 157 MB, throughput 0.991663
Reading from 1595: heap size 1004 MB, throughput 0.911922
Reading from 1595: heap size 1005 MB, throughput 0.904799
Reading from 1596: heap size 164 MB, throughput 0.99477
Reading from 1595: heap size 987 MB, throughput 0.821604
Reading from 1595: heap size 823 MB, throughput 0.790081
Reading from 1595: heap size 973 MB, throughput 0.809127
Reading from 1595: heap size 829 MB, throughput 0.819303
Reading from 1595: heap size 961 MB, throughput 0.83178
Reading from 1596: heap size 165 MB, throughput 0.995857
Reading from 1595: heap size 834 MB, throughput 0.839549
Reading from 1595: heap size 949 MB, throughput 0.827122
Reading from 1595: heap size 840 MB, throughput 0.828332
Reading from 1595: heap size 941 MB, throughput 0.84415
Reading from 1595: heap size 846 MB, throughput 0.822334
Reading from 1596: heap size 173 MB, throughput 0.997222
Reading from 1595: heap size 933 MB, throughput 0.932279
Reading from 1596: heap size 174 MB, throughput 0.997586
Reading from 1595: heap size 940 MB, throughput 0.973487
Reading from 1595: heap size 939 MB, throughput 0.949937
Reading from 1595: heap size 943 MB, throughput 0.912161
Reading from 1595: heap size 946 MB, throughput 0.881079
Reading from 1596: heap size 180 MB, throughput 0.997912
Reading from 1595: heap size 947 MB, throughput 0.857874
Reading from 1595: heap size 949 MB, throughput 0.846254
Reading from 1595: heap size 950 MB, throughput 0.837356
Reading from 1595: heap size 952 MB, throughput 0.836052
Reading from 1595: heap size 954 MB, throughput 0.836878
Numeric result:
Recommendation: 2 clients, utility 0.719554:
    h1: 1792.22 MB (U(h) = 0.897128*h^0.0192818)
    h2: 5617.78 MB (U(h) = 0.412055*h^0.0604131)
Recommendation: 2 clients, utility 0.719554:
    h1: 1792.81 MB (U(h) = 0.897128*h^0.0192818)
    h2: 5617.19 MB (U(h) = 0.412055*h^0.0604131)
Reading from 1595: heap size 955 MB, throughput 0.883137
Reading from 1596: heap size 181 MB, throughput 0.997862
Reading from 1595: heap size 957 MB, throughput 0.877581
Reading from 1595: heap size 953 MB, throughput 0.902854
Reading from 1595: heap size 957 MB, throughput 0.873627
Reading from 1595: heap size 953 MB, throughput 0.806136
Reading from 1596: heap size 187 MB, throughput 0.997975
Reading from 1596: heap size 187 MB, throughput 0.997778
Reading from 1595: heap size 957 MB, throughput 0.717164
Reading from 1595: heap size 1087 MB, throughput 0.669098
Reading from 1595: heap size 1091 MB, throughput 0.69903
Reading from 1595: heap size 1095 MB, throughput 0.728315
Reading from 1596: heap size 192 MB, throughput 0.997978
Reading from 1595: heap size 1097 MB, throughput 0.683543
Reading from 1595: heap size 1100 MB, throughput 0.696838
Reading from 1595: heap size 1103 MB, throughput 0.683953
Reading from 1595: heap size 1107 MB, throughput 0.528409
Reading from 1595: heap size 1110 MB, throughput 0.667085
Reading from 1596: heap size 193 MB, throughput 0.997846
Reading from 1596: heap size 199 MB, throughput 0.997994
Reading from 1595: heap size 1124 MB, throughput 0.903872
Reading from 1596: heap size 199 MB, throughput 0.997899
Reading from 1596: heap size 204 MB, throughput 0.997665
Numeric result:
Recommendation: 2 clients, utility 1.11617:
    h1: 583.57 MB (U(h) = 0.894338*h^0.0201301)
    h2: 6826.43 MB (U(h) = 0.137289*h^0.235489)
Recommendation: 2 clients, utility 1.11617:
    h1: 583.54 MB (U(h) = 0.894338*h^0.0201301)
    h2: 6826.46 MB (U(h) = 0.137289*h^0.235489)
Reading from 1595: heap size 1126 MB, throughput 0.958507
Reading from 1596: heap size 204 MB, throughput 0.997594
Reading from 1596: heap size 209 MB, throughput 0.997638
Reading from 1596: heap size 210 MB, throughput 0.983974
Reading from 1596: heap size 215 MB, throughput 0.96817
Reading from 1595: heap size 1139 MB, throughput 0.954853
Reading from 1596: heap size 216 MB, throughput 0.982062
Reading from 1596: heap size 229 MB, throughput 0.990867
Reading from 1595: heap size 1141 MB, throughput 0.970135
Reading from 1596: heap size 231 MB, throughput 0.993955
Reading from 1596: heap size 241 MB, throughput 0.996123
Numeric result:
Recommendation: 2 clients, utility 1.25212:
    h1: 457.121 MB (U(h) = 0.899817*h^0.0185169)
    h2: 6952.88 MB (U(h) = 0.102794*h^0.281682)
Recommendation: 2 clients, utility 1.25212:
    h1: 457.063 MB (U(h) = 0.899817*h^0.0185169)
    h2: 6952.94 MB (U(h) = 0.102794*h^0.281682)
Reading from 1595: heap size 1153 MB, throughput 0.972256
Reading from 1596: heap size 243 MB, throughput 0.997062
Reading from 1596: heap size 252 MB, throughput 0.997115
Reading from 1595: heap size 1158 MB, throughput 0.970424
Reading from 1596: heap size 254 MB, throughput 0.997325
Reading from 1596: heap size 263 MB, throughput 0.997713
Reading from 1595: heap size 1169 MB, throughput 0.975596
Reading from 1596: heap size 263 MB, throughput 0.997709
Reading from 1596: heap size 271 MB, throughput 0.997617
Numeric result:
Recommendation: 2 clients, utility 1.41484:
    h1: 393.246 MB (U(h) = 0.899736*h^0.0185401)
    h2: 7016.75 MB (U(h) = 0.0751768*h^0.330827)
Recommendation: 2 clients, utility 1.41484:
    h1: 393.231 MB (U(h) = 0.899736*h^0.0185401)
    h2: 7016.77 MB (U(h) = 0.0751768*h^0.330827)
Reading from 1595: heap size 1172 MB, throughput 0.969725
Reading from 1596: heap size 272 MB, throughput 0.994357
Reading from 1596: heap size 280 MB, throughput 0.994642
Reading from 1596: heap size 280 MB, throughput 0.996194
Reading from 1595: heap size 1166 MB, throughput 0.974775
Reading from 1596: heap size 290 MB, throughput 0.994882
Reading from 1596: heap size 290 MB, throughput 0.995058
Reading from 1595: heap size 1171 MB, throughput 0.976
Reading from 1596: heap size 298 MB, throughput 0.996293
Numeric result:
Recommendation: 2 clients, utility 1.58623:
    h1: 339.532 MB (U(h) = 0.901007*h^0.0181888)
    h2: 7070.47 MB (U(h) = 0.0551675*h^0.378735)
Recommendation: 2 clients, utility 1.58623:
    h1: 339.559 MB (U(h) = 0.901007*h^0.0181888)
    h2: 7070.44 MB (U(h) = 0.0551675*h^0.378735)
Reading from 1595: heap size 1170 MB, throughput 0.977959
Reading from 1596: heap size 299 MB, throughput 0.99699
Reading from 1596: heap size 308 MB, throughput 0.997539
Reading from 1595: heap size 1172 MB, throughput 0.979306
Reading from 1596: heap size 308 MB, throughput 0.99631
Reading from 1596: heap size 316 MB, throughput 0.997198
Reading from 1595: heap size 1175 MB, throughput 0.973722
Reading from 1596: heap size 316 MB, throughput 0.994789
Numeric result:
Recommendation: 2 clients, utility 1.58358:
    h1: 338.42 MB (U(h) = 0.901815*h^0.017969)
    h2: 7071.58 MB (U(h) = 0.0567385*h^0.375421)
Recommendation: 2 clients, utility 1.58358:
    h1: 338.469 MB (U(h) = 0.901815*h^0.017969)
    h2: 7071.53 MB (U(h) = 0.0567385*h^0.375421)
Reading from 1596: heap size 331 MB, throughput 0.997514
Reading from 1595: heap size 1177 MB, throughput 0.976327
Reading from 1596: heap size 332 MB, throughput 0.998292
Reading from 1596: heap size 344 MB, throughput 0.998663
Reading from 1595: heap size 1180 MB, throughput 0.97754
Reading from 1596: heap size 326 MB, throughput 0.99867
Reading from 1596: heap size 340 MB, throughput 0.998834
Numeric result:
Recommendation: 2 clients, utility 1.45037:
    h1: 374.74 MB (U(h) = 0.902826*h^0.0176987)
    h2: 7035.26 MB (U(h) = 0.0762589*h^0.332191)
Recommendation: 2 clients, utility 1.45037:
    h1: 374.824 MB (U(h) = 0.902826*h^0.0176987)
    h2: 7035.18 MB (U(h) = 0.0762589*h^0.332191)
Reading from 1595: heap size 1183 MB, throughput 0.97819
Reading from 1596: heap size 322 MB, throughput 0.998831
Reading from 1596: heap size 308 MB, throughput 0.998966
Reading from 1595: heap size 1186 MB, throughput 0.978308
Reading from 1596: heap size 299 MB, throughput 0.998949
Reading from 1596: heap size 281 MB, throughput 0.991793
Reading from 1596: heap size 296 MB, throughput 0.994986
Reading from 1595: heap size 1191 MB, throughput 0.945512
Numeric result:
Recommendation: 2 clients, utility 1.66281:
    h1: 317.01 MB (U(h) = 0.90329*h^0.0175697)
    h2: 7092.99 MB (U(h) = 0.0509533*h^0.393136)
Recommendation: 2 clients, utility 1.66281:
    h1: 316.994 MB (U(h) = 0.90329*h^0.0175697)
    h2: 7093.01 MB (U(h) = 0.0509533*h^0.393136)
Reading from 1596: heap size 307 MB, throughput 0.995769
Reading from 1596: heap size 318 MB, throughput 0.997351
Reading from 1595: heap size 1262 MB, throughput 0.986464
Reading from 1596: heap size 304 MB, throughput 0.997935
Reading from 1596: heap size 315 MB, throughput 0.997816
Reading from 1595: heap size 1265 MB, throughput 0.990423
Reading from 1596: heap size 318 MB, throughput 0.997951
Numeric result:
Recommendation: 2 clients, utility 1.85865:
    h1: 279.954 MB (U(h) = 0.903703*h^0.0174576)
    h2: 7130.05 MB (U(h) = 0.0360838*h^0.444614)
Recommendation: 2 clients, utility 1.85865:
    h1: 279.958 MB (U(h) = 0.903703*h^0.0174576)
    h2: 7130.04 MB (U(h) = 0.0360838*h^0.444614)
Reading from 1596: heap size 302 MB, throughput 0.995743
Reading from 1595: heap size 1273 MB, throughput 0.990762
Reading from 1596: heap size 288 MB, throughput 0.996192
Reading from 1596: heap size 276 MB, throughput 0.99698
Reading from 1596: heap size 284 MB, throughput 0.985474
Reading from 1595: heap size 1278 MB, throughput 0.988751
Reading from 1596: heap size 275 MB, throughput 0.992884
Reading from 1596: heap size 292 MB, throughput 0.994749
Reading from 1595: heap size 1280 MB, throughput 0.989437
Reading from 1596: heap size 279 MB, throughput 0.996364
Numeric result:
Recommendation: 2 clients, utility 2.21684:
    h1: 233.677 MB (U(h) = 0.904698*h^0.0171805)
    h2: 7176.32 MB (U(h) = 0.0206117*h^0.527613)
Recommendation: 2 clients, utility 2.21684:
    h1: 233.68 MB (U(h) = 0.904698*h^0.0171805)
    h2: 7176.32 MB (U(h) = 0.0206117*h^0.527613)
Reading from 1596: heap size 295 MB, throughput 0.997428
Reading from 1595: heap size 1172 MB, throughput 0.989176
Reading from 1596: heap size 279 MB, throughput 0.995584
Reading from 1596: heap size 266 MB, throughput 0.995553
Reading from 1595: heap size 1270 MB, throughput 0.988385
Reading from 1596: heap size 254 MB, throughput 0.996447
Reading from 1596: heap size 242 MB, throughput 0.996746
Reading from 1596: heap size 232 MB, throughput 0.997099
Reading from 1595: heap size 1190 MB, throughput 0.986286
Numeric result:
Recommendation: 2 clients, utility 2.31405:
    h1: 226.057 MB (U(h) = 0.90459*h^0.0172158)
    h2: 7183.94 MB (U(h) = 0.0180944*h^0.547108)
Recommendation: 2 clients, utility 2.31405:
    h1: 226.057 MB (U(h) = 0.90459*h^0.0172158)
    h2: 7183.94 MB (U(h) = 0.0180944*h^0.547108)
Reading from 1596: heap size 242 MB, throughput 0.997375
Reading from 1596: heap size 232 MB, throughput 0.995784
Reading from 1596: heap size 224 MB, throughput 0.995168
Reading from 1595: heap size 1257 MB, throughput 0.985786
Reading from 1596: heap size 237 MB, throughput 0.991569
Reading from 1596: heap size 225 MB, throughput 0.988989
Reading from 1596: heap size 236 MB, throughput 0.99385
Reading from 1595: heap size 1207 MB, throughput 0.984953
Reading from 1596: heap size 227 MB, throughput 0.995453
Reading from 1596: heap size 218 MB, throughput 0.996759
Numeric result:
Recommendation: 2 clients, utility 2.61919:
    h1: 204.418 MB (U(h) = 0.90457*h^0.0172251)
    h2: 7205.58 MB (U(h) = 0.0120111*h^0.607191)
Recommendation: 2 clients, utility 2.61919:
    h1: 204.412 MB (U(h) = 0.90457*h^0.0172251)
    h2: 7205.59 MB (U(h) = 0.0120111*h^0.607191)
Reading from 1596: heap size 226 MB, throughput 0.997443
Reading from 1595: heap size 1261 MB, throughput 0.984556
Reading from 1596: heap size 216 MB, throughput 0.997417
Reading from 1596: heap size 207 MB, throughput 0.997508
Reading from 1596: heap size 199 MB, throughput 0.997204
Reading from 1595: heap size 1262 MB, throughput 0.982906
Reading from 1596: heap size 207 MB, throughput 0.997582
Reading from 1596: heap size 199 MB, throughput 0.99752
Reading from 1596: heap size 206 MB, throughput 0.996719
Reading from 1596: heap size 199 MB, throughput 0.967239
Reading from 1595: heap size 1263 MB, throughput 0.980901
Reading from 1596: heap size 211 MB, throughput 0.965409
Numeric result:
Recommendation: 2 clients, utility 3.03133:
    h1: 182.524 MB (U(h) = 0.90471*h^0.0171544)
    h2: 7227.48 MB (U(h) = 0.00732801*h^0.679284)
Recommendation: 2 clients, utility 3.03133:
    h1: 182.521 MB (U(h) = 0.90471*h^0.0171544)
    h2: 7227.48 MB (U(h) = 0.00732801*h^0.679284)
Reading from 1596: heap size 203 MB, throughput 0.986217
Reading from 1596: heap size 194 MB, throughput 0.991228
Reading from 1596: heap size 186 MB, throughput 0.994312
Reading from 1595: heap size 1267 MB, throughput 0.978919
Reading from 1596: heap size 179 MB, throughput 0.99587
Reading from 1596: heap size 187 MB, throughput 0.996717
Reading from 1596: heap size 180 MB, throughput 0.996719
Reading from 1595: heap size 1269 MB, throughput 0.978077
Reading from 1596: heap size 188 MB, throughput 0.996735
Reading from 1596: heap size 181 MB, throughput 0.996656
Numeric result:
Recommendation: 2 clients, utility 3.47377:
    h1: 166.548 MB (U(h) = 0.904734*h^0.017175)
    h2: 7243.45 MB (U(h) = 0.00459954*h^0.747008)
Recommendation: 2 clients, utility 3.47377:
    h1: 166.54 MB (U(h) = 0.904734*h^0.017175)
    h2: 7243.46 MB (U(h) = 0.00459954*h^0.747008)
Reading from 1596: heap size 189 MB, throughput 0.996702
Reading from 1596: heap size 181 MB, throughput 0.996714
Reading from 1595: heap size 1276 MB, throughput 0.976254
Reading from 1596: heap size 174 MB, throughput 0.99702
Reading from 1596: heap size 168 MB, throughput 0.996596
Reading from 1596: heap size 162 MB, throughput 0.989256
Reading from 1596: heap size 168 MB, throughput 0.980938
Reading from 1595: heap size 1281 MB, throughput 0.976554
Reading from 1596: heap size 161 MB, throughput 0.980078
Reading from 1596: heap size 171 MB, throughput 0.983693
Reading from 1596: heap size 166 MB, throughput 0.996591
Reading from 1596: heap size 177 MB, throughput 0.995884
Reading from 1596: heap size 169 MB, throughput 0.997046
Reading from 1595: heap size 1287 MB, throughput 0.975953
Numeric result:
Recommendation: 2 clients, utility 3.83499:
    h1: 160.289 MB (U(h) = 0.90362*h^0.0176155)
    h2: 7249.71 MB (U(h) = 0.00325947*h^0.796771)
Recommendation: 2 clients, utility 3.83499:
    h1: 160.282 MB (U(h) = 0.90362*h^0.0176155)
    h2: 7249.72 MB (U(h) = 0.00325947*h^0.796771)
Reading from 1596: heap size 163 MB, throughput 0.99795
Reading from 1596: heap size 157 MB, throughput 0.997839
Reading from 1596: heap size 151 MB, throughput 0.998092
Reading from 1596: heap size 150 MB, throughput 0.997805
Reading from 1595: heap size 1292 MB, throughput 0.97647
Reading from 1596: heap size 140 MB, throughput 0.997841
Reading from 1596: heap size 139 MB, throughput 0.997489
Reading from 1596: heap size 130 MB, throughput 0.997828
Reading from 1596: heap size 130 MB, throughput 0.997872
Reading from 1596: heap size 121 MB, throughput 0.997812
Reading from 1596: heap size 121 MB, throughput 0.997594
Reading from 1595: heap size 1295 MB, throughput 0.976535
Reading from 1596: heap size 113 MB, throughput 0.997449
Reading from 1596: heap size 113 MB, throughput 0.997616
Reading from 1596: heap size 106 MB, throughput 0.997674
Reading from 1596: heap size 106 MB, throughput 0.997162
Numeric result:
Recommendation: 2 clients, utility 4.33845:
    h1: 22.1656 MB (U(h) = 0.980829*h^0.00255541)
    h2: 7387.83 MB (U(h) = 0.00222482*h^0.851749)
Recommendation: 2 clients, utility 4.33845:
    h1: 22.1649 MB (U(h) = 0.980829*h^0.00255541)
    h2: 7387.84 MB (U(h) = 0.00222482*h^0.851749)
Reading from 1596: heap size 100 MB, throughput 0.997049
Reading from 1596: heap size 90 MB, throughput 0.996694
Reading from 1596: heap size 78 MB, throughput 0.996707
Reading from 1596: heap size 74 MB, throughput 0.996424
Reading from 1595: heap size 1301 MB, throughput 0.977154
Reading from 1596: heap size 67 MB, throughput 0.996225
Reading from 1596: heap size 65 MB, throughput 0.995461
Reading from 1596: heap size 60 MB, throughput 0.994967
Reading from 1596: heap size 59 MB, throughput 0.994306
Reading from 1596: heap size 55 MB, throughput 0.994267
Reading from 1596: heap size 55 MB, throughput 0.994194
Reading from 1596: heap size 52 MB, throughput 0.994239
Reading from 1596: heap size 52 MB, throughput 0.992907
Reading from 1596: heap size 49 MB, throughput 0.992874
Reading from 1596: heap size 49 MB, throughput 0.986815
Reading from 1596: heap size 48 MB, throughput 0.981679
Reading from 1596: heap size 47 MB, throughput 0.978664
Reading from 1596: heap size 45 MB, throughput 0.970438
Reading from 1596: heap size 45 MB, throughput 0.970015
Reading from 1596: heap size 45 MB, throughput 0.963453
Reading from 1596: heap size 45 MB, throughput 0.961631
Reading from 1596: heap size 44 MB, throughput 0.949221
Reading from 1596: heap size 44 MB, throughput 0.916453
Reading from 1596: heap size 43 MB, throughput 0.911785
Reading from 1596: heap size 42 MB, throughput 0.915245
Reading from 1596: heap size 41 MB, throughput 0.900171
Reading from 1596: heap size 41 MB, throughput 0.912605
Reading from 1596: heap size 40 MB, throughput 0.915637
Reading from 1596: heap size 41 MB, throughput 0.920276
Reading from 1596: heap size 39 MB, throughput 0.922329
Reading from 1596: heap size 41 MB, throughput 0.931442
Reading from 1596: heap size 39 MB, throughput 0.925415
Reading from 1596: heap size 41 MB, throughput 0.958266
Reading from 1596: heap size 39 MB, throughput 0.974126
Reading from 1596: heap size 40 MB, throughput 0.981019
Reading from 1596: heap size 39 MB, throughput 0.980644
Reading from 1596: heap size 40 MB, throughput 0.984274
Reading from 1596: heap size 39 MB, throughput 0.986243
Reading from 1596: heap size 40 MB, throughput 0.985121
Reading from 1596: heap size 39 MB, throughput 0.986444
Reading from 1596: heap size 40 MB, throughput 0.987052
Reading from 1596: heap size 39 MB, throughput 0.987355
Reading from 1596: heap size 40 MB, throughput 0.985971
Reading from 1596: heap size 39 MB, throughput 0.986397
Reading from 1596: heap size 40 MB, throughput 0.988001
Reading from 1595: heap size 1302 MB, throughput 0.97651
Reading from 1596: heap size 39 MB, throughput 0.986868
Reading from 1596: heap size 40 MB, throughput 0.9823
Reading from 1596: heap size 39 MB, throughput 0.983122
Reading from 1596: heap size 40 MB, throughput 0.984938
Reading from 1596: heap size 39 MB, throughput 0.985065
Reading from 1596: heap size 39 MB, throughput 0.984194
Reading from 1596: heap size 39 MB, throughput 0.983776
Reading from 1596: heap size 39 MB, throughput 0.98575
Reading from 1596: heap size 39 MB, throughput 0.987255
Reading from 1596: heap size 39 MB, throughput 0.986495
Reading from 1596: heap size 39 MB, throughput 0.985892
Reading from 1596: heap size 39 MB, throughput 0.985947
Reading from 1596: heap size 39 MB, throughput 0.987081
Reading from 1596: heap size 39 MB, throughput 0.986992
Reading from 1596: heap size 39 MB, throughput 0.987901
Reading from 1596: heap size 39 MB, throughput 0.986742
Reading from 1596: heap size 39 MB, throughput 0.986974
Reading from 1596: heap size 39 MB, throughput 0.986352
Reading from 1596: heap size 39 MB, throughput 0.986283
Reading from 1596: heap size 39 MB, throughput 0.987809
Reading from 1596: heap size 39 MB, throughput 0.987236
Reading from 1596: heap size 39 MB, throughput 0.98619
Reading from 1596: heap size 39 MB, throughput 0.987036
Reading from 1596: heap size 39 MB, throughput 0.985876
Reading from 1596: heap size 39 MB, throughput 0.986628
Reading from 1596: heap size 39 MB, throughput 0.987057
Reading from 1596: heap size 39 MB, throughput 0.987632
Reading from 1596: heap size 39 MB, throughput 0.987053
Reading from 1596: heap size 39 MB, throughput 0.986342
Reading from 1596: heap size 39 MB, throughput 0.987335
Reading from 1596: heap size 39 MB, throughput 0.987431
Reading from 1596: heap size 39 MB, throughput 0.987292
Reading from 1596: heap size 39 MB, throughput 0.986024
Reading from 1596: heap size 39 MB, throughput 0.987144
Reading from 1596: heap size 39 MB, throughput 0.986571
Reading from 1596: heap size 39 MB, throughput 0.986685
Reading from 1596: heap size 39 MB, throughput 0.987756
Reading from 1596: heap size 39 MB, throughput 0.985301
Reading from 1596: heap size 39 MB, throughput 0.985397
Reading from 1596: heap size 39 MB, throughput 0.985216
Reading from 1596: heap size 39 MB, throughput 0.986065
Reading from 1595: heap size 1305 MB, throughput 0.977137
Reading from 1596: heap size 39 MB, throughput 0.98742
Numeric result:
Recommendation: 2 clients, utility 4.44611:
    h1: 108.734 MB (U(h) = 0.926946*h^0.0129855)
    h2: 7301.27 MB (U(h) = 0.00193136*h^0.871931)
Recommendation: 2 clients, utility 4.44611:
    h1: 108.737 MB (U(h) = 0.926946*h^0.0129855)
    h2: 7301.26 MB (U(h) = 0.00193136*h^0.871931)
Reading from 1596: heap size 39 MB, throughput 0.98778
Reading from 1596: heap size 41 MB, throughput 0.986666
Reading from 1596: heap size 43 MB, throughput 0.988775
Reading from 1596: heap size 46 MB, throughput 0.99061
Reading from 1596: heap size 49 MB, throughput 0.991485
Reading from 1596: heap size 52 MB, throughput 0.992509
Reading from 1596: heap size 56 MB, throughput 0.993214
Reading from 1596: heap size 59 MB, throughput 0.992435
Reading from 1596: heap size 63 MB, throughput 0.994121
Reading from 1596: heap size 68 MB, throughput 0.994766
Reading from 1596: heap size 72 MB, throughput 0.993708
Reading from 1596: heap size 77 MB, throughput 0.994887
Reading from 1596: heap size 82 MB, throughput 0.995571
Reading from 1596: heap size 88 MB, throughput 0.99662
Reading from 1596: heap size 93 MB, throughput 0.996898
Reading from 1595: heap size 1306 MB, throughput 0.97738
Reading from 1596: heap size 99 MB, throughput 0.996555
Reading from 1596: heap size 105 MB, throughput 0.997172
Reading from 1596: heap size 111 MB, throughput 0.997493
Reading from 1596: heap size 108 MB, throughput 0.997758
Reading from 1596: heap size 104 MB, throughput 0.997779
Reading from 1596: heap size 101 MB, throughput 0.997738
Reading from 1596: heap size 98 MB, throughput 0.997269
Reading from 1596: heap size 95 MB, throughput 0.997414
Reading from 1595: heap size 1307 MB, throughput 0.978373
Reading from 1596: heap size 92 MB, throughput 0.997551
Reading from 1596: heap size 90 MB, throughput 0.997492
Reading from 1596: heap size 87 MB, throughput 0.997043
Numeric result:
Recommendation: 2 clients, utility 4.08641:
    h1: 75.1356 MB (U(h) = 0.95146*h^0.00845254)
    h2: 7334.86 MB (U(h) = 0.00267645*h^0.825152)
Recommendation: 2 clients, utility 4.08641:
    h1: 75.1355 MB (U(h) = 0.95146*h^0.00845254)
    h2: 7334.86 MB (U(h) = 0.00267645*h^0.825152)
Reading from 1596: heap size 85 MB, throughput 0.996648
Reading from 1596: heap size 83 MB, throughput 0.996772
Reading from 1596: heap size 81 MB, throughput 0.996424
Reading from 1596: heap size 79 MB, throughput 0.978298
Reading from 1596: heap size 77 MB, throughput 0.965588
Reading from 1596: heap size 76 MB, throughput 0.951383
Reading from 1596: heap size 75 MB, throughput 0.961168
Reading from 1596: heap size 82 MB, throughput 0.957331
Reading from 1596: heap size 80 MB, throughput 0.964884
Reading from 1596: heap size 79 MB, throughput 0.986712
Reading from 1596: heap size 78 MB, throughput 0.990726
Reading from 1596: heap size 76 MB, throughput 0.983814
Reading from 1595: heap size 1308 MB, throughput 0.977306
Reading from 1596: heap size 74 MB, throughput 0.981627
Reading from 1596: heap size 79 MB, throughput 0.982873
Reading from 1596: heap size 77 MB, throughput 0.988903
Reading from 1596: heap size 78 MB, throughput 0.992309
Reading from 1596: heap size 74 MB, throughput 0.993994
Reading from 1596: heap size 81 MB, throughput 0.995387
Reading from 1596: heap size 77 MB, throughput 0.995165
Reading from 1596: heap size 78 MB, throughput 0.995593
Reading from 1596: heap size 74 MB, throughput 0.996249
Reading from 1596: heap size 81 MB, throughput 0.996546
Reading from 1596: heap size 77 MB, throughput 0.996331
Reading from 1596: heap size 77 MB, throughput 0.995796
Reading from 1595: heap size 1308 MB, throughput 0.977115
Reading from 1596: heap size 74 MB, throughput 0.995891
Reading from 1596: heap size 80 MB, throughput 0.995982
Reading from 1596: heap size 76 MB, throughput 0.99617
Reading from 1596: heap size 76 MB, throughput 0.995879
Reading from 1596: heap size 73 MB, throughput 0.996095
Reading from 1596: heap size 79 MB, throughput 0.99623
Reading from 1596: heap size 76 MB, throughput 0.996326
Reading from 1596: heap size 75 MB, throughput 0.996248
Numeric result:
Recommendation: 2 clients, utility 4.10211:
    h1: 77.6683 MB (U(h) = 0.950233*h^0.00876383)
    h2: 7332.33 MB (U(h) = 0.00263573*h^0.827299)
Recommendation: 2 clients, utility 4.10211:
    h1: 77.6736 MB (U(h) = 0.950233*h^0.00876383)
    h2: 7332.33 MB (U(h) = 0.00263573*h^0.827299)
Reading from 1596: heap size 73 MB, throughput 0.996405
Reading from 1596: heap size 77 MB, throughput 0.996349
Reading from 1596: heap size 80 MB, throughput 0.996687
Reading from 1596: heap size 79 MB, throughput 0.996616
Reading from 1596: heap size 77 MB, throughput 0.996549
Reading from 1596: heap size 76 MB, throughput 0.996288
Reading from 1596: heap size 73 MB, throughput 0.996131
Reading from 1596: heap size 77 MB, throughput 0.996234
Reading from 1596: heap size 80 MB, throughput 0.996725
Reading from 1596: heap size 79 MB, throughput 0.996364
Reading from 1596: heap size 77 MB, throughput 0.996471
Reading from 1596: heap size 75 MB, throughput 0.996343
Reading from 1596: heap size 73 MB, throughput 0.996104
Reading from 1596: heap size 77 MB, throughput 0.996014
Reading from 1596: heap size 80 MB, throughput 0.996048
Reading from 1596: heap size 79 MB, throughput 0.996009
Reading from 1596: heap size 77 MB, throughput 0.99625
Reading from 1596: heap size 81 MB, throughput 0.996488
Reading from 1596: heap size 79 MB, throughput 0.996641
Reading from 1596: heap size 77 MB, throughput 0.9963
Reading from 1596: heap size 81 MB, throughput 0.996339
Reading from 1596: heap size 79 MB, throughput 0.996486
Reading from 1596: heap size 78 MB, throughput 0.980587
Reading from 1596: heap size 82 MB, throughput 0.964298
Reading from 1596: heap size 80 MB, throughput 0.966626
Reading from 1596: heap size 79 MB, throughput 0.964173
Reading from 1596: heap size 78 MB, throughput 0.970616
Reading from 1596: heap size 86 MB, throughput 0.993303
Reading from 1596: heap size 83 MB, throughput 0.988681
Reading from 1596: heap size 80 MB, throughput 0.9933
Reading from 1596: heap size 79 MB, throughput 0.995083
Numeric result:
Recommendation: 2 clients, utility 4.10193:
    h1: 78.2877 MB (U(h) = 0.949905*h^0.00883304)
    h2: 7331.71 MB (U(h) = 0.00263573*h^0.827299)
Recommendation: 2 clients, utility 4.10193:
    h1: 78.2805 MB (U(h) = 0.949905*h^0.00883304)
    h2: 7331.72 MB (U(h) = 0.00263573*h^0.827299)
Reading from 1596: heap size 80 MB, throughput 0.995547
Reading from 1596: heap size 76 MB, throughput 0.995992
Reading from 1596: heap size 84 MB, throughput 0.995198
Reading from 1596: heap size 79 MB, throughput 0.995853
Reading from 1596: heap size 80 MB, throughput 0.996032
Reading from 1596: heap size 76 MB, throughput 0.996352
Reading from 1596: heap size 76 MB, throughput 0.995862
Reading from 1596: heap size 73 MB, throughput 0.995786
Reading from 1596: heap size 73 MB, throughput 0.995232
Reading from 1596: heap size 70 MB, throughput 0.99507
Reading from 1596: heap size 70 MB, throughput 0.994748
Reading from 1596: heap size 67 MB, throughput 0.99439
Reading from 1596: heap size 73 MB, throughput 0.995247
Reading from 1595: heap size 1310 MB, throughput 0.965429
Reading from 1596: heap size 70 MB, throughput 0.995753
Reading from 1596: heap size 69 MB, throughput 0.995508
Reading from 1596: heap size 67 MB, throughput 0.99557
Reading from 1596: heap size 66 MB, throughput 0.995377
Reading from 1596: heap size 64 MB, throughput 0.995143
Reading from 1596: heap size 64 MB, throughput 0.99496
Reading from 1596: heap size 62 MB, throughput 0.995029
Reading from 1596: heap size 61 MB, throughput 0.994845
Reading from 1596: heap size 60 MB, throughput 0.994756
Reading from 1596: heap size 59 MB, throughput 0.994366
Reading from 1596: heap size 62 MB, throughput 0.994857
Reading from 1596: heap size 62 MB, throughput 0.99514
Reading from 1596: heap size 60 MB, throughput 0.995107
Reading from 1596: heap size 60 MB, throughput 0.994789
Reading from 1596: heap size 58 MB, throughput 0.994971
Reading from 1596: heap size 58 MB, throughput 0.994939
Reading from 1596: heap size 56 MB, throughput 0.994805
Reading from 1596: heap size 60 MB, throughput 0.99514
Reading from 1596: heap size 59 MB, throughput 0.995264
Reading from 1596: heap size 58 MB, throughput 0.995155
Reading from 1596: heap size 57 MB, throughput 0.995032
Reading from 1596: heap size 56 MB, throughput 0.994715
Reading from 1596: heap size 59 MB, throughput 0.994537
Reading from 1596: heap size 63 MB, throughput 0.995054
Numeric result:
Recommendation: 2 clients, utility 4.13037:
    h1: 74.7379 MB (U(h) = 0.952839*h^0.00846164)
    h2: 7335.26 MB (U(h) = 0.00257723*h^0.830431)
Recommendation: 2 clients, utility 4.13037:
    h1: 74.7423 MB (U(h) = 0.952839*h^0.00846164)
    h2: 7335.26 MB (U(h) = 0.00257723*h^0.830431)
Reading from 1596: heap size 62 MB, throughput 0.994725
Reading from 1596: heap size 66 MB, throughput 0.995073
Reading from 1596: heap size 64 MB, throughput 0.99559
Reading from 1596: heap size 63 MB, throughput 0.995583
Reading from 1596: heap size 62 MB, throughput 0.995345
Reading from 1596: heap size 61 MB, throughput 0.995023
Reading from 1596: heap size 60 MB, throughput 0.995083
Reading from 1596: heap size 59 MB, throughput 0.995202
Reading from 1596: heap size 58 MB, throughput 0.994003
Reading from 1596: heap size 61 MB, throughput 0.994898
Reading from 1596: heap size 65 MB, throughput 0.995358
Reading from 1596: heap size 64 MB, throughput 0.99557
Reading from 1596: heap size 63 MB, throughput 0.995617
Reading from 1596: heap size 62 MB, throughput 0.995437
Reading from 1596: heap size 61 MB, throughput 0.995352
Reading from 1596: heap size 60 MB, throughput 0.994966
Reading from 1596: heap size 59 MB, throughput 0.994773
Reading from 1596: heap size 58 MB, throughput 0.993708
Reading from 1595: heap size 1453 MB, throughput 0.986101
Reading from 1596: heap size 61 MB, throughput 0.99138
Reading from 1596: heap size 65 MB, throughput 0.969465
Reading from 1596: heap size 71 MB, throughput 0.966642
Reading from 1596: heap size 78 MB, throughput 0.949521
Reading from 1596: heap size 76 MB, throughput 0.947426
Reading from 1596: heap size 76 MB, throughput 0.933518
Reading from 1596: heap size 74 MB, throughput 0.951597
Reading from 1596: heap size 83 MB, throughput 0.974473
Reading from 1596: heap size 81 MB, throughput 0.983242
Reading from 1596: heap size 79 MB, throughput 0.982343
Reading from 1596: heap size 77 MB, throughput 0.981607
Reading from 1596: heap size 75 MB, throughput 0.98237
Reading from 1596: heap size 81 MB, throughput 0.989495
Reading from 1596: heap size 82 MB, throughput 0.992914
Reading from 1596: heap size 77 MB, throughput 0.994554
Reading from 1596: heap size 79 MB, throughput 0.995262
Reading from 1596: heap size 74 MB, throughput 0.995802
Reading from 1596: heap size 75 MB, throughput 0.995866
Reading from 1596: heap size 71 MB, throughput 0.996067
Reading from 1596: heap size 72 MB, throughput 0.995645
Reading from 1596: heap size 68 MB, throughput 0.995685
Reading from 1595: heap size 1489 MB, throughput 0.985977
Reading from 1596: heap size 69 MB, throughput 0.995776
Numeric result:
Recommendation: 2 clients, utility 4.129:
    h1: 84.9404 MB (U(h) = 0.946694*h^0.00965677)
    h2: 7325.06 MB (U(h) = 0.00252523*h^0.832823)
Recommendation: 2 clients, utility 4.129:
    h1: 84.9357 MB (U(h) = 0.946694*h^0.00965677)
    h2: 7325.06 MB (U(h) = 0.00252523*h^0.832823)
Reading from 1595: heap size 1489 MB, throughput 0.979587
Reading from 1596: heap size 65 MB, throughput 0.995867
Reading from 1596: heap size 66 MB, throughput 0.995679
Reading from 1595: heap size 1492 MB, throughput 0.961533
Reading from 1596: heap size 63 MB, throughput 0.996032
Reading from 1595: heap size 1471 MB, throughput 0.934611
Reading from 1596: heap size 64 MB, throughput 0.995929
Reading from 1595: heap size 1495 MB, throughput 0.892679
Reading from 1596: heap size 61 MB, throughput 0.995921
Reading from 1595: heap size 1516 MB, throughput 0.851243
Reading from 1596: heap size 61 MB, throughput 0.995756
Reading from 1595: heap size 1527 MB, throughput 0.795137
Reading from 1596: heap size 59 MB, throughput 0.995629
Reading from 1595: heap size 1553 MB, throughput 0.771231
Reading from 1596: heap size 59 MB, throughput 0.995233
Reading from 1596: heap size 57 MB, throughput 0.994327
Reading from 1595: heap size 1558 MB, throughput 0.752812
Reading from 1596: heap size 57 MB, throughput 0.993548
Reading from 1596: heap size 59 MB, throughput 0.993679
Reading from 1596: heap size 64 MB, throughput 0.994092
Reading from 1596: heap size 67 MB, throughput 0.994893
Reading from 1596: heap size 72 MB, throughput 0.995552
Reading from 1596: heap size 70 MB, throughput 0.995705
Reading from 1596: heap size 69 MB, throughput 0.995526
Reading from 1596: heap size 67 MB, throughput 0.995683
Reading from 1596: heap size 66 MB, throughput 0.995323
Reading from 1595: heap size 1587 MB, throughput 0.949245
Reading from 1596: heap size 64 MB, throughput 0.995305
Reading from 1596: heap size 63 MB, throughput 0.995394
Reading from 1596: heap size 62 MB, throughput 0.995711
Reading from 1596: heap size 61 MB, throughput 0.995153
Reading from 1596: heap size 60 MB, throughput 0.994799
Reading from 1596: heap size 59 MB, throughput 0.993548
Reading from 1596: heap size 62 MB, throughput 0.993963
Reading from 1596: heap size 67 MB, throughput 0.994153
Reading from 1596: heap size 71 MB, throughput 0.995119
Reading from 1596: heap size 75 MB, throughput 0.995631
Reading from 1596: heap size 73 MB, throughput 0.995819
Reading from 1596: heap size 72 MB, throughput 0.995281
Reading from 1596: heap size 70 MB, throughput 0.995158
Reading from 1596: heap size 69 MB, throughput 0.995171
Reading from 1595: heap size 1590 MB, throughput 0.9752
Reading from 1596: heap size 67 MB, throughput 0.995186
Reading from 1596: heap size 66 MB, throughput 0.995251
Reading from 1596: heap size 64 MB, throughput 0.995006
Numeric result:
Recommendation: 2 clients, utility 3.40519:
    h1: 92.3188 MB (U(h) = 0.947779*h^0.00944408)
    h2: 7317.68 MB (U(h) = 0.00440644*h^0.748578)
Recommendation: 2 clients, utility 3.40519:
    h1: 92.32 MB (U(h) = 0.947779*h^0.00944408)
    h2: 7317.68 MB (U(h) = 0.00440644*h^0.748578)
Reading from 1596: heap size 63 MB, throughput 0.995277
Reading from 1596: heap size 62 MB, throughput 0.995391
Reading from 1596: heap size 61 MB, throughput 0.995138
Reading from 1596: heap size 60 MB, throughput 0.994926
Reading from 1596: heap size 63 MB, throughput 0.993524
Reading from 1596: heap size 67 MB, throughput 0.99455
Reading from 1596: heap size 72 MB, throughput 0.986168
Reading from 1596: heap size 77 MB, throughput 0.969284
Reading from 1596: heap size 77 MB, throughput 0.961267
Reading from 1596: heap size 84 MB, throughput 0.947622
Reading from 1596: heap size 85 MB, throughput 0.954669
Reading from 1596: heap size 94 MB, throughput 0.962911
Reading from 1596: heap size 92 MB, throughput 0.980218
Reading from 1596: heap size 90 MB, throughput 0.989615
Reading from 1596: heap size 93 MB, throughput 0.982409
Reading from 1595: heap size 1596 MB, throughput 0.980114
Reading from 1596: heap size 88 MB, throughput 0.99259
Reading from 1596: heap size 99 MB, throughput 0.990693
Reading from 1596: heap size 92 MB, throughput 0.993752
Reading from 1596: heap size 96 MB, throughput 0.994935
Reading from 1596: heap size 90 MB, throughput 0.995359
Reading from 1596: heap size 91 MB, throughput 0.996075
Reading from 1596: heap size 85 MB, throughput 0.996315
Reading from 1596: heap size 87 MB, throughput 0.996207
Reading from 1596: heap size 81 MB, throughput 0.996552
Reading from 1596: heap size 82 MB, throughput 0.99586
Reading from 1595: heap size 1604 MB, throughput 0.981423
Reading from 1596: heap size 77 MB, throughput 0.99573
Reading from 1596: heap size 78 MB, throughput 0.995728
Reading from 1596: heap size 73 MB, throughput 0.996097
Reading from 1596: heap size 75 MB, throughput 0.99579
Reading from 1596: heap size 70 MB, throughput 0.995171
Numeric result:
Recommendation: 2 clients, utility 3.35731:
    h1: 96.5986 MB (U(h) = 0.94565*h^0.00981802)
    h2: 7313.4 MB (U(h) = 0.00455751*h^0.74326)
Recommendation: 2 clients, utility 3.35731:
    h1: 96.6056 MB (U(h) = 0.94565*h^0.00981802)
    h2: 7313.39 MB (U(h) = 0.00455751*h^0.74326)
Reading from 1596: heap size 71 MB, throughput 0.994681
Reading from 1596: heap size 67 MB, throughput 0.995034
Reading from 1596: heap size 68 MB, throughput 0.994439
Reading from 1596: heap size 64 MB, throughput 0.994875
Reading from 1596: heap size 65 MB, throughput 0.994323
Reading from 1596: heap size 62 MB, throughput 0.994842
Reading from 1596: heap size 63 MB, throughput 0.993076
Reading from 1596: heap size 60 MB, throughput 0.993577
Reading from 1596: heap size 61 MB, throughput 0.992098
Reading from 1596: heap size 63 MB, throughput 0.99386
Reading from 1596: heap size 63 MB, throughput 0.994462
Reading from 1596: heap size 61 MB, throughput 0.993966
Reading from 1595: heap size 1599 MB, throughput 0.982492
Reading from 1596: heap size 61 MB, throughput 0.994418
Reading from 1596: heap size 59 MB, throughput 0.99384
Reading from 1596: heap size 59 MB, throughput 0.994122
Reading from 1596: heap size 57 MB, throughput 0.993651
Reading from 1596: heap size 62 MB, throughput 0.992334
Reading from 1596: heap size 66 MB, throughput 0.993655
Reading from 1596: heap size 71 MB, throughput 0.994722
Reading from 1596: heap size 69 MB, throughput 0.995155
Reading from 1596: heap size 68 MB, throughput 0.995375
Reading from 1596: heap size 66 MB, throughput 0.995522
Reading from 1596: heap size 65 MB, throughput 0.995354
Reading from 1596: heap size 64 MB, throughput 0.995056
Reading from 1596: heap size 63 MB, throughput 0.994912
Reading from 1596: heap size 62 MB, throughput 0.994919
Reading from 1596: heap size 61 MB, throughput 0.994591
Reading from 1596: heap size 60 MB, throughput 0.994383
Reading from 1596: heap size 59 MB, throughput 0.993353
Reading from 1596: heap size 58 MB, throughput 0.99356
Reading from 1596: heap size 62 MB, throughput 0.99462
Reading from 1596: heap size 61 MB, throughput 0.994931
Reading from 1596: heap size 60 MB, throughput 0.994747
Reading from 1595: heap size 1609 MB, throughput 0.952788
Reading from 1596: heap size 59 MB, throughput 0.994466
Reading from 1596: heap size 58 MB, throughput 0.994645
Numeric result:
Recommendation: 2 clients, utility 3.10693:
    h1: 101.166 MB (U(h) = 0.946157*h^0.0097178)
    h2: 7308.83 MB (U(h) = 0.00608349*h^0.70208)
Recommendation: 2 clients, utility 3.10693:
    h1: 101.165 MB (U(h) = 0.946157*h^0.0097178)
    h2: 7308.84 MB (U(h) = 0.00608349*h^0.70208)
Reading from 1596: heap size 57 MB, throughput 0.998185
Client 1596 died
Clients: 1
Reading from 1595: heap size 1504 MB, throughput 0.989498
Reading from 1595: heap size 1508 MB, throughput 0.991992
Recommendation: one client; give it all the memory
Reading from 1595: heap size 1528 MB, throughput 0.992726
Reading from 1595: heap size 1533 MB, throughput 0.992547
Recommendation: one client; give it all the memory
Reading from 1595: heap size 1531 MB, throughput 0.991892
Reading from 1595: heap size 1537 MB, throughput 0.991036
Recommendation: one client; give it all the memory
Reading from 1595: heap size 1516 MB, throughput 0.990216
Reading from 1595: heap size 1366 MB, throughput 0.989426
Recommendation: one client; give it all the memory
Reading from 1595: heap size 1498 MB, throughput 0.988487
Reading from 1595: heap size 1392 MB, throughput 0.987244
Recommendation: one client; give it all the memory
Reading from 1595: heap size 1492 MB, throughput 0.986339
Reading from 1595: heap size 1498 MB, throughput 0.985121
Recommendation: one client; give it all the memory
Reading from 1595: heap size 1501 MB, throughput 0.984053
Reading from 1595: heap size 1502 MB, throughput 0.983881
Recommendation: one client; give it all the memory
Reading from 1595: heap size 1506 MB, throughput 0.982756
Reading from 1595: heap size 1513 MB, throughput 0.98136
Recommendation: one client; give it all the memory
Reading from 1595: heap size 1521 MB, throughput 0.980479
Reading from 1595: heap size 1527 MB, throughput 0.979634
Recommendation: one client; give it all the memory
Reading from 1595: heap size 1536 MB, throughput 0.980006
Reading from 1595: heap size 1540 MB, throughput 0.979509
Recommendation: one client; give it all the memory
Reading from 1595: heap size 1549 MB, throughput 0.979308
Reading from 1595: heap size 1551 MB, throughput 0.979486
Recommendation: one client; give it all the memory
Reading from 1595: heap size 1559 MB, throughput 0.97941
Reading from 1595: heap size 1560 MB, throughput 0.980229
Recommendation: one client; give it all the memory
Reading from 1595: heap size 1567 MB, throughput 0.980794
Recommendation: one client; give it all the memory
Reading from 1595: heap size 1567 MB, throughput 0.979916
Recommendation: one client; give it all the memory
Reading from 1595: heap size 1573 MB, throughput 0.984687
Recommendation: one client; give it all the memory
Recommendation: one client; give it all the memory
Reading from 1595: heap size 1574 MB, throughput 0.980163
Reading from 1595: heap size 1657 MB, throughput 0.98881
Reading from 1595: heap size 1683 MB, throughput 0.986053
Reading from 1595: heap size 1704 MB, throughput 0.980929
Reading from 1595: heap size 1704 MB, throughput 0.972793
Reading from 1595: heap size 1708 MB, throughput 0.962371
Client 1595 died
Clients: 0
Recommendation: no clients; no recommendation
Recommendation: no clients; no recommendation
ReadingThread: finished
TimerThread: finished
CommandThread: finished
Main: All threads killed, cleaning up
