===== DaCapo 9.12 lusearch starting warmup 1 =====
===== DaCapo 9.12 lusearch completed warmup 1 in 2881 msec =====
===== DaCapo 9.12 lusearch starting warmup 2 =====
===== DaCapo 9.12 lusearch completed warmup 2 in 2041 msec =====
===== DaCapo 9.12 lusearch starting warmup 3 =====
===== DaCapo 9.12 lusearch completed warmup 3 in 2012 msec =====
===== DaCapo 9.12 lusearch starting warmup 4 =====
===== DaCapo 9.12 lusearch completed warmup 4 in 2084 msec =====
===== DaCapo 9.12 lusearch starting warmup 5 =====
===== DaCapo 9.12 lusearch completed warmup 5 in 2046 msec =====
===== DaCapo 9.12 lusearch starting warmup 6 =====
===== DaCapo 9.12 lusearch completed warmup 6 in 2026 msec =====
===== DaCapo 9.12 lusearch starting warmup 7 =====
===== DaCapo 9.12 lusearch completed warmup 7 in 1997 msec =====
===== DaCapo 9.12 lusearch starting warmup 8 =====
===== DaCapo 9.12 lusearch completed warmup 8 in 2050 msec =====
===== DaCapo 9.12 lusearch starting warmup 9 =====
===== DaCapo 9.12 lusearch completed warmup 9 in 2051 msec =====
===== DaCapo 9.12 lusearch starting warmup 10 =====
===== DaCapo 9.12 lusearch completed warmup 10 in 2033 msec =====
===== DaCapo 9.12 lusearch starting warmup 11 =====
===== DaCapo 9.12 lusearch completed warmup 11 in 2018 msec =====
===== DaCapo 9.12 lusearch starting warmup 12 =====
===== DaCapo 9.12 lusearch completed warmup 12 in 2027 msec =====
===== DaCapo 9.12 lusearch starting warmup 13 =====
===== DaCapo 9.12 lusearch completed warmup 13 in 1997 msec =====
===== DaCapo 9.12 lusearch starting warmup 14 =====
===== DaCapo 9.12 lusearch completed warmup 14 in 2032 msec =====
===== DaCapo 9.12 lusearch starting warmup 15 =====
===== DaCapo 9.12 lusearch completed warmup 15 in 1982 msec =====
===== DaCapo 9.12 lusearch starting warmup 16 =====
===== DaCapo 9.12 lusearch completed warmup 16 in 2064 msec =====
===== DaCapo 9.12 lusearch starting warmup 17 =====
===== DaCapo 9.12 lusearch completed warmup 17 in 2040 msec =====
===== DaCapo 9.12 lusearch starting warmup 18 =====
===== DaCapo 9.12 lusearch completed warmup 18 in 2066 msec =====
===== DaCapo 9.12 lusearch starting warmup 19 =====
===== DaCapo 9.12 lusearch completed warmup 19 in 1984 msec =====
===== DaCapo 9.12 lusearch starting warmup 20 =====
===== DaCapo 9.12 lusearch completed warmup 20 in 2001 msec =====
===== DaCapo 9.12 lusearch starting warmup 21 =====
===== DaCapo 9.12 lusearch completed warmup 21 in 2051 msec =====
===== DaCapo 9.12 lusearch starting warmup 22 =====
===== DaCapo 9.12 lusearch completed warmup 22 in 2027 msec =====
===== DaCapo 9.12 lusearch starting warmup 23 =====
===== DaCapo 9.12 lusearch completed warmup 23 in 2003 msec =====
===== DaCapo 9.12 lusearch starting warmup 24 =====
===== DaCapo 9.12 lusearch completed warmup 24 in 2028 msec =====
===== DaCapo 9.12 lusearch starting warmup 25 =====
===== DaCapo 9.12 lusearch completed warmup 25 in 1997 msec =====
===== DaCapo 9.12 lusearch starting warmup 26 =====
===== DaCapo 9.12 lusearch completed warmup 26 in 1992 msec =====
===== DaCapo 9.12 lusearch starting warmup 27 =====
===== DaCapo 9.12 lusearch completed warmup 27 in 2020 msec =====
===== DaCapo 9.12 lusearch starting warmup 28 =====
===== DaCapo 9.12 lusearch completed warmup 28 in 2006 msec =====
===== DaCapo 9.12 lusearch starting warmup 29 =====
===== DaCapo 9.12 lusearch completed warmup 29 in 2043 msec =====
===== DaCapo 9.12 lusearch starting warmup 30 =====
===== DaCapo 9.12 lusearch completed warmup 30 in 2032 msec =====
===== DaCapo 9.12 lusearch starting warmup 31 =====
===== DaCapo 9.12 lusearch completed warmup 31 in 2014 msec =====
===== DaCapo 9.12 lusearch starting warmup 32 =====
===== DaCapo 9.12 lusearch completed warmup 32 in 2053 msec =====
===== DaCapo 9.12 lusearch starting warmup 33 =====
===== DaCapo 9.12 lusearch completed warmup 33 in 2015 msec =====
===== DaCapo 9.12 lusearch starting warmup 34 =====
===== DaCapo 9.12 lusearch completed warmup 34 in 2029 msec =====
===== DaCapo 9.12 lusearch starting warmup 35 =====
===== DaCapo 9.12 lusearch completed warmup 35 in 1990 msec =====
===== DaCapo 9.12 lusearch starting warmup 36 =====
===== DaCapo 9.12 lusearch completed warmup 36 in 2015 msec =====
===== DaCapo 9.12 lusearch starting warmup 37 =====
===== DaCapo 9.12 lusearch completed warmup 37 in 2067 msec =====
===== DaCapo 9.12 lusearch starting warmup 38 =====
===== DaCapo 9.12 lusearch completed warmup 38 in 2015 msec =====
===== DaCapo 9.12 lusearch starting warmup 39 =====
===== DaCapo 9.12 lusearch completed warmup 39 in 2006 msec =====
===== DaCapo 9.12 lusearch starting warmup 40 =====
===== DaCapo 9.12 lusearch completed warmup 40 in 2083 msec =====
===== DaCapo 9.12 lusearch starting warmup 41 =====
===== DaCapo 9.12 lusearch completed warmup 41 in 2027 msec =====
===== DaCapo 9.12 lusearch starting warmup 42 =====
===== DaCapo 9.12 lusearch completed warmup 42 in 1995 msec =====
===== DaCapo 9.12 lusearch starting warmup 43 =====
===== DaCapo 9.12 lusearch completed warmup 43 in 2029 msec =====
===== DaCapo 9.12 lusearch starting warmup 44 =====
===== DaCapo 9.12 lusearch completed warmup 44 in 2042 msec =====
===== DaCapo 9.12 lusearch starting warmup 45 =====
===== DaCapo 9.12 lusearch completed warmup 45 in 1984 msec =====
===== DaCapo 9.12 lusearch starting warmup 46 =====
===== DaCapo 9.12 lusearch completed warmup 46 in 2061 msec =====
===== DaCapo 9.12 lusearch starting warmup 47 =====
===== DaCapo 9.12 lusearch completed warmup 47 in 2019 msec =====
===== DaCapo 9.12 lusearch starting warmup 48 =====
===== DaCapo 9.12 lusearch completed warmup 48 in 2010 msec =====
===== DaCapo 9.12 lusearch starting warmup 49 =====
===== DaCapo 9.12 lusearch completed warmup 49 in 1983 msec =====
===== DaCapo 9.12 lusearch starting warmup 50 =====
===== DaCapo 9.12 lusearch completed warmup 50 in 2041 msec =====
===== DaCapo 9.12 lusearch starting warmup 51 =====
===== DaCapo 9.12 lusearch completed warmup 51 in 2049 msec =====
===== DaCapo 9.12 lusearch starting warmup 52 =====
===== DaCapo 9.12 lusearch completed warmup 52 in 2016 msec =====
===== DaCapo 9.12 lusearch starting warmup 53 =====
===== DaCapo 9.12 lusearch completed warmup 53 in 2017 msec =====
===== DaCapo 9.12 lusearch starting warmup 54 =====
===== DaCapo 9.12 lusearch completed warmup 54 in 2012 msec =====
===== DaCapo 9.12 lusearch starting warmup 55 =====
===== DaCapo 9.12 lusearch completed warmup 55 in 2008 msec =====
===== DaCapo 9.12 lusearch starting warmup 56 =====
===== DaCapo 9.12 lusearch completed warmup 56 in 2044 msec =====
===== DaCapo 9.12 lusearch starting warmup 57 =====
===== DaCapo 9.12 lusearch completed warmup 57 in 1988 msec =====
===== DaCapo 9.12 lusearch starting warmup 58 =====
===== DaCapo 9.12 lusearch completed warmup 58 in 2004 msec =====
===== DaCapo 9.12 lusearch starting warmup 59 =====
===== DaCapo 9.12 lusearch completed warmup 59 in 2015 msec =====
===== DaCapo 9.12 lusearch starting warmup 60 =====
===== DaCapo 9.12 lusearch completed warmup 60 in 1986 msec =====
===== DaCapo 9.12 lusearch starting warmup 61 =====
===== DaCapo 9.12 lusearch completed warmup 61 in 2008 msec =====
===== DaCapo 9.12 lusearch starting warmup 62 =====
===== DaCapo 9.12 lusearch completed warmup 62 in 2055 msec =====
===== DaCapo 9.12 lusearch starting warmup 63 =====
===== DaCapo 9.12 lusearch completed warmup 63 in 2010 msec =====
===== DaCapo 9.12 lusearch starting warmup 64 =====
===== DaCapo 9.12 lusearch completed warmup 64 in 2027 msec =====
===== DaCapo 9.12 lusearch starting warmup 65 =====
===== DaCapo 9.12 lusearch completed warmup 65 in 2020 msec =====
===== DaCapo 9.12 lusearch starting warmup 66 =====
===== DaCapo 9.12 lusearch completed warmup 66 in 1987 msec =====
===== DaCapo 9.12 lusearch starting warmup 67 =====
===== DaCapo 9.12 lusearch completed warmup 67 in 2049 msec =====
===== DaCapo 9.12 lusearch starting warmup 68 =====
===== DaCapo 9.12 lusearch completed warmup 68 in 2010 msec =====
===== DaCapo 9.12 lusearch starting warmup 69 =====
===== DaCapo 9.12 lusearch completed warmup 69 in 1986 msec =====
===== DaCapo 9.12 lusearch starting warmup 70 =====
===== DaCapo 9.12 lusearch completed warmup 70 in 2003 msec =====
===== DaCapo 9.12 lusearch starting warmup 71 =====
===== DaCapo 9.12 lusearch completed warmup 71 in 2060 msec =====
===== DaCapo 9.12 lusearch starting warmup 72 =====
===== DaCapo 9.12 lusearch completed warmup 72 in 2054 msec =====
===== DaCapo 9.12 lusearch starting warmup 73 =====
===== DaCapo 9.12 lusearch completed warmup 73 in 2063 msec =====
===== DaCapo 9.12 lusearch starting warmup 74 =====
===== DaCapo 9.12 lusearch completed warmup 74 in 2024 msec =====
===== DaCapo 9.12 lusearch starting warmup 75 =====
===== DaCapo 9.12 lusearch completed warmup 75 in 2020 msec =====
===== DaCapo 9.12 lusearch starting warmup 76 =====
===== DaCapo 9.12 lusearch completed warmup 76 in 1989 msec =====
===== DaCapo 9.12 lusearch starting warmup 77 =====
===== DaCapo 9.12 lusearch completed warmup 77 in 2017 msec =====
===== DaCapo 9.12 lusearch starting warmup 78 =====
===== DaCapo 9.12 lusearch completed warmup 78 in 2028 msec =====
===== DaCapo 9.12 lusearch starting warmup 79 =====
===== DaCapo 9.12 lusearch completed warmup 79 in 2022 msec =====
===== DaCapo 9.12 lusearch starting warmup 80 =====
===== DaCapo 9.12 lusearch completed warmup 80 in 2069 msec =====
===== DaCapo 9.12 lusearch starting warmup 81 =====
===== DaCapo 9.12 lusearch completed warmup 81 in 2029 msec =====
===== DaCapo 9.12 lusearch starting warmup 82 =====
===== DaCapo 9.12 lusearch completed warmup 82 in 1997 msec =====
===== DaCapo 9.12 lusearch starting warmup 83 =====
===== DaCapo 9.12 lusearch completed warmup 83 in 2010 msec =====
===== DaCapo 9.12 lusearch starting warmup 84 =====
===== DaCapo 9.12 lusearch completed warmup 84 in 2021 msec =====
===== DaCapo 9.12 lusearch starting warmup 85 =====
===== DaCapo 9.12 lusearch completed warmup 85 in 2002 msec =====
===== DaCapo 9.12 lusearch starting warmup 86 =====
===== DaCapo 9.12 lusearch completed warmup 86 in 2027 msec =====
===== DaCapo 9.12 lusearch starting warmup 87 =====
===== DaCapo 9.12 lusearch completed warmup 87 in 2049 msec =====
===== DaCapo 9.12 lusearch starting warmup 88 =====
===== DaCapo 9.12 lusearch completed warmup 88 in 1992 msec =====
===== DaCapo 9.12 lusearch starting warmup 89 =====
===== DaCapo 9.12 lusearch completed warmup 89 in 2017 msec =====
===== DaCapo 9.12 lusearch starting warmup 90 =====
===== DaCapo 9.12 lusearch completed warmup 90 in 1992 msec =====
===== DaCapo 9.12 lusearch starting warmup 91 =====
===== DaCapo 9.12 lusearch completed warmup 91 in 1970 msec =====
===== DaCapo 9.12 lusearch starting warmup 92 =====
===== DaCapo 9.12 lusearch completed warmup 92 in 2006 msec =====
===== DaCapo 9.12 lusearch starting warmup 93 =====
===== DaCapo 9.12 lusearch completed warmup 93 in 2016 msec =====
===== DaCapo 9.12 lusearch starting warmup 94 =====
===== DaCapo 9.12 lusearch completed warmup 94 in 2027 msec =====
===== DaCapo 9.12 lusearch starting warmup 95 =====
===== DaCapo 9.12 lusearch completed warmup 95 in 1991 msec =====
===== DaCapo 9.12 lusearch starting warmup 96 =====
===== DaCapo 9.12 lusearch completed warmup 96 in 1995 msec =====
===== DaCapo 9.12 lusearch starting warmup 97 =====
===== DaCapo 9.12 lusearch completed warmup 97 in 2032 msec =====
===== DaCapo 9.12 lusearch starting warmup 98 =====
===== DaCapo 9.12 lusearch completed warmup 98 in 2061 msec =====
===== DaCapo 9.12 lusearch starting warmup 99 =====
===== DaCapo 9.12 lusearch completed warmup 99 in 2014 msec =====
===== DaCapo 9.12 lusearch starting warmup 100 =====
===== DaCapo 9.12 lusearch completed warmup 100 in 2079 msec =====
===== DaCapo 9.12 lusearch starting warmup 101 =====
===== DaCapo 9.12 lusearch completed warmup 101 in 2010 msec =====
===== DaCapo 9.12 lusearch starting warmup 102 =====
===== DaCapo 9.12 lusearch completed warmup 102 in 2041 msec =====
===== DaCapo 9.12 lusearch starting warmup 103 =====
===== DaCapo 9.12 lusearch completed warmup 103 in 2069 msec =====
===== DaCapo 9.12 lusearch starting warmup 104 =====
===== DaCapo 9.12 lusearch completed warmup 104 in 2020 msec =====
===== DaCapo 9.12 lusearch starting warmup 105 =====
===== DaCapo 9.12 lusearch completed warmup 105 in 1994 msec =====
===== DaCapo 9.12 lusearch starting warmup 106 =====
===== DaCapo 9.12 lusearch completed warmup 106 in 1985 msec =====
===== DaCapo 9.12 lusearch starting warmup 107 =====
===== DaCapo 9.12 lusearch completed warmup 107 in 1974 msec =====
===== DaCapo 9.12 lusearch starting warmup 108 =====
===== DaCapo 9.12 lusearch completed warmup 108 in 2048 msec =====
===== DaCapo 9.12 lusearch starting warmup 109 =====
===== DaCapo 9.12 lusearch completed warmup 109 in 1996 msec =====
===== DaCapo 9.12 lusearch starting warmup 110 =====
===== DaCapo 9.12 lusearch completed warmup 110 in 2038 msec =====
===== DaCapo 9.12 lusearch starting warmup 111 =====
===== DaCapo 9.12 lusearch completed warmup 111 in 2008 msec =====
===== DaCapo 9.12 lusearch starting warmup 112 =====
===== DaCapo 9.12 lusearch completed warmup 112 in 1998 msec =====
===== DaCapo 9.12 lusearch starting warmup 113 =====
===== DaCapo 9.12 lusearch completed warmup 113 in 2011 msec =====
===== DaCapo 9.12 lusearch starting warmup 114 =====
===== DaCapo 9.12 lusearch completed warmup 114 in 2031 msec =====
===== DaCapo 9.12 lusearch starting warmup 115 =====
===== DaCapo 9.12 lusearch completed warmup 115 in 2046 msec =====
===== DaCapo 9.12 lusearch starting warmup 116 =====
===== DaCapo 9.12 lusearch completed warmup 116 in 2031 msec =====
===== DaCapo 9.12 lusearch starting warmup 117 =====
===== DaCapo 9.12 lusearch completed warmup 117 in 2061 msec =====
===== DaCapo 9.12 lusearch starting warmup 118 =====
===== DaCapo 9.12 lusearch completed warmup 118 in 2035 msec =====
===== DaCapo 9.12 lusearch starting warmup 119 =====
===== DaCapo 9.12 lusearch completed warmup 119 in 2029 msec =====
===== DaCapo 9.12 lusearch starting warmup 120 =====
===== DaCapo 9.12 lusearch completed warmup 120 in 1979 msec =====
===== DaCapo 9.12 lusearch starting warmup 121 =====
===== DaCapo 9.12 lusearch completed warmup 121 in 2048 msec =====
===== DaCapo 9.12 lusearch starting warmup 122 =====
===== DaCapo 9.12 lusearch completed warmup 122 in 2039 msec =====
===== DaCapo 9.12 lusearch starting warmup 123 =====
===== DaCapo 9.12 lusearch completed warmup 123 in 2027 msec =====
===== DaCapo 9.12 lusearch starting warmup 124 =====
===== DaCapo 9.12 lusearch completed warmup 124 in 2001 msec =====
===== DaCapo 9.12 lusearch starting warmup 125 =====
===== DaCapo 9.12 lusearch completed warmup 125 in 2007 msec =====
===== DaCapo 9.12 lusearch starting warmup 126 =====
===== DaCapo 9.12 lusearch completed warmup 126 in 2012 msec =====
===== DaCapo 9.12 lusearch starting warmup 127 =====
===== DaCapo 9.12 lusearch completed warmup 127 in 2045 msec =====
===== DaCapo 9.12 lusearch starting warmup 128 =====
===== DaCapo 9.12 lusearch completed warmup 128 in 2005 msec =====
===== DaCapo 9.12 lusearch starting warmup 129 =====
===== DaCapo 9.12 lusearch completed warmup 129 in 2038 msec =====
===== DaCapo 9.12 lusearch starting warmup 130 =====
===== DaCapo 9.12 lusearch completed warmup 130 in 1964 msec =====
===== DaCapo 9.12 lusearch starting warmup 131 =====
===== DaCapo 9.12 lusearch completed warmup 131 in 2039 msec =====
===== DaCapo 9.12 lusearch starting warmup 132 =====
===== DaCapo 9.12 lusearch completed warmup 132 in 1969 msec =====
===== DaCapo 9.12 lusearch starting warmup 133 =====
===== DaCapo 9.12 lusearch completed warmup 133 in 1981 msec =====
===== DaCapo 9.12 lusearch starting warmup 134 =====
===== DaCapo 9.12 lusearch completed warmup 134 in 2014 msec =====
===== DaCapo 9.12 lusearch starting warmup 135 =====
===== DaCapo 9.12 lusearch completed warmup 135 in 2020 msec =====
===== DaCapo 9.12 lusearch starting warmup 136 =====
===== DaCapo 9.12 lusearch completed warmup 136 in 2003 msec =====
===== DaCapo 9.12 lusearch starting warmup 137 =====
===== DaCapo 9.12 lusearch completed warmup 137 in 2017 msec =====
===== DaCapo 9.12 lusearch starting warmup 138 =====
===== DaCapo 9.12 lusearch completed warmup 138 in 2030 msec =====
===== DaCapo 9.12 lusearch starting warmup 139 =====
===== DaCapo 9.12 lusearch completed warmup 139 in 1998 msec =====
===== DaCapo 9.12 lusearch starting warmup 140 =====
===== DaCapo 9.12 lusearch completed warmup 140 in 2019 msec =====
===== DaCapo 9.12 lusearch starting warmup 141 =====
===== DaCapo 9.12 lusearch completed warmup 141 in 1976 msec =====
===== DaCapo 9.12 lusearch starting warmup 142 =====
===== DaCapo 9.12 lusearch completed warmup 142 in 2004 msec =====
===== DaCapo 9.12 lusearch starting warmup 143 =====
===== DaCapo 9.12 lusearch completed warmup 143 in 2027 msec =====
===== DaCapo 9.12 lusearch starting warmup 144 =====
===== DaCapo 9.12 lusearch completed warmup 144 in 2022 msec =====
===== DaCapo 9.12 lusearch starting warmup 145 =====
===== DaCapo 9.12 lusearch completed warmup 145 in 2020 msec =====
===== DaCapo 9.12 lusearch starting warmup 146 =====
===== DaCapo 9.12 lusearch completed warmup 146 in 2010 msec =====
===== DaCapo 9.12 lusearch starting warmup 147 =====
===== DaCapo 9.12 lusearch completed warmup 147 in 2031 msec =====
===== DaCapo 9.12 lusearch starting warmup 148 =====
===== DaCapo 9.12 lusearch completed warmup 148 in 1993 msec =====
===== DaCapo 9.12 lusearch starting warmup 149 =====
===== DaCapo 9.12 lusearch completed warmup 149 in 1992 msec =====
===== DaCapo 9.12 lusearch starting warmup 150 =====
===== DaCapo 9.12 lusearch completed warmup 150 in 2073 msec =====
===== DaCapo 9.12 lusearch starting warmup 151 =====
===== DaCapo 9.12 lusearch completed warmup 151 in 1980 msec =====
===== DaCapo 9.12 lusearch starting warmup 152 =====
===== DaCapo 9.12 lusearch completed warmup 152 in 2045 msec =====
===== DaCapo 9.12 lusearch starting warmup 153 =====
===== DaCapo 9.12 lusearch completed warmup 153 in 2029 msec =====
===== DaCapo 9.12 lusearch starting warmup 154 =====
===== DaCapo 9.12 lusearch completed warmup 154 in 2036 msec =====
===== DaCapo 9.12 lusearch starting warmup 155 =====
===== DaCapo 9.12 lusearch completed warmup 155 in 2031 msec =====
===== DaCapo 9.12 lusearch starting warmup 156 =====
===== DaCapo 9.12 lusearch completed warmup 156 in 2042 msec =====
===== DaCapo 9.12 lusearch starting warmup 157 =====
===== DaCapo 9.12 lusearch completed warmup 157 in 1998 msec =====
===== DaCapo 9.12 lusearch starting warmup 158 =====
===== DaCapo 9.12 lusearch completed warmup 158 in 2016 msec =====
===== DaCapo 9.12 lusearch starting warmup 159 =====
===== DaCapo 9.12 lusearch completed warmup 159 in 2055 msec =====
===== DaCapo 9.12 lusearch starting warmup 160 =====
===== DaCapo 9.12 lusearch completed warmup 160 in 2080 msec =====
===== DaCapo 9.12 lusearch starting warmup 161 =====
===== DaCapo 9.12 lusearch completed warmup 161 in 2059 msec =====
===== DaCapo 9.12 lusearch starting warmup 162 =====
===== DaCapo 9.12 lusearch completed warmup 162 in 2039 msec =====
===== DaCapo 9.12 lusearch starting warmup 163 =====
===== DaCapo 9.12 lusearch completed warmup 163 in 1993 msec =====
===== DaCapo 9.12 lusearch starting warmup 164 =====
===== DaCapo 9.12 lusearch completed warmup 164 in 2020 msec =====
===== DaCapo 9.12 lusearch starting warmup 165 =====
===== DaCapo 9.12 lusearch completed warmup 165 in 1991 msec =====
===== DaCapo 9.12 lusearch starting warmup 166 =====
===== DaCapo 9.12 lusearch completed warmup 166 in 1989 msec =====
===== DaCapo 9.12 lusearch starting warmup 167 =====
===== DaCapo 9.12 lusearch completed warmup 167 in 1962 msec =====
===== DaCapo 9.12 lusearch starting warmup 168 =====
===== DaCapo 9.12 lusearch completed warmup 168 in 2031 msec =====
===== DaCapo 9.12 lusearch starting warmup 169 =====
===== DaCapo 9.12 lusearch completed warmup 169 in 2055 msec =====
===== DaCapo 9.12 lusearch starting warmup 170 =====
===== DaCapo 9.12 lusearch completed warmup 170 in 2050 msec =====
===== DaCapo 9.12 lusearch starting warmup 171 =====
===== DaCapo 9.12 lusearch completed warmup 171 in 2061 msec =====
===== DaCapo 9.12 lusearch starting warmup 172 =====
===== DaCapo 9.12 lusearch completed warmup 172 in 2032 msec =====
===== DaCapo 9.12 lusearch starting warmup 173 =====
===== DaCapo 9.12 lusearch completed warmup 173 in 2028 msec =====
===== DaCapo 9.12 lusearch starting warmup 174 =====
===== DaCapo 9.12 lusearch completed warmup 174 in 2016 msec =====
===== DaCapo 9.12 lusearch starting warmup 175 =====
===== DaCapo 9.12 lusearch completed warmup 175 in 1983 msec =====
===== DaCapo 9.12 lusearch starting warmup 176 =====
===== DaCapo 9.12 lusearch completed warmup 176 in 2073 msec =====
===== DaCapo 9.12 lusearch starting warmup 177 =====
===== DaCapo 9.12 lusearch completed warmup 177 in 2037 msec =====
===== DaCapo 9.12 lusearch starting warmup 178 =====
===== DaCapo 9.12 lusearch completed warmup 178 in 2069 msec =====
===== DaCapo 9.12 lusearch starting warmup 179 =====
===== DaCapo 9.12 lusearch completed warmup 179 in 2045 msec =====
===== DaCapo 9.12 lusearch starting warmup 180 =====
===== DaCapo 9.12 lusearch completed warmup 180 in 1983 msec =====
===== DaCapo 9.12 lusearch starting warmup 181 =====
===== DaCapo 9.12 lusearch completed warmup 181 in 2045 msec =====
===== DaCapo 9.12 lusearch starting warmup 182 =====
===== DaCapo 9.12 lusearch completed warmup 182 in 1991 msec =====
===== DaCapo 9.12 lusearch starting warmup 183 =====
===== DaCapo 9.12 lusearch completed warmup 183 in 2038 msec =====
===== DaCapo 9.12 lusearch starting warmup 184 =====
===== DaCapo 9.12 lusearch completed warmup 184 in 2019 msec =====
===== DaCapo 9.12 lusearch starting warmup 185 =====
===== DaCapo 9.12 lusearch completed warmup 185 in 2030 msec =====
===== DaCapo 9.12 lusearch starting warmup 186 =====
===== DaCapo 9.12 lusearch completed warmup 186 in 2042 msec =====
===== DaCapo 9.12 lusearch starting warmup 187 =====
===== DaCapo 9.12 lusearch completed warmup 187 in 1979 msec =====
===== DaCapo 9.12 lusearch starting warmup 188 =====
===== DaCapo 9.12 lusearch completed warmup 188 in 2051 msec =====
===== DaCapo 9.12 lusearch starting warmup 189 =====
===== DaCapo 9.12 lusearch completed warmup 189 in 1994 msec =====
===== DaCapo 9.12 lusearch starting warmup 190 =====
===== DaCapo 9.12 lusearch completed warmup 190 in 2078 msec =====
===== DaCapo 9.12 lusearch starting warmup 191 =====
===== DaCapo 9.12 lusearch completed warmup 191 in 2023 msec =====
===== DaCapo 9.12 lusearch starting warmup 192 =====
===== DaCapo 9.12 lusearch completed warmup 192 in 2031 msec =====
===== DaCapo 9.12 lusearch starting warmup 193 =====
===== DaCapo 9.12 lusearch completed warmup 193 in 2080 msec =====
===== DaCapo 9.12 lusearch starting warmup 194 =====
===== DaCapo 9.12 lusearch completed warmup 194 in 2031 msec =====
===== DaCapo 9.12 lusearch starting warmup 195 =====
===== DaCapo 9.12 lusearch completed warmup 195 in 1973 msec =====
===== DaCapo 9.12 lusearch starting warmup 196 =====
===== DaCapo 9.12 lusearch completed warmup 196 in 2023 msec =====
===== DaCapo 9.12 lusearch starting warmup 197 =====
===== DaCapo 9.12 lusearch completed warmup 197 in 2047 msec =====
===== DaCapo 9.12 lusearch starting warmup 198 =====
===== DaCapo 9.12 lusearch completed warmup 198 in 2032 msec =====
===== DaCapo 9.12 lusearch starting warmup 199 =====
===== DaCapo 9.12 lusearch completed warmup 199 in 2003 msec =====
===== DaCapo 9.12 lusearch starting warmup 200 =====
===== DaCapo 9.12 lusearch completed warmup 200 in 2105 msec =====
===== DaCapo 9.12 lusearch starting warmup 201 =====
===== DaCapo 9.12 lusearch completed warmup 201 in 2004 msec =====
===== DaCapo 9.12 lusearch starting warmup 202 =====
===== DaCapo 9.12 lusearch completed warmup 202 in 2092 msec =====
===== DaCapo 9.12 lusearch starting warmup 203 =====
===== DaCapo 9.12 lusearch completed warmup 203 in 2039 msec =====
===== DaCapo 9.12 lusearch starting warmup 204 =====
===== DaCapo 9.12 lusearch completed warmup 204 in 2011 msec =====
===== DaCapo 9.12 lusearch starting warmup 205 =====
===== DaCapo 9.12 lusearch completed warmup 205 in 2043 msec =====
===== DaCapo 9.12 lusearch starting warmup 206 =====
===== DaCapo 9.12 lusearch completed warmup 206 in 1992 msec =====
===== DaCapo 9.12 lusearch starting warmup 207 =====
===== DaCapo 9.12 lusearch completed warmup 207 in 1993 msec =====
===== DaCapo 9.12 lusearch starting warmup 208 =====
===== DaCapo 9.12 lusearch completed warmup 208 in 2062 msec =====
===== DaCapo 9.12 lusearch starting warmup 209 =====
===== DaCapo 9.12 lusearch completed warmup 209 in 2007 msec =====
===== DaCapo 9.12 lusearch starting warmup 210 =====
===== DaCapo 9.12 lusearch completed warmup 210 in 2032 msec =====
===== DaCapo 9.12 lusearch starting warmup 211 =====
===== DaCapo 9.12 lusearch completed warmup 211 in 2009 msec =====
===== DaCapo 9.12 lusearch starting warmup 212 =====
===== DaCapo 9.12 lusearch completed warmup 212 in 2029 msec =====
===== DaCapo 9.12 lusearch starting warmup 213 =====
===== DaCapo 9.12 lusearch completed warmup 213 in 2079 msec =====
===== DaCapo 9.12 lusearch starting warmup 214 =====
===== DaCapo 9.12 lusearch completed warmup 214 in 2059 msec =====
===== DaCapo 9.12 lusearch starting warmup 215 =====
===== DaCapo 9.12 lusearch completed warmup 215 in 2036 msec =====
===== DaCapo 9.12 lusearch starting warmup 216 =====
===== DaCapo 9.12 lusearch completed warmup 216 in 2019 msec =====
===== DaCapo 9.12 lusearch starting warmup 217 =====
===== DaCapo 9.12 lusearch completed warmup 217 in 2034 msec =====
===== DaCapo 9.12 lusearch starting warmup 218 =====
===== DaCapo 9.12 lusearch completed warmup 218 in 1983 msec =====
===== DaCapo 9.12 lusearch starting warmup 219 =====
===== DaCapo 9.12 lusearch completed warmup 219 in 2058 msec =====
===== DaCapo 9.12 lusearch starting warmup 220 =====
===== DaCapo 9.12 lusearch completed warmup 220 in 2030 msec =====
===== DaCapo 9.12 lusearch starting warmup 221 =====
===== DaCapo 9.12 lusearch completed warmup 221 in 2068 msec =====
===== DaCapo 9.12 lusearch starting warmup 222 =====
===== DaCapo 9.12 lusearch completed warmup 222 in 2029 msec =====
===== DaCapo 9.12 lusearch starting warmup 223 =====
===== DaCapo 9.12 lusearch completed warmup 223 in 1983 msec =====
===== DaCapo 9.12 lusearch starting warmup 224 =====
===== DaCapo 9.12 lusearch completed warmup 224 in 2050 msec =====
===== DaCapo 9.12 lusearch starting warmup 225 =====
===== DaCapo 9.12 lusearch completed warmup 225 in 2002 msec =====
===== DaCapo 9.12 lusearch starting warmup 226 =====
===== DaCapo 9.12 lusearch completed warmup 226 in 2100 msec =====
===== DaCapo 9.12 lusearch starting warmup 227 =====
===== DaCapo 9.12 lusearch completed warmup 227 in 2001 msec =====
===== DaCapo 9.12 lusearch starting warmup 228 =====
===== DaCapo 9.12 lusearch completed warmup 228 in 2051 msec =====
===== DaCapo 9.12 lusearch starting warmup 229 =====
===== DaCapo 9.12 lusearch completed warmup 229 in 2027 msec =====
===== DaCapo 9.12 lusearch starting warmup 230 =====
===== DaCapo 9.12 lusearch completed warmup 230 in 2056 msec =====
===== DaCapo 9.12 lusearch starting warmup 231 =====
===== DaCapo 9.12 lusearch completed warmup 231 in 2064 msec =====
===== DaCapo 9.12 lusearch starting warmup 232 =====
===== DaCapo 9.12 lusearch completed warmup 232 in 1989 msec =====
===== DaCapo 9.12 lusearch starting warmup 233 =====
===== DaCapo 9.12 lusearch completed warmup 233 in 2022 msec =====
===== DaCapo 9.12 lusearch starting warmup 234 =====
===== DaCapo 9.12 lusearch completed warmup 234 in 2023 msec =====
===== DaCapo 9.12 lusearch starting warmup 235 =====
===== DaCapo 9.12 lusearch completed warmup 235 in 2031 msec =====
===== DaCapo 9.12 lusearch starting warmup 236 =====
===== DaCapo 9.12 lusearch completed warmup 236 in 1993 msec =====
===== DaCapo 9.12 lusearch starting warmup 237 =====
===== DaCapo 9.12 lusearch completed warmup 237 in 2064 msec =====
===== DaCapo 9.12 lusearch starting warmup 238 =====
===== DaCapo 9.12 lusearch completed warmup 238 in 2023 msec =====
===== DaCapo 9.12 lusearch starting warmup 239 =====
===== DaCapo 9.12 lusearch completed warmup 239 in 2018 msec =====
===== DaCapo 9.12 lusearch starting warmup 240 =====
===== DaCapo 9.12 lusearch completed warmup 240 in 2003 msec =====
===== DaCapo 9.12 lusearch starting warmup 241 =====
===== DaCapo 9.12 lusearch completed warmup 241 in 2042 msec =====
===== DaCapo 9.12 lusearch starting warmup 242 =====
===== DaCapo 9.12 lusearch completed warmup 242 in 2041 msec =====
===== DaCapo 9.12 lusearch starting warmup 243 =====
===== DaCapo 9.12 lusearch completed warmup 243 in 1985 msec =====
===== DaCapo 9.12 lusearch starting warmup 244 =====
===== DaCapo 9.12 lusearch completed warmup 244 in 2036 msec =====
===== DaCapo 9.12 lusearch starting warmup 245 =====
===== DaCapo 9.12 lusearch completed warmup 245 in 1997 msec =====
===== DaCapo 9.12 lusearch starting warmup 246 =====
===== DaCapo 9.12 lusearch completed warmup 246 in 2012 msec =====
===== DaCapo 9.12 lusearch starting warmup 247 =====
===== DaCapo 9.12 lusearch completed warmup 247 in 2064 msec =====
===== DaCapo 9.12 lusearch starting warmup 248 =====
===== DaCapo 9.12 lusearch completed warmup 248 in 2067 msec =====
===== DaCapo 9.12 lusearch starting warmup 249 =====
===== DaCapo 9.12 lusearch completed warmup 249 in 2062 msec =====
===== DaCapo 9.12 lusearch starting warmup 250 =====
===== DaCapo 9.12 lusearch completed warmup 250 in 2031 msec =====
===== DaCapo 9.12 lusearch starting warmup 251 =====
===== DaCapo 9.12 lusearch completed warmup 251 in 1991 msec =====
===== DaCapo 9.12 lusearch starting warmup 252 =====
===== DaCapo 9.12 lusearch completed warmup 252 in 2029 msec =====
===== DaCapo 9.12 lusearch starting warmup 253 =====
===== DaCapo 9.12 lusearch completed warmup 253 in 2070 msec =====
===== DaCapo 9.12 lusearch starting warmup 254 =====
===== DaCapo 9.12 lusearch completed warmup 254 in 2034 msec =====
===== DaCapo 9.12 lusearch starting warmup 255 =====
===== DaCapo 9.12 lusearch completed warmup 255 in 2011 msec =====
===== DaCapo 9.12 lusearch starting warmup 256 =====
===== DaCapo 9.12 lusearch completed warmup 256 in 2022 msec =====
===== DaCapo 9.12 lusearch starting warmup 257 =====
===== DaCapo 9.12 lusearch completed warmup 257 in 2023 msec =====
===== DaCapo 9.12 lusearch starting warmup 258 =====
===== DaCapo 9.12 lusearch completed warmup 258 in 2090 msec =====
===== DaCapo 9.12 lusearch starting warmup 259 =====
===== DaCapo 9.12 lusearch completed warmup 259 in 2104 msec =====
===== DaCapo 9.12 lusearch starting warmup 260 =====
===== DaCapo 9.12 lusearch completed warmup 260 in 1997 msec =====
===== DaCapo 9.12 lusearch starting warmup 261 =====
===== DaCapo 9.12 lusearch completed warmup 261 in 2042 msec =====
===== DaCapo 9.12 lusearch starting warmup 262 =====
===== DaCapo 9.12 lusearch completed warmup 262 in 2062 msec =====
===== DaCapo 9.12 lusearch starting warmup 263 =====
===== DaCapo 9.12 lusearch completed warmup 263 in 2030 msec =====
===== DaCapo 9.12 lusearch starting warmup 264 =====
===== DaCapo 9.12 lusearch completed warmup 264 in 2031 msec =====
===== DaCapo 9.12 lusearch starting warmup 265 =====
===== DaCapo 9.12 lusearch completed warmup 265 in 2042 msec =====
===== DaCapo 9.12 lusearch starting warmup 266 =====
===== DaCapo 9.12 lusearch completed warmup 266 in 2037 msec =====
===== DaCapo 9.12 lusearch starting warmup 267 =====
===== DaCapo 9.12 lusearch completed warmup 267 in 2018 msec =====
===== DaCapo 9.12 lusearch starting warmup 268 =====
===== DaCapo 9.12 lusearch completed warmup 268 in 2051 msec =====
===== DaCapo 9.12 lusearch starting warmup 269 =====
===== DaCapo 9.12 lusearch completed warmup 269 in 2029 msec =====
===== DaCapo 9.12 lusearch starting warmup 270 =====
===== DaCapo 9.12 lusearch completed warmup 270 in 2019 msec =====
===== DaCapo 9.12 lusearch starting warmup 271 =====
===== DaCapo 9.12 lusearch completed warmup 271 in 2032 msec =====
===== DaCapo 9.12 lusearch starting warmup 272 =====
===== DaCapo 9.12 lusearch completed warmup 272 in 2020 msec =====
===== DaCapo 9.12 lusearch starting warmup 273 =====
===== DaCapo 9.12 lusearch completed warmup 273 in 2059 msec =====
===== DaCapo 9.12 lusearch starting warmup 274 =====
===== DaCapo 9.12 lusearch completed warmup 274 in 2075 msec =====
===== DaCapo 9.12 lusearch starting warmup 275 =====
===== DaCapo 9.12 lusearch completed warmup 275 in 2011 msec =====
===== DaCapo 9.12 lusearch starting warmup 276 =====
===== DaCapo 9.12 lusearch completed warmup 276 in 2016 msec =====
===== DaCapo 9.12 lusearch starting warmup 277 =====
===== DaCapo 9.12 lusearch completed warmup 277 in 2027 msec =====
===== DaCapo 9.12 lusearch starting warmup 278 =====
===== DaCapo 9.12 lusearch completed warmup 278 in 2001 msec =====
===== DaCapo 9.12 lusearch starting warmup 279 =====
===== DaCapo 9.12 lusearch completed warmup 279 in 2009 msec =====
===== DaCapo 9.12 lusearch starting warmup 280 =====
===== DaCapo 9.12 lusearch completed warmup 280 in 2025 msec =====
===== DaCapo 9.12 lusearch starting warmup 281 =====
===== DaCapo 9.12 lusearch completed warmup 281 in 2040 msec =====
===== DaCapo 9.12 lusearch starting warmup 282 =====
===== DaCapo 9.12 lusearch completed warmup 282 in 2027 msec =====
===== DaCapo 9.12 lusearch starting warmup 283 =====
===== DaCapo 9.12 lusearch completed warmup 283 in 2043 msec =====
===== DaCapo 9.12 lusearch starting warmup 284 =====
===== DaCapo 9.12 lusearch completed warmup 284 in 1948 msec =====
===== DaCapo 9.12 lusearch starting warmup 285 =====
===== DaCapo 9.12 lusearch completed warmup 285 in 2009 msec =====
===== DaCapo 9.12 lusearch starting warmup 286 =====
===== DaCapo 9.12 lusearch completed warmup 286 in 2086 msec =====
===== DaCapo 9.12 lusearch starting warmup 287 =====
===== DaCapo 9.12 lusearch completed warmup 287 in 2030 msec =====
===== DaCapo 9.12 lusearch starting warmup 288 =====
===== DaCapo 9.12 lusearch completed warmup 288 in 2020 msec =====
===== DaCapo 9.12 lusearch starting warmup 289 =====
===== DaCapo 9.12 lusearch completed warmup 289 in 2043 msec =====
===== DaCapo 9.12 lusearch starting warmup 290 =====
===== DaCapo 9.12 lusearch completed warmup 290 in 2037 msec =====
===== DaCapo 9.12 lusearch starting warmup 291 =====
===== DaCapo 9.12 lusearch completed warmup 291 in 2054 msec =====
===== DaCapo 9.12 lusearch starting warmup 292 =====
===== DaCapo 9.12 lusearch completed warmup 292 in 2098 msec =====
===== DaCapo 9.12 lusearch starting warmup 293 =====
===== DaCapo 9.12 lusearch completed warmup 293 in 2055 msec =====
===== DaCapo 9.12 lusearch starting warmup 294 =====
===== DaCapo 9.12 lusearch completed warmup 294 in 2040 msec =====
===== DaCapo 9.12 lusearch starting warmup 295 =====
===== DaCapo 9.12 lusearch completed warmup 295 in 2053 msec =====
===== DaCapo 9.12 lusearch starting warmup 296 =====
===== DaCapo 9.12 lusearch completed warmup 296 in 2040 msec =====
===== DaCapo 9.12 lusearch starting warmup 297 =====
===== DaCapo 9.12 lusearch completed warmup 297 in 2029 msec =====
===== DaCapo 9.12 lusearch starting warmup 298 =====
===== DaCapo 9.12 lusearch completed warmup 298 in 2063 msec =====
===== DaCapo 9.12 lusearch starting warmup 299 =====
===== DaCapo 9.12 lusearch completed warmup 299 in 2053 msec =====
===== DaCapo 9.12 lusearch starting warmup 300 =====
===== DaCapo 9.12 lusearch completed warmup 300 in 2093 msec =====
===== DaCapo 9.12 lusearch starting warmup 301 =====
===== DaCapo 9.12 lusearch completed warmup 301 in 2061 msec =====
===== DaCapo 9.12 lusearch starting warmup 302 =====
===== DaCapo 9.12 lusearch completed warmup 302 in 2004 msec =====
===== DaCapo 9.12 lusearch starting warmup 303 =====
===== DaCapo 9.12 lusearch completed warmup 303 in 2053 msec =====
===== DaCapo 9.12 lusearch starting warmup 304 =====
===== DaCapo 9.12 lusearch completed warmup 304 in 2043 msec =====
===== DaCapo 9.12 lusearch starting warmup 305 =====
===== DaCapo 9.12 lusearch completed warmup 305 in 2029 msec =====
===== DaCapo 9.12 lusearch starting warmup 306 =====
===== DaCapo 9.12 lusearch completed warmup 306 in 2077 msec =====
===== DaCapo 9.12 lusearch starting warmup 307 =====
===== DaCapo 9.12 lusearch completed warmup 307 in 2009 msec =====
===== DaCapo 9.12 lusearch starting warmup 308 =====
===== DaCapo 9.12 lusearch completed warmup 308 in 2041 msec =====
===== DaCapo 9.12 lusearch starting warmup 309 =====
===== DaCapo 9.12 lusearch completed warmup 309 in 2021 msec =====
===== DaCapo 9.12 lusearch starting warmup 310 =====
===== DaCapo 9.12 lusearch completed warmup 310 in 2027 msec =====
===== DaCapo 9.12 lusearch starting warmup 311 =====
===== DaCapo 9.12 lusearch completed warmup 311 in 2043 msec =====
===== DaCapo 9.12 lusearch starting warmup 312 =====
===== DaCapo 9.12 lusearch completed warmup 312 in 2013 msec =====
===== DaCapo 9.12 lusearch starting warmup 313 =====
===== DaCapo 9.12 lusearch completed warmup 313 in 2010 msec =====
===== DaCapo 9.12 lusearch starting warmup 314 =====
===== DaCapo 9.12 lusearch completed warmup 314 in 2017 msec =====
===== DaCapo 9.12 lusearch starting warmup 315 =====
===== DaCapo 9.12 lusearch completed warmup 315 in 2063 msec =====
===== DaCapo 9.12 lusearch starting warmup 316 =====
===== DaCapo 9.12 lusearch completed warmup 316 in 2018 msec =====
===== DaCapo 9.12 lusearch starting warmup 317 =====
===== DaCapo 9.12 lusearch completed warmup 317 in 2002 msec =====
===== DaCapo 9.12 lusearch starting warmup 318 =====
===== DaCapo 9.12 lusearch completed warmup 318 in 2008 msec =====
===== DaCapo 9.12 lusearch starting warmup 319 =====
===== DaCapo 9.12 lusearch completed warmup 319 in 2057 msec =====
===== DaCapo 9.12 lusearch starting warmup 320 =====
===== DaCapo 9.12 lusearch completed warmup 320 in 2040 msec =====
===== DaCapo 9.12 lusearch starting warmup 321 =====
===== DaCapo 9.12 lusearch completed warmup 321 in 2030 msec =====
===== DaCapo 9.12 lusearch starting warmup 322 =====
===== DaCapo 9.12 lusearch completed warmup 322 in 2029 msec =====
===== DaCapo 9.12 lusearch starting warmup 323 =====
===== DaCapo 9.12 lusearch completed warmup 323 in 1986 msec =====
===== DaCapo 9.12 lusearch starting warmup 324 =====
===== DaCapo 9.12 lusearch completed warmup 324 in 2031 msec =====
===== DaCapo 9.12 lusearch starting warmup 325 =====
===== DaCapo 9.12 lusearch completed warmup 325 in 2027 msec =====
===== DaCapo 9.12 lusearch starting warmup 326 =====
===== DaCapo 9.12 lusearch completed warmup 326 in 2041 msec =====
===== DaCapo 9.12 lusearch starting warmup 327 =====
===== DaCapo 9.12 lusearch completed warmup 327 in 2038 msec =====
===== DaCapo 9.12 lusearch starting warmup 328 =====
===== DaCapo 9.12 lusearch completed warmup 328 in 2037 msec =====
===== DaCapo 9.12 lusearch starting warmup 329 =====
===== DaCapo 9.12 lusearch completed warmup 329 in 2002 msec =====
===== DaCapo 9.12 lusearch starting warmup 330 =====
===== DaCapo 9.12 lusearch completed warmup 330 in 2019 msec =====
===== DaCapo 9.12 lusearch starting warmup 331 =====
===== DaCapo 9.12 lusearch completed warmup 331 in 2007 msec =====
===== DaCapo 9.12 lusearch starting warmup 332 =====
===== DaCapo 9.12 lusearch completed warmup 332 in 2072 msec =====
===== DaCapo 9.12 lusearch starting warmup 333 =====
===== DaCapo 9.12 lusearch completed warmup 333 in 1986 msec =====
===== DaCapo 9.12 lusearch starting warmup 334 =====
===== DaCapo 9.12 lusearch completed warmup 334 in 2013 msec =====
===== DaCapo 9.12 lusearch starting warmup 335 =====
===== DaCapo 9.12 lusearch completed warmup 335 in 2040 msec =====
===== DaCapo 9.12 lusearch starting warmup 336 =====
===== DaCapo 9.12 lusearch completed warmup 336 in 1996 msec =====
===== DaCapo 9.12 lusearch starting warmup 337 =====
===== DaCapo 9.12 lusearch completed warmup 337 in 2032 msec =====
===== DaCapo 9.12 lusearch starting warmup 338 =====
===== DaCapo 9.12 lusearch completed warmup 338 in 1982 msec =====
===== DaCapo 9.12 lusearch starting warmup 339 =====
===== DaCapo 9.12 lusearch completed warmup 339 in 1995 msec =====
===== DaCapo 9.12 lusearch starting warmup 340 =====
===== DaCapo 9.12 lusearch completed warmup 340 in 2015 msec =====
===== DaCapo 9.12 lusearch starting warmup 341 =====
===== DaCapo 9.12 lusearch completed warmup 341 in 2022 msec =====
===== DaCapo 9.12 lusearch starting warmup 342 =====
===== DaCapo 9.12 lusearch completed warmup 342 in 2013 msec =====
===== DaCapo 9.12 lusearch starting warmup 343 =====
===== DaCapo 9.12 lusearch completed warmup 343 in 1994 msec =====
===== DaCapo 9.12 lusearch starting warmup 344 =====
===== DaCapo 9.12 lusearch completed warmup 344 in 2036 msec =====
===== DaCapo 9.12 lusearch starting warmup 345 =====
===== DaCapo 9.12 lusearch completed warmup 345 in 2027 msec =====
===== DaCapo 9.12 lusearch starting warmup 346 =====
===== DaCapo 9.12 lusearch completed warmup 346 in 2015 msec =====
===== DaCapo 9.12 lusearch starting warmup 347 =====
===== DaCapo 9.12 lusearch completed warmup 347 in 2028 msec =====
===== DaCapo 9.12 lusearch starting warmup 348 =====
===== DaCapo 9.12 lusearch completed warmup 348 in 2012 msec =====
===== DaCapo 9.12 lusearch starting warmup 349 =====
===== DaCapo 9.12 lusearch completed warmup 349 in 2051 msec =====
===== DaCapo 9.12 lusearch starting warmup 350 =====
===== DaCapo 9.12 lusearch completed warmup 350 in 2048 msec =====
===== DaCapo 9.12 lusearch starting warmup 351 =====
===== DaCapo 9.12 lusearch completed warmup 351 in 2027 msec =====
===== DaCapo 9.12 lusearch starting warmup 352 =====
===== DaCapo 9.12 lusearch completed warmup 352 in 2005 msec =====
===== DaCapo 9.12 lusearch starting warmup 353 =====
===== DaCapo 9.12 lusearch completed warmup 353 in 2034 msec =====
===== DaCapo 9.12 lusearch starting warmup 354 =====
===== DaCapo 9.12 lusearch completed warmup 354 in 2063 msec =====
===== DaCapo 9.12 lusearch starting warmup 355 =====
===== DaCapo 9.12 lusearch completed warmup 355 in 2028 msec =====
===== DaCapo 9.12 lusearch starting warmup 356 =====
===== DaCapo 9.12 lusearch completed warmup 356 in 2027 msec =====
===== DaCapo 9.12 lusearch starting warmup 357 =====
===== DaCapo 9.12 lusearch completed warmup 357 in 2014 msec =====
===== DaCapo 9.12 lusearch starting warmup 358 =====
===== DaCapo 9.12 lusearch completed warmup 358 in 2042 msec =====
===== DaCapo 9.12 lusearch starting warmup 359 =====
===== DaCapo 9.12 lusearch completed warmup 359 in 2051 msec =====
===== DaCapo 9.12 lusearch starting warmup 360 =====
===== DaCapo 9.12 lusearch completed warmup 360 in 2048 msec =====
===== DaCapo 9.12 lusearch starting warmup 361 =====
===== DaCapo 9.12 lusearch completed warmup 361 in 2093 msec =====
===== DaCapo 9.12 lusearch starting warmup 362 =====
===== DaCapo 9.12 lusearch completed warmup 362 in 2032 msec =====
===== DaCapo 9.12 lusearch starting warmup 363 =====
===== DaCapo 9.12 lusearch completed warmup 363 in 2017 msec =====
===== DaCapo 9.12 lusearch starting warmup 364 =====
===== DaCapo 9.12 lusearch completed warmup 364 in 2060 msec =====
===== DaCapo 9.12 lusearch starting warmup 365 =====
===== DaCapo 9.12 lusearch completed warmup 365 in 2020 msec =====
===== DaCapo 9.12 lusearch starting warmup 366 =====
===== DaCapo 9.12 lusearch completed warmup 366 in 2004 msec =====
===== DaCapo 9.12 lusearch starting warmup 367 =====
===== DaCapo 9.12 lusearch completed warmup 367 in 2085 msec =====
===== DaCapo 9.12 lusearch starting warmup 368 =====
===== DaCapo 9.12 lusearch completed warmup 368 in 2015 msec =====
===== DaCapo 9.12 lusearch starting warmup 369 =====
===== DaCapo 9.12 lusearch completed warmup 369 in 2006 msec =====
===== DaCapo 9.12 lusearch starting warmup 370 =====
===== DaCapo 9.12 lusearch completed warmup 370 in 2040 msec =====
===== DaCapo 9.12 lusearch starting warmup 371 =====
===== DaCapo 9.12 lusearch completed warmup 371 in 2025 msec =====
===== DaCapo 9.12 lusearch starting warmup 372 =====
===== DaCapo 9.12 lusearch completed warmup 372 in 2029 msec =====
===== DaCapo 9.12 lusearch starting warmup 373 =====
===== DaCapo 9.12 lusearch completed warmup 373 in 1990 msec =====
===== DaCapo 9.12 lusearch starting warmup 374 =====
===== DaCapo 9.12 lusearch completed warmup 374 in 2018 msec =====
===== DaCapo 9.12 lusearch starting warmup 375 =====
===== DaCapo 9.12 lusearch completed warmup 375 in 2066 msec =====
===== DaCapo 9.12 lusearch starting warmup 376 =====
===== DaCapo 9.12 lusearch completed warmup 376 in 2034 msec =====
===== DaCapo 9.12 lusearch starting warmup 377 =====
===== DaCapo 9.12 lusearch completed warmup 377 in 2039 msec =====
===== DaCapo 9.12 lusearch starting warmup 378 =====
===== DaCapo 9.12 lusearch completed warmup 378 in 2063 msec =====
===== DaCapo 9.12 lusearch starting warmup 379 =====
===== DaCapo 9.12 lusearch completed warmup 379 in 2018 msec =====
===== DaCapo 9.12 lusearch starting warmup 380 =====
===== DaCapo 9.12 lusearch completed warmup 380 in 2043 msec =====
===== DaCapo 9.12 lusearch starting warmup 381 =====
===== DaCapo 9.12 lusearch completed warmup 381 in 2087 msec =====
===== DaCapo 9.12 lusearch starting warmup 382 =====
===== DaCapo 9.12 lusearch completed warmup 382 in 2055 msec =====
===== DaCapo 9.12 lusearch starting warmup 383 =====
===== DaCapo 9.12 lusearch completed warmup 383 in 2009 msec =====
===== DaCapo 9.12 lusearch starting warmup 384 =====
===== DaCapo 9.12 lusearch completed warmup 384 in 2033 msec =====
===== DaCapo 9.12 lusearch starting warmup 385 =====
===== DaCapo 9.12 lusearch completed warmup 385 in 2038 msec =====
===== DaCapo 9.12 lusearch starting warmup 386 =====
===== DaCapo 9.12 lusearch completed warmup 386 in 1984 msec =====
===== DaCapo 9.12 lusearch starting warmup 387 =====
===== DaCapo 9.12 lusearch completed warmup 387 in 2032 msec =====
===== DaCapo 9.12 lusearch starting warmup 388 =====
===== DaCapo 9.12 lusearch completed warmup 388 in 2031 msec =====
===== DaCapo 9.12 lusearch starting warmup 389 =====
===== DaCapo 9.12 lusearch completed warmup 389 in 2017 msec =====
===== DaCapo 9.12 lusearch starting warmup 390 =====
===== DaCapo 9.12 lusearch completed warmup 390 in 2025 msec =====
===== DaCapo 9.12 lusearch starting warmup 391 =====
===== DaCapo 9.12 lusearch completed warmup 391 in 2038 msec =====
===== DaCapo 9.12 lusearch starting warmup 392 =====
===== DaCapo 9.12 lusearch completed warmup 392 in 2030 msec =====
===== DaCapo 9.12 lusearch starting warmup 393 =====
===== DaCapo 9.12 lusearch completed warmup 393 in 2052 msec =====
===== DaCapo 9.12 lusearch starting warmup 394 =====
===== DaCapo 9.12 lusearch completed warmup 394 in 2037 msec =====
===== DaCapo 9.12 lusearch starting warmup 395 =====
===== DaCapo 9.12 lusearch completed warmup 395 in 2030 msec =====
===== DaCapo 9.12 lusearch starting warmup 396 =====
===== DaCapo 9.12 lusearch completed warmup 396 in 2014 msec =====
===== DaCapo 9.12 lusearch starting warmup 397 =====
===== DaCapo 9.12 lusearch completed warmup 397 in 2030 msec =====
===== DaCapo 9.12 lusearch starting warmup 398 =====
===== DaCapo 9.12 lusearch completed warmup 398 in 2039 msec =====
===== DaCapo 9.12 lusearch starting warmup 399 =====
===== DaCapo 9.12 lusearch completed warmup 399 in 2027 msec =====
===== DaCapo 9.12 lusearch starting warmup 400 =====
===== DaCapo 9.12 lusearch completed warmup 400 in 2025 msec =====
===== DaCapo 9.12 lusearch starting warmup 401 =====
===== DaCapo 9.12 lusearch completed warmup 401 in 2078 msec =====
===== DaCapo 9.12 lusearch starting warmup 402 =====
===== DaCapo 9.12 lusearch completed warmup 402 in 2012 msec =====
===== DaCapo 9.12 lusearch starting warmup 403 =====
===== DaCapo 9.12 lusearch completed warmup 403 in 2067 msec =====
===== DaCapo 9.12 lusearch starting warmup 404 =====
===== DaCapo 9.12 lusearch completed warmup 404 in 1997 msec =====
===== DaCapo 9.12 lusearch starting warmup 405 =====
===== DaCapo 9.12 lusearch completed warmup 405 in 2024 msec =====
===== DaCapo 9.12 lusearch starting warmup 406 =====
===== DaCapo 9.12 lusearch completed warmup 406 in 1979 msec =====
===== DaCapo 9.12 lusearch starting warmup 407 =====
===== DaCapo 9.12 lusearch completed warmup 407 in 1985 msec =====
===== DaCapo 9.12 lusearch starting warmup 408 =====
===== DaCapo 9.12 lusearch completed warmup 408 in 2055 msec =====
===== DaCapo 9.12 lusearch starting warmup 409 =====
===== DaCapo 9.12 lusearch completed warmup 409 in 2054 msec =====
===== DaCapo 9.12 lusearch starting warmup 410 =====
===== DaCapo 9.12 lusearch completed warmup 410 in 2030 msec =====
===== DaCapo 9.12 lusearch starting warmup 411 =====
===== DaCapo 9.12 lusearch completed warmup 411 in 2050 msec =====
===== DaCapo 9.12 lusearch starting warmup 412 =====
===== DaCapo 9.12 lusearch completed warmup 412 in 2037 msec =====
===== DaCapo 9.12 lusearch starting warmup 413 =====
===== DaCapo 9.12 lusearch completed warmup 413 in 2099 msec =====
===== DaCapo 9.12 lusearch starting warmup 414 =====
===== DaCapo 9.12 lusearch completed warmup 414 in 2060 msec =====
===== DaCapo 9.12 lusearch starting warmup 415 =====
===== DaCapo 9.12 lusearch completed warmup 415 in 2029 msec =====
===== DaCapo 9.12 lusearch starting warmup 416 =====
===== DaCapo 9.12 lusearch completed warmup 416 in 2051 msec =====
===== DaCapo 9.12 lusearch starting warmup 417 =====
===== DaCapo 9.12 lusearch completed warmup 417 in 1992 msec =====
===== DaCapo 9.12 lusearch starting warmup 418 =====
===== DaCapo 9.12 lusearch completed warmup 418 in 2033 msec =====
===== DaCapo 9.12 lusearch starting warmup 419 =====
===== DaCapo 9.12 lusearch completed warmup 419 in 2069 msec =====
===== DaCapo 9.12 lusearch starting warmup 420 =====
===== DaCapo 9.12 lusearch completed warmup 420 in 1965 msec =====
===== DaCapo 9.12 lusearch starting warmup 421 =====
===== DaCapo 9.12 lusearch completed warmup 421 in 2023 msec =====
===== DaCapo 9.12 lusearch starting warmup 422 =====
===== DaCapo 9.12 lusearch completed warmup 422 in 2054 msec =====
===== DaCapo 9.12 lusearch starting warmup 423 =====
===== DaCapo 9.12 lusearch completed warmup 423 in 2017 msec =====
===== DaCapo 9.12 lusearch starting warmup 424 =====
===== DaCapo 9.12 lusearch completed warmup 424 in 2001 msec =====
===== DaCapo 9.12 lusearch starting warmup 425 =====
===== DaCapo 9.12 lusearch completed warmup 425 in 1981 msec =====
===== DaCapo 9.12 lusearch starting warmup 426 =====
===== DaCapo 9.12 lusearch completed warmup 426 in 2067 msec =====
===== DaCapo 9.12 lusearch starting warmup 427 =====
===== DaCapo 9.12 lusearch completed warmup 427 in 2014 msec =====
===== DaCapo 9.12 lusearch starting warmup 428 =====
===== DaCapo 9.12 lusearch completed warmup 428 in 2003 msec =====
===== DaCapo 9.12 lusearch starting warmup 429 =====
===== DaCapo 9.12 lusearch completed warmup 429 in 2005 msec =====
===== DaCapo 9.12 lusearch starting warmup 430 =====
===== DaCapo 9.12 lusearch completed warmup 430 in 2026 msec =====
===== DaCapo 9.12 lusearch starting warmup 431 =====
===== DaCapo 9.12 lusearch completed warmup 431 in 1972 msec =====
===== DaCapo 9.12 lusearch starting warmup 432 =====
===== DaCapo 9.12 lusearch completed warmup 432 in 2025 msec =====
===== DaCapo 9.12 lusearch starting warmup 433 =====
===== DaCapo 9.12 lusearch completed warmup 433 in 2006 msec =====
===== DaCapo 9.12 lusearch starting warmup 434 =====
===== DaCapo 9.12 lusearch completed warmup 434 in 2064 msec =====
===== DaCapo 9.12 lusearch starting warmup 435 =====
===== DaCapo 9.12 lusearch completed warmup 435 in 2005 msec =====
===== DaCapo 9.12 lusearch starting warmup 436 =====
===== DaCapo 9.12 lusearch completed warmup 436 in 1982 msec =====
===== DaCapo 9.12 lusearch starting warmup 437 =====
===== DaCapo 9.12 lusearch completed warmup 437 in 2089 msec =====
===== DaCapo 9.12 lusearch starting warmup 438 =====
===== DaCapo 9.12 lusearch completed warmup 438 in 2054 msec =====
===== DaCapo 9.12 lusearch starting warmup 439 =====
===== DaCapo 9.12 lusearch completed warmup 439 in 1989 msec =====
===== DaCapo 9.12 lusearch starting warmup 440 =====
===== DaCapo 9.12 lusearch completed warmup 440 in 1969 msec =====
===== DaCapo 9.12 lusearch starting warmup 441 =====
===== DaCapo 9.12 lusearch completed warmup 441 in 2038 msec =====
===== DaCapo 9.12 lusearch starting warmup 442 =====
===== DaCapo 9.12 lusearch completed warmup 442 in 2049 msec =====
===== DaCapo 9.12 lusearch starting warmup 443 =====
===== DaCapo 9.12 lusearch completed warmup 443 in 1999 msec =====
===== DaCapo 9.12 lusearch starting warmup 444 =====
===== DaCapo 9.12 lusearch completed warmup 444 in 2018 msec =====
===== DaCapo 9.12 lusearch starting warmup 445 =====
===== DaCapo 9.12 lusearch completed warmup 445 in 2049 msec =====
===== DaCapo 9.12 lusearch starting warmup 446 =====
===== DaCapo 9.12 lusearch completed warmup 446 in 2020 msec =====
===== DaCapo 9.12 lusearch starting warmup 447 =====
===== DaCapo 9.12 lusearch completed warmup 447 in 2086 msec =====
===== DaCapo 9.12 lusearch starting warmup 448 =====
===== DaCapo 9.12 lusearch completed warmup 448 in 2006 msec =====
===== DaCapo 9.12 lusearch starting warmup 449 =====
===== DaCapo 9.12 lusearch completed warmup 449 in 2000 msec =====
===== DaCapo 9.12 lusearch starting warmup 450 =====
===== DaCapo 9.12 lusearch completed warmup 450 in 2027 msec =====
===== DaCapo 9.12 lusearch starting warmup 451 =====
===== DaCapo 9.12 lusearch completed warmup 451 in 2045 msec =====
===== DaCapo 9.12 lusearch starting warmup 452 =====
===== DaCapo 9.12 lusearch completed warmup 452 in 1988 msec =====
===== DaCapo 9.12 lusearch starting warmup 453 =====
===== DaCapo 9.12 lusearch completed warmup 453 in 2019 msec =====
===== DaCapo 9.12 lusearch starting warmup 454 =====
===== DaCapo 9.12 lusearch completed warmup 454 in 1996 msec =====
===== DaCapo 9.12 lusearch starting warmup 455 =====
===== DaCapo 9.12 lusearch completed warmup 455 in 2031 msec =====
===== DaCapo 9.12 lusearch starting warmup 456 =====
===== DaCapo 9.12 lusearch completed warmup 456 in 2029 msec =====
===== DaCapo 9.12 lusearch starting warmup 457 =====
===== DaCapo 9.12 lusearch completed warmup 457 in 2006 msec =====
===== DaCapo 9.12 lusearch starting warmup 458 =====
===== DaCapo 9.12 lusearch completed warmup 458 in 2037 msec =====
===== DaCapo 9.12 lusearch starting warmup 459 =====
===== DaCapo 9.12 lusearch completed warmup 459 in 2044 msec =====
===== DaCapo 9.12 lusearch starting warmup 460 =====
===== DaCapo 9.12 lusearch completed warmup 460 in 2068 msec =====
===== DaCapo 9.12 lusearch starting warmup 461 =====
===== DaCapo 9.12 lusearch completed warmup 461 in 2034 msec =====
===== DaCapo 9.12 lusearch starting warmup 462 =====
===== DaCapo 9.12 lusearch completed warmup 462 in 2070 msec =====
===== DaCapo 9.12 lusearch starting warmup 463 =====
===== DaCapo 9.12 lusearch completed warmup 463 in 2012 msec =====
===== DaCapo 9.12 lusearch starting warmup 464 =====
===== DaCapo 9.12 lusearch completed warmup 464 in 2047 msec =====
===== DaCapo 9.12 lusearch starting warmup 465 =====
===== DaCapo 9.12 lusearch completed warmup 465 in 2001 msec =====
===== DaCapo 9.12 lusearch starting warmup 466 =====
===== DaCapo 9.12 lusearch completed warmup 466 in 2040 msec =====
===== DaCapo 9.12 lusearch starting warmup 467 =====
===== DaCapo 9.12 lusearch completed warmup 467 in 2066 msec =====
===== DaCapo 9.12 lusearch starting warmup 468 =====
===== DaCapo 9.12 lusearch completed warmup 468 in 2011 msec =====
===== DaCapo 9.12 lusearch starting warmup 469 =====
===== DaCapo 9.12 lusearch completed warmup 469 in 2038 msec =====
===== DaCapo 9.12 lusearch starting warmup 470 =====
===== DaCapo 9.12 lusearch completed warmup 470 in 2032 msec =====
===== DaCapo 9.12 lusearch starting warmup 471 =====
===== DaCapo 9.12 lusearch completed warmup 471 in 2015 msec =====
===== DaCapo 9.12 lusearch starting warmup 472 =====
===== DaCapo 9.12 lusearch completed warmup 472 in 2031 msec =====
===== DaCapo 9.12 lusearch starting warmup 473 =====
===== DaCapo 9.12 lusearch completed warmup 473 in 1996 msec =====
===== DaCapo 9.12 lusearch starting warmup 474 =====
===== DaCapo 9.12 lusearch completed warmup 474 in 2035 msec =====
===== DaCapo 9.12 lusearch starting warmup 475 =====
===== DaCapo 9.12 lusearch completed warmup 475 in 2078 msec =====
===== DaCapo 9.12 lusearch starting warmup 476 =====
===== DaCapo 9.12 lusearch completed warmup 476 in 2047 msec =====
===== DaCapo 9.12 lusearch starting warmup 477 =====
===== DaCapo 9.12 lusearch completed warmup 477 in 2004 msec =====
===== DaCapo 9.12 lusearch starting warmup 478 =====
===== DaCapo 9.12 lusearch completed warmup 478 in 2014 msec =====
===== DaCapo 9.12 lusearch starting warmup 479 =====
===== DaCapo 9.12 lusearch completed warmup 479 in 2064 msec =====
===== DaCapo 9.12 lusearch starting warmup 480 =====
===== DaCapo 9.12 lusearch completed warmup 480 in 2050 msec =====
===== DaCapo 9.12 lusearch starting warmup 481 =====
===== DaCapo 9.12 lusearch completed warmup 481 in 2053 msec =====
===== DaCapo 9.12 lusearch starting warmup 482 =====
===== DaCapo 9.12 lusearch completed warmup 482 in 2054 msec =====
===== DaCapo 9.12 lusearch starting warmup 483 =====
===== DaCapo 9.12 lusearch completed warmup 483 in 2017 msec =====
===== DaCapo 9.12 lusearch starting warmup 484 =====
===== DaCapo 9.12 lusearch completed warmup 484 in 2037 msec =====
===== DaCapo 9.12 lusearch starting warmup 485 =====
===== DaCapo 9.12 lusearch completed warmup 485 in 2087 msec =====
===== DaCapo 9.12 lusearch starting warmup 486 =====
===== DaCapo 9.12 lusearch completed warmup 486 in 1997 msec =====
===== DaCapo 9.12 lusearch starting warmup 487 =====
===== DaCapo 9.12 lusearch completed warmup 487 in 2002 msec =====
===== DaCapo 9.12 lusearch starting warmup 488 =====
===== DaCapo 9.12 lusearch completed warmup 488 in 2063 msec =====
===== DaCapo 9.12 lusearch starting warmup 489 =====
===== DaCapo 9.12 lusearch completed warmup 489 in 2103 msec =====
===== DaCapo 9.12 lusearch starting warmup 490 =====
===== DaCapo 9.12 lusearch completed warmup 490 in 2054 msec =====
===== DaCapo 9.12 lusearch starting warmup 491 =====
===== DaCapo 9.12 lusearch completed warmup 491 in 2047 msec =====
===== DaCapo 9.12 lusearch starting warmup 492 =====
===== DaCapo 9.12 lusearch completed warmup 492 in 2017 msec =====
===== DaCapo 9.12 lusearch starting warmup 493 =====
===== DaCapo 9.12 lusearch completed warmup 493 in 2026 msec =====
===== DaCapo 9.12 lusearch starting warmup 494 =====
===== DaCapo 9.12 lusearch completed warmup 494 in 2031 msec =====
===== DaCapo 9.12 lusearch starting warmup 495 =====
===== DaCapo 9.12 lusearch completed warmup 495 in 2009 msec =====
===== DaCapo 9.12 lusearch starting warmup 496 =====
===== DaCapo 9.12 lusearch completed warmup 496 in 2025 msec =====
===== DaCapo 9.12 lusearch starting warmup 497 =====
===== DaCapo 9.12 lusearch completed warmup 497 in 2052 msec =====
===== DaCapo 9.12 lusearch starting warmup 498 =====
===== DaCapo 9.12 lusearch completed warmup 498 in 2036 msec =====
===== DaCapo 9.12 lusearch starting warmup 499 =====
===== DaCapo 9.12 lusearch completed warmup 499 in 1981 msec =====
===== DaCapo 9.12 lusearch starting warmup 500 =====
===== DaCapo 9.12 lusearch completed warmup 500 in 2061 msec =====
===== DaCapo 9.12 lusearch starting warmup 501 =====
===== DaCapo 9.12 lusearch completed warmup 501 in 2054 msec =====
===== DaCapo 9.12 lusearch starting warmup 502 =====
===== DaCapo 9.12 lusearch completed warmup 502 in 2052 msec =====
===== DaCapo 9.12 lusearch starting warmup 503 =====
===== DaCapo 9.12 lusearch completed warmup 503 in 2044 msec =====
===== DaCapo 9.12 lusearch starting warmup 504 =====
===== DaCapo 9.12 lusearch completed warmup 504 in 2084 msec =====
===== DaCapo 9.12 lusearch starting warmup 505 =====
===== DaCapo 9.12 lusearch completed warmup 505 in 2000 msec =====
===== DaCapo 9.12 lusearch starting warmup 506 =====
===== DaCapo 9.12 lusearch completed warmup 506 in 2025 msec =====
===== DaCapo 9.12 lusearch starting warmup 507 =====
===== DaCapo 9.12 lusearch completed warmup 507 in 2062 msec =====
===== DaCapo 9.12 lusearch starting warmup 508 =====
===== DaCapo 9.12 lusearch completed warmup 508 in 1986 msec =====
===== DaCapo 9.12 lusearch starting warmup 509 =====
===== DaCapo 9.12 lusearch completed warmup 509 in 2045 msec =====
===== DaCapo 9.12 lusearch starting warmup 510 =====
===== DaCapo 9.12 lusearch completed warmup 510 in 2063 msec =====
===== DaCapo 9.12 lusearch starting warmup 511 =====
===== DaCapo 9.12 lusearch completed warmup 511 in 2025 msec =====
===== DaCapo 9.12 lusearch starting warmup 512 =====
===== DaCapo 9.12 lusearch completed warmup 512 in 2023 msec =====
===== DaCapo 9.12 lusearch starting warmup 513 =====
===== DaCapo 9.12 lusearch completed warmup 513 in 2086 msec =====
===== DaCapo 9.12 lusearch starting warmup 514 =====
===== DaCapo 9.12 lusearch completed warmup 514 in 2028 msec =====
===== DaCapo 9.12 lusearch starting warmup 515 =====
===== DaCapo 9.12 lusearch completed warmup 515 in 2060 msec =====
===== DaCapo 9.12 lusearch starting warmup 516 =====
===== DaCapo 9.12 lusearch completed warmup 516 in 1990 msec =====
===== DaCapo 9.12 lusearch starting warmup 517 =====
===== DaCapo 9.12 lusearch completed warmup 517 in 2050 msec =====
===== DaCapo 9.12 lusearch starting warmup 518 =====
===== DaCapo 9.12 lusearch completed warmup 518 in 2050 msec =====
===== DaCapo 9.12 lusearch starting warmup 519 =====
===== DaCapo 9.12 lusearch completed warmup 519 in 2037 msec =====
===== DaCapo 9.12 lusearch starting warmup 520 =====
===== DaCapo 9.12 lusearch completed warmup 520 in 2091 msec =====
===== DaCapo 9.12 lusearch starting warmup 521 =====
===== DaCapo 9.12 lusearch completed warmup 521 in 2020 msec =====
===== DaCapo 9.12 lusearch starting warmup 522 =====
===== DaCapo 9.12 lusearch completed warmup 522 in 2006 msec =====
===== DaCapo 9.12 lusearch starting warmup 523 =====
===== DaCapo 9.12 lusearch completed warmup 523 in 2072 msec =====
===== DaCapo 9.12 lusearch starting warmup 524 =====
===== DaCapo 9.12 lusearch completed warmup 524 in 2059 msec =====
===== DaCapo 9.12 lusearch starting warmup 525 =====
===== DaCapo 9.12 lusearch completed warmup 525 in 2012 msec =====
===== DaCapo 9.12 lusearch starting warmup 526 =====
===== DaCapo 9.12 lusearch completed warmup 526 in 2031 msec =====
===== DaCapo 9.12 lusearch starting warmup 527 =====
===== DaCapo 9.12 lusearch completed warmup 527 in 2027 msec =====
===== DaCapo 9.12 lusearch starting warmup 528 =====
===== DaCapo 9.12 lusearch completed warmup 528 in 2005 msec =====
===== DaCapo 9.12 lusearch starting warmup 529 =====
===== DaCapo 9.12 lusearch completed warmup 529 in 2024 msec =====
===== DaCapo 9.12 lusearch starting warmup 530 =====
===== DaCapo 9.12 lusearch completed warmup 530 in 1981 msec =====
===== DaCapo 9.12 lusearch starting warmup 531 =====
===== DaCapo 9.12 lusearch completed warmup 531 in 2005 msec =====
===== DaCapo 9.12 lusearch starting warmup 532 =====
===== DaCapo 9.12 lusearch completed warmup 532 in 2094 msec =====
===== DaCapo 9.12 lusearch starting warmup 533 =====
===== DaCapo 9.12 lusearch completed warmup 533 in 2042 msec =====
===== DaCapo 9.12 lusearch starting warmup 534 =====
===== DaCapo 9.12 lusearch completed warmup 534 in 2004 msec =====
===== DaCapo 9.12 lusearch starting warmup 535 =====
===== DaCapo 9.12 lusearch completed warmup 535 in 2027 msec =====
===== DaCapo 9.12 lusearch starting warmup 536 =====
===== DaCapo 9.12 lusearch completed warmup 536 in 2025 msec =====
===== DaCapo 9.12 lusearch starting warmup 537 =====
===== DaCapo 9.12 lusearch completed warmup 537 in 2031 msec =====
===== DaCapo 9.12 lusearch starting warmup 538 =====
===== DaCapo 9.12 lusearch completed warmup 538 in 1959 msec =====
===== DaCapo 9.12 lusearch starting warmup 539 =====
===== DaCapo 9.12 lusearch completed warmup 539 in 2000 msec =====
===== DaCapo 9.12 lusearch starting warmup 540 =====
===== DaCapo 9.12 lusearch completed warmup 540 in 2054 msec =====
===== DaCapo 9.12 lusearch starting warmup 541 =====
===== DaCapo 9.12 lusearch completed warmup 541 in 2029 msec =====
===== DaCapo 9.12 lusearch starting warmup 542 =====
===== DaCapo 9.12 lusearch completed warmup 542 in 2093 msec =====
===== DaCapo 9.12 lusearch starting warmup 543 =====
===== DaCapo 9.12 lusearch completed warmup 543 in 2018 msec =====
===== DaCapo 9.12 lusearch starting warmup 544 =====
===== DaCapo 9.12 lusearch completed warmup 544 in 2047 msec =====
===== DaCapo 9.12 lusearch starting warmup 545 =====
===== DaCapo 9.12 lusearch completed warmup 545 in 2098 msec =====
===== DaCapo 9.12 lusearch starting warmup 546 =====
===== DaCapo 9.12 lusearch completed warmup 546 in 2049 msec =====
===== DaCapo 9.12 lusearch starting warmup 547 =====
===== DaCapo 9.12 lusearch completed warmup 547 in 2053 msec =====
===== DaCapo 9.12 lusearch starting warmup 548 =====
===== DaCapo 9.12 lusearch completed warmup 548 in 2041 msec =====
===== DaCapo 9.12 lusearch starting warmup 549 =====
===== DaCapo 9.12 lusearch completed warmup 549 in 2037 msec =====
===== DaCapo 9.12 lusearch starting warmup 550 =====
===== DaCapo 9.12 lusearch completed warmup 550 in 2039 msec =====
===== DaCapo 9.12 lusearch starting warmup 551 =====
===== DaCapo 9.12 lusearch completed warmup 551 in 2038 msec =====
===== DaCapo 9.12 lusearch starting warmup 552 =====
===== DaCapo 9.12 lusearch completed warmup 552 in 2046 msec =====
===== DaCapo 9.12 lusearch starting warmup 553 =====
===== DaCapo 9.12 lusearch completed warmup 553 in 2040 msec =====
===== DaCapo 9.12 lusearch starting warmup 554 =====
===== DaCapo 9.12 lusearch completed warmup 554 in 2035 msec =====
===== DaCapo 9.12 lusearch starting warmup 555 =====
===== DaCapo 9.12 lusearch completed warmup 555 in 2109 msec =====
===== DaCapo 9.12 lusearch starting warmup 556 =====
===== DaCapo 9.12 lusearch completed warmup 556 in 2020 msec =====
===== DaCapo 9.12 lusearch starting warmup 557 =====
===== DaCapo 9.12 lusearch completed warmup 557 in 1989 msec =====
===== DaCapo 9.12 lusearch starting warmup 558 =====
===== DaCapo 9.12 lusearch completed warmup 558 in 1995 msec =====
===== DaCapo 9.12 lusearch starting warmup 559 =====
===== DaCapo 9.12 lusearch completed warmup 559 in 1982 msec =====
===== DaCapo 9.12 lusearch starting warmup 560 =====
===== DaCapo 9.12 lusearch completed warmup 560 in 2008 msec =====
===== DaCapo 9.12 lusearch starting warmup 561 =====
===== DaCapo 9.12 lusearch completed warmup 561 in 2002 msec =====
===== DaCapo 9.12 lusearch starting warmup 562 =====
===== DaCapo 9.12 lusearch completed warmup 562 in 2028 msec =====
===== DaCapo 9.12 lusearch starting warmup 563 =====
===== DaCapo 9.12 lusearch completed warmup 563 in 2064 msec =====
===== DaCapo 9.12 lusearch starting warmup 564 =====
===== DaCapo 9.12 lusearch completed warmup 564 in 2057 msec =====
===== DaCapo 9.12 lusearch starting warmup 565 =====
===== DaCapo 9.12 lusearch completed warmup 565 in 2025 msec =====
===== DaCapo 9.12 lusearch starting warmup 566 =====
===== DaCapo 9.12 lusearch completed warmup 566 in 2018 msec =====
===== DaCapo 9.12 lusearch starting warmup 567 =====
===== DaCapo 9.12 lusearch completed warmup 567 in 2018 msec =====
===== DaCapo 9.12 lusearch starting warmup 568 =====
===== DaCapo 9.12 lusearch completed warmup 568 in 2007 msec =====
===== DaCapo 9.12 lusearch starting warmup 569 =====
===== DaCapo 9.12 lusearch completed warmup 569 in 2001 msec =====
===== DaCapo 9.12 lusearch starting warmup 570 =====
===== DaCapo 9.12 lusearch completed warmup 570 in 2019 msec =====
===== DaCapo 9.12 lusearch starting warmup 571 =====
