===== DaCapo 9.12 sunflow starting warmup 1 =====
===== DaCapo 9.12 sunflow completed warmup 1 in 2682 msec =====
===== DaCapo 9.12 sunflow starting warmup 2 =====
===== DaCapo 9.12 sunflow completed warmup 2 in 2302 msec =====
===== DaCapo 9.12 sunflow starting warmup 3 =====
===== DaCapo 9.12 sunflow completed warmup 3 in 2354 msec =====
===== DaCapo 9.12 sunflow starting warmup 4 =====
===== DaCapo 9.12 sunflow completed warmup 4 in 2364 msec =====
===== DaCapo 9.12 sunflow starting warmup 5 =====
===== DaCapo 9.12 sunflow completed warmup 5 in 2356 msec =====
===== DaCapo 9.12 sunflow starting warmup 6 =====
===== DaCapo 9.12 sunflow completed warmup 6 in 2313 msec =====
===== DaCapo 9.12 sunflow starting warmup 7 =====
===== DaCapo 9.12 sunflow completed warmup 7 in 2324 msec =====
===== DaCapo 9.12 sunflow starting warmup 8 =====
===== DaCapo 9.12 sunflow completed warmup 8 in 2290 msec =====
===== DaCapo 9.12 sunflow starting warmup 9 =====
===== DaCapo 9.12 sunflow completed warmup 9 in 2418 msec =====
===== DaCapo 9.12 sunflow starting warmup 10 =====
===== DaCapo 9.12 sunflow completed warmup 10 in 2315 msec =====
===== DaCapo 9.12 sunflow starting warmup 11 =====
===== DaCapo 9.12 sunflow completed warmup 11 in 2307 msec =====
===== DaCapo 9.12 sunflow starting warmup 12 =====
===== DaCapo 9.12 sunflow completed warmup 12 in 2521 msec =====
===== DaCapo 9.12 sunflow starting warmup 13 =====
===== DaCapo 9.12 sunflow completed warmup 13 in 2447 msec =====
===== DaCapo 9.12 sunflow starting warmup 14 =====
===== DaCapo 9.12 sunflow completed warmup 14 in 2292 msec =====
===== DaCapo 9.12 sunflow starting warmup 15 =====
===== DaCapo 9.12 sunflow completed warmup 15 in 2359 msec =====
===== DaCapo 9.12 sunflow starting warmup 16 =====
===== DaCapo 9.12 sunflow completed warmup 16 in 2276 msec =====
===== DaCapo 9.12 sunflow starting warmup 17 =====
===== DaCapo 9.12 sunflow completed warmup 17 in 2326 msec =====
===== DaCapo 9.12 sunflow starting warmup 18 =====
===== DaCapo 9.12 sunflow completed warmup 18 in 2329 msec =====
===== DaCapo 9.12 sunflow starting warmup 19 =====
===== DaCapo 9.12 sunflow completed warmup 19 in 2556 msec =====
===== DaCapo 9.12 sunflow starting warmup 20 =====
===== DaCapo 9.12 sunflow completed warmup 20 in 2341 msec =====
===== DaCapo 9.12 sunflow starting warmup 21 =====
===== DaCapo 9.12 sunflow completed warmup 21 in 2328 msec =====
===== DaCapo 9.12 sunflow starting warmup 22 =====
===== DaCapo 9.12 sunflow completed warmup 22 in 2497 msec =====
===== DaCapo 9.12 sunflow starting warmup 23 =====
===== DaCapo 9.12 sunflow completed warmup 23 in 2446 msec =====
===== DaCapo 9.12 sunflow starting warmup 24 =====
===== DaCapo 9.12 sunflow completed warmup 24 in 2337 msec =====
===== DaCapo 9.12 sunflow starting warmup 25 =====
===== DaCapo 9.12 sunflow completed warmup 25 in 2500 msec =====
===== DaCapo 9.12 sunflow starting warmup 26 =====
===== DaCapo 9.12 sunflow completed warmup 26 in 2519 msec =====
===== DaCapo 9.12 sunflow starting warmup 27 =====
===== DaCapo 9.12 sunflow completed warmup 27 in 2311 msec =====
===== DaCapo 9.12 sunflow starting warmup 28 =====
===== DaCapo 9.12 sunflow completed warmup 28 in 2357 msec =====
===== DaCapo 9.12 sunflow starting warmup 29 =====
===== DaCapo 9.12 sunflow completed warmup 29 in 2351 msec =====
===== DaCapo 9.12 sunflow starting warmup 30 =====
===== DaCapo 9.12 sunflow completed warmup 30 in 2339 msec =====
===== DaCapo 9.12 sunflow starting warmup 31 =====
===== DaCapo 9.12 sunflow completed warmup 31 in 2481 msec =====
===== DaCapo 9.12 sunflow starting warmup 32 =====
===== DaCapo 9.12 sunflow completed warmup 32 in 2588 msec =====
===== DaCapo 9.12 sunflow starting warmup 33 =====
===== DaCapo 9.12 sunflow completed warmup 33 in 2592 msec =====
===== DaCapo 9.12 sunflow starting warmup 34 =====
===== DaCapo 9.12 sunflow completed warmup 34 in 2303 msec =====
===== DaCapo 9.12 sunflow starting warmup 35 =====
===== DaCapo 9.12 sunflow completed warmup 35 in 2353 msec =====
===== DaCapo 9.12 sunflow starting warmup 36 =====
===== DaCapo 9.12 sunflow completed warmup 36 in 2600 msec =====
===== DaCapo 9.12 sunflow starting warmup 37 =====
===== DaCapo 9.12 sunflow completed warmup 37 in 2411 msec =====
===== DaCapo 9.12 sunflow starting warmup 38 =====
===== DaCapo 9.12 sunflow completed warmup 38 in 2325 msec =====
===== DaCapo 9.12 sunflow starting warmup 39 =====
===== DaCapo 9.12 sunflow completed warmup 39 in 2426 msec =====
===== DaCapo 9.12 sunflow starting warmup 40 =====
===== DaCapo 9.12 sunflow completed warmup 40 in 2357 msec =====
===== DaCapo 9.12 sunflow starting warmup 41 =====
===== DaCapo 9.12 sunflow completed warmup 41 in 2297 msec =====
===== DaCapo 9.12 sunflow starting warmup 42 =====
===== DaCapo 9.12 sunflow completed warmup 42 in 2285 msec =====
===== DaCapo 9.12 sunflow starting warmup 43 =====
===== DaCapo 9.12 sunflow completed warmup 43 in 2620 msec =====
===== DaCapo 9.12 sunflow starting warmup 44 =====
===== DaCapo 9.12 sunflow completed warmup 44 in 2511 msec =====
===== DaCapo 9.12 sunflow starting warmup 45 =====
===== DaCapo 9.12 sunflow completed warmup 45 in 2271 msec =====
===== DaCapo 9.12 sunflow starting warmup 46 =====
===== DaCapo 9.12 sunflow completed warmup 46 in 2433 msec =====
===== DaCapo 9.12 sunflow starting warmup 47 =====
===== DaCapo 9.12 sunflow completed warmup 47 in 2566 msec =====
===== DaCapo 9.12 sunflow starting warmup 48 =====
===== DaCapo 9.12 sunflow completed warmup 48 in 2287 msec =====
===== DaCapo 9.12 sunflow starting warmup 49 =====
===== DaCapo 9.12 sunflow completed warmup 49 in 2299 msec =====
===== DaCapo 9.12 sunflow starting warmup 50 =====
===== DaCapo 9.12 sunflow completed warmup 50 in 2360 msec =====
===== DaCapo 9.12 sunflow starting warmup 51 =====
===== DaCapo 9.12 sunflow completed warmup 51 in 2393 msec =====
===== DaCapo 9.12 sunflow starting warmup 52 =====
===== DaCapo 9.12 sunflow completed warmup 52 in 2328 msec =====
===== DaCapo 9.12 sunflow starting warmup 53 =====
===== DaCapo 9.12 sunflow completed warmup 53 in 2320 msec =====
===== DaCapo 9.12 sunflow starting warmup 54 =====
===== DaCapo 9.12 sunflow completed warmup 54 in 2315 msec =====
===== DaCapo 9.12 sunflow starting warmup 55 =====
===== DaCapo 9.12 sunflow completed warmup 55 in 2556 msec =====
===== DaCapo 9.12 sunflow starting warmup 56 =====
===== DaCapo 9.12 sunflow completed warmup 56 in 2294 msec =====
===== DaCapo 9.12 sunflow starting warmup 57 =====
===== DaCapo 9.12 sunflow completed warmup 57 in 2387 msec =====
===== DaCapo 9.12 sunflow starting warmup 58 =====
===== DaCapo 9.12 sunflow completed warmup 58 in 2346 msec =====
===== DaCapo 9.12 sunflow starting warmup 59 =====
===== DaCapo 9.12 sunflow completed warmup 59 in 2361 msec =====
===== DaCapo 9.12 sunflow starting warmup 60 =====
===== DaCapo 9.12 sunflow completed warmup 60 in 2366 msec =====
===== DaCapo 9.12 sunflow starting warmup 61 =====
===== DaCapo 9.12 sunflow completed warmup 61 in 2333 msec =====
===== DaCapo 9.12 sunflow starting warmup 62 =====
===== DaCapo 9.12 sunflow completed warmup 62 in 2347 msec =====
===== DaCapo 9.12 sunflow starting warmup 63 =====
===== DaCapo 9.12 sunflow completed warmup 63 in 2558 msec =====
===== DaCapo 9.12 sunflow starting warmup 64 =====
===== DaCapo 9.12 sunflow completed warmup 64 in 2594 msec =====
===== DaCapo 9.12 sunflow starting warmup 65 =====
===== DaCapo 9.12 sunflow completed warmup 65 in 2293 msec =====
===== DaCapo 9.12 sunflow starting warmup 66 =====
===== DaCapo 9.12 sunflow completed warmup 66 in 2568 msec =====
===== DaCapo 9.12 sunflow starting warmup 67 =====
===== DaCapo 9.12 sunflow completed warmup 67 in 2589 msec =====
===== DaCapo 9.12 sunflow starting warmup 68 =====
===== DaCapo 9.12 sunflow completed warmup 68 in 2578 msec =====
===== DaCapo 9.12 sunflow starting warmup 69 =====
===== DaCapo 9.12 sunflow completed warmup 69 in 2261 msec =====
===== DaCapo 9.12 sunflow starting warmup 70 =====
===== DaCapo 9.12 sunflow completed warmup 70 in 2347 msec =====
===== DaCapo 9.12 sunflow starting warmup 71 =====
===== DaCapo 9.12 sunflow completed warmup 71 in 2409 msec =====
===== DaCapo 9.12 sunflow starting warmup 72 =====
===== DaCapo 9.12 sunflow completed warmup 72 in 2536 msec =====
===== DaCapo 9.12 sunflow starting warmup 73 =====
===== DaCapo 9.12 sunflow completed warmup 73 in 2593 msec =====
===== DaCapo 9.12 sunflow starting warmup 74 =====
===== DaCapo 9.12 sunflow completed warmup 74 in 2518 msec =====
===== DaCapo 9.12 sunflow starting warmup 75 =====
===== DaCapo 9.12 sunflow completed warmup 75 in 2461 msec =====
===== DaCapo 9.12 sunflow starting warmup 76 =====
===== DaCapo 9.12 sunflow completed warmup 76 in 2546 msec =====
===== DaCapo 9.12 sunflow starting warmup 77 =====
===== DaCapo 9.12 sunflow completed warmup 77 in 2487 msec =====
===== DaCapo 9.12 sunflow starting warmup 78 =====
===== DaCapo 9.12 sunflow completed warmup 78 in 2489 msec =====
===== DaCapo 9.12 sunflow starting warmup 79 =====
===== DaCapo 9.12 sunflow completed warmup 79 in 2492 msec =====
===== DaCapo 9.12 sunflow starting warmup 80 =====
===== DaCapo 9.12 sunflow completed warmup 80 in 2432 msec =====
===== DaCapo 9.12 sunflow starting warmup 81 =====
===== DaCapo 9.12 sunflow completed warmup 81 in 2368 msec =====
===== DaCapo 9.12 sunflow starting warmup 82 =====
===== DaCapo 9.12 sunflow completed warmup 82 in 2592 msec =====
===== DaCapo 9.12 sunflow starting warmup 83 =====
===== DaCapo 9.12 sunflow completed warmup 83 in 2306 msec =====
===== DaCapo 9.12 sunflow starting warmup 84 =====
===== DaCapo 9.12 sunflow completed warmup 84 in 2391 msec =====
===== DaCapo 9.12 sunflow starting warmup 85 =====
===== DaCapo 9.12 sunflow completed warmup 85 in 2492 msec =====
===== DaCapo 9.12 sunflow starting warmup 86 =====
===== DaCapo 9.12 sunflow completed warmup 86 in 2322 msec =====
===== DaCapo 9.12 sunflow starting warmup 87 =====
===== DaCapo 9.12 sunflow completed warmup 87 in 2273 msec =====
===== DaCapo 9.12 sunflow starting warmup 88 =====
===== DaCapo 9.12 sunflow completed warmup 88 in 2313 msec =====
===== DaCapo 9.12 sunflow starting warmup 89 =====
===== DaCapo 9.12 sunflow completed warmup 89 in 2303 msec =====
===== DaCapo 9.12 sunflow starting warmup 90 =====
===== DaCapo 9.12 sunflow completed warmup 90 in 2303 msec =====
===== DaCapo 9.12 sunflow starting warmup 91 =====
===== DaCapo 9.12 sunflow completed warmup 91 in 2293 msec =====
===== DaCapo 9.12 sunflow starting warmup 92 =====
===== DaCapo 9.12 sunflow completed warmup 92 in 2336 msec =====
===== DaCapo 9.12 sunflow starting warmup 93 =====
===== DaCapo 9.12 sunflow completed warmup 93 in 2329 msec =====
===== DaCapo 9.12 sunflow starting warmup 94 =====
===== DaCapo 9.12 sunflow completed warmup 94 in 2379 msec =====
===== DaCapo 9.12 sunflow starting warmup 95 =====
===== DaCapo 9.12 sunflow completed warmup 95 in 2356 msec =====
===== DaCapo 9.12 sunflow starting warmup 96 =====
===== DaCapo 9.12 sunflow completed warmup 96 in 2350 msec =====
===== DaCapo 9.12 sunflow starting warmup 97 =====
===== DaCapo 9.12 sunflow completed warmup 97 in 2593 msec =====
===== DaCapo 9.12 sunflow starting warmup 98 =====
===== DaCapo 9.12 sunflow completed warmup 98 in 2593 msec =====
===== DaCapo 9.12 sunflow starting warmup 99 =====
===== DaCapo 9.12 sunflow completed warmup 99 in 2337 msec =====
===== DaCapo 9.12 sunflow starting warmup 100 =====
===== DaCapo 9.12 sunflow completed warmup 100 in 2303 msec =====
===== DaCapo 9.12 sunflow starting warmup 101 =====
===== DaCapo 9.12 sunflow completed warmup 101 in 2309 msec =====
===== DaCapo 9.12 sunflow starting warmup 102 =====
===== DaCapo 9.12 sunflow completed warmup 102 in 2267 msec =====
===== DaCapo 9.12 sunflow starting warmup 103 =====
===== DaCapo 9.12 sunflow completed warmup 103 in 2428 msec =====
===== DaCapo 9.12 sunflow starting warmup 104 =====
===== DaCapo 9.12 sunflow completed warmup 104 in 2591 msec =====
===== DaCapo 9.12 sunflow starting warmup 105 =====
===== DaCapo 9.12 sunflow completed warmup 105 in 2310 msec =====
===== DaCapo 9.12 sunflow starting warmup 106 =====
===== DaCapo 9.12 sunflow completed warmup 106 in 2356 msec =====
===== DaCapo 9.12 sunflow starting warmup 107 =====
===== DaCapo 9.12 sunflow completed warmup 107 in 2547 msec =====
===== DaCapo 9.12 sunflow starting warmup 108 =====
===== DaCapo 9.12 sunflow completed warmup 108 in 2535 msec =====
===== DaCapo 9.12 sunflow starting warmup 109 =====
===== DaCapo 9.12 sunflow completed warmup 109 in 2362 msec =====
===== DaCapo 9.12 sunflow starting warmup 110 =====
===== DaCapo 9.12 sunflow completed warmup 110 in 2318 msec =====
===== DaCapo 9.12 sunflow starting warmup 111 =====
===== DaCapo 9.12 sunflow completed warmup 111 in 2290 msec =====
===== DaCapo 9.12 sunflow starting warmup 112 =====
===== DaCapo 9.12 sunflow completed warmup 112 in 2306 msec =====
===== DaCapo 9.12 sunflow starting warmup 113 =====
===== DaCapo 9.12 sunflow completed warmup 113 in 2566 msec =====
===== DaCapo 9.12 sunflow starting warmup 114 =====
===== DaCapo 9.12 sunflow completed warmup 114 in 2361 msec =====
===== DaCapo 9.12 sunflow starting warmup 115 =====
===== DaCapo 9.12 sunflow completed warmup 115 in 2309 msec =====
===== DaCapo 9.12 sunflow starting warmup 116 =====
===== DaCapo 9.12 sunflow completed warmup 116 in 2390 msec =====
===== DaCapo 9.12 sunflow starting warmup 117 =====
===== DaCapo 9.12 sunflow completed warmup 117 in 2288 msec =====
===== DaCapo 9.12 sunflow starting warmup 118 =====
===== DaCapo 9.12 sunflow completed warmup 118 in 2310 msec =====
===== DaCapo 9.12 sunflow starting warmup 119 =====
===== DaCapo 9.12 sunflow completed warmup 119 in 2421 msec =====
===== DaCapo 9.12 sunflow starting warmup 120 =====
===== DaCapo 9.12 sunflow completed warmup 120 in 2358 msec =====
===== DaCapo 9.12 sunflow starting warmup 121 =====
===== DaCapo 9.12 sunflow completed warmup 121 in 2531 msec =====
===== DaCapo 9.12 sunflow starting warmup 122 =====
===== DaCapo 9.12 sunflow completed warmup 122 in 2487 msec =====
===== DaCapo 9.12 sunflow starting warmup 123 =====
===== DaCapo 9.12 sunflow completed warmup 123 in 2617 msec =====
===== DaCapo 9.12 sunflow starting warmup 124 =====
===== DaCapo 9.12 sunflow completed warmup 124 in 2520 msec =====
===== DaCapo 9.12 sunflow starting warmup 125 =====
===== DaCapo 9.12 sunflow completed warmup 125 in 2372 msec =====
===== DaCapo 9.12 sunflow starting warmup 126 =====
===== DaCapo 9.12 sunflow completed warmup 126 in 2374 msec =====
===== DaCapo 9.12 sunflow starting warmup 127 =====
===== DaCapo 9.12 sunflow completed warmup 127 in 2545 msec =====
===== DaCapo 9.12 sunflow starting warmup 128 =====
===== DaCapo 9.12 sunflow completed warmup 128 in 2309 msec =====
===== DaCapo 9.12 sunflow starting warmup 129 =====
===== DaCapo 9.12 sunflow completed warmup 129 in 2337 msec =====
===== DaCapo 9.12 sunflow starting warmup 130 =====
===== DaCapo 9.12 sunflow completed warmup 130 in 2419 msec =====
===== DaCapo 9.12 sunflow starting warmup 131 =====
===== DaCapo 9.12 sunflow completed warmup 131 in 2515 msec =====
===== DaCapo 9.12 sunflow starting warmup 132 =====
===== DaCapo 9.12 sunflow completed warmup 132 in 2459 msec =====
===== DaCapo 9.12 sunflow starting warmup 133 =====
===== DaCapo 9.12 sunflow completed warmup 133 in 2407 msec =====
===== DaCapo 9.12 sunflow starting warmup 134 =====
===== DaCapo 9.12 sunflow completed warmup 134 in 2312 msec =====
===== DaCapo 9.12 sunflow starting warmup 135 =====
===== DaCapo 9.12 sunflow completed warmup 135 in 2303 msec =====
===== DaCapo 9.12 sunflow starting warmup 136 =====
===== DaCapo 9.12 sunflow completed warmup 136 in 2481 msec =====
===== DaCapo 9.12 sunflow starting warmup 137 =====
===== DaCapo 9.12 sunflow completed warmup 137 in 2444 msec =====
===== DaCapo 9.12 sunflow starting warmup 138 =====
===== DaCapo 9.12 sunflow completed warmup 138 in 2508 msec =====
===== DaCapo 9.12 sunflow starting warmup 139 =====
===== DaCapo 9.12 sunflow completed warmup 139 in 2322 msec =====
===== DaCapo 9.12 sunflow starting warmup 140 =====
===== DaCapo 9.12 sunflow completed warmup 140 in 2267 msec =====
===== DaCapo 9.12 sunflow starting warmup 141 =====
===== DaCapo 9.12 sunflow completed warmup 141 in 2585 msec =====
===== DaCapo 9.12 sunflow starting warmup 142 =====
===== DaCapo 9.12 sunflow completed warmup 142 in 2542 msec =====
===== DaCapo 9.12 sunflow starting warmup 143 =====
===== DaCapo 9.12 sunflow completed warmup 143 in 2296 msec =====
===== DaCapo 9.12 sunflow starting warmup 144 =====
===== DaCapo 9.12 sunflow completed warmup 144 in 2341 msec =====
===== DaCapo 9.12 sunflow starting warmup 145 =====
===== DaCapo 9.12 sunflow completed warmup 145 in 2497 msec =====
===== DaCapo 9.12 sunflow starting warmup 146 =====
===== DaCapo 9.12 sunflow completed warmup 146 in 2573 msec =====
===== DaCapo 9.12 sunflow starting warmup 147 =====
===== DaCapo 9.12 sunflow completed warmup 147 in 2299 msec =====
===== DaCapo 9.12 sunflow starting warmup 148 =====
===== DaCapo 9.12 sunflow completed warmup 148 in 2342 msec =====
===== DaCapo 9.12 sunflow starting warmup 149 =====
===== DaCapo 9.12 sunflow completed warmup 149 in 2362 msec =====
===== DaCapo 9.12 sunflow starting warmup 150 =====
===== DaCapo 9.12 sunflow completed warmup 150 in 2422 msec =====
===== DaCapo 9.12 sunflow starting warmup 151 =====
===== DaCapo 9.12 sunflow completed warmup 151 in 2661 msec =====
===== DaCapo 9.12 sunflow starting warmup 152 =====
===== DaCapo 9.12 sunflow completed warmup 152 in 2312 msec =====
===== DaCapo 9.12 sunflow starting warmup 153 =====
===== DaCapo 9.12 sunflow completed warmup 153 in 2356 msec =====
===== DaCapo 9.12 sunflow starting warmup 154 =====
===== DaCapo 9.12 sunflow completed warmup 154 in 2301 msec =====
===== DaCapo 9.12 sunflow starting warmup 155 =====
===== DaCapo 9.12 sunflow completed warmup 155 in 2308 msec =====
===== DaCapo 9.12 sunflow starting warmup 156 =====
===== DaCapo 9.12 sunflow completed warmup 156 in 2320 msec =====
===== DaCapo 9.12 sunflow starting warmup 157 =====
===== DaCapo 9.12 sunflow completed warmup 157 in 2515 msec =====
===== DaCapo 9.12 sunflow starting warmup 158 =====
===== DaCapo 9.12 sunflow completed warmup 158 in 2255 msec =====
===== DaCapo 9.12 sunflow starting warmup 159 =====
===== DaCapo 9.12 sunflow completed warmup 159 in 2347 msec =====
===== DaCapo 9.12 sunflow starting warmup 160 =====
===== DaCapo 9.12 sunflow completed warmup 160 in 2335 msec =====
===== DaCapo 9.12 sunflow starting warmup 161 =====
===== DaCapo 9.12 sunflow completed warmup 161 in 2338 msec =====
===== DaCapo 9.12 sunflow starting warmup 162 =====
===== DaCapo 9.12 sunflow completed warmup 162 in 2332 msec =====
===== DaCapo 9.12 sunflow starting warmup 163 =====
===== DaCapo 9.12 sunflow completed warmup 163 in 2598 msec =====
===== DaCapo 9.12 sunflow starting warmup 164 =====
===== DaCapo 9.12 sunflow completed warmup 164 in 2584 msec =====
===== DaCapo 9.12 sunflow starting warmup 165 =====
===== DaCapo 9.12 sunflow completed warmup 165 in 2380 msec =====
===== DaCapo 9.12 sunflow starting warmup 166 =====
===== DaCapo 9.12 sunflow completed warmup 166 in 2360 msec =====
===== DaCapo 9.12 sunflow starting warmup 167 =====
===== DaCapo 9.12 sunflow completed warmup 167 in 2392 msec =====
===== DaCapo 9.12 sunflow starting warmup 168 =====
===== DaCapo 9.12 sunflow completed warmup 168 in 2416 msec =====
===== DaCapo 9.12 sunflow starting warmup 169 =====
===== DaCapo 9.12 sunflow completed warmup 169 in 2312 msec =====
===== DaCapo 9.12 sunflow starting warmup 170 =====
===== DaCapo 9.12 sunflow completed warmup 170 in 2332 msec =====
===== DaCapo 9.12 sunflow starting warmup 171 =====
===== DaCapo 9.12 sunflow completed warmup 171 in 2391 msec =====
===== DaCapo 9.12 sunflow starting warmup 172 =====
===== DaCapo 9.12 sunflow completed warmup 172 in 2422 msec =====
===== DaCapo 9.12 sunflow starting warmup 173 =====
===== DaCapo 9.12 sunflow completed warmup 173 in 2392 msec =====
===== DaCapo 9.12 sunflow starting warmup 174 =====
===== DaCapo 9.12 sunflow completed warmup 174 in 2327 msec =====
===== DaCapo 9.12 sunflow starting warmup 175 =====
===== DaCapo 9.12 sunflow completed warmup 175 in 2514 msec =====
===== DaCapo 9.12 sunflow starting warmup 176 =====
===== DaCapo 9.12 sunflow completed warmup 176 in 2411 msec =====
===== DaCapo 9.12 sunflow starting warmup 177 =====
===== DaCapo 9.12 sunflow completed warmup 177 in 2496 msec =====
===== DaCapo 9.12 sunflow starting warmup 178 =====
===== DaCapo 9.12 sunflow completed warmup 178 in 2310 msec =====
===== DaCapo 9.12 sunflow starting warmup 179 =====
===== DaCapo 9.12 sunflow completed warmup 179 in 2301 msec =====
===== DaCapo 9.12 sunflow starting warmup 180 =====
===== DaCapo 9.12 sunflow completed warmup 180 in 2301 msec =====
===== DaCapo 9.12 sunflow starting warmup 181 =====
===== DaCapo 9.12 sunflow completed warmup 181 in 2398 msec =====
===== DaCapo 9.12 sunflow starting warmup 182 =====
===== DaCapo 9.12 sunflow completed warmup 182 in 2295 msec =====
===== DaCapo 9.12 sunflow starting warmup 183 =====
===== DaCapo 9.12 sunflow completed warmup 183 in 2331 msec =====
===== DaCapo 9.12 sunflow starting warmup 184 =====
===== DaCapo 9.12 sunflow completed warmup 184 in 2364 msec =====
===== DaCapo 9.12 sunflow starting warmup 185 =====
===== DaCapo 9.12 sunflow completed warmup 185 in 2325 msec =====
===== DaCapo 9.12 sunflow starting warmup 186 =====
===== DaCapo 9.12 sunflow completed warmup 186 in 2350 msec =====
===== DaCapo 9.12 sunflow starting warmup 187 =====
===== DaCapo 9.12 sunflow completed warmup 187 in 2475 msec =====
===== DaCapo 9.12 sunflow starting warmup 188 =====
===== DaCapo 9.12 sunflow completed warmup 188 in 2289 msec =====
===== DaCapo 9.12 sunflow starting warmup 189 =====
===== DaCapo 9.12 sunflow completed warmup 189 in 2307 msec =====
===== DaCapo 9.12 sunflow starting warmup 190 =====
===== DaCapo 9.12 sunflow completed warmup 190 in 2425 msec =====
===== DaCapo 9.12 sunflow starting warmup 191 =====
===== DaCapo 9.12 sunflow completed warmup 191 in 2278 msec =====
===== DaCapo 9.12 sunflow starting warmup 192 =====
===== DaCapo 9.12 sunflow completed warmup 192 in 2306 msec =====
===== DaCapo 9.12 sunflow starting warmup 193 =====
===== DaCapo 9.12 sunflow completed warmup 193 in 2437 msec =====
===== DaCapo 9.12 sunflow starting warmup 194 =====
===== DaCapo 9.12 sunflow completed warmup 194 in 2302 msec =====
===== DaCapo 9.12 sunflow starting warmup 195 =====
===== DaCapo 9.12 sunflow completed warmup 195 in 2445 msec =====
===== DaCapo 9.12 sunflow starting warmup 196 =====
===== DaCapo 9.12 sunflow completed warmup 196 in 2295 msec =====
===== DaCapo 9.12 sunflow starting warmup 197 =====
===== DaCapo 9.12 sunflow completed warmup 197 in 2269 msec =====
===== DaCapo 9.12 sunflow starting warmup 198 =====
===== DaCapo 9.12 sunflow completed warmup 198 in 2363 msec =====
===== DaCapo 9.12 sunflow starting warmup 199 =====
===== DaCapo 9.12 sunflow completed warmup 199 in 2316 msec =====
===== DaCapo 9.12 sunflow starting warmup 200 =====
===== DaCapo 9.12 sunflow completed warmup 200 in 2287 msec =====
===== DaCapo 9.12 sunflow starting warmup 201 =====
===== DaCapo 9.12 sunflow completed warmup 201 in 2302 msec =====
===== DaCapo 9.12 sunflow starting warmup 202 =====
===== DaCapo 9.12 sunflow completed warmup 202 in 2364 msec =====
===== DaCapo 9.12 sunflow starting warmup 203 =====
===== DaCapo 9.12 sunflow completed warmup 203 in 2284 msec =====
===== DaCapo 9.12 sunflow starting warmup 204 =====
===== DaCapo 9.12 sunflow completed warmup 204 in 2324 msec =====
===== DaCapo 9.12 sunflow starting warmup 205 =====
===== DaCapo 9.12 sunflow completed warmup 205 in 2288 msec =====
===== DaCapo 9.12 sunflow starting warmup 206 =====
===== DaCapo 9.12 sunflow completed warmup 206 in 2276 msec =====
===== DaCapo 9.12 sunflow starting warmup 207 =====
===== DaCapo 9.12 sunflow completed warmup 207 in 2330 msec =====
===== DaCapo 9.12 sunflow starting warmup 208 =====
===== DaCapo 9.12 sunflow completed warmup 208 in 2249 msec =====
===== DaCapo 9.12 sunflow starting warmup 209 =====
===== DaCapo 9.12 sunflow completed warmup 209 in 2330 msec =====
===== DaCapo 9.12 sunflow starting warmup 210 =====
===== DaCapo 9.12 sunflow completed warmup 210 in 2609 msec =====
===== DaCapo 9.12 sunflow starting warmup 211 =====
===== DaCapo 9.12 sunflow completed warmup 211 in 2270 msec =====
===== DaCapo 9.12 sunflow starting warmup 212 =====
===== DaCapo 9.12 sunflow completed warmup 212 in 2445 msec =====
===== DaCapo 9.12 sunflow starting warmup 213 =====
===== DaCapo 9.12 sunflow completed warmup 213 in 2320 msec =====
===== DaCapo 9.12 sunflow starting warmup 214 =====
===== DaCapo 9.12 sunflow completed warmup 214 in 2362 msec =====
===== DaCapo 9.12 sunflow starting warmup 215 =====
===== DaCapo 9.12 sunflow completed warmup 215 in 2661 msec =====
===== DaCapo 9.12 sunflow starting warmup 216 =====
===== DaCapo 9.12 sunflow completed warmup 216 in 2339 msec =====
===== DaCapo 9.12 sunflow starting warmup 217 =====
===== DaCapo 9.12 sunflow completed warmup 217 in 2342 msec =====
===== DaCapo 9.12 sunflow starting warmup 218 =====
===== DaCapo 9.12 sunflow completed warmup 218 in 2326 msec =====
===== DaCapo 9.12 sunflow starting warmup 219 =====
===== DaCapo 9.12 sunflow completed warmup 219 in 2314 msec =====
===== DaCapo 9.12 sunflow starting warmup 220 =====
===== DaCapo 9.12 sunflow completed warmup 220 in 2320 msec =====
===== DaCapo 9.12 sunflow starting warmup 221 =====
===== DaCapo 9.12 sunflow completed warmup 221 in 2267 msec =====
===== DaCapo 9.12 sunflow starting warmup 222 =====
===== DaCapo 9.12 sunflow completed warmup 222 in 2308 msec =====
===== DaCapo 9.12 sunflow starting warmup 223 =====
===== DaCapo 9.12 sunflow completed warmup 223 in 2315 msec =====
===== DaCapo 9.12 sunflow starting warmup 224 =====
===== DaCapo 9.12 sunflow completed warmup 224 in 2430 msec =====
===== DaCapo 9.12 sunflow starting warmup 225 =====
===== DaCapo 9.12 sunflow completed warmup 225 in 2613 msec =====
===== DaCapo 9.12 sunflow starting warmup 226 =====
===== DaCapo 9.12 sunflow completed warmup 226 in 2351 msec =====
===== DaCapo 9.12 sunflow starting warmup 227 =====
===== DaCapo 9.12 sunflow completed warmup 227 in 2266 msec =====
===== DaCapo 9.12 sunflow starting warmup 228 =====
===== DaCapo 9.12 sunflow completed warmup 228 in 2281 msec =====
===== DaCapo 9.12 sunflow starting warmup 229 =====
===== DaCapo 9.12 sunflow completed warmup 229 in 2306 msec =====
===== DaCapo 9.12 sunflow starting warmup 230 =====
===== DaCapo 9.12 sunflow completed warmup 230 in 2330 msec =====
===== DaCapo 9.12 sunflow starting warmup 231 =====
===== DaCapo 9.12 sunflow completed warmup 231 in 2297 msec =====
===== DaCapo 9.12 sunflow starting warmup 232 =====
===== DaCapo 9.12 sunflow completed warmup 232 in 2361 msec =====
===== DaCapo 9.12 sunflow starting warmup 233 =====
===== DaCapo 9.12 sunflow completed warmup 233 in 2278 msec =====
===== DaCapo 9.12 sunflow starting warmup 234 =====
===== DaCapo 9.12 sunflow completed warmup 234 in 2369 msec =====
===== DaCapo 9.12 sunflow starting warmup 235 =====
===== DaCapo 9.12 sunflow completed warmup 235 in 2285 msec =====
===== DaCapo 9.12 sunflow starting warmup 236 =====
===== DaCapo 9.12 sunflow completed warmup 236 in 2306 msec =====
===== DaCapo 9.12 sunflow starting warmup 237 =====
===== DaCapo 9.12 sunflow completed warmup 237 in 2368 msec =====
===== DaCapo 9.12 sunflow starting warmup 238 =====
===== DaCapo 9.12 sunflow completed warmup 238 in 2346 msec =====
===== DaCapo 9.12 sunflow starting warmup 239 =====
===== DaCapo 9.12 sunflow completed warmup 239 in 2322 msec =====
===== DaCapo 9.12 sunflow starting warmup 240 =====
===== DaCapo 9.12 sunflow completed warmup 240 in 2346 msec =====
===== DaCapo 9.12 sunflow starting warmup 241 =====
===== DaCapo 9.12 sunflow completed warmup 241 in 2531 msec =====
===== DaCapo 9.12 sunflow starting warmup 242 =====
===== DaCapo 9.12 sunflow completed warmup 242 in 2570 msec =====
===== DaCapo 9.12 sunflow starting warmup 243 =====
===== DaCapo 9.12 sunflow completed warmup 243 in 2342 msec =====
===== DaCapo 9.12 sunflow starting warmup 244 =====
===== DaCapo 9.12 sunflow completed warmup 244 in 2364 msec =====
===== DaCapo 9.12 sunflow starting warmup 245 =====
===== DaCapo 9.12 sunflow completed warmup 245 in 2378 msec =====
===== DaCapo 9.12 sunflow starting warmup 246 =====
===== DaCapo 9.12 sunflow completed warmup 246 in 2275 msec =====
===== DaCapo 9.12 sunflow starting warmup 247 =====
===== DaCapo 9.12 sunflow completed warmup 247 in 2563 msec =====
===== DaCapo 9.12 sunflow starting warmup 248 =====
===== DaCapo 9.12 sunflow completed warmup 248 in 2355 msec =====
===== DaCapo 9.12 sunflow starting warmup 249 =====
===== DaCapo 9.12 sunflow completed warmup 249 in 2361 msec =====
===== DaCapo 9.12 sunflow starting warmup 250 =====
===== DaCapo 9.12 sunflow completed warmup 250 in 2423 msec =====
===== DaCapo 9.12 sunflow starting warmup 251 =====
===== DaCapo 9.12 sunflow completed warmup 251 in 2328 msec =====
===== DaCapo 9.12 sunflow starting warmup 252 =====
===== DaCapo 9.12 sunflow completed warmup 252 in 2358 msec =====
===== DaCapo 9.12 sunflow starting warmup 253 =====
===== DaCapo 9.12 sunflow completed warmup 253 in 2311 msec =====
===== DaCapo 9.12 sunflow starting warmup 254 =====
===== DaCapo 9.12 sunflow completed warmup 254 in 2302 msec =====
===== DaCapo 9.12 sunflow starting warmup 255 =====
===== DaCapo 9.12 sunflow completed warmup 255 in 2313 msec =====
===== DaCapo 9.12 sunflow starting warmup 256 =====
===== DaCapo 9.12 sunflow completed warmup 256 in 2572 msec =====
===== DaCapo 9.12 sunflow starting warmup 257 =====
===== DaCapo 9.12 sunflow completed warmup 257 in 2547 msec =====
===== DaCapo 9.12 sunflow starting warmup 258 =====
===== DaCapo 9.12 sunflow completed warmup 258 in 2282 msec =====
===== DaCapo 9.12 sunflow starting warmup 259 =====
===== DaCapo 9.12 sunflow completed warmup 259 in 2280 msec =====
===== DaCapo 9.12 sunflow starting warmup 260 =====
===== DaCapo 9.12 sunflow completed warmup 260 in 2309 msec =====
===== DaCapo 9.12 sunflow starting warmup 261 =====
===== DaCapo 9.12 sunflow completed warmup 261 in 2345 msec =====
===== DaCapo 9.12 sunflow starting warmup 262 =====
===== DaCapo 9.12 sunflow completed warmup 262 in 2310 msec =====
===== DaCapo 9.12 sunflow starting warmup 263 =====
===== DaCapo 9.12 sunflow completed warmup 263 in 2291 msec =====
===== DaCapo 9.12 sunflow starting warmup 264 =====
===== DaCapo 9.12 sunflow completed warmup 264 in 2320 msec =====
===== DaCapo 9.12 sunflow starting warmup 265 =====
===== DaCapo 9.12 sunflow completed warmup 265 in 2284 msec =====
===== DaCapo 9.12 sunflow starting warmup 266 =====
===== DaCapo 9.12 sunflow completed warmup 266 in 2312 msec =====
===== DaCapo 9.12 sunflow starting warmup 267 =====
===== DaCapo 9.12 sunflow completed warmup 267 in 2572 msec =====
===== DaCapo 9.12 sunflow starting warmup 268 =====
===== DaCapo 9.12 sunflow completed warmup 268 in 2401 msec =====
===== DaCapo 9.12 sunflow starting warmup 269 =====
===== DaCapo 9.12 sunflow completed warmup 269 in 2385 msec =====
===== DaCapo 9.12 sunflow starting warmup 270 =====
===== DaCapo 9.12 sunflow completed warmup 270 in 2612 msec =====
===== DaCapo 9.12 sunflow starting warmup 271 =====
===== DaCapo 9.12 sunflow completed warmup 271 in 2346 msec =====
===== DaCapo 9.12 sunflow starting warmup 272 =====
===== DaCapo 9.12 sunflow completed warmup 272 in 2622 msec =====
===== DaCapo 9.12 sunflow starting warmup 273 =====
===== DaCapo 9.12 sunflow completed warmup 273 in 2629 msec =====
===== DaCapo 9.12 sunflow starting warmup 274 =====
===== DaCapo 9.12 sunflow completed warmup 274 in 2504 msec =====
===== DaCapo 9.12 sunflow starting warmup 275 =====
===== DaCapo 9.12 sunflow completed warmup 275 in 2358 msec =====
===== DaCapo 9.12 sunflow starting warmup 276 =====
===== DaCapo 9.12 sunflow completed warmup 276 in 2573 msec =====
===== DaCapo 9.12 sunflow starting warmup 277 =====
===== DaCapo 9.12 sunflow completed warmup 277 in 2337 msec =====
===== DaCapo 9.12 sunflow starting warmup 278 =====
===== DaCapo 9.12 sunflow completed warmup 278 in 2338 msec =====
===== DaCapo 9.12 sunflow starting warmup 279 =====
===== DaCapo 9.12 sunflow completed warmup 279 in 2361 msec =====
===== DaCapo 9.12 sunflow starting warmup 280 =====
===== DaCapo 9.12 sunflow completed warmup 280 in 2310 msec =====
===== DaCapo 9.12 sunflow starting warmup 281 =====
===== DaCapo 9.12 sunflow completed warmup 281 in 2348 msec =====
===== DaCapo 9.12 sunflow starting warmup 282 =====
===== DaCapo 9.12 sunflow completed warmup 282 in 2273 msec =====
===== DaCapo 9.12 sunflow starting warmup 283 =====
===== DaCapo 9.12 sunflow completed warmup 283 in 2341 msec =====
===== DaCapo 9.12 sunflow starting warmup 284 =====
===== DaCapo 9.12 sunflow completed warmup 284 in 2318 msec =====
===== DaCapo 9.12 sunflow starting warmup 285 =====
===== DaCapo 9.12 sunflow completed warmup 285 in 2434 msec =====
===== DaCapo 9.12 sunflow starting warmup 286 =====
===== DaCapo 9.12 sunflow completed warmup 286 in 2341 msec =====
===== DaCapo 9.12 sunflow starting warmup 287 =====
===== DaCapo 9.12 sunflow completed warmup 287 in 2330 msec =====
===== DaCapo 9.12 sunflow starting warmup 288 =====
===== DaCapo 9.12 sunflow completed warmup 288 in 2365 msec =====
===== DaCapo 9.12 sunflow starting warmup 289 =====
===== DaCapo 9.12 sunflow completed warmup 289 in 2396 msec =====
===== DaCapo 9.12 sunflow starting warmup 290 =====
===== DaCapo 9.12 sunflow completed warmup 290 in 2273 msec =====
===== DaCapo 9.12 sunflow starting warmup 291 =====
===== DaCapo 9.12 sunflow completed warmup 291 in 2537 msec =====
===== DaCapo 9.12 sunflow starting warmup 292 =====
===== DaCapo 9.12 sunflow completed warmup 292 in 2445 msec =====
===== DaCapo 9.12 sunflow starting warmup 293 =====
===== DaCapo 9.12 sunflow completed warmup 293 in 2288 msec =====
===== DaCapo 9.12 sunflow starting warmup 294 =====
===== DaCapo 9.12 sunflow completed warmup 294 in 2381 msec =====
===== DaCapo 9.12 sunflow starting warmup 295 =====
===== DaCapo 9.12 sunflow completed warmup 295 in 2298 msec =====
===== DaCapo 9.12 sunflow starting warmup 296 =====
===== DaCapo 9.12 sunflow completed warmup 296 in 2602 msec =====
===== DaCapo 9.12 sunflow starting warmup 297 =====
===== DaCapo 9.12 sunflow completed warmup 297 in 2280 msec =====
===== DaCapo 9.12 sunflow starting warmup 298 =====
===== DaCapo 9.12 sunflow completed warmup 298 in 2343 msec =====
===== DaCapo 9.12 sunflow starting warmup 299 =====
===== DaCapo 9.12 sunflow completed warmup 299 in 2324 msec =====
===== DaCapo 9.12 sunflow starting warmup 300 =====
===== DaCapo 9.12 sunflow completed warmup 300 in 2281 msec =====
===== DaCapo 9.12 sunflow starting warmup 301 =====
===== DaCapo 9.12 sunflow completed warmup 301 in 2387 msec =====
===== DaCapo 9.12 sunflow starting warmup 302 =====
===== DaCapo 9.12 sunflow completed warmup 302 in 2296 msec =====
===== DaCapo 9.12 sunflow starting warmup 303 =====
===== DaCapo 9.12 sunflow completed warmup 303 in 2329 msec =====
===== DaCapo 9.12 sunflow starting warmup 304 =====
===== DaCapo 9.12 sunflow completed warmup 304 in 2586 msec =====
===== DaCapo 9.12 sunflow starting warmup 305 =====
===== DaCapo 9.12 sunflow completed warmup 305 in 2397 msec =====
===== DaCapo 9.12 sunflow starting warmup 306 =====
===== DaCapo 9.12 sunflow completed warmup 306 in 2366 msec =====
===== DaCapo 9.12 sunflow starting warmup 307 =====
===== DaCapo 9.12 sunflow completed warmup 307 in 2361 msec =====
===== DaCapo 9.12 sunflow starting warmup 308 =====
===== DaCapo 9.12 sunflow completed warmup 308 in 2276 msec =====
===== DaCapo 9.12 sunflow starting warmup 309 =====
===== DaCapo 9.12 sunflow completed warmup 309 in 2517 msec =====
===== DaCapo 9.12 sunflow starting warmup 310 =====
===== DaCapo 9.12 sunflow completed warmup 310 in 2288 msec =====
===== DaCapo 9.12 sunflow starting warmup 311 =====
===== DaCapo 9.12 sunflow completed warmup 311 in 2325 msec =====
===== DaCapo 9.12 sunflow starting warmup 312 =====
===== DaCapo 9.12 sunflow completed warmup 312 in 2297 msec =====
===== DaCapo 9.12 sunflow starting warmup 313 =====
===== DaCapo 9.12 sunflow completed warmup 313 in 2356 msec =====
===== DaCapo 9.12 sunflow starting warmup 314 =====
===== DaCapo 9.12 sunflow completed warmup 314 in 2288 msec =====
===== DaCapo 9.12 sunflow starting warmup 315 =====
===== DaCapo 9.12 sunflow completed warmup 315 in 2304 msec =====
===== DaCapo 9.12 sunflow starting warmup 316 =====
===== DaCapo 9.12 sunflow completed warmup 316 in 2265 msec =====
===== DaCapo 9.12 sunflow starting warmup 317 =====
===== DaCapo 9.12 sunflow completed warmup 317 in 2357 msec =====
===== DaCapo 9.12 sunflow starting warmup 318 =====
===== DaCapo 9.12 sunflow completed warmup 318 in 2280 msec =====
===== DaCapo 9.12 sunflow starting warmup 319 =====
===== DaCapo 9.12 sunflow completed warmup 319 in 2324 msec =====
===== DaCapo 9.12 sunflow starting warmup 320 =====
===== DaCapo 9.12 sunflow completed warmup 320 in 2359 msec =====
===== DaCapo 9.12 sunflow starting warmup 321 =====
===== DaCapo 9.12 sunflow completed warmup 321 in 2324 msec =====
===== DaCapo 9.12 sunflow starting warmup 322 =====
===== DaCapo 9.12 sunflow completed warmup 322 in 2589 msec =====
===== DaCapo 9.12 sunflow starting warmup 323 =====
===== DaCapo 9.12 sunflow completed warmup 323 in 2386 msec =====
===== DaCapo 9.12 sunflow starting warmup 324 =====
===== DaCapo 9.12 sunflow completed warmup 324 in 2541 msec =====
===== DaCapo 9.12 sunflow starting warmup 325 =====
===== DaCapo 9.12 sunflow completed warmup 325 in 2266 msec =====
===== DaCapo 9.12 sunflow starting warmup 326 =====
===== DaCapo 9.12 sunflow completed warmup 326 in 2423 msec =====
===== DaCapo 9.12 sunflow starting warmup 327 =====
===== DaCapo 9.12 sunflow completed warmup 327 in 2248 msec =====
===== DaCapo 9.12 sunflow starting warmup 328 =====
===== DaCapo 9.12 sunflow completed warmup 328 in 2285 msec =====
===== DaCapo 9.12 sunflow starting warmup 329 =====
===== DaCapo 9.12 sunflow completed warmup 329 in 2306 msec =====
===== DaCapo 9.12 sunflow starting warmup 330 =====
===== DaCapo 9.12 sunflow completed warmup 330 in 2326 msec =====
===== DaCapo 9.12 sunflow starting warmup 331 =====
===== DaCapo 9.12 sunflow completed warmup 331 in 2351 msec =====
===== DaCapo 9.12 sunflow starting warmup 332 =====
===== DaCapo 9.12 sunflow completed warmup 332 in 2552 msec =====
===== DaCapo 9.12 sunflow starting warmup 333 =====
===== DaCapo 9.12 sunflow completed warmup 333 in 2330 msec =====
===== DaCapo 9.12 sunflow starting warmup 334 =====
===== DaCapo 9.12 sunflow completed warmup 334 in 2340 msec =====
===== DaCapo 9.12 sunflow starting warmup 335 =====
===== DaCapo 9.12 sunflow completed warmup 335 in 2515 msec =====
===== DaCapo 9.12 sunflow starting warmup 336 =====
===== DaCapo 9.12 sunflow completed warmup 336 in 2370 msec =====
===== DaCapo 9.12 sunflow starting warmup 337 =====
===== DaCapo 9.12 sunflow completed warmup 337 in 2307 msec =====
===== DaCapo 9.12 sunflow starting warmup 338 =====
===== DaCapo 9.12 sunflow completed warmup 338 in 2327 msec =====
===== DaCapo 9.12 sunflow starting warmup 339 =====
===== DaCapo 9.12 sunflow completed warmup 339 in 2330 msec =====
===== DaCapo 9.12 sunflow starting warmup 340 =====
===== DaCapo 9.12 sunflow completed warmup 340 in 2591 msec =====
===== DaCapo 9.12 sunflow starting warmup 341 =====
===== DaCapo 9.12 sunflow completed warmup 341 in 2333 msec =====
===== DaCapo 9.12 sunflow starting warmup 342 =====
===== DaCapo 9.12 sunflow completed warmup 342 in 2514 msec =====
===== DaCapo 9.12 sunflow starting warmup 343 =====
===== DaCapo 9.12 sunflow completed warmup 343 in 2472 msec =====
===== DaCapo 9.12 sunflow starting warmup 344 =====
===== DaCapo 9.12 sunflow completed warmup 344 in 2589 msec =====
===== DaCapo 9.12 sunflow starting warmup 345 =====
===== DaCapo 9.12 sunflow completed warmup 345 in 2297 msec =====
===== DaCapo 9.12 sunflow starting warmup 346 =====
===== DaCapo 9.12 sunflow completed warmup 346 in 2310 msec =====
===== DaCapo 9.12 sunflow starting warmup 347 =====
===== DaCapo 9.12 sunflow completed warmup 347 in 2520 msec =====
===== DaCapo 9.12 sunflow starting warmup 348 =====
===== DaCapo 9.12 sunflow completed warmup 348 in 2598 msec =====
===== DaCapo 9.12 sunflow starting warmup 349 =====
===== DaCapo 9.12 sunflow completed warmup 349 in 2534 msec =====
===== DaCapo 9.12 sunflow starting warmup 350 =====
===== DaCapo 9.12 sunflow completed warmup 350 in 2357 msec =====
===== DaCapo 9.12 sunflow starting warmup 351 =====
===== DaCapo 9.12 sunflow completed warmup 351 in 2275 msec =====
===== DaCapo 9.12 sunflow starting warmup 352 =====
===== DaCapo 9.12 sunflow completed warmup 352 in 2295 msec =====
===== DaCapo 9.12 sunflow starting warmup 353 =====
===== DaCapo 9.12 sunflow completed warmup 353 in 2554 msec =====
===== DaCapo 9.12 sunflow starting warmup 354 =====
===== DaCapo 9.12 sunflow completed warmup 354 in 2267 msec =====
===== DaCapo 9.12 sunflow starting warmup 355 =====
===== DaCapo 9.12 sunflow completed warmup 355 in 2267 msec =====
===== DaCapo 9.12 sunflow starting warmup 356 =====
===== DaCapo 9.12 sunflow completed warmup 356 in 2343 msec =====
===== DaCapo 9.12 sunflow starting warmup 357 =====
===== DaCapo 9.12 sunflow completed warmup 357 in 2330 msec =====
===== DaCapo 9.12 sunflow starting warmup 358 =====
===== DaCapo 9.12 sunflow completed warmup 358 in 2339 msec =====
===== DaCapo 9.12 sunflow starting warmup 359 =====
===== DaCapo 9.12 sunflow completed warmup 359 in 2399 msec =====
===== DaCapo 9.12 sunflow starting warmup 360 =====
===== DaCapo 9.12 sunflow completed warmup 360 in 2266 msec =====
===== DaCapo 9.12 sunflow starting warmup 361 =====
===== DaCapo 9.12 sunflow completed warmup 361 in 2309 msec =====
===== DaCapo 9.12 sunflow starting warmup 362 =====
===== DaCapo 9.12 sunflow completed warmup 362 in 2331 msec =====
===== DaCapo 9.12 sunflow starting warmup 363 =====
===== DaCapo 9.12 sunflow completed warmup 363 in 2292 msec =====
===== DaCapo 9.12 sunflow starting warmup 364 =====
===== DaCapo 9.12 sunflow completed warmup 364 in 2346 msec =====
===== DaCapo 9.12 sunflow starting warmup 365 =====
===== DaCapo 9.12 sunflow completed warmup 365 in 2571 msec =====
===== DaCapo 9.12 sunflow starting warmup 366 =====
===== DaCapo 9.12 sunflow completed warmup 366 in 2287 msec =====
===== DaCapo 9.12 sunflow starting warmup 367 =====
===== DaCapo 9.12 sunflow completed warmup 367 in 2303 msec =====
===== DaCapo 9.12 sunflow starting warmup 368 =====
===== DaCapo 9.12 sunflow completed warmup 368 in 2401 msec =====
===== DaCapo 9.12 sunflow starting warmup 369 =====
===== DaCapo 9.12 sunflow completed warmup 369 in 2413 msec =====
===== DaCapo 9.12 sunflow starting warmup 370 =====
===== DaCapo 9.12 sunflow completed warmup 370 in 2577 msec =====
===== DaCapo 9.12 sunflow starting warmup 371 =====
===== DaCapo 9.12 sunflow completed warmup 371 in 2404 msec =====
===== DaCapo 9.12 sunflow starting warmup 372 =====
===== DaCapo 9.12 sunflow completed warmup 372 in 2343 msec =====
===== DaCapo 9.12 sunflow starting warmup 373 =====
===== DaCapo 9.12 sunflow completed warmup 373 in 2288 msec =====
===== DaCapo 9.12 sunflow starting warmup 374 =====
===== DaCapo 9.12 sunflow completed warmup 374 in 2609 msec =====
===== DaCapo 9.12 sunflow starting warmup 375 =====
===== DaCapo 9.12 sunflow completed warmup 375 in 2333 msec =====
===== DaCapo 9.12 sunflow starting warmup 376 =====
===== DaCapo 9.12 sunflow completed warmup 376 in 2340 msec =====
===== DaCapo 9.12 sunflow starting warmup 377 =====
===== DaCapo 9.12 sunflow completed warmup 377 in 2325 msec =====
===== DaCapo 9.12 sunflow starting warmup 378 =====
===== DaCapo 9.12 sunflow completed warmup 378 in 2281 msec =====
===== DaCapo 9.12 sunflow starting warmup 379 =====
===== DaCapo 9.12 sunflow completed warmup 379 in 2261 msec =====
===== DaCapo 9.12 sunflow starting warmup 380 =====
===== DaCapo 9.12 sunflow completed warmup 380 in 2432 msec =====
===== DaCapo 9.12 sunflow starting warmup 381 =====
===== DaCapo 9.12 sunflow completed warmup 381 in 2324 msec =====
===== DaCapo 9.12 sunflow starting warmup 382 =====
===== DaCapo 9.12 sunflow completed warmup 382 in 2381 msec =====
===== DaCapo 9.12 sunflow starting warmup 383 =====
===== DaCapo 9.12 sunflow completed warmup 383 in 2361 msec =====
===== DaCapo 9.12 sunflow starting warmup 384 =====
===== DaCapo 9.12 sunflow completed warmup 384 in 2365 msec =====
===== DaCapo 9.12 sunflow starting warmup 385 =====
===== DaCapo 9.12 sunflow completed warmup 385 in 2272 msec =====
===== DaCapo 9.12 sunflow starting warmup 386 =====
===== DaCapo 9.12 sunflow completed warmup 386 in 2480 msec =====
===== DaCapo 9.12 sunflow starting warmup 387 =====
===== DaCapo 9.12 sunflow completed warmup 387 in 2306 msec =====
===== DaCapo 9.12 sunflow starting warmup 388 =====
===== DaCapo 9.12 sunflow completed warmup 388 in 2298 msec =====
===== DaCapo 9.12 sunflow starting warmup 389 =====
===== DaCapo 9.12 sunflow completed warmup 389 in 2324 msec =====
===== DaCapo 9.12 sunflow starting warmup 390 =====
===== DaCapo 9.12 sunflow completed warmup 390 in 2632 msec =====
===== DaCapo 9.12 sunflow starting warmup 391 =====
===== DaCapo 9.12 sunflow completed warmup 391 in 2304 msec =====
===== DaCapo 9.12 sunflow starting warmup 392 =====
===== DaCapo 9.12 sunflow completed warmup 392 in 2565 msec =====
===== DaCapo 9.12 sunflow starting warmup 393 =====
===== DaCapo 9.12 sunflow completed warmup 393 in 2280 msec =====
===== DaCapo 9.12 sunflow starting warmup 394 =====
===== DaCapo 9.12 sunflow completed warmup 394 in 2278 msec =====
===== DaCapo 9.12 sunflow starting warmup 395 =====
===== DaCapo 9.12 sunflow completed warmup 395 in 2319 msec =====
===== DaCapo 9.12 sunflow starting warmup 396 =====
===== DaCapo 9.12 sunflow completed warmup 396 in 2332 msec =====
===== DaCapo 9.12 sunflow starting warmup 397 =====
===== DaCapo 9.12 sunflow completed warmup 397 in 2422 msec =====
===== DaCapo 9.12 sunflow starting warmup 398 =====
===== DaCapo 9.12 sunflow completed warmup 398 in 2540 msec =====
===== DaCapo 9.12 sunflow starting warmup 399 =====
===== DaCapo 9.12 sunflow completed warmup 399 in 2338 msec =====
===== DaCapo 9.12 sunflow starting warmup 400 =====
===== DaCapo 9.12 sunflow completed warmup 400 in 2531 msec =====
===== DaCapo 9.12 sunflow starting warmup 401 =====
===== DaCapo 9.12 sunflow completed warmup 401 in 2340 msec =====
===== DaCapo 9.12 sunflow starting warmup 402 =====
===== DaCapo 9.12 sunflow completed warmup 402 in 2380 msec =====
===== DaCapo 9.12 sunflow starting warmup 403 =====
===== DaCapo 9.12 sunflow completed warmup 403 in 2534 msec =====
===== DaCapo 9.12 sunflow starting warmup 404 =====
===== DaCapo 9.12 sunflow completed warmup 404 in 2351 msec =====
===== DaCapo 9.12 sunflow starting warmup 405 =====
===== DaCapo 9.12 sunflow completed warmup 405 in 2248 msec =====
===== DaCapo 9.12 sunflow starting warmup 406 =====
===== DaCapo 9.12 sunflow completed warmup 406 in 2239 msec =====
===== DaCapo 9.12 sunflow starting warmup 407 =====
===== DaCapo 9.12 sunflow completed warmup 407 in 2398 msec =====
===== DaCapo 9.12 sunflow starting warmup 408 =====
===== DaCapo 9.12 sunflow completed warmup 408 in 2594 msec =====
===== DaCapo 9.12 sunflow starting warmup 409 =====
===== DaCapo 9.12 sunflow completed warmup 409 in 2369 msec =====
===== DaCapo 9.12 sunflow starting warmup 410 =====
===== DaCapo 9.12 sunflow completed warmup 410 in 2353 msec =====
===== DaCapo 9.12 sunflow starting warmup 411 =====
===== DaCapo 9.12 sunflow completed warmup 411 in 2366 msec =====
===== DaCapo 9.12 sunflow starting warmup 412 =====
===== DaCapo 9.12 sunflow completed warmup 412 in 2333 msec =====
===== DaCapo 9.12 sunflow starting warmup 413 =====
===== DaCapo 9.12 sunflow completed warmup 413 in 2341 msec =====
===== DaCapo 9.12 sunflow starting warmup 414 =====
===== DaCapo 9.12 sunflow completed warmup 414 in 2323 msec =====
===== DaCapo 9.12 sunflow starting warmup 415 =====
===== DaCapo 9.12 sunflow completed warmup 415 in 2327 msec =====
===== DaCapo 9.12 sunflow starting warmup 416 =====
===== DaCapo 9.12 sunflow completed warmup 416 in 2547 msec =====
===== DaCapo 9.12 sunflow starting warmup 417 =====
===== DaCapo 9.12 sunflow completed warmup 417 in 2351 msec =====
===== DaCapo 9.12 sunflow starting warmup 418 =====
===== DaCapo 9.12 sunflow completed warmup 418 in 2508 msec =====
===== DaCapo 9.12 sunflow starting warmup 419 =====
===== DaCapo 9.12 sunflow completed warmup 419 in 2349 msec =====
===== DaCapo 9.12 sunflow starting warmup 420 =====
===== DaCapo 9.12 sunflow completed warmup 420 in 2305 msec =====
===== DaCapo 9.12 sunflow starting warmup 421 =====
===== DaCapo 9.12 sunflow completed warmup 421 in 2290 msec =====
===== DaCapo 9.12 sunflow starting warmup 422 =====
===== DaCapo 9.12 sunflow completed warmup 422 in 2367 msec =====
===== DaCapo 9.12 sunflow starting warmup 423 =====
===== DaCapo 9.12 sunflow completed warmup 423 in 2310 msec =====
===== DaCapo 9.12 sunflow starting warmup 424 =====
===== DaCapo 9.12 sunflow completed warmup 424 in 2330 msec =====
===== DaCapo 9.12 sunflow starting warmup 425 =====
===== DaCapo 9.12 sunflow completed warmup 425 in 2271 msec =====
===== DaCapo 9.12 sunflow starting warmup 426 =====
===== DaCapo 9.12 sunflow completed warmup 426 in 2278 msec =====
===== DaCapo 9.12 sunflow starting warmup 427 =====
===== DaCapo 9.12 sunflow completed warmup 427 in 2512 msec =====
===== DaCapo 9.12 sunflow starting warmup 428 =====
===== DaCapo 9.12 sunflow completed warmup 428 in 2315 msec =====
===== DaCapo 9.12 sunflow starting warmup 429 =====
===== DaCapo 9.12 sunflow completed warmup 429 in 2519 msec =====
===== DaCapo 9.12 sunflow starting warmup 430 =====
===== DaCapo 9.12 sunflow completed warmup 430 in 2507 msec =====
===== DaCapo 9.12 sunflow starting warmup 431 =====
===== DaCapo 9.12 sunflow completed warmup 431 in 2312 msec =====
===== DaCapo 9.12 sunflow starting warmup 432 =====
===== DaCapo 9.12 sunflow completed warmup 432 in 2337 msec =====
===== DaCapo 9.12 sunflow starting warmup 433 =====
===== DaCapo 9.12 sunflow completed warmup 433 in 2295 msec =====
===== DaCapo 9.12 sunflow starting warmup 434 =====
===== DaCapo 9.12 sunflow completed warmup 434 in 2525 msec =====
===== DaCapo 9.12 sunflow starting warmup 435 =====
===== DaCapo 9.12 sunflow completed warmup 435 in 2556 msec =====
===== DaCapo 9.12 sunflow starting warmup 436 =====
===== DaCapo 9.12 sunflow completed warmup 436 in 2377 msec =====
===== DaCapo 9.12 sunflow starting warmup 437 =====
===== DaCapo 9.12 sunflow completed warmup 437 in 2399 msec =====
===== DaCapo 9.12 sunflow starting warmup 438 =====
===== DaCapo 9.12 sunflow completed warmup 438 in 2300 msec =====
===== DaCapo 9.12 sunflow starting warmup 439 =====
===== DaCapo 9.12 sunflow completed warmup 439 in 2304 msec =====
===== DaCapo 9.12 sunflow starting warmup 440 =====
===== DaCapo 9.12 sunflow completed warmup 440 in 2533 msec =====
===== DaCapo 9.12 sunflow starting warmup 441 =====
===== DaCapo 9.12 sunflow completed warmup 441 in 2499 msec =====
===== DaCapo 9.12 sunflow starting warmup 442 =====
===== DaCapo 9.12 sunflow completed warmup 442 in 2340 msec =====
===== DaCapo 9.12 sunflow starting warmup 443 =====
===== DaCapo 9.12 sunflow completed warmup 443 in 2433 msec =====
===== DaCapo 9.12 sunflow starting warmup 444 =====
===== DaCapo 9.12 sunflow completed warmup 444 in 2371 msec =====
===== DaCapo 9.12 sunflow starting warmup 445 =====
===== DaCapo 9.12 sunflow completed warmup 445 in 2367 msec =====
===== DaCapo 9.12 sunflow starting warmup 446 =====
===== DaCapo 9.12 sunflow completed warmup 446 in 2419 msec =====
===== DaCapo 9.12 sunflow starting warmup 447 =====
===== DaCapo 9.12 sunflow completed warmup 447 in 2293 msec =====
===== DaCapo 9.12 sunflow starting warmup 448 =====
===== DaCapo 9.12 sunflow completed warmup 448 in 2439 msec =====
===== DaCapo 9.12 sunflow starting warmup 449 =====
===== DaCapo 9.12 sunflow completed warmup 449 in 2524 msec =====
===== DaCapo 9.12 sunflow starting warmup 450 =====
===== DaCapo 9.12 sunflow completed warmup 450 in 2422 msec =====
===== DaCapo 9.12 sunflow starting warmup 451 =====
===== DaCapo 9.12 sunflow completed warmup 451 in 2290 msec =====
===== DaCapo 9.12 sunflow starting warmup 452 =====
===== DaCapo 9.12 sunflow completed warmup 452 in 2280 msec =====
===== DaCapo 9.12 sunflow starting warmup 453 =====
===== DaCapo 9.12 sunflow completed warmup 453 in 2555 msec =====
===== DaCapo 9.12 sunflow starting warmup 454 =====
===== DaCapo 9.12 sunflow completed warmup 454 in 2313 msec =====
===== DaCapo 9.12 sunflow starting warmup 455 =====
===== DaCapo 9.12 sunflow completed warmup 455 in 2307 msec =====
===== DaCapo 9.12 sunflow starting warmup 456 =====
===== DaCapo 9.12 sunflow completed warmup 456 in 2285 msec =====
===== DaCapo 9.12 sunflow starting warmup 457 =====
===== DaCapo 9.12 sunflow completed warmup 457 in 2333 msec =====
===== DaCapo 9.12 sunflow starting warmup 458 =====
===== DaCapo 9.12 sunflow completed warmup 458 in 2257 msec =====
===== DaCapo 9.12 sunflow starting warmup 459 =====
===== DaCapo 9.12 sunflow completed warmup 459 in 2455 msec =====
===== DaCapo 9.12 sunflow starting warmup 460 =====
===== DaCapo 9.12 sunflow completed warmup 460 in 2554 msec =====
===== DaCapo 9.12 sunflow starting warmup 461 =====
===== DaCapo 9.12 sunflow completed warmup 461 in 2309 msec =====
===== DaCapo 9.12 sunflow starting warmup 462 =====
===== DaCapo 9.12 sunflow completed warmup 462 in 2320 msec =====
===== DaCapo 9.12 sunflow starting warmup 463 =====
===== DaCapo 9.12 sunflow completed warmup 463 in 2303 msec =====
===== DaCapo 9.12 sunflow starting warmup 464 =====
===== DaCapo 9.12 sunflow completed warmup 464 in 2302 msec =====
===== DaCapo 9.12 sunflow starting warmup 465 =====
===== DaCapo 9.12 sunflow completed warmup 465 in 2304 msec =====
===== DaCapo 9.12 sunflow starting warmup 466 =====
===== DaCapo 9.12 sunflow completed warmup 466 in 2267 msec =====
===== DaCapo 9.12 sunflow starting warmup 467 =====
===== DaCapo 9.12 sunflow completed warmup 467 in 2271 msec =====
===== DaCapo 9.12 sunflow starting warmup 468 =====
===== DaCapo 9.12 sunflow completed warmup 468 in 2321 msec =====
===== DaCapo 9.12 sunflow starting warmup 469 =====
===== DaCapo 9.12 sunflow completed warmup 469 in 2522 msec =====
===== DaCapo 9.12 sunflow starting warmup 470 =====
===== DaCapo 9.12 sunflow completed warmup 470 in 2282 msec =====
===== DaCapo 9.12 sunflow starting warmup 471 =====
===== DaCapo 9.12 sunflow completed warmup 471 in 2284 msec =====
===== DaCapo 9.12 sunflow starting warmup 472 =====
===== DaCapo 9.12 sunflow completed warmup 472 in 2243 msec =====
===== DaCapo 9.12 sunflow starting warmup 473 =====
===== DaCapo 9.12 sunflow completed warmup 473 in 2421 msec =====
===== DaCapo 9.12 sunflow starting warmup 474 =====
===== DaCapo 9.12 sunflow completed warmup 474 in 2303 msec =====
===== DaCapo 9.12 sunflow starting warmup 475 =====
===== DaCapo 9.12 sunflow completed warmup 475 in 2321 msec =====
===== DaCapo 9.12 sunflow starting warmup 476 =====
===== DaCapo 9.12 sunflow completed warmup 476 in 2265 msec =====
===== DaCapo 9.12 sunflow starting warmup 477 =====
===== DaCapo 9.12 sunflow completed warmup 477 in 2312 msec =====
===== DaCapo 9.12 sunflow starting warmup 478 =====
===== DaCapo 9.12 sunflow completed warmup 478 in 2295 msec =====
===== DaCapo 9.12 sunflow starting warmup 479 =====
===== DaCapo 9.12 sunflow completed warmup 479 in 2374 msec =====
===== DaCapo 9.12 sunflow starting warmup 480 =====
===== DaCapo 9.12 sunflow completed warmup 480 in 2343 msec =====
===== DaCapo 9.12 sunflow starting warmup 481 =====
===== DaCapo 9.12 sunflow completed warmup 481 in 2325 msec =====
===== DaCapo 9.12 sunflow starting warmup 482 =====
===== DaCapo 9.12 sunflow completed warmup 482 in 2295 msec =====
===== DaCapo 9.12 sunflow starting warmup 483 =====
===== DaCapo 9.12 sunflow completed warmup 483 in 2282 msec =====
===== DaCapo 9.12 sunflow starting warmup 484 =====
===== DaCapo 9.12 sunflow completed warmup 484 in 2379 msec =====
===== DaCapo 9.12 sunflow starting warmup 485 =====
===== DaCapo 9.12 sunflow completed warmup 485 in 2317 msec =====
===== DaCapo 9.12 sunflow starting warmup 486 =====
===== DaCapo 9.12 sunflow completed warmup 486 in 2584 msec =====
===== DaCapo 9.12 sunflow starting warmup 487 =====
===== DaCapo 9.12 sunflow completed warmup 487 in 2293 msec =====
===== DaCapo 9.12 sunflow starting warmup 488 =====
===== DaCapo 9.12 sunflow completed warmup 488 in 2350 msec =====
===== DaCapo 9.12 sunflow starting warmup 489 =====
===== DaCapo 9.12 sunflow completed warmup 489 in 2328 msec =====
===== DaCapo 9.12 sunflow starting warmup 490 =====
===== DaCapo 9.12 sunflow completed warmup 490 in 2557 msec =====
===== DaCapo 9.12 sunflow starting warmup 491 =====
===== DaCapo 9.12 sunflow completed warmup 491 in 2484 msec =====
===== DaCapo 9.12 sunflow starting warmup 492 =====
===== DaCapo 9.12 sunflow completed warmup 492 in 2317 msec =====
===== DaCapo 9.12 sunflow starting warmup 493 =====
===== DaCapo 9.12 sunflow completed warmup 493 in 2297 msec =====
===== DaCapo 9.12 sunflow starting warmup 494 =====
===== DaCapo 9.12 sunflow completed warmup 494 in 2537 msec =====
===== DaCapo 9.12 sunflow starting warmup 495 =====
===== DaCapo 9.12 sunflow completed warmup 495 in 2365 msec =====
===== DaCapo 9.12 sunflow starting warmup 496 =====
===== DaCapo 9.12 sunflow completed warmup 496 in 2328 msec =====
===== DaCapo 9.12 sunflow starting warmup 497 =====
===== DaCapo 9.12 sunflow completed warmup 497 in 2532 msec =====
===== DaCapo 9.12 sunflow starting warmup 498 =====
===== DaCapo 9.12 sunflow completed warmup 498 in 2467 msec =====
===== DaCapo 9.12 sunflow starting warmup 499 =====
