1411939321123 0 TOTAL_MEM 1219
1411939342223 17947 CREATION
1411939342223 17947 READING 9 0.998870
1411939342223 17947 MINHEAP 2
1411939342224 17947 MINHEAP 8
1411939342421 17946 CREATION
1411939342421 17946 READING 9 0.999148
1411939342421 17946 MINHEAP 2
1411939342421 17946 MINHEAP 1211
1411939342848 17946 READING 9 0.998648
1411939342962 17946 READING 9 0.997421
1411939342989 17946 READING 9 0.995364
1411939343349 17946 READING 9 0.996512
1411939343450 17946 READING 9 0.994039
1411939343517 17946 READING 12 0.988677
1411939343549 17946 READING 12 0.979643
1411939343620 17946 READING 16 0.966161
1411939343745 17946 READING 17 0.977028
1411939343834 17946 READING 25 0.958494
1411939343969 17946 READING 26 0.607427
1411939344009 17947 READING 9 0.998036
1411939344023 17946 READING 38 0.457626
1411939344062 17947 READING 9 0.997008
1411939344072 17947 READING 9 0.995622
1411939344086 17946 READING 38 0.451959
1411939344103 17947 READING 11 0.992112
1411939344240 17946 READING 38 0.639774
1411939344305 17946 READING 52 0.552090
1411939344372 17947 READING 11 0.988298
1411939344492 17947 READING 16 0.988231
1411939344492 17946 READING 53 0.377527
1411939344545 17946 READING 70 0.594741
1411939344582 17947 READING 16 0.985901
1411939344609 17946 READING 72 0.475002
1411939344627 17947 READING 25 0.981146
1411939344677 17946 READING 73 0.322536
1411939344677 17947 READING 25 0.988202
1411939344725 17947 READING 37 0.890684
1411939344777 17946 READING 76 0.359235
1411939344786 17947 READING 37 0.861254
1411939344895 17947 READING 49 0.936258
1411939344966 17947 READING 49 0.957219
1411939345071 17947 READING 68 0.975110
1411939345129 17946 READING 78 0.392720
1411939345161 17947 READING 68 0.981053
1411939345236 17946 READING 105 0.184335
1411939345276 17947 READING 94 0.986256
1411939345317 17946 READING 105 0.232486
1411939345401 17947 READING 95 0.987472
1411939345634 17947 READING 120 0.992385
1411939345649 17946 READING 107 0.420454
1411939345732 17946 READING 135 0.547900
1411939345792 17947 READING 121 0.991205
1411939345805 17946 READING 139 0.625518
1411939345889 17946 READING 139 0.380037
1411939345968 17946 READING 141 0.010007
1411939346048 17947 READING 150 0.993210
1411939346050 17946 READING 146 0.683693
1411939346300 17947 READING 151 0.993576
1411939346467 17946 READING 148 0.423400
1411939346565 17946 READING 183 0.594568
1411939346592 17947 READING 185 0.995051
1411939346659 17946 READING 189 0.610508
1411939346751 17946 READING 190 0.624032
1411939346841 17946 READING 192 0.606729
1411939346892 17947 READING 187 0.995441
1411939346945 17946 READING 197 0.609908
1411939347041 17946 READING 203 0.561097
1411939347144 17946 READING 208 0.590770
1411939347225 17946 READING 212 0.580484
1411939347284 17947 READING 224 0.995941
1411939347644 17947 READING 226 0.996174
1411939347781 17946 READING 217 0.377394
1411939347921 17946 READING 263 0.516613
1411939348029 17946 READING 264 0.502699
1411939348045 17947 READING 256 0.997023
1411939348369 17947 READING 257 0.995770
1411939348542 17946 READING 262 0.253101
1411939348673 17946 READING 303 0.507615
1411939348815 17946 READING 301 0.526141
1411939348821 17947 READING 289 0.997070
1411939348929 17946 READING 304 0.579645
1411939349058 17946 READING 302 0.640688
1411939349184 17946 READING 304 0.631895
1411939349219 17947 READING 289 0.997716
1411939349318 17946 READING 306 0.637492
1411939349464 17946 READING 310 0.606771
1411939349593 17946 READING 313 0.566057
1411939349724 17947 READING 275 0.997280
1411939350180 17947 READING 262 0.996817
1411939350369 17946 READING 322 0.379067
1411939350510 17946 READING 367 0.477079
1411939350630 17947 READING 250 0.996582
1411939350642 17946 READING 376 0.493293
1411939350759 17946 READING 377 0.491155
1411939350881 17946 READING 382 0.495811
1411939351085 17947 READING 238 0.996798
1411939351123 17947 FUNCTION lru lambda h: 0.947799 * (h ** 0.00844797)
1411939351123 17946 FUNCTION lru lambda h: 0.994574 * (h ** 0.001)
1411939351124 17947 RECOMMEND 8
1411939351124 17946 RECOMMEND 1211
1411939351582 17947 READING 227 0.996737
1411939351710 17946 READING 387 0.228015
1411939351899 17946 READING 438 0.413915
1411939352028 17946 READING 431 0.471573
1411939352140 17947 READING 320 0.996887
1411939352172 17946 READING 436 0.494208
1411939352691 17947 READING 415 0.997098
1411939352954 17946 READING 427 0.229470
1411939353157 17946 READING 485 0.446299
1411939353294 17946 READING 481 0.523848
1411939353419 17947 READING 415 0.996545
1411939353433 17946 READING 484 0.557009
1411939353591 17946 READING 485 0.580042
1411939353783 17946 READING 487 0.530085
1411939353942 17946 READING 489 0.518371
1411939354058 17947 READING 415 0.996678
1411939354130 17946 READING 498 0.498163
1411939354317 17946 READING 502 0.463141
1411939354762 17947 READING 415 0.997056
1411939355318 17946 READING 511 0.321925
1411939355537 17947 READING 414 0.986075
1411939355538 17946 READING 577 0.418926
1411939355717 17946 READING 579 0.443490
1411939361124 17947 FUNCTION lru lambda h: 0.949037 * (h ** 0.00813572)
1411939361124 17946 FUNCTION lru lambda h: 0.925488 * (h ** 0.001)
1411939361124 17947 RECOMMEND 8
1411939361124 17946 RECOMMEND 1211
1411939364522 17947 READING 415 0.725090
1411939371124 17947 FUNCTION lru lambda h: 0.970282 * (h ** 0.00243663)
1411939371124 17946 FUNCTION lru lambda h: 0.925488 * (h ** 0.001)
1411939371125 17947 RECOMMEND 8
1411939371125 17946 RECOMMEND 1211
1411939375329 17947 READING 414 0.914265
1411939376032 17947 READING 414 0.921206
1411939376776 17947 READING 414 0.932026
1411939376883 17946 READING 581 0.012763
1411939377271 17947 READING 414 0.942794
1411939377613 17946 READING 648 0.535601
1411939377785 17946 READING 647 0.551675
1411939377829 17947 READING 414 0.957805
1411939378070 17946 READING 649 0.455853
1411939378291 17946 READING 645 0.483788
1411939378502 17947 READING 414 0.973883
1411939379158 17947 READING 414 0.981009
1411939381125 17947 FUNCTION lru lambda h: 0.972539 * (h ** 0.0018384)
1411939381125 17946 FUNCTION lru lambda h: 1.0793 * (h ** 0.001)
1411939381125 17947 RECOMMEND 8
1411939381125 17946 RECOMMEND 1211
1411939381178 17947 READING 414 0.994542
1411939385564 17947 READING 414 0.597596
1411939386474 17947 READING 414 0.693832
1411939387079 17947 READING 414 0.767372
1411939387443 17946 READING 648 0.111870
1411939387743 17947 READING 414 0.845436
1411939388328 17947 READING 414 0.897534
1411939391125 17947 FUNCTION lru lambda h: 0.99245 * (h ** 0.001)
1411939391125 17946 FUNCTION lru lambda h: 1.11905 * (h ** 0.001)
1411939391126 17947 RECOMMEND 8
1411939391126 17946 RECOMMEND 1211
1411939391408 17947 READING 414 0.873246
1411939391965 17947 READING 411 0.960033
1411939392626 17947 READING 412 0.927442
1411939393295 17947 READING 412 0.954696
1411939393893 17947 READING 412 0.973913
1411939394378 17947 READING 413 0.984042
1411939394911 17947 READING 413 0.990998
1411939395580 17947 READING 413 0.995347
1411939396187 17947 READING 413 0.996964
1411939396876 17947 READING 412 0.998090
1411939397504 17947 READING 412 0.998332
1411939397973 17947 READING 413 0.998213
1411939398553 17947 READING 413 0.998533
1411939399167 17947 READING 413 0.998605
1411939399713 17947 READING 413 0.998599
1411939400345 17947 READING 413 0.610399
1411939400893 17947 READING 413 0.716611
1411939401126 17947 FUNCTION lru lambda h: 1.02014 * (h ** 0.001)
1411939401126 17946 FUNCTION lru lambda h: 1.11905 * (h ** 0.001)
1411939401126 17947 RECOMMEND 8
1411939401126 17946 RECOMMEND 1211
1411939401583 17947 READING 411 0.750778
1411939402306 17947 READING 412 0.862756
1411939402893 17947 READING 411 0.856174
1411939403446 17947 READING 412 0.981489
1411939411126 17947 FUNCTION lru lambda h: 1.03872 * (h ** 0.001)
1411939411126 17946 FUNCTION lru lambda h: 1.11905 * (h ** 0.001)
1411939411127 17947 RECOMMEND 8
1411939411127 17946 RECOMMEND 1211
1411939421127 17947 FUNCTION lru lambda h: 1.03872 * (h ** 0.001)
1411939421127 17946 FUNCTION lru lambda h: 1.11905 * (h ** 0.001)
1411939421128 17947 RECOMMEND 8
1411939421128 17946 RECOMMEND 1211
1411939424595 17947 READING 412 0.091397
1411939431128 17947 FUNCTION lru lambda h: 1.11656 * (h ** 0.001)
1411939431128 17946 FUNCTION lru lambda h: 1.11905 * (h ** 0.001)
1411939431128 17947 RECOMMEND 8
1411939431128 17946 RECOMMEND 1211
1411939441128 17947 FUNCTION lru lambda h: 1.11656 * (h ** 0.001)
1411939441128 17946 FUNCTION lru lambda h: 1.11905 * (h ** 0.001)
1411939441129 17947 RECOMMEND 8
1411939441129 17946 RECOMMEND 1211
1411939448174 17947 READING 412 0.712812
1411939448840 17947 READING 411 0.722434
1411939449536 17947 READING 411 0.742383
1411939450243 17947 READING 412 0.769213
1411939450379 17946 READING 649 0.102507
1411939450730 17947 READING 412 0.800918
1411939451129 17947 FUNCTION lru lambda h: 1.08392 * (h ** 0.001)
1411939451129 17946 FUNCTION lru lambda h: 1.15924 * (h ** 0.001)
1411939451129 17947 RECOMMEND 8
1411939451129 17946 RECOMMEND 1211
1411939451313 17947 READING 412 0.852988
1411939451945 17947 READING 412 0.905904
1411939452539 17947 READING 411 0.943716
1411939458166 17947 READING 412 0.977823
1411939460485 17947 READING 412 0.621105
1411939461129 17947 FUNCTION lru lambda h: 1.06617 * (h ** 0.001)
1411939461129 17946 FUNCTION lru lambda h: 1.15924 * (h ** 0.001)
1411939461129 17947 RECOMMEND 8
1411939461130 17946 RECOMMEND 1211
1411939461188 17947 READING 413 0.799857
1411939461923 17947 READING 413 0.827745
1411939462607 17947 READING 411 0.910880
1411939463161 17947 READING 412 0.943787
1411939463760 17947 READING 412 0.968449
1411939464568 17947 READING 413 0.959145
1411939465244 17947 READING 413 0.978205
1411939466073 17947 READING 412 0.987736
1411939466795 17947 READING 413 0.993091
1411939467431 17947 READING 414 0.951250
1411939468088 17947 READING 414 0.974465
1411939468762 17947 READING 414 0.986774
1411939469419 17947 READING 414 0.992776
1411939470134 17947 READING 414 0.495826
1411939470889 17947 READING 414 0.673251
1411939471130 17947 FUNCTION lru lambda h: 1.03105 * (h ** 0.001)
1411939471130 17946 FUNCTION lru lambda h: 1.15924 * (h ** 0.001)
1411939471131 17947 RECOMMEND 8
1411939471131 17946 RECOMMEND 1211
1411939471562 17947 READING 414 0.798803
1411939472255 17947 READING 414 0.887237
1411939472966 17947 READING 414 0.940215
1411939473490 17947 READING 414 0.962604
1411939474066 17947 READING 414 0.979619
1411939474538 17946 READING 725 0.455822
1411939474745 17947 READING 414 0.989791
1411939475339 17947 READING 414 0.993918
1411939476037 17947 READING 414 0.996511
1411939476702 17947 READING 414 0.997593
1411939478213 17947 READING 414 0.997896
1411939478213 17947 READING 414 0.998225
1411939478419 17947 READING 414 0.998409
1411939479023 17947 READING 414 0.998339
1411939480311 17947 READING 414 0.618413
1411939480845 17947 READING 413 0.682713
1411939481131 17947 FUNCTION lru lambda h: 1.03351 * (h ** 0.001)
1411939481131 17946 FUNCTION lru lambda h: 1.13539 * (h ** 0.001)
1411939481131 17947 RECOMMEND 8
1411939481131 17946 RECOMMEND 1211
1411939481612 17947 READING 413 0.779226
1411939482264 17947 READING 412 0.846896
1411939482299 17946 READING 739 0.318434
1411939482870 17947 READING 412 0.884509
1411939483361 17947 READING 412 0.930077
1411939483900 17947 READING 412 0.962065
1411939484571 17947 READING 412 0.981639
1411939485185 17947 READING 412 0.989905
1411939485864 17947 READING 412 0.994450
1411939486530 17947 READING 412 0.996426
1411939487043 17947 READING 412 0.996923
1411939487623 17947 READING 412 0.997358
1411939488193 17947 READING 412 0.997675
1411939488763 17947 READING 412 0.997794
1411939491131 17947 FUNCTION lru lambda h: 1.03078 * (h ** 0.001)
1411939491132 17946 FUNCTION lru lambda h: 1.14359 * (h ** 0.001)
1411939491132 17947 RECOMMEND 8
1411939491132 17946 RECOMMEND 1211
1411939497552 17947 READING 412 0.992852
1411939498128 17947 READING 412 0.963551
1411939498748 17947 READING 411 0.953799
1411939499366 17947 READING 411 0.778709
1411939499972 17947 READING 411 0.842467
1411939500538 17947 READING 411 0.898146
1411939501132 17947 FUNCTION lru lambda h: 1.03458 * (h ** 0.001)
1411939501132 17946 FUNCTION lru lambda h: 1.14359 * (h ** 0.001)
1411939501133 17947 RECOMMEND 8
1411939501133 17946 RECOMMEND 1211
1411939501144 17947 READING 411 0.941153
1411939501864 17947 READING 411 0.970124
1411939502558 17947 READING 410 0.996806
1411939503517 17947 READING 411 0.997047
1411939504213 17947 READING 411 0.997509
1411939504954 17947 READING 411 0.993901
1411939505547 17947 READING 410 0.993649
1411939506228 17947 READING 410 0.995845
1411939506871 17947 READING 411 0.996957
1411939506880 17946 READING 741 0.227499
1411939507839 17947 READING 411 0.861572
1411939508387 17947 READING 411 0.911617
1411939509009 17947 READING 411 0.950994
1411939509094 17946 READING 824 0.335823
1411939509266 17946 READING 828 0.340531
1411939509605 17947 READING 411 0.972618
1411939510159 17946 READING 836 0.447844
1411939510265 17947 READING 411 0.985462
1411939510384 17946 READING 836 0.477557
1411939510643 17946 READING 835 0.470300
1411939510786 17947 READING 411 0.990790
1411939510977 17946 READING 838 0.603655
1411939511133 17947 FUNCTION lru lambda h: 1.01576 * (h ** 0.001)
1411939511133 17946 FUNCTION lru lambda h: 1.08385 * (h ** 0.001)
1411939511133 17947 RECOMMEND 8
1411939511133 17946 RECOMMEND 1211
1411939511274 17946 READING 836 0.601025
1411939511313 17947 READING 411 0.994014
1411939511724 17946 READING 840 0.591719
1411939511937 17947 READING 411 0.996329
1411939512574 17947 READING 411 0.997198
1411939512705 17946 READING 839 0.441928
1411939513275 17947 READING 411 0.997835
1411939513277 17946 READING 842 0.539463
1411939514743 17947 READING 410 0.998788
1411939521133 17947 FUNCTION lru lambda h: 1.01373 * (h ** 0.001)
1411939521133 17946 FUNCTION lru lambda h: 0.99821 * (h ** 0.001)
1411939521134 17947 RECOMMEND 8
1411939521134 17946 RECOMMEND 1211
1411939531134 17947 FUNCTION lru lambda h: 1.01373 * (h ** 0.001)
1411939531134 17946 FUNCTION lru lambda h: 0.99821 * (h ** 0.001)
1411939531135 17947 RECOMMEND 8
1411939531135 17946 RECOMMEND 1211
1411939541135 17947 FUNCTION lru lambda h: 1.01373 * (h ** 0.001)
1411939541135 17946 FUNCTION lru lambda h: 0.99821 * (h ** 0.001)
1411939541135 17947 RECOMMEND 8
1411939541135 17946 RECOMMEND 1211
1411939543991 17947 READING 411 0.991078
1411939545142 17947 READING 411 0.988179
1411939545920 17947 READING 412 0.977638
1411939551135 17947 FUNCTION lru lambda h: 1.01443 * (h ** 0.001)
1411939551135 17946 FUNCTION lru lambda h: 0.99821 * (h ** 0.001)
1411939551136 17947 RECOMMEND 8
1411939551136 17946 RECOMMEND 1211
1411939553850 17947 READING 412 0.912024
1411939554528 17946 READING 841 0.016582
1411939554859 17947 READING 410 0.969587
1411939555439 17947 READING 411 0.976449
1411939556035 17947 READING 411 0.983448
1411939556647 17947 READING 411 0.989116
1411939557295 17947 READING 411 0.993218
1411939557823 17947 READING 411 0.994896
1411939558299 17947 READING 411 0.995982
1411939558893 17947 READING 411 0.996844
1411939559569 17947 READING 411 0.997539
1411939560231 17947 READING 411 0.997912
1411939560877 17947 READING 411 0.998093
1411939561136 17947 FUNCTION lru lambda h: 1.0192 * (h ** 0.001)
1411939561136 17946 FUNCTION lru lambda h: 1.20189 * (h ** 0.001)
1411939561136 17947 RECOMMEND 8
1411939561136 17946 RECOMMEND 1211
1411939561445 17947 READING 411 0.997907
1411939561966 17947 READING 411 0.997632
1411939562618 17947 READING 411 0.997730
1411939563239 17947 READING 410 0.997926
1411939563803 17946 READING 845 0.073896
1411939563839 17947 READING 410 0.113431
1411939564358 17947 READING 411 0.173191
1411939564948 17947 READING 411 0.303438
1411939565200 17946 READING 863 0.147934
1411939565527 17947 READING 411 0.467934
1411939566187 17947 READING 411 0.653767
1411939566360 17946 READING 863 0.247565
1411939566768 17947 READING 411 0.785157
1411939567246 17947 READING 411 0.867056
1411939567796 17947 READING 411 0.928422
1411939568169 17946 READING 866 0.448837
1411939568470 17947 READING 411 0.965986
1411939569090 17947 READING 411 0.981799
1411939569361 17946 READING 870 0.583574
1411939569736 17947 READING 411 0.990130
1411939570066 17946 READING 872 0.636706
1411939570335 17947 READING 411 0.993972
1411939570804 17947 READING 411 0.995570
1411939571136 17947 FUNCTION lru lambda h: 1.08849 * (h ** 0.001)
1411939571136 17946 FUNCTION lru lambda h: 1.23071 * (h ** 0.001)
1411939571137 17947 RECOMMEND 8
1411939571137 17946 RECOMMEND 1211
1411939571396 17947 READING 411 0.996774
1411939572020 17947 READING 411 0.997412
1411939572718 17947 READING 411 0.006550
1411939573079 17946 READING 876 0.870329
1411939573262 17947 READING 411 0.011598
1411939573831 17947 READING 411 0.023483
1411939574423 17947 READING 411 0.047323
1411939575088 17947 READING 411 0.096857
1411939575661 17947 READING 411 0.171078
1411939576138 17947 READING 411 0.270671
1411939576648 17947 READING 411 0.419660
1411939577354 17947 READING 411 0.629251
1411939577952 17947 READING 411 0.769481
1411939578623 17947 READING 411 0.874634
1411939579220 17947 READING 411 0.930214
1411939579677 17947 READING 411 0.957334
1411939579980 17946 READING 876 0.928249
1411939580286 17947 READING 411 0.978459
1411939580641 17946 READING 883 0.924239
1411939580914 17947 READING 411 0.988509
1411939581137 17947 FUNCTION lru lambda h: 1.09159 * (h ** 0.001)
1411939581137 17946 FUNCTION lru lambda h: 1.10619 * (h ** 0.001)
1411939581137 17947 RECOMMEND 8
1411939581137 17946 RECOMMEND 1211
1411939581217 17946 READING 891 0.902128
1411939581460 17947 READING 411 0.992826
1411939582409 17946 READING 893 0.892645
1411939582836 17947 READING 411 0.780402
1411939583383 17947 READING 411 0.846734
1411939583990 17947 READING 411 0.907812
1411939584661 17947 READING 411 0.950403
1411939585235 17947 READING 411 0.971612
1411939585709 17947 READING 411 0.982642
1411939586217 17947 READING 411 0.989727
1411939586953 17947 READING 411 0.994592
1411939587561 17947 READING 411 0.996254
1411939588233 17947 READING 411 0.997319
1411939588830 17947 READING 411 0.997507
1411939589321 17947 READING 411 0.997539
1411939591137 17947 FUNCTION lru lambda h: 1.08743 * (h ** 0.001)
1411939591137 17946 FUNCTION lru lambda h: 1.00454 * (h ** 0.001)
1411939591138 17947 RECOMMEND 8
1411939591138 17946 RECOMMEND 1211
1411939591548 17947 READING 411 0.514191
1411939592469 17947 READING 411 0.572213
1411939594857 17947 READING 412 0.034137
1411939601138 17947 FUNCTION lru lambda h: 1.22582 * (h ** 0.001)
1411939601138 17946 FUNCTION lru lambda h: 1.00454 * (h ** 0.001)
1411939601138 17947 RECOMMEND 8
1411939601138 17946 RECOMMEND 1211
1411939601627 17947 READING 412 0.603391
1411939602154 17947 READING 414 0.634821
1411939602787 17947 READING 414 0.693230
1411939603435 17947 READING 414 0.768594
1411939604043 17947 READING 414 0.841477
1411939604517 17947 READING 414 0.893075
1411939605656 17947 READING 414 0.913508
1411939606329 17947 READING 411 0.919829
1411939606998 17947 READING 411 0.909941
1411939607691 17947 READING 410 0.970481
1411939608338 17947 READING 411 0.983991
1411939608810 17947 READING 411 0.989880
1411939609392 17947 READING 411 0.993810
1411939610054 17947 READING 411 0.996429
1411939610722 17947 READING 411 0.997626
1411939611138 17947 FUNCTION lru lambda h: 1.1061 * (h ** 0.001)
1411939611138 17946 FUNCTION lru lambda h: 1.00454 * (h ** 0.001)
1411939611139 17947 RECOMMEND 8
1411939611139 17946 RECOMMEND 1211
1411939612536 17947 READING 411 0.998559
1411939613072 17947 READING 411 0.998245
1411939613754 17947 READING 410 0.997327
1411939614413 17947 READING 410 0.997721
1411939615092 17947 READING 410 0.997830
1411939615610 17947 READING 410 0.997118
1411939616157 17947 READING 410 0.996998
1411939616783 17947 READING 410 0.997632
1411939617444 17947 READING 410 0.997846
1411939618162 17947 READING 410 0.997848
1411939618861 17947 READING 410 0.997996
1411939619397 17947 READING 410 0.997772
1411939619941 17947 READING 410 0.997532
1411939620530 17947 READING 410 0.997570
1411939621139 17947 FUNCTION lru lambda h: 1.07246 * (h ** 0.001)
1411939621139 17946 FUNCTION lru lambda h: 1.00454 * (h ** 0.001)
1411939621139 17947 RECOMMEND 8
1411939621139 17946 RECOMMEND 1211
1411939621163 17947 READING 410 0.995734
1411939621787 17947 READING 408 0.995859
1411939622359 17947 READING 410 0.996898
1411939623115 17947 READING 410 0.996797
1411939623530 17946 READING 901 0.217146
1411939623744 17947 READING 411 0.997246
1411939624396 17947 READING 411 0.997670
1411939624929 17947 READING 411 0.997560
1411939625389 17947 READING 411 0.997355
1411939625967 17947 READING 411 0.997536
1411939626620 17947 READING 409 0.997739
1411939627289 17947 READING 410 0.998074
1411939630018 17947 READING 410 0.920879
1411939630680 17947 READING 411 0.942721
1411939630823 17946 READING 984 0.546481
1411939631139 17947 FUNCTION lru lambda h: 1.06524 * (h ** 0.001)
1411939631139 17946 FUNCTION lru lambda h: 1.00569 * (h ** 0.001)
1411939631140 17947 RECOMMEND 8
1411939631140 17946 RECOMMEND 1211
1411939631194 17947 READING 411 0.959467
1411939631374 17946 READING 987 0.540218
1411939631835 17947 READING 411 0.976186
1411939632429 17947 READING 411 0.985962
1411939641140 17947 FUNCTION lru lambda h: 1.06436 * (h ** 0.001)
1411939641140 17946 FUNCTION lru lambda h: 0.983915 * (h ** 0.001)
1411939641140 17947 RECOMMEND 8
1411939641140 17946 RECOMMEND 1211
1411939651140 17947 FUNCTION lru lambda h: 1.06436 * (h ** 0.001)
1411939651141 17946 FUNCTION lru lambda h: 0.983915 * (h ** 0.001)
1411939651141 17947 RECOMMEND 8
1411939651141 17946 RECOMMEND 1211
1411939657646 17947 READING 411 0.981190
1411939661141 17947 FUNCTION lru lambda h: 1.06419 * (h ** 0.001)
1411939661141 17946 FUNCTION lru lambda h: 0.983915 * (h ** 0.001)
1411939661141 17947 RECOMMEND 8
1411939661141 17946 RECOMMEND 1211
1411939667323 17947 READING 411 0.985715
1411939668007 17947 READING 411 0.980596
1411939668912 17947 READING 410 0.968269
1411939669597 17947 READING 411 0.971499
1411939670241 17947 READING 411 0.973349
1411939670881 17947 READING 412 0.906120
1411939671141 17947 FUNCTION lru lambda h: 1.03425 * (h ** 0.001)
1411939671141 17946 FUNCTION lru lambda h: 0.983915 * (h ** 0.001)
1411939671142 17947 RECOMMEND 8
1411939671142 17946 RECOMMEND 1211
1411939671459 17947 READING 412 0.939822
1411939672160 17947 READING 412 0.967388
1411939673304 17947 READING 412 0.320490
1411939673948 17946 READING 987 0.631658
1411939674060 17947 READING 411 0.195243
1411939674734 17947 READING 411 0.318413
1411939675318 17947 READING 410 0.939240
1411939676014 17947 READING 411 0.969654
1411939676725 17947 READING 411 0.978229
1411939677341 17947 READING 411 0.987942
1411939677974 17947 READING 411 0.992943
1411939681142 17947 FUNCTION lru lambda h: 1.05605 * (h ** 0.001)
1411939681142 17946 FUNCTION lru lambda h: 0.979814 * (h ** 0.001)
1411939681142 17947 RECOMMEND 8
1411939681142 17946 RECOMMEND 1211
1411939681795 17947 READING 411 0.936038
1411939682396 17947 READING 411 0.995635
1411939683111 17947 READING 411 0.963177
1411939683698 17947 READING 411 0.979855
1411939684182 17947 READING 411 0.987841
1411939684697 17947 READING 410 0.602953
1411939685393 17947 READING 410 0.777482
1411939686033 17947 READING 411 0.876644
1411939686378 17946 READING 992 0.734381
1411939686724 17947 READING 408 0.989351
1411939687325 17947 READING 411 0.993582
1411939687786 17947 READING 411 0.995547
1411939688372 17947 READING 411 0.997484
1411939688987 17947 READING 411 0.998180
1411939689516 17947 READING 412 0.998252
1411939690067 17947 READING 410 0.351439
1411939690591 17947 READING 411 0.418491
1411939691142 17947 FUNCTION lru lambda h: 1.1157 * (h ** 0.001)
1411939691142 17946 FUNCTION lru lambda h: 0.944839 * (h ** 0.001)
1411939691143 17947 RECOMMEND 8
1411939691143 17946 RECOMMEND 1211
1411939691210 17947 READING 412 0.606596
1411939691863 17946 READING 991 0.794025
1411939691875 17947 READING 411 0.640050
1411939692464 17947 READING 412 0.775431
1411939692940 17947 READING 412 0.859743
1411939693458 17947 READING 412 0.922256
1411939694122 17947 READING 412 0.963064
1411939694725 17947 READING 412 0.980538
1411939695385 17946 READING 981 0.743961
1411939695421 17947 READING 412 0.990019
1411939695674 17946 READING 990 0.737847
1411939695957 17946 READING 948 0.718232
1411939696100 17947 READING 412 0.993322
1411939701143 17947 FUNCTION lru lambda h: 1.09893 * (h ** 0.001)
1411939701143 17946 FUNCTION lru lambda h: 0.829184 * (h ** 0.001)
1411939701143 17947 RECOMMEND 8
1411939701143 17946 RECOMMEND 1211
1411939709086 17947 READING 412 0.286669
1411939711143 17947 FUNCTION lru lambda h: 1.14819 * (h ** 0.001)
1411939711143 17946 FUNCTION lru lambda h: 0.829184 * (h ** 0.001)
1411939711144 17947 RECOMMEND 8
1411939711144 17946 RECOMMEND 1211
1411939721144 17947 FUNCTION lru lambda h: 1.14819 * (h ** 0.001)
1411939721144 17946 FUNCTION lru lambda h: 0.829184 * (h ** 0.001)
1411939721145 17947 RECOMMEND 8
1411939721145 17946 RECOMMEND 1211
1411939731145 17947 FUNCTION lru lambda h: 1.14819 * (h ** 0.001)
1411939731145 17946 FUNCTION lru lambda h: 0.829184 * (h ** 0.001)
1411939731145 17947 RECOMMEND 8
1411939731145 17946 RECOMMEND 1211
1411939741145 17947 FUNCTION lru lambda h: 1.14819 * (h ** 0.001)
1411939741146 17946 FUNCTION lru lambda h: 0.829184 * (h ** 0.001)
1411939741146 17947 RECOMMEND 8
1411939741146 17946 RECOMMEND 1211
1411939747980 17947 READING 412 0.886274
1411939749293 17947 READING 412 0.635102
1411939749896 17947 READING 412 0.647832
1411939751146 17947 FUNCTION lru lambda h: 1.14133 * (h ** 0.001)
1411939751146 17946 FUNCTION lru lambda h: 0.829184 * (h ** 0.001)
1411939751147 17947 RECOMMEND 8
1411939751147 17946 RECOMMEND 1211
1411939761147 17947 FUNCTION lru lambda h: 1.14133 * (h ** 0.001)
1411939761147 17946 FUNCTION lru lambda h: 0.829184 * (h ** 0.001)
1411939761147 17947 RECOMMEND 8
1411939761147 17946 RECOMMEND 1211
1411939768491 17947 READING 412 0.883063
1411939769783 17947 READING 411 0.574781
1411939770395 17947 READING 411 0.596768
1411939771079 17947 READING 410 0.939623
1411939771147 17947 FUNCTION lru lambda h: 1.10379 * (h ** 0.001)
1411939771147 17946 FUNCTION lru lambda h: 0.829184 * (h ** 0.001)
1411939771148 17947 RECOMMEND 8
1411939771148 17946 RECOMMEND 1211
1411939771764 17947 READING 411 0.929188
1411939772259 17947 READING 411 0.946541
1411939781148 17947 FUNCTION lru lambda h: 1.06677 * (h ** 0.001)
1411939781148 17946 FUNCTION lru lambda h: 0.829184 * (h ** 0.001)
1411939781148 17947 RECOMMEND 8
1411939781148 17946 RECOMMEND 1211
1411939781590 17947 READING 410 0.798848
1411939782272 17947 READING 410 0.963804
1411939782908 17947 READING 410 0.979964
1411939783756 17947 READING 406 0.933823
1411939784437 17947 READING 410 0.964442
1411939784963 17947 READING 410 0.978723
1411939785536 17947 READING 411 0.988084
1411939786168 17947 READING 411 0.993656
1411939786823 17947 READING 410 0.763133
1411939787427 17947 READING 410 0.862160
1411939787959 17947 READING 410 0.997560
1411939788574 17947 READING 411 0.997881
1411939789165 17947 READING 410 0.997954
1411939789850 17947 READING 410 0.997991
1411939790372 17947 READING 409 0.997709
1411939790870 17947 READING 410 0.997676
1411939791149 17947 FUNCTION lru lambda h: 1.0267 * (h ** 0.001)
1411939791149 17946 FUNCTION lru lambda h: 0.829184 * (h ** 0.001)
1411939791149 17947 RECOMMEND 8
1411939791149 17946 RECOMMEND 1211
1411939791490 17947 READING 410 0.997647
1411939792145 17947 READING 410 0.997808
1411939792804 17947 READING 410 0.998145
1411939793413 17947 READING 410 0.998031
1411939793931 17947 READING 410 0.997996
1411939794443 17947 READING 410 0.997859
1411939795043 17947 READING 409 0.997946
1411939795660 17947 READING 409 0.998168
1411939796181 17947 READING 410 0.998064
1411939796701 17947 READING 410 0.998005
1411939797287 17947 READING 410 0.998021
1411939797966 17947 READING 408 0.998272
1411939798620 17947 READING 410 0.998033
1411939799173 17947 READING 410 0.997993
1411939799654 17947 READING 411 0.997689
1411939800190 17947 READING 411 0.997741
1411939800869 17947 READING 411 0.998069
1411939801149 17947 FUNCTION lru lambda h: 1.02384 * (h ** 0.001)
1411939801149 17946 FUNCTION lru lambda h: 0.829184 * (h ** 0.001)
1411939801149 17947 RECOMMEND 8
1411939801149 17946 RECOMMEND 1211
1411939801502 17947 READING 409 0.997259
1411939802156 17947 READING 410 0.997708
1411939802754 17947 READING 410 0.997943
1411939803216 17947 READING 411 0.997795
1411939803828 17947 READING 411 0.997924
1411939804466 17947 READING 411 0.997900
1411939804981 17947 READING 411 0.005695
1411939805511 17947 READING 411 0.011021
1411939806132 17947 READING 411 0.023275
1411939806718 17947 READING 411 0.045582
1411939807192 17946 READING 969 0.273280
1411939807403 17947 READING 411 0.093988
1411939807982 17947 READING 411 0.165357
1411939808467 17947 READING 411 0.262749
1411939808999 17947 READING 411 0.412725
1411939809359 17946 READING 1081 0.679935
1411939809533 17946 READING 1081 0.681654
1411939809699 17947 READING 411 0.617446
1411939809816 17946 READING 1081 0.625366
1411939810003 17946 READING 1081 0.631667
1411939811150 17947 FUNCTION lru lambda h: 1.10155 * (h ** 0.001)
1411939811150 17946 FUNCTION lru lambda h: 0.821146 * (h ** 0.001)
1411939811150 17947 RECOMMEND 8
1411939811150 17946 RECOMMEND 1211
1411939818377 17947 READING 411 0.503841
1411939821150 17947 FUNCTION lru lambda h: 1.0968 * (h ** 0.001)
1411939821150 17946 FUNCTION lru lambda h: 0.821146 * (h ** 0.001)
1411939821150 17947 RECOMMEND 8
1411939821150 17946 RECOMMEND 1211
1411939826312 17946 READING 1081 0.022791
1411939831151 17947 FUNCTION lru lambda h: 1.0968 * (h ** 0.001)
1411939831151 17946 FUNCTION lru lambda h: 0.847558 * (h ** 0.001)
1411939831151 17947 RECOMMEND 8
1411939831151 17946 RECOMMEND 1211
1411939841151 17947 FUNCTION lru lambda h: 1.0968 * (h ** 0.001)
1411939841151 17946 FUNCTION lru lambda h: 0.847558 * (h ** 0.001)
1411939841152 17947 RECOMMEND 8
1411939841152 17946 RECOMMEND 1211
1411939841847 17946 READING 1081 0.153860
1411939842959 17946 READING 1081 0.223399
1411939846192 17947 READING 411 0.924475
1411939846547 17946 READING 1081 0.494759
1411939846802 17947 READING 411 0.927121
1411939847253 17947 READING 411 0.930673
1411939847810 17946 READING 1081 0.588540
1411939849403 17947 READING 411 0.908764
1411939850068 17947 READING 411 0.908244
1411939850605 17947 READING 410 0.934384
1411939851152 17947 FUNCTION lru lambda h: 1.03695 * (h ** 0.001)
1411939851152 17946 FUNCTION lru lambda h: 0.833045 * (h ** 0.001)
1411939851268 17947 RECOMMEND 8
1411939851268 17946 RECOMMEND 1211
1411939852379 17947 READING 411 0.974338
1411939852972 17947 READING 411 0.981082
1411939853599 17947 READING 411 0.987551
1411939854330 17947 READING 411 0.992575
1411939854942 17947 READING 411 0.994850
1411939855420 17947 READING 411 0.995671
1411939855983 17947 READING 411 0.996543
1411939856643 17947 READING 411 0.997349
1411939857224 17947 READING 411 0.997292
1411939857891 17947 READING 411 0.997832
1411939858525 17947 READING 411 0.998128
1411939858970 17947 READING 411 0.997795
1411939859551 17947 READING 411 0.997782
1411939860143 17947 READING 410 0.188994
1411939860703 17947 READING 410 0.315256
1411939861268 17947 FUNCTION lru lambda h: 1.10464 * (h ** 0.001)
1411939861268 17946 FUNCTION lru lambda h: 0.833045 * (h ** 0.001)
1411939861268 17947 RECOMMEND 8
1411939861268 17946 RECOMMEND 1211
1411939865265 17947 READING 411 0.748930
1411939865816 17947 READING 411 0.783303
1411939866419 17947 READING 411 0.833319
1411939867056 17947 READING 411 0.887653
1411939867696 17947 READING 410 0.992193
1411939868176 17947 READING 411 0.991229
1411939868710 17947 READING 412 0.985671
1411939869336 17947 READING 412 0.992120
1411939869952 17947 READING 412 0.995124
1411939870639 17947 READING 412 0.996963
1411939871253 17947 READING 412 0.997421
1411939871268 17947 FUNCTION lru lambda h: 1.03937 * (h ** 0.001)
1411939871268 17946 FUNCTION lru lambda h: 0.833045 * (h ** 0.001)
1411939871269 17947 RECOMMEND 8
1411939871269 17946 RECOMMEND 1211
1411939871763 17947 READING 412 0.997575
1411939872241 17946 READING 1081 0.831219
1411939872326 17947 READING 412 0.997470
1411939872892 17947 READING 412 0.997631
1411939873491 17947 READING 412 0.997681
1411939874252 17947 READING 412 0.981226
1411939874837 17947 READING 412 0.988858
1411939875458 17947 READING 412 0.993421
1411939876049 17947 READING 412 0.995619
1411939876688 17947 READING 412 0.996965
1411939877201 17947 READING 412 0.997420
1411939877701 17947 READING 412 0.997456
1411939878302 17947 READING 412 0.997765
1411939878929 17947 READING 412 0.997956
1411939879658 17947 READING 412 0.998122
1411939880289 17947 READING 411 0.998208
1411939880467 17946 READING 1081 0.892312
1411939880810 17947 READING 411 0.997899
1411939881269 17947 FUNCTION lru lambda h: 1.0329 * (h ** 0.001)
1411939881269 17946 FUNCTION lru lambda h: 0.813867 * (h ** 0.001)
1411939881269 17947 RECOMMEND 8
1411939881269 17946 RECOMMEND 1211
1411939881339 17947 READING 411 0.997655
1411939882000 17947 READING 412 0.997860
1411939882617 17947 READING 412 0.997888
1411939884124 17947 READING 412 0.976369
1411939884628 17947 READING 412 0.983144
1411939885277 17947 READING 412 0.989919
1411939885864 17947 READING 412 0.993400
1411939886517 17947 READING 412 0.995839
1411939887052 17947 READING 412 0.996836
1411939887545 17947 READING 412 0.997072
1411939888130 17947 READING 412 0.997544
1411939888784 17947 READING 412 0.997831
1411939888884 17946 READING 1081 0.908644
1411939889479 17947 READING 412 0.998146
1411939890112 17947 READING 412 0.997944
1411939890634 17947 READING 412 0.997884
1411939891141 17947 READING 412 0.997717
1411939891269 17947 FUNCTION lru lambda h: 1.03202 * (h ** 0.001)
1411939891269 17946 FUNCTION lru lambda h: 0.810583 * (h ** 0.001)
1411939891270 17947 RECOMMEND 8
1411939891270 17946 RECOMMEND 1211
1411939891723 17947 READING 412 0.997656
1411939892308 17947 READING 412 0.997811
1411939892969 17947 READING 412 0.988584
1411939893386 17946 READING 1081 0.934207
1411939893490 17947 READING 412 0.992792
1411939894095 17947 READING 412 0.995523
1411939894694 17947 READING 412 0.996528
1411939895378 17947 READING 412 0.997337
1411939895923 17946 READING 950 0.938823
1411939895939 17947 READING 412 0.997752
1411939896423 17947 READING 412 0.997877
1411939897026 17947 READING 412 0.997818
1411939897692 17947 READING 412 0.997821
1411939897870 17946 READING 1077 0.951692
1411939898396 17947 READING 412 0.998200
1411939899048 17947 READING 412 0.998138
1411939899602 17947 READING 412 0.997919
1411939899938 17946 READING 963 0.882251
1411939900110 17947 READING 412 0.997848
1411939900722 17947 READING 412 0.998107
1411939901270 17947 FUNCTION lru lambda h: 1.03199 * (h ** 0.001)
1411939901270 17946 FUNCTION lru lambda h: 0.726386 * (h ** 0.001)
1411939901270 17947 RECOMMEND 8
1411939901270 17946 RECOMMEND 1211
1411939901330 17947 READING 412 0.998046
1411939901381 17946 READING 1064 0.911655
1411939901935 17947 READING 412 0.978725
1411939902460 17947 READING 412 0.987330
1411939903099 17947 READING 412 0.993088
1411939903682 17947 READING 412 0.995513
1411939904347 17947 READING 412 0.997027
1411939905088 17947 READING 412 0.858074
1411939905561 17947 READING 412 0.914944
1411939906100 17947 READING 412 0.954741
1411939906773 17947 READING 412 0.978562
1411939908217 17947 READING 412 0.988725
1411939908257 17947 READING 412 0.994193
1411939908841 17947 READING 412 0.995872
1411939910397 17947 READING 412 0.998162
1411939911018 17947 READING 412 0.998059
1411939911270 17947 FUNCTION lru lambda h: 1.03219 * (h ** 0.001)
1411939911270 17946 FUNCTION lru lambda h: 0.701459 * (h ** 0.001)
1411939911271 17947 RECOMMEND 8
1411939911271 17946 RECOMMEND 1211
1411939911639 17947 READING 412 0.997767
1411939913383 17947 READING 412 0.207263
1411939921271 17947 FUNCTION lru lambda h: 1.08289 * (h ** 0.001)
1411939921271 17946 FUNCTION lru lambda h: 0.701459 * (h ** 0.001)
1411939921271 17947 RECOMMEND 8
1411939921271 17946 RECOMMEND 1211
1411939929226 17947 READING 411 0.789291
1411939930171 17947 READING 412 0.801804
1411939930755 17947 READING 412 0.817795
1411939931271 17947 FUNCTION lru lambda h: 1.06989 * (h ** 0.001)
1411939931272 17946 FUNCTION lru lambda h: 0.701459 * (h ** 0.001)
1411939931272 17947 RECOMMEND 8
1411939931272 17946 RECOMMEND 1211
1411939931444 17947 READING 411 0.243277
1411939932025 17947 READING 412 0.884525
1411939932486 17947 READING 411 0.914863
1411939933010 17947 READING 411 0.946260
1411939933706 17947 READING 411 0.972313
1411939934320 17947 READING 412 0.984429
1411939935022 17947 READING 412 0.991610
1411939935599 17947 READING 412 0.994475
1411939936109 17947 READING 412 0.995883
1411939936752 17947 READING 412 0.997132
1411939937392 17947 READING 412 0.997325
1411939937887 17947 READING 412 0.997456
1411939938613 17947 READING 412 0.980024
1411939939191 17947 READING 412 0.988444
1411939939797 17947 READING 412 0.993315
1411939940494 17947 READING 412 0.995941
1411939941097 17947 READING 412 0.996937
1411939941272 17947 FUNCTION lru lambda h: 1.04068 * (h ** 0.001)
1411939941272 17946 FUNCTION lru lambda h: 0.701459 * (h ** 0.001)
1411939941272 17947 RECOMMEND 8
1411939941272 17946 RECOMMEND 1211
1411939941573 17947 READING 412 0.996859
1411939942103 17947 READING 412 0.997206
1411939942794 17947 READING 412 0.997886
1411939943398 17947 READING 412 0.997834
1411939944094 17947 READING 412 0.998118
1411939944678 17947 READING 412 0.998009
1411939945175 17947 READING 412 0.997845
1411939945742 17947 READING 412 0.997837
1411939946338 17947 READING 412 0.997970
1411939946840 17947 READING 412 0.997575
1411939947500 17947 READING 412 0.960547
1411939948075 17947 READING 412 0.978473
1411939948665 17947 READING 412 0.988210
1411939949325 17947 READING 412 0.993454
1411939949912 17947 READING 411 0.996674
1411939950391 17947 READING 412 0.996951
1411939950935 17947 READING 412 0.997418
1411939951272 17947 FUNCTION lru lambda h: 1.03598 * (h ** 0.001)
1411939951273 17946 FUNCTION lru lambda h: 0.701459 * (h ** 0.001)
1411939951273 17947 RECOMMEND 8
1411939951273 17946 RECOMMEND 1211
1411939951606 17947 READING 412 0.997642
1411939951741 17946 READING 978 0.047175
1411939952205 17947 READING 412 0.997790
1411939952881 17947 READING 412 0.997785
1411939953495 17947 READING 412 0.997994
1411939953948 17947 READING 412 0.997767
1411939954538 17947 READING 412 0.997767
1411939955166 17947 READING 412 0.997651
1411939955714 17947 READING 412 0.997749
1411939957215 17947 DEATH 509
1411939961273 17946 FUNCTION lru lambda h: 0.696238 * (h ** 0.001)
1411939961273 17946 RECOMMEND 1219
1411939971273 17946 FUNCTION lru lambda h: 0.696238 * (h ** 0.001)
1411939971273 17946 RECOMMEND 1219
1411939981273 17946 FUNCTION lru lambda h: 0.696238 * (h ** 0.001)
1411939981273 17946 RECOMMEND 1219
1411939991274 17946 FUNCTION lru lambda h: 0.696238 * (h ** 0.001)
1411939991274 17946 RECOMMEND 1219
1411940001274 17946 FUNCTION lru lambda h: 0.696238 * (h ** 0.001)
1411940001274 17946 RECOMMEND 1219
1411940004902 17946 READING 1067 0.649488
1411940010360 17946 READING 1067 0.682004
1411940011274 17946 FUNCTION lru lambda h: 0.607813 * (h ** 0.001)
1411940011274 17946 RECOMMEND 1219
1411940014171 17946 READING 1063 0.703048
1411940017243 17946 READING 1068 0.697543
1411940019752 17946 READING 1077 0.705838
1411940021274 17946 FUNCTION lru lambda h: 0.432102 * (h ** 0.00141734)
1411940021274 17946 RECOMMEND 1219
1411940022444 17946 READING 1077 0.664454
1411940024504 17946 READING 1089 0.713933
1411940026521 17946 READING 1091 0.748092
1411940028419 17946 READING 1105 0.800304
1411940030136 17946 READING 1109 0.048158
1411940031275 17946 FUNCTION lru lambda h: 0.295004 * (h ** 0.0600792)
1411940031275 17946 RECOMMEND 1219
1411940031757 17946 READING 1105 0.007753
1411940033438 17946 READING 1075 0.933196
1411940035008 17946 READING 1100 0.946690
1411940036433 17946 READING 1063 0.949202
1411940041275 17946 FUNCTION lru lambda h: 0.247987 * (h ** 0.0889971)
1411940041275 17946 RECOMMEND 1219
1411940046817 17946 READING 1098 0.584855
1411940048162 17946 READING 1061 0.968563
1411940049456 17946 READING 1097 0.977787
1411940050763 17946 READING 989 0.981335
1411940051275 17946 FUNCTION lru lambda h: 0.188451 * (h ** 0.136321)
1411940051275 17946 RECOMMEND 1219
1411940052142 17946 READING 1101 0.982489
1411940053491 17946 READING 1000 0.981672
1411940054868 17946 READING 1092 0.980284
1411940056265 17946 READING 1013 0.978861
1411940057670 17946 READING 1079 0.976919
1411940059109 17946 READING 1024 0.975318
1411940060596 17946 READING 1075 0.974027
1411940061275 17946 FUNCTION lru lambda h: 0.280449 * (h ** 0.0850313)
1411940061275 17946 RECOMMEND 1219
1411940062046 17946 READING 1078 0.972157
1411940063532 17946 READING 1078 0.970246
1411940064991 17946 READING 1079 0.968166
1411940066479 17946 READING 1081 0.966731
1411940067931 17946 READING 1083 0.964702
1411940069368 17946 READING 1085 0.962189
1411940070898 17946 READING 1090 0.961463
1411940071275 17946 FUNCTION lru lambda h: 0.156987 * (h ** 0.177047)
1411940071275 17946 RECOMMEND 1219
1411940072419 17946 READING 1094 0.961366
1411940073898 17946 READING 1096 0.960590
1411940075463 17946 READING 1101 0.961247
1411940077057 17946 READING 1102 0.962047
1411940078598 17946 READING 1105 0.961944
1411940080159 17946 READING 1106 0.961864
1411940081275 17946 FUNCTION lru lambda h: 0.0624995 * (h ** 0.319556)
1411940081276 17946 RECOMMEND 1219
1411940081799 17946 READING 1109 0.962330
1411940083388 17946 READING 1074 0.961789
1411940085023 17946 READING 1109 0.962389
1411940086723 17946 READING 1109 0.962716
1411940090157 17946 READING 1109 0.928701
1411940091276 17946 FUNCTION lru lambda h: 0.0334206 * (h ** 0.419304)
1411940091276 17946 RECOMMEND 1219
1411940095039 17946 READING 1109 0.325710
1411940099501 17946 READING 1109 0.326225
1411940101276 17946 FUNCTION lru lambda h: 0.0362632 * (h ** 0.405892)
1411940101276 17946 RECOMMEND 1219
1411940103961 17946 READING 1109 0.319203
1411940108415 17946 READING 1109 0.309062
1411940111276 17946 FUNCTION lru lambda h: 0.0375965 * (h ** 0.39996)
1411940111276 17946 RECOMMEND 1219
1411940112849 17946 READING 1109 0.314807
1411940117384 17946 READING 1109 0.294723
1411940121276 17946 FUNCTION lru lambda h: 0.0381341 * (h ** 0.397627)
1411940121276 17946 RECOMMEND 1219
1411940121872 17946 READING 1109 0.299125
1411940126451 17946 READING 1109 0.297540
1411940130939 17946 READING 1109 0.289861
1411940131276 17946 FUNCTION lru lambda h: 0.0384187 * (h ** 0.396405)
1411940131276 17946 RECOMMEND 1219
1411940135462 17946 READING 1109 0.274495
1411940140014 17946 READING 1109 0.277620
1411940141277 17946 FUNCTION lru lambda h: 0.0386645 * (h ** 0.395358)
1411940141277 17946 RECOMMEND 1219
1411940144557 17946 READING 1109 0.282111
1411940149105 17946 READING 1109 0.271077
1411940151277 17946 FUNCTION lru lambda h: 0.0387524 * (h ** 0.394985)
1411940151277 17946 RECOMMEND 1219
1411940153813 17946 READING 1109 0.270741
1411940158634 17946 READING 1109 0.255287
1411940161277 17946 FUNCTION lru lambda h: 0.0389708 * (h ** 0.394061)
1411940161277 17946 RECOMMEND 1219
1411940163256 17946 READING 1109 0.257372
1411940168136 17946 READING 1109 0.236217
1411940171277 17946 FUNCTION lru lambda h: 0.0392778 * (h ** 0.392772)
1411940171277 17946 RECOMMEND 1219
1411940172713 17946 READING 1109 0.244040
1411940177332 17946 READING 1109 0.248103
1411940181278 17946 FUNCTION lru lambda h: 0.0393051 * (h ** 0.392658)
1411940181278 17946 RECOMMEND 1219
1411940181995 17946 READING 1109 0.241108
1411940186644 17946 READING 1109 0.232462
1411940191278 17946 FUNCTION lru lambda h: 0.0394881 * (h ** 0.391895)
1411940191278 17946 RECOMMEND 1219
1411940201278 17946 FUNCTION lru lambda h: 0.0394881 * (h ** 0.391895)
1411940201278 17946 RECOMMEND 1219
1411940203216 17946 READING 1109 0.823160
1411940206953 17946 READING 1109 0.493259
1411940209743 17946 READING 1109 0.314135
1411940211233 17946 READING 1109 0.446585
1411940211278 17946 FUNCTION lru lambda h: 0.0366432 * (h ** 0.404179)
1411940211278 17946 RECOMMEND 1219
1411940213263 17946 READING 1109 0.662983
1411940221278 17946 FUNCTION lru lambda h: 0.0355452 * (h ** 0.409178)
1411940221278 17946 RECOMMEND 1219
1411940225357 17946 READING 1109 0.941439
1411940228262 17946 READING 1109 0.985358
1411940231279 17946 FUNCTION lru lambda h: 0.0335361 * (h ** 0.418737)
1411940231279 17946 RECOMMEND 1219
1411940231907 17946 READING 1092 0.986850
1411940232606 17946 READING 1062 0.978854
1411940232835 17946 READING 1097 0.965713
1411940234506 17946 READING 1099 0.816917
1411940235249 17946 READING 1066 0.170709
1411940235950 17946 READING 1066 0.181211
1411940236653 17946 READING 1066 0.177435
1411940237351 17946 READING 1066 0.179772
1411940238077 17946 READING 1066 0.166643
1411940238776 17946 READING 1066 0.179533
1411940239476 17946 READING 1066 0.181604
1411940240174 17946 READING 1066 0.177131
1411940240873 17946 READING 1066 0.179650
1411940241279 17946 FUNCTION lru lambda h: 0.0245401 * (h ** 0.463752)
1411940241279 17946 RECOMMEND 1219
1411940241574 17946 READING 1066 0.182709
1411940242283 17946 READING 1066 0.180193
1411940242950 17946 READING 1066 0.208516
1411940243634 17946 READING 1066 0.939109
1411940244747 17946 READING 1084 0.974961
1411940245858 17946 READING 1084 0.981385
1411940246929 17946 READING 1084 0.982234
1411940248063 17946 READING 1084 0.981938
1411940249156 17946 READING 1084 0.980132
1411940250253 17946 READING 1084 0.978330
1411940251279 17946 FUNCTION lru lambda h: 0.0222957 * (h ** 0.48102)
1411940251279 17946 RECOMMEND 1219
1411940251365 17946 READING 1084 0.976341
1411940252467 17946 READING 1081 0.974638
1411940253587 17946 READING 981 0.972948
1411940254744 17946 READING 1063 0.971439
1411940255863 17946 READING 989 0.969232
1411940257019 17946 READING 1050 0.967395
1411940258193 17946 READING 998 0.965973
1411940259331 17946 READING 1048 0.963590
1411940260515 17946 READING 1006 0.962467
1411940261279 17946 FUNCTION lru lambda h: 0.00721488 * (h ** 0.650108)
1411940261279 17946 RECOMMEND 1219
1411940261703 17946 READING 1049 0.961508
1411940262862 17946 READING 1050 0.960245
1411940264068 17946 READING 1049 0.960209
1411940265281 17946 READING 1050 0.960530
1411940266529 17946 READING 1047 0.961045
1411940267771 17946 READING 1048 0.960938
1411940269002 17946 READING 1045 0.960883
1411940270261 17946 READING 1047 0.960817
1411940271279 17946 FUNCTION lru lambda h: 0.0018785 * (h ** 0.84918)
1411940271279 17946 RECOMMEND 1219
1411940271524 17946 READING 1045 0.960565
1411940272814 17946 READING 1046 0.961000
1411940274075 17946 READING 1044 0.960478
1411940275379 17946 READING 1045 0.960647
1411940276705 17946 READING 1043 0.960668
1411940277998 17946 READING 1044 0.960629
1411940279314 17946 READING 1043 0.960482
1411940281279 17946 FUNCTION lru lambda h: 0.001 * (h ** 0.999)
1411940281280 17946 RECOMMEND 1219
1411940281453 17946 READING 1044 0.947169
1411940282809 17946 READING 1044 0.976379
1411940284100 17946 READING 1045 0.982190
1411940285362 17946 READING 1049 0.983597
1411940286650 17946 READING 1053 0.983616
1411940287960 17946 READING 1055 0.982661
1411940289272 17946 READING 1055 0.981253
1411940290586 17946 READING 1048 0.979426
1411940291280 17946 FUNCTION lru lambda h: 0.001 * (h ** 0.999)
1411940291280 17946 RECOMMEND 1219
1411940291938 17946 READING 997 0.977906
1411940293279 17946 READING 1042 0.976116
1411940294632 17946 READING 1007 0.974163
1411940295976 17946 READING 1042 0.972324
1411940297337 17946 READING 1043 0.970957
1411940298675 17946 READING 1043 0.968703
1411940300008 17946 READING 1044 0.966675
1411940301280 17946 FUNCTION lru lambda h: 0.001 * (h ** 0.999)
1411940301280 17946 RECOMMEND 1219
1411940301346 17946 READING 1045 0.965165
1411940302784 17946 READING 1048 0.964683
1411940304124 17946 READING 1051 0.962629
1411940306844 17946 READING 1054 0.920097
1411940309090 17946 READING 1058 0.595242
1411940311204 17946 READING 1058 0.557533
1411940311280 17946 FUNCTION lru lambda h: 0.001 * (h ** 0.999)
1411940311280 17946 RECOMMEND 1219
1411940313275 17946 READING 1058 0.552984
1411940315329 17946 READING 1058 0.527193
1411940317350 17946 READING 1058 0.535179
1411940319417 17946 READING 1058 0.531379
1411940321280 17946 FUNCTION lru lambda h: 0.001 * (h ** 0.999)
1411940321280 17946 RECOMMEND 1219
1411940321488 17946 READING 1058 0.530190
1411940323538 17946 READING 1058 0.527809
1411940325569 17946 READING 1058 0.517732
1411940327651 17946 READING 1058 0.516783
1411940329735 17946 READING 1058 0.514729
1411940331280 17946 FUNCTION lru lambda h: 0.001 * (h ** 0.999)
1411940331280 17946 RECOMMEND 1219
1411940331854 17946 READING 1058 0.506590
1411940333830 17946 READING 1058 0.500532
1411940335855 17946 READING 1058 0.493295
1411940337985 17946 READING 1058 0.470744
1411940340011 17946 READING 1058 0.486901
1411940341281 17946 FUNCTION lru lambda h: 0.001 * (h ** 0.999)
1411940341281 17946 RECOMMEND 1219
1411940342103 17946 READING 1058 0.459116
1411940344231 17946 READING 1058 0.463125
1411940346270 17946 READING 1058 0.448301
1411940348344 17946 READING 1058 0.458280
1411940350429 17946 READING 1058 0.452245
1411940351281 17946 FUNCTION lru lambda h: 0.001 * (h ** 0.999)
1411940351281 17946 RECOMMEND 1219
1411940352493 17946 READING 1058 0.422716
1411940354571 17946 READING 1058 0.422858
1411940356672 17946 READING 1058 0.437215
1411940358775 17946 READING 1058 0.428202
1411940360887 17946 READING 1058 0.417645
1411940361281 17946 FUNCTION lru lambda h: 0.001 * (h ** 0.999)
1411940361281 17946 RECOMMEND 1219
1411940362996 17946 READING 1058 0.400705
1411940365093 17946 READING 1058 0.395242
1411940367148 17946 READING 1058 0.399351
1411940369220 17946 READING 1058 0.397370
1411940371281 17946 FUNCTION lru lambda h: 0.001 * (h ** 0.999)
1411940371281 17946 RECOMMEND 1219
1411940371291 17946 READING 1058 0.399189
1411940373416 17946 READING 1058 0.388821
1411940375491 17946 READING 1058 0.387514
1411940377688 17946 READING 1058 0.364362
1411940379830 17946 READING 1058 0.368250
1411940381282 17946 FUNCTION lru lambda h: 0.001 * (h ** 0.999)
1411940381282 17946 RECOMMEND 1219
1411940381940 17946 READING 1058 0.378084
1411940384036 17946 READING 1058 0.369057
1411940386156 17946 READING 1058 0.359774
1411940388198 17946 READING 1058 0.360058
1411940390413 17946 READING 1058 0.337849
1411940391282 17946 FUNCTION lru lambda h: 0.001 * (h ** 0.999)
1411940391282 17946 RECOMMEND 1219
1411940392562 17946 READING 1058 0.320364
1411940394788 17946 READING 1058 0.323723
1411940396982 17946 READING 1058 0.333291
1411940399221 17946 READING 1058 0.323681
1411940401282 17946 FUNCTION lru lambda h: 0.001 * (h ** 0.999)
1411940401282 17946 RECOMMEND 1219
1411940401426 17946 READING 1058 0.304199
1411940403693 17946 READING 1058 0.302348
1411940411282 17946 FUNCTION lru lambda h: 0.001 * (h ** 0.999)
1411940411282 17946 RECOMMEND 1219
1411940417768 17946 READING 1058 0.916874
1411940419639 17946 READING 1058 0.475252
1411940421117 17946 READING 1058 0.333036
1411940421282 17946 FUNCTION lru lambda h: 0.001 * (h ** 0.999)
1411940421282 17946 RECOMMEND 1219
1411940422293 17946 READING 1058 0.209674
1411940423349 17946 READING 1058 0.122008
1411940424410 17946 READING 1058 0.075435
1411940425284 17946 READING 1058 0.042751
1411940426064 17946 READING 1058 0.017401
1411940427082 17946 READING 1058 0.004666
1411940427953 17946 READING 1058 0.021355
1411940428757 17946 READING 1058 0.006189
1411940429524 17946 READING 1058 0.002006
1411940430301 17946 READING 1058 0.000715
1411940431095 17946 READING 1058 0.000328
1411940431283 17946 FUNCTION lru lambda h: 0.001 * (h ** 0.999)
1411940431283 17946 RECOMMEND 1219
1411940431857 17946 READING 1058 0.000294
1411940432616 17946 READING 1058 0.000271
1411940433370 17946 READING 1058 0.000208
1411940434146 17946 READING 1058 0.000361
1411940434909 17946 READING 1058 0.000223
1411940435736 17946 READING 1058 0.000352
1411940436557 17946 READING 1058 0.000212
1411940437339 17946 READING 1058 0.000226
1411940438118 17946 READING 1058 0.000290
1411940438912 17946 READING 1058 0.000361
1411940439707 17946 READING 1058 0.000351
1411940440479 17946 READING 1058 0.000361
1411940441253 17946 READING 1058 0.000377
1411940441283 17946 FUNCTION lru lambda h: 0.001 * (h ** 0.999)
1411940441283 17946 RECOMMEND 1219
1411940442036 17946 READING 1058 0.000336
1411940442855 17946 READING 1058 0.000345
1411940443677 17946 READING 1058 0.000319
1411940444452 17946 READING 1058 0.000379
1411940445235 17946 READING 1058 0.000311
1411940446019 17946 READING 1058 0.000381
1411940446805 17946 READING 1058 0.000331
1411940447596 17946 READING 1058 0.000373
1411940448425 17946 READING 1058 0.000310
1411940449197 17946 READING 1058 0.000452
1411940449971 17946 READING 1058 0.000361
1411940450763 17946 READING 1058 0.000335
1411940451283 17946 FUNCTION lru lambda h: 0.001 * (h ** 0.999)
1411940451283 17946 RECOMMEND 1219
1411940451532 17946 READING 1058 0.000324
1411940452323 17946 READING 1058 0.000377
1411940453120 17946 READING 1058 0.000316
1411940453944 17946 READING 1058 0.000339
1411940454736 17946 READING 1058 0.000367
1411940455511 17946 READING 1058 0.000337
1411940456303 17946 READING 1058 0.000341
1411940457088 17946 READING 1058 0.000378
1411940457874 17946 READING 1058 0.000333
1411940458649 17946 READING 1058 0.000343
1411940459441 17946 READING 1058 0.000542
1411940460233 17946 READING 1058 0.000467
1411940461046 17946 READING 1058 0.000358
1411940461283 17946 FUNCTION lru lambda h: 0.001 * (h ** 0.999)
1411940461283 17946 RECOMMEND 1219
1411940461815 17946 READING 1058 0.000372
1411940462607 17946 READING 1058 0.000369
1411940463432 17946 READING 1058 0.000321
1411940464224 17946 READING 1058 0.000289
1411940465009 17946 READING 1058 0.000345
1411940465782 17946 READING 1058 0.000380
1411940466568 17946 READING 1058 0.000326
1411940467353 17946 READING 1058 0.000329
1411940468119 17946 READING 1058 0.000493
1411940468886 17946 READING 1058 0.000368
1411940469660 17946 READING 1058 0.000319
1411940470435 17946 READING 1058 0.000361
1411940471218 17946 READING 1058 0.000315
1411940471284 17946 FUNCTION lru lambda h: 0.001 * (h ** 0.999)
1411940471284 17946 RECOMMEND 1219
1411940472009 17946 READING 1058 0.000340
1411940472800 17946 READING 1058 0.000354
1411940473590 17946 READING 1058 0.000319
1411940474376 17946 READING 1058 0.000330
1411940475169 17946 READING 1058 0.000409
1411940475995 17946 READING 1058 0.000349
1411940476777 17946 READING 1058 0.000355
1411940477571 17946 READING 1058 0.000325
1411940478361 17946 READING 1058 0.000325
1411940479146 17946 READING 1058 0.000336
1411940479917 17946 READING 1058 0.000317
1411940480690 17946 READING 1058 0.000298
1411940481284 17946 FUNCTION lru lambda h: 0.001 * (h ** 0.999)
1411940481284 17946 RECOMMEND 1219
1411940481459 17946 READING 1058 0.000365
1411940482249 17946 READING 1058 0.000322
1411940483021 17946 READING 1058 0.000384
1411940483804 17946 READING 1058 0.000459
1411940484624 17946 READING 1058 0.000313
1411940485415 17946 READING 1058 0.000382
1411940486205 17946 READING 1058 0.000343
1411940487028 17946 READING 1058 0.000334
1411940487856 17946 READING 1058 0.000300
1411940488638 17946 READING 1058 0.000353
1411940489401 17946 READING 1058 0.000351
1411940490184 17946 READING 1058 0.000350
1411940490976 17946 READING 1058 0.000355
1411940491284 17946 FUNCTION lru lambda h: 0.001 * (h ** 0.999)
1411940491284 17946 RECOMMEND 1219
1411940491796 17946 READING 1058 0.000319
1411940492583 17946 READING 1058 0.000330
1411940493387 17946 READING 1058 0.000341
1411940494176 17946 READING 1058 0.000334
1411940494959 17946 READING 1058 0.000352
1411940495749 17946 READING 1058 0.000354
1411940496537 17946 READING 1058 0.000469
1411940497298 17946 READING 1058 0.000289
1411940498069 17946 READING 1058 0.000397
1411940498852 17946 READING 1058 0.000373
1411940499634 17946 READING 1058 0.000348
1411940500424 17946 READING 1058 0.000376
1411940501213 17946 READING 1058 0.000341
1411940501284 17946 FUNCTION lru lambda h: 0.001 * (h ** 0.999)
1411940501284 17946 RECOMMEND 1219
1411940502037 17946 READING 1058 0.000350
1411940502801 17946 READING 1058 0.000314
1411940503595 17946 READING 1058 0.000338
1411940504383 17946 READING 1058 0.000368
1411940505146 17946 READING 1058 0.000418
1411940505915 17946 READING 1058 0.000358
1411940506742 17946 READING 1058 0.000334
1411940507526 17946 READING 1058 0.000332
1411940508316 17946 READING 1058 0.000357
1411940509109 17946 READING 1058 0.000319
1411940509879 17946 READING 1058 0.000354
1411940510648 17946 READING 1058 0.000343
1411940511284 17946 FUNCTION lru lambda h: 0.001 * (h ** 0.999)
1411940511284 17946 RECOMMEND 1219
1411940511418 17946 READING 1058 0.000347
1411940512182 17946 READING 1058 0.000310
1411940512952 17946 READING 1058 0.000353
1411940513738 17946 READING 1058 0.000291
1411940514500 17946 READING 1058 0.000336
1411940515261 17946 READING 1058 0.000336
1411940516047 17946 READING 1058 0.000379
1411940516829 17946 READING 1058 0.000421
1411940517606 17946 READING 1058 0.000381
1411940518394 17946 READING 1058 0.000371
1411940519174 17946 READING 1058 0.000292
1411940519945 17946 READING 1058 0.000379
1411940520709 17946 READING 1058 0.000356
1411940521284 17946 FUNCTION lru lambda h: 0.001 * (h ** 0.999)
1411940521285 17946 RECOMMEND 1219
1411940521491 17946 READING 1058 0.000348
1411940522274 17946 READING 1058 0.000339
1411940523079 17946 READING 1058 0.000335
1411940523843 17946 READING 1058 0.000338
1411940524622 17946 READING 1058 0.000295
1411940525412 17946 READING 1058 0.000344
1411940526191 17946 READING 1058 0.000389
1411940526971 17946 READING 1058 0.000338
1411940527732 17946 READING 1058 0.000348
1411940528512 17946 READING 1058 0.000342
1411940529290 17946 READING 1058 0.000349
1411940530074 17946 READING 1058 0.000272
1411940530895 17946 READING 1058 0.000325
1411940531285 17946 FUNCTION lru lambda h: 0.001 * (h ** 0.999)
1411940531285 17946 RECOMMEND 1219
1411940531661 17946 READING 1058 0.000348
1411940532446 17946 READING 1058 0.000384
1411940533224 17946 READING 1058 0.000377
1411940534011 17946 READING 1058 0.000358
1411940534793 17946 READING 1058 0.000316
1411940535571 17946 READING 1058 0.000306
1411940536338 17946 READING 1058 0.000359
1411940537156 17946 READING 1058 0.000350
1411940537939 17946 READING 1058 0.000307
1411940538718 17946 READING 1058 0.000316
1411940539538 17946 READING 1058 0.000321
1411940540327 17946 READING 1058 0.000365
1411940541105 17946 READING 1058 0.000324
1411940541285 17946 FUNCTION lru lambda h: 0.001 * (h ** 0.999)
1411940541285 17946 RECOMMEND 1219
1411940541888 17946 READING 1058 0.000332
1411940542665 17946 READING 1058 0.000338
1411940543448 17946 READING 1058 0.000362
1411940544236 17946 READING 1058 0.000391
1411940545001 17946 READING 1058 0.000367
1411940545768 17946 READING 1058 0.000363
1411940546550 17946 READING 1058 0.000312
1411940547318 17946 READING 1058 0.000361
1411940548107 17946 READING 1058 0.000303
1411940548890 17946 READING 1058 0.000318
1411940549654 17946 READING 1058 0.000394
1411940550429 17946 READING 1058 0.000353
1411940551206 17946 READING 1058 0.000332
1411940551285 17946 FUNCTION lru lambda h: 0.001 * (h ** 0.999)
1411940551285 17946 RECOMMEND 1219
1411940551986 17946 READING 1058 0.000287
1411940552774 17946 READING 1058 0.000320
1411940553555 17946 READING 1058 0.000345
1411940554332 17946 READING 1058 0.000350
1411940555150 17946 READING 1058 0.000350
1411940555969 17946 READING 1058 0.000305
1411940556745 17946 READING 1058 0.000395
1411940557516 17946 READING 1058 0.000307
1411940558333 17946 READING 1058 0.000344
1411940559154 17946 READING 1058 0.000334
1411940559935 17946 READING 1058 0.000340
1411940560724 17946 READING 1058 0.000346
1411940561285 17946 FUNCTION lru lambda h: 0.001 * (h ** 0.999)
1411940561285 17946 RECOMMEND 1219
1411940561502 17946 READING 1058 0.000340
1411940562277 17946 READING 1058 0.000380
1411940563041 17946 READING 1058 0.000305
1411940563813 17946 READING 1058 0.000356
1411940564576 17946 READING 1058 0.000384
1411940565358 17946 READING 1058 0.000330
1411940566136 17946 READING 1058 0.000344
1411940566923 17946 READING 1058 0.000306
1411940567682 17946 READING 1058 0.000279
1411940568460 17946 READING 1058 0.000207
1411940569234 17946 READING 1058 0.000228
1411940569981 17946 READING 1058 0.000273
1411940570739 17946 READING 1058 0.000206
1411940571285 17946 FUNCTION lru lambda h: 0.001 * (h ** 0.999)
1411940571285 17946 RECOMMEND 1219
1411940572418 17946 READING 1058 0.000023
1411940573229 17946 READING 1058 0.010228
1411940574032 17946 READING 1058 0.002482
1411940574833 17946 READING 1058 0.000892
1411940575601 17946 READING 1058 0.000432
1411940576360 17946 READING 1058 0.000314
1411940577160 17946 READING 1058 0.000248
1411940577911 17946 READING 1058 0.000222
1411940578660 17946 READING 1058 0.000271
1411940579419 17946 READING 1058 0.000309
1411940580176 17946 READING 1058 0.000402
1411940580935 17946 READING 1058 0.000173
1411940581286 17946 FUNCTION lru lambda h: 0.001 * (h ** 0.999)
1411940581286 17946 RECOMMEND 1219
1411940581708 17946 READING 1058 0.000378
1411940582515 17946 READING 1058 0.000319
1411940583315 17946 READING 1058 0.000336
1411940584072 17946 READING 1058 0.000343
1411940584860 17946 READING 1058 0.000268
1411940585615 17946 READING 1058 0.000343
1411940586374 17946 READING 1058 0.000361
1411940587130 17946 READING 1058 0.000347
1411940587887 17946 READING 1058 0.000211
1411940588657 17946 READING 1058 0.000322
1411940589484 17946 READING 1058 0.000370
1411940590285 17946 READING 1058 0.000277
1411940591064 17946 READING 1058 0.000365
1411940591286 17946 FUNCTION lru lambda h: 0.001 * (h ** 0.999)
1411940591286 17946 RECOMMEND 1219
1411940591853 17946 READING 1058 0.000313
1411940592612 17946 READING 1058 0.000479
1411940593370 17946 READING 1058 0.000331
1411940594139 17946 READING 1058 0.000341
1411940594895 17946 READING 1058 0.000163
1411940595669 17946 READING 1058 0.000291
1411940596477 17946 READING 1058 0.000399
1411940597279 17946 READING 1058 0.000358
1411940598039 17946 READING 1058 0.000337
1411940598825 17946 READING 1058 0.000323
1411940599579 17946 READING 1058 0.000381
1411940600338 17946 READING 1058 0.000372
1411940601114 17946 READING 1058 0.000451
1411940601286 17946 FUNCTION lru lambda h: 0.001 * (h ** 0.999)
1411940601286 17946 RECOMMEND 1219
1411940601875 17946 READING 1058 0.000209
1411940602647 17946 READING 1058 0.000345
1411940603474 17946 READING 1058 0.000323
1411940604276 17946 READING 1058 0.000329
1411940605032 17946 READING 1058 0.000373
1411940605820 17946 READING 1058 0.000326
1411940606573 17946 READING 1058 0.000380
1411940607331 17946 READING 1058 0.000368
1411940608088 17946 READING 1058 0.000338
1411940608845 17946 READING 1058 0.000191
1411940609615 17946 READING 1058 0.000396
1411940610439 17946 READING 1058 0.000348
1411940611241 17946 READING 1058 0.000325
1411940611286 17946 FUNCTION lru lambda h: 0.001 * (h ** 0.999)
1411940611286 17946 RECOMMEND 1219
1411940612059 17946 READING 1058 0.000331
1411940612847 17946 READING 1058 0.000319
1411940613600 17946 READING 1058 0.000380
1411940614358 17946 READING 1058 0.000353
1411940615127 17946 READING 1058 0.000420
1411940615885 17946 READING 1058 0.000195
1411940616656 17946 READING 1058 0.000384
1411940617467 17946 READING 1058 0.000374
1411940618269 17946 READING 1058 0.000362
1411940619053 17946 READING 1058 0.000377
1411940619841 17946 READING 1058 0.000365
1411940620595 17946 READING 1058 0.000372
1411940621286 17946 FUNCTION lru lambda h: 0.001 * (h ** 0.999)
1411940621286 17946 RECOMMEND 1219
1411940621355 17946 READING 1058 0.000360
1411940622112 17946 READING 1058 0.000317
1411940622873 17946 READING 1058 0.000146
1411940623647 17946 READING 1058 0.000317
1411940624476 17946 READING 1058 0.000339
1411940625279 17946 READING 1058 0.000323
1411940626094 17946 READING 1058 0.000315
1411940626882 17946 READING 1058 0.000321
1411940627641 17946 READING 1058 0.000380
1411940628399 17946 READING 1058 0.000299
1411940629151 17946 READING 1058 0.000319
1411940629905 17946 READING 1058 0.000163
1411940630678 17946 READING 1058 0.000400
1411940631287 17946 FUNCTION lru lambda h: 0.001 * (h ** 0.999)
1411940631287 17946 RECOMMEND 1219
1411940631489 17946 READING 1058 0.000352
1411940632293 17946 READING 1058 0.000350
1411940633071 17946 READING 1058 0.000520
1411940633860 17946 READING 1058 0.000306
1411940634613 17946 READING 1058 0.000358
1411940635371 17946 READING 1058 0.000342
1411940636124 17946 READING 1058 0.000343
1411940636886 17946 READING 1058 0.000205
1411940637641 17946 READING 1058 0.000351
1411940638395 17946 READING 1058 0.000325
1411940639149 17946 READING 1058 0.000267
1411940639953 17946 READING 1058 0.000225
1411940640741 17946 READING 1058 0.000236
1411940641287 17946 FUNCTION lru lambda h: 0.001 * (h ** 0.999)
1411940641287 17946 RECOMMEND 1219
1411940641512 17946 READING 1058 0.000263
1411940642290 17946 READING 1058 0.000181
1411940643036 17946 READING 1058 0.000251
1411940643778 17946 READING 1058 0.000046
1411940644582 17946 READING 1058 0.000314
1411940645388 17946 READING 1058 0.000042
1411940646860 17946 READING 1058 0.000203
1411940647633 17946 READING 1058 0.019787
1411940648386 17946 READING 1058 0.013060
1411940649161 17946 READING 1058 0.014477
1411940649912 17946 READING 1058 0.011148
1411940650665 17946 READING 1058 0.014655
1411940651287 17946 FUNCTION lru lambda h: 0.001 * (h ** 0.999)
1411940651287 17946 RECOMMEND 1219
1411940651424 17946 READING 1058 0.017886
1411940652177 17946 READING 1058 0.014674
1411940652931 17946 READING 1058 0.018279
1411940653686 17946 READING 1058 0.017599
1411940654447 17946 READING 1058 0.016263
1411940655195 17946 READING 1058 0.011252
1411940655946 17946 READING 1058 0.012385
1411940656704 17946 READING 1058 0.014126
1411940657455 17946 READING 1058 0.014685
1411940658213 17946 READING 1058 0.024488
1411940658973 17946 READING 1058 0.025402
1411940659731 17946 READING 1058 0.023275
1411940660488 17946 READING 1058 0.022940
1411940661248 17946 READING 1058 0.028754
1411940661287 17946 FUNCTION lru lambda h: 0.001 * (h ** 0.999)
1411940661287 17946 RECOMMEND 1219
1411940662008 17946 READING 1058 0.028076
1411940662765 17946 READING 1058 0.025103
1411940663527 17946 READING 1058 0.031818
1411940664295 17946 READING 1058 0.039202
1411940665078 17946 READING 1058 0.038700
1411940665841 17946 READING 1058 0.036206
1411940666617 17946 READING 1058 0.049439
1411940667384 17946 READING 1058 0.043328
1411940668153 17946 READING 1058 0.044811
1411940668927 17946 READING 1058 0.052302
1411940669706 17946 READING 1058 0.059105
1411940670484 17946 READING 1058 0.059109
1411940671263 17946 READING 1058 0.061098
1411940671287 17946 FUNCTION lru lambda h: 0.001 * (h ** 0.999)
1411940671287 17946 RECOMMEND 1219
1411940672041 17946 READING 1058 0.061625
1411940672837 17946 READING 1058 0.074911
1411940673633 17946 READING 1058 0.085219
1411940674429 17946 READING 1058 0.084125
1411940675226 17946 READING 1058 0.088413
1411940676036 17946 READING 1058 0.104682
1411940676841 17946 READING 1058 0.103950
1411940677662 17946 READING 1058 0.121304
1411940678491 17946 READING 1058 0.134194
1411940679333 17946 READING 1058 0.148032
1411940680193 17946 READING 1058 0.166980
1411940681069 17946 READING 1058 0.188931
1411940681287 17946 FUNCTION lru lambda h: 0.001 * (h ** 0.999)
1411940681288 17946 RECOMMEND 1219
1411940681959 17946 READING 1058 0.207324
1411940682935 17946 READING 1058 0.236651
1411940683951 17946 READING 1058 0.273536
1411940691288 17946 FUNCTION lru lambda h: 0.001 * (h ** 0.999)
1411940691288 17946 RECOMMEND 1219
1411940694702 17946 READING 1058 0.823995
1411940696889 17946 DEATH 651
