MemTotal:       16388228 kB
MemFree:        15222008 kB
Buffers:          118652 kB
Cached:           674384 kB
SwapCached:            0 kB
Active:           510708 kB
Inactive:         405884 kB
Active(anon):     124452 kB
Inactive(anon):    24616 kB
Active(file):     386256 kB
Inactive(file):   381268 kB
Unevictable:           0 kB
Mlocked:               0 kB
SwapTotal:      16728060 kB
SwapFree:       16728060 kB
Dirty:               432 kB
Writeback:             0 kB
AnonPages:        123568 kB
Mapped:            94228 kB
Shmem:             25516 kB
Slab:             109920 kB
SReclaimable:      88568 kB
SUnreclaim:        21352 kB
KernelStack:        1872 kB
PageTables:         7752 kB
NFS_Unstable:          0 kB
Bounce:                0 kB
WritebackTmp:          0 kB
CommitLimit:    24922172 kB
Committed_AS:     506764 kB
VmallocTotal:   34359738367 kB
VmallocUsed:      114364 kB
VmallocChunk:   34359615332 kB
HardwareCorrupted:     0 kB
AnonHugePages:     28672 kB
HugePages_Total:       0
HugePages_Free:        0
HugePages_Rsvd:        0
HugePages_Surp:        0
Hugepagesize:       2048 kB
DirectMap4k:       72644 kB
DirectMap2M:    16658432 kB
