Using scaled threading model. 4 processors detected, 4 threads used to drive the workload, in a possible range of [1,64000]
===== DaCapo 9.12 h2 starting warmup 1 =====
................................
Completed 32000 transactions
	Stock level .............  1277 ( 4.0%)
	Order status by name ....   765 ( 2.4%)
	Order status by ID ......   518 ( 1.6%)
	Payment by name .........  8262 (25.8%)
	Payment by ID ...........  5489 (17.2%)
	Delivery schedule .......  1299 ( 4.1%)
	New order ............... 14241 (44.5%)
	New order rollback ......   149 ( 0.5%)
Resetting database to initial state
===== DaCapo 9.12 h2 completed warmup 1 in 26620 msec =====
===== DaCapo 9.12 h2 starting warmup 2 =====
................................
Completed 32000 transactions
	Stock level .............  1277 ( 4.0%)
	Order status by name ....   765 ( 2.4%)
	Order status by ID ......   518 ( 1.6%)
	Payment by name .........  8262 (25.8%)
	Payment by ID ...........  5489 (17.2%)
	Delivery schedule .......  1299 ( 4.1%)
	New order ............... 14241 (44.5%)
	New order rollback ......   149 ( 0.5%)
Resetting database to initial state
===== DaCapo 9.12 h2 completed warmup 2 in 26672 msec =====
===== DaCapo 9.12 h2 starting warmup 3 =====
................................
Completed 32000 transactions
	Stock level .............  1277 ( 4.0%)
	Order status by name ....   765 ( 2.4%)
	Order status by ID ......   518 ( 1.6%)
	Payment by name .........  8262 (25.8%)
	Payment by ID ...........  5489 (17.2%)
	Delivery schedule .......  1299 ( 4.1%)
	New order ............... 14241 (44.5%)
	New order rollback ......   149 ( 0.5%)
Resetting database to initial state
===== DaCapo 9.12 h2 completed warmup 3 in 26702 msec =====
===== DaCapo 9.12 h2 starting warmup 4 =====
................................
Completed 32000 transactions
	Stock level .............  1277 ( 4.0%)
	Order status by name ....   765 ( 2.4%)
	Order status by ID ......   518 ( 1.6%)
	Payment by name .........  8262 (25.8%)
	Payment by ID ...........  5489 (17.2%)
	Delivery schedule .......  1299 ( 4.1%)
	New order ............... 14241 (44.5%)
	New order rollback ......   149 ( 0.5%)
Resetting database to initial state
===== DaCapo 9.12 h2 completed warmup 4 in 26860 msec =====
===== DaCapo 9.12 h2 starting warmup 5 =====
................................
Completed 32000 transactions
	Stock level .............  1277 ( 4.0%)
	Order status by name ....   765 ( 2.4%)
	Order status by ID ......   518 ( 1.6%)
	Payment by name .........  8262 (25.8%)
	Payment by ID ...........  5489 (17.2%)
	Delivery schedule .......  1299 ( 4.1%)
	New order ............... 14241 (44.5%)
	New order rollback ......   149 ( 0.5%)
Resetting database to initial state
===== DaCapo 9.12 h2 completed warmup 5 in 26377 msec =====
===== DaCapo 9.12 h2 starting warmup 6 =====
................................
Completed 32000 transactions
	Stock level .............  1277 ( 4.0%)
	Order status by name ....   765 ( 2.4%)
	Order status by ID ......   518 ( 1.6%)
	Payment by name .........  8262 (25.8%)
	Payment by ID ...........  5489 (17.2%)
	Delivery schedule .......  1299 ( 4.1%)
	New order ............... 14241 (44.5%)
	New order rollback ......   149 ( 0.5%)
Resetting database to initial state
===== DaCapo 9.12 h2 completed warmup 6 in 26684 msec =====
===== DaCapo 9.12 h2 starting warmup 7 =====
................................
Completed 32000 transactions
	Stock level .............  1277 ( 4.0%)
	Order status by name ....   765 ( 2.4%)
	Order status by ID ......   518 ( 1.6%)
	Payment by name .........  8262 (25.8%)
	Payment by ID ...........  5489 (17.2%)
	Delivery schedule .......  1299 ( 4.1%)
	New order ............... 14241 (44.5%)
	New order rollback ......   149 ( 0.5%)
Resetting database to initial state
===== DaCapo 9.12 h2 completed warmup 7 in 27140 msec =====
===== DaCapo 9.12 h2 starting warmup 8 =====
................................
Completed 32000 transactions
	Stock level .............  1277 ( 4.0%)
	Order status by name ....   765 ( 2.4%)
	Order status by ID ......   518 ( 1.6%)
	Payment by name .........  8262 (25.8%)
	Payment by ID ...........  5489 (17.2%)
	Delivery schedule .......  1299 ( 4.1%)
	New order ............... 14241 (44.5%)
	New order rollback ......   149 ( 0.5%)
Resetting database to initial state
===== DaCapo 9.12 h2 completed warmup 8 in 25699 msec =====
===== DaCapo 9.12 h2 starting warmup 9 =====
................................
Completed 32000 transactions
	Stock level .............  1277 ( 4.0%)
	Order status by name ....   765 ( 2.4%)
	Order status by ID ......   518 ( 1.6%)
	Payment by name .........  8262 (25.8%)
	Payment by ID ...........  5489 (17.2%)
	Delivery schedule .......  1299 ( 4.1%)
	New order ............... 14241 (44.5%)
	New order rollback ......   149 ( 0.5%)
Resetting database to initial state
===== DaCapo 9.12 h2 completed warmup 9 in 26993 msec =====
===== DaCapo 9.12 h2 starting warmup 10 =====
................................
Completed 32000 transactions
	Stock level .............  1277 ( 4.0%)
	Order status by name ....   765 ( 2.4%)
	Order status by ID ......   518 ( 1.6%)
	Payment by name .........  8262 (25.8%)
	Payment by ID ...........  5489 (17.2%)
	Delivery schedule .......  1299 ( 4.1%)
	New order ............... 14241 (44.5%)
	New order rollback ......   149 ( 0.5%)
Resetting database to initial state
===== DaCapo 9.12 h2 completed warmup 10 in 26950 msec =====
===== DaCapo 9.12 h2 starting =====
................................
Completed 32000 transactions
	Stock level .............  1277 ( 4.0%)
	Order status by name ....   765 ( 2.4%)
	Order status by ID ......   518 ( 1.6%)
	Payment by name .........  8262 (25.8%)
	Payment by ID ...........  5489 (17.2%)
	Delivery schedule .......  1299 ( 4.1%)
	New order ............... 14241 (44.5%)
	New order rollback ......   149 ( 0.5%)
Resetting database to initial state
===== DaCapo 9.12 h2 PASSED in 27636 msec =====
