economemd
    total memory: 7410 MB
    timer interval: 10 s
    timer start state: running
    utility model: root

    caches:
        lru

    force utility function validity: yes
    make recommendations: yes
    equal recommendations: no

    reading receiver name: vengerov
    command receiver name: vengerov

    dump file: economemd.dump.log
    log file: /home/callum/economics_memory_code/dynamic_sizing/data/output/timerComparisonMany_2014_10_15_12_35_15/sub30_timerComparisonSingle/sub3_timeBenchmarkDaemon/daemon_run09_log.txt
    log readings: yes
    log functions: yes

PyOptimiser: initialising...
PyOptimiser: initialised
ReadingThread: starting
TimerThread: starting
CommandThread: starting
Recommendation: no clients; no recommendation
Recommendation: no clients; no recommendation
Reading from 9375: heap size 9 MB, throughput 0.984678
Clients: 1
Client 9375 has a minimum heap size of 12 MB
Reading from 9374: heap size 9 MB, throughput 0.989719
Clients: 2
Client 9374 has a minimum heap size of 1223 MB
Reading from 9374: heap size 9 MB, throughput 0.986313
Reading from 9375: heap size 9 MB, throughput 0.985179
Reading from 9374: heap size 9 MB, throughput 0.981779
Reading from 9374: heap size 9 MB, throughput 0.976123
Reading from 9375: heap size 11 MB, throughput 0.980109
Reading from 9375: heap size 11 MB, throughput 0.977426
Reading from 9374: heap size 11 MB, throughput 0.981379
Reading from 9374: heap size 11 MB, throughput 0.972301
Reading from 9375: heap size 15 MB, throughput 0.981606
Reading from 9374: heap size 17 MB, throughput 0.927257
Reading from 9375: heap size 15 MB, throughput 0.984399
Reading from 9374: heap size 17 MB, throughput 0.898165
Reading from 9374: heap size 30 MB, throughput 0.786708
Reading from 9374: heap size 31 MB, throughput 0.547454
Reading from 9375: heap size 24 MB, throughput 0.958492
Reading from 9374: heap size 36 MB, throughput 0.60983
Reading from 9374: heap size 48 MB, throughput 0.424249
Reading from 9374: heap size 50 MB, throughput 0.341454
Reading from 9375: heap size 29 MB, throughput 0.955793
Reading from 9374: heap size 54 MB, throughput 0.433441
Reading from 9374: heap size 76 MB, throughput 0.379955
Reading from 9375: heap size 35 MB, throughput 0.927035
Reading from 9374: heap size 76 MB, throughput 0.383846
Reading from 9374: heap size 104 MB, throughput 0.612029
Reading from 9375: heap size 40 MB, throughput 0.94506
Reading from 9374: heap size 104 MB, throughput 0.426431
Reading from 9375: heap size 42 MB, throughput 0.587284
Reading from 9375: heap size 45 MB, throughput 0.703385
Reading from 9374: heap size 106 MB, throughput 0.39177
Reading from 9375: heap size 53 MB, throughput 0.794151
Reading from 9374: heap size 135 MB, throughput 0.558122
Reading from 9375: heap size 53 MB, throughput 0.945631
Reading from 9374: heap size 141 MB, throughput 0.62741
Reading from 9374: heap size 141 MB, throughput 0.342467
Reading from 9375: heap size 62 MB, throughput 0.961417
Reading from 9375: heap size 63 MB, throughput 0.970029
Reading from 9375: heap size 76 MB, throughput 0.932981
Reading from 9374: heap size 145 MB, throughput 0.400663
Reading from 9375: heap size 80 MB, throughput 0.979468
Reading from 9374: heap size 183 MB, throughput 0.349257
Reading from 9374: heap size 189 MB, throughput 0.453296
Reading from 9374: heap size 190 MB, throughput 0.0654982
Reading from 9375: heap size 88 MB, throughput 0.98977
Reading from 9374: heap size 192 MB, throughput 0.679274
Reading from 9374: heap size 199 MB, throughput 0.681621
Reading from 9374: heap size 202 MB, throughput 0.688439
Reading from 9375: heap size 91 MB, throughput 0.995059
Reading from 9374: heap size 209 MB, throughput 0.469824
Reading from 9374: heap size 258 MB, throughput 0.629755
Reading from 9374: heap size 262 MB, throughput 0.61959
Reading from 9374: heap size 265 MB, throughput 0.602083
Reading from 9374: heap size 271 MB, throughput 0.596014
Reading from 9374: heap size 274 MB, throughput 0.53191
Reading from 9375: heap size 98 MB, throughput 0.995218
Reading from 9374: heap size 284 MB, throughput 0.533642
Reading from 9374: heap size 290 MB, throughput 0.369307
Reading from 9375: heap size 100 MB, throughput 0.995974
Reading from 9374: heap size 343 MB, throughput 0.550681
Reading from 9374: heap size 341 MB, throughput 0.614063
Reading from 9374: heap size 345 MB, throughput 0.660349
Reading from 9374: heap size 347 MB, throughput 0.66419
Reading from 9374: heap size 349 MB, throughput 0.646915
Reading from 9374: heap size 351 MB, throughput 0.608411
Reading from 9375: heap size 106 MB, throughput 0.996617
Reading from 9374: heap size 358 MB, throughput 0.368521
Reading from 9374: heap size 414 MB, throughput 0.56235
Reading from 9375: heap size 108 MB, throughput 0.996683
Reading from 9374: heap size 418 MB, throughput 0.594224
Reading from 9374: heap size 418 MB, throughput 0.57852
Reading from 9374: heap size 419 MB, throughput 0.551146
Reading from 9374: heap size 424 MB, throughput 0.571168
Reading from 9374: heap size 427 MB, throughput 0.561461
Reading from 9375: heap size 113 MB, throughput 0.996675
Reading from 9374: heap size 431 MB, throughput 0.554926
Reading from 9374: heap size 436 MB, throughput 0.555805
Numeric result:
Recommendation: 2 clients, utility 0.787655:
    h1: 6187 MB (U(h) = 0.872032*h^0.016915)
    h2: 1223 MB (U(h) = 0.773719*h^0.001)
Recommendation: 2 clients, utility 0.787655:
    h1: 6187 MB (U(h) = 0.872032*h^0.016915)
    h2: 1223 MB (U(h) = 0.773719*h^0.001)
Reading from 9375: heap size 114 MB, throughput 0.996
Reading from 9374: heap size 441 MB, throughput 0.334562
Reading from 9374: heap size 500 MB, throughput 0.470414
Reading from 9375: heap size 118 MB, throughput 0.995706
Reading from 9374: heap size 500 MB, throughput 0.47736
Reading from 9374: heap size 503 MB, throughput 0.498061
Reading from 9374: heap size 508 MB, throughput 0.490315
Reading from 9375: heap size 118 MB, throughput 0.9956
Reading from 9375: heap size 122 MB, throughput 0.995632
Reading from 9374: heap size 508 MB, throughput 0.252999
Reading from 9374: heap size 573 MB, throughput 0.486254
Reading from 9374: heap size 575 MB, throughput 0.521187
Reading from 9374: heap size 575 MB, throughput 0.572357
Reading from 9375: heap size 122 MB, throughput 0.995159
Reading from 9375: heap size 126 MB, throughput 0.995165
Reading from 9374: heap size 576 MB, throughput 0.293141
Reading from 9374: heap size 646 MB, throughput 0.587034
Reading from 9374: heap size 650 MB, throughput 0.599449
Reading from 9375: heap size 126 MB, throughput 0.994791
Reading from 9374: heap size 651 MB, throughput 0.600911
Reading from 9374: heap size 656 MB, throughput 0.696931
Reading from 9375: heap size 129 MB, throughput 0.991917
Reading from 9374: heap size 658 MB, throughput 0.798128
Reading from 9375: heap size 129 MB, throughput 0.988651
Reading from 9374: heap size 672 MB, throughput 0.830147
Reading from 9374: heap size 682 MB, throughput 0.807778
Reading from 9374: heap size 698 MB, throughput 0.722025
Reading from 9375: heap size 132 MB, throughput 0.992904
Reading from 9374: heap size 706 MB, throughput 0.679204
Reading from 9375: heap size 132 MB, throughput 0.994819
Reading from 9375: heap size 135 MB, throughput 0.996084
Reading from 9374: heap size 718 MB, throughput 0.51167
Reading from 9374: heap size 800 MB, throughput 0.428529
Reading from 9374: heap size 703 MB, throughput 0.408617
Reading from 9374: heap size 783 MB, throughput 0.414085
Reading from 9374: heap size 692 MB, throughput 0.503919
Numeric result:
Recommendation: 2 clients, utility 0.730285:
    h1: 6187 MB (U(h) = 0.830052*h^0.0318797)
    h2: 1223 MB (U(h) = 0.661346*h^0.001)
Recommendation: 2 clients, utility 0.730285:
    h1: 6187 MB (U(h) = 0.830052*h^0.0318797)
    h2: 1223 MB (U(h) = 0.661346*h^0.001)
Reading from 9375: heap size 135 MB, throughput 0.996894
Reading from 9375: heap size 136 MB, throughput 0.997225
Reading from 9374: heap size 782 MB, throughput 0.260437
Reading from 9375: heap size 136 MB, throughput 0.99709
Reading from 9374: heap size 869 MB, throughput 0.617128
Reading from 9374: heap size 872 MB, throughput 0.639062
Reading from 9374: heap size 873 MB, throughput 0.660959
Reading from 9374: heap size 877 MB, throughput 0.787085
Reading from 9374: heap size 878 MB, throughput 0.73969
Reading from 9375: heap size 138 MB, throughput 0.997654
Reading from 9375: heap size 138 MB, throughput 0.997649
Reading from 9374: heap size 881 MB, throughput 0.389618
Reading from 9374: heap size 976 MB, throughput 0.761444
Reading from 9374: heap size 982 MB, throughput 0.818179
Reading from 9374: heap size 985 MB, throughput 0.876676
Reading from 9375: heap size 140 MB, throughput 0.997768
Reading from 9374: heap size 985 MB, throughput 0.899579
Reading from 9374: heap size 831 MB, throughput 0.870591
Reading from 9374: heap size 962 MB, throughput 0.851378
Reading from 9374: heap size 836 MB, throughput 0.837078
Reading from 9374: heap size 949 MB, throughput 0.818423
Reading from 9375: heap size 140 MB, throughput 0.997658
Reading from 9374: heap size 839 MB, throughput 0.822152
Reading from 9374: heap size 940 MB, throughput 0.834961
Reading from 9374: heap size 842 MB, throughput 0.837331
Reading from 9374: heap size 933 MB, throughput 0.837153
Reading from 9374: heap size 848 MB, throughput 0.84448
Reading from 9374: heap size 928 MB, throughput 0.853696
Reading from 9375: heap size 140 MB, throughput 0.997956
Reading from 9374: heap size 934 MB, throughput 0.954926
Reading from 9375: heap size 141 MB, throughput 0.998149
Reading from 9375: heap size 142 MB, throughput 0.998214
Reading from 9374: heap size 933 MB, throughput 0.967006
Reading from 9374: heap size 934 MB, throughput 0.940339
Reading from 9374: heap size 937 MB, throughput 0.9084
Reading from 9374: heap size 937 MB, throughput 0.874726
Reading from 9375: heap size 142 MB, throughput 0.998112
Reading from 9374: heap size 938 MB, throughput 0.855042
Reading from 9374: heap size 940 MB, throughput 0.843904
Reading from 9374: heap size 941 MB, throughput 0.840134
Reading from 9374: heap size 943 MB, throughput 0.840131
Reading from 9375: heap size 144 MB, throughput 0.998277
Reading from 9374: heap size 944 MB, throughput 0.843621
Numeric result:
Recommendation: 2 clients, utility 0.738903:
    h1: 2990.96 MB (U(h) = 0.814649*h^0.0373627)
    h2: 4419.04 MB (U(h) = 0.423289*h^0.0551703)
Recommendation: 2 clients, utility 0.738903:
    h1: 2991.99 MB (U(h) = 0.814649*h^0.0373627)
    h2: 4418.01 MB (U(h) = 0.423289*h^0.0551703)
Reading from 9374: heap size 946 MB, throughput 0.869887
Reading from 9374: heap size 948 MB, throughput 0.880154
Reading from 9375: heap size 144 MB, throughput 0.99835
Reading from 9374: heap size 950 MB, throughput 0.899817
Reading from 9374: heap size 949 MB, throughput 0.865312
Reading from 9374: heap size 951 MB, throughput 0.794993
Reading from 9375: heap size 144 MB, throughput 0.998366
Reading from 9375: heap size 145 MB, throughput 0.99812
Reading from 9374: heap size 948 MB, throughput 0.721414
Reading from 9374: heap size 1072 MB, throughput 0.643669
Reading from 9375: heap size 146 MB, throughput 0.998369
Reading from 9374: heap size 1073 MB, throughput 0.687298
Reading from 9374: heap size 1075 MB, throughput 0.689488
Reading from 9374: heap size 1080 MB, throughput 0.70796
Reading from 9374: heap size 1082 MB, throughput 0.693682
Reading from 9374: heap size 1084 MB, throughput 0.716336
Reading from 9375: heap size 146 MB, throughput 0.998425
Reading from 9374: heap size 1088 MB, throughput 0.722284
Reading from 9374: heap size 1090 MB, throughput 0.727769
Reading from 9374: heap size 1094 MB, throughput 0.72679
Reading from 9375: heap size 147 MB, throughput 0.998597
Reading from 9374: heap size 1104 MB, throughput 0.907494
Reading from 9375: heap size 147 MB, throughput 0.99859
Reading from 9375: heap size 149 MB, throughput 0.998276
Reading from 9375: heap size 149 MB, throughput 0.99837
Reading from 9374: heap size 1106 MB, throughput 0.79164
Reading from 9375: heap size 150 MB, throughput 0.998484
Numeric result:
Recommendation: 2 clients, utility 1.1405:
    h1: 1103.87 MB (U(h) = 0.807807*h^0.0397892)
    h2: 6306.13 MB (U(h) = 0.146212*h^0.227311)
Recommendation: 2 clients, utility 1.1405:
    h1: 1103.85 MB (U(h) = 0.807807*h^0.0397892)
    h2: 6306.15 MB (U(h) = 0.146212*h^0.227311)
Reading from 9375: heap size 150 MB, throughput 0.998571
Reading from 9375: heap size 150 MB, throughput 0.998477
Reading from 9375: heap size 151 MB, throughput 0.998427
Reading from 9374: heap size 1118 MB, throughput 0.970437
Reading from 9375: heap size 152 MB, throughput 0.998265
Reading from 9375: heap size 152 MB, throughput 0.998522
Reading from 9375: heap size 153 MB, throughput 0.998491
Reading from 9374: heap size 1119 MB, throughput 0.973511
Reading from 9375: heap size 153 MB, throughput 0.998391
Reading from 9375: heap size 154 MB, throughput 0.998348
Reading from 9375: heap size 154 MB, throughput 0.99849
Reading from 9375: heap size 156 MB, throughput 0.998463
Reading from 9374: heap size 1128 MB, throughput 0.97647
Numeric result:
Recommendation: 2 clients, utility 1.31439:
    h1: 944.579 MB (U(h) = 0.803688*h^0.0412384)
    h2: 6465.42 MB (U(h) = 0.103584*h^0.282279)
Recommendation: 2 clients, utility 1.31439:
    h1: 944.544 MB (U(h) = 0.803688*h^0.0412384)
    h2: 6465.46 MB (U(h) = 0.103584*h^0.282279)
Reading from 9375: heap size 156 MB, throughput 0.9986
Reading from 9375: heap size 156 MB, throughput 0.998459
Reading from 9375: heap size 157 MB, throughput 0.998494
Reading from 9374: heap size 1131 MB, throughput 0.978714
Reading from 9375: heap size 157 MB, throughput 0.998395
Reading from 9375: heap size 157 MB, throughput 0.998615
Reading from 9375: heap size 158 MB, throughput 0.998455
Reading from 9375: heap size 158 MB, throughput 0.998407
Reading from 9374: heap size 1134 MB, throughput 0.979214
Reading from 9375: heap size 159 MB, throughput 0.998466
Reading from 9375: heap size 159 MB, throughput 0.998482
Reading from 9375: heap size 160 MB, throughput 0.998477
Reading from 9374: heap size 1137 MB, throughput 0.448532
Numeric result:
Recommendation: 2 clients, utility 1.4327:
    h1: 859.353 MB (U(h) = 0.801566*h^0.0419777)
    h2: 6550.65 MB (U(h) = 0.0808766*h^0.320003)
Recommendation: 2 clients, utility 1.4327:
    h1: 859.312 MB (U(h) = 0.801566*h^0.0419777)
    h2: 6550.69 MB (U(h) = 0.0808766*h^0.320003)
Reading from 9375: heap size 161 MB, throughput 0.998609
Reading from 9375: heap size 161 MB, throughput 0.998408
Reading from 9375: heap size 161 MB, throughput 0.998574
Reading from 9374: heap size 1133 MB, throughput 0.738037
Reading from 9375: heap size 163 MB, throughput 0.998599
Reading from 9375: heap size 163 MB, throughput 0.998451
Reading from 9375: heap size 164 MB, throughput 0.998651
Reading from 9375: heap size 164 MB, throughput 0.998511
Reading from 9374: heap size 1137 MB, throughput 0.800818
Reading from 9375: heap size 166 MB, throughput 0.998466
Reading from 9375: heap size 166 MB, throughput 0.99833
Reading from 9375: heap size 167 MB, throughput 0.998474
Numeric result:
Recommendation: 2 clients, utility 1.47131:
    h1: 847.407 MB (U(h) = 0.799912*h^0.0425468)
    h2: 6562.59 MB (U(h) = 0.0762469*h^0.329535)
Recommendation: 2 clients, utility 1.47131:
    h1: 847.319 MB (U(h) = 0.799912*h^0.0425468)
    h2: 6562.68 MB (U(h) = 0.0762469*h^0.329535)
Reading from 9374: heap size 1138 MB, throughput 0.821036
Reading from 9375: heap size 167 MB, throughput 0.998356
Reading from 9375: heap size 169 MB, throughput 0.998628
Reading from 9375: heap size 169 MB, throughput 0.998562
Reading from 9375: heap size 170 MB, throughput 0.998471
Reading from 9374: heap size 1139 MB, throughput 0.782683
Reading from 9375: heap size 170 MB, throughput 0.998613
Reading from 9375: heap size 172 MB, throughput 0.998531
Reading from 9375: heap size 172 MB, throughput 0.998618
Reading from 9374: heap size 1143 MB, throughput 0.708398
Reading from 9375: heap size 164 MB, throughput 0.998646
Reading from 9375: heap size 157 MB, throughput 0.998678
Numeric result:
Recommendation: 2 clients, utility 1.57435:
    h1: 784.431 MB (U(h) = 0.79934*h^0.0427408)
    h2: 6625.57 MB (U(h) = 0.0617928*h^0.361066)
Recommendation: 2 clients, utility 1.57435:
    h1: 784.308 MB (U(h) = 0.79934*h^0.0427408)
    h2: 6625.69 MB (U(h) = 0.0617928*h^0.361066)
Reading from 9375: heap size 151 MB, throughput 0.998751
Reading from 9375: heap size 145 MB, throughput 0.998691
Reading from 9374: heap size 1145 MB, throughput 0.0864687
Reading from 9375: heap size 139 MB, throughput 0.998526
Reading from 9375: heap size 133 MB, throughput 0.998428
Reading from 9375: heap size 128 MB, throughput 0.998241
Reading from 9375: heap size 123 MB, throughput 0.998238
Reading from 9375: heap size 118 MB, throughput 0.998192
Reading from 9374: heap size 1148 MB, throughput 0.977622
Reading from 9375: heap size 113 MB, throughput 0.998287
Reading from 9375: heap size 109 MB, throughput 0.998277
Reading from 9375: heap size 105 MB, throughput 0.998018
Reading from 9375: heap size 101 MB, throughput 0.997837
Reading from 9375: heap size 97 MB, throughput 0.997306
Reading from 9375: heap size 94 MB, throughput 0.997467
Reading from 9374: heap size 1152 MB, throughput 0.978729
Reading from 9375: heap size 90 MB, throughput 0.997544
Numeric result:
Recommendation: 2 clients, utility 1.18128:
    h1: 1166.85 MB (U(h) = 0.800089*h^0.04323)
    h2: 6243.15 MB (U(h) = 0.144175*h^0.231263)
Recommendation: 2 clients, utility 1.18128:
    h1: 1167.01 MB (U(h) = 0.800089*h^0.04323)
    h2: 6242.99 MB (U(h) = 0.144175*h^0.231263)
Reading from 9375: heap size 87 MB, throughput 0.997644
Reading from 9375: heap size 84 MB, throughput 0.997634
Reading from 9375: heap size 81 MB, throughput 0.997264
Reading from 9375: heap size 78 MB, throughput 0.997242
Reading from 9375: heap size 76 MB, throughput 0.996878
Reading from 9375: heap size 73 MB, throughput 0.997136
Reading from 9375: heap size 71 MB, throughput 0.997045
Reading from 9374: heap size 1155 MB, throughput 0.979116
Reading from 9375: heap size 69 MB, throughput 0.997269
Reading from 9375: heap size 67 MB, throughput 0.996726
Reading from 9375: heap size 65 MB, throughput 0.995791
Reading from 9375: heap size 66 MB, throughput 0.996043
Reading from 9375: heap size 67 MB, throughput 0.995837
Reading from 9375: heap size 68 MB, throughput 0.996192
Reading from 9375: heap size 69 MB, throughput 0.996755
Reading from 9375: heap size 70 MB, throughput 0.996954
Reading from 9375: heap size 68 MB, throughput 0.996651
Reading from 9375: heap size 66 MB, throughput 0.996258
Reading from 9375: heap size 67 MB, throughput 0.996028
Reading from 9375: heap size 68 MB, throughput 0.995869
Reading from 9375: heap size 69 MB, throughput 0.995755
Reading from 9375: heap size 70 MB, throughput 0.996312
Reading from 9374: heap size 1160 MB, throughput 0.94692
Reading from 9375: heap size 71 MB, throughput 0.996783
Reading from 9375: heap size 69 MB, throughput 0.996631
Reading from 9375: heap size 67 MB, throughput 0.996948
Reading from 9375: heap size 65 MB, throughput 0.997004
Reading from 9375: heap size 63 MB, throughput 0.996855
Numeric result:
Recommendation: 2 clients, utility 1.30731:
    h1: 904.955 MB (U(h) = 0.820801*h^0.0389144)
    h2: 6505.04 MB (U(h) = 0.104785*h^0.279757)
Recommendation: 2 clients, utility 1.30731:
    h1: 904.869 MB (U(h) = 0.820801*h^0.0389144)
    h2: 6505.13 MB (U(h) = 0.104785*h^0.279757)
Reading from 9375: heap size 61 MB, throughput 0.996652
Reading from 9375: heap size 59 MB, throughput 0.996434
Reading from 9375: heap size 57 MB, throughput 0.995366
Reading from 9375: heap size 58 MB, throughput 0.995811
Reading from 9375: heap size 59 MB, throughput 0.995615
Reading from 9375: heap size 60 MB, throughput 0.996158
Reading from 9374: heap size 1225 MB, throughput 0.987007
Reading from 9375: heap size 61 MB, throughput 0.996163
Reading from 9375: heap size 62 MB, throughput 0.995593
Reading from 9375: heap size 63 MB, throughput 0.996082
Reading from 9375: heap size 64 MB, throughput 0.995948
Reading from 9375: heap size 65 MB, throughput 0.996407
Reading from 9375: heap size 63 MB, throughput 0.99554
Reading from 9375: heap size 64 MB, throughput 0.995949
Reading from 9375: heap size 62 MB, throughput 0.995814
Reading from 9375: heap size 60 MB, throughput 0.995016
Reading from 9375: heap size 61 MB, throughput 0.995373
Reading from 9375: heap size 62 MB, throughput 0.995711
Reading from 9374: heap size 1229 MB, throughput 0.990645
Reading from 9375: heap size 60 MB, throughput 0.99616
Reading from 9375: heap size 59 MB, throughput 0.996471
Reading from 9375: heap size 57 MB, throughput 0.996169
Reading from 9375: heap size 56 MB, throughput 0.996017
Reading from 9375: heap size 54 MB, throughput 0.994953
Reading from 9375: heap size 55 MB, throughput 0.995316
Reading from 9375: heap size 56 MB, throughput 0.995798
Reading from 9375: heap size 57 MB, throughput 0.99561
Reading from 9375: heap size 58 MB, throughput 0.994868
Reading from 9375: heap size 59 MB, throughput 0.995133
Reading from 9375: heap size 60 MB, throughput 0.995868
Reading from 9375: heap size 61 MB, throughput 0.995779
Reading from 9374: heap size 1236 MB, throughput 0.991354
Reading from 9375: heap size 62 MB, throughput 0.996236
Reading from 9375: heap size 60 MB, throughput 0.996374
Reading from 9375: heap size 59 MB, throughput 0.996318
Numeric result:
Recommendation: 2 clients, utility 1.48073:
    h1: 674.018 MB (U(h) = 0.842833*h^0.0339445)
    h2: 6735.98 MB (U(h) = 0.0709346*h^0.339008)
Recommendation: 2 clients, utility 1.48073:
    h1: 674.427 MB (U(h) = 0.842833*h^0.0339445)
    h2: 6735.57 MB (U(h) = 0.0709346*h^0.339008)
Reading from 9375: heap size 57 MB, throughput 0.996265
Reading from 9375: heap size 56 MB, throughput 0.996454
Reading from 9375: heap size 54 MB, throughput 0.996231
Reading from 9375: heap size 53 MB, throughput 0.995575
Reading from 9375: heap size 51 MB, throughput 0.995106
Reading from 9375: heap size 50 MB, throughput 0.995155
Reading from 9375: heap size 49 MB, throughput 0.994534
Reading from 9375: heap size 50 MB, throughput 0.993716
Reading from 9375: heap size 51 MB, throughput 0.993861
Reading from 9375: heap size 52 MB, throughput 0.994297
Reading from 9375: heap size 53 MB, throughput 0.99473
Reading from 9374: heap size 1241 MB, throughput 0.990699
Reading from 9375: heap size 54 MB, throughput 0.995463
Reading from 9375: heap size 52 MB, throughput 0.995383
Reading from 9375: heap size 51 MB, throughput 0.995505
Reading from 9375: heap size 49 MB, throughput 0.995416
Reading from 9375: heap size 48 MB, throughput 0.995505
Reading from 9375: heap size 47 MB, throughput 0.995487
Reading from 9375: heap size 46 MB, throughput 0.994451
Reading from 9375: heap size 47 MB, throughput 0.993699
Reading from 9375: heap size 48 MB, throughput 0.993839
Reading from 9375: heap size 49 MB, throughput 0.99406
Reading from 9375: heap size 50 MB, throughput 0.993436
Reading from 9375: heap size 51 MB, throughput 0.99422
Reading from 9375: heap size 52 MB, throughput 0.994196
Reading from 9375: heap size 53 MB, throughput 0.994823
Reading from 9375: heap size 54 MB, throughput 0.995087
Reading from 9374: heap size 1242 MB, throughput 0.990066
Reading from 9375: heap size 55 MB, throughput 0.994628
Reading from 9375: heap size 56 MB, throughput 0.994883
Reading from 9375: heap size 57 MB, throughput 0.995606
Reading from 9375: heap size 56 MB, throughput 0.995936
Reading from 9375: heap size 54 MB, throughput 0.994943
Reading from 9375: heap size 55 MB, throughput 0.995204
Reading from 9375: heap size 56 MB, throughput 0.995703
Reading from 9375: heap size 55 MB, throughput 0.995926
Reading from 9375: heap size 53 MB, throughput 0.995617
Reading from 9375: heap size 52 MB, throughput 0.995001
Reading from 9375: heap size 50 MB, throughput 0.994572
Reading from 9375: heap size 51 MB, throughput 0.994155
Reading from 9375: heap size 52 MB, throughput 0.994804
Numeric result:
Recommendation: 2 clients, utility 1.61436:
    h1: 508.514 MB (U(h) = 0.868163*h^0.0281623)
    h2: 6901.49 MB (U(h) = 0.0532353*h^0.382132)
Recommendation: 2 clients, utility 1.61436:
    h1: 508.616 MB (U(h) = 0.868163*h^0.0281623)
    h2: 6901.38 MB (U(h) = 0.0532353*h^0.382132)
Reading from 9375: heap size 53 MB, throughput 0.994668
Reading from 9374: heap size 1141 MB, throughput 0.989862
Reading from 9375: heap size 54 MB, throughput 0.994037
Reading from 9375: heap size 55 MB, throughput 0.995161
Reading from 9375: heap size 56 MB, throughput 0.995879
Reading from 9375: heap size 55 MB, throughput 0.995956
Reading from 9375: heap size 53 MB, throughput 0.995704
Reading from 9375: heap size 52 MB, throughput 0.995658
Reading from 9375: heap size 50 MB, throughput 0.994847
Reading from 9375: heap size 49 MB, throughput 0.994967
Reading from 9375: heap size 48 MB, throughput 0.994508
Reading from 9375: heap size 49 MB, throughput 0.994948
Reading from 9375: heap size 48 MB, throughput 0.994103
Reading from 9375: heap size 49 MB, throughput 0.994838
Reading from 9375: heap size 50 MB, throughput 0.994943
Reading from 9375: heap size 49 MB, throughput 0.995205
Reading from 9375: heap size 48 MB, throughput 0.995185
Reading from 9374: heap size 1232 MB, throughput 0.988856
Reading from 9375: heap size 47 MB, throughput 0.995622
Reading from 9375: heap size 46 MB, throughput 0.995487
Reading from 9375: heap size 45 MB, throughput 0.995025
Reading from 9375: heap size 44 MB, throughput 0.994661
Reading from 9375: heap size 45 MB, throughput 0.994136
Reading from 9375: heap size 46 MB, throughput 0.994833
Reading from 9375: heap size 45 MB, throughput 0.994421
Reading from 9375: heap size 46 MB, throughput 0.993736
Reading from 9375: heap size 47 MB, throughput 0.994486
Reading from 9375: heap size 48 MB, throughput 0.994838
Reading from 9375: heap size 49 MB, throughput 0.994632
Reading from 9375: heap size 48 MB, throughput 0.994771
Reading from 9375: heap size 47 MB, throughput 0.994573
Reading from 9375: heap size 46 MB, throughput 0.994507
Reading from 9375: heap size 45 MB, throughput 0.994208
Reading from 9375: heap size 44 MB, throughput 0.993727
Reading from 9374: heap size 1158 MB, throughput 0.986881
Reading from 9375: heap size 45 MB, throughput 0.993506
Reading from 9375: heap size 46 MB, throughput 0.993881
Reading from 9375: heap size 47 MB, throughput 0.994259
Reading from 9375: heap size 48 MB, throughput 0.993639
Reading from 9375: heap size 49 MB, throughput 0.994973
Reading from 9375: heap size 50 MB, throughput 0.994926
Reading from 9375: heap size 51 MB, throughput 0.994941
Reading from 9375: heap size 50 MB, throughput 0.995079
Reading from 9375: heap size 49 MB, throughput 0.994426
Reading from 9375: heap size 50 MB, throughput 0.995172
Reading from 9375: heap size 49 MB, throughput 0.994867
Numeric result:
Recommendation: 2 clients, utility 1.81551:
    h1: 340.59 MB (U(h) = 0.899169*h^0.0211564)
    h2: 7069.41 MB (U(h) = 0.0364073*h^0.439135)
Recommendation: 2 clients, utility 1.81551:
    h1: 340.587 MB (U(h) = 0.899169*h^0.0211564)
    h2: 7069.41 MB (U(h) = 0.0364073*h^0.439135)
Reading from 9375: heap size 48 MB, throughput 0.994504
Reading from 9375: heap size 49 MB, throughput 0.99481
Reading from 9375: heap size 48 MB, throughput 0.994953
Reading from 9375: heap size 47 MB, throughput 0.995061
Reading from 9375: heap size 46 MB, throughput 0.99458
Reading from 9374: heap size 1221 MB, throughput 0.985807
Reading from 9375: heap size 45 MB, throughput 0.994061
Reading from 9375: heap size 46 MB, throughput 0.994512
Reading from 9375: heap size 45 MB, throughput 0.994221
Reading from 9375: heap size 44 MB, throughput 0.991757
Reading from 9375: heap size 45 MB, throughput 0.993609
Reading from 9375: heap size 46 MB, throughput 0.993909
Reading from 9375: heap size 47 MB, throughput 0.993872
Reading from 9375: heap size 48 MB, throughput 0.994149
Reading from 9375: heap size 49 MB, throughput 0.993688
Reading from 9375: heap size 50 MB, throughput 0.993913
Reading from 9375: heap size 51 MB, throughput 0.994671
Reading from 9375: heap size 52 MB, throughput 0.995252
Reading from 9375: heap size 50 MB, throughput 0.995286
Reading from 9375: heap size 49 MB, throughput 0.994953
Reading from 9375: heap size 48 MB, throughput 0.9954
Reading from 9375: heap size 47 MB, throughput 0.994898
Reading from 9374: heap size 1174 MB, throughput 0.983455
Reading from 9375: heap size 46 MB, throughput 0.994306
Reading from 9375: heap size 45 MB, throughput 0.993692
Reading from 9375: heap size 46 MB, throughput 0.994572
Reading from 9375: heap size 45 MB, throughput 0.994766
Reading from 9375: heap size 44 MB, throughput 0.994264
Reading from 9375: heap size 43 MB, throughput 0.994565
Reading from 9375: heap size 42 MB, throughput 0.994379
Reading from 9375: heap size 41 MB, throughput 0.993954
Reading from 9375: heap size 42 MB, throughput 0.994382
Reading from 9375: heap size 43 MB, throughput 0.99447
Reading from 9375: heap size 44 MB, throughput 0.994139
Reading from 9375: heap size 45 MB, throughput 0.994611
Reading from 9375: heap size 46 MB, throughput 0.994603
Reading from 9375: heap size 45 MB, throughput 0.994829
Reading from 9375: heap size 44 MB, throughput 0.992917
Reading from 9375: heap size 45 MB, throughput 0.992548
Reading from 9375: heap size 46 MB, throughput 0.993466
Reading from 9375: heap size 47 MB, throughput 0.992765
Reading from 9375: heap size 48 MB, throughput 0.989533
Reading from 9374: heap size 1225 MB, throughput 0.982463
Reading from 9375: heap size 50 MB, throughput 0.992684
Reading from 9375: heap size 51 MB, throughput 0.993656
Reading from 9375: heap size 53 MB, throughput 0.993991
Reading from 9375: heap size 54 MB, throughput 0.994668
Reading from 9375: heap size 53 MB, throughput 0.994455
Numeric result:
Recommendation: 2 clients, utility 1.8389:
    h1: 192.764 MB (U(h) = 0.941326*h^0.011907)
    h2: 7217.24 MB (U(h) = 0.0349287*h^0.445895)
Recommendation: 2 clients, utility 1.8389:
    h1: 192.727 MB (U(h) = 0.941326*h^0.011907)
    h2: 7217.27 MB (U(h) = 0.0349287*h^0.445895)
Reading from 9375: heap size 51 MB, throughput 0.994908
Reading from 9375: heap size 50 MB, throughput 0.993134
Reading from 9375: heap size 51 MB, throughput 0.978017
Reading from 9375: heap size 52 MB, throughput 0.965245
Reading from 9375: heap size 54 MB, throughput 0.9489
Reading from 9375: heap size 56 MB, throughput 0.940825
Reading from 9375: heap size 58 MB, throughput 0.9002
Reading from 9375: heap size 60 MB, throughput 0.920359
Reading from 9375: heap size 63 MB, throughput 0.951881
Reading from 9375: heap size 66 MB, throughput 0.936985
Reading from 9374: heap size 1226 MB, throughput 0.976391
Reading from 9375: heap size 71 MB, throughput 0.996365
Reading from 9375: heap size 78 MB, throughput 0.984586
Reading from 9375: heap size 82 MB, throughput 0.990809
Reading from 9375: heap size 87 MB, throughput 0.994513
Reading from 9375: heap size 94 MB, throughput 0.995663
Reading from 9375: heap size 95 MB, throughput 0.996715
Reading from 9375: heap size 102 MB, throughput 0.997065
Reading from 9375: heap size 103 MB, throughput 0.997649
Reading from 9374: heap size 1227 MB, throughput 0.977641
Reading from 9375: heap size 109 MB, throughput 0.997774
Reading from 9375: heap size 109 MB, throughput 0.997917
Reading from 9375: heap size 114 MB, throughput 0.998037
Reading from 9375: heap size 114 MB, throughput 0.998154
Reading from 9375: heap size 118 MB, throughput 0.997829
Reading from 9374: heap size 1230 MB, throughput 0.977841
Reading from 9375: heap size 118 MB, throughput 0.998137
Numeric result:
Recommendation: 2 clients, utility 2.20246:
    h1: 219.447 MB (U(h) = 0.921215*h^0.0162261)
    h2: 7190.55 MB (U(h) = 0.0194834*h^0.531765)
Recommendation: 2 clients, utility 2.20246:
    h1: 219.411 MB (U(h) = 0.921215*h^0.0162261)
    h2: 7190.59 MB (U(h) = 0.0194834*h^0.531765)
Reading from 9375: heap size 122 MB, throughput 0.997714
Reading from 9375: heap size 122 MB, throughput 0.998062
Reading from 9375: heap size 125 MB, throughput 0.99786
Reading from 9375: heap size 126 MB, throughput 0.997968
Reading from 9374: heap size 1233 MB, throughput 0.976308
Reading from 9375: heap size 129 MB, throughput 0.997166
Reading from 9375: heap size 130 MB, throughput 0.99779
Reading from 9375: heap size 133 MB, throughput 0.998167
Reading from 9375: heap size 134 MB, throughput 0.99824
Reading from 9375: heap size 136 MB, throughput 0.998225
Reading from 9374: heap size 1239 MB, throughput 0.976196
Reading from 9375: heap size 137 MB, throughput 0.99831
Reading from 9375: heap size 139 MB, throughput 0.998161
Reading from 9375: heap size 140 MB, throughput 0.998251
Numeric result:
Recommendation: 2 clients, utility 2.54814:
    h1: 224.225 MB (U(h) = 0.910526*h^0.0187922)
    h2: 7185.77 MB (U(h) = 0.0120569*h^0.601981)
Recommendation: 2 clients, utility 2.54814:
    h1: 224.318 MB (U(h) = 0.910526*h^0.0187922)
    h2: 7185.68 MB (U(h) = 0.0120569*h^0.601981)
Reading from 9375: heap size 142 MB, throughput 0.998422
Reading from 9374: heap size 1245 MB, throughput 0.975956
Reading from 9375: heap size 143 MB, throughput 0.998297
Reading from 9375: heap size 145 MB, throughput 0.998164
Reading from 9375: heap size 146 MB, throughput 0.998394
Reading from 9375: heap size 147 MB, throughput 0.998525
Reading from 9375: heap size 148 MB, throughput 0.998407
Reading from 9374: heap size 1250 MB, throughput 0.976168
Reading from 9375: heap size 148 MB, throughput 0.998433
Reading from 9375: heap size 149 MB, throughput 0.998185
Reading from 9375: heap size 149 MB, throughput 0.998314
Reading from 9375: heap size 151 MB, throughput 0.998536
Reading from 9374: heap size 1256 MB, throughput 0.976148
Reading from 9375: heap size 151 MB, throughput 0.998562
Numeric result:
Recommendation: 2 clients, utility 2.75622:
    h1: 164.451 MB (U(h) = 0.929074*h^0.0145479)
    h2: 7245.55 MB (U(h) = 0.00924299*h^0.640976)
Recommendation: 2 clients, utility 2.75622:
    h1: 164.449 MB (U(h) = 0.929074*h^0.0145479)
    h2: 7245.55 MB (U(h) = 0.00924299*h^0.640976)
Reading from 9375: heap size 153 MB, throughput 0.998331
Reading from 9375: heap size 153 MB, throughput 0.998528
Reading from 9375: heap size 154 MB, throughput 0.998117
Reading from 9374: heap size 1259 MB, throughput 0.976362
Reading from 9375: heap size 154 MB, throughput 0.998222
Reading from 9375: heap size 156 MB, throughput 0.998415
Reading from 9375: heap size 156 MB, throughput 0.998422
Reading from 9375: heap size 158 MB, throughput 0.998534
Reading from 9374: heap size 1263 MB, throughput 0.976075
Reading from 9375: heap size 158 MB, throughput 0.998355
Reading from 9375: heap size 160 MB, throughput 0.998506
Reading from 9375: heap size 160 MB, throughput 0.998686
Reading from 9374: heap size 1265 MB, throughput 0.976384
Numeric result:
Recommendation: 2 clients, utility 3.25357:
    h1: 145.941 MB (U(h) = 0.929085*h^0.0145452)
    h2: 7264.06 MB (U(h) = 0.00521799*h^0.723956)
Recommendation: 2 clients, utility 3.25357:
    h1: 145.944 MB (U(h) = 0.929085*h^0.0145452)
    h2: 7264.06 MB (U(h) = 0.00521799*h^0.723956)
Reading from 9375: heap size 162 MB, throughput 0.998489
Reading from 9375: heap size 155 MB, throughput 0.99815
Reading from 9375: heap size 149 MB, throughput 0.998459
Reading from 9375: heap size 144 MB, throughput 0.998557
Reading from 9375: heap size 145 MB, throughput 0.998518
Reading from 9374: heap size 1269 MB, throughput 0.976435
Reading from 9375: heap size 147 MB, throughput 0.998558
Reading from 9375: heap size 141 MB, throughput 0.998375
Reading from 9375: heap size 143 MB, throughput 0.998073
Reading from 9375: heap size 145 MB, throughput 0.998274
Reading from 9374: heap size 1269 MB, throughput 0.974796
Reading from 9375: heap size 147 MB, throughput 0.99808
Reading from 9375: heap size 141 MB, throughput 0.998353
Reading from 9375: heap size 143 MB, throughput 0.998526
Numeric result:
Recommendation: 2 clients, utility 3.4762:
    h1: 137.619 MB (U(h) = 0.930075*h^0.0143332)
    h2: 7272.38 MB (U(h) = 0.00414072*h^0.757406)
Recommendation: 2 clients, utility 3.4762:
    h1: 137.623 MB (U(h) = 0.930075*h^0.0143332)
    h2: 7272.38 MB (U(h) = 0.00414072*h^0.757406)
Reading from 9375: heap size 145 MB, throughput 0.998467
Reading from 9375: heap size 139 MB, throughput 0.998
Reading from 9374: heap size 1272 MB, throughput 0.97529
Reading from 9375: heap size 134 MB, throughput 0.998213
Reading from 9375: heap size 136 MB, throughput 0.998291
Reading from 9375: heap size 137 MB, throughput 0.998358
Reading from 9375: heap size 139 MB, throughput 0.99797
Reading from 9375: heap size 134 MB, throughput 0.998016
Reading from 9374: heap size 1272 MB, throughput 0.976405
Reading from 9375: heap size 135 MB, throughput 0.997991
Reading from 9375: heap size 137 MB, throughput 0.998247
Reading from 9375: heap size 139 MB, throughput 0.998291
Reading from 9375: heap size 134 MB, throughput 0.998414
Reading from 9375: heap size 135 MB, throughput 0.998261
Numeric result:
Recommendation: 2 clients, utility 3.74755:
    h1: 131.363 MB (U(h) = 0.929981*h^0.0143584)
    h2: 7278.64 MB (U(h) = 0.00317908*h^0.795576)
Recommendation: 2 clients, utility 3.74755:
    h1: 131.363 MB (U(h) = 0.929981*h^0.0143584)
    h2: 7278.64 MB (U(h) = 0.00317908*h^0.795576)
Reading from 9374: heap size 1274 MB, throughput 0.977793
Reading from 9375: heap size 137 MB, throughput 0.998287
Reading from 9375: heap size 132 MB, throughput 0.997893
Reading from 9375: heap size 127 MB, throughput 0.99795
Reading from 9375: heap size 129 MB, throughput 0.998122
Reading from 9375: heap size 131 MB, throughput 0.997943
Reading from 9374: heap size 1275 MB, throughput 0.978594
Reading from 9375: heap size 133 MB, throughput 0.998086
Reading from 9375: heap size 128 MB, throughput 0.998221
Reading from 9375: heap size 130 MB, throughput 0.998386
Reading from 9375: heap size 131 MB, throughput 0.998226
Reading from 9375: heap size 127 MB, throughput 0.998252
Reading from 9375: heap size 128 MB, throughput 0.998041
Reading from 9375: heap size 130 MB, throughput 0.998333
Numeric result:
Recommendation: 2 clients, utility 3.63951:
    h1: 134.883 MB (U(h) = 0.929557*h^0.014461)
    h2: 7275.12 MB (U(h) = 0.00354626*h^0.77999)
Recommendation: 2 clients, utility 3.63951:
    h1: 134.88 MB (U(h) = 0.929557*h^0.014461)
    h2: 7275.12 MB (U(h) = 0.00354626*h^0.77999)
Reading from 9375: heap size 132 MB, throughput 0.998382
Reading from 9374: heap size 1274 MB, throughput 0.963606
Reading from 9375: heap size 133 MB, throughput 0.998355
Reading from 9375: heap size 135 MB, throughput 0.998458
Reading from 9375: heap size 136 MB, throughput 0.998321
Reading from 9375: heap size 131 MB, throughput 0.998
Reading from 9375: heap size 133 MB, throughput 0.998118
Reading from 9375: heap size 135 MB, throughput 0.998282
Reading from 9374: heap size 1393 MB, throughput 0.974
Reading from 9375: heap size 131 MB, throughput 0.998411
Reading from 9375: heap size 132 MB, throughput 0.998426
Reading from 9375: heap size 134 MB, throughput 0.998507
Reading from 9375: heap size 135 MB, throughput 0.998521
Reading from 9375: heap size 131 MB, throughput 0.998429
Reading from 9375: heap size 132 MB, throughput 0.998341
Numeric result:
Recommendation: 2 clients, utility 3.70408:
    h1: 133.775 MB (U(h) = 0.929365*h^0.0145133)
    h2: 7276.23 MB (U(h) = 0.00331938*h^0.789397)
Recommendation: 2 clients, utility 3.70408:
    h1: 133.775 MB (U(h) = 0.929365*h^0.0145133)
    h2: 7276.22 MB (U(h) = 0.00331938*h^0.789397)
Reading from 9375: heap size 134 MB, throughput 0.998419
Reading from 9375: heap size 135 MB, throughput 0.998407
Reading from 9375: heap size 130 MB, throughput 0.998386
Reading from 9375: heap size 132 MB, throughput 0.998331
Reading from 9375: heap size 133 MB, throughput 0.998303
Reading from 9375: heap size 135 MB, throughput 0.998301
Reading from 9375: heap size 130 MB, throughput 0.998238
Reading from 9375: heap size 132 MB, throughput 0.998143
Reading from 9375: heap size 133 MB, throughput 0.99817
Reading from 9375: heap size 135 MB, throughput 0.99831
Reading from 9375: heap size 130 MB, throughput 0.99832
Reading from 9375: heap size 132 MB, throughput 0.998195
Reading from 9375: heap size 133 MB, throughput 0.998308
Numeric result:
Recommendation: 2 clients, utility 3.70409:
    h1: 133.805 MB (U(h) = 0.929351*h^0.0145171)
    h2: 7276.19 MB (U(h) = 0.00331938*h^0.789397)
Recommendation: 2 clients, utility 3.70409:
    h1: 133.81 MB (U(h) = 0.929351*h^0.0145171)
    h2: 7276.19 MB (U(h) = 0.00331938*h^0.789397)
Reading from 9375: heap size 135 MB, throughput 0.998318
Reading from 9375: heap size 130 MB, throughput 0.998346
Reading from 9374: heap size 1388 MB, throughput 0.989224
Reading from 9375: heap size 132 MB, throughput 0.998434
Reading from 9375: heap size 133 MB, throughput 0.998387
Reading from 9375: heap size 135 MB, throughput 0.998417
Reading from 9375: heap size 130 MB, throughput 0.998422
Reading from 9375: heap size 132 MB, throughput 0.998418
Reading from 9375: heap size 133 MB, throughput 0.998378
Reading from 9375: heap size 135 MB, throughput 0.998279
Reading from 9375: heap size 130 MB, throughput 0.998351
Reading from 9375: heap size 132 MB, throughput 0.998477
Reading from 9375: heap size 133 MB, throughput 0.998505
Reading from 9375: heap size 135 MB, throughput 0.998514
Reading from 9375: heap size 130 MB, throughput 0.998496
Numeric result:
Recommendation: 2 clients, utility 3.50805:
    h1: 138.769 MB (U(h) = 0.929315*h^0.014527)
    h2: 7271.23 MB (U(h) = 0.00404026*h^0.761178)
Recommendation: 2 clients, utility 3.50805:
    h1: 138.771 MB (U(h) = 0.929315*h^0.014527)
    h2: 7271.23 MB (U(h) = 0.00404026*h^0.761178)
Reading from 9375: heap size 132 MB, throughput 0.998488
Reading from 9375: heap size 133 MB, throughput 0.998394
Reading from 9375: heap size 135 MB, throughput 0.99841
Reading from 9375: heap size 136 MB, throughput 0.998313
Reading from 9374: heap size 1396 MB, throughput 0.990398
Reading from 9375: heap size 138 MB, throughput 0.998551
Reading from 9375: heap size 139 MB, throughput 0.9985
Reading from 9375: heap size 134 MB, throughput 0.998401
Reading from 9375: heap size 136 MB, throughput 0.998435
Reading from 9375: heap size 137 MB, throughput 0.998457
Reading from 9375: heap size 139 MB, throughput 0.998491
Reading from 9375: heap size 140 MB, throughput 0.998427
Reading from 9374: heap size 1386 MB, throughput 0.989179
Reading from 9374: heap size 1409 MB, throughput 0.981961
Reading from 9375: heap size 135 MB, throughput 0.998489
Reading from 9374: heap size 1417 MB, throughput 0.965021
Reading from 9374: heap size 1419 MB, throughput 0.930024
Numeric result:
Recommendation: 2 clients, utility 3.03983:
    h1: 153.768 MB (U(h) = 0.929236*h^0.0145481)
    h2: 7256.23 MB (U(h) = 0.00679998*h^0.686506)
Recommendation: 2 clients, utility 3.03983:
    h1: 153.77 MB (U(h) = 0.929236*h^0.0145481)
    h2: 7256.23 MB (U(h) = 0.00679998*h^0.686506)
Reading from 9375: heap size 137 MB, throughput 0.998424
Reading from 9374: heap size 1447 MB, throughput 0.895645
Reading from 9374: heap size 1463 MB, throughput 0.848554
Reading from 9374: heap size 1489 MB, throughput 0.811599
Reading from 9375: heap size 138 MB, throughput 0.998321
Reading from 9374: heap size 1499 MB, throughput 0.775649
Reading from 9374: heap size 1528 MB, throughput 0.770181
Reading from 9375: heap size 140 MB, throughput 0.998378
Reading from 9375: heap size 141 MB, throughput 0.998377
Reading from 9374: heap size 1532 MB, throughput 0.917639
Reading from 9375: heap size 143 MB, throughput 0.998358
Reading from 9375: heap size 144 MB, throughput 0.998533
Reading from 9375: heap size 146 MB, throughput 0.998423
Reading from 9375: heap size 147 MB, throughput 0.998276
Reading from 9375: heap size 149 MB, throughput 0.998411
Reading from 9374: heap size 1543 MB, throughput 0.97483
Reading from 9375: heap size 151 MB, throughput 0.998406
Reading from 9375: heap size 153 MB, throughput 0.998451
Numeric result:
Recommendation: 2 clients, utility 3.43468:
    h1: 138.245 MB (U(h) = 0.929222*h^0.0145518)
    h2: 7271.76 MB (U(h) = 0.00380714*h^0.765483)
Recommendation: 2 clients, utility 3.43468:
    h1: 138.236 MB (U(h) = 0.929222*h^0.0145518)
    h2: 7271.76 MB (U(h) = 0.00380714*h^0.765483)
Reading from 9375: heap size 155 MB, throughput 0.998496
Reading from 9375: heap size 148 MB, throughput 0.998582
Reading from 9375: heap size 142 MB, throughput 0.998583
Reading from 9374: heap size 1554 MB, throughput 0.981127
Reading from 9375: heap size 137 MB, throughput 0.998494
Reading from 9375: heap size 139 MB, throughput 0.998327
Reading from 9375: heap size 134 MB, throughput 0.998473
Reading from 9375: heap size 135 MB, throughput 0.998491
Reading from 9375: heap size 137 MB, throughput 0.998378
Reading from 9375: heap size 138 MB, throughput 0.998539
Reading from 9374: heap size 1546 MB, throughput 0.982801
Reading from 9375: heap size 133 MB, throughput 0.998601
Reading from 9375: heap size 135 MB, throughput 0.998233
Reading from 9375: heap size 136 MB, throughput 0.998433
Numeric result:
Recommendation: 2 clients, utility 3.03159:
    h1: 151.671 MB (U(h) = 0.929176*h^0.014564)
    h2: 7258.33 MB (U(h) = 0.00617747*h^0.696999)
Recommendation: 2 clients, utility 3.03159:
    h1: 151.665 MB (U(h) = 0.929176*h^0.014564)
    h2: 7258.33 MB (U(h) = 0.00617747*h^0.696999)
Reading from 9375: heap size 138 MB, throughput 0.998288
Reading from 9375: heap size 139 MB, throughput 0.998318
Reading from 9375: heap size 141 MB, throughput 0.998334
Reading from 9375: heap size 142 MB, throughput 0.998442
Reading from 9374: heap size 1559 MB, throughput 0.965686
Client 9375 died
Clients: 1
Reading from 9374: heap size 1498 MB, throughput 0.990056
Recommendation: one client; give it all the memory
Reading from 9374: heap size 1501 MB, throughput 0.992281
Reading from 9374: heap size 1524 MB, throughput 0.992953
Recommendation: one client; give it all the memory
Reading from 9374: heap size 1530 MB, throughput 0.992723
Reading from 9374: heap size 1530 MB, throughput 0.991967
Recommendation: one client; give it all the memory
Reading from 9374: heap size 1536 MB, throughput 0.991149
Reading from 9374: heap size 1517 MB, throughput 0.990491
Recommendation: one client; give it all the memory
Reading from 9374: heap size 1356 MB, throughput 0.989741
Reading from 9374: heap size 1497 MB, throughput 0.988819
Recommendation: one client; give it all the memory
Reading from 9374: heap size 1383 MB, throughput 0.987921
Reading from 9374: heap size 1489 MB, throughput 0.987017
Recommendation: one client; give it all the memory
Reading from 9374: heap size 1497 MB, throughput 0.98623
Reading from 9374: heap size 1500 MB, throughput 0.984888
Recommendation: one client; give it all the memory
Reading from 9374: heap size 1500 MB, throughput 0.984139
Reading from 9374: heap size 1504 MB, throughput 0.983224
Recommendation: one client; give it all the memory
Reading from 9374: heap size 1510 MB, throughput 0.982264
Recommendation: one client; give it all the memory
Reading from 9374: heap size 1519 MB, throughput 0.981646
Reading from 9374: heap size 1525 MB, throughput 0.980859
Recommendation: one client; give it all the memory
Reading from 9374: heap size 1533 MB, throughput 0.981365
Reading from 9374: heap size 1537 MB, throughput 0.981333
Recommendation: one client; give it all the memory
Reading from 9374: heap size 1546 MB, throughput 0.980771
Reading from 9374: heap size 1548 MB, throughput 0.980482
Recommendation: one client; give it all the memory
Reading from 9374: heap size 1557 MB, throughput 0.980587
Reading from 9374: heap size 1557 MB, throughput 0.98055
Recommendation: one client; give it all the memory
Reading from 9374: heap size 1566 MB, throughput 0.980666
Recommendation: one client; give it all the memory
Reading from 9374: heap size 1566 MB, throughput 0.981181
Recommendation: one client; give it all the memory
Reading from 9374: heap size 1572 MB, throughput 0.986843
Recommendation: one client; give it all the memory
Reading from 9374: heap size 1573 MB, throughput 0.987447
Recommendation: one client; give it all the memory
Reading from 9374: heap size 1580 MB, throughput 0.985365
Reading from 9374: heap size 1597 MB, throughput 0.974433
Reading from 9374: heap size 1577 MB, throughput 0.956884
Reading from 9374: heap size 1600 MB, throughput 0.979613
Reading from 9374: heap size 1704 MB, throughput 0.940914
Client 9374 died
Clients: 0
Recommendation: no clients; no recommendation
Recommendation: no clients; no recommendation
ReadingThread: finished
TimerThread: finished
CommandThread: finished
Main: All threads killed, cleaning up
