Using scaled threading model. 4 processors detected, 1 threads used to drive the workload, in a possible range of [1,512]
===== DaCapo 9.12 sunflow starting warmup 1 =====
===== DaCapo 9.12 sunflow completed warmup 1 in 24387 msec =====
===== DaCapo 9.12 sunflow starting warmup 2 =====
===== DaCapo 9.12 sunflow completed warmup 2 in 21765 msec =====
===== DaCapo 9.12 sunflow starting warmup 3 =====
===== DaCapo 9.12 sunflow completed warmup 3 in 22413 msec =====
===== DaCapo 9.12 sunflow starting warmup 4 =====
===== DaCapo 9.12 sunflow completed warmup 4 in 22451 msec =====
===== DaCapo 9.12 sunflow starting warmup 5 =====
===== DaCapo 9.12 sunflow completed warmup 5 in 22657 msec =====
===== DaCapo 9.12 sunflow starting warmup 6 =====
===== DaCapo 9.12 sunflow completed warmup 6 in 22177 msec =====
===== DaCapo 9.12 sunflow starting warmup 7 =====
===== DaCapo 9.12 sunflow completed warmup 7 in 21799 msec =====
===== DaCapo 9.12 sunflow starting warmup 8 =====
===== DaCapo 9.12 sunflow completed warmup 8 in 23052 msec =====
===== DaCapo 9.12 sunflow starting warmup 9 =====
===== DaCapo 9.12 sunflow completed warmup 9 in 22800 msec =====
===== DaCapo 9.12 sunflow starting warmup 10 =====
===== DaCapo 9.12 sunflow completed warmup 10 in 22803 msec =====
===== DaCapo 9.12 sunflow starting warmup 11 =====
===== DaCapo 9.12 sunflow completed warmup 11 in 22464 msec =====
===== DaCapo 9.12 sunflow starting warmup 12 =====
===== DaCapo 9.12 sunflow completed warmup 12 in 22110 msec =====
===== DaCapo 9.12 sunflow starting warmup 13 =====
===== DaCapo 9.12 sunflow completed warmup 13 in 22968 msec =====
===== DaCapo 9.12 sunflow starting warmup 14 =====
===== DaCapo 9.12 sunflow completed warmup 14 in 22047 msec =====
===== DaCapo 9.12 sunflow starting warmup 15 =====
===== DaCapo 9.12 sunflow completed warmup 15 in 21806 msec =====
===== DaCapo 9.12 sunflow starting warmup 16 =====
===== DaCapo 9.12 sunflow completed warmup 16 in 23230 msec =====
===== DaCapo 9.12 sunflow starting warmup 17 =====
===== DaCapo 9.12 sunflow completed warmup 17 in 22779 msec =====
===== DaCapo 9.12 sunflow starting warmup 18 =====
===== DaCapo 9.12 sunflow completed warmup 18 in 22886 msec =====
===== DaCapo 9.12 sunflow starting warmup 19 =====
===== DaCapo 9.12 sunflow completed warmup 19 in 22061 msec =====
===== DaCapo 9.12 sunflow starting warmup 20 =====
===== DaCapo 9.12 sunflow completed warmup 20 in 22578 msec =====
===== DaCapo 9.12 sunflow starting warmup 21 =====
===== DaCapo 9.12 sunflow completed warmup 21 in 22839 msec =====
===== DaCapo 9.12 sunflow starting warmup 22 =====
===== DaCapo 9.12 sunflow completed warmup 22 in 22151 msec =====
===== DaCapo 9.12 sunflow starting warmup 23 =====
===== DaCapo 9.12 sunflow completed warmup 23 in 22347 msec =====
===== DaCapo 9.12 sunflow starting warmup 24 =====
===== DaCapo 9.12 sunflow completed warmup 24 in 22154 msec =====
===== DaCapo 9.12 sunflow starting warmup 25 =====
===== DaCapo 9.12 sunflow completed warmup 25 in 22870 msec =====
===== DaCapo 9.12 sunflow starting warmup 26 =====
===== DaCapo 9.12 sunflow completed warmup 26 in 22327 msec =====
===== DaCapo 9.12 sunflow starting warmup 27 =====
===== DaCapo 9.12 sunflow completed warmup 27 in 21545 msec =====
===== DaCapo 9.12 sunflow starting warmup 28 =====
===== DaCapo 9.12 sunflow completed warmup 28 in 22640 msec =====
===== DaCapo 9.12 sunflow starting warmup 29 =====
===== DaCapo 9.12 sunflow completed warmup 29 in 22236 msec =====
===== DaCapo 9.12 sunflow starting warmup 30 =====
===== DaCapo 9.12 sunflow completed warmup 30 in 22393 msec =====
===== DaCapo 9.12 sunflow starting warmup 31 =====
===== DaCapo 9.12 sunflow completed warmup 31 in 23057 msec =====
===== DaCapo 9.12 sunflow starting warmup 32 =====
===== DaCapo 9.12 sunflow completed warmup 32 in 23378 msec =====
===== DaCapo 9.12 sunflow starting warmup 33 =====
===== DaCapo 9.12 sunflow completed warmup 33 in 22978 msec =====
===== DaCapo 9.12 sunflow starting warmup 34 =====
===== DaCapo 9.12 sunflow completed warmup 34 in 22124 msec =====
===== DaCapo 9.12 sunflow starting warmup 35 =====
===== DaCapo 9.12 sunflow completed warmup 35 in 22442 msec =====
===== DaCapo 9.12 sunflow starting warmup 36 =====
===== DaCapo 9.12 sunflow completed warmup 36 in 22916 msec =====
===== DaCapo 9.12 sunflow starting warmup 37 =====
===== DaCapo 9.12 sunflow completed warmup 37 in 22652 msec =====
===== DaCapo 9.12 sunflow starting warmup 38 =====
===== DaCapo 9.12 sunflow completed warmup 38 in 22774 msec =====
===== DaCapo 9.12 sunflow starting warmup 39 =====
===== DaCapo 9.12 sunflow completed warmup 39 in 23072 msec =====
===== DaCapo 9.12 sunflow starting warmup 40 =====
===== DaCapo 9.12 sunflow completed warmup 40 in 22217 msec =====
===== DaCapo 9.12 sunflow starting warmup 41 =====
===== DaCapo 9.12 sunflow completed warmup 41 in 22639 msec =====
===== DaCapo 9.12 sunflow starting warmup 42 =====
===== DaCapo 9.12 sunflow completed warmup 42 in 22364 msec =====
===== DaCapo 9.12 sunflow starting warmup 43 =====
===== DaCapo 9.12 sunflow completed warmup 43 in 22573 msec =====
===== DaCapo 9.12 sunflow starting warmup 44 =====
===== DaCapo 9.12 sunflow completed warmup 44 in 22776 msec =====
===== DaCapo 9.12 sunflow starting warmup 45 =====
===== DaCapo 9.12 sunflow completed warmup 45 in 23025 msec =====
===== DaCapo 9.12 sunflow starting warmup 46 =====
===== DaCapo 9.12 sunflow completed warmup 46 in 21503 msec =====
===== DaCapo 9.12 sunflow starting warmup 47 =====
===== DaCapo 9.12 sunflow completed warmup 47 in 22291 msec =====
===== DaCapo 9.12 sunflow starting warmup 48 =====
===== DaCapo 9.12 sunflow completed warmup 48 in 22885 msec =====
===== DaCapo 9.12 sunflow starting warmup 49 =====
===== DaCapo 9.12 sunflow completed warmup 49 in 22779 msec =====
===== DaCapo 9.12 sunflow starting warmup 50 =====
===== DaCapo 9.12 sunflow completed warmup 50 in 22649 msec =====
===== DaCapo 9.12 sunflow starting warmup 51 =====
===== DaCapo 9.12 sunflow completed warmup 51 in 22544 msec =====
===== DaCapo 9.12 sunflow starting warmup 52 =====
===== DaCapo 9.12 sunflow completed warmup 52 in 21745 msec =====
===== DaCapo 9.12 sunflow starting warmup 53 =====
===== DaCapo 9.12 sunflow completed warmup 53 in 22693 msec =====
===== DaCapo 9.12 sunflow starting warmup 54 =====
