===== DaCapo 9.12 avrora starting warmup 1 =====
===== DaCapo 9.12 avrora completed warmup 1 in 15489 msec =====
===== DaCapo 9.12 avrora starting warmup 2 =====
===== DaCapo 9.12 avrora completed warmup 2 in 14201 msec =====
===== DaCapo 9.12 avrora starting warmup 3 =====
===== DaCapo 9.12 avrora completed warmup 3 in 14074 msec =====
===== DaCapo 9.12 avrora starting warmup 4 =====
===== DaCapo 9.12 avrora completed warmup 4 in 13933 msec =====
===== DaCapo 9.12 avrora starting warmup 5 =====
===== DaCapo 9.12 avrora completed warmup 5 in 14208 msec =====
===== DaCapo 9.12 avrora starting warmup 6 =====
===== DaCapo 9.12 avrora completed warmup 6 in 13962 msec =====
===== DaCapo 9.12 avrora starting warmup 7 =====
===== DaCapo 9.12 avrora completed warmup 7 in 14011 msec =====
===== DaCapo 9.12 avrora starting warmup 8 =====
===== DaCapo 9.12 avrora completed warmup 8 in 14114 msec =====
===== DaCapo 9.12 avrora starting warmup 9 =====
===== DaCapo 9.12 avrora completed warmup 9 in 14073 msec =====
===== DaCapo 9.12 avrora starting warmup 10 =====
===== DaCapo 9.12 avrora completed warmup 10 in 13992 msec =====
===== DaCapo 9.12 avrora starting warmup 11 =====
===== DaCapo 9.12 avrora completed warmup 11 in 14207 msec =====
===== DaCapo 9.12 avrora starting warmup 12 =====
===== DaCapo 9.12 avrora completed warmup 12 in 14123 msec =====
===== DaCapo 9.12 avrora starting warmup 13 =====
===== DaCapo 9.12 avrora completed warmup 13 in 13976 msec =====
===== DaCapo 9.12 avrora starting warmup 14 =====
===== DaCapo 9.12 avrora completed warmup 14 in 14077 msec =====
===== DaCapo 9.12 avrora starting warmup 15 =====
===== DaCapo 9.12 avrora completed warmup 15 in 14026 msec =====
===== DaCapo 9.12 avrora starting warmup 16 =====
===== DaCapo 9.12 avrora completed warmup 16 in 14055 msec =====
===== DaCapo 9.12 avrora starting warmup 17 =====
===== DaCapo 9.12 avrora completed warmup 17 in 14118 msec =====
===== DaCapo 9.12 avrora starting warmup 18 =====
===== DaCapo 9.12 avrora completed warmup 18 in 14145 msec =====
===== DaCapo 9.12 avrora starting warmup 19 =====
===== DaCapo 9.12 avrora completed warmup 19 in 14053 msec =====
===== DaCapo 9.12 avrora starting warmup 20 =====
===== DaCapo 9.12 avrora completed warmup 20 in 14083 msec =====
===== DaCapo 9.12 avrora starting warmup 21 =====
===== DaCapo 9.12 avrora completed warmup 21 in 14088 msec =====
===== DaCapo 9.12 avrora starting warmup 22 =====
===== DaCapo 9.12 avrora completed warmup 22 in 14002 msec =====
===== DaCapo 9.12 avrora starting warmup 23 =====
===== DaCapo 9.12 avrora completed warmup 23 in 14047 msec =====
===== DaCapo 9.12 avrora starting warmup 24 =====
===== DaCapo 9.12 avrora completed warmup 24 in 14086 msec =====
===== DaCapo 9.12 avrora starting warmup 25 =====
===== DaCapo 9.12 avrora completed warmup 25 in 13940 msec =====
===== DaCapo 9.12 avrora starting warmup 26 =====
===== DaCapo 9.12 avrora completed warmup 26 in 14129 msec =====
===== DaCapo 9.12 avrora starting warmup 27 =====
===== DaCapo 9.12 avrora completed warmup 27 in 14101 msec =====
===== DaCapo 9.12 avrora starting warmup 28 =====
===== DaCapo 9.12 avrora completed warmup 28 in 14039 msec =====
===== DaCapo 9.12 avrora starting warmup 29 =====
===== DaCapo 9.12 avrora completed warmup 29 in 14001 msec =====
===== DaCapo 9.12 avrora starting warmup 30 =====
===== DaCapo 9.12 avrora completed warmup 30 in 14117 msec =====
===== DaCapo 9.12 avrora starting warmup 31 =====
===== DaCapo 9.12 avrora completed warmup 31 in 14032 msec =====
===== DaCapo 9.12 avrora starting warmup 32 =====
===== DaCapo 9.12 avrora completed warmup 32 in 14101 msec =====
===== DaCapo 9.12 avrora starting warmup 33 =====
===== DaCapo 9.12 avrora completed warmup 33 in 14262 msec =====
===== DaCapo 9.12 avrora starting warmup 34 =====
===== DaCapo 9.12 avrora completed warmup 34 in 14115 msec =====
===== DaCapo 9.12 avrora starting warmup 35 =====
===== DaCapo 9.12 avrora completed warmup 35 in 14069 msec =====
===== DaCapo 9.12 avrora starting warmup 36 =====
===== DaCapo 9.12 avrora completed warmup 36 in 14093 msec =====
===== DaCapo 9.12 avrora starting warmup 37 =====
===== DaCapo 9.12 avrora completed warmup 37 in 14083 msec =====
===== DaCapo 9.12 avrora starting warmup 38 =====
===== DaCapo 9.12 avrora completed warmup 38 in 14089 msec =====
===== DaCapo 9.12 avrora starting warmup 39 =====
===== DaCapo 9.12 avrora completed warmup 39 in 14211 msec =====
===== DaCapo 9.12 avrora starting warmup 40 =====
===== DaCapo 9.12 avrora completed warmup 40 in 14126 msec =====
===== DaCapo 9.12 avrora starting warmup 41 =====
===== DaCapo 9.12 avrora completed warmup 41 in 14145 msec =====
===== DaCapo 9.12 avrora starting warmup 42 =====
===== DaCapo 9.12 avrora completed warmup 42 in 14113 msec =====
===== DaCapo 9.12 avrora starting warmup 43 =====
===== DaCapo 9.12 avrora completed warmup 43 in 14038 msec =====
===== DaCapo 9.12 avrora starting warmup 44 =====
===== DaCapo 9.12 avrora completed warmup 44 in 13956 msec =====
===== DaCapo 9.12 avrora starting warmup 45 =====
===== DaCapo 9.12 avrora completed warmup 45 in 14029 msec =====
===== DaCapo 9.12 avrora starting warmup 46 =====
===== DaCapo 9.12 avrora completed warmup 46 in 14036 msec =====
===== DaCapo 9.12 avrora starting warmup 47 =====
===== DaCapo 9.12 avrora completed warmup 47 in 14053 msec =====
===== DaCapo 9.12 avrora starting warmup 48 =====
===== DaCapo 9.12 avrora completed warmup 48 in 13980 msec =====
===== DaCapo 9.12 avrora starting warmup 49 =====
===== DaCapo 9.12 avrora completed warmup 49 in 14021 msec =====
===== DaCapo 9.12 avrora starting warmup 50 =====
===== DaCapo 9.12 avrora completed warmup 50 in 13967 msec =====
===== DaCapo 9.12 avrora starting warmup 51 =====
===== DaCapo 9.12 avrora completed warmup 51 in 14052 msec =====
===== DaCapo 9.12 avrora starting warmup 52 =====
===== DaCapo 9.12 avrora completed warmup 52 in 14087 msec =====
===== DaCapo 9.12 avrora starting warmup 53 =====
===== DaCapo 9.12 avrora completed warmup 53 in 14009 msec =====
===== DaCapo 9.12 avrora starting warmup 54 =====
===== DaCapo 9.12 avrora completed warmup 54 in 14017 msec =====
===== DaCapo 9.12 avrora starting warmup 55 =====
===== DaCapo 9.12 avrora completed warmup 55 in 14005 msec =====
===== DaCapo 9.12 avrora starting warmup 56 =====
===== DaCapo 9.12 avrora completed warmup 56 in 14027 msec =====
===== DaCapo 9.12 avrora starting warmup 57 =====
===== DaCapo 9.12 avrora completed warmup 57 in 13945 msec =====
===== DaCapo 9.12 avrora starting warmup 58 =====
===== DaCapo 9.12 avrora completed warmup 58 in 13948 msec =====
===== DaCapo 9.12 avrora starting warmup 59 =====
===== DaCapo 9.12 avrora completed warmup 59 in 14056 msec =====
===== DaCapo 9.12 avrora starting warmup 60 =====
===== DaCapo 9.12 avrora completed warmup 60 in 13916 msec =====
===== DaCapo 9.12 avrora starting warmup 61 =====
===== DaCapo 9.12 avrora completed warmup 61 in 13987 msec =====
===== DaCapo 9.12 avrora starting warmup 62 =====
===== DaCapo 9.12 avrora completed warmup 62 in 13956 msec =====
===== DaCapo 9.12 avrora starting warmup 63 =====
===== DaCapo 9.12 avrora completed warmup 63 in 14023 msec =====
===== DaCapo 9.12 avrora starting warmup 64 =====
===== DaCapo 9.12 avrora completed warmup 64 in 13982 msec =====
===== DaCapo 9.12 avrora starting warmup 65 =====
===== DaCapo 9.12 avrora completed warmup 65 in 14115 msec =====
===== DaCapo 9.12 avrora starting warmup 66 =====
===== DaCapo 9.12 avrora completed warmup 66 in 14081 msec =====
===== DaCapo 9.12 avrora starting warmup 67 =====
===== DaCapo 9.12 avrora completed warmup 67 in 14001 msec =====
===== DaCapo 9.12 avrora starting warmup 68 =====
===== DaCapo 9.12 avrora completed warmup 68 in 13992 msec =====
===== DaCapo 9.12 avrora starting warmup 69 =====
===== DaCapo 9.12 avrora completed warmup 69 in 14006 msec =====
===== DaCapo 9.12 avrora starting warmup 70 =====
===== DaCapo 9.12 avrora completed warmup 70 in 13984 msec =====
===== DaCapo 9.12 avrora starting warmup 71 =====
===== DaCapo 9.12 avrora completed warmup 71 in 13962 msec =====
===== DaCapo 9.12 avrora starting warmup 72 =====
===== DaCapo 9.12 avrora completed warmup 72 in 14047 msec =====
===== DaCapo 9.12 avrora starting warmup 73 =====
===== DaCapo 9.12 avrora completed warmup 73 in 14098 msec =====
===== DaCapo 9.12 avrora starting warmup 74 =====
===== DaCapo 9.12 avrora completed warmup 74 in 13977 msec =====
===== DaCapo 9.12 avrora starting warmup 75 =====
===== DaCapo 9.12 avrora completed warmup 75 in 14035 msec =====
===== DaCapo 9.12 avrora starting warmup 76 =====
===== DaCapo 9.12 avrora completed warmup 76 in 13975 msec =====
===== DaCapo 9.12 avrora starting warmup 77 =====
===== DaCapo 9.12 avrora completed warmup 77 in 13900 msec =====
===== DaCapo 9.12 avrora starting warmup 78 =====
===== DaCapo 9.12 avrora completed warmup 78 in 13946 msec =====
===== DaCapo 9.12 avrora starting warmup 79 =====
===== DaCapo 9.12 avrora completed warmup 79 in 13991 msec =====
===== DaCapo 9.12 avrora starting warmup 80 =====
===== DaCapo 9.12 avrora completed warmup 80 in 13989 msec =====
===== DaCapo 9.12 avrora starting warmup 81 =====
===== DaCapo 9.12 avrora completed warmup 81 in 14122 msec =====
===== DaCapo 9.12 avrora starting warmup 82 =====
===== DaCapo 9.12 avrora completed warmup 82 in 14054 msec =====
===== DaCapo 9.12 avrora starting warmup 83 =====
===== DaCapo 9.12 avrora completed warmup 83 in 14047 msec =====
===== DaCapo 9.12 avrora starting warmup 84 =====
===== DaCapo 9.12 avrora completed warmup 84 in 14118 msec =====
===== DaCapo 9.12 avrora starting warmup 85 =====
===== DaCapo 9.12 avrora completed warmup 85 in 13972 msec =====
===== DaCapo 9.12 avrora starting warmup 86 =====
