             total       used       free     shared    buffers     cached
Mem:       3806920    1961440    1845480          0     230724     969484
-/+ buffers/cache:     761232    3045688
Swap:      6143992      44980    6099012
