F S UID        PID  PPID  C PRI  NI ADDR SZ WCHAN  STIME TTY          TIME CMD
4 S root         1     0  0  80   0 -  5900 poll_s  2013 ?        00:00:00 /sbin/init
1 S root         2     0  0  80   0 -     0 kthrea  2013 ?        00:00:00 [kthreadd]
1 S root         3     2  0 -40   - -     0 migrat  2013 ?        00:00:00 [migration/0]
1 S root         4     2  0  80   0 -     0 ksofti  2013 ?        00:00:04 [ksoftirqd/0]
1 S root         5     2  0 -40   - -     0 cpu_st  2013 ?        00:00:00 [migration/0]
5 S root         6     2  0 -40   - -     0 watchd  2013 ?        00:00:03 [watchdog/0]
1 S root         7     2  0 -40   - -     0 migrat  2013 ?        00:00:00 [migration/1]
1 S root         8     2  0 -40   - -     0 cpu_st  2013 ?        00:00:00 [migration/1]
1 S root         9     2  0  80   0 -     0 ksofti  2013 ?        00:00:09 [ksoftirqd/1]
5 S root        10     2  0 -40   - -     0 watchd  2013 ?        00:00:03 [watchdog/1]
1 S root        11     2  0 -40   - -     0 migrat  2013 ?        00:00:00 [migration/2]
1 S root        12     2  0 -40   - -     0 cpu_st  2013 ?        00:00:00 [migration/2]
1 S root        13     2  0  80   0 -     0 ksofti  2013 ?        00:00:01 [ksoftirqd/2]
5 S root        14     2  0 -40   - -     0 watchd  2013 ?        00:00:03 [watchdog/2]
1 S root        15     2  0 -40   - -     0 migrat  2013 ?        00:00:00 [migration/3]
1 S root        16     2  0 -40   - -     0 cpu_st  2013 ?        00:00:00 [migration/3]
1 S root        17     2  0  80   0 -     0 ksofti  2013 ?        00:00:04 [ksoftirqd/3]
5 S root        18     2  0 -40   - -     0 watchd  2013 ?        00:00:03 [watchdog/3]
1 S root        19     2  0  80   0 -     0 worker  2013 ?        00:03:11 [events/0]
1 S root        20     2  0  80   0 -     0 worker  2013 ?        00:01:28 [events/1]
1 S root        21     2  0  80   0 -     0 worker  2013 ?        00:01:51 [events/2]
1 S root        22     2  0  80   0 -     0 worker  2013 ?        00:01:49 [events/3]
1 S root        23     2  0  80   0 -     0 worker  2013 ?        00:00:00 [cgroup]
1 S root        24     2  0  80   0 -     0 worker  2013 ?        00:00:00 [khelper]
1 S root        25     2  0  80   0 -     0 worker  2013 ?        00:00:00 [netns]
1 S root        26     2  0  80   0 -     0 async_  2013 ?        00:00:00 [async/mgr]
1 S root        27     2  0  80   0 -     0 worker  2013 ?        00:00:00 [pm]
1 S root        28     2  0  80   0 -     0 bdi_sy  2013 ?        00:00:13 [sync_supers]
1 S root        29     2  0  80   0 -     0 bdi_fo  2013 ?        00:00:13 [bdi-default]
1 S root        30     2  0  80   0 -     0 worker  2013 ?        00:00:00 [kintegrityd/0]
1 S root        31     2  0  80   0 -     0 worker  2013 ?        00:00:00 [kintegrityd/1]
1 S root        32     2  0  80   0 -     0 worker  2013 ?        00:00:00 [kintegrityd/2]
1 S root        33     2  0  80   0 -     0 worker  2013 ?        00:00:00 [kintegrityd/3]
1 S root        34     2  0  80   0 -     0 worker  2013 ?        00:00:01 [kblockd/0]
1 S root        35     2  0  80   0 -     0 worker  2013 ?        00:00:01 [kblockd/1]
1 S root        36     2  0  80   0 -     0 worker  2013 ?        00:00:00 [kblockd/2]
1 S root        37     2  0  80   0 -     0 worker  2013 ?        00:00:34 [kblockd/3]
1 S root        38     2  0  80   0 -     0 worker  2013 ?        00:00:00 [kacpid]
1 S root        39     2  0  80   0 -     0 worker  2013 ?        00:00:00 [kacpi_notify]
1 S root        40     2  0  80   0 -     0 worker  2013 ?        00:00:00 [kacpi_hotplug]
1 S root        41     2  0  80   0 -     0 worker  2013 ?        00:00:00 [ata/0]
1 S root        42     2  0  80   0 -     0 worker  2013 ?        00:00:00 [ata/1]
1 S root        43     2  0  80   0 -     0 worker  2013 ?        00:00:00 [ata/2]
1 S root        44     2  0  80   0 -     0 worker  2013 ?        00:00:00 [ata/3]
1 S root        45     2  0  80   0 -     0 worker  2013 ?        00:00:00 [ata_aux]
1 S root        46     2  0  80   0 -     0 worker  2013 ?        00:00:00 [ksuspend_usbd]
5 S root        47     2  0  80   0 -     0 hub_th  2013 ?        00:00:00 [khubd]
1 S root        48     2  0  80   0 -     0 serio_  2013 ?        00:00:00 [kseriod]
1 S root        49     2  0  80   0 -     0 worker  2013 ?        00:00:00 [md/0]
1 S root        50     2  0  80   0 -     0 worker  2013 ?        00:00:00 [md/1]
1 S root        51     2  0  80   0 -     0 worker  2013 ?        00:00:00 [md/2]
1 S root        52     2  0  80   0 -     0 worker  2013 ?        00:00:00 [md/3]
1 S root        53     2  0  80   0 -     0 worker  2013 ?        00:00:00 [md_misc/0]
1 S root        54     2  0  80   0 -     0 worker  2013 ?        00:00:00 [md_misc/1]
1 S root        55     2  0  80   0 -     0 worker  2013 ?        00:00:00 [md_misc/2]
1 S root        56     2  0  80   0 -     0 worker  2013 ?        00:00:00 [md_misc/3]
1 S root        57     2  0  80   0 -     0 watchd  2013 ?        00:00:01 [khungtaskd]
1 S root        58     2  0  80   0 -     0 kswapd  2013 ?        00:00:01 [kswapd0]
1 S root        59     2  0  85   5 -     0 ksm_sc  2013 ?        00:00:00 [ksmd]
1 S root        60     2  0  99  19 -     0 khugep  2013 ?        00:00:14 [khugepaged]
1 S root        61     2  0  80   0 -     0 worker  2013 ?        00:00:00 [aio/0]
1 S root        62     2  0  80   0 -     0 worker  2013 ?        00:00:00 [aio/1]
1 S root        63     2  0  80   0 -     0 worker  2013 ?        00:00:00 [aio/2]
1 S root        64     2  0  80   0 -     0 worker  2013 ?        00:00:00 [aio/3]
1 S root        65     2  0  80   0 -     0 worker  2013 ?        00:00:00 [crypto/0]
1 S root        66     2  0  80   0 -     0 worker  2013 ?        00:00:00 [crypto/1]
1 S root        67     2  0  80   0 -     0 worker  2013 ?        00:00:00 [crypto/2]
1 S root        68     2  0  80   0 -     0 worker  2013 ?        00:00:00 [crypto/3]
1 S root        73     2  0  80   0 -     0 worker  2013 ?        00:00:00 [kthrotld/0]
1 S root        74     2  0  80   0 -     0 worker  2013 ?        00:00:00 [kthrotld/1]
1 S root        75     2  0  80   0 -     0 worker  2013 ?        00:00:00 [kthrotld/2]
1 S root        76     2  0  80   0 -     0 worker  2013 ?        00:00:00 [kthrotld/3]
1 S root        78     2  0  80   0 -     0 worker  2013 ?        00:00:00 [kpsmoused]
1 S root        79     2  0  80   0 -     0 worker  2013 ?        00:00:00 [usbhid_resumer]
1 S root       109     2  0  80   0 -     0 worker  2013 ?        00:00:00 [kstriped]
1 S root       133     2  0  80   0 -     0 worker  2013 ?        00:01:00 [i915]
1 S root       135     2  0  75  -5 -     0 slow_w  2013 ?        00:00:00 [kslowd000]
1 S root       136     2  0  75  -5 -     0 slow_w  2013 ?        00:00:00 [kslowd001]
1 S root       328     2  0  80   0 -     0 scsi_e  2013 ?        00:00:00 [scsi_eh_0]
1 S root       329     2  0  80   0 -     0 scsi_e  2013 ?        00:10:07 [scsi_eh_1]
1 S root       330     2  0  80   0 -     0 scsi_e  2013 ?        00:00:00 [scsi_eh_2]
1 S root       331     2  0  80   0 -     0 scsi_e  2013 ?        00:00:00 [scsi_eh_3]
1 S root       332     2  0  80   0 -     0 scsi_e  2013 ?        00:00:00 [scsi_eh_4]
1 S root       333     2  0  80   0 -     0 scsi_e  2013 ?        00:00:00 [scsi_eh_5]
1 S root       425     2  0  80   0 -     0 bdi_wr  2013 ?        00:00:39 [flush-8:0]
1 S root       426     2  0  80   0 -     0 kjourn  2013 ?        00:00:44 [jbd2/sda1-8]
1 S root       427     2  0  80   0 -     0 worker  2013 ?        00:00:00 [ext4-dio-unwrit]
1 S root       428     2  0  80   0 -     0 worker  2013 ?        00:00:00 [ext4-dio-unwrit]
1 S root       429     2  0  80   0 -     0 worker  2013 ?        00:00:00 [ext4-dio-unwrit]
1 S root       430     2  0  80   0 -     0 worker  2013 ?        00:00:00 [ext4-dio-unwrit]
5 S root       524     1  0  76  -4 -  2811 poll_s  2013 ?        00:00:00 /sbin/udevd -d
1 S root       786     2  0  80   0 -     0 worker  2013 ?        00:00:01 [hd-audio0]
0 S 1101301g  1451     1  0  80   0 - 210126 poll_s Jan14 ?       00:00:00 /usr/libexec/e-calendar-factory
1 S root      1495     2  0  80   0 -     0 kjourn  2013 ?        00:00:00 [jbd2/sda3-8]
1 S root      1496     2  0  80   0 -     0 worker  2013 ?        00:00:00 [ext4-dio-unwrit]
1 S root      1497     2  0  80   0 -     0 worker  2013 ?        00:00:00 [ext4-dio-unwrit]
1 S root      1498     2  0  80   0 -     0 worker  2013 ?        00:00:00 [ext4-dio-unwrit]
1 S root      1499     2  0  80   0 -     0 worker  2013 ?        00:00:00 [ext4-dio-unwrit]
1 S root      1605     2  0  80   0 -     0 kaudit  2013 ?        00:00:00 [kauditd]
1 S root      1838     1  0  80   0 -  3340 poll_s  2013 ?        00:00:38 /sbin/dhclient -1 -q -cf /etc/dhcp/dhclient-em1.conf -lf /var/lib/dhclient/dhclient-em1.leases -pf /var/run/dhclient-em1.pid em1
5 S root      1884     1  0  80   0 -  2600 poll_s  2013 ?        00:00:00 /sbin/portreserve
5 S root      1891     1  0  80   0 - 63859 poll_s  2013 ?        00:00:00 /sbin/rsyslogd -i /var/run/syslogd.pid -c 5
5 S root      1903     1  0  80   0 -  2705 hrtime  2013 ?        00:02:04 irqbalance
5 S rpc       1917     1  0  80   0 -  4759 poll_s  2013 ?        00:02:24 rpcbind
5 S dbus      1927     1  0  80   0 -  6614 poll_s  2013 ?        00:00:02 dbus-daemon --system
5 S rpcuser   1945     1  0  80   0 -  6472 poll_s  2013 ?        00:00:00 rpc.statd
5 S root      1980     2  0  80   0 -     0 worker  2013 ?        00:00:00 [rpciod/0]
5 S root      1981     2  0  80   0 -     0 worker  2013 ?        00:00:08 [rpciod/1]
5 S root      1982     2  0  80   0 -     0 worker  2013 ?        00:00:00 [rpciod/2]
5 S root      1983     2  0  80   0 -     0 worker  2013 ?        00:00:00 [rpciod/3]
1 S root      1987     1  0  80   0 -  6296 ep_pol  2013 ?        00:00:00 rpc.idmapd
5 S root      2001     1  0  80   0 - 53901 poll_s  2013 ?        00:00:17 /usr/sbin/ypbind
1 S root      2057     1  0  80   0 -  1020 poll_s  2013 ?        00:00:00 /usr/sbin/acpid
5 S 68        2066     1  0  80   0 - 10788 poll_s  2013 ?        00:00:14 hald
0 S root      2067  2066  0  80   0 -  5082 poll_s  2013 ?        00:00:00 hald-runner
0 S root      2111  2067  0  80   0 -  5610 poll_s  2013 ?        00:00:00 /usr/libexec/hald-addon-generic-backlight
0 S root      2113  2067  0  80   0 -  5612 poll_s  2013 ?        00:00:04 hald-addon-input: Listening on /dev/input/event5 /dev/input/event10 /dev/input/event0 /dev/input/event3 /dev/input/event1
4 S 68        2117  2067  0  80   0 -  4484 unix_s  2013 ?        00:00:00 hald-addon-acpi: listening on acpid socket /var/run/acpid.socket
0 S root      2118  2067  0  80   0 -  5611 poll_s  2013 ?        00:14:51 hald-addon-storage: polling /dev/sr0 (every 2 sec)
5 S root      2141     1  0  80   0 - 169047 rt_sig 2013 ?        00:00:51 automount --pid-file /var/run/autofs.pid
5 S nscd      2160     1  0  80   0 - 275832 ep_pol 2013 ?        00:00:10 /usr/sbin/nscd
1 S root      2218     1  0  80   0 -  1218 poll_s  2013 ?        00:00:00 /usr/sbin/mcelog --daemon
5 S root      2230     1  0  80   0 - 16166 poll_s  2013 ?        00:00:00 /usr/sbin/sshd
5 S root      2238     1  0  80   0 -  6216 poll_s  2013 ?        00:00:00 xinetd -stayalive -pidfile /var/run/xinetd.pid
5 S ntp       2246     1  0  80   0 -  6240 poll_s  2013 ?        00:00:03 ntpd -u ntp:ntp -p /var/run/ntpd.pid -g
4 S qmails    2258     1  0  80   0 -   511 poll_s  2013 ?        00:00:00 qmail-send
0 S jenkins   2261     1  0  80   0 - 879454 futex_ Jan21 ?       00:19:44 /etc/alternatives/java -Dcom.sun.akuma.Daemon=daemonized -Djava.awt.headless=true -DJENKINS_HOME=/var/lib/jenkins -jar /usr/lib/jenkins/jenkins.war --logfile=/var/log/jenkins/jenkins.log --webroot=/var/cache/jenkins/war --daemon --httpPort=8080 --ajp13Port=8009 --debug=5 --handlerCountMax=100 --handlerCountMaxIdle=20
4 S qmaill    2276  2258  0  80   0 -   503 pipe_w  2013 ?        00:00:00 splogger qmail
0 S root      2277  2258  0  80   0 -   504 poll_s  2013 ?        00:00:00 qmail-lspawn ./Mailbox
4 S qmailr    2278  2258  0  80   0 -   503 poll_s  2013 ?        00:00:00 qmail-rspawn
4 S qmailq    2279  2258  0  80   0 -   501 pipe_w  2013 ?        00:00:00 qmail-clean
5 S root      2283     1  0  80   0 - 27643 poll_s  2013 ?        00:00:00 /usr/sbin/abrtd
1 S root      2291     1  0  80   0 - 28840 hrtime  2013 ?        00:00:04 crond
5 S root      2302     1  0  80   0 -  4954 hrtime  2013 ?        00:00:00 /usr/sbin/atd
1 S root      2324     1  0  80   0 - 15565 ep_pol  2013 ?        00:00:06 /usr/sbin/certmonger -S -p /var/run/certmonger.pid
4 S root      2347     1  0  80   0 - 33602 poll_s  2013 ?        00:00:00 /usr/sbin/gdm-binary -nodaemon
4 S root      2352     1  0  80   0 -  1016 n_tty_  2013 tty2     00:00:00 /sbin/mingetty /dev/tty2
4 S root      2354     1  0  80   0 -  1016 n_tty_  2013 tty3     00:00:00 /sbin/mingetty /dev/tty3
4 S root      2356     1  0  80   0 -  1016 n_tty_  2013 tty4     00:00:00 /sbin/mingetty /dev/tty4
4 S root      2358     1  0  80   0 -  1016 n_tty_  2013 tty5     00:00:00 /sbin/mingetty /dev/tty5
4 S root      2360     1  0  80   0 -  1016 n_tty_  2013 tty6     00:00:00 /sbin/mingetty /dev/tty6
5 S root      2365   524  0  78  -2 -  2810 poll_s  2013 ?        00:00:00 /sbin/udevd -d
5 S root      2366   524  0  78  -2 -  2810 poll_s  2013 ?        00:00:00 /sbin/udevd -d
4 S root      2413     1  0  80   0 - 521807 poll_s 2013 ?        00:00:00 /usr/sbin/console-kit-daemon --no-daemon
4 S root      2489     1  0  80   0 - 12470 poll_s  2013 ?        00:00:00 /usr/libexec/devkit-power-daemon
4 S root      2549     1  0  80   0 - 12741 poll_s  2013 ?        00:00:00 /usr/libexec/polkit-1/polkitd
4 S rtkit     2564     1  0  81   1 - 41641 poll_s  2013 ?        00:00:46 /usr/libexec/rtkit-daemon
0 S 1106736m  9506     1  0  80   0 - 210152 poll_s Jan17 ?       00:00:00 /usr/libexec/e-calendar-factory
0 S 1106736m 14803     1  0  80   0 - 210150 poll_s Jan13 ?       00:00:00 /usr/libexec/e-calendar-factory
1 S callumc  16285     1  0  80   0 - 29816 poll_s 13:42 ?        00:00:00 SCREEN -d -m bash -l -- bash_stub distribute_run --email cjcameron7@gmail.com --senderConfig economics_memory_code/email.conf --name UtilitySpace 2014_01_25_13_41_52 callum@CallumPC 9 14 economics_memory_code/fixed_time/utilitySpace_remoteHarness.py 20m 5 economics_memory_code/fixed_time/utilitySpace_20m_avrora_20m_large_1_sunflow_20m_large_1_callum@CallumPC_2014_01_25_13_41_52 --benchmark avrora 20m large 1 909 --benchmark sunflow 20m large 1 991
0 S callumc  16286 16285  1  80   0 - 27040 wait   13:42 pts/0    00:00:00 bash -l -- bash_stub distribute_run --email cjcameron7@gmail.com --senderConfig economics_memory_code/email.conf --name UtilitySpace 2014_01_25_13_41_52 callum@CallumPC 9 14 economics_memory_code/fixed_time/utilitySpace_remoteHarness.py 20m 5 economics_memory_code/fixed_time/utilitySpace_20m_avrora_20m_large_1_sunflow_20m_large_1_callum@CallumPC_2014_01_25_13_41_52 --benchmark avrora 20m large 1 909 --benchmark sunflow 20m large 1 991
0 S callumc  16309 16286  2  80   0 - 45854 wait   13:42 pts/0    00:00:00 python /users/staff/callumc/linuxconfig/LinuxBin/distribute_run --email cjcameron7@gmail.com --senderConfig economics_memory_code/email.conf --name UtilitySpace 2014_01_25_13_41_52 callum@CallumPC 9 14 economics_memory_code/fixed_time/utilitySpace_remoteHarness.py 20m 5 economics_memory_code/fixed_time/utilitySpace_20m_avrora_20m_large_1_sunflow_20m_large_1_callum@CallumPC_2014_01_25_13_41_52 --benchmark avrora 20m large 1 909 --benchmark sunflow 20m large 1 991
0 S callumc  16312 16309  3  80   0 - 46184 wait   13:42 pts/0    00:00:00 python economics_memory_code/fixed_time/utilitySpace_remoteHarness.py 20m 5 economics_memory_code/fixed_time/utilitySpace_20m_avrora_20m_large_1_sunflow_20m_large_1_callum@CallumPC_2014_01_25_13_41_52 --benchmark avrora 20m large 1 909 --benchmark sunflow 20m large 1 991
0 S callumc  16317 16312  0  80   0 - 27038 wait   13:42 pts/0    00:00:00 /bin/bash /users/staff/callumc/economics_memory_code/machineInfo.sh economics_memory_code/fixed_time/utilitySpace_20m_avrora_20m_large_1_sunflow_20m_large_1_callum@CallumPC_2014_01_25_13_41_52
0 R callumc  16339 16317  0  80   0 - 27334 -      13:42 pts/0    00:00:00 ps -elf
1 S root     16812     2  0  80   0 -     0 worker  2013 ?        00:00:08 [nfsiod]
1 S root     16814     2  0  80   0 -     0 svc_re  2013 ?        00:00:00 [lockd]
4 S root     16956     1  0  80   0 - 13920 poll_s  2013 ?        00:01:58 /usr/libexec/udisks-daemon
1 S root     16957 16956  0  80   0 - 11277 poll_s  2013 ?        00:00:00 udisks-daemon: not polling any devices
0 S 1107425a 16978     1  0  80   0 - 212829 poll_s 2013 ?        00:00:00 /usr/libexec/e-calendar-factory
0 S 1106736m 18295     1  0  80   0 - 210152 poll_s Jan16 ?       00:00:00 /usr/libexec/e-calendar-factory
0 S root     23911  2347  0  80   0 - 41309 poll_s Jan23 ?        00:00:00 /usr/libexec/gdm-simple-slave --display-id /org/gnome/DisplayManager/Display1
4 S root     23913 23911  0  80   0 - 25032 poll_s Jan23 tty7     00:00:09 /usr/bin/Xorg :0 -br -verbose -audit 4 -auth /var/run/gdm/auth-for-gdm-ue7c0Z/database -nolisten tcp
1 S gdm      23932     1  0  80   0 -  4537 poll_s Jan23 ?        00:00:00 /usr/bin/dbus-launch --exit-with-session
1 S gdm      23933     1  0  80   0 -  4964 poll_s Jan23 ?        00:00:00 /bin/dbus-daemon --fork --print-pid 5 --print-address 7 --session
4 S gdm      23934 23911  0  80   0 - 67464 poll_s Jan23 ?        00:00:00 /usr/bin/gnome-session --autostart=/usr/share/gdm/autostart/LoginWindow/
0 S gdm      23937     1  0  80   0 - 33474 poll_s Jan23 ?        00:00:00 /usr/libexec/gconfd-2
0 S gdm      23938 23934  0  80   0 - 29625 poll_s Jan23 ?        00:00:00 /usr/libexec/at-spi-registryd
1 S gdm      23942     1  0  80   0 - 92410 poll_s Jan23 ?        00:01:07 /usr/libexec/gnome-settings-daemon --gconf-prefix=/apps/gdm/simple-greeter/settings-manager-plugins
0 S gdm      23944     1  0  80   0 - 89690 poll_s Jan23 ?        00:00:00 /usr/libexec/bonobo-activation-server --ac-activate --ior-output-fd=12
0 S gdm      23951     1  0  80   0 - 33826 poll_s Jan23 ?        00:00:00 /usr/libexec/gvfsd
0 S gdm      23952 23934  0  80   0 - 117630 poll_s Jan23 ?       00:00:00 metacity
0 S gdm      23953 23934  0  80   0 - 62206 poll_s Jan23 ?        00:00:00 /usr/libexec/polkit-gnome-authentication-agent-1
0 S gdm      23955 23934  0  80   0 - 68606 poll_s Jan23 ?        00:00:01 gnome-power-manager
0 S gdm      23956 23934  0  80   0 - 100930 poll_s Jan23 ?       00:00:02 /usr/libexec/gdm-simple-greeter
1 S gdm      23964     1  0  69 -11 - 107476 poll_s Jan23 ?       00:00:00 /usr/bin/pulseaudio --start --log-target=syslog
0 S 1106736m 24123     1  0  80   0 - 210151 poll_s Jan13 ?       00:00:00 /usr/libexec/e-calendar-factory
0 S 1105973m 27823     1  0  80   0 - 210125 poll_s Jan20 ?       00:00:00 /usr/libexec/e-calendar-factory
4 S root     29923 23911  0  80   0 - 45436 poll_s Jan24 ?        00:00:00 pam: gdm-password
