9 702 68.8 57.0 0.4 0.894427191 0.0573333333333 0.0475 0.000333333333333 0.0007453559925 69.0 57.0 0.0575 0.0475
209 102 80.8 56.0 0.748331477355 1.09544511501 0.0673333333333 0.0466666666667 0.000623609564462 0.000912870929175 81.0 56.0 0.0675 0.0466666666667
309 691 81.8 57.0 0.748331477355 0.894427191 0.0681666666667 0.0475 0.000623609564462 0.0007453559925 82.0 57.0 0.0683333333333 0.0475
533 467 81.8 56.0 0.4 0.0 0.0681666666667 0.0466666666667 0.000333333333333 0.0 82.0 56.0 0.0683333333333 0.0466666666667
909 91 80.8 55.8 0.4 0.748331477355 0.0673333333333 0.0465 0.000333333333333 0.000623609564462 81.0 56.0 0.0675 0.0466666666667
