1413680766116 0 TOTAL_MEM 2470
1413680786134 32140 CREATION
1413680786134 32140 READING 9 0.981943
1413680786134 32140 MINHEAP 2
1413680786134 32140 MINHEAP 12
1413680786169 32139 CREATION
1413680786169 32139 READING 9 0.990792
1413680786169 32139 MINHEAP 2
1413680786169 32139 MINHEAP 1223
1413680786223 32140 READING 9 0.982549
1413680786243 32139 READING 9 0.985244
1413680786276 32139 READING 9 0.980468
1413680786302 32139 READING 9 0.967531
1413680786306 32140 READING 11 0.979324
1413680786399 32139 READING 11 0.971111
1413680786402 32140 READING 11 0.977191
1413680786553 32139 READING 11 0.973681
1413680786568 32140 READING 15 0.954911
1413680786634 32139 READING 17 0.891047
1413680786746 32140 READING 15 0.967858
1413680786783 32139 READING 17 0.860756
1413680786915 32139 READING 29 0.451112
1413680787071 32139 READING 30 0.864443
1413680787290 32139 READING 34 0.680997
1413680787334 32140 READING 24 0.948119
1413680787516 32139 READING 42 0.379498
1413680787612 32140 READING 30 0.948619
1413680787625 32139 READING 58 0.564509
1413680787690 32139 READING 59 0.337391
1413680787949 32139 READING 62 0.515652
1413680787969 32140 READING 38 0.922932
1413680788035 32139 READING 82 0.502092
1413680788266 32140 READING 45 0.863853
1413680788491 32139 READING 86 0.355304
1413680788586 32140 READING 45 0.983188
1413680788591 32139 READING 110 0.664002
1413680788701 32139 READING 112 0.594031
1413680788792 32140 READING 46 0.937484
1413680788825 32139 READING 113 0.334676
1413680788980 32139 READING 117 0.272732
1413680789005 32140 READING 52 0.949714
1413680789240 32140 READING 52 0.979566
1413680789506 32140 READING 62 0.981959
1413680789535 32139 READING 119 0.467489
1413680789676 32140 READING 62 0.977281
1413680789680 32139 READING 153 0.303694
1413680789743 32140 READING 73 0.964203
1413680789797 32139 READING 154 0.089165
1413680789918 32139 READING 157 0.716606
1413680789964 32140 READING 77 0.976909
1413680790020 32139 READING 162 0.727390
1413680790130 32139 READING 164 0.727114
1413680790474 32140 READING 92 0.989985
1413680790657 32139 READING 168 0.447650
1413680790781 32139 READING 215 0.666758
1413680790898 32139 READING 217 0.665927
1413680791002 32139 READING 219 0.661059
1413680791123 32139 READING 226 0.681084
1413680791223 32139 READING 229 0.647758
1413680791347 32139 READING 238 0.593415
1413680791374 32140 READING 92 0.991476
1413680791471 32139 READING 241 0.544529
1413680791564 32139 READING 251 0.539974
1413680792194 32139 READING 257 0.399593
1413680792296 32140 READING 106 0.993851
1413680792333 32139 READING 300 0.533768
1413680792422 32139 READING 295 0.571620
1413680792974 32139 READING 246 0.242005
1413680793083 32139 READING 331 0.553916
1413680793084 32140 READING 108 0.994726
1413680793220 32139 READING 336 0.612056
1413680793307 32139 READING 330 0.637269
1413680793418 32139 READING 334 0.612951
1413680793545 32139 READING 335 0.600353
1413680793653 32139 READING 335 0.631904
1413680793762 32139 READING 337 0.654700
1413680793881 32139 READING 342 0.591993
1413680793998 32139 READING 347 0.595513
1413680794110 32139 READING 353 0.565062
1413680794135 32140 READING 121 0.996243
1413680794215 32139 READING 357 0.587954
1413680794325 32139 READING 362 0.553854
1413680794425 32139 READING 364 0.560538
1413680794550 32139 READING 371 0.503120
1413680794651 32139 READING 374 0.508401
1413680795018 32140 READING 123 0.996009
1413680795458 32139 READING 380 0.414416
1413680795579 32139 READING 434 0.461344
1413680795706 32139 READING 377 0.437963
1413680796029 32140 READING 133 0.996244
1413680796117 32140 FUNCTION lru lambda h: 0.922565 * (h ** 0.0127067)
1413680796117 32139 FUNCTION lru lambda h: 0.759673 * (h ** 0.001)
1413680796118 32140 RECOMMEND 1247
1413680796118 32139 RECOMMEND 1223
1413680796909 32140 READING 136 0.996379
1413680796938 32139 READING 426 0.116815
1413680797110 32139 READING 424 0.400177
1413680797239 32139 READING 478 0.471994
1413680797365 32139 READING 423 0.485276
1413680797529 32139 READING 472 0.486458
1413680797681 32139 READING 476 0.476940
1413680797831 32139 READING 478 0.534748
1413680797975 32139 READING 478 0.525476
1413680798009 32140 READING 144 0.997014
1413680798136 32139 READING 482 0.549467
1413680798934 32140 READING 145 0.996795
1413680799043 32139 READING 483 0.330406
1413680799248 32139 READING 541 0.496422
1413680799394 32139 READING 543 0.521401
1413680799536 32139 READING 541 0.544962
1413680799699 32139 READING 549 0.564291
1413680799888 32139 READING 553 0.509704
1413680800029 32139 READING 561 0.531192
1413680800124 32140 READING 151 0.996345
1413680800176 32139 READING 566 0.538623
1413680800314 32139 READING 573 0.526932
1413680801098 32140 READING 152 0.996091
1413680801277 32139 READING 579 0.333633
1413680801465 32139 READING 638 0.490224
1413680801618 32139 READING 646 0.508982
1413680802062 32139 READING 647 0.710607
1413680802200 32140 READING 158 0.996580
1413680802591 32139 READING 650 0.815253
1413680803094 32139 READING 651 0.829092
1413680803214 32140 READING 158 0.996861
1413680804296 32140 READING 163 0.995069
1413680805116 32139 READING 652 0.499677
1413680805316 32140 READING 164 0.990574
1413680805348 32139 READING 723 0.743284
1413680805504 32139 READING 737 0.692972
1413680805750 32139 READING 671 0.673890
1413680805857 32139 READING 729 0.592437
1413680806118 32140 FUNCTION lru lambda h: 0.910496 * (h ** 0.0167087)
1413680806118 32139 FUNCTION lru lambda h: 0.65406 * (h ** 0.001)
1413680806119 32140 RECOMMEND 1247
1413680806119 32139 RECOMMEND 1223
1413680806482 32140 READING 169 0.994007
1413680806738 32139 READING 667 0.277084
1413680806887 32139 READING 797 0.425560
1413680806978 32139 READING 800 0.459355
1413680807538 32139 READING 805 0.825616
1413680807580 32140 READING 169 0.995968
1413680807654 32139 READING 806 0.771999
1413680807781 32139 READING 804 0.713957
1413680807902 32139 READING 806 0.694841
1413680808152 32139 READING 807 0.789218
1413680808697 32140 READING 172 0.997043
1413680809750 32140 READING 173 0.997626
1413680809902 32139 READING 809 0.362738
1413680810195 32139 READING 893 0.726890
1413680810460 32139 READING 895 0.827263
1413680810588 32139 READING 903 0.853190
1413680810811 32139 READING 906 0.894769
1413680810910 32140 READING 177 0.998080
1413680811149 32139 READING 908 0.900669
1413680811298 32139 READING 791 0.858643
1413680811451 32139 READING 889 0.833897
1413680811609 32139 READING 796 0.804734
1413680811769 32139 READING 881 0.807977
1413680811932 32139 READING 801 0.799121
1413680812049 32140 READING 178 0.998206
1413680812102 32139 READING 877 0.811062
1413680812267 32139 READING 882 0.823453
1413680812441 32139 READING 874 0.832347
1413680812615 32139 READING 879 0.838485
1413680812795 32139 READING 875 0.848229
1413680813210 32140 READING 180 0.998437
1413680814070 32139 READING 878 0.966820
1413680814330 32140 READING 181 0.998337
1413680814772 32139 READING 876 0.956624
1413680814958 32139 READING 879 0.927015
1413680815149 32139 READING 880 0.895981
1413680815343 32139 READING 881 0.868438
1413680815502 32140 READING 183 0.998385
1413680815543 32139 READING 883 0.851205
1413680815743 32139 READING 884 0.840590
1413680815963 32139 READING 885 0.818879
1413680816119 32140 FUNCTION lru lambda h: 0.906834 * (h ** 0.0178728)
1413680816119 32139 FUNCTION lru lambda h: 0.14156 * (h ** 0.230501)
1413680816120 32140 RECOMMEND 178
1413680816120 32139 RECOMMEND 2292
1413680816171 32139 READING 887 0.826958
1413680816396 32139 READING 890 0.831502
1413680816744 32140 READING 183 0.997789
1413680816757 32139 READING 892 0.863102
1413680817160 32139 READING 895 0.893273
1413680817350 32139 READING 897 0.855474
1413680817890 32140 READING 173 0.997976
1413680818975 32140 READING 178 0.997626
1413680819847 32139 READING 899 0.672836
1413680820019 32140 READING 169 0.997796
1413680820097 32139 READING 998 0.700139
1413680820277 32139 READING 1023 0.743891
1413680820459 32139 READING 1026 0.763013
1413680820655 32139 READING 1028 0.775524
1413680820855 32139 READING 1031 0.773821
1413680821066 32139 READING 1033 0.777464
1413680821187 32140 READING 174 0.998280
1413680821287 32139 READING 1036 0.765898
1413680821519 32139 READING 1046 0.765904
1413680821753 32139 READING 1046 0.789967
1413680822402 32140 READING 175 0.998386
1413680823640 32140 READING 179 0.998383
1413680824554 32139 READING 1059 0.966375
1413680824798 32140 READING 171 0.998590
1413680825933 32140 READING 175 0.998708
1413680826120 32140 FUNCTION lru lambda h: 0.905583 * (h ** 0.0182747)
1413680826120 32139 FUNCTION lru lambda h: 0.0908063 * (h ** 0.303652)
1413680826121 32140 RECOMMEND 140
1413680826121 32139 RECOMMEND 2330
1413680827080 32140 READING 175 0.998746
1413680827748 32139 READING 1062 0.975086
1413680828191 32140 READING 168 0.998786
1413680829214 32140 READING 158 0.998722
1413680830176 32140 READING 152 0.998382
1413680831123 32140 READING 145 0.998089
1413680831167 32139 READING 1073 0.978950
1413680831998 32140 READING 140 0.998307
1413680832849 32140 READING 134 0.998107
1413680833721 32140 READING 137 0.998262
1413680834403 32139 READING 1075 0.980285
1413680834610 32140 READING 138 0.998260
1413680835507 32140 READING 141 0.998037
1413680836121 32140 FUNCTION lru lambda h: 0.904066 * (h ** 0.0188564)
1413680836121 32139 FUNCTION lru lambda h: 0.0581753 * (h ** 0.373195)
1413680836122 32140 RECOMMEND 119
1413680836122 32139 RECOMMEND 2351
1413680836364 32140 READING 135 0.998298
1413680837165 32140 READING 129 0.998162
1413680837725 32139 READING 1074 0.979906
1413680837960 32140 READING 124 0.998313
1413680838689 32140 READING 120 0.998304
1413680839400 32140 READING 115 0.998398
1413680840075 32140 READING 111 0.998095
1413680840716 32140 READING 106 0.997756
1413680840996 32139 READING 1079 0.977815
1413680841350 32140 READING 102 0.997912
1413680841920 32140 READING 98 0.997508
1413680842469 32140 READING 95 0.997637
1413680842995 32140 READING 91 0.997427
1413680843508 32140 READING 88 0.997582
1413680844013 32140 READING 84 0.997791
1413680844486 32139 READING 1077 0.978122
1413680844499 32140 READING 81 0.997732
1413680844952 32140 READING 78 0.997002
1413680845370 32140 READING 76 0.997076
1413680845772 32140 READING 73 0.996956
1413680846122 32140 FUNCTION lru lambda h: 0.908912 * (h ** 0.0184161)
1413680846122 32139 FUNCTION lru lambda h: 0.0339449 * (h ** 0.45602)
1413680846123 32140 RECOMMEND 96
1413680846123 32139 RECOMMEND 2374
1413680846168 32140 READING 71 0.996862
1413680846553 32140 READING 68 0.996600
1413680846909 32140 READING 66 0.996712
1413680847262 32140 READING 64 0.996810
1413680847594 32140 READING 62 0.996643
1413680847923 32139 READING 1079 0.978522
1413680847930 32140 READING 60 0.996860
1413680848235 32140 READING 58 0.996607
1413680848526 32140 READING 57 0.995594
1413680848834 32140 READING 58 0.995973
1413680849157 32140 READING 60 0.996121
1413680849486 32140 READING 61 0.996047
1413680849834 32140 READING 63 0.996505
1413680850154 32140 READING 61 0.996465
1413680850456 32140 READING 59 0.996566
1413680850759 32140 READING 57 0.996687
1413680851040 32140 READING 56 0.996464
1413680851326 32140 READING 54 0.995995
1413680851539 32139 READING 1083 0.978428
1413680851618 32140 READING 53 0.996086
1413680851877 32140 READING 51 0.996108
1413680852116 32140 READING 50 0.995856
1413680852360 32140 READING 48 0.994786
1413680852593 32140 READING 50 0.994726
1413680852853 32140 READING 51 0.995147
1413680853119 32140 READING 53 0.995642
1413680853386 32140 READING 54 0.995768
1413680853664 32140 READING 56 0.995696
1413680853961 32140 READING 57 0.995551
1413680854273 32140 READING 59 0.995711
1413680854596 32140 READING 60 0.996108
1413680854799 32139 READING 1084 0.976019
1413680854924 32140 READING 58 0.996284
1413680855220 32140 READING 57 0.995778
1413680855502 32140 READING 55 0.996021
1413680855781 32140 READING 54 0.996254
1413680856039 32140 READING 52 0.996153
1413680856124 32140 FUNCTION lru lambda h: 0.930077 * (h ** 0.0141881)
1413680856124 32139 FUNCTION lru lambda h: 0.0238282 * (h ** 0.510055)
1413680856124 32140 RECOMMEND 67
1413680856124 32139 RECOMMEND 2403
1413680856287 32140 READING 51 0.995627
1413680856525 32140 READING 49 0.994932
1413680856783 32140 READING 51 0.995357
1413680857045 32140 READING 52 0.995516
1413680857295 32140 READING 51 0.995651
1413680857535 32140 READING 49 0.995641
1413680857772 32140 READING 48 0.994803
1413680858017 32140 READING 50 0.995105
1413680858276 32140 READING 51 0.995416
1413680858434 32139 READING 1088 0.977235
1413680858543 32140 READING 50 0.994916
1413680858801 32140 READING 51 0.994929
1413680859070 32140 READING 53 0.994281
1413680859343 32140 READING 54 0.995065
1413680859628 32140 READING 56 0.994657
1413680859935 32140 READING 58 0.993869
1413680860248 32140 READING 60 0.994981
1413680860568 32140 READING 62 0.995782
1413680860912 32140 READING 64 0.996144
1413680861239 32140 READING 62 0.996091
1413680861548 32140 READING 60 0.996115
1413680861842 32140 READING 58 0.996355
1413680862074 32139 READING 1091 0.977519
1413680862155 32140 READING 56 0.995839
1413680862433 32140 READING 55 0.994278
1413680862727 32140 READING 56 0.995320
1413680863005 32140 READING 55 0.995525
1413680863274 32140 READING 53 0.995810
1413680863519 32140 READING 52 0.995964
1413680863772 32140 READING 50 0.995092
1413680864018 32140 READING 49 0.994262
1413680864269 32140 READING 50 0.995139
1413680864502 32140 READING 49 0.993553
1413680864762 32140 READING 50 0.994084
1413680865024 32140 READING 52 0.994726
1413680865299 32140 READING 53 0.995013
1413680865574 32140 READING 55 0.995500
1413680865655 32139 READING 1094 0.978132
1413680865866 32140 READING 53 0.994912
1413680866125 32140 FUNCTION lru lambda h: 0.932109 * (h ** 0.0137741)
1413680866125 32139 FUNCTION lru lambda h: 0.0172641 * (h ** 0.559328)
1413680866126 32140 RECOMMEND 59
1413680866126 32139 RECOMMEND 2411
1413680866130 32140 READING 52 0.995169
1413680866372 32140 READING 50 0.995214
1413680866603 32140 READING 49 0.994337
1413680866836 32140 READING 48 0.994837
1413680867062 32140 READING 47 0.994942
1413680867278 32140 READING 46 0.995013
1413680867487 32140 READING 45 0.994861
1413680867692 32140 READING 44 0.994921
1413680867888 32140 READING 43 0.994745
1413680868078 32140 READING 42 0.994685
1413680868251 32140 READING 41 0.992305
1413680868442 32140 READING 42 0.993346
1413680868648 32140 READING 44 0.993548
1413680868860 32140 READING 45 0.994590
1413680869094 32140 READING 47 0.994983
1413680869096 32139 READING 1098 0.977154
1413680869333 32140 READING 48 0.995309
1413680869549 32140 READING 47 0.994963
1413680869775 32140 READING 46 0.993916
1413680870008 32140 READING 48 0.993685
1413680870251 32140 READING 49 0.994047
1413680870504 32140 READING 51 0.995015
1413680870748 32140 READING 49 0.993620
1413680871005 32140 READING 51 0.994712
1413680871279 32140 READING 52 0.994638
1413680871550 32140 READING 54 0.995402
1413680871814 32140 READING 52 0.995427
1413680872067 32140 READING 51 0.995857
1413680872298 32140 READING 49 0.995397
1413680872533 32140 READING 48 0.994898
1413680872756 32140 READING 47 0.994740
1413680872873 32139 READING 1101 0.977487
1413680872999 32140 READING 46 0.994805
1413680873208 32140 READING 45 0.995130
1413680873412 32140 READING 44 0.994968
1413680873610 32140 READING 43 0.995073
1413680873801 32140 READING 42 0.993872
1413680873985 32140 READING 41 0.993241
1413680874186 32140 READING 43 0.993327
1413680874392 32140 READING 44 0.994278
1413680874612 32140 READING 46 0.994254
1413680874837 32140 READING 47 0.994819
1413680875059 32140 READING 46 0.994441
1413680875277 32140 READING 45 0.993961
1413680875502 32140 READING 47 0.992459
1413680875734 32140 READING 48 0.993368
1413680875987 32140 READING 50 0.994102
1413680876126 32140 FUNCTION lru lambda h: 0.948697 * (h ** 0.0103099)
1413680876126 32139 FUNCTION lru lambda h: 0.0136101 * (h ** 0.595263)
1413680876128 32140 RECOMMEND 42
1413680876128 32139 RECOMMEND 2428
1413680876251 32140 READING 52 0.993606
1413680876513 32140 READING 50 0.993416
1413680876549 32139 READING 1106 0.977101
1413680876760 32140 READING 49 0.994332
1413680876990 32140 READING 48 0.994497
1413680877221 32140 READING 47 0.995080
1413680877443 32140 READING 46 0.993998
1413680877656 32140 READING 45 0.993273
1413680877862 32140 READING 44 0.993971
1413680878061 32140 READING 43 0.993911
1413680878260 32140 READING 43 0.993710
1413680878458 32140 READING 42 0.994309
1413680878644 32140 READING 42 0.993932
1413680878827 32140 READING 41 0.993952
1413680879003 32140 READING 40 0.993798
1413680879190 32140 READING 41 0.992772
1413680879380 32140 READING 43 0.993426
1413680879576 32140 READING 42 0.992916
1413680879768 32140 READING 42 0.993573
1413680879964 32140 READING 43 0.992713
1413680880162 32140 READING 43 0.992646
1413680880365 32140 READING 42 0.992920
1413680880540 32140 READING 42 0.992395
1413680880730 32140 READING 43 0.992316
1413680880919 32140 READING 43 0.992418
1413680881104 32140 READING 42 0.992413
1413680881284 32140 READING 42 0.992298
1413680881471 32140 READING 43 0.992555
1413680881659 32140 READING 43 0.989812
1413680881846 32140 READING 42 0.991141
1413680882025 32140 READING 42 0.992567
1413680882118 32139 READING 1110 0.942581
1413680882217 32140 READING 43 0.993601
1413680882407 32140 READING 43 0.993978
1413680882598 32140 READING 42 0.994346
1413680882790 32140 READING 42 0.994302
1413680883002 32140 READING 43 0.994736
1413680883193 32140 READING 43 0.994516
1413680883385 32140 READING 42 0.993703
1413680883571 32140 READING 42 0.993005
1413680883773 32140 READING 43 0.993101
1413680883967 32140 READING 43 0.993822
1413680884164 32140 READING 42 0.994231
1413680884354 32140 READING 42 0.994507
1413680884534 32140 READING 41 0.994087
1413680884709 32140 READING 40 0.993465
1413680884903 32140 READING 41 0.993755
1413680885079 32140 READING 40 0.993416
1413680885266 32140 READING 42 0.993399
1413680885459 32140 READING 43 0.994311
1413680885635 32139 READING 1209 0.974157
1413680885675 32140 READING 43 0.994036
1413680885870 32140 READING 42 0.994256
1413680886048 32140 READING 42 0.994198
1413680886128 32140 FUNCTION lru lambda h: 0.949762 * (h ** 0.0100855)
1413680886128 32139 FUNCTION lru lambda h: 0.012875 * (h ** 0.603738)
1413680886129 32140 RECOMMEND 41
1413680886129 32139 RECOMMEND 2429
1413680886230 32140 READING 41 0.994345
1413680886404 32140 READING 40 0.992712
1413680886587 32140 READING 41 0.993483
1413680886770 32140 READING 41 0.993268
1413680886972 32140 READING 42 0.993063
1413680887168 32140 READING 42 0.993885
1413680887352 32140 READING 41 0.992603
1413680887539 32140 READING 41 0.992501
1413680887736 32140 READING 42 0.993348
1413680887919 32140 READING 42 0.993715
1413680888102 32140 READING 41 0.992131
1413680888284 32140 READING 41 0.992486
1413680888473 32140 READING 42 0.993014
1413680888662 32140 READING 42 0.992585
1413680888854 32140 READING 41 0.992733
1413680889036 32140 READING 41 0.992545
1413680889227 32140 READING 42 0.993459
1413680889422 32140 READING 42 0.993873
1413680889472 32139 READING 1211 0.982337
1413680889620 32140 READING 41 0.994096
1413680889799 32140 READING 41 0.993905
1413680889980 32140 READING 40 0.993015
1413680890162 32140 READING 41 0.993434
1413680890338 32140 READING 41 0.993290
1413680890513 32140 READING 40 0.993412
1413680890687 32140 READING 39 0.993239
1413680890862 32140 READING 40 0.993408
1413680891054 32140 READING 42 0.993701
1413680891233 32140 READING 41 0.993982
1413680891408 32140 READING 41 0.993934
1413680891584 32140 READING 40 0.992794
1413680891762 32140 READING 41 0.993627
1413680891941 32140 READING 41 0.991960
1413680892133 32140 READING 42 0.992647
1413680892319 32140 READING 42 0.992608
1413680892501 32140 READING 41 0.993116
1413680892681 32140 READING 41 0.993312
1413680892870 32139 READING 1216 0.984797
1413680892886 32140 READING 42 0.993903
1413680893073 32140 READING 42 0.993201
1413680893254 32140 READING 41 0.992946
1413680893431 32140 READING 41 0.993624
1413680893612 32140 READING 40 0.993290
1413680893799 32140 READING 41 0.993475
1413680893979 32140 READING 41 0.993075
1413680894165 32140 READING 42 0.993775
1413680894353 32140 READING 42 0.993548
1413680894538 32140 READING 41 0.993254
1413680894723 32140 READING 41 0.993057
1413680894907 32140 READING 42 0.992728
1413680895096 32140 READING 42 0.993645
1413680895275 32140 READING 41 0.993172
1413680895458 32140 READING 41 0.993113
1413680895648 32140 READING 42 0.993104
1413680895838 32140 READING 42 0.993868
1413680896022 32140 READING 41 0.994121
1413680896129 32140 FUNCTION lru lambda h: 0.950456 * (h ** 0.00993844)
1413680896129 32139 FUNCTION lru lambda h: 0.00944258 * (h ** 0.649757)
1413680896130 32140 RECOMMEND 37
1413680896130 32139 RECOMMEND 2433
1413680896206 32140 READING 41 0.993532
1413680896390 32140 READING 40 0.993292
1413680896576 32139 READING 1220 0.986881
1413680896585 32140 READING 40 0.993715
1413680896752 32140 READING 39 0.993313
1413680896918 32140 READING 39 0.993020
1413680897080 32140 READING 38 0.993272
1413680897236 32140 READING 38 0.992069
1413680897397 32140 READING 37 0.992091
1413680897553 32140 READING 37 0.992123
1413680897721 32140 READING 38 0.992989
1413680897884 32140 READING 38 0.992334
1413680898034 32140 READING 37 0.988363
1413680898191 32140 READING 37 0.990619
1413680898355 32140 READING 38 0.992298
1413680898511 32140 READING 38 0.992558
1413680898663 32140 READING 37 0.992693
1413680898810 32140 READING 37 0.992313
1413680898973 32140 READING 38 0.992873
1413680899134 32140 READING 38 0.992272
1413680899293 32140 READING 37 0.991667
1413680899449 32140 READING 37 0.991260
1413680899611 32140 READING 38 0.991990
1413680899777 32140 READING 38 0.992385
1413680899941 32140 READING 37 0.990708
1413680900099 32140 READING 37 0.991903
1413680900209 32139 READING 1221 0.987118
1413680900273 32140 READING 38 0.992724
1413680900430 32140 READING 38 0.992826
1413680900584 32140 READING 37 0.992939
1413680900734 32140 READING 37 0.992735
1413680900897 32140 READING 38 0.991799
1413680901056 32140 READING 38 0.991949
1413680901216 32140 READING 37 0.991813
1413680901370 32140 READING 37 0.992359
1413680901536 32140 READING 38 0.993332
1413680901697 32140 READING 38 0.993414
1413680901855 32140 READING 37 0.993449
1413680902006 32140 READING 37 0.993446
1413680902154 32140 READING 36 0.993447
1413680902300 32140 READING 36 0.993331
1413680902443 32140 READING 35 0.993088
1413680902580 32140 READING 35 0.993019
1413680902714 32140 READING 34 0.991109
1413680902860 32140 READING 36 0.990468
1413680903014 32140 READING 37 0.991098
1413680903163 32140 READING 37 0.991074
1413680903332 32140 READING 38 0.991743
1413680903492 32140 READING 38 0.991912
1413680903649 32140 READING 37 0.991015
1413680903763 32139 READING 1213 0.986641
1413680903819 32140 READING 37 0.991741
1413680903982 32140 READING 38 0.992413
1413680904139 32140 READING 38 0.993127
1413680904297 32140 READING 37 0.992361
1413680904450 32140 READING 37 0.991418
1413680904613 32140 READING 38 0.992356
1413680904775 32140 READING 38 0.992861
1413680904926 32140 READING 37 0.992481
1413680905083 32140 READING 37 0.993154
1413680905242 32140 READING 38 0.993263
1413680905403 32140 READING 38 0.993207
1413680905556 32140 READING 37 0.992900
1413680905708 32140 READING 37 0.991872
1413680905874 32140 READING 38 0.990656
1413680906040 32140 READING 38 0.991104
1413680906131 32140 FUNCTION lru lambda h: 0.959987 * (h ** 0.00791989)
1413680906131 32139 FUNCTION lru lambda h: 0.00551414 * (h ** 0.729185)
1413680906131 32140 RECOMMEND 27
1413680906131 32139 RECOMMEND 2443
1413680906196 32140 READING 37 0.991715
1413680906353 32140 READING 37 0.990613
1413680906499 32140 READING 36 0.991878
1413680906647 32140 READING 36 0.992587
1413680906785 32140 READING 35 0.992768
1413680906926 32140 READING 35 0.992352
1413680907062 32140 READING 34 0.992108
1413680907188 32140 READING 34 0.992008
1413680907314 32140 READING 33 0.992259
1413680907429 32139 READING 1136 0.984058
1413680907452 32140 READING 33 0.991763
1413680907570 32140 READING 32 0.991726
1413680907685 32140 READING 32 0.990860
1413680907795 32140 READING 31 0.990813
1413680907907 32140 READING 31 0.990782
1413680908023 32140 READING 31 0.991290
1413680908138 32140 READING 31 0.991065
1413680908253 32140 READING 31 0.990731
1413680908369 32140 READING 31 0.990331
1413680908485 32140 READING 31 0.991002
1413680908593 32140 READING 31 0.990791
1413680908704 32140 READING 31 0.990058
1413680908819 32140 READING 31 0.990427
1413680908934 32140 READING 31 0.989676
1413680909045 32140 READING 31 0.990023
1413680909158 32140 READING 31 0.990300
1413680909267 32140 READING 31 0.990086
1413680909379 32140 READING 31 0.990614
1413680909492 32140 READING 31 0.987964
1413680909614 32140 READING 31 0.989851
1413680909726 32140 READING 31 0.989120
1413680909840 32140 READING 31 0.989043
1413680909953 32140 READING 31 0.987512
1413680910069 32140 READING 31 0.988733
1413680910182 32140 READING 31 0.990000
1413680910298 32140 READING 31 0.990421
1413680910407 32140 READING 31 0.990478
1413680910523 32140 READING 31 0.991143
1413680910631 32140 READING 31 0.990267
1413680910742 32140 READING 31 0.990557
1413680910850 32140 READING 31 0.990414
1413680910942 32139 READING 1204 0.983648
1413680910976 32140 READING 31 0.990637
1413680911090 32140 READING 31 0.988589
1413680911209 32140 READING 31 0.988997
1413680911319 32140 READING 31 0.989203
1413680911438 32140 READING 31 0.988412
1413680911551 32140 READING 31 0.988541
1413680911666 32140 READING 31 0.989812
1413680911773 32140 READING 31 0.990177
1413680911890 32140 READING 31 0.990917
1413680911996 32140 READING 31 0.989773
1413680912111 32140 READING 31 0.989790
1413680912226 32140 READING 31 0.988257
1413680912342 32140 READING 31 0.988598
1413680912456 32140 READING 31 0.989380
1413680912573 32140 READING 31 0.989450
1413680912689 32140 READING 31 0.988248
1413680912802 32140 READING 31 0.989754
1413680912913 32140 READING 31 0.988968
1413680913029 32140 READING 31 0.989716
1413680913148 32140 READING 31 0.989103
1413680913262 32140 READING 31 0.989538
1413680913378 32140 READING 31 0.989712
1413680913493 32140 READING 31 0.990193
1413680913606 32140 READING 31 0.989732
1413680913721 32140 READING 31 0.990722
1413680913833 32140 READING 31 0.989620
1413680913946 32140 READING 31 0.989067
1413680914059 32140 READING 31 0.989956
1413680914171 32140 READING 31 0.990419
1413680914280 32140 READING 31 0.990450
1413680914393 32140 READING 31 0.990613
1413680914509 32140 READING 31 0.989927
1413680914614 32139 READING 1152 0.982408
1413680914635 32140 READING 31 0.988371
1413680914759 32140 READING 31 0.989053
1413680914873 32140 READING 31 0.989823
1413680914987 32140 READING 31 0.989497
1413680915099 32140 READING 31 0.990361
1413680915212 32140 READING 31 0.988472
1413680915325 32140 READING 31 0.989717
1413680915441 32140 READING 31 0.989573
1413680915551 32140 READING 31 0.990572
1413680915661 32140 READING 31 0.989497
1413680915775 32140 READING 31 0.989285
1413680915888 32140 READING 31 0.990051
1413680916005 32140 READING 31 0.989845
1413680916112 32140 READING 31 0.990176
1413680916132 32140 FUNCTION lru lambda h: 0.961304 * (h ** 0.00763704)
1413680916132 32139 FUNCTION lru lambda h: 0.00311657 * (h ** 0.813178)
1413680916132 32140 RECOMMEND 23
1413680916132 32139 RECOMMEND 2447
1413680916228 32140 READING 31 0.988492
1413680916333 32140 READING 31 0.989752
1413680916438 32140 READING 30 0.989387
1413680916544 32140 READING 30 0.988905
1413680916653 32140 READING 30 0.988968
1413680916759 32140 READING 30 0.990361
1413680916862 32140 READING 30 0.988122
1413680916972 32140 READING 30 0.989027
1413680917073 32140 READING 30 0.989678
1413680917178 32140 READING 30 0.988893
1413680917282 32140 READING 30 0.988986
1413680917387 32140 READING 30 0.988985
1413680917492 32140 READING 30 0.989152
1413680917595 32140 READING 30 0.989969
1413680917702 32140 READING 30 0.988777
1413680917807 32140 READING 30 0.989559
1413680917908 32140 READING 30 0.989370
1413680918018 32140 READING 30 0.989877
1413680918143 32140 READING 30 0.989690
1413680918187 32139 READING 1202 0.981764
1413680918251 32140 READING 30 0.990432
1413680918355 32140 READING 30 0.989452
1413680918461 32140 READING 30 0.990068
1413680918563 32140 READING 30 0.989736
1413680918674 32140 READING 30 0.990015
1413680918774 32140 READING 30 0.990469
1413680918884 32140 READING 30 0.989994
1413680918993 32140 READING 30 0.990460
1413680919093 32140 READING 30 0.988893
1413680919200 32140 READING 30 0.989753
1413680919315 32140 READING 30 0.987761
1413680919424 32140 READING 30 0.987740
1413680919528 32140 READING 30 0.988825
1413680919633 32140 READING 30 0.988833
1413680919741 32140 READING 30 0.988698
1413680919847 32140 READING 30 0.989235
1413680919949 32140 READING 30 0.990299
1413680920059 32140 READING 30 0.989002
1413680920170 32140 READING 30 0.988855
1413680920273 32140 READING 30 0.989789
1413680920377 32140 READING 30 0.988918
1413680920486 32140 READING 30 0.988297
1413680920595 32140 READING 30 0.989088
1413680920702 32140 READING 30 0.988393
1413680920807 32140 READING 30 0.988686
1413680920911 32140 READING 30 0.989551
1413680921020 32140 READING 30 0.988546
1413680921118 32140 READING 30 0.987518
1413680921227 32140 READING 30 0.988175
1413680921337 32140 READING 30 0.989944
1413680921442 32140 READING 30 0.990558
1413680921554 32140 READING 30 0.988107
1413680921662 32140 READING 30 0.989246
1413680921772 32140 READING 30 0.987846
1413680921880 32140 READING 30 0.988028
1413680921987 32140 READING 30 0.985884
1413680922104 32139 READING 1205 0.981570
1413680922112 32140 READING 30 0.989403
1413680922219 32140 READING 30 0.989424
1413680922324 32140 READING 30 0.989769
1413680922429 32140 READING 30 0.988965
1413680922536 32140 READING 30 0.989018
1413680922640 32140 READING 30 0.988943
1413680922753 32140 READING 30 0.990087
1413680922855 32140 READING 30 0.989618
1413680922960 32140 READING 30 0.989647
1413680923070 32140 READING 30 0.989578
1413680923176 32140 READING 30 0.989281
1413680923282 32140 READING 30 0.989830
1413680923389 32140 READING 30 0.990035
1413680923491 32140 READING 30 0.990022
1413680923598 32140 READING 30 0.989720
1413680923708 32140 READING 30 0.990321
1413680923811 32140 READING 30 0.988954
1413680923926 32140 READING 30 0.988302
1413680924028 32140 READING 30 0.989055
1413680924129 32140 READING 30 0.988970
1413680924237 32140 READING 30 0.986840
1413680924337 32140 READING 30 0.985684
1413680924445 32140 READING 30 0.986423
1413680924553 32140 READING 30 0.987731
1413680924662 32140 READING 30 0.985333
1413680924773 32140 READING 30 0.987792
1413680924878 32140 READING 30 0.988759
1413680924983 32140 READING 30 0.988737
1413680925096 32140 READING 30 0.989050
1413680925203 32140 READING 30 0.989056
1413680925309 32140 READING 30 0.988632
1413680925423 32140 READING 30 0.987403
1413680925530 32140 READING 30 0.988906
1413680925636 32140 READING 30 0.988679
1413680925741 32140 READING 30 0.989687
1413680925823 32139 READING 1206 0.980887
1413680925866 32140 READING 30 0.989852
1413680925976 32140 READING 30 0.987362
1413680926079 32140 READING 30 0.988847
1413680926133 32140 FUNCTION lru lambda h: 0.965724 * (h ** 0.00668371)
1413680926133 32139 FUNCTION lru lambda h: 0.00177997 * (h ** 0.89507)
1413680926133 32140 RECOMMEND 18
1413680926133 32139 RECOMMEND 2452
1413680926185 32140 READING 30 0.988393
1413680926296 32140 READING 30 0.989098
1413680926394 32140 READING 29 0.988975
1413680926487 32140 READING 29 0.989069
1413680926576 32140 READING 28 0.988943
1413680926669 32140 READING 28 0.988915
1413680926759 32140 READING 28 0.988151
1413680926850 32140 READING 28 0.988374
1413680926973 32140 READING 28 0.970314
1413680927012 32140 READING 28 0.943216
1413680927084 32140 READING 29 0.921273
1413680927130 32140 READING 29 0.900659
1413680927192 32140 READING 29 0.884008
1413680927240 32140 READING 29 0.896787
1413680927305 32140 READING 30 0.931858
1413680927337 32140 READING 30 0.922361
1413680927450 32140 READING 30 0.994254
1413680927509 32140 READING 28 0.934835
1413680927559 32140 READING 28 0.950883
1413680927624 32140 READING 28 0.957832
1413680927678 32140 READING 28 0.932545
1413680927714 32140 READING 28 0.890406
1413680927754 32140 READING 28 0.874910
1413680927798 32140 READING 28 0.902375
1413680927864 32140 READING 27 0.929650
1413680927899 32140 READING 27 0.921478
1413680927945 32140 READING 29 0.929705
1413680927992 32140 READING 27 0.939936
1413680928034 32140 READING 29 0.934000
1413680928074 32140 READING 27 0.944596
1413680928110 32140 READING 29 0.939142
1413680928145 32140 READING 27 0.938720
1413680928192 32140 READING 29 0.942360
1413680928230 32140 READING 27 0.927047
1413680928315 32140 READING 28 0.952224
1413680928412 32140 READING 27 0.970820
1413680928514 32140 READING 28 0.978964
1413680928613 32140 READING 27 0.981447
1413680928705 32140 READING 28 0.983270
1413680928801 32140 READING 27 0.984098
1413680928895 32140 READING 28 0.984951
1413680929000 32140 READING 27 0.986897
1413680929096 32140 READING 28 0.987156
1413680929193 32140 READING 27 0.988626
1413680929296 32140 READING 28 0.989118
1413680929410 32140 READING 27 0.988047
1413680929490 32139 READING 1208 0.974545
1413680929519 32140 READING 28 0.989575
1413680929611 32140 READING 27 0.988702
1413680929709 32140 READING 28 0.988463
1413680929804 32140 READING 27 0.987639
1413680929899 32140 READING 28 0.985182
1413680929995 32140 READING 27 0.987139
1413680930082 32140 READING 28 0.986901
1413680930182 32140 READING 27 0.987367
1413680930276 32140 READING 28 0.988120
1413680930374 32140 READING 27 0.987955
1413680930470 32140 READING 28 0.985780
1413680930562 32140 READING 27 0.984941
1413680930660 32140 READING 27 0.986986
1413680930755 32140 READING 27 0.988420
1413680930855 32140 READING 27 0.989540
1413680930948 32140 READING 27 0.987276
1413680931043 32140 READING 27 0.987344
1413680931139 32140 READING 27 0.987592
1413680931231 32140 READING 27 0.984940
1413680931330 32140 READING 27 0.984395
1413680931425 32140 READING 27 0.986003
1413680931528 32140 READING 27 0.985799
1413680931622 32140 READING 27 0.985038
1413680931715 32140 READING 27 0.987618
1413680931820 32140 READING 27 0.988033
1413680931912 32140 READING 27 0.986357
1413680932013 32140 READING 27 0.987575
1413680932108 32140 READING 27 0.988490
1413680932198 32140 READING 27 0.988159
1413680932291 32140 READING 27 0.988296
1413680932376 32140 READING 27 0.987692
1413680932476 32140 READING 27 0.988650
1413680932566 32140 READING 27 0.987716
1413680932668 32140 READING 27 0.987248
1413680932766 32140 READING 27 0.986859
1413680932866 32140 READING 27 0.987483
1413680932967 32140 READING 27 0.988628
1413680933059 32140 READING 27 0.988251
1413680933170 32140 READING 27 0.988831
1413680933227 32139 READING 1210 0.976231
1413680933268 32140 READING 27 0.988555
1413680933360 32140 READING 27 0.987858
1413680933456 32140 READING 27 0.988541
1413680933543 32140 READING 27 0.988127
1413680933638 32140 READING 27 0.988229
1413680933736 32140 READING 27 0.989152
1413680933828 32140 READING 27 0.989447
1413680933919 32140 READING 27 0.987019
1413680934011 32140 READING 27 0.987757
1413680934107 32140 READING 27 0.987506
1413680934193 32140 READING 27 0.987757
1413680934286 32140 READING 27 0.987064
1413680934377 32140 READING 27 0.986820
1413680934467 32140 READING 27 0.986444
1413680934562 32140 READING 27 0.987014
1413680934652 32140 READING 27 0.988243
1413680934748 32140 READING 27 0.986674
1413680934841 32140 READING 27 0.987489
1413680934936 32140 READING 27 0.988619
1413680935028 32140 READING 27 0.988784
1413680935119 32140 READING 27 0.988212
1413680935213 32140 READING 27 0.988606
1413680935306 32140 READING 27 0.985079
1413680935400 32140 READING 27 0.986803
1413680935495 32140 READING 27 0.985174
1413680935592 32140 READING 27 0.982807
1413680935697 32140 READING 27 0.983412
1413680935796 32140 READING 27 0.984599
1413680935890 32140 READING 27 0.986835
1413680935986 32140 READING 27 0.986380
1413680936077 32140 READING 27 0.987561
1413680936133 32140 FUNCTION lru lambda h: 0.958227 * (h ** 0.0083065)
1413680936133 32139 FUNCTION lru lambda h: 0.00136784 * (h ** 0.933355)
1413680936134 32140 RECOMMEND 22
1413680936135 32139 RECOMMEND 2448
1413680936170 32140 READING 27 0.987030
1413680936263 32140 READING 27 0.987158
1413680936359 32140 READING 27 0.986193
1413680936454 32140 READING 27 0.986371
1413680936546 32140 READING 27 0.986671
1413680936638 32140 READING 27 0.985949
1413680936726 32140 READING 27 0.986668
1413680936841 32140 READING 27 0.986695
1413680936868 32139 READING 1215 0.972249
1413680936940 32140 READING 27 0.986320
1413680937033 32140 READING 27 0.986369
1413680937130 32140 READING 27 0.987363
1413680937216 32140 READING 27 0.986219
1413680937315 32140 READING 27 0.987308
1413680937407 32140 READING 27 0.986518
1413680937505 32140 READING 27 0.983096
1413680937602 32140 READING 27 0.983882
1413680937698 32140 READING 27 0.985116
1413680937797 32140 READING 27 0.987031
1413680937881 32140 READING 27 0.986861
1413680937983 32140 READING 27 0.988454
1413680938079 32140 READING 27 0.988869
1413680938165 32140 READING 27 0.988110
1413680938258 32140 READING 27 0.987319
1413680938349 32140 READING 27 0.987585
1413680938441 32140 READING 27 0.986400
1413680938534 32140 READING 27 0.985068
1413680938625 32140 READING 27 0.987295
1413680938718 32140 READING 27 0.987079
1413680938812 32140 READING 27 0.987831
1413680938906 32140 READING 27 0.988338
1413680938999 32140 READING 27 0.987938
1413680939093 32140 READING 27 0.986972
1413680939189 32140 READING 27 0.987080
1413680939281 32140 READING 27 0.988534
1413680939374 32140 READING 27 0.986569
1413680939467 32140 READING 27 0.987664
1413680939559 32140 READING 27 0.986407
1413680939646 32140 READING 27 0.987006
1413680939741 32140 READING 27 0.984997
1413680939833 32140 READING 27 0.986666
1413680939925 32140 READING 27 0.986570
1413680940019 32140 READING 27 0.987696
1413680940109 32140 READING 27 0.986530
1413680940203 32140 READING 27 0.985424
1413680940298 32140 READING 27 0.986092
1413680940405 32140 READING 27 0.987798
1413680940475 32139 READING 1218 0.973370
1413680940502 32140 READING 27 0.987243
1413680940595 32140 READING 27 0.987155
1413680940686 32140 READING 27 0.986771
1413680940775 32140 READING 27 0.987057
1413680940869 32140 READING 27 0.986213
1413680940967 32140 READING 27 0.987849
1413680941062 32140 READING 27 0.986463
1413680941166 32140 READING 27 0.986401
1413680941253 32140 READING 27 0.985608
1413680941350 32140 READING 27 0.986748
1413680941444 32140 READING 27 0.985157
1413680941539 32140 READING 27 0.986435
1413680941634 32140 READING 27 0.985725
1413680941727 32140 READING 27 0.985999
1413680941824 32140 READING 27 0.986672
1413680941913 32140 READING 27 0.986050
1413680942008 32140 READING 27 0.985978
1413680942098 32140 READING 27 0.986929
1413680942189 32140 READING 27 0.986909
1413680942282 32140 READING 27 0.987889
1413680942373 32140 READING 27 0.987759
1413680942468 32140 READING 27 0.988131
1413680942564 32140 READING 27 0.987692
1413680942658 32140 READING 27 0.988270
1413680942752 32140 READING 27 0.989334
1413680942840 32140 READING 27 0.988722
1413680942935 32140 READING 27 0.988736
1413680943027 32140 READING 27 0.987977
1413680943118 32140 READING 27 0.988036
1413680943211 32140 READING 27 0.988412
1413680943309 32140 READING 27 0.988342
1413680943410 32140 READING 27 0.987759
1413680943506 32140 READING 27 0.988748
1413680943594 32140 READING 27 0.989178
1413680943686 32140 READING 27 0.988721
1413680943780 32140 READING 27 0.984916
1413680943884 32140 READING 27 0.986035
1413680943971 32140 READING 27 0.987529
1413680944078 32140 READING 27 0.986722
1413680944151 32139 READING 1225 0.974406
1413680944176 32140 READING 27 0.986362
1413680944268 32140 READING 27 0.987054
1413680944361 32140 READING 27 0.987787
1413680944458 32140 READING 27 0.988777
1413680944553 32140 READING 27 0.986723
1413680944647 32140 READING 27 0.987189
1413680944736 32140 READING 27 0.988269
1413680944830 32140 READING 27 0.987377
1413680944922 32140 READING 27 0.986589
1413680945019 32140 READING 27 0.987771
1413680945113 32140 READING 27 0.986183
1413680945204 32140 READING 27 0.987492
1413680945298 32140 READING 27 0.986795
1413680945390 32140 READING 27 0.988142
1413680945481 32140 READING 27 0.984743
1413680945574 32140 READING 27 0.984363
1413680945666 32140 READING 27 0.987185
1413680945755 32140 READING 27 0.987933
1413680945845 32140 READING 27 0.986321
1413680945940 32140 READING 27 0.986062
1413680946031 32140 READING 27 0.987398
1413680946122 32140 READING 27 0.986265
1413680946135 32140 FUNCTION lru lambda h: 0.958207 * (h ** 0.00831088)
1413680946135 32139 FUNCTION lru lambda h: 0.00231801 * (h ** 0.856256)
1413680946135 32140 RECOMMEND 24
1413680946135 32139 RECOMMEND 2446
1413680946209 32140 READING 27 0.987353
1413680946301 32140 READING 27 0.988586
1413680946394 32140 READING 27 0.988169
1413680946489 32140 READING 27 0.987181
1413680946588 32140 READING 27 0.986618
1413680946676 32140 READING 27 0.986154
1413680946772 32140 READING 27 0.987026
1413680946864 32140 READING 27 0.987937
1413680946955 32140 READING 27 0.987124
1413680947050 32140 READING 27 0.987831
1413680947139 32140 READING 27 0.986856
1413680947239 32140 READING 27 0.987515
1413680947334 32140 READING 27 0.986683
1413680947432 32140 READING 27 0.987134
1413680947524 32140 READING 27 0.988107
1413680947610 32140 READING 27 0.986987
1413680947705 32140 READING 27 0.986477
1413680947795 32140 READING 27 0.984778
1413680947901 32140 READING 27 0.986345
1413680947965 32139 READING 1230 0.974150
1413680947999 32140 READING 27 0.988031
1413680948094 32140 READING 27 0.988939
1413680948185 32140 READING 27 0.986992
1413680948273 32140 READING 27 0.984490
1413680948367 32140 READING 27 0.986829
1413680948457 32140 READING 27 0.988144
1413680948551 32140 READING 27 0.988935
1413680948646 32140 READING 27 0.987184
1413680948738 32140 READING 27 0.986153
1413680948834 32140 READING 27 0.986676
1413680948923 32140 READING 27 0.987365
1413680949028 32140 READING 27 0.987031
1413680949121 32140 READING 27 0.985231
1413680949213 32140 READING 27 0.987202
1413680949302 32140 READING 27 0.986925
1413680949391 32140 READING 27 0.987118
1413680949485 32140 READING 27 0.987786
1413680949578 32140 READING 27 0.987518
1413680949674 32140 READING 27 0.988945
1413680949765 32140 READING 27 0.988623
1413680949860 32140 READING 27 0.985914
1413680949960 32140 READING 27 0.986263
1413680950053 32140 READING 27 0.987978
1413680950145 32140 READING 27 0.988825
1413680950233 32140 READING 27 0.989189
1413680950323 32140 READING 27 0.989341
1413680950413 32140 READING 27 0.989292
1413680950500 32140 READING 27 0.989272
1413680950600 32140 READING 27 0.987952
1413680950690 32140 READING 27 0.988696
1413680950783 32140 READING 27 0.987831
1413680950874 32140 READING 27 0.988846
1413680950964 32140 READING 27 0.988365
1413680951062 32140 READING 27 0.987620
1413680951151 32140 READING 27 0.987839
1413680951243 32140 READING 27 0.985565
1413680951333 32140 READING 27 0.986791
1413680951428 32140 READING 27 0.986935
1413680951535 32140 READING 27 0.988567
1413680951582 32139 READING 1234 0.970269
1413680951628 32140 READING 27 0.988676
1413680951722 32140 READING 27 0.988320
1413680951814 32140 READING 27 0.989199
1413680951904 32140 READING 27 0.988960
1413680951998 32140 READING 27 0.987902
1413680952089 32140 READING 27 0.987351
1413680952180 32140 READING 27 0.987902
1413680952271 32140 READING 27 0.987610
1413680952367 32140 READING 27 0.988578
1413680952460 32140 READING 27 0.987107
1413680952558 32140 READING 27 0.988061
1413680952645 32140 READING 27 0.987761
1413680952739 32140 READING 27 0.985092
1413680952837 32140 READING 27 0.986488
1413680952929 32140 READING 27 0.984913
1413680953023 32140 READING 27 0.986096
1413680953111 32140 READING 27 0.986156
1413680953206 32140 READING 27 0.985983
1413680953302 32140 READING 27 0.984571
1413680953397 32140 READING 27 0.982957
1413680953488 32140 READING 27 0.984470
1413680953581 32140 READING 27 0.985767
1413680953673 32140 READING 27 0.986457
1413680953770 32140 READING 27 0.986536
1413680953865 32140 READING 27 0.985973
1413680953964 32140 READING 27 0.987083
1413680954050 32140 READING 27 0.987446
1413680954142 32140 READING 27 0.988494
1413680954233 32140 READING 27 0.988981
1413680954323 32140 READING 27 0.988964
1413680954421 32140 READING 27 0.988869
1413680954508 32140 READING 27 0.988640
1413680954602 32140 READING 27 0.988409
1413680954690 32140 READING 27 0.987510
1413680954785 32140 READING 27 0.987065
1413680954879 32140 READING 27 0.986563
1413680954973 32140 READING 27 0.985091
1413680955070 32140 READING 27 0.986267
1413680955158 32140 READING 27 0.987205
1413680955263 32140 READING 27 0.987750
1413680955378 32140 READING 27 0.986877
1413680955390 32139 READING 1240 0.972266
1413680955474 32140 READING 27 0.987274
1413680955570 32140 READING 27 0.987603
1413680955665 32140 READING 27 0.987538
1413680955761 32140 READING 27 0.987634
1413680955848 32140 READING 27 0.988127
1413680955943 32140 READING 27 0.988566
1413680956033 32140 READING 27 0.988268
1413680956123 32140 READING 27 0.988742
1413680956136 32140 FUNCTION lru lambda h: 0.958414 * (h ** 0.00826552)
1413680956136 32139 FUNCTION lru lambda h: 0.00210682 * (h ** 0.869761)
1413680956136 32140 RECOMMEND 23
1413680956136 32139 RECOMMEND 2447
1413680956213 32140 READING 27 0.988995
1413680956306 32140 READING 27 0.988164
1413680956401 32140 READING 27 0.987821
1413680956486 32140 READING 27 0.988164
1413680956583 32140 READING 27 0.989002
1413680956672 32140 READING 27 0.989086
1413680956766 32140 READING 27 0.985800
1413680956866 32140 READING 27 0.987404
1413680956953 32140 READING 27 0.988188
1413680957047 32140 READING 27 0.987649
1413680957142 32140 READING 27 0.987269
1413680957237 32140 READING 27 0.986913
1413680957326 32140 READING 27 0.987128
1413680957419 32140 READING 27 0.987319
1413680957516 32140 READING 27 0.987234
1413680957606 32140 READING 27 0.986506
1413680957703 32140 READING 27 0.987077
1413680957795 32140 READING 27 0.987129
1413680957894 32140 READING 27 0.986646
1413680957995 32140 READING 27 0.986934
1413680958089 32140 READING 27 0.987540
1413680958187 32140 READING 27 0.987981
1413680958280 32140 READING 27 0.987933
1413680958374 32140 READING 27 0.986057
1413680958463 32140 READING 27 0.987538
1413680958552 32140 READING 27 0.987722
1413680958647 32140 READING 27 0.988647
1413680958742 32140 READING 27 0.987416
1413680958834 32140 READING 27 0.987855
1413680958927 32140 READING 27 0.987702
1413680959019 32140 READING 27 0.987871
1413680959129 32140 READING 27 0.989178
1413680959137 32139 READING 1241 0.972996
1413680959224 32140 READING 27 0.988088
1413680959318 32140 READING 27 0.988086
1413680959412 32140 READING 27 0.988548
1413680959503 32140 READING 27 0.989056
1413680959591 32140 READING 27 0.987407
1413680959684 32140 READING 27 0.987822
1413680959777 32140 READING 27 0.988979
1413680959867 32140 READING 27 0.989429
1413680959959 32140 READING 27 0.986169
1413680960053 32140 READING 27 0.985340
1413680960145 32140 READING 27 0.987132
1413680960234 32140 READING 27 0.987761
1413680960327 32140 READING 27 0.980508
1413680960423 32140 READING 27 0.985240
1413680960514 32140 READING 27 0.986145
1413680960612 32140 READING 27 0.984786
1413680960711 32140 READING 27 0.987230
1413680960800 32140 READING 27 0.987546
1413680960896 32140 READING 27 0.988873
1413680960984 32140 READING 27 0.988889
1413680961074 32140 READING 27 0.986684
1413680961169 32140 READING 27 0.987588
1413680961264 32140 READING 27 0.985528
1413680961361 32140 READING 27 0.985479
1413680961448 32140 READING 27 0.986814
1413680961543 32140 READING 27 0.987815
1413680961637 32140 READING 27 0.988111
1413680961724 32140 READING 27 0.987598
1413680961820 32140 READING 27 0.985475
1413680961909 32140 READING 27 0.986439
1413680962004 32140 READING 27 0.986893
1413680962097 32140 READING 27 0.988062
1413680962191 32140 READING 27 0.988305
1413680962284 32140 READING 27 0.987149
1413680962379 32140 READING 27 0.985606
1413680962480 32140 READING 27 0.987728
1413680962568 32140 READING 27 0.988398
1413680962665 32140 READING 27 0.987337
1413680962758 32140 READING 27 0.987211
1413680962852 32140 READING 27 0.987045
1413680962949 32140 READING 27 0.987823
1413680963044 32140 READING 27 0.987968
1413680963141 32140 READING 27 0.987324
1413680963250 32140 READING 27 0.988530
1413680963271 32139 READING 1247 0.975497
1413680963343 32140 READING 27 0.988872
1413680963434 32140 READING 27 0.988519
1413680963528 32140 READING 27 0.988387
1413680963620 32140 READING 27 0.988487
1413680963715 32140 READING 27 0.987038
1413680963807 32140 READING 27 0.987454
1413680963899 32140 READING 27 0.985935
1413680963993 32140 READING 27 0.987447
1413680964085 32140 READING 27 0.987826
1413680964180 32140 READING 27 0.986504
1413680964275 32140 READING 27 0.984295
1413680964367 32140 READING 27 0.986529
1413680964461 32140 READING 27 0.987169
1413680964553 32140 READING 27 0.985401
1413680964647 32140 READING 27 0.986024
1413680964741 32140 READING 27 0.986257
1413680964829 32140 READING 27 0.986016
1413680964921 32140 READING 27 0.986884
1413680965007 32140 READING 27 0.985345
1413680965106 32140 READING 27 0.984558
1413680965200 32140 READING 27 0.984711
1413680965292 32140 READING 27 0.985391
1413680965383 32140 READING 27 0.985628
1413680965476 32140 READING 27 0.984901
1413680965571 32140 READING 27 0.986206
1413680965666 32140 READING 27 0.984209
1413680965759 32140 READING 27 0.986107
1413680965856 32140 READING 27 0.986354
1413680965947 32140 READING 27 0.986959
1413680966037 32140 READING 27 0.987679
1413680966125 32140 READING 27 0.988315
1413680966137 32140 FUNCTION lru lambda h: 0.958327 * (h ** 0.00828447)
1413680966137 32139 FUNCTION lru lambda h: 0.00191903 * (h ** 0.883007)
1413680966137 32140 RECOMMEND 23
1413680966137 32139 RECOMMEND 2447
1413680966218 32140 READING 27 0.981374
1413680966309 32140 READING 27 0.985223
1413680966400 32140 READING 27 0.986892
1413680966488 32140 READING 27 0.987567
1413680966576 32140 READING 27 0.988016
1413680966670 32140 READING 27 0.987481
1413680966766 32140 READING 27 0.985200
1413680966859 32140 READING 27 0.986416
1413680966951 32140 READING 27 0.979880
1413680967044 32140 READING 27 0.983380
1413680967155 32140 READING 27 0.986416
1413680967161 32139 READING 1247 0.974518
1413680967250 32140 READING 27 0.986691
1413680967345 32140 READING 27 0.986946
1413680967431 32140 READING 27 0.987837
1413680967522 32140 READING 27 0.988465
1413680967613 32140 READING 27 0.985699
1413680967706 32140 READING 27 0.987236
1413680967798 32140 READING 27 0.987131
1413680967893 32140 READING 27 0.987477
1413680967986 32140 READING 27 0.984843
1413680968080 32140 READING 27 0.984669
1413680968169 32140 READING 27 0.986525
1413680968264 32140 READING 27 0.986728
1413680968358 32140 READING 27 0.986634
1413680968450 32140 READING 27 0.988418
1413680968539 32140 READING 27 0.984256
1413680968627 32140 READING 27 0.985311
1413680968724 32140 READING 27 0.983447
1413680968814 32140 READING 27 0.986141
1413680968908 32140 READING 27 0.987069
1413680969001 32140 READING 27 0.985946
1413680969089 32140 READING 27 0.986724
1413680969183 32140 READING 27 0.987483
1413680969275 32140 READING 27 0.987655
1413680969374 32140 READING 27 0.982907
1413680969471 32140 READING 27 0.985433
1413680969560 32140 READING 27 0.985748
1413680969650 32140 READING 27 0.985384
1413680969742 32140 READING 27 0.985876
1413680969834 32140 READING 27 0.986805
1413680969922 32140 READING 27 0.987527
1413680970016 32140 READING 27 0.987613
1413680970106 32140 READING 27 0.985759
1413680970197 32140 READING 27 0.985076
1413680970287 32140 READING 27 0.987530
1413680970380 32140 READING 27 0.988265
1413680970473 32140 READING 27 0.988564
1413680970568 32140 READING 27 0.989285
1413680970658 32140 READING 27 0.989134
1413680970748 32140 READING 27 0.988954
1413680970838 32140 READING 27 0.988594
1413680970930 32140 READING 27 0.987327
1413680971056 32140 READING 27 0.989293
1413680971095 32139 READING 1251 0.973553
1413680971148 32140 READING 27 0.988212
1413680971240 32140 READING 27 0.989029
1413680971331 32140 READING 27 0.987684
1413680971425 32140 READING 27 0.987215
1413680971520 32140 READING 27 0.986746
1413680971609 32140 READING 27 0.987649
1413680971705 32140 READING 27 0.987052
1413680971798 32140 READING 27 0.987643
1413680971888 32140 READING 27 0.987047
1413680971981 32140 READING 27 0.986420
1413680972073 32140 READING 27 0.987443
1413680972165 32140 READING 27 0.986620
1413680972253 32140 READING 27 0.987944
1413680972349 32140 READING 27 0.988361
1413680972444 32140 READING 27 0.988667
1413680972537 32140 READING 27 0.988206
1413680972634 32140 READING 27 0.987454
1413680972722 32140 READING 27 0.987937
1413680972816 32140 READING 27 0.987198
1413680972903 32140 READING 27 0.987247
1413680972996 32140 READING 27 0.987491
1413680973091 32140 READING 27 0.985044
1413680973185 32140 READING 27 0.983732
1413680973280 32140 READING 27 0.985527
1413680973371 32140 READING 27 0.985835
1413680973466 32140 READING 27 0.988177
1413680973555 32140 READING 27 0.988136
1413680973648 32140 READING 27 0.988248
1413680973739 32140 READING 27 0.986648
1413680973835 32140 READING 27 0.988141
1413680973928 32140 READING 27 0.988559
1413680974015 32140 READING 27 0.988290
1413680974109 32140 READING 27 0.988112
1413680974196 32140 READING 27 0.987619
1413680974287 32140 READING 27 0.988116
1413680974379 32140 READING 27 0.985199
1413680974471 32140 READING 27 0.985718
1413680974568 32140 READING 27 0.987862
1413680974653 32140 READING 27 0.987866
1413680974743 32140 READING 27 0.987904
1413680974855 32140 READING 27 0.987041
1413680974945 32140 READING 27 0.985888
1413680975035 32140 READING 27 0.984974
1413680975120 32140 READING 27 0.983867
1413680975210 32140 READING 27 0.984468
1413680975298 32140 READING 27 0.984619
1413680975388 32140 READING 27 0.984868
1413680975477 32140 READING 27 0.984546
1413680975561 32140 READING 27 0.983883
1413680975649 32140 READING 27 0.983663
1413680975731 32140 READING 27 0.983437
1413680975820 32140 READING 27 0.984019
1413680975905 32140 READING 27 0.984075
1413680975991 32140 READING 27 0.983730
1413680976081 32140 READING 27 0.983880
1413680976137 32140 FUNCTION lru lambda h: 0.957912 * (h ** 0.00837541)
1413680976137 32139 FUNCTION lru lambda h: 0.001694 * (h ** 0.900897)
1413680976138 32140 RECOMMEND 23
1413680976138 32139 RECOMMEND 2447
1413680976164 32140 READING 27 0.983830
1413680976256 32140 READING 27 0.984692
1413680976341 32140 READING 27 0.984446
1413680976428 32140 READING 27 0.984553
1413680976516 32140 READING 27 0.984749
1413680976597 32140 READING 27 0.983409
1413680976687 32140 READING 27 0.985202
1413680976771 32140 READING 27 0.985627
1413680976830 32139 READING 1251 0.957936
1413680976865 32140 READING 27 0.986626
1413680976958 32140 READING 27 0.987341
1413680977044 32140 READING 27 0.985129
1413680977141 32140 READING 27 0.986502
1413680977232 32140 READING 27 0.986938
1413680977326 32140 READING 27 0.986137
1413680977411 32140 READING 27 0.986657
1413680977506 32140 READING 27 0.987113
1413680977599 32140 READING 27 0.987010
1413680977691 32140 READING 27 0.987742
1413680977780 32140 READING 27 0.986215
1413680977873 32140 READING 27 0.984104
1413680977966 32140 READING 27 0.984504
1413680978057 32140 READING 27 0.986836
1413680978146 32140 READING 27 0.985835
1413680978238 32140 READING 27 0.986583
1413680978327 32140 READING 27 0.985335
1413680978423 32140 READING 27 0.986697
1413680978518 32140 READING 27 0.987782
1413680978620 32140 READING 27 0.987719
1413680978726 32140 READING 27 0.988603
1413680978818 32140 READING 27 0.987330
1413680978925 32140 READING 27 0.988392
1413680979028 32140 READING 27 0.989306
1413680979125 32140 READING 27 0.989398
1413680979216 32140 READING 27 0.988640
1413680979309 32140 READING 27 0.986827
1413680979402 32140 READING 27 0.987963
1413680979489 32140 READING 27 0.988070
1413680979583 32140 READING 27 0.985182
1413680979677 32140 READING 27 0.986068
1413680979771 32140 READING 27 0.987638
1413680979865 32140 READING 27 0.986675
1413680979957 32140 READING 27 0.984653
1413680980053 32140 READING 27 0.986576
1413680980141 32140 READING 27 0.983697
1413680980239 32140 READING 27 0.981887
1413680980330 32140 READING 27 0.981214
1413680980421 32140 READING 27 0.984903
1413680980512 32140 READING 27 0.984924
1413680980607 32140 READING 27 0.982951
1413680980704 32140 READING 27 0.986089
1413680980794 32140 READING 27 0.984779
1413680980902 32140 READING 27 0.985872
1413680981003 32140 READING 27 0.986467
1413680981026 32139 READING 1366 0.969149
1413680981097 32140 READING 27 0.987171
1413680981189 32140 READING 27 0.987375
1413680981281 32140 READING 27 0.987372
1413680981374 32140 READING 27 0.985344
1413680981465 32140 READING 27 0.986988
1413680981559 32140 READING 27 0.987753
1413680981645 32140 READING 27 0.984281
1413680981735 32140 READING 27 0.986555
1413680981827 32140 READING 27 0.987462
1413680981919 32140 READING 27 0.987307
1413680982015 32140 READING 27 0.986468
1413680982103 32140 READING 27 0.987440
1413680982195 32140 READING 27 0.988146
1413680982284 32140 READING 27 0.988419
1413680982373 32140 READING 27 0.987306
1413680982468 32140 READING 27 0.984952
1413680982558 32140 READING 27 0.986625
1413680982654 32140 READING 27 0.987285
1413680982745 32140 READING 27 0.986677
1413680982840 32140 READING 27 0.984366
1413680982933 32140 READING 27 0.985199
1413680983027 32140 READING 27 0.986736
1413680983121 32140 READING 27 0.984923
1413680983212 32140 READING 27 0.985731
1413680983308 32140 READING 27 0.988141
1413680983395 32140 READING 27 0.988167
1413680983488 32140 READING 27 0.987227
1413680983584 32140 READING 27 0.987081
1413680983677 32140 READING 27 0.988239
1413680983775 32140 READING 27 0.987751
1413680983862 32140 READING 27 0.988354
1413680983958 32140 READING 27 0.987222
1413680984051 32140 READING 27 0.988030
1413680984142 32140 READING 27 0.984184
1413680984244 32140 READING 27 0.987476
1413680984331 32140 READING 27 0.987698
1413680984426 32140 READING 27 0.988091
1413680984526 32140 READING 27 0.985028
1413680984622 32140 READING 27 0.985838
1413680984722 32140 READING 27 0.984463
1413680984807 32140 READING 27 0.985916
1413680984903 32140 READING 27 0.987378
1413680984994 32140 READING 27 0.988268
1413680985088 32140 READING 27 0.987589
1413680985180 32140 READING 27 0.986887
1413680985256 32139 READING 1366 0.978926
1413680985288 32140 READING 27 0.989048
1413680985382 32140 READING 27 0.989241
1413680985469 32140 READING 27 0.988329
1413680985566 32140 READING 27 0.987779
1413680985660 32140 READING 27 0.987225
1413680985751 32140 READING 27 0.988220
1413680985845 32140 READING 27 0.987399
1413680985938 32140 READING 27 0.985716
1413680986036 32140 READING 27 0.987118
1413680986127 32140 READING 27 0.987828
1413680986138 32140 FUNCTION lru lambda h: 0.958292 * (h ** 0.00829212)
1413680986138 32139 FUNCTION lru lambda h: 0.00228368 * (h ** 0.857369)
1413680986139 32140 RECOMMEND 24
1413680986139 32139 RECOMMEND 2446
1413680986222 32140 READING 27 0.988078
1413680986316 32140 READING 27 0.985244
1413680986409 32140 READING 27 0.986654
1413680986503 32140 READING 27 0.988474
1413680986595 32140 READING 27 0.987428
1413680986689 32140 READING 27 0.986071
1413680986781 32140 READING 27 0.986308
1413680986876 32140 READING 27 0.985334
1413680986970 32140 READING 27 0.986202
1413680987064 32140 READING 27 0.986760
1413680987159 32140 READING 27 0.987928
1413680987252 32140 READING 27 0.988598
1413680987346 32140 READING 27 0.986436
1413680987444 32140 READING 27 0.986362
1413680987543 32140 READING 27 0.985522
1413680987637 32140 READING 27 0.986415
1413680987730 32140 READING 27 0.986809
1413680987826 32140 READING 27 0.988587
1413680987913 32140 READING 27 0.987965
1413680988003 32140 READING 27 0.988571
1413680988091 32140 READING 27 0.986152
1413680988187 32140 READING 27 0.984513
1413680988280 32140 READING 27 0.986000
1413680988374 32140 READING 27 0.985810
1413680988465 32140 READING 27 0.987186
1413680988555 32140 READING 27 0.988429
1413680988645 32140 READING 27 0.986605
1413680988739 32140 READING 27 0.986373
1413680988834 32140 READING 27 0.985917
1413680988926 32140 READING 27 0.985533
1413680989023 32140 READING 27 0.984599
1413680989118 32140 READING 27 0.984802
1413680989212 32140 READING 27 0.985819
1413680989305 32140 READING 27 0.987463
1413680989395 32140 READING 27 0.986998
1413680989490 32140 READING 27 0.986811
1413680989579 32139 READING 1375 0.982627
1413680989595 32140 READING 27 0.987560
1413680989688 32140 READING 27 0.986777
1413680989784 32140 READING 27 0.985859
1413680989884 32140 READING 27 0.986925
1413680989978 32140 READING 27 0.987132
1413680990073 32140 READING 27 0.986483
1413680990165 32140 READING 27 0.987219
1413680990253 32140 READING 27 0.987254
1413680990343 32140 READING 27 0.987559
1413680990439 32140 READING 27 0.985830
1413680990527 32140 READING 27 0.987100
1413680990626 32140 READING 27 0.988319
1413680990721 32140 READING 27 0.984307
1413680990816 32140 READING 27 0.984880
1413680990908 32140 READING 27 0.986766
1413680990994 32140 READING 27 0.987361
1413680991086 32140 READING 27 0.988030
1413680991182 32140 READING 27 0.985189
1413680991282 32140 READING 27 0.986325
1413680991374 32140 READING 27 0.988097
1413680991470 32140 READING 27 0.988521
1413680991565 32140 READING 27 0.988029
1413680991657 32140 READING 27 0.989015
1413680991750 32140 READING 27 0.989095
1413680991840 32140 READING 27 0.987031
1413680991933 32140 READING 27 0.987925
1413680992025 32140 READING 27 0.986665
1413680992114 32140 READING 27 0.988312
1413680992207 32140 READING 27 0.987958
1413680992295 32140 READING 27 0.988165
1413680992387 32140 READING 27 0.988905
1413680992479 32140 READING 27 0.987228
1413680992577 32140 READING 27 0.987545
1413680992672 32140 READING 27 0.988311
1413680992759 32140 READING 27 0.987227
1413680992854 32140 READING 27 0.984698
1413680992948 32140 READING 27 0.983914
1413680993039 32140 READING 27 0.986066
1413680993132 32140 READING 27 0.987242
1413680993222 32140 READING 27 0.987582
1413680993316 32140 READING 27 0.988497
1413680993408 32140 READING 27 0.986803
1413680993502 32140 READING 27 0.986892
1413680993595 32140 READING 27 0.987524
1413680993688 32140 READING 27 0.986967
1413680993754 32139 READING 1377 0.984405
1413680993801 32140 READING 27 0.986179
1413680993894 32140 READING 27 0.986193
1413680993989 32140 READING 27 0.985931
1413680994082 32140 READING 27 0.987263
1413680994176 32140 READING 27 0.988288
1413680994268 32140 READING 27 0.988748
1413680994358 32140 READING 27 0.987261
1413680994448 32140 READING 27 0.988199
1413680994536 32140 READING 27 0.988047
1413680994623 32140 READING 27 0.988074
1413680994708 32140 READING 27 0.986850
1413680994795 32140 READING 27 0.986273
1413680994885 32140 READING 27 0.987406
1413680994972 32140 READING 27 0.987995
1413680995059 32140 READING 27 0.988210
1413680995145 32140 READING 27 0.987553
1413680995233 32140 READING 27 0.988453
1413680995320 32140 READING 27 0.988716
1413680995405 32140 READING 27 0.987738
1413680995496 32140 READING 27 0.987571
1413680995581 32140 READING 27 0.987538
1413680995671 32140 READING 27 0.988360
1413680995759 32140 READING 27 0.988461
1413680995845 32140 READING 27 0.988500
1413680995935 32140 READING 27 0.988411
1413680996017 32140 READING 27 0.987706
1413680996109 32140 READING 27 0.988152
1413680996139 32140 FUNCTION lru lambda h: 0.958372 * (h ** 0.00827473)
1413680996139 32139 FUNCTION lru lambda h: 0.00246068 * (h ** 0.845993)
1413680996140 32140 RECOMMEND 24
1413680996140 32139 RECOMMEND 2446
1413680996195 32140 READING 27 0.988414
1413680996282 32140 READING 27 0.988631
1413680996370 32140 READING 27 0.988381
1413680996465 32140 READING 27 0.988111
1413680996556 32140 READING 27 0.988515
1413680996641 32140 READING 27 0.987508
1413680996731 32140 READING 27 0.987852
1413680996820 32140 READING 27 0.987105
1413680996907 32140 READING 27 0.987365
1413680996995 32140 READING 27 0.987453
1413680997079 32140 READING 27 0.986627
1413680997167 32140 READING 27 0.987000
1413680997253 32140 READING 27 0.987172
1413680997342 32140 READING 27 0.987352
1413680997430 32140 READING 27 0.987309
1413680997515 32140 READING 27 0.987418
1413680997606 32140 READING 27 0.987694
1413680997691 32140 READING 27 0.987557
1413680997781 32140 READING 27 0.987793
1413680997868 32140 READING 27 0.988079
1413680997956 32140 READING 27 0.987340
1413680998044 32140 READING 27 0.987574
1413680998128 32140 READING 27 0.987670
1413680998218 32140 READING 27 0.987065
1413680998302 32140 READING 27 0.987185
1413680998392 32140 READING 27 0.987992
1413680998482 32140 READING 27 0.987707
1413680998568 32140 READING 27 0.987531
1413680998659 32140 READING 27 0.987680
1413680998743 32140 READING 27 0.987161
1413680998832 32140 READING 27 0.987964
1413680998920 32140 READING 27 0.986942
1413680999007 32140 READING 27 0.987637
1413680999097 32140 READING 27 0.987830
1413680999182 32140 READING 27 0.987543
1413680999272 32140 READING 27 0.988377
1413680999357 32140 READING 27 0.988148
1413680999447 32140 READING 27 0.988475
1413680999534 32140 READING 27 0.988744
1413680999621 32140 READING 27 0.987937
1413680999711 32140 READING 27 0.988859
1413680999795 32140 READING 27 0.988317
1413680999886 32140 READING 27 0.988647
1413680999971 32140 READING 27 0.988360
1413681000061 32140 READING 27 0.988600
1413681000151 32140 READING 27 0.988686
1413681000236 32140 READING 27 0.988341
1413681000325 32140 READING 27 0.987988
1413681000408 32140 READING 27 0.987973
1413681000497 32140 READING 27 0.988458
1413681000584 32140 READING 27 0.988756
1413681000673 32140 READING 27 0.986775
1413681000762 32140 READING 27 0.987055
1413681000846 32140 READING 27 0.987065
1413681000939 32140 READING 27 0.987694
1413681001024 32140 READING 27 0.986455
1413681001115 32140 READING 27 0.986738
1413681001201 32140 READING 27 0.985358
1413681001287 32140 READING 27 0.986690
1413681001376 32140 READING 27 0.986491
1413681001460 32140 READING 27 0.985630
1413681001550 32140 READING 27 0.985497
1413681001635 32140 READING 27 0.985113
1413681001725 32140 READING 27 0.985730
1413681001813 32140 READING 27 0.985243
1413681001899 32140 READING 27 0.984741
1413681001988 32140 READING 27 0.985967
1413681002071 32140 READING 27 0.986722
1413681002161 32140 READING 27 0.987945
1413681002248 32140 READING 27 0.987766
1413681002336 32140 READING 27 0.987774
1413681002425 32140 READING 27 0.987805
1413681002508 32140 READING 27 0.987522
1413681002599 32140 READING 27 0.987730
1413681002684 32140 READING 27 0.986804
1413681002773 32140 READING 27 0.987253
1413681002860 32140 READING 27 0.986269
1413681002948 32140 READING 27 0.987399
1413681003036 32140 READING 27 0.987673
1413681003119 32140 READING 27 0.986886
1413681003210 32140 READING 27 0.986524
1413681003296 32140 READING 27 0.987136
1413681003390 32140 READING 27 0.987161
1413681003481 32140 READING 27 0.987774
1413681003567 32140 READING 27 0.987686
1413681003657 32140 READING 27 0.988293
1413681003743 32140 READING 27 0.987225
1413681003834 32140 READING 27 0.987821
1413681003921 32140 READING 27 0.987875
1413681004008 32140 READING 27 0.987912
1413681004099 32140 READING 27 0.986382
1413681004183 32140 READING 27 0.986703
1413681004274 32140 READING 27 0.986532
1413681004361 32140 READING 27 0.987289
1413681004447 32140 READING 27 0.987463
1413681004534 32140 READING 27 0.988071
1413681004621 32140 READING 27 0.987643
1413681004713 32140 READING 27 0.988157
1413681004799 32140 READING 27 0.986309
1413681004887 32140 READING 27 0.987430
1413681004974 32140 READING 27 0.987227
1413681005062 32140 READING 27 0.987410
1413681005151 32140 READING 27 0.987808
1413681005235 32140 READING 27 0.987728
1413681005326 32140 READING 27 0.987742
1413681005408 32140 READING 27 0.986728
1413681005498 32140 READING 27 0.986834
1413681005587 32140 READING 27 0.986567
1413681005686 32140 READING 27 0.986903
1413681005778 32140 READING 27 0.986935
1413681005862 32140 READING 27 0.987168
1413681005952 32140 READING 27 0.988389
1413681006058 32140 READING 27 0.987598
1413681006087 32139 READING 1375 0.989868
1413681006140 32140 FUNCTION lru lambda h: 0.958323 * (h ** 0.00828531)
1413681006140 32139 FUNCTION lru lambda h: 0.00245653 * (h ** 0.846245)
1413681006141 32140 RECOMMEND 24
1413681006141 32139 RECOMMEND 2446
1413681006156 32140 READING 27 0.988319
1413681006244 32140 READING 27 0.987660
1413681006328 32140 READING 27 0.987398
1413681006419 32140 READING 27 0.987415
1413681006505 32140 READING 27 0.986557
1413681006595 32140 READING 27 0.987254
1413681006683 32140 READING 27 0.987703
1413681006769 32140 READING 27 0.987379
1413681006861 32140 READING 27 0.987646
1413681006945 32140 READING 27 0.987138
1413681007035 32140 READING 27 0.987343
1413681007122 32140 READING 27 0.986767
1413681007210 32140 READING 27 0.987581
1413681007299 32140 READING 27 0.987254
1413681007383 32140 READING 27 0.987246
1413681007473 32140 READING 27 0.987231
1413681007559 32140 READING 27 0.987129
1413681007653 32140 READING 27 0.988104
1413681007741 32140 READING 27 0.988032
1413681007829 32140 READING 27 0.988201
1413681007917 32140 READING 27 0.987801
1413681008001 32140 READING 27 0.987151
1413681008091 32140 READING 27 0.986842
1413681008179 32140 READING 27 0.987041
1413681008266 32140 READING 27 0.986864
1413681008354 32140 READING 27 0.987416
1413681008438 32140 READING 27 0.987085
1413681008528 32140 READING 27 0.987645
1413681008615 32140 READING 27 0.987223
1413681008700 32140 READING 27 0.987398
1413681008789 32140 READING 27 0.987568
1413681008874 32140 READING 27 0.987135
1413681008962 32140 READING 27 0.986463
1413681009046 32140 READING 27 0.986306
1413681009136 32140 READING 27 0.987168
1413681009224 32140 READING 27 0.987930
1413681009312 32140 READING 27 0.988572
1413681009402 32140 READING 27 0.989089
1413681009492 32140 READING 27 0.988284
1413681009583 32140 READING 27 0.988736
1413681009668 32140 READING 27 0.988784
1413681009757 32140 READING 27 0.988387
1413681009846 32140 READING 27 0.987745
1413681009932 32140 READING 27 0.987751
1413681010021 32140 READING 27 0.988390
1413681010105 32140 READING 27 0.988373
1413681010195 32140 READING 27 0.988970
1413681010282 32140 READING 27 0.988409
1413681010370 32140 READING 27 0.988310
1413681010461 32140 READING 27 0.988372
1413681010546 32140 READING 27 0.987947
1413681010635 32140 READING 27 0.987875
1413681010722 32140 READING 27 0.988130
1413681010810 32140 READING 27 0.987499
1413681010897 32140 READING 27 0.988215
1413681010982 32140 READING 27 0.988281
1413681011072 32140 READING 27 0.988799
1413681011160 32140 READING 27 0.988841
1413681011250 32140 READING 27 0.988088
1413681011336 32140 READING 27 0.988041
1413681011424 32140 READING 27 0.988211
1413681011512 32140 READING 27 0.987984
1413681011604 32140 READING 27 0.987618
1413681011701 32140 READING 27 0.988031
1413681011789 32140 READING 27 0.987837
1413681011876 32140 READING 27 0.987349
1413681011963 32140 READING 27 0.987334
1413681012052 32140 READING 27 0.987824
1413681012137 32140 READING 27 0.987226
1413681012225 32140 READING 27 0.987536
1413681012313 32140 READING 27 0.987555
1413681012398 32140 READING 27 0.986726
1413681012486 32140 READING 27 0.987191
1413681012572 32140 READING 27 0.987163
1413681012659 32140 READING 27 0.987142
1413681012749 32140 READING 27 0.986360
1413681012837 32140 READING 27 0.986524
1413681012926 32140 READING 27 0.986798
1413681013013 32140 READING 27 0.986209
1413681013101 32140 READING 27 0.985846
1413681013188 32140 READING 27 0.986921
1413681013273 32140 READING 27 0.986942
1413681013363 32140 READING 27 0.987784
1413681013447 32140 READING 27 0.986819
1413681013536 32140 READING 27 0.986672
1413681013621 32140 READING 27 0.986067
1413681013710 32140 READING 27 0.986141
1413681013799 32140 READING 27 0.986485
1413681013886 32140 READING 27 0.986147
1413681013975 32140 READING 27 0.985764
1413681014058 32140 READING 27 0.985860
1413681014148 32140 READING 27 0.987255
1413681014234 32140 READING 27 0.987167
1413681014322 32140 READING 27 0.987134
1413681014411 32140 READING 27 0.987429
1413681014498 32140 READING 27 0.987541
1413681014588 32140 READING 27 0.988334
1413681014673 32140 READING 27 0.987718
1413681014762 32140 READING 27 0.987408
1413681014850 32140 READING 27 0.987178
1413681014936 32140 READING 27 0.987497
1413681015027 32140 READING 27 0.988029
1413681015115 32140 READING 27 0.987774
1413681015202 32140 READING 27 0.987607
1413681015287 32140 READING 27 0.987424
1413681015374 32140 READING 27 0.988025
1413681015463 32140 READING 27 0.988476
1413681015555 32140 READING 27 0.988962
1413681015646 32140 READING 27 0.988841
1413681015734 32140 READING 27 0.988642
1413681015823 32140 READING 27 0.988457
1413681015911 32140 READING 27 0.988578
1413681015997 32140 READING 27 0.988769
1413681016088 32140 READING 27 0.988504
1413681016141 32140 FUNCTION lru lambda h: 0.958424 * (h ** 0.00826319)
1413681016141 32139 FUNCTION lru lambda h: 0.00245653 * (h ** 0.846245)
1413681016142 32140 RECOMMEND 24
1413681016142 32139 RECOMMEND 2446
1413681016178 32140 READING 27 0.988081
1413681016267 32140 READING 27 0.988143
1413681016353 32140 READING 27 0.988281
1413681016441 32140 READING 27 0.988339
1413681016530 32140 READING 27 0.988449
1413681016620 32140 READING 27 0.988881
1413681016707 32140 READING 27 0.988113
1413681016794 32140 READING 27 0.985684
1413681016881 32140 READING 27 0.986672
1413681016968 32140 READING 27 0.987188
1413681017057 32140 READING 27 0.987671
1413681017146 32140 READING 27 0.987217
1413681017234 32140 READING 27 0.987071
1413681017321 32140 READING 27 0.987491
1413681017408 32140 READING 27 0.987523
1413681017495 32140 READING 27 0.987270
1413681017593 32140 READING 27 0.987848
1413681017685 32140 READING 27 0.987854
1413681017775 32140 READING 27 0.986342
1413681017862 32140 READING 27 0.986447
1413681017949 32140 READING 27 0.986757
1413681018036 32140 READING 27 0.986441
1413681018122 32140 READING 27 0.987112
1413681018211 32140 READING 27 0.987102
1413681018298 32140 READING 27 0.986981
1413681018385 32140 READING 27 0.987225
1413681018472 32140 READING 27 0.987028
1413681018560 32140 READING 27 0.986990
1413681018648 32140 READING 27 0.987200
1413681018736 32140 READING 27 0.987912
1413681018830 32140 READING 27 0.988114
1413681018916 32140 READING 27 0.987977
1413681019013 32140 READING 27 0.988864
1413681019100 32140 READING 27 0.989005
1413681019208 32140 READING 27 0.988459
1413681019292 32139 READING 1378 0.991086
1413681019306 32140 READING 27 0.988794
1413681019394 32140 READING 27 0.966612
1413681019487 32140 READING 27 0.978110
1413681019568 32140 READING 27 0.982438
1413681019659 32140 READING 27 0.986134
1413681019746 32140 READING 27 0.987342
1413681019833 32140 READING 27 0.988069
1413681019922 32140 READING 27 0.988314
1413681020006 32140 READING 27 0.987727
1413681020105 32140 READING 27 0.989145
1413681020190 32140 READING 27 0.988621
1413681020278 32140 READING 27 0.989151
1413681020367 32140 READING 27 0.988972
1413681020451 32140 READING 27 0.988383
1413681020540 32140 READING 27 0.988665
1413681020625 32140 READING 27 0.987463
1413681020715 32140 READING 27 0.988664
1413681020802 32140 READING 27 0.988858
1413681020889 32140 READING 27 0.988338
1413681020980 32140 READING 27 0.988750
1413681021066 32140 READING 27 0.988701
1413681021156 32140 READING 27 0.988449
1413681021241 32140 READING 27 0.988388
1413681021328 32140 READING 27 0.988510
1413681021414 32140 READING 27 0.986989
1413681021501 32140 READING 27 0.987283
1413681021590 32140 READING 27 0.987676
1413681021679 32140 READING 27 0.987965
1413681021766 32140 READING 27 0.988773
1413681021852 32140 READING 27 0.988093
1413681021938 32140 READING 27 0.988400
1413681022027 32140 READING 27 0.988215
1413681022115 32140 READING 27 0.988224
1413681022202 32140 READING 27 0.988579
1413681022290 32140 READING 27 0.988904
1413681022377 32140 READING 27 0.988912
1413681022464 32140 READING 27 0.988620
1413681022552 32140 READING 27 0.988648
1413681022639 32140 READING 27 0.988864
1413681022728 32140 READING 27 0.988227
1413681022815 32140 READING 27 0.988290
1413681022904 32140 READING 27 0.987222
1413681022988 32140 READING 27 0.987383
1413681023077 32140 READING 27 0.988065
1413681023165 32140 READING 27 0.988388
1413681023254 32140 READING 27 0.988763
1413681023342 32140 READING 27 0.988275
1413681023428 32140 READING 27 0.987905
1413681023513 32140 READING 27 0.987632
1413681023602 32140 READING 27 0.988231
1413681023690 32140 READING 27 0.988786
1413681023779 32140 READING 27 0.988385
1413681023866 32140 READING 27 0.988607
1413681023953 32140 READING 27 0.988351
1413681024039 32140 READING 27 0.988155
1413681024126 32140 READING 27 0.987793
1413681024217 32140 READING 27 0.987680
1413681024302 32140 READING 27 0.987609
1413681024390 32140 READING 27 0.988336
1413681024475 32140 READING 27 0.987518
1413681024565 32140 READING 27 0.988205
1413681024654 32140 READING 27 0.986999
1413681024741 32140 READING 27 0.986973
1413681024830 32140 READING 27 0.985795
1413681024917 32140 READING 27 0.985869
1413681025005 32140 READING 27 0.986173
1413681025090 32140 READING 27 0.986456
1413681025176 32140 READING 27 0.987002
1413681025265 32140 READING 27 0.987438
1413681025354 32140 READING 27 0.987421
1413681025443 32140 READING 27 0.988079
1413681025531 32140 READING 27 0.987500
1413681025616 32140 READING 27 0.987096
1413681025705 32140 READING 27 0.986282
1413681025792 32140 READING 27 0.986043
1413681025881 32140 READING 27 0.987112
1413681025969 32140 READING 27 0.986698
1413681026057 32140 READING 27 0.986218
1413681026142 32140 FUNCTION lru lambda h: 0.958196 * (h ** 0.00831328)
1413681026142 32139 FUNCTION lru lambda h: 0.00241676 * (h ** 0.84831)
1413681026143 32140 RECOMMEND 24
1413681026143 32139 RECOMMEND 2446
1413681026143 32140 READING 27 0.986280
1413681026232 32140 READING 27 0.987227
1413681026320 32140 READING 27 0.988217
1413681026408 32140 READING 27 0.988643
1413681026496 32140 READING 27 0.988799
1413681026585 32140 READING 27 0.988561
1413681026680 32140 READING 27 0.986565
1413681026793 32140 READING 27 0.986184
1413681026839 32139 READING 1370 0.989146
1413681026893 32140 READING 27 0.987994
1413681026982 32140 READING 27 0.987985
1413681027068 32140 READING 27 0.988401
1413681027155 32140 READING 27 0.988241
1413681027243 32140 READING 27 0.988255
1413681027330 32140 READING 27 0.987611
1413681027419 32140 READING 27 0.988180
1413681027529 32140 READING 27 0.987079
1413681027542 32139 READING 1381 0.980482
1413681027619 32140 READING 27 0.987035
1413681027706 32140 READING 27 0.987460
1413681027794 32140 READING 27 0.987846
1413681027894 32140 READING 27 0.986662
1413681027989 32139 READING 1392 0.961123
1413681028000 32140 READING 27 0.988534
1413681028087 32140 READING 27 0.988321
1413681028175 32140 READING 27 0.988200
1413681028291 32140 READING 27 0.988104
1413681028316 32139 READING 1408 0.929929
1413681028387 32140 READING 27 0.989017
1413681028476 32140 READING 27 0.988767
1413681028579 32140 READING 27 0.986697
1413681028627 32139 READING 1448 0.892164
1413681028675 32140 READING 27 0.987905
1413681028762 32140 READING 27 0.988234
1413681028856 32140 READING 27 0.981868
1413681028940 32139 READING 1467 0.844958
1413681028972 32140 READING 27 0.985847
1413681029060 32140 READING 27 0.986668
1413681029147 32140 READING 27 0.987322
1413681029258 32139 READING 1488 0.800630
1413681029266 32140 READING 27 0.989198
1413681029352 32140 READING 27 0.988652
1413681029442 32140 READING 27 0.987885
1413681029550 32140 READING 27 0.987072
1413681029580 32139 READING 1488 0.770748
1413681029644 32140 READING 27 0.988439
1413681029731 32140 READING 27 0.988677
1413681029835 32140 READING 27 0.983687
1413681029891 32139 READING 1488 0.759069
1413681029933 32140 READING 27 0.985663
1413681030022 32140 READING 27 0.986608
1413681030116 32140 READING 27 0.987493
1413681030206 32140 READING 27 0.988230
1413681030300 32140 READING 27 0.986767
1413681030393 32140 READING 27 0.987752
1413681030487 32140 READING 27 0.987140
1413681030585 32140 READING 27 0.987216
1413681030679 32140 READING 27 0.988423
1413681030775 32140 READING 27 0.983248
1413681030868 32140 READING 27 0.983093
1413681030961 32140 READING 27 0.983894
1413681031054 32140 READING 27 0.986248
1413681031153 32140 READING 27 0.987333
1413681031242 32140 READING 27 0.987855
1413681031332 32140 READING 27 0.988141
1413681031421 32140 READING 27 0.986201
1413681031515 32140 READING 27 0.987570
1413681031604 32140 READING 27 0.986161
1413681031696 32140 READING 27 0.988001
1413681031788 32140 READING 27 0.985447
1413681031883 32140 READING 27 0.985763
1413681031989 32140 READING 27 0.986847
1413681032075 32140 READING 27 0.985113
1413681032159 32140 READING 27 0.977538
1413681032251 32140 READING 27 0.980946
1413681032339 32140 READING 27 0.973299
1413681032428 32140 READING 27 0.978221
1413681032515 32140 READING 27 0.972120
1413681032604 32140 READING 27 0.975082
1413681032666 32139 READING 1488 0.961610
1413681032699 32140 READING 27 0.979215
1413681032801 32140 READING 27 0.983985
1413681032894 32140 READING 27 0.986121
1413681032984 32140 READING 27 0.987078
1413681033080 32140 READING 27 0.987251
1413681033172 32140 READING 27 0.987210
1413681033262 32140 READING 27 0.987550
1413681033356 32140 READING 27 0.988742
1413681033449 32140 READING 27 0.988380
1413681033547 32140 READING 27 0.988317
1413681033638 32140 READING 27 0.987840
1413681033732 32140 READING 27 0.987686
1413681033824 32140 READING 27 0.984945
1413681033921 32140 READING 27 0.973564
1413681034017 32140 READING 27 0.978758
1413681034110 32140 READING 27 0.981760
1413681034199 32140 READING 27 0.984834
1413681034289 32140 READING 27 0.986385
1413681034379 32140 READING 27 0.987850
1413681034472 32140 READING 27 0.986914
1413681034562 32140 READING 27 0.987968
1413681034655 32140 READING 27 0.987585
1413681034750 32140 READING 27 0.984687
1413681034845 32140 READING 27 0.986027
1413681034939 32140 READING 27 0.986777
1413681035031 32140 READING 27 0.988044
1413681035124 32140 READING 27 0.986837
1413681035217 32140 READING 27 0.987000
1413681035311 32140 READING 27 0.986720
1413681035404 32140 READING 27 0.984515
1413681035499 32140 READING 27 0.985809
1413681035587 32140 READING 27 0.985913
1413681035681 32140 READING 27 0.986371
1413681035777 32140 READING 27 0.986235
1413681035871 32140 READING 27 0.986312
1413681035966 32140 READING 27 0.987751
1413681036063 32140 READING 27 0.988076
1413681036143 32140 FUNCTION lru lambda h: 0.958311 * (h ** 0.00828812)
1413681036143 32139 FUNCTION lru lambda h: 0.00979258 * (h ** 0.645016)
1413681036144 32140 RECOMMEND 31
1413681036144 32139 RECOMMEND 2439
1413681036154 32140 READING 27 0.988035
1413681036254 32140 READING 29 0.988928
1413681036368 32140 READING 30 0.987510
1413681036500 32140 READING 32 0.988982
1413681036625 32140 READING 32 0.988651
1413681036743 32140 READING 32 0.984998
1413681036781 32139 READING 1446 0.981309
1413681036883 32140 READING 32 0.987198
1413681037019 32140 READING 32 0.988055
1413681037146 32140 READING 32 0.987684
1413681037267 32140 READING 32 0.988956
1413681037390 32140 READING 32 0.987587
1413681037520 32140 READING 32 0.988951
1413681037645 32140 READING 32 0.988696
1413681037768 32140 READING 32 0.988990
1413681037888 32140 READING 32 0.989613
1413681038008 32140 READING 32 0.990589
1413681038136 32140 READING 32 0.988864
1413681038267 32140 READING 32 0.988431
1413681038395 32140 READING 32 0.989238
1413681038516 32140 READING 32 0.988531
1413681038640 32140 READING 32 0.989076
1413681038766 32140 READING 32 0.989525
1413681038891 32140 READING 32 0.990311
1413681039010 32140 READING 32 0.990337
1413681039135 32140 READING 32 0.989463
1413681039262 32140 READING 32 0.989418
1413681039386 32140 READING 32 0.989224
1413681039509 32140 READING 32 0.989563
1413681039630 32140 READING 32 0.989771
1413681039754 32140 READING 32 0.990848
1413681039878 32140 READING 32 0.989249
1413681040002 32140 READING 32 0.990123
1413681040128 32140 READING 32 0.989317
1413681040254 32140 READING 32 0.990750
1413681040380 32140 READING 32 0.989235
1413681040502 32140 READING 32 0.989651
1413681040622 32140 READING 32 0.990288
1413681040746 32140 READING 32 0.989518
1413681040868 32140 READING 32 0.990202
1413681040991 32140 READING 32 0.990695
1413681041081 32139 READING 1446 0.989564
1413681041130 32140 READING 32 0.990745
1413681041255 32140 READING 32 0.989979
1413681041375 32140 READING 32 0.990804
1413681041494 32140 READING 32 0.989198
1413681041623 32140 READING 32 0.990009
1413681041746 32140 READING 32 0.989174
1413681041871 32140 READING 32 0.990145
1413681041996 32140 READING 32 0.988941
1413681042122 32140 READING 32 0.990658
1413681042239 32140 READING 32 0.990966
1413681042358 32140 READING 32 0.990570
1413681042478 32140 READING 32 0.990180
1413681042600 32140 READING 32 0.989911
1413681042726 32140 READING 32 0.989874
1413681042849 32140 READING 32 0.989667
1413681042974 32140 READING 32 0.990947
1413681043092 32140 READING 32 0.989805
1413681043218 32140 READING 32 0.989638
1413681043338 32140 READING 32 0.990448
1413681043463 32140 READING 32 0.990679
1413681043583 32140 READING 32 0.990653
1413681043708 32140 READING 32 0.991184
1413681043833 32140 READING 32 0.991751
1413681043953 32140 READING 32 0.990763
1413681044074 32140 READING 32 0.990509
1413681044200 32140 READING 32 0.990958
1413681044324 32140 READING 32 0.991516
1413681044446 32140 READING 32 0.989710
1413681044582 32140 READING 32 0.989124
1413681044709 32140 READING 32 0.990764
1413681044827 32140 READING 32 0.990742
1413681044946 32140 READING 32 0.991207
1413681045072 32140 READING 32 0.990394
1413681045159 32139 READING 1446 0.990810
1413681045208 32140 READING 32 0.991158
1413681045331 32140 READING 32 0.991372
1413681045456 32140 READING 32 0.991221
1413681045581 32140 READING 32 0.990536
1413681045704 32140 READING 32 0.990870
1413681045829 32140 READING 32 0.991049
1413681045954 32140 READING 32 0.990169
1413681046080 32140 READING 32 0.990174
1413681046144 32140 FUNCTION lru lambda h: 0.961971 * (h ** 0.00749412)
1413681046144 32139 FUNCTION lru lambda h: 0.00943092 * (h ** 0.650175)
1413681046145 32140 RECOMMEND 28
1413681046145 32139 RECOMMEND 2442
1413681046199 32140 READING 32 0.988975
1413681046315 32140 READING 31 0.990095
1413681046434 32140 READING 31 0.988128
1413681046552 32140 READING 31 0.989505
1413681046672 32140 READING 31 0.989797
1413681046794 32140 READING 31 0.990687
1413681046905 32140 READING 31 0.989224
1413681047020 32140 READING 31 0.990243
1413681047135 32140 READING 31 0.986666
1413681047251 32140 READING 31 0.988705
1413681047371 32140 READING 31 0.989518
1413681047484 32140 READING 31 0.990178
1413681047602 32140 READING 31 0.990057
1413681047719 32140 READING 31 0.991067
1413681047833 32140 READING 31 0.990973
1413681047949 32140 READING 31 0.991255
1413681048061 32140 READING 31 0.990474
1413681048174 32140 READING 31 0.990716
1413681048292 32140 READING 31 0.990129
1413681048412 32140 READING 31 0.989029
1413681048528 32140 READING 31 0.989591
1413681048643 32140 READING 31 0.989895
1413681048762 32140 READING 31 0.990208
1413681048880 32140 READING 31 0.991013
1413681048999 32140 READING 31 0.991082
1413681049117 32140 READING 31 0.991070
1413681049153 32139 READING 1446 0.991274
1413681049246 32140 READING 31 0.991285
1413681049367 32140 READING 31 0.990999
1413681049486 32140 READING 31 0.989017
1413681049605 32140 READING 31 0.988419
1413681049725 32140 READING 31 0.989130
1413681049836 32140 READING 31 0.988438
1413681049955 32140 READING 31 0.988333
1413681050072 32140 READING 31 0.987451
1413681050188 32140 READING 31 0.987175
1413681050302 32140 READING 31 0.987727
1413681050420 32140 READING 31 0.988707
1413681050538 32140 READING 31 0.988612
1413681050652 32140 READING 31 0.987712
1413681050767 32140 READING 31 0.988988
1413681050889 32140 READING 31 0.990373
1413681051000 32140 READING 31 0.990010
1413681051121 32140 READING 31 0.990363
1413681051235 32140 READING 31 0.990461
1413681051351 32140 READING 31 0.990637
1413681051468 32140 READING 31 0.989539
1413681051587 32140 READING 31 0.989231
1413681051708 32140 READING 31 0.989499
1413681051825 32140 READING 31 0.990683
1413681051937 32140 READING 31 0.989099
1413681052053 32140 READING 31 0.990520
1413681052165 32140 READING 31 0.990716
1413681052277 32140 READING 31 0.990538
1413681052391 32140 READING 31 0.990957
1413681052505 32140 READING 31 0.990108
1413681052621 32140 READING 31 0.990226
1413681052735 32140 READING 31 0.990429
1413681052852 32140 READING 31 0.991206
1413681052969 32140 READING 31 0.990157
1413681053038 32139 READING 1446 0.990705
1413681053101 32140 READING 31 0.990653
1413681053221 32140 READING 31 0.991276
1413681053333 32140 READING 31 0.990661
1413681053455 32140 READING 31 0.990755
1413681053573 32140 READING 31 0.987356
1413681053690 32140 READING 31 0.988702
1413681053805 32140 READING 31 0.989594
1413681053926 32140 READING 31 0.989766
1413681054050 32140 READING 31 0.990245
1413681054164 32140 READING 31 0.989093
1413681054279 32140 READING 31 0.989728
1413681054402 32140 READING 31 0.986700
1413681054527 32140 READING 31 0.988570
1413681054643 32140 READING 31 0.989999
1413681054760 32140 READING 31 0.990752
1413681054870 32140 READING 31 0.989191
1413681054987 32140 READING 31 0.989846
1413681055104 32140 READING 31 0.990389
1413681055217 32140 READING 31 0.989837
1413681055335 32140 READING 31 0.989475
1413681055450 32140 READING 31 0.990288
1413681055565 32140 READING 31 0.990535
1413681055684 32140 READING 31 0.990474
1413681055798 32140 READING 31 0.989314
1413681055910 32140 READING 31 0.988953
1413681056026 32140 READING 31 0.989649
1413681056145 32140 FUNCTION lru lambda h: 0.961909 * (h ** 0.00750733)
1413681056145 32139 FUNCTION lru lambda h: 0.00942013 * (h ** 0.650343)
1413681056146 32140 RECOMMEND 28
1413681056146 32139 RECOMMEND 2442
1413681056146 32140 READING 31 0.988583
1413681056264 32140 READING 31 0.990084
1413681056385 32140 READING 31 0.990083
1413681056501 32140 READING 31 0.988765
1413681056619 32140 READING 31 0.989590
1413681056736 32140 READING 31 0.988595
1413681056855 32140 READING 31 0.989281
1413681056974 32140 READING 31 0.989316
1413681057091 32140 READING 31 0.989477
1413681057209 32140 READING 31 0.990844
1413681057342 32140 READING 31 0.991033
1413681057343 32139 READING 1446 0.989880
1413681057463 32140 READING 31 0.991179
1413681057576 32140 READING 31 0.990582
1413681057690 32140 READING 31 0.990768
1413681057805 32140 READING 31 0.990386
1413681057917 32140 READING 31 0.989730
1413681058033 32140 READING 31 0.989879
1413681058153 32140 READING 31 0.989680
1413681058274 32140 READING 31 0.989914
1413681058392 32140 READING 31 0.989034
1413681058509 32140 READING 31 0.989914
1413681058626 32140 READING 31 0.990707
1413681058743 32140 READING 31 0.990362
1413681058858 32140 READING 31 0.990809
1413681058976 32140 READING 31 0.991076
1413681059085 32140 READING 31 0.989867
1413681059208 32140 READING 31 0.988987
1413681059324 32140 READING 31 0.989227
1413681059437 32140 READING 31 0.989217
1413681059555 32140 READING 31 0.989685
1413681059669 32140 READING 31 0.988987
1413681059788 32140 READING 31 0.988865
1413681059905 32140 READING 31 0.989543
1413681060019 32140 READING 31 0.988776
1413681060136 32140 READING 31 0.988491
1413681060250 32140 READING 31 0.989935
1413681060365 32140 READING 31 0.990765
1413681060484 32140 READING 31 0.988481
1413681060600 32140 READING 31 0.989181
1413681060715 32140 READING 31 0.990168
1413681060833 32140 READING 31 0.990361
1413681061022 32140 READING 31 0.992776
1413681061336 32139 READING 1446 0.990411
1413681063076 32140 DEATH 1957
1413681064872 32139 READING 1196 0.990697
1413681066146 32139 FUNCTION lru lambda h: 0.00768925 * (h ** 0.67933)
1413681066146 32139 RECOMMEND 2470
1413681068699 32139 READING 1439 0.990789
1413681072708 32139 READING 1219 0.990494
1413681076146 32139 FUNCTION lru lambda h: 0.00763686 * (h ** 0.680168)
1413681076146 32139 RECOMMEND 2470
1413681076662 32139 READING 1410 0.989768
1413681080590 32139 READING 1240 0.988736
1413681084565 32139 READING 1385 0.987768
1413681086146 32139 FUNCTION lru lambda h: 0.00747669 * (h ** 0.682876)
1413681086146 32139 RECOMMEND 2470
1413681088900 32139 READING 1261 0.987245
1413681093094 32139 READING 1372 0.986469
1413681096146 32139 FUNCTION lru lambda h: 0.00800595 * (h ** 0.673111)
1413681096146 32139 RECOMMEND 2470
1413681097336 32139 READING 1282 0.985635
1413681101592 32139 READING 1376 0.984710
1413681105763 32139 READING 1379 0.983780
1413681106147 32139 FUNCTION lru lambda h: 0.0393547 * (h ** 0.44778)
1413681106147 32139 RECOMMEND 2470
1413681109919 32139 READING 1382 0.982689
1413681114255 32139 READING 1384 0.981550
1413681116147 32139 FUNCTION lru lambda h: 0.0416201 * (h ** 0.439798)
1413681116147 32139 RECOMMEND 2470
1413681118349 32139 READING 1390 0.980599
1413681122655 32139 READING 1393 0.980681
1413681126147 32139 FUNCTION lru lambda h: 0.0450606 * (h ** 0.428513)
1413681126147 32139 RECOMMEND 2470
1413681127180 32139 READING 1400 0.980975
1413681131484 32139 READING 1401 0.980417
1413681135895 32139 READING 1408 0.980190
1413681136147 32139 FUNCTION lru lambda h: 0.0892272 * (h ** 0.332514)
1413681136147 32139 RECOMMEND 2470
1413681140211 32139 READING 1408 0.979749
1413681144536 32139 READING 1415 0.979526
1413681146147 32139 FUNCTION lru lambda h: 0.0896511 * (h ** 0.331842)
1413681146147 32139 RECOMMEND 2470
1413681148777 32139 READING 1415 0.979171
1413681153480 32139 READING 1419 0.979947
1413681156148 32139 FUNCTION lru lambda h: 0.0884967 * (h ** 0.333602)
1413681156148 32139 RECOMMEND 2470
1413681158095 32139 READING 1420 0.980081
1413681162718 32139 READING 1424 0.980178
1413681166148 32139 FUNCTION lru lambda h: 0.0841295 * (h ** 0.340606)
1413681166148 32139 RECOMMEND 2470
1413681167277 32139 READING 1425 0.979748
1413681171883 32139 READING 1428 0.979791
1413681176148 32139 FUNCTION lru lambda h: 0.0882361 * (h ** 0.333846)
1413681176148 32139 RECOMMEND 2470
1413681177538 32139 READING 1430 0.977756
1413681182640 32139 READING 1563 0.988382
1413681186148 32139 FUNCTION lru lambda h: 0.0975023 * (h ** 0.31973)
1413681186148 32139 RECOMMEND 2470
1413681187608 32139 READING 1564 0.991583
1413681192618 32139 READING 1577 0.992542
1413681196148 32139 FUNCTION lru lambda h: 0.106775 * (h ** 0.306878)
1413681196148 32139 RECOMMEND 2470
1413681197539 32139 READING 1583 0.992261
1413681206149 32139 FUNCTION lru lambda h: 0.109814 * (h ** 0.302881)
1413681206149 32139 RECOMMEND 2470
1413681216149 32139 FUNCTION lru lambda h: 0.109814 * (h ** 0.302881)
1413681216149 32139 RECOMMEND 2470
1413681220539 32139 READING 1584 0.996514
1413681226149 32139 FUNCTION lru lambda h: 0.101219 * (h ** 0.314169)
1413681226149 32139 RECOMMEND 2470
1413681227929 32139 READING 1464 0.994095
1413681228555 32139 READING 1570 0.989079
1413681229023 32139 READING 1582 0.974131
1413681229357 32139 READING 1568 0.954356
1413681229694 32139 READING 1569 0.924631
1413681229985 32139 READING 1570 0.882933
1413681230280 32139 READING 1574 0.839635
1413681230574 32139 READING 1574 0.821746
1413681230626 32139 DEATH 239
