2014-09-01 09:10:45    minHeapAttempt: Initialising...
2014-09-01 09:10:45    minHeapAttempt: Initialised
2014-09-01 09:10:45    minHeapAttempt: 
2014-09-01 09:10:45    minHeapAttempt: Testing benchmark:
2014-09-01 09:10:45    minHeapAttempt:     h2, large, 2
2014-09-01 09:10:45    minHeapAttempt: At heap size:
2014-09-01 09:10:45    minHeapAttempt:     271 MB
2014-09-01 09:10:45    minHeapAttempt: 
2014-09-01 09:10:45    minHeapAttempt: Started main process runs
2014-09-01 09:10:45    minHeapAttempt: 
2014-09-01 09:10:45    minHeapAttempt: Run 1 of 1: started
2014-09-01 09:10:45    minHeapAttempt: Starting auxiliary processes...
2014-09-01 09:10:55    minHeapAttempt: Started auxiliary processes
2014-09-01 09:10:55    minHeapAttempt: Running main processes...
2014-09-01 09:12:40    minHeapAttempt: Main processes completed in 104.229459s
2014-09-01 09:12:40    minHeapAttempt: Cleaning up auxiliary processes...
2014-09-01 09:12:50    minHeapAttempt: Cleaned up auxiliary processes
2014-09-01 09:12:50    minHeapAttempt: Run 1 of 1: completed with main runtime of 104.229459s
2014-09-01 09:12:50    minHeapAttempt: 
2014-09-01 09:12:50    minHeapAttempt: Completed main process runs; average runtime 104.229459s
2014-09-01 09:12:50    minHeapAttempt: 
2014-09-01 09:12:50    minHeapAttempt: Cleaning up...
2014-09-01 09:12:50    minHeapAttempt: Benchmark did not complete successfully
2014-09-01 09:12:50    minHeapAttempt: Cleaned up
2014-09-01 09:12:50    minHeapAttempt: 
2014-09-01 09:12:50    minHeapAttempt: Completed in total time 124.276621s
