===== DaCapo 9.12 pmd starting warmup 1 =====
===== DaCapo 9.12 pmd completed warmup 1 in 10629 msec =====
===== DaCapo 9.12 pmd starting warmup 2 =====
===== DaCapo 9.12 pmd completed warmup 2 in 4302 msec =====
===== DaCapo 9.12 pmd starting warmup 3 =====
===== DaCapo 9.12 pmd completed warmup 3 in 4246 msec =====
===== DaCapo 9.12 pmd starting warmup 4 =====
===== DaCapo 9.12 pmd completed warmup 4 in 4754 msec =====
===== DaCapo 9.12 pmd starting warmup 5 =====
===== DaCapo 9.12 pmd completed warmup 5 in 3707 msec =====
===== DaCapo 9.12 pmd starting warmup 6 =====
===== DaCapo 9.12 pmd completed warmup 6 in 3414 msec =====
===== DaCapo 9.12 pmd starting warmup 7 =====
===== DaCapo 9.12 pmd completed warmup 7 in 9477 msec =====
===== DaCapo 9.12 pmd starting warmup 8 =====
===== DaCapo 9.12 pmd completed warmup 8 in 3314 msec =====
===== DaCapo 9.12 pmd starting warmup 9 =====
===== DaCapo 9.12 pmd completed warmup 9 in 3562 msec =====
===== DaCapo 9.12 pmd starting =====
===== DaCapo 9.12 pmd PASSED in 3279 msec =====
