===== DaCapo 9.12 pmd starting warmup 1 =====
===== DaCapo 9.12 pmd completed warmup 1 in 9039 msec =====
===== DaCapo 9.12 pmd starting warmup 2 =====
===== DaCapo 9.12 pmd completed warmup 2 in 3537 msec =====
===== DaCapo 9.12 pmd starting warmup 3 =====
===== DaCapo 9.12 pmd completed warmup 3 in 2587 msec =====
===== DaCapo 9.12 pmd starting warmup 4 =====
===== DaCapo 9.12 pmd completed warmup 4 in 21850 msec =====
===== DaCapo 9.12 pmd starting warmup 5 =====
===== DaCapo 9.12 pmd completed warmup 5 in 3348 msec =====
===== DaCapo 9.12 pmd starting warmup 6 =====
===== DaCapo 9.12 pmd completed warmup 6 in 2470 msec =====
===== DaCapo 9.12 pmd starting warmup 7 =====
===== DaCapo 9.12 pmd completed warmup 7 in 2473 msec =====
===== DaCapo 9.12 pmd starting warmup 8 =====
===== DaCapo 9.12 pmd completed warmup 8 in 2423 msec =====
===== DaCapo 9.12 pmd starting warmup 9 =====
===== DaCapo 9.12 pmd completed warmup 9 in 2442 msec =====
===== DaCapo 9.12 pmd starting =====
===== DaCapo 9.12 pmd PASSED in 23535 msec =====
