economemd
    total memory: 5012 MB
    timer interval: 10 s
    timer start state: running
    utility model: root

    caches:
        lru

    force utility function validity: yes
    make recommendations: yes
    equal recommendations: no

    reading receiver name: vengerov
    command receiver name: vengerov

    dump file: economemd.dump.log
    log file: /home/callum/economics_memory_code/dynamic_sizing/data/output/timerComparisonMany_2014_10_07_10_29_12/sub2_timerComparisonSingle/sub3_timeBenchmarkDaemon/daemon_run09_log.txt
    log readings: yes
    log functions: yes

PyOptimiser: initialising...
PyOptimiser: initialised
CommandThread: starting
TimerThread: starting
ReadingThread: starting
Recommendation: no clients; no recommendation
Recommendation: no clients; no recommendation
Reading from 13602: heap size 9 MB, throughput 0.99175
Clients: 1
Client 13602 has a minimum heap size of 30 MB
Reading from 13601: heap size 9 MB, throughput 0.991908
Clients: 2
Client 13601 has a minimum heap size of 1223 MB
Reading from 13602: heap size 9 MB, throughput 0.988803
Reading from 13602: heap size 9 MB, throughput 0.983516
Reading from 13601: heap size 9 MB, throughput 0.987804
Reading from 13602: heap size 9 MB, throughput 0.977004
Reading from 13602: heap size 11 MB, throughput 0.955407
Reading from 13602: heap size 11 MB, throughput 0.927736
Reading from 13602: heap size 16 MB, throughput 0.890613
Reading from 13602: heap size 16 MB, throughput 0.839124
Reading from 13602: heap size 24 MB, throughput 0.848211
Reading from 13602: heap size 24 MB, throughput 0.826417
Reading from 13601: heap size 9 MB, throughput 0.977483
Reading from 13602: heap size 34 MB, throughput 0.917124
Reading from 13602: heap size 34 MB, throughput 0.909314
Reading from 13602: heap size 50 MB, throughput 0.917326
Reading from 13602: heap size 50 MB, throughput 0.917036
Reading from 13601: heap size 9 MB, throughput 0.973904
Reading from 13602: heap size 76 MB, throughput 0.938316
Reading from 13602: heap size 76 MB, throughput 0.94787
Reading from 13602: heap size 115 MB, throughput 0.954579
Reading from 13601: heap size 11 MB, throughput 0.975354
Reading from 13602: heap size 116 MB, throughput 0.971742
Reading from 13601: heap size 11 MB, throughput 0.970171
Reading from 13601: heap size 17 MB, throughput 0.964322
Reading from 13601: heap size 17 MB, throughput 0.82216
Reading from 13601: heap size 30 MB, throughput 0.710869
Reading from 13601: heap size 31 MB, throughput 0.168287
Reading from 13601: heap size 34 MB, throughput 0.756689
Reading from 13601: heap size 48 MB, throughput 0.776387
Reading from 13601: heap size 51 MB, throughput 0.577629
Reading from 13602: heap size 158 MB, throughput 0.94274
Reading from 13601: heap size 52 MB, throughput 0.540993
Reading from 13601: heap size 70 MB, throughput 0.520026
Reading from 13601: heap size 71 MB, throughput 0.206836
Reading from 13601: heap size 74 MB, throughput 0.809212
Reading from 13602: heap size 169 MB, throughput 0.847684
Reading from 13601: heap size 77 MB, throughput 0.397392
Reading from 13601: heap size 105 MB, throughput 0.217792
Reading from 13601: heap size 105 MB, throughput 0.755544
Reading from 13601: heap size 107 MB, throughput 0.754208
Reading from 13601: heap size 112 MB, throughput 0.714649
Reading from 13601: heap size 115 MB, throughput 0.711966
Reading from 13602: heap size 222 MB, throughput 0.979605
Reading from 13601: heap size 119 MB, throughput 0.386654
Reading from 13602: heap size 238 MB, throughput 0.98617
Reading from 13601: heap size 158 MB, throughput 0.667443
Reading from 13601: heap size 160 MB, throughput 0.692741
Reading from 13601: heap size 162 MB, throughput 0.667219
Reading from 13601: heap size 166 MB, throughput 0.623847
Reading from 13601: heap size 168 MB, throughput 0.540856
Reading from 13601: heap size 176 MB, throughput 0.406866
Reading from 13601: heap size 215 MB, throughput 0.556752
Reading from 13602: heap size 260 MB, throughput 0.982588
Reading from 13601: heap size 219 MB, throughput 0.240985
Reading from 13601: heap size 255 MB, throughput 0.530906
Reading from 13601: heap size 256 MB, throughput 0.600387
Reading from 13601: heap size 256 MB, throughput 0.626375
Reading from 13601: heap size 257 MB, throughput 0.613074
Reading from 13602: heap size 260 MB, throughput 0.981333
Reading from 13601: heap size 259 MB, throughput 0.698996
Reading from 13601: heap size 264 MB, throughput 0.616482
Reading from 13601: heap size 267 MB, throughput 0.601557
Reading from 13601: heap size 276 MB, throughput 0.612563
Reading from 13601: heap size 282 MB, throughput 0.571025
Reading from 13601: heap size 291 MB, throughput 0.545667
Reading from 13602: heap size 286 MB, throughput 0.964014
Reading from 13601: heap size 295 MB, throughput 0.517582
Reading from 13601: heap size 305 MB, throughput 0.425813
Reading from 13602: heap size 299 MB, throughput 0.987908
Reading from 13601: heap size 356 MB, throughput 0.439477
Reading from 13601: heap size 359 MB, throughput 0.183015
Reading from 13601: heap size 398 MB, throughput 0.420928
Reading from 13601: heap size 334 MB, throughput 0.514773
Reading from 13601: heap size 390 MB, throughput 0.540185
Reading from 13601: heap size 396 MB, throughput 0.619666
Reading from 13601: heap size 396 MB, throughput 0.537049
Reading from 13602: heap size 321 MB, throughput 0.988661
Reading from 13601: heap size 398 MB, throughput 0.608981
Reading from 13601: heap size 400 MB, throughput 0.539591
Numeric result:
Recommendation: 2 clients, utility 0.924598:
    h1: 3789 MB (U(h) = 0.861767*h^0.0195821)
    h2: 1223 MB (U(h) = 0.906569*h^0.001)
Recommendation: 2 clients, utility 0.924598:
    h1: 3789 MB (U(h) = 0.861767*h^0.0195821)
    h2: 1223 MB (U(h) = 0.906569*h^0.001)
Reading from 13601: heap size 406 MB, throughput 0.50288
Reading from 13601: heap size 412 MB, throughput 0.516879
Reading from 13601: heap size 418 MB, throughput 0.53029
Reading from 13602: heap size 321 MB, throughput 0.984372
Reading from 13601: heap size 423 MB, throughput 0.36025
Reading from 13601: heap size 475 MB, throughput 0.474351
Reading from 13601: heap size 479 MB, throughput 0.476874
Reading from 13602: heap size 342 MB, throughput 0.98794
Reading from 13601: heap size 480 MB, throughput 0.50023
Reading from 13601: heap size 483 MB, throughput 0.49025
Reading from 13601: heap size 485 MB, throughput 0.518083
Reading from 13602: heap size 344 MB, throughput 0.97932
Reading from 13601: heap size 490 MB, throughput 0.249374
Reading from 13601: heap size 546 MB, throughput 0.471187
Reading from 13601: heap size 540 MB, throughput 0.519774
Reading from 13601: heap size 546 MB, throughput 0.488856
Reading from 13602: heap size 361 MB, throughput 0.979804
Reading from 13601: heap size 542 MB, throughput 0.235728
Reading from 13601: heap size 602 MB, throughput 0.522516
Reading from 13601: heap size 602 MB, throughput 0.586537
Reading from 13601: heap size 606 MB, throughput 0.609786
Reading from 13602: heap size 366 MB, throughput 0.981907
Reading from 13601: heap size 607 MB, throughput 0.603815
Reading from 13601: heap size 613 MB, throughput 0.5453
Reading from 13601: heap size 619 MB, throughput 0.494595
Reading from 13602: heap size 390 MB, throughput 0.982416
Reading from 13601: heap size 629 MB, throughput 0.754865
Reading from 13601: heap size 633 MB, throughput 0.803177
Reading from 13602: heap size 393 MB, throughput 0.984628
Reading from 13601: heap size 645 MB, throughput 0.805824
Reading from 13602: heap size 415 MB, throughput 0.974729
Numeric result:
Recommendation: 2 clients, utility 0.831945:
    h1: 3789 MB (U(h) = 0.853125*h^0.0224812)
    h2: 1223 MB (U(h) = 0.804536*h^0.001)
Recommendation: 2 clients, utility 0.831945:
    h1: 3789 MB (U(h) = 0.853125*h^0.0224812)
    h2: 1223 MB (U(h) = 0.804536*h^0.001)
Reading from 13601: heap size 648 MB, throughput 0.483247
Reading from 13601: heap size 725 MB, throughput 0.610149
Reading from 13602: heap size 417 MB, throughput 0.975782
Reading from 13601: heap size 737 MB, throughput 0.543399
Reading from 13601: heap size 741 MB, throughput 0.568867
Reading from 13601: heap size 743 MB, throughput 0.474884
Reading from 13601: heap size 744 MB, throughput 0.204372
Reading from 13601: heap size 798 MB, throughput 0.299985
Reading from 13601: heap size 805 MB, throughput 0.3397
Reading from 13601: heap size 810 MB, throughput 0.397735
Reading from 13602: heap size 448 MB, throughput 0.983173
Reading from 13602: heap size 448 MB, throughput 0.98205
Reading from 13601: heap size 810 MB, throughput 0.202694
Reading from 13601: heap size 890 MB, throughput 0.633069
Reading from 13601: heap size 892 MB, throughput 0.634348
Reading from 13601: heap size 894 MB, throughput 0.636806
Reading from 13601: heap size 895 MB, throughput 0.645941
Reading from 13602: heap size 474 MB, throughput 0.983609
Reading from 13601: heap size 898 MB, throughput 0.374473
Reading from 13601: heap size 977 MB, throughput 0.872324
Reading from 13601: heap size 981 MB, throughput 0.934088
Reading from 13602: heap size 474 MB, throughput 0.985056
Reading from 13601: heap size 984 MB, throughput 0.95314
Reading from 13601: heap size 978 MB, throughput 0.959248
Reading from 13601: heap size 772 MB, throughput 0.956118
Reading from 13601: heap size 967 MB, throughput 0.937224
Reading from 13601: heap size 818 MB, throughput 0.909447
Reading from 13601: heap size 936 MB, throughput 0.861684
Reading from 13601: heap size 821 MB, throughput 0.846874
Reading from 13601: heap size 918 MB, throughput 0.8336
Reading from 13602: heap size 500 MB, throughput 0.986063
Reading from 13601: heap size 824 MB, throughput 0.846001
Reading from 13601: heap size 905 MB, throughput 0.820036
Reading from 13601: heap size 828 MB, throughput 0.825559
Reading from 13601: heap size 895 MB, throughput 0.841583
Reading from 13601: heap size 833 MB, throughput 0.85822
Reading from 13601: heap size 889 MB, throughput 0.860997
Reading from 13601: heap size 837 MB, throughput 0.852358
Reading from 13602: heap size 501 MB, throughput 0.979346
Reading from 13601: heap size 885 MB, throughput 0.858693
Numeric result:
Recommendation: 2 clients, utility 0.595806:
    h1: 3101.13 MB (U(h) = 0.852234*h^0.0227583)
    h2: 1910.87 MB (U(h) = 0.52358*h^0.0140502)
Recommendation: 2 clients, utility 0.595806:
    h1: 3098.87 MB (U(h) = 0.852234*h^0.0227583)
    h2: 1913.13 MB (U(h) = 0.52358*h^0.0140502)
Reading from 13601: heap size 889 MB, throughput 0.960764
Reading from 13602: heap size 528 MB, throughput 0.99124
Reading from 13601: heap size 889 MB, throughput 0.964423
Reading from 13601: heap size 890 MB, throughput 0.908114
Reading from 13601: heap size 895 MB, throughput 0.873565
Reading from 13601: heap size 898 MB, throughput 0.831626
Reading from 13602: heap size 527 MB, throughput 0.991609
Reading from 13601: heap size 905 MB, throughput 0.811214
Reading from 13601: heap size 906 MB, throughput 0.770755
Reading from 13601: heap size 913 MB, throughput 0.774181
Reading from 13601: heap size 914 MB, throughput 0.745535
Reading from 13601: heap size 920 MB, throughput 0.733191
Reading from 13601: heap size 920 MB, throughput 0.727964
Reading from 13601: heap size 926 MB, throughput 0.729482
Reading from 13602: heap size 547 MB, throughput 0.985331
Reading from 13601: heap size 927 MB, throughput 0.837978
Reading from 13601: heap size 929 MB, throughput 0.853629
Reading from 13601: heap size 932 MB, throughput 0.844839
Reading from 13601: heap size 936 MB, throughput 0.795865
Reading from 13601: heap size 937 MB, throughput 0.731775
Reading from 13601: heap size 951 MB, throughput 0.694728
Reading from 13601: heap size 956 MB, throughput 0.682826
Reading from 13602: heap size 551 MB, throughput 0.986376
Reading from 13601: heap size 968 MB, throughput 0.682335
Reading from 13601: heap size 972 MB, throughput 0.64578
Reading from 13601: heap size 984 MB, throughput 0.644466
Reading from 13601: heap size 988 MB, throughput 0.6225
Reading from 13601: heap size 1000 MB, throughput 0.625981
Reading from 13601: heap size 1004 MB, throughput 0.635217
Reading from 13601: heap size 1019 MB, throughput 0.63462
Reading from 13601: heap size 1022 MB, throughput 0.653825
Reading from 13602: heap size 575 MB, throughput 0.985693
Reading from 13601: heap size 1038 MB, throughput 0.917695
Reading from 13602: heap size 577 MB, throughput 0.988061
Numeric result:
Recommendation: 2 clients, utility 0.8761:
    h1: 549.524 MB (U(h) = 0.850525*h^0.0232742)
    h2: 4462.48 MB (U(h) = 0.181677*h^0.189007)
Recommendation: 2 clients, utility 0.8761:
    h1: 549.508 MB (U(h) = 0.850525*h^0.0232742)
    h2: 4462.49 MB (U(h) = 0.181677*h^0.189007)
Reading from 13602: heap size 600 MB, throughput 0.989749
Reading from 13601: heap size 1041 MB, throughput 0.957882
Reading from 13602: heap size 557 MB, throughput 0.988286
Reading from 13601: heap size 1054 MB, throughput 0.966655
Reading from 13602: heap size 544 MB, throughput 0.990822
Reading from 13602: heap size 569 MB, throughput 0.989587
Reading from 13601: heap size 1056 MB, throughput 0.969081
Reading from 13602: heap size 535 MB, throughput 0.988336
Reading from 13602: heap size 566 MB, throughput 0.990956
Reading from 13601: heap size 1055 MB, throughput 0.96564
Numeric result:
Recommendation: 2 clients, utility 1.05514:
    h1: 392.843 MB (U(h) = 0.849188*h^0.0236735)
    h2: 4619.16 MB (U(h) = 0.102993*h^0.278364)
Recommendation: 2 clients, utility 1.05514:
    h1: 392.838 MB (U(h) = 0.849188*h^0.0236735)
    h2: 4619.16 MB (U(h) = 0.102993*h^0.278364)
Reading from 13602: heap size 523 MB, throughput 0.988633
Reading from 13601: heap size 1060 MB, throughput 0.965991
Reading from 13602: heap size 508 MB, throughput 0.989917
Reading from 13602: heap size 471 MB, throughput 0.985719
Reading from 13601: heap size 1050 MB, throughput 0.968605
Reading from 13602: heap size 460 MB, throughput 0.989725
Reading from 13602: heap size 431 MB, throughput 0.990273
Reading from 13602: heap size 415 MB, throughput 0.992267
Reading from 13601: heap size 1056 MB, throughput 0.971324
Reading from 13602: heap size 397 MB, throughput 0.986785
Reading from 13602: heap size 394 MB, throughput 0.98915
Numeric result:
Recommendation: 2 clients, utility 1.19106:
    h1: 334.103 MB (U(h) = 0.847647*h^0.024225)
    h2: 4677.9 MB (U(h) = 0.0694616*h^0.339187)
Recommendation: 2 clients, utility 1.19106:
    h1: 334.099 MB (U(h) = 0.847647*h^0.024225)
    h2: 4677.9 MB (U(h) = 0.0694616*h^0.339187)
Reading from 13601: heap size 1042 MB, throughput 0.970998
Reading from 13602: heap size 369 MB, throughput 0.9875
Reading from 13602: heap size 358 MB, throughput 0.988082
Reading from 13602: heap size 342 MB, throughput 0.990911
Reading from 13601: heap size 984 MB, throughput 0.971833
Reading from 13602: heap size 329 MB, throughput 0.986768
Reading from 13602: heap size 347 MB, throughput 0.988094
Reading from 13602: heap size 332 MB, throughput 0.990194
Reading from 13601: heap size 1038 MB, throughput 0.973926
Reading from 13602: heap size 349 MB, throughput 0.986306
Reading from 13602: heap size 329 MB, throughput 0.98825
Reading from 13602: heap size 339 MB, throughput 0.990765
Reading from 13601: heap size 1043 MB, throughput 0.972083
Reading from 13602: heap size 313 MB, throughput 0.990806
Numeric result:
Recommendation: 2 clients, utility 1.3421:
    h1: 291.898 MB (U(h) = 0.847211*h^0.0246429)
    h2: 4720.1 MB (U(h) = 0.0473574*h^0.398387)
Recommendation: 2 clients, utility 1.3421:
    h1: 291.965 MB (U(h) = 0.847211*h^0.0246429)
    h2: 4720.04 MB (U(h) = 0.0473574*h^0.398387)
Reading from 13602: heap size 330 MB, throughput 0.991915
Reading from 13602: heap size 302 MB, throughput 0.991887
Reading from 13602: heap size 296 MB, throughput 0.985168
Reading from 13601: heap size 1040 MB, throughput 0.966259
Reading from 13602: heap size 287 MB, throughput 0.985332
Reading from 13602: heap size 298 MB, throughput 0.98953
Reading from 13602: heap size 276 MB, throughput 0.990005
Reading from 13602: heap size 288 MB, throughput 0.980815
Reading from 13601: heap size 1042 MB, throughput 0.967815
Reading from 13602: heap size 288 MB, throughput 0.984734
Reading from 13602: heap size 300 MB, throughput 0.987009
Reading from 13602: heap size 280 MB, throughput 0.984559
Reading from 13602: heap size 293 MB, throughput 0.980512
Reading from 13601: heap size 1044 MB, throughput 0.968387
Reading from 13602: heap size 274 MB, throughput 0.984174
Reading from 13602: heap size 283 MB, throughput 0.987846
Numeric result:
Recommendation: 2 clients, utility 1.4401:
    h1: 272.102 MB (U(h) = 0.848183*h^0.0248334)
    h2: 4739.9 MB (U(h) = 0.0379565*h^0.432604)
Recommendation: 2 clients, utility 1.4401:
    h1: 272.092 MB (U(h) = 0.848183*h^0.0248334)
    h2: 4739.91 MB (U(h) = 0.0379565*h^0.432604)
Reading from 13602: heap size 283 MB, throughput 0.984212
Reading from 13602: heap size 267 MB, throughput 0.985634
Reading from 13602: heap size 276 MB, throughput 0.984041
Reading from 13602: heap size 268 MB, throughput 0.979095
Reading from 13601: heap size 1045 MB, throughput 0.908554
Reading from 13602: heap size 277 MB, throughput 0.977898
Reading from 13602: heap size 269 MB, throughput 0.983485
Reading from 13602: heap size 279 MB, throughput 0.98614
Reading from 13602: heap size 271 MB, throughput 0.98165
Reading from 13601: heap size 1131 MB, throughput 0.959345
Reading from 13602: heap size 279 MB, throughput 0.980857
Reading from 13602: heap size 265 MB, throughput 0.982673
Reading from 13602: heap size 284 MB, throughput 0.984606
Reading from 13602: heap size 269 MB, throughput 0.978926
Numeric result:
Recommendation: 2 clients, utility 1.42891:
    h1: 276.589 MB (U(h) = 0.848785*h^0.0248321)
    h2: 4735.41 MB (U(h) = 0.0400869*h^0.425148)
Recommendation: 2 clients, utility 1.42891:
    h1: 276.586 MB (U(h) = 0.848785*h^0.0248321)
    h2: 4735.41 MB (U(h) = 0.0400869*h^0.425148)
Reading from 13602: heap size 278 MB, throughput 0.971736
Reading from 13601: heap size 1134 MB, throughput 0.967482
Reading from 13602: heap size 264 MB, throughput 0.977594
Reading from 13602: heap size 284 MB, throughput 0.984807
Reading from 13602: heap size 269 MB, throughput 0.986124
Reading from 13602: heap size 279 MB, throughput 0.981201
Reading from 13601: heap size 1134 MB, throughput 0.971612
Reading from 13602: heap size 262 MB, throughput 0.985034
Reading from 13602: heap size 280 MB, throughput 0.986873
Reading from 13602: heap size 261 MB, throughput 0.982497
Reading from 13602: heap size 274 MB, throughput 0.981595
Reading from 13601: heap size 1136 MB, throughput 0.974435
Reading from 13602: heap size 285 MB, throughput 0.985401
Reading from 13602: heap size 266 MB, throughput 0.98879
Reading from 13602: heap size 277 MB, throughput 0.983122
Reading from 13602: heap size 276 MB, throughput 0.986682
Reading from 13602: heap size 288 MB, throughput 0.982911
Reading from 13601: heap size 1129 MB, throughput 0.976276
Numeric result:
Recommendation: 2 clients, utility 1.68932:
    h1: 229.942 MB (U(h) = 0.849301*h^0.024819)
    h2: 4782.06 MB (U(h) = 0.0219109*h^0.516189)
Recommendation: 2 clients, utility 1.68932:
    h1: 229.928 MB (U(h) = 0.849301*h^0.024819)
    h2: 4782.07 MB (U(h) = 0.0219109*h^0.516189)
Reading from 13602: heap size 269 MB, throughput 0.987094
Reading from 13602: heap size 261 MB, throughput 0.974162
Reading from 13602: heap size 262 MB, throughput 0.980323
Reading from 13602: heap size 249 MB, throughput 0.983106
Reading from 13601: heap size 1133 MB, throughput 0.976773
Reading from 13602: heap size 242 MB, throughput 0.98453
Reading from 13602: heap size 236 MB, throughput 0.97868
Reading from 13602: heap size 233 MB, throughput 0.975105
Reading from 13602: heap size 226 MB, throughput 0.974589
Reading from 13602: heap size 237 MB, throughput 0.976219
Reading from 13602: heap size 223 MB, throughput 0.966667
Reading from 13601: heap size 1125 MB, throughput 0.976176
Reading from 13602: heap size 237 MB, throughput 0.968283
Reading from 13602: heap size 231 MB, throughput 0.984986
Reading from 13602: heap size 219 MB, throughput 0.975616
Reading from 13602: heap size 223 MB, throughput 0.984467
Reading from 13602: heap size 232 MB, throughput 0.98814
Reading from 13601: heap size 1129 MB, throughput 0.977819
Reading from 13602: heap size 210 MB, throughput 0.987596
Numeric result:
Recommendation: 2 clients, utility 1.9133:
    h1: 202.231 MB (U(h) = 0.851173*h^0.0245874)
    h2: 4809.77 MB (U(h) = 0.0138627*h^0.584777)
Recommendation: 2 clients, utility 1.9133:
    h1: 202.23 MB (U(h) = 0.851173*h^0.0245874)
    h2: 4809.77 MB (U(h) = 0.0138627*h^0.584777)
Reading from 13602: heap size 228 MB, throughput 0.976685
Reading from 13602: heap size 210 MB, throughput 0.980866
Reading from 13602: heap size 204 MB, throughput 0.981387
Reading from 13602: heap size 200 MB, throughput 0.981329
Reading from 13602: heap size 208 MB, throughput 0.975766
Reading from 13601: heap size 1127 MB, throughput 0.978191
Reading from 13602: heap size 196 MB, throughput 0.974344
Reading from 13602: heap size 211 MB, throughput 0.977799
Reading from 13602: heap size 196 MB, throughput 0.980445
Reading from 13602: heap size 207 MB, throughput 0.978452
Reading from 13602: heap size 192 MB, throughput 0.979731
Reading from 13602: heap size 208 MB, throughput 0.973745
Reading from 13602: heap size 197 MB, throughput 0.965924
Reading from 13601: heap size 1129 MB, throughput 0.977183
Reading from 13602: heap size 206 MB, throughput 0.974367
Reading from 13602: heap size 191 MB, throughput 0.979312
Reading from 13602: heap size 207 MB, throughput 0.981567
Reading from 13602: heap size 189 MB, throughput 0.979958
Reading from 13602: heap size 202 MB, throughput 0.983519
Reading from 13602: heap size 213 MB, throughput 0.982207
Reading from 13602: heap size 197 MB, throughput 0.98498
Reading from 13601: heap size 1131 MB, throughput 0.973279
Reading from 13602: heap size 209 MB, throughput 0.983822
Numeric result:
Recommendation: 2 clients, utility 2.06235:
    h1: 141.15 MB (U(h) = 0.885269*h^0.0180675)
    h2: 4870.85 MB (U(h) = 0.0106942*h^0.623521)
Recommendation: 2 clients, utility 2.06235:
    h1: 141.141 MB (U(h) = 0.885269*h^0.0180675)
    h2: 4870.86 MB (U(h) = 0.0106942*h^0.623521)
Reading from 13602: heap size 191 MB, throughput 0.984038
Reading from 13602: heap size 189 MB, throughput 0.977047
Reading from 13602: heap size 182 MB, throughput 0.977147
Reading from 13602: heap size 177 MB, throughput 0.980151
Reading from 13602: heap size 170 MB, throughput 0.980029
Reading from 13602: heap size 168 MB, throughput 0.981992
Reading from 13602: heap size 160 MB, throughput 0.98481
Reading from 13601: heap size 1132 MB, throughput 0.974208
Reading from 13602: heap size 160 MB, throughput 0.984695
Reading from 13602: heap size 153 MB, throughput 0.977847
Reading from 13602: heap size 152 MB, throughput 0.977933
Reading from 13602: heap size 143 MB, throughput 0.975417
Reading from 13602: heap size 147 MB, throughput 0.981109
Reading from 13602: heap size 140 MB, throughput 0.977475
Reading from 13602: heap size 147 MB, throughput 0.981431
Reading from 13602: heap size 137 MB, throughput 0.980902
Reading from 13602: heap size 145 MB, throughput 0.974155
Reading from 13602: heap size 135 MB, throughput 0.971312
Reading from 13601: heap size 1134 MB, throughput 0.969264
Reading from 13602: heap size 143 MB, throughput 0.980604
Reading from 13602: heap size 128 MB, throughput 0.980982
Reading from 13602: heap size 140 MB, throughput 0.975027
Reading from 13602: heap size 140 MB, throughput 0.974832
Reading from 13602: heap size 147 MB, throughput 0.981376
Reading from 13602: heap size 139 MB, throughput 0.975454
Reading from 13602: heap size 144 MB, throughput 0.972823
Reading from 13602: heap size 136 MB, throughput 0.977406
Reading from 13602: heap size 142 MB, throughput 0.979025
Reading from 13602: heap size 135 MB, throughput 0.970804
Reading from 13602: heap size 138 MB, throughput 0.979919
Reading from 13602: heap size 138 MB, throughput 0.956975
Reading from 13601: heap size 1137 MB, throughput 0.967254
Reading from 13602: heap size 146 MB, throughput 0.963473
Numeric result:
Recommendation: 2 clients, utility 2.3701:
    h1: 73.9977 MB (U(h) = 0.927175*h^0.0104259)
    h2: 4938 MB (U(h) = 0.00658252*h^0.695733)
Recommendation: 2 clients, utility 2.3701:
    h1: 73.9984 MB (U(h) = 0.927175*h^0.0104259)
    h2: 4938 MB (U(h) = 0.00658252*h^0.695733)
Reading from 13602: heap size 141 MB, throughput 0.974206
Reading from 13602: heap size 134 MB, throughput 0.9686
Reading from 13602: heap size 130 MB, throughput 0.964732
Reading from 13602: heap size 125 MB, throughput 0.96153
Reading from 13602: heap size 122 MB, throughput 0.967564
Reading from 13602: heap size 119 MB, throughput 0.972113
Reading from 13602: heap size 115 MB, throughput 0.979899
Reading from 13602: heap size 114 MB, throughput 0.974957
Reading from 13602: heap size 108 MB, throughput 0.980397
Reading from 13602: heap size 116 MB, throughput 0.959887
Reading from 13602: heap size 111 MB, throughput 0.957366
Reading from 13601: heap size 1140 MB, throughput 0.967215
Reading from 13602: heap size 113 MB, throughput 0.937105
Reading from 13602: heap size 111 MB, throughput 0.946659
Reading from 13602: heap size 112 MB, throughput 0.90558
Reading from 13602: heap size 87 MB, throughput 0.946546
Reading from 13602: heap size 97 MB, throughput 0.84591
Reading from 13602: heap size 83 MB, throughput 0.913779
Reading from 13602: heap size 83 MB, throughput 0.913789
Reading from 13602: heap size 83 MB, throughput 0.903136
Reading from 13602: heap size 101 MB, throughput 0.957741
Reading from 13602: heap size 82 MB, throughput 0.977342
Reading from 13602: heap size 98 MB, throughput 0.983718
Reading from 13602: heap size 80 MB, throughput 0.968929
Reading from 13602: heap size 94 MB, throughput 0.981409
Reading from 13602: heap size 78 MB, throughput 0.989793
Reading from 13602: heap size 92 MB, throughput 0.982744
Reading from 13602: heap size 80 MB, throughput 0.981735
Reading from 13602: heap size 88 MB, throughput 0.981957
Reading from 13602: heap size 78 MB, throughput 0.956847
Reading from 13602: heap size 87 MB, throughput 0.91131
Reading from 13602: heap size 88 MB, throughput 0.89162
Reading from 13602: heap size 88 MB, throughput 0.478698
Reading from 13602: heap size 90 MB, throughput 0.931639
Reading from 13602: heap size 89 MB, throughput 0.93924
Reading from 13602: heap size 77 MB, throughput 0.0583048
Reading from 13601: heap size 1144 MB, throughput 0.967941
Reading from 13602: heap size 86 MB, throughput 0.248551
Reading from 13602: heap size 68 MB, throughput 0.333868
Reading from 13602: heap size 87 MB, throughput 0.640912
Reading from 13602: heap size 72 MB, throughput 0.828988
Reading from 13602: heap size 87 MB, throughput 0.746074
Reading from 13602: heap size 70 MB, throughput 0.939339
Reading from 13602: heap size 91 MB, throughput 0.972848
Reading from 13602: heap size 74 MB, throughput 0.980603
Reading from 13602: heap size 91 MB, throughput 0.548778
Reading from 13602: heap size 91 MB, throughput 0.548818
Reading from 13602: heap size 91 MB, throughput 0.563578
Reading from 13602: heap size 74 MB, throughput 0.942899
Reading from 13602: heap size 87 MB, throughput 0.971729
Reading from 13602: heap size 74 MB, throughput 0.978499
Reading from 13602: heap size 88 MB, throughput 0.984803
Reading from 13602: heap size 74 MB, throughput 0.981066
Reading from 13602: heap size 87 MB, throughput 0.990163
Reading from 13602: heap size 77 MB, throughput 0.981659
Reading from 13602: heap size 84 MB, throughput 0.973947
Reading from 13602: heap size 77 MB, throughput 0.976844
Reading from 13602: heap size 82 MB, throughput 0.953411
Reading from 13602: heap size 82 MB, throughput 0.811221
Reading from 13602: heap size 81 MB, throughput 0.745624
Reading from 13602: heap size 83 MB, throughput 0.914358
Reading from 13602: heap size 85 MB, throughput 0.91701
Reading from 13602: heap size 86 MB, throughput 0.915485
Reading from 13602: heap size 86 MB, throughput 0.919292
Reading from 13602: heap size 87 MB, throughput 0.916497
Reading from 13602: heap size 86 MB, throughput 0.936704
Reading from 13602: heap size 74 MB, throughput 0.938878
Reading from 13602: heap size 85 MB, throughput 0.952589
Reading from 13602: heap size 85 MB, throughput 0.937749
Reading from 13602: heap size 83 MB, throughput 0.94836
Reading from 13602: heap size 71 MB, throughput 0.931678
Reading from 13602: heap size 86 MB, throughput 0.317812
Reading from 13601: heap size 1149 MB, throughput 0.96928
Reading from 13602: heap size 85 MB, throughput 0.447159
Reading from 13602: heap size 84 MB, throughput 0.850631
Reading from 13602: heap size 70 MB, throughput 0.942757
Numeric result:
Recommendation: 2 clients, utility 2.91031:
    h1: 782.127 MB (U(h) = 0.460303*h^0.141711)
    h2: 4229.87 MB (U(h) = 0.0040888*h^0.76642)
Recommendation: 2 clients, utility 2.91031:
    h1: 782.109 MB (U(h) = 0.460303*h^0.141711)
    h2: 4229.89 MB (U(h) = 0.0040888*h^0.76642)
Reading from 13602: heap size 84 MB, throughput 0.96576
Reading from 13602: heap size 84 MB, throughput 0.977071
Reading from 13602: heap size 84 MB, throughput 0.983521
Reading from 13602: heap size 85 MB, throughput 0.986119
Reading from 13602: heap size 85 MB, throughput 0.987575
Reading from 13602: heap size 86 MB, throughput 0.983728
Reading from 13602: heap size 85 MB, throughput 0.988605
Reading from 13602: heap size 86 MB, throughput 0.98554
Reading from 13602: heap size 87 MB, throughput 0.990408
Reading from 13602: heap size 87 MB, throughput 0.985664
Reading from 13602: heap size 89 MB, throughput 0.983295
Reading from 13602: heap size 89 MB, throughput 0.976546
Reading from 13602: heap size 92 MB, throughput 0.860635
Reading from 13602: heap size 92 MB, throughput 0.810247
Reading from 13602: heap size 96 MB, throughput 0.833179
Reading from 13602: heap size 99 MB, throughput 0.577385
Reading from 13602: heap size 103 MB, throughput 0.948841
Reading from 13602: heap size 105 MB, throughput 0.957237
Reading from 13602: heap size 110 MB, throughput 0.955209
Reading from 13602: heap size 111 MB, throughput 0.937697
Reading from 13602: heap size 117 MB, throughput 0.946044
Reading from 13602: heap size 118 MB, throughput 0.963475
Reading from 13601: heap size 1153 MB, throughput 0.967074
Reading from 13602: heap size 120 MB, throughput 0.972719
Reading from 13602: heap size 122 MB, throughput 0.947217
Reading from 13602: heap size 128 MB, throughput 0.879932
Reading from 13602: heap size 128 MB, throughput 0.943866
Reading from 13602: heap size 132 MB, throughput 0.971519
Reading from 13602: heap size 133 MB, throughput 0.957413
Reading from 13602: heap size 136 MB, throughput 0.954102
Reading from 13602: heap size 138 MB, throughput 0.967017
Reading from 13602: heap size 146 MB, throughput 0.964276
Reading from 13602: heap size 147 MB, throughput 0.946367
Reading from 13602: heap size 156 MB, throughput 0.962386
Reading from 13602: heap size 157 MB, throughput 0.964823
Reading from 13602: heap size 164 MB, throughput 0.969373
Reading from 13601: heap size 1157 MB, throughput 0.965015
Reading from 13602: heap size 165 MB, throughput 0.984461
Reading from 13602: heap size 173 MB, throughput 0.971399
Reading from 13602: heap size 175 MB, throughput 0.975353
Reading from 13602: heap size 186 MB, throughput 0.975564
Reading from 13602: heap size 187 MB, throughput 0.976224
Reading from 13602: heap size 197 MB, throughput 0.980281
Reading from 13602: heap size 198 MB, throughput 0.974926
Reading from 13602: heap size 209 MB, throughput 0.97874
Numeric result:
Recommendation: 2 clients, utility 2.96979:
    h1: 885.132 MB (U(h) = 0.42689*h^0.160112)
    h2: 4126.87 MB (U(h) = 0.00469269*h^0.746521)
Recommendation: 2 clients, utility 2.96979:
    h1: 885.122 MB (U(h) = 0.42689*h^0.160112)
    h2: 4126.88 MB (U(h) = 0.00469269*h^0.746521)
Reading from 13602: heap size 209 MB, throughput 0.944294
Reading from 13602: heap size 219 MB, throughput 0.951901
Reading from 13602: heap size 220 MB, throughput 0.964273
Reading from 13601: heap size 1160 MB, throughput 0.93987
Reading from 13602: heap size 236 MB, throughput 0.97901
Reading from 13602: heap size 237 MB, throughput 0.974686
Reading from 13602: heap size 250 MB, throughput 0.980715
Reading from 13602: heap size 252 MB, throughput 0.984798
Reading from 13602: heap size 263 MB, throughput 0.987575
Reading from 13602: heap size 265 MB, throughput 0.989156
Reading from 13601: heap size 1265 MB, throughput 0.956803
Reading from 13602: heap size 277 MB, throughput 0.984872
Reading from 13602: heap size 278 MB, throughput 0.987147
Reading from 13602: heap size 288 MB, throughput 0.987509
Reading from 13602: heap size 290 MB, throughput 0.969512
Reading from 13601: heap size 1267 MB, throughput 0.968252
Reading from 13602: heap size 315 MB, throughput 0.991306
Numeric result:
Recommendation: 2 clients, utility 3.20832:
    h1: 734.608 MB (U(h) = 0.466902*h^0.141263)
    h2: 4277.39 MB (U(h) = 0.0027899*h^0.822487)
Recommendation: 2 clients, utility 3.20832:
    h1: 734.641 MB (U(h) = 0.466902*h^0.141263)
    h2: 4277.36 MB (U(h) = 0.0027899*h^0.822487)
Reading from 13602: heap size 319 MB, throughput 0.991123
Reading from 13602: heap size 332 MB, throughput 0.990405
Reading from 13602: heap size 334 MB, throughput 0.983055
Reading from 13601: heap size 1273 MB, throughput 0.972249
Reading from 13602: heap size 348 MB, throughput 0.986141
Reading from 13602: heap size 350 MB, throughput 0.981069
Reading from 13602: heap size 369 MB, throughput 0.984369
Reading from 13602: heap size 370 MB, throughput 0.982377
Reading from 13601: heap size 1274 MB, throughput 0.97573
Reading from 13602: heap size 392 MB, throughput 0.9785
Reading from 13602: heap size 392 MB, throughput 0.978876
Reading from 13602: heap size 420 MB, throughput 0.97026
Reading from 13601: heap size 1272 MB, throughput 0.974165
Numeric result:
Recommendation: 2 clients, utility 3.4477:
    h1: 540.021 MB (U(h) = 0.543281*h^0.109419)
    h2: 4471.98 MB (U(h) = 0.00156966*h^0.906101)
Recommendation: 2 clients, utility 3.4477:
    h1: 540.026 MB (U(h) = 0.543281*h^0.109419)
    h2: 4471.97 MB (U(h) = 0.00156966*h^0.906101)
Reading from 13602: heap size 422 MB, throughput 0.974176
Reading from 13602: heap size 454 MB, throughput 0.979625
Reading from 13602: heap size 455 MB, throughput 0.976941
Reading from 13601: heap size 1275 MB, throughput 0.974623
Reading from 13602: heap size 482 MB, throughput 0.983552
Reading from 13602: heap size 486 MB, throughput 0.984082
Reading from 13602: heap size 512 MB, throughput 0.988168
Reading from 13601: heap size 1269 MB, throughput 0.975113
Reading from 13602: heap size 514 MB, throughput 0.983421
Reading from 13602: heap size 542 MB, throughput 0.987549
Numeric result:
Recommendation: 2 clients, utility 3.48218:
    h1: 422.717 MB (U(h) = 0.605274*h^0.0862356)
    h2: 4589.28 MB (U(h) = 0.0012745*h^0.936193)
Recommendation: 2 clients, utility 3.48218:
    h1: 422.731 MB (U(h) = 0.605274*h^0.0862356)
    h2: 4589.27 MB (U(h) = 0.0012745*h^0.936193)
Reading from 13601: heap size 1273 MB, throughput 0.97093
Reading from 13602: heap size 504 MB, throughput 0.984597
Reading from 13602: heap size 492 MB, throughput 0.98856
Reading from 13602: heap size 464 MB, throughput 0.979072
Reading from 13601: heap size 1265 MB, throughput 0.973516
Reading from 13602: heap size 452 MB, throughput 0.992068
Reading from 13602: heap size 420 MB, throughput 0.990841
Reading from 13602: heap size 455 MB, throughput 0.992192
Reading from 13601: heap size 1269 MB, throughput 0.974616
Reading from 13602: heap size 420 MB, throughput 0.988585
Numeric result:
Recommendation: 2 clients, utility 3.46109:
    h1: 406.386 MB (U(h) = 0.614314*h^0.0826435)
    h2: 4605.61 MB (U(h) = 0.00127106*h^0.936603)
Recommendation: 2 clients, utility 3.46109:
    h1: 406.388 MB (U(h) = 0.614314*h^0.0826435)
    h2: 4605.61 MB (U(h) = 0.00127106*h^0.936603)
Reading from 13602: heap size 439 MB, throughput 0.988056
Reading from 13602: heap size 409 MB, throughput 0.990682
Reading from 13601: heap size 1271 MB, throughput 0.974366
Reading from 13602: heap size 395 MB, throughput 0.982665
Reading from 13602: heap size 409 MB, throughput 0.984007
Reading from 13602: heap size 383 MB, throughput 0.982637
Reading from 13602: heap size 421 MB, throughput 0.98469
Reading from 13601: heap size 1272 MB, throughput 0.974908
Reading from 13602: heap size 396 MB, throughput 0.989439
Reading from 13602: heap size 412 MB, throughput 0.983102
Reading from 13602: heap size 400 MB, throughput 0.987075
Numeric result:
Recommendation: 2 clients, utility 3.49952:
    h1: 399.376 MB (U(h) = 0.612198*h^0.0821293)
    h2: 4612.62 MB (U(h) = 0.00116937*h^0.948571)
Recommendation: 2 clients, utility 3.49952:
    h1: 399.371 MB (U(h) = 0.612198*h^0.0821293)
    h2: 4612.63 MB (U(h) = 0.00116937*h^0.948571)
Reading from 13602: heap size 426 MB, throughput 0.985107
Reading from 13602: heap size 401 MB, throughput 0.986178
Reading from 13602: heap size 389 MB, throughput 0.987679
Reading from 13602: heap size 398 MB, throughput 0.982872
Reading from 13602: heap size 406 MB, throughput 0.986649
Reading from 13602: heap size 374 MB, throughput 0.985557
Reading from 13602: heap size 411 MB, throughput 0.98798
Reading from 13602: heap size 378 MB, throughput 0.98994
Reading from 13602: heap size 398 MB, throughput 0.981442
Reading from 13602: heap size 419 MB, throughput 0.987656
Numeric result:
Recommendation: 2 clients, utility 3.48962:
    h1: 419.227 MB (U(h) = 0.594323*h^0.0865853)
    h2: 4592.77 MB (U(h) = 0.00116937*h^0.948571)
Recommendation: 2 clients, utility 3.48962:
    h1: 419.227 MB (U(h) = 0.594323*h^0.0865853)
    h2: 4592.77 MB (U(h) = 0.00116937*h^0.948571)
Reading from 13602: heap size 386 MB, throughput 0.987057
Reading from 13602: heap size 408 MB, throughput 0.988544
Reading from 13602: heap size 407 MB, throughput 0.990284
Reading from 13601: heap size 1275 MB, throughput 0.98745
Reading from 13602: heap size 425 MB, throughput 0.984466
Reading from 13602: heap size 408 MB, throughput 0.988488
Reading from 13602: heap size 416 MB, throughput 0.98707
Reading from 13602: heap size 421 MB, throughput 0.988434
Reading from 13602: heap size 389 MB, throughput 0.991278
Reading from 13602: heap size 426 MB, throughput 0.984847
Reading from 13602: heap size 407 MB, throughput 0.988765
Reading from 13602: heap size 419 MB, throughput 0.992375
Numeric result:
Recommendation: 2 clients, utility 3.47449:
    h1: 335.219 MB (U(h) = 0.6602*h^0.0680199)
    h2: 4676.78 MB (U(h) = 0.00116659*h^0.94893)
Recommendation: 2 clients, utility 3.47449:
    h1: 335.233 MB (U(h) = 0.6602*h^0.0680199)
    h2: 4676.77 MB (U(h) = 0.00116659*h^0.94893)
Reading from 13602: heap size 382 MB, throughput 0.991222
Reading from 13602: heap size 375 MB, throughput 0.99238
Reading from 13602: heap size 361 MB, throughput 0.983604
Reading from 13602: heap size 362 MB, throughput 0.987363
Reading from 13602: heap size 338 MB, throughput 0.988989
Reading from 13602: heap size 328 MB, throughput 0.98299
Reading from 13602: heap size 354 MB, throughput 0.985473
Reading from 13602: heap size 330 MB, throughput 0.989263
Reading from 13602: heap size 345 MB, throughput 0.98348
Reading from 13602: heap size 327 MB, throughput 0.986499
Reading from 13602: heap size 336 MB, throughput 0.964544
Reading from 13601: heap size 1278 MB, throughput 0.968197
Numeric result:
Recommendation: 2 clients, utility 3.55232:
    h1: 241.002 MB (U(h) = 0.739773*h^0.0485664)
    h2: 4771 MB (U(h) = 0.0010689*h^0.961448)
Recommendation: 2 clients, utility 3.55232:
    h1: 241.001 MB (U(h) = 0.739773*h^0.0485664)
    h2: 4771 MB (U(h) = 0.0010689*h^0.961448)
Reading from 13602: heap size 311 MB, throughput 0.977284
Reading from 13602: heap size 302 MB, throughput 0.980414
Reading from 13602: heap size 288 MB, throughput 0.985122
Reading from 13602: heap size 283 MB, throughput 0.98666
Reading from 13602: heap size 271 MB, throughput 0.98124
Reading from 13602: heap size 268 MB, throughput 0.982369
Reading from 13602: heap size 255 MB, throughput 0.985687
Reading from 13602: heap size 255 MB, throughput 0.986171
Reading from 13602: heap size 243 MB, throughput 0.981753
Reading from 13602: heap size 242 MB, throughput 0.979093
Reading from 13602: heap size 235 MB, throughput 0.984072
Reading from 13602: heap size 242 MB, throughput 0.984608
Reading from 13601: heap size 1331 MB, throughput 0.990969
Reading from 13602: heap size 227 MB, throughput 0.986132
Reading from 13601: heap size 1351 MB, throughput 0.987989
Reading from 13602: heap size 237 MB, throughput 0.980722
Reading from 13601: heap size 1353 MB, throughput 0.977593
Reading from 13602: heap size 237 MB, throughput 0.979395
Reading from 13601: heap size 1353 MB, throughput 0.958182
Reading from 13601: heap size 1368 MB, throughput 0.933269
Reading from 13602: heap size 250 MB, throughput 0.985175
Reading from 13601: heap size 1379 MB, throughput 0.89458
Reading from 13602: heap size 236 MB, throughput 0.986216
Reading from 13601: heap size 1401 MB, throughput 0.850954
Reading from 13601: heap size 1407 MB, throughput 0.80408
Reading from 13602: heap size 245 MB, throughput 0.986864
Reading from 13601: heap size 1435 MB, throughput 0.830061
Numeric result:
Recommendation: 2 clients, utility 2.76129:
    h1: 116.378 MB (U(h) = 0.880106*h^0.0190126)
    h2: 4895.62 MB (U(h) = 0.00320782*h^0.799795)
Recommendation: 2 clients, utility 2.76129:
    h1: 116.378 MB (U(h) = 0.880106*h^0.0190126)
    h2: 4895.62 MB (U(h) = 0.00320782*h^0.799795)
Reading from 13602: heap size 232 MB, throughput 0.9818
Reading from 13602: heap size 223 MB, throughput 0.978579
Reading from 13602: heap size 214 MB, throughput 0.961097
Reading from 13602: heap size 201 MB, throughput 0.947695
Reading from 13602: heap size 196 MB, throughput 0.972913
Reading from 13602: heap size 188 MB, throughput 0.976406
Reading from 13602: heap size 183 MB, throughput 0.980373
Reading from 13602: heap size 181 MB, throughput 0.978547
Reading from 13601: heap size 1438 MB, throughput 0.969344
Reading from 13602: heap size 177 MB, throughput 0.858361
Reading from 13602: heap size 170 MB, throughput 0.798921
Reading from 13602: heap size 167 MB, throughput 0.886581
Reading from 13602: heap size 168 MB, throughput 0.918608
Reading from 13602: heap size 161 MB, throughput 0.98434
Reading from 13602: heap size 150 MB, throughput 0.951739
Reading from 13602: heap size 132 MB, throughput 0.958855
Reading from 13602: heap size 146 MB, throughput 0.967272
Reading from 13602: heap size 130 MB, throughput 0.97834
Reading from 13602: heap size 140 MB, throughput 0.967693
Reading from 13602: heap size 136 MB, throughput 0.966475
Reading from 13602: heap size 140 MB, throughput 0.972458
Reading from 13602: heap size 130 MB, throughput 0.959791
Reading from 13602: heap size 136 MB, throughput 0.966997
Reading from 13602: heap size 123 MB, throughput 0.249115
Reading from 13602: heap size 133 MB, throughput 0.0377091
Reading from 13601: heap size 1456 MB, throughput 0.981866
Reading from 13602: heap size 112 MB, throughput 0.985556
Reading from 13602: heap size 133 MB, throughput 0.984848
Reading from 13602: heap size 111 MB, throughput 0.987284
Reading from 13602: heap size 131 MB, throughput 0.990635
Reading from 13602: heap size 111 MB, throughput 0.814503
Reading from 13602: heap size 130 MB, throughput 0.917968
Reading from 13602: heap size 127 MB, throughput 0.0782009
Reading from 13602: heap size 125 MB, throughput 0.956132
Reading from 13602: heap size 121 MB, throughput 0.912355
Reading from 13602: heap size 137 MB, throughput 0.915954
Numeric result:
Recommendation: 2 clients, utility 3.05719:
    h1: 1096.18 MB (U(h) = 0.258967*h^0.226536)
    h2: 3915.82 MB (U(h) = 0.00299192*h^0.809248)
Recommendation: 2 clients, utility 3.05719:
    h1: 1096.18 MB (U(h) = 0.258967*h^0.226536)
    h2: 3915.82 MB (U(h) = 0.00299192*h^0.809248)
Reading from 13602: heap size 119 MB, throughput 0.829885
Reading from 13602: heap size 137 MB, throughput 0.800113
Reading from 13602: heap size 136 MB, throughput 0.878333
Reading from 13602: heap size 141 MB, throughput 0.930284
Reading from 13602: heap size 142 MB, throughput 0.956074
Reading from 13602: heap size 146 MB, throughput 0.976998
Reading from 13602: heap size 147 MB, throughput 0.98572
Reading from 13602: heap size 151 MB, throughput 0.986379
Reading from 13602: heap size 151 MB, throughput 0.941674
Reading from 13602: heap size 154 MB, throughput 0.904659
Reading from 13601: heap size 1461 MB, throughput 0.981045
Reading from 13602: heap size 157 MB, throughput 0.871295
Reading from 13602: heap size 168 MB, throughput 0.956722
Reading from 13602: heap size 161 MB, throughput 0.957422
Reading from 13602: heap size 168 MB, throughput 0.969018
Reading from 13602: heap size 170 MB, throughput 0.977443
Client 13602 died
Clients: 1
Reading from 13601: heap size 1463 MB, throughput 0.985156
Recommendation: one client; give it all the memory
Reading from 13601: heap size 1471 MB, throughput 0.986798
Reading from 13601: heap size 1461 MB, throughput 0.98748
Recommendation: one client; give it all the memory
Reading from 13601: heap size 1471 MB, throughput 0.987201
Reading from 13601: heap size 1468 MB, throughput 0.988173
Recommendation: one client; give it all the memory
Reading from 13601: heap size 1472 MB, throughput 0.988138
Reading from 13601: heap size 1463 MB, throughput 0.987974
Recommendation: one client; give it all the memory
Reading from 13601: heap size 1470 MB, throughput 0.98724
Reading from 13601: heap size 1468 MB, throughput 0.986658
Recommendation: one client; give it all the memory
Reading from 13601: heap size 1470 MB, throughput 0.986
Recommendation: one client; give it all the memory
Reading from 13601: heap size 1474 MB, throughput 0.98539
Reading from 13601: heap size 1479 MB, throughput 0.983758
Recommendation: one client; give it all the memory
Reading from 13601: heap size 1483 MB, throughput 0.982904
Reading from 13601: heap size 1492 MB, throughput 0.982107
Recommendation: one client; give it all the memory
Reading from 13601: heap size 1499 MB, throughput 0.981867
Reading from 13601: heap size 1507 MB, throughput 0.981602
Recommendation: one client; give it all the memory
Reading from 13601: heap size 1514 MB, throughput 0.981547
Reading from 13601: heap size 1519 MB, throughput 0.98041
Recommendation: one client; give it all the memory
Reading from 13601: heap size 1526 MB, throughput 0.980068
Recommendation: one client; give it all the memory
Reading from 13601: heap size 1529 MB, throughput 0.974149
Reading from 13601: heap size 1629 MB, throughput 0.988245
Recommendation: one client; give it all the memory
Reading from 13601: heap size 1631 MB, throughput 0.991452
Reading from 13601: heap size 1644 MB, throughput 0.992367
Recommendation: one client; give it all the memory
Reading from 13601: heap size 1650 MB, throughput 0.992329
Reading from 13601: heap size 1650 MB, throughput 0.99174
Recommendation: one client; give it all the memory
Reading from 13601: heap size 1479 MB, throughput 0.990882
Reading from 13601: heap size 1635 MB, throughput 0.990162
Recommendation: one client; give it all the memory
Reading from 13601: heap size 1506 MB, throughput 0.988713
Recommendation: one client; give it all the memory
Recommendation: one client; give it all the memory
Recommendation: one client; give it all the memory
Reading from 13601: heap size 1616 MB, throughput 0.995838
Recommendation: one client; give it all the memory
Reading from 13601: heap size 1627 MB, throughput 0.993488
Reading from 13601: heap size 1619 MB, throughput 0.986904
Reading from 13601: heap size 1639 MB, throughput 0.972702
Reading from 13601: heap size 1669 MB, throughput 0.953556
Reading from 13601: heap size 1694 MB, throughput 0.920417
Reading from 13601: heap size 1732 MB, throughput 0.898649
Client 13601 died
Clients: 0
Recommendation: no clients; no recommendation
Recommendation: no clients; no recommendation
TimerThread: finished
ReadingThread: finished
CommandThread: finished
Main: All threads killed, cleaning up
