MemTotal:       16388228 kB
MemFree:        14422112 kB
Buffers:          559188 kB
Cached:           864616 kB
SwapCached:            0 kB
Active:           863988 kB
Inactive:         710272 kB
Active(anon):     151308 kB
Inactive(anon):      344 kB
Active(file):     712680 kB
Inactive(file):   709928 kB
Unevictable:           0 kB
Mlocked:               0 kB
SwapTotal:      16728060 kB
SwapFree:       16728060 kB
Dirty:               776 kB
Writeback:             0 kB
AnonPages:        150516 kB
Mapped:            16764 kB
Shmem:              1188 kB
Slab:             254784 kB
SReclaimable:     235592 kB
SUnreclaim:        19192 kB
KernelStack:        1592 kB
PageTables:         3200 kB
NFS_Unstable:          0 kB
Bounce:                0 kB
WritebackTmp:          0 kB
CommitLimit:    24922172 kB
Committed_AS:     318616 kB
VmallocTotal:   34359738367 kB
VmallocUsed:      114436 kB
VmallocChunk:   34359598892 kB
HardwareCorrupted:     0 kB
AnonHugePages:    129024 kB
HugePages_Total:       0
HugePages_Free:        0
HugePages_Rsvd:        0
HugePages_Surp:        0
Hugepagesize:       2048 kB
DirectMap4k:       82884 kB
DirectMap2M:    16648192 kB
