===== DaCapo 9.12 xalan starting warmup 1 =====
===== DaCapo 9.12 xalan completed warmup 1 in 17626 msec =====
===== DaCapo 9.12 xalan starting warmup 2 =====
===== DaCapo 9.12 xalan completed warmup 2 in 13726 msec =====
===== DaCapo 9.12 xalan starting warmup 3 =====
===== DaCapo 9.12 xalan completed warmup 3 in 13389 msec =====
===== DaCapo 9.12 xalan starting warmup 4 =====
===== DaCapo 9.12 xalan completed warmup 4 in 13192 msec =====
===== DaCapo 9.12 xalan starting warmup 5 =====
===== DaCapo 9.12 xalan completed warmup 5 in 13231 msec =====
===== DaCapo 9.12 xalan starting warmup 6 =====
===== DaCapo 9.12 xalan completed warmup 6 in 13510 msec =====
===== DaCapo 9.12 xalan starting warmup 7 =====
===== DaCapo 9.12 xalan completed warmup 7 in 13409 msec =====
===== DaCapo 9.12 xalan starting warmup 8 =====
===== DaCapo 9.12 xalan completed warmup 8 in 13097 msec =====
===== DaCapo 9.12 xalan starting warmup 9 =====
===== DaCapo 9.12 xalan completed warmup 9 in 13167 msec =====
===== DaCapo 9.12 xalan starting warmup 10 =====
===== DaCapo 9.12 xalan completed warmup 10 in 13133 msec =====
===== DaCapo 9.12 xalan starting warmup 11 =====
===== DaCapo 9.12 xalan completed warmup 11 in 13166 msec =====
===== DaCapo 9.12 xalan starting warmup 12 =====
===== DaCapo 9.12 xalan completed warmup 12 in 13163 msec =====
===== DaCapo 9.12 xalan starting warmup 13 =====
===== DaCapo 9.12 xalan completed warmup 13 in 13094 msec =====
===== DaCapo 9.12 xalan starting warmup 14 =====
===== DaCapo 9.12 xalan completed warmup 14 in 13408 msec =====
===== DaCapo 9.12 xalan starting warmup 15 =====
===== DaCapo 9.12 xalan completed warmup 15 in 13102 msec =====
===== DaCapo 9.12 xalan starting warmup 16 =====
===== DaCapo 9.12 xalan completed warmup 16 in 13137 msec =====
===== DaCapo 9.12 xalan starting warmup 17 =====
===== DaCapo 9.12 xalan completed warmup 17 in 13101 msec =====
===== DaCapo 9.12 xalan starting warmup 18 =====
===== DaCapo 9.12 xalan completed warmup 18 in 13077 msec =====
===== DaCapo 9.12 xalan starting warmup 19 =====
===== DaCapo 9.12 xalan completed warmup 19 in 13245 msec =====
===== DaCapo 9.12 xalan starting warmup 20 =====
===== DaCapo 9.12 xalan completed warmup 20 in 13055 msec =====
===== DaCapo 9.12 xalan starting warmup 21 =====
===== DaCapo 9.12 xalan completed warmup 21 in 13372 msec =====
===== DaCapo 9.12 xalan starting warmup 22 =====
===== DaCapo 9.12 xalan completed warmup 22 in 13129 msec =====
===== DaCapo 9.12 xalan starting warmup 23 =====
===== DaCapo 9.12 xalan completed warmup 23 in 13359 msec =====
===== DaCapo 9.12 xalan starting warmup 24 =====
===== DaCapo 9.12 xalan completed warmup 24 in 13152 msec =====
===== DaCapo 9.12 xalan starting warmup 25 =====
===== DaCapo 9.12 xalan completed warmup 25 in 13578 msec =====
===== DaCapo 9.12 xalan starting warmup 26 =====
===== DaCapo 9.12 xalan completed warmup 26 in 12967 msec =====
===== DaCapo 9.12 xalan starting warmup 27 =====
===== DaCapo 9.12 xalan completed warmup 27 in 12942 msec =====
===== DaCapo 9.12 xalan starting warmup 28 =====
===== DaCapo 9.12 xalan completed warmup 28 in 13068 msec =====
===== DaCapo 9.12 xalan starting warmup 29 =====
===== DaCapo 9.12 xalan completed warmup 29 in 13157 msec =====
===== DaCapo 9.12 xalan starting warmup 30 =====
===== DaCapo 9.12 xalan completed warmup 30 in 13272 msec =====
===== DaCapo 9.12 xalan starting warmup 31 =====
===== DaCapo 9.12 xalan completed warmup 31 in 13153 msec =====
===== DaCapo 9.12 xalan starting warmup 32 =====
===== DaCapo 9.12 xalan completed warmup 32 in 13419 msec =====
===== DaCapo 9.12 xalan starting warmup 33 =====
===== DaCapo 9.12 xalan completed warmup 33 in 13105 msec =====
===== DaCapo 9.12 xalan starting warmup 34 =====
===== DaCapo 9.12 xalan completed warmup 34 in 13135 msec =====
===== DaCapo 9.12 xalan starting warmup 35 =====
===== DaCapo 9.12 xalan completed warmup 35 in 13206 msec =====
===== DaCapo 9.12 xalan starting warmup 36 =====
===== DaCapo 9.12 xalan completed warmup 36 in 13214 msec =====
===== DaCapo 9.12 xalan starting warmup 37 =====
===== DaCapo 9.12 xalan completed warmup 37 in 13312 msec =====
===== DaCapo 9.12 xalan starting warmup 38 =====
===== DaCapo 9.12 xalan completed warmup 38 in 13137 msec =====
===== DaCapo 9.12 xalan starting warmup 39 =====
===== DaCapo 9.12 xalan completed warmup 39 in 13297 msec =====
===== DaCapo 9.12 xalan starting warmup 40 =====
===== DaCapo 9.12 xalan completed warmup 40 in 13094 msec =====
===== DaCapo 9.12 xalan starting warmup 41 =====
===== DaCapo 9.12 xalan completed warmup 41 in 13438 msec =====
===== DaCapo 9.12 xalan starting warmup 42 =====
===== DaCapo 9.12 xalan completed warmup 42 in 13193 msec =====
===== DaCapo 9.12 xalan starting warmup 43 =====
===== DaCapo 9.12 xalan completed warmup 43 in 13092 msec =====
===== DaCapo 9.12 xalan starting warmup 44 =====
===== DaCapo 9.12 xalan completed warmup 44 in 13110 msec =====
===== DaCapo 9.12 xalan starting warmup 45 =====
===== DaCapo 9.12 xalan completed warmup 45 in 13088 msec =====
===== DaCapo 9.12 xalan starting warmup 46 =====
===== DaCapo 9.12 xalan completed warmup 46 in 13182 msec =====
===== DaCapo 9.12 xalan starting warmup 47 =====
===== DaCapo 9.12 xalan completed warmup 47 in 13058 msec =====
===== DaCapo 9.12 xalan starting warmup 48 =====
===== DaCapo 9.12 xalan completed warmup 48 in 13416 msec =====
===== DaCapo 9.12 xalan starting warmup 49 =====
===== DaCapo 9.12 xalan completed warmup 49 in 13079 msec =====
===== DaCapo 9.12 xalan starting warmup 50 =====
===== DaCapo 9.12 xalan completed warmup 50 in 13716 msec =====
===== DaCapo 9.12 xalan starting warmup 51 =====
===== DaCapo 9.12 xalan completed warmup 51 in 13087 msec =====
===== DaCapo 9.12 xalan starting warmup 52 =====
===== DaCapo 9.12 xalan completed warmup 52 in 13012 msec =====
===== DaCapo 9.12 xalan starting warmup 53 =====
===== DaCapo 9.12 xalan completed warmup 53 in 13288 msec =====
===== DaCapo 9.12 xalan starting warmup 54 =====
===== DaCapo 9.12 xalan completed warmup 54 in 13289 msec =====
===== DaCapo 9.12 xalan starting warmup 55 =====
===== DaCapo 9.12 xalan completed warmup 55 in 13402 msec =====
===== DaCapo 9.12 xalan starting warmup 56 =====
===== DaCapo 9.12 xalan completed warmup 56 in 13287 msec =====
===== DaCapo 9.12 xalan starting warmup 57 =====
===== DaCapo 9.12 xalan completed warmup 57 in 13518 msec =====
===== DaCapo 9.12 xalan starting warmup 58 =====
===== DaCapo 9.12 xalan completed warmup 58 in 13248 msec =====
===== DaCapo 9.12 xalan starting warmup 59 =====
===== DaCapo 9.12 xalan completed warmup 59 in 13322 msec =====
===== DaCapo 9.12 xalan starting warmup 60 =====
===== DaCapo 9.12 xalan completed warmup 60 in 13489 msec =====
===== DaCapo 9.12 xalan starting warmup 61 =====
===== DaCapo 9.12 xalan completed warmup 61 in 13445 msec =====
===== DaCapo 9.12 xalan starting warmup 62 =====
===== DaCapo 9.12 xalan completed warmup 62 in 13397 msec =====
===== DaCapo 9.12 xalan starting warmup 63 =====
===== DaCapo 9.12 xalan completed warmup 63 in 13371 msec =====
===== DaCapo 9.12 xalan starting warmup 64 =====
===== DaCapo 9.12 xalan completed warmup 64 in 13567 msec =====
===== DaCapo 9.12 xalan starting warmup 65 =====
===== DaCapo 9.12 xalan completed warmup 65 in 13154 msec =====
===== DaCapo 9.12 xalan starting warmup 66 =====
===== DaCapo 9.12 xalan completed warmup 66 in 13369 msec =====
===== DaCapo 9.12 xalan starting warmup 67 =====
===== DaCapo 9.12 xalan completed warmup 67 in 13381 msec =====
===== DaCapo 9.12 xalan starting warmup 68 =====
===== DaCapo 9.12 xalan completed warmup 68 in 13224 msec =====
===== DaCapo 9.12 xalan starting warmup 69 =====
===== DaCapo 9.12 xalan completed warmup 69 in 13501 msec =====
===== DaCapo 9.12 xalan starting warmup 70 =====
===== DaCapo 9.12 xalan completed warmup 70 in 13143 msec =====
===== DaCapo 9.12 xalan starting warmup 71 =====
===== DaCapo 9.12 xalan completed warmup 71 in 13436 msec =====
===== DaCapo 9.12 xalan starting warmup 72 =====
===== DaCapo 9.12 xalan completed warmup 72 in 13224 msec =====
===== DaCapo 9.12 xalan starting warmup 73 =====
===== DaCapo 9.12 xalan completed warmup 73 in 13621 msec =====
===== DaCapo 9.12 xalan starting warmup 74 =====
===== DaCapo 9.12 xalan completed warmup 74 in 13158 msec =====
===== DaCapo 9.12 xalan starting warmup 75 =====
===== DaCapo 9.12 xalan completed warmup 75 in 13752 msec =====
===== DaCapo 9.12 xalan starting warmup 76 =====
===== DaCapo 9.12 xalan completed warmup 76 in 13278 msec =====
===== DaCapo 9.12 xalan starting warmup 77 =====
===== DaCapo 9.12 xalan completed warmup 77 in 13890 msec =====
===== DaCapo 9.12 xalan starting warmup 78 =====
===== DaCapo 9.12 xalan completed warmup 78 in 13132 msec =====
===== DaCapo 9.12 xalan starting warmup 79 =====
===== DaCapo 9.12 xalan completed warmup 79 in 13140 msec =====
===== DaCapo 9.12 xalan starting warmup 80 =====
===== DaCapo 9.12 xalan completed warmup 80 in 13143 msec =====
===== DaCapo 9.12 xalan starting warmup 81 =====
===== DaCapo 9.12 xalan completed warmup 81 in 12957 msec =====
===== DaCapo 9.12 xalan starting warmup 82 =====
===== DaCapo 9.12 xalan completed warmup 82 in 13237 msec =====
===== DaCapo 9.12 xalan starting warmup 83 =====
===== DaCapo 9.12 xalan completed warmup 83 in 13096 msec =====
===== DaCapo 9.12 xalan starting warmup 84 =====
===== DaCapo 9.12 xalan completed warmup 84 in 13100 msec =====
===== DaCapo 9.12 xalan starting warmup 85 =====
===== DaCapo 9.12 xalan completed warmup 85 in 13065 msec =====
===== DaCapo 9.12 xalan starting warmup 86 =====
===== DaCapo 9.12 xalan completed warmup 86 in 13122 msec =====
===== DaCapo 9.12 xalan starting warmup 87 =====
===== DaCapo 9.12 xalan completed warmup 87 in 13121 msec =====
===== DaCapo 9.12 xalan starting warmup 88 =====
===== DaCapo 9.12 xalan completed warmup 88 in 13206 msec =====
===== DaCapo 9.12 xalan starting warmup 89 =====
===== DaCapo 9.12 xalan completed warmup 89 in 13571 msec =====
===== DaCapo 9.12 xalan starting warmup 90 =====
===== DaCapo 9.12 xalan completed warmup 90 in 13235 msec =====
===== DaCapo 9.12 xalan starting warmup 91 =====
