Using scaled threading model. 4 processors detected, 2 threads used to drive the workload, in a possible range of [1,1000]
===== DaCapo 9.12 xalan starting warmup 1 =====
Normal completion.
===== DaCapo 9.12 xalan completed warmup 1 in 17273 msec =====
===== DaCapo 9.12 xalan starting warmup 2 =====
Normal completion.
===== DaCapo 9.12 xalan completed warmup 2 in 13366 msec =====
===== DaCapo 9.12 xalan starting warmup 3 =====
Normal completion.
===== DaCapo 9.12 xalan completed warmup 3 in 12894 msec =====
===== DaCapo 9.12 xalan starting warmup 4 =====
Normal completion.
===== DaCapo 9.12 xalan completed warmup 4 in 12962 msec =====
===== DaCapo 9.12 xalan starting warmup 5 =====
Normal completion.
===== DaCapo 9.12 xalan completed warmup 5 in 12859 msec =====
===== DaCapo 9.12 xalan starting warmup 6 =====
Normal completion.
===== DaCapo 9.12 xalan completed warmup 6 in 13028 msec =====
===== DaCapo 9.12 xalan starting warmup 7 =====
Normal completion.
===== DaCapo 9.12 xalan completed warmup 7 in 13215 msec =====
===== DaCapo 9.12 xalan starting warmup 8 =====
Normal completion.
===== DaCapo 9.12 xalan completed warmup 8 in 12900 msec =====
===== DaCapo 9.12 xalan starting warmup 9 =====
Normal completion.
===== DaCapo 9.12 xalan completed warmup 9 in 13000 msec =====
===== DaCapo 9.12 xalan starting warmup 10 =====
Normal completion.
===== DaCapo 9.12 xalan completed warmup 10 in 13004 msec =====
===== DaCapo 9.12 xalan starting warmup 11 =====
Normal completion.
===== DaCapo 9.12 xalan completed warmup 11 in 12959 msec =====
===== DaCapo 9.12 xalan starting warmup 12 =====
Normal completion.
===== DaCapo 9.12 xalan completed warmup 12 in 13127 msec =====
===== DaCapo 9.12 xalan starting warmup 13 =====
Normal completion.
===== DaCapo 9.12 xalan completed warmup 13 in 12800 msec =====
===== DaCapo 9.12 xalan starting warmup 14 =====
Normal completion.
===== DaCapo 9.12 xalan completed warmup 14 in 12868 msec =====
===== DaCapo 9.12 xalan starting warmup 15 =====
Normal completion.
===== DaCapo 9.12 xalan completed warmup 15 in 13142 msec =====
===== DaCapo 9.12 xalan starting warmup 16 =====
Normal completion.
===== DaCapo 9.12 xalan completed warmup 16 in 12877 msec =====
===== DaCapo 9.12 xalan starting warmup 17 =====
Normal completion.
===== DaCapo 9.12 xalan completed warmup 17 in 12946 msec =====
===== DaCapo 9.12 xalan starting warmup 18 =====
Normal completion.
===== DaCapo 9.12 xalan completed warmup 18 in 12791 msec =====
===== DaCapo 9.12 xalan starting warmup 19 =====
Normal completion.
===== DaCapo 9.12 xalan completed warmup 19 in 12829 msec =====
===== DaCapo 9.12 xalan starting warmup 20 =====
Normal completion.
===== DaCapo 9.12 xalan completed warmup 20 in 12873 msec =====
===== DaCapo 9.12 xalan starting warmup 21 =====
Normal completion.
===== DaCapo 9.12 xalan completed warmup 21 in 13382 msec =====
===== DaCapo 9.12 xalan starting warmup 22 =====
Normal completion.
===== DaCapo 9.12 xalan completed warmup 22 in 12933 msec =====
===== DaCapo 9.12 xalan starting warmup 23 =====
Normal completion.
===== DaCapo 9.12 xalan completed warmup 23 in 12748 msec =====
===== DaCapo 9.12 xalan starting warmup 24 =====
Normal completion.
===== DaCapo 9.12 xalan completed warmup 24 in 12864 msec =====
===== DaCapo 9.12 xalan starting warmup 25 =====
Normal completion.
===== DaCapo 9.12 xalan completed warmup 25 in 12851 msec =====
===== DaCapo 9.12 xalan starting warmup 26 =====
Normal completion.
===== DaCapo 9.12 xalan completed warmup 26 in 12963 msec =====
===== DaCapo 9.12 xalan starting warmup 27 =====
Normal completion.
===== DaCapo 9.12 xalan completed warmup 27 in 12966 msec =====
===== DaCapo 9.12 xalan starting warmup 28 =====
Normal completion.
===== DaCapo 9.12 xalan completed warmup 28 in 12681 msec =====
===== DaCapo 9.12 xalan starting warmup 29 =====
Normal completion.
===== DaCapo 9.12 xalan completed warmup 29 in 12819 msec =====
===== DaCapo 9.12 xalan starting warmup 30 =====
Normal completion.
===== DaCapo 9.12 xalan completed warmup 30 in 12879 msec =====
===== DaCapo 9.12 xalan starting warmup 31 =====
Normal completion.
===== DaCapo 9.12 xalan completed warmup 31 in 12754 msec =====
===== DaCapo 9.12 xalan starting warmup 32 =====
Normal completion.
===== DaCapo 9.12 xalan completed warmup 32 in 12911 msec =====
===== DaCapo 9.12 xalan starting warmup 33 =====
Normal completion.
===== DaCapo 9.12 xalan completed warmup 33 in 12847 msec =====
===== DaCapo 9.12 xalan starting warmup 34 =====
Normal completion.
===== DaCapo 9.12 xalan completed warmup 34 in 12816 msec =====
===== DaCapo 9.12 xalan starting warmup 35 =====
Normal completion.
===== DaCapo 9.12 xalan completed warmup 35 in 13102 msec =====
===== DaCapo 9.12 xalan starting warmup 36 =====
Normal completion.
===== DaCapo 9.12 xalan completed warmup 36 in 12839 msec =====
===== DaCapo 9.12 xalan starting warmup 37 =====
Normal completion.
===== DaCapo 9.12 xalan completed warmup 37 in 12808 msec =====
===== DaCapo 9.12 xalan starting warmup 38 =====
Normal completion.
===== DaCapo 9.12 xalan completed warmup 38 in 12820 msec =====
===== DaCapo 9.12 xalan starting warmup 39 =====
Normal completion.
===== DaCapo 9.12 xalan completed warmup 39 in 12825 msec =====
===== DaCapo 9.12 xalan starting warmup 40 =====
Normal completion.
===== DaCapo 9.12 xalan completed warmup 40 in 12783 msec =====
===== DaCapo 9.12 xalan starting warmup 41 =====
Normal completion.
===== DaCapo 9.12 xalan completed warmup 41 in 12820 msec =====
===== DaCapo 9.12 xalan starting warmup 42 =====
Normal completion.
===== DaCapo 9.12 xalan completed warmup 42 in 13312 msec =====
===== DaCapo 9.12 xalan starting warmup 43 =====
Normal completion.
===== DaCapo 9.12 xalan completed warmup 43 in 12845 msec =====
===== DaCapo 9.12 xalan starting warmup 44 =====
Normal completion.
===== DaCapo 9.12 xalan completed warmup 44 in 12691 msec =====
===== DaCapo 9.12 xalan starting warmup 45 =====
Normal completion.
===== DaCapo 9.12 xalan completed warmup 45 in 12846 msec =====
===== DaCapo 9.12 xalan starting warmup 46 =====
Normal completion.
===== DaCapo 9.12 xalan completed warmup 46 in 12856 msec =====
===== DaCapo 9.12 xalan starting warmup 47 =====
Normal completion.
===== DaCapo 9.12 xalan completed warmup 47 in 12825 msec =====
===== DaCapo 9.12 xalan starting warmup 48 =====
Normal completion.
===== DaCapo 9.12 xalan completed warmup 48 in 12878 msec =====
===== DaCapo 9.12 xalan starting warmup 49 =====
Normal completion.
===== DaCapo 9.12 xalan completed warmup 49 in 12814 msec =====
===== DaCapo 9.12 xalan starting warmup 50 =====
Normal completion.
===== DaCapo 9.12 xalan completed warmup 50 in 13011 msec =====
===== DaCapo 9.12 xalan starting warmup 51 =====
Normal completion.
===== DaCapo 9.12 xalan completed warmup 51 in 12815 msec =====
===== DaCapo 9.12 xalan starting warmup 52 =====
Normal completion.
===== DaCapo 9.12 xalan completed warmup 52 in 12928 msec =====
===== DaCapo 9.12 xalan starting warmup 53 =====
Normal completion.
===== DaCapo 9.12 xalan completed warmup 53 in 12819 msec =====
===== DaCapo 9.12 xalan starting warmup 54 =====
Normal completion.
===== DaCapo 9.12 xalan completed warmup 54 in 12871 msec =====
===== DaCapo 9.12 xalan starting warmup 55 =====
Normal completion.
===== DaCapo 9.12 xalan completed warmup 55 in 12791 msec =====
===== DaCapo 9.12 xalan starting warmup 56 =====
Normal completion.
===== DaCapo 9.12 xalan completed warmup 56 in 12936 msec =====
===== DaCapo 9.12 xalan starting warmup 57 =====
Normal completion.
===== DaCapo 9.12 xalan completed warmup 57 in 12923 msec =====
===== DaCapo 9.12 xalan starting warmup 58 =====
Normal completion.
===== DaCapo 9.12 xalan completed warmup 58 in 12842 msec =====
===== DaCapo 9.12 xalan starting warmup 59 =====
Normal completion.
===== DaCapo 9.12 xalan completed warmup 59 in 13110 msec =====
===== DaCapo 9.12 xalan starting warmup 60 =====
Normal completion.
===== DaCapo 9.12 xalan completed warmup 60 in 12799 msec =====
===== DaCapo 9.12 xalan starting warmup 61 =====
Normal completion.
===== DaCapo 9.12 xalan completed warmup 61 in 12807 msec =====
===== DaCapo 9.12 xalan starting warmup 62 =====
Normal completion.
===== DaCapo 9.12 xalan completed warmup 62 in 12780 msec =====
===== DaCapo 9.12 xalan starting warmup 63 =====
Normal completion.
===== DaCapo 9.12 xalan completed warmup 63 in 13189 msec =====
===== DaCapo 9.12 xalan starting warmup 64 =====
Normal completion.
===== DaCapo 9.12 xalan completed warmup 64 in 12984 msec =====
===== DaCapo 9.12 xalan starting warmup 65 =====
Normal completion.
===== DaCapo 9.12 xalan completed warmup 65 in 12703 msec =====
===== DaCapo 9.12 xalan starting warmup 66 =====
Normal completion.
===== DaCapo 9.12 xalan completed warmup 66 in 12714 msec =====
===== DaCapo 9.12 xalan starting warmup 67 =====
Normal completion.
===== DaCapo 9.12 xalan completed warmup 67 in 12733 msec =====
===== DaCapo 9.12 xalan starting warmup 68 =====
Normal completion.
===== DaCapo 9.12 xalan completed warmup 68 in 12804 msec =====
===== DaCapo 9.12 xalan starting warmup 69 =====
Normal completion.
===== DaCapo 9.12 xalan completed warmup 69 in 12686 msec =====
===== DaCapo 9.12 xalan starting warmup 70 =====
Normal completion.
===== DaCapo 9.12 xalan completed warmup 70 in 13128 msec =====
===== DaCapo 9.12 xalan starting warmup 71 =====
Normal completion.
===== DaCapo 9.12 xalan completed warmup 71 in 12748 msec =====
===== DaCapo 9.12 xalan starting warmup 72 =====
Normal completion.
===== DaCapo 9.12 xalan completed warmup 72 in 12750 msec =====
===== DaCapo 9.12 xalan starting warmup 73 =====
Normal completion.
===== DaCapo 9.12 xalan completed warmup 73 in 12807 msec =====
===== DaCapo 9.12 xalan starting warmup 74 =====
Normal completion.
===== DaCapo 9.12 xalan completed warmup 74 in 12934 msec =====
===== DaCapo 9.12 xalan starting warmup 75 =====
Normal completion.
===== DaCapo 9.12 xalan completed warmup 75 in 12866 msec =====
===== DaCapo 9.12 xalan starting warmup 76 =====
Normal completion.
===== DaCapo 9.12 xalan completed warmup 76 in 12777 msec =====
===== DaCapo 9.12 xalan starting warmup 77 =====
Normal completion.
===== DaCapo 9.12 xalan completed warmup 77 in 12869 msec =====
===== DaCapo 9.12 xalan starting warmup 78 =====
Normal completion.
===== DaCapo 9.12 xalan completed warmup 78 in 12802 msec =====
===== DaCapo 9.12 xalan starting warmup 79 =====
Normal completion.
===== DaCapo 9.12 xalan completed warmup 79 in 12729 msec =====
===== DaCapo 9.12 xalan starting warmup 80 =====
Normal completion.
===== DaCapo 9.12 xalan completed warmup 80 in 12824 msec =====
===== DaCapo 9.12 xalan starting warmup 81 =====
Normal completion.
===== DaCapo 9.12 xalan completed warmup 81 in 12777 msec =====
===== DaCapo 9.12 xalan starting warmup 82 =====
Normal completion.
===== DaCapo 9.12 xalan completed warmup 82 in 12921 msec =====
===== DaCapo 9.12 xalan starting warmup 83 =====
Normal completion.
===== DaCapo 9.12 xalan completed warmup 83 in 12751 msec =====
===== DaCapo 9.12 xalan starting warmup 84 =====
Normal completion.
===== DaCapo 9.12 xalan completed warmup 84 in 13119 msec =====
===== DaCapo 9.12 xalan starting warmup 85 =====
Normal completion.
===== DaCapo 9.12 xalan completed warmup 85 in 12896 msec =====
===== DaCapo 9.12 xalan starting warmup 86 =====
Normal completion.
===== DaCapo 9.12 xalan completed warmup 86 in 12775 msec =====
===== DaCapo 9.12 xalan starting warmup 87 =====
Normal completion.
===== DaCapo 9.12 xalan completed warmup 87 in 12809 msec =====
===== DaCapo 9.12 xalan starting warmup 88 =====
Normal completion.
===== DaCapo 9.12 xalan completed warmup 88 in 12739 msec =====
===== DaCapo 9.12 xalan starting warmup 89 =====
Normal completion.
===== DaCapo 9.12 xalan completed warmup 89 in 12974 msec =====
===== DaCapo 9.12 xalan starting warmup 90 =====
Normal completion.
===== DaCapo 9.12 xalan completed warmup 90 in 12874 msec =====
===== DaCapo 9.12 xalan starting warmup 91 =====
Normal completion.
===== DaCapo 9.12 xalan completed warmup 91 in 13217 msec =====
===== DaCapo 9.12 xalan starting warmup 92 =====
Normal completion.
===== DaCapo 9.12 xalan completed warmup 92 in 12666 msec =====
===== DaCapo 9.12 xalan starting warmup 93 =====
