Using scaled threading model. 4 processors detected, 2 threads used to drive the workload, in a possible range of [1,1000]
===== DaCapo 9.12 xalan starting warmup 1 =====
Normal completion.
===== DaCapo 9.12 xalan completed warmup 1 in 16910 msec =====
===== DaCapo 9.12 xalan starting warmup 2 =====
Normal completion.
===== DaCapo 9.12 xalan completed warmup 2 in 13096 msec =====
===== DaCapo 9.12 xalan starting warmup 3 =====
Normal completion.
===== DaCapo 9.12 xalan completed warmup 3 in 12690 msec =====
===== DaCapo 9.12 xalan starting warmup 4 =====
Normal completion.
===== DaCapo 9.12 xalan completed warmup 4 in 12524 msec =====
===== DaCapo 9.12 xalan starting warmup 5 =====
Normal completion.
===== DaCapo 9.12 xalan completed warmup 5 in 12770 msec =====
===== DaCapo 9.12 xalan starting warmup 6 =====
Normal completion.
===== DaCapo 9.12 xalan completed warmup 6 in 12672 msec =====
===== DaCapo 9.12 xalan starting warmup 7 =====
Normal completion.
===== DaCapo 9.12 xalan completed warmup 7 in 12810 msec =====
===== DaCapo 9.12 xalan starting warmup 8 =====
Normal completion.
===== DaCapo 9.12 xalan completed warmup 8 in 12665 msec =====
===== DaCapo 9.12 xalan starting warmup 9 =====
Normal completion.
===== DaCapo 9.12 xalan completed warmup 9 in 12677 msec =====
===== DaCapo 9.12 xalan starting warmup 10 =====
Normal completion.
===== DaCapo 9.12 xalan completed warmup 10 in 12678 msec =====
===== DaCapo 9.12 xalan starting warmup 11 =====
Normal completion.
===== DaCapo 9.12 xalan completed warmup 11 in 12716 msec =====
===== DaCapo 9.12 xalan starting warmup 12 =====
Normal completion.
===== DaCapo 9.12 xalan completed warmup 12 in 12846 msec =====
===== DaCapo 9.12 xalan starting warmup 13 =====
Normal completion.
===== DaCapo 9.12 xalan completed warmup 13 in 12631 msec =====
===== DaCapo 9.12 xalan starting warmup 14 =====
Normal completion.
===== DaCapo 9.12 xalan completed warmup 14 in 13035 msec =====
===== DaCapo 9.12 xalan starting warmup 15 =====
Normal completion.
===== DaCapo 9.12 xalan completed warmup 15 in 12623 msec =====
===== DaCapo 9.12 xalan starting warmup 16 =====
Normal completion.
===== DaCapo 9.12 xalan completed warmup 16 in 12662 msec =====
===== DaCapo 9.12 xalan starting warmup 17 =====
Normal completion.
===== DaCapo 9.12 xalan completed warmup 17 in 12795 msec =====
===== DaCapo 9.12 xalan starting warmup 18 =====
Normal completion.
===== DaCapo 9.12 xalan completed warmup 18 in 12782 msec =====
===== DaCapo 9.12 xalan starting warmup 19 =====
Normal completion.
===== DaCapo 9.12 xalan completed warmup 19 in 12807 msec =====
===== DaCapo 9.12 xalan starting warmup 20 =====
Normal completion.
===== DaCapo 9.12 xalan completed warmup 20 in 12638 msec =====
===== DaCapo 9.12 xalan starting warmup 21 =====
Normal completion.
===== DaCapo 9.12 xalan completed warmup 21 in 12702 msec =====
===== DaCapo 9.12 xalan starting warmup 22 =====
Normal completion.
===== DaCapo 9.12 xalan completed warmup 22 in 12901 msec =====
===== DaCapo 9.12 xalan starting warmup 23 =====
Normal completion.
===== DaCapo 9.12 xalan completed warmup 23 in 12659 msec =====
===== DaCapo 9.12 xalan starting warmup 24 =====
Normal completion.
===== DaCapo 9.12 xalan completed warmup 24 in 12636 msec =====
===== DaCapo 9.12 xalan starting warmup 25 =====
Normal completion.
===== DaCapo 9.12 xalan completed warmup 25 in 12574 msec =====
===== DaCapo 9.12 xalan starting warmup 26 =====
Normal completion.
===== DaCapo 9.12 xalan completed warmup 26 in 12748 msec =====
===== DaCapo 9.12 xalan starting warmup 27 =====
Normal completion.
===== DaCapo 9.12 xalan completed warmup 27 in 12827 msec =====
===== DaCapo 9.12 xalan starting warmup 28 =====
Normal completion.
===== DaCapo 9.12 xalan completed warmup 28 in 12647 msec =====
===== DaCapo 9.12 xalan starting warmup 29 =====
Normal completion.
===== DaCapo 9.12 xalan completed warmup 29 in 12761 msec =====
===== DaCapo 9.12 xalan starting warmup 30 =====
Normal completion.
===== DaCapo 9.12 xalan completed warmup 30 in 12561 msec =====
===== DaCapo 9.12 xalan starting warmup 31 =====
Normal completion.
===== DaCapo 9.12 xalan completed warmup 31 in 12891 msec =====
===== DaCapo 9.12 xalan starting warmup 32 =====
Normal completion.
===== DaCapo 9.12 xalan completed warmup 32 in 12626 msec =====
===== DaCapo 9.12 xalan starting warmup 33 =====
Normal completion.
===== DaCapo 9.12 xalan completed warmup 33 in 13042 msec =====
===== DaCapo 9.12 xalan starting warmup 34 =====
Normal completion.
===== DaCapo 9.12 xalan completed warmup 34 in 12712 msec =====
===== DaCapo 9.12 xalan starting warmup 35 =====
Normal completion.
===== DaCapo 9.12 xalan completed warmup 35 in 12557 msec =====
===== DaCapo 9.12 xalan starting warmup 36 =====
Normal completion.
===== DaCapo 9.12 xalan completed warmup 36 in 12712 msec =====
===== DaCapo 9.12 xalan starting warmup 37 =====
Normal completion.
===== DaCapo 9.12 xalan completed warmup 37 in 12727 msec =====
===== DaCapo 9.12 xalan starting warmup 38 =====
Normal completion.
===== DaCapo 9.12 xalan completed warmup 38 in 12779 msec =====
===== DaCapo 9.12 xalan starting warmup 39 =====
Normal completion.
===== DaCapo 9.12 xalan completed warmup 39 in 12660 msec =====
===== DaCapo 9.12 xalan starting warmup 40 =====
Normal completion.
===== DaCapo 9.12 xalan completed warmup 40 in 12660 msec =====
===== DaCapo 9.12 xalan starting warmup 41 =====
Normal completion.
===== DaCapo 9.12 xalan completed warmup 41 in 12655 msec =====
===== DaCapo 9.12 xalan starting warmup 42 =====
Normal completion.
===== DaCapo 9.12 xalan completed warmup 42 in 12623 msec =====
===== DaCapo 9.12 xalan starting warmup 43 =====
Normal completion.
===== DaCapo 9.12 xalan completed warmup 43 in 12606 msec =====
===== DaCapo 9.12 xalan starting warmup 44 =====
Normal completion.
===== DaCapo 9.12 xalan completed warmup 44 in 12605 msec =====
===== DaCapo 9.12 xalan starting warmup 45 =====
Normal completion.
===== DaCapo 9.12 xalan completed warmup 45 in 12860 msec =====
===== DaCapo 9.12 xalan starting warmup 46 =====
Normal completion.
===== DaCapo 9.12 xalan completed warmup 46 in 12641 msec =====
===== DaCapo 9.12 xalan starting warmup 47 =====
Normal completion.
===== DaCapo 9.12 xalan completed warmup 47 in 13329 msec =====
===== DaCapo 9.12 xalan starting warmup 48 =====
Normal completion.
===== DaCapo 9.12 xalan completed warmup 48 in 12633 msec =====
===== DaCapo 9.12 xalan starting warmup 49 =====
Normal completion.
===== DaCapo 9.12 xalan completed warmup 49 in 12614 msec =====
===== DaCapo 9.12 xalan starting warmup 50 =====
Normal completion.
===== DaCapo 9.12 xalan completed warmup 50 in 12673 msec =====
===== DaCapo 9.12 xalan starting warmup 51 =====
Normal completion.
===== DaCapo 9.12 xalan completed warmup 51 in 12747 msec =====
===== DaCapo 9.12 xalan starting warmup 52 =====
Normal completion.
===== DaCapo 9.12 xalan completed warmup 52 in 12672 msec =====
===== DaCapo 9.12 xalan starting warmup 53 =====
Normal completion.
===== DaCapo 9.12 xalan completed warmup 53 in 12503 msec =====
===== DaCapo 9.12 xalan starting warmup 54 =====
Normal completion.
===== DaCapo 9.12 xalan completed warmup 54 in 12650 msec =====
===== DaCapo 9.12 xalan starting warmup 55 =====
Normal completion.
===== DaCapo 9.12 xalan completed warmup 55 in 12629 msec =====
===== DaCapo 9.12 xalan starting warmup 56 =====
Normal completion.
===== DaCapo 9.12 xalan completed warmup 56 in 12563 msec =====
===== DaCapo 9.12 xalan starting warmup 57 =====
Normal completion.
===== DaCapo 9.12 xalan completed warmup 57 in 12770 msec =====
===== DaCapo 9.12 xalan starting warmup 58 =====
Normal completion.
===== DaCapo 9.12 xalan completed warmup 58 in 12860 msec =====
===== DaCapo 9.12 xalan starting warmup 59 =====
Normal completion.
===== DaCapo 9.12 xalan completed warmup 59 in 12906 msec =====
===== DaCapo 9.12 xalan starting warmup 60 =====
Normal completion.
===== DaCapo 9.12 xalan completed warmup 60 in 12673 msec =====
===== DaCapo 9.12 xalan starting warmup 61 =====
Normal completion.
===== DaCapo 9.12 xalan completed warmup 61 in 12738 msec =====
===== DaCapo 9.12 xalan starting warmup 62 =====
Normal completion.
===== DaCapo 9.12 xalan completed warmup 62 in 12731 msec =====
===== DaCapo 9.12 xalan starting warmup 63 =====
Normal completion.
===== DaCapo 9.12 xalan completed warmup 63 in 12736 msec =====
===== DaCapo 9.12 xalan starting warmup 64 =====
Normal completion.
===== DaCapo 9.12 xalan completed warmup 64 in 12846 msec =====
===== DaCapo 9.12 xalan starting warmup 65 =====
Normal completion.
===== DaCapo 9.12 xalan completed warmup 65 in 12613 msec =====
===== DaCapo 9.12 xalan starting warmup 66 =====
Normal completion.
===== DaCapo 9.12 xalan completed warmup 66 in 12942 msec =====
===== DaCapo 9.12 xalan starting warmup 67 =====
Normal completion.
===== DaCapo 9.12 xalan completed warmup 67 in 12659 msec =====
===== DaCapo 9.12 xalan starting warmup 68 =====
Normal completion.
===== DaCapo 9.12 xalan completed warmup 68 in 12624 msec =====
===== DaCapo 9.12 xalan starting warmup 69 =====
Normal completion.
===== DaCapo 9.12 xalan completed warmup 69 in 12698 msec =====
===== DaCapo 9.12 xalan starting warmup 70 =====
Normal completion.
===== DaCapo 9.12 xalan completed warmup 70 in 12634 msec =====
===== DaCapo 9.12 xalan starting warmup 71 =====
Normal completion.
===== DaCapo 9.12 xalan completed warmup 71 in 12913 msec =====
===== DaCapo 9.12 xalan starting warmup 72 =====
Normal completion.
===== DaCapo 9.12 xalan completed warmup 72 in 12548 msec =====
===== DaCapo 9.12 xalan starting warmup 73 =====
Normal completion.
===== DaCapo 9.12 xalan completed warmup 73 in 13258 msec =====
===== DaCapo 9.12 xalan starting warmup 74 =====
Normal completion.
===== DaCapo 9.12 xalan completed warmup 74 in 12705 msec =====
===== DaCapo 9.12 xalan starting warmup 75 =====
Normal completion.
===== DaCapo 9.12 xalan completed warmup 75 in 12661 msec =====
===== DaCapo 9.12 xalan starting warmup 76 =====
Normal completion.
===== DaCapo 9.12 xalan completed warmup 76 in 12608 msec =====
===== DaCapo 9.12 xalan starting warmup 77 =====
Normal completion.
===== DaCapo 9.12 xalan completed warmup 77 in 12596 msec =====
===== DaCapo 9.12 xalan starting warmup 78 =====
Normal completion.
===== DaCapo 9.12 xalan completed warmup 78 in 12793 msec =====
===== DaCapo 9.12 xalan starting warmup 79 =====
Normal completion.
===== DaCapo 9.12 xalan completed warmup 79 in 12768 msec =====
===== DaCapo 9.12 xalan starting warmup 80 =====
Normal completion.
===== DaCapo 9.12 xalan completed warmup 80 in 12571 msec =====
===== DaCapo 9.12 xalan starting warmup 81 =====
Normal completion.
===== DaCapo 9.12 xalan completed warmup 81 in 13071 msec =====
===== DaCapo 9.12 xalan starting warmup 82 =====
Normal completion.
===== DaCapo 9.12 xalan completed warmup 82 in 12535 msec =====
===== DaCapo 9.12 xalan starting warmup 83 =====
Normal completion.
===== DaCapo 9.12 xalan completed warmup 83 in 12787 msec =====
===== DaCapo 9.12 xalan starting warmup 84 =====
Normal completion.
===== DaCapo 9.12 xalan completed warmup 84 in 12775 msec =====
===== DaCapo 9.12 xalan starting warmup 85 =====
Normal completion.
===== DaCapo 9.12 xalan completed warmup 85 in 12919 msec =====
===== DaCapo 9.12 xalan starting warmup 86 =====
Normal completion.
===== DaCapo 9.12 xalan completed warmup 86 in 12598 msec =====
===== DaCapo 9.12 xalan starting warmup 87 =====
Normal completion.
===== DaCapo 9.12 xalan completed warmup 87 in 12730 msec =====
===== DaCapo 9.12 xalan starting warmup 88 =====
Normal completion.
===== DaCapo 9.12 xalan completed warmup 88 in 12666 msec =====
===== DaCapo 9.12 xalan starting warmup 89 =====
Normal completion.
===== DaCapo 9.12 xalan completed warmup 89 in 12683 msec =====
===== DaCapo 9.12 xalan starting warmup 90 =====
Normal completion.
===== DaCapo 9.12 xalan completed warmup 90 in 12837 msec =====
===== DaCapo 9.12 xalan starting warmup 91 =====
Normal completion.
===== DaCapo 9.12 xalan completed warmup 91 in 12660 msec =====
===== DaCapo 9.12 xalan starting warmup 92 =====
Normal completion.
===== DaCapo 9.12 xalan completed warmup 92 in 13105 msec =====
===== DaCapo 9.12 xalan starting warmup 93 =====
Normal completion.
===== DaCapo 9.12 xalan completed warmup 93 in 12641 msec =====
===== DaCapo 9.12 xalan starting warmup 94 =====
