===== DaCapo 9.12 xalan starting warmup 1 =====
===== DaCapo 9.12 xalan completed warmup 1 in 16299 msec =====
===== DaCapo 9.12 xalan starting warmup 2 =====
===== DaCapo 9.12 xalan completed warmup 2 in 12613 msec =====
===== DaCapo 9.12 xalan starting warmup 3 =====
===== DaCapo 9.12 xalan completed warmup 3 in 12331 msec =====
===== DaCapo 9.12 xalan starting warmup 4 =====
===== DaCapo 9.12 xalan completed warmup 4 in 12148 msec =====
===== DaCapo 9.12 xalan starting warmup 5 =====
===== DaCapo 9.12 xalan completed warmup 5 in 12643 msec =====
===== DaCapo 9.12 xalan starting warmup 6 =====
===== DaCapo 9.12 xalan completed warmup 6 in 12118 msec =====
===== DaCapo 9.12 xalan starting warmup 7 =====
===== DaCapo 9.12 xalan completed warmup 7 in 12022 msec =====
===== DaCapo 9.12 xalan starting warmup 8 =====
===== DaCapo 9.12 xalan completed warmup 8 in 12232 msec =====
===== DaCapo 9.12 xalan starting warmup 9 =====
===== DaCapo 9.12 xalan completed warmup 9 in 12089 msec =====
===== DaCapo 9.12 xalan starting warmup 10 =====
===== DaCapo 9.12 xalan completed warmup 10 in 12309 msec =====
===== DaCapo 9.12 xalan starting warmup 11 =====
===== DaCapo 9.12 xalan completed warmup 11 in 12247 msec =====
===== DaCapo 9.12 xalan starting warmup 12 =====
===== DaCapo 9.12 xalan completed warmup 12 in 12755 msec =====
===== DaCapo 9.12 xalan starting warmup 13 =====
===== DaCapo 9.12 xalan completed warmup 13 in 12288 msec =====
===== DaCapo 9.12 xalan starting warmup 14 =====
===== DaCapo 9.12 xalan completed warmup 14 in 12122 msec =====
===== DaCapo 9.12 xalan starting warmup 15 =====
===== DaCapo 9.12 xalan completed warmup 15 in 12219 msec =====
===== DaCapo 9.12 xalan starting warmup 16 =====
===== DaCapo 9.12 xalan completed warmup 16 in 12103 msec =====
===== DaCapo 9.12 xalan starting warmup 17 =====
===== DaCapo 9.12 xalan completed warmup 17 in 12532 msec =====
===== DaCapo 9.12 xalan starting warmup 18 =====
===== DaCapo 9.12 xalan completed warmup 18 in 12184 msec =====
===== DaCapo 9.12 xalan starting warmup 19 =====
===== DaCapo 9.12 xalan completed warmup 19 in 12128 msec =====
===== DaCapo 9.12 xalan starting warmup 20 =====
===== DaCapo 9.12 xalan completed warmup 20 in 12236 msec =====
===== DaCapo 9.12 xalan starting warmup 21 =====
===== DaCapo 9.12 xalan completed warmup 21 in 12099 msec =====
===== DaCapo 9.12 xalan starting warmup 22 =====
===== DaCapo 9.12 xalan completed warmup 22 in 12572 msec =====
===== DaCapo 9.12 xalan starting warmup 23 =====
===== DaCapo 9.12 xalan completed warmup 23 in 12014 msec =====
===== DaCapo 9.12 xalan starting warmup 24 =====
===== DaCapo 9.12 xalan completed warmup 24 in 12131 msec =====
===== DaCapo 9.12 xalan starting warmup 25 =====
===== DaCapo 9.12 xalan completed warmup 25 in 12264 msec =====
===== DaCapo 9.12 xalan starting warmup 26 =====
===== DaCapo 9.12 xalan completed warmup 26 in 12185 msec =====
===== DaCapo 9.12 xalan starting warmup 27 =====
===== DaCapo 9.12 xalan completed warmup 27 in 12451 msec =====
===== DaCapo 9.12 xalan starting warmup 28 =====
===== DaCapo 9.12 xalan completed warmup 28 in 12165 msec =====
===== DaCapo 9.12 xalan starting warmup 29 =====
===== DaCapo 9.12 xalan completed warmup 29 in 12169 msec =====
===== DaCapo 9.12 xalan starting warmup 30 =====
===== DaCapo 9.12 xalan completed warmup 30 in 12119 msec =====
===== DaCapo 9.12 xalan starting warmup 31 =====
===== DaCapo 9.12 xalan completed warmup 31 in 12064 msec =====
===== DaCapo 9.12 xalan starting warmup 32 =====
===== DaCapo 9.12 xalan completed warmup 32 in 12397 msec =====
===== DaCapo 9.12 xalan starting warmup 33 =====
===== DaCapo 9.12 xalan completed warmup 33 in 12187 msec =====
===== DaCapo 9.12 xalan starting warmup 34 =====
===== DaCapo 9.12 xalan completed warmup 34 in 12282 msec =====
===== DaCapo 9.12 xalan starting warmup 35 =====
===== DaCapo 9.12 xalan completed warmup 35 in 12103 msec =====
===== DaCapo 9.12 xalan starting warmup 36 =====
===== DaCapo 9.12 xalan completed warmup 36 in 12140 msec =====
===== DaCapo 9.12 xalan starting warmup 37 =====
===== DaCapo 9.12 xalan completed warmup 37 in 12302 msec =====
===== DaCapo 9.12 xalan starting warmup 38 =====
===== DaCapo 9.12 xalan completed warmup 38 in 12164 msec =====
===== DaCapo 9.12 xalan starting warmup 39 =====
===== DaCapo 9.12 xalan completed warmup 39 in 12940 msec =====
===== DaCapo 9.12 xalan starting warmup 40 =====
===== DaCapo 9.12 xalan completed warmup 40 in 12318 msec =====
===== DaCapo 9.12 xalan starting warmup 41 =====
===== DaCapo 9.12 xalan completed warmup 41 in 12278 msec =====
===== DaCapo 9.12 xalan starting warmup 42 =====
===== DaCapo 9.12 xalan completed warmup 42 in 12296 msec =====
===== DaCapo 9.12 xalan starting warmup 43 =====
===== DaCapo 9.12 xalan completed warmup 43 in 12102 msec =====
===== DaCapo 9.12 xalan starting warmup 44 =====
===== DaCapo 9.12 xalan completed warmup 44 in 12351 msec =====
===== DaCapo 9.12 xalan starting warmup 45 =====
===== DaCapo 9.12 xalan completed warmup 45 in 12073 msec =====
===== DaCapo 9.12 xalan starting warmup 46 =====
===== DaCapo 9.12 xalan completed warmup 46 in 12363 msec =====
===== DaCapo 9.12 xalan starting warmup 47 =====
===== DaCapo 9.12 xalan completed warmup 47 in 12278 msec =====
===== DaCapo 9.12 xalan starting warmup 48 =====
===== DaCapo 9.12 xalan completed warmup 48 in 12019 msec =====
===== DaCapo 9.12 xalan starting warmup 49 =====
===== DaCapo 9.12 xalan completed warmup 49 in 12292 msec =====
===== DaCapo 9.12 xalan starting warmup 50 =====
===== DaCapo 9.12 xalan completed warmup 50 in 12150 msec =====
===== DaCapo 9.12 xalan starting warmup 51 =====
===== DaCapo 9.12 xalan completed warmup 51 in 12149 msec =====
===== DaCapo 9.12 xalan starting warmup 52 =====
===== DaCapo 9.12 xalan completed warmup 52 in 12306 msec =====
===== DaCapo 9.12 xalan starting warmup 53 =====
===== DaCapo 9.12 xalan completed warmup 53 in 12114 msec =====
===== DaCapo 9.12 xalan starting warmup 54 =====
===== DaCapo 9.12 xalan completed warmup 54 in 12563 msec =====
===== DaCapo 9.12 xalan starting warmup 55 =====
===== DaCapo 9.12 xalan completed warmup 55 in 12209 msec =====
===== DaCapo 9.12 xalan starting warmup 56 =====
===== DaCapo 9.12 xalan completed warmup 56 in 12194 msec =====
===== DaCapo 9.12 xalan starting warmup 57 =====
===== DaCapo 9.12 xalan completed warmup 57 in 12181 msec =====
===== DaCapo 9.12 xalan starting warmup 58 =====
===== DaCapo 9.12 xalan completed warmup 58 in 12060 msec =====
===== DaCapo 9.12 xalan starting warmup 59 =====
===== DaCapo 9.12 xalan completed warmup 59 in 12289 msec =====
===== DaCapo 9.12 xalan starting warmup 60 =====
===== DaCapo 9.12 xalan completed warmup 60 in 12296 msec =====
===== DaCapo 9.12 xalan starting warmup 61 =====
===== DaCapo 9.12 xalan completed warmup 61 in 12251 msec =====
===== DaCapo 9.12 xalan starting warmup 62 =====
===== DaCapo 9.12 xalan completed warmup 62 in 12122 msec =====
===== DaCapo 9.12 xalan starting warmup 63 =====
===== DaCapo 9.12 xalan completed warmup 63 in 12190 msec =====
===== DaCapo 9.12 xalan starting warmup 64 =====
===== DaCapo 9.12 xalan completed warmup 64 in 12217 msec =====
===== DaCapo 9.12 xalan starting warmup 65 =====
===== DaCapo 9.12 xalan completed warmup 65 in 12042 msec =====
===== DaCapo 9.12 xalan starting warmup 66 =====
===== DaCapo 9.12 xalan completed warmup 66 in 12416 msec =====
===== DaCapo 9.12 xalan starting warmup 67 =====
===== DaCapo 9.12 xalan completed warmup 67 in 12292 msec =====
===== DaCapo 9.12 xalan starting warmup 68 =====
===== DaCapo 9.12 xalan completed warmup 68 in 12171 msec =====
===== DaCapo 9.12 xalan starting warmup 69 =====
===== DaCapo 9.12 xalan completed warmup 69 in 12322 msec =====
===== DaCapo 9.12 xalan starting warmup 70 =====
===== DaCapo 9.12 xalan completed warmup 70 in 12132 msec =====
===== DaCapo 9.12 xalan starting warmup 71 =====
===== DaCapo 9.12 xalan completed warmup 71 in 12318 msec =====
===== DaCapo 9.12 xalan starting warmup 72 =====
===== DaCapo 9.12 xalan completed warmup 72 in 12162 msec =====
===== DaCapo 9.12 xalan starting warmup 73 =====
===== DaCapo 9.12 xalan completed warmup 73 in 12217 msec =====
===== DaCapo 9.12 xalan starting warmup 74 =====
===== DaCapo 9.12 xalan completed warmup 74 in 12129 msec =====
===== DaCapo 9.12 xalan starting warmup 75 =====
===== DaCapo 9.12 xalan completed warmup 75 in 12292 msec =====
===== DaCapo 9.12 xalan starting warmup 76 =====
===== DaCapo 9.12 xalan completed warmup 76 in 12515 msec =====
===== DaCapo 9.12 xalan starting warmup 77 =====
===== DaCapo 9.12 xalan completed warmup 77 in 12248 msec =====
===== DaCapo 9.12 xalan starting warmup 78 =====
===== DaCapo 9.12 xalan completed warmup 78 in 12329 msec =====
===== DaCapo 9.12 xalan starting warmup 79 =====
===== DaCapo 9.12 xalan completed warmup 79 in 12147 msec =====
===== DaCapo 9.12 xalan starting warmup 80 =====
===== DaCapo 9.12 xalan completed warmup 80 in 12063 msec =====
===== DaCapo 9.12 xalan starting warmup 81 =====
===== DaCapo 9.12 xalan completed warmup 81 in 12307 msec =====
===== DaCapo 9.12 xalan starting warmup 82 =====
===== DaCapo 9.12 xalan completed warmup 82 in 12222 msec =====
===== DaCapo 9.12 xalan starting warmup 83 =====
===== DaCapo 9.12 xalan completed warmup 83 in 12185 msec =====
===== DaCapo 9.12 xalan starting warmup 84 =====
===== DaCapo 9.12 xalan completed warmup 84 in 12274 msec =====
===== DaCapo 9.12 xalan starting warmup 85 =====
===== DaCapo 9.12 xalan completed warmup 85 in 12160 msec =====
===== DaCapo 9.12 xalan starting warmup 86 =====
===== DaCapo 9.12 xalan completed warmup 86 in 12096 msec =====
===== DaCapo 9.12 xalan starting warmup 87 =====
===== DaCapo 9.12 xalan completed warmup 87 in 12293 msec =====
===== DaCapo 9.12 xalan starting warmup 88 =====
===== DaCapo 9.12 xalan completed warmup 88 in 12364 msec =====
===== DaCapo 9.12 xalan starting warmup 89 =====
===== DaCapo 9.12 xalan completed warmup 89 in 12111 msec =====
===== DaCapo 9.12 xalan starting warmup 90 =====
===== DaCapo 9.12 xalan completed warmup 90 in 12160 msec =====
===== DaCapo 9.12 xalan starting warmup 91 =====
===== DaCapo 9.12 xalan completed warmup 91 in 12245 msec =====
===== DaCapo 9.12 xalan starting warmup 92 =====
===== DaCapo 9.12 xalan completed warmup 92 in 12451 msec =====
===== DaCapo 9.12 xalan starting warmup 93 =====
===== DaCapo 9.12 xalan completed warmup 93 in 12612 msec =====
===== DaCapo 9.12 xalan starting warmup 94 =====
===== DaCapo 9.12 xalan completed warmup 94 in 12234 msec =====
===== DaCapo 9.12 xalan starting warmup 95 =====
===== DaCapo 9.12 xalan completed warmup 95 in 12213 msec =====
===== DaCapo 9.12 xalan starting warmup 96 =====
===== DaCapo 9.12 xalan completed warmup 96 in 12363 msec =====
===== DaCapo 9.12 xalan starting warmup 97 =====
===== DaCapo 9.12 xalan completed warmup 97 in 12283 msec =====
===== DaCapo 9.12 xalan starting warmup 98 =====
