Using scaled threading model. 4 processors detected, 2 threads used to drive the workload, in a possible range of [1,1000]
===== DaCapo 9.12 xalan starting warmup 1 =====
Normal completion.
===== DaCapo 9.12 xalan completed warmup 1 in 15841 msec =====
===== DaCapo 9.12 xalan starting warmup 2 =====
Normal completion.
===== DaCapo 9.12 xalan completed warmup 2 in 12314 msec =====
===== DaCapo 9.12 xalan starting warmup 3 =====
Normal completion.
===== DaCapo 9.12 xalan completed warmup 3 in 12180 msec =====
===== DaCapo 9.12 xalan starting warmup 4 =====
Normal completion.
===== DaCapo 9.12 xalan completed warmup 4 in 12033 msec =====
===== DaCapo 9.12 xalan starting warmup 5 =====
Normal completion.
===== DaCapo 9.12 xalan completed warmup 5 in 12185 msec =====
===== DaCapo 9.12 xalan starting warmup 6 =====
Normal completion.
===== DaCapo 9.12 xalan completed warmup 6 in 12009 msec =====
===== DaCapo 9.12 xalan starting warmup 7 =====
Normal completion.
===== DaCapo 9.12 xalan completed warmup 7 in 12040 msec =====
===== DaCapo 9.12 xalan starting warmup 8 =====
Normal completion.
===== DaCapo 9.12 xalan completed warmup 8 in 12101 msec =====
===== DaCapo 9.12 xalan starting warmup 9 =====
Normal completion.
===== DaCapo 9.12 xalan completed warmup 9 in 12056 msec =====
===== DaCapo 9.12 xalan starting warmup 10 =====
Normal completion.
===== DaCapo 9.12 xalan completed warmup 10 in 12026 msec =====
===== DaCapo 9.12 xalan starting warmup 11 =====
Normal completion.
===== DaCapo 9.12 xalan completed warmup 11 in 12085 msec =====
===== DaCapo 9.12 xalan starting warmup 12 =====
Normal completion.
===== DaCapo 9.12 xalan completed warmup 12 in 11954 msec =====
===== DaCapo 9.12 xalan starting warmup 13 =====
Normal completion.
===== DaCapo 9.12 xalan completed warmup 13 in 12088 msec =====
===== DaCapo 9.12 xalan starting warmup 14 =====
Normal completion.
===== DaCapo 9.12 xalan completed warmup 14 in 12031 msec =====
===== DaCapo 9.12 xalan starting warmup 15 =====
Normal completion.
===== DaCapo 9.12 xalan completed warmup 15 in 12272 msec =====
===== DaCapo 9.12 xalan starting warmup 16 =====
Normal completion.
===== DaCapo 9.12 xalan completed warmup 16 in 12037 msec =====
===== DaCapo 9.12 xalan starting warmup 17 =====
Normal completion.
===== DaCapo 9.12 xalan completed warmup 17 in 12121 msec =====
===== DaCapo 9.12 xalan starting warmup 18 =====
Normal completion.
===== DaCapo 9.12 xalan completed warmup 18 in 12044 msec =====
===== DaCapo 9.12 xalan starting warmup 19 =====
Normal completion.
===== DaCapo 9.12 xalan completed warmup 19 in 12068 msec =====
===== DaCapo 9.12 xalan starting warmup 20 =====
Normal completion.
===== DaCapo 9.12 xalan completed warmup 20 in 12449 msec =====
===== DaCapo 9.12 xalan starting warmup 21 =====
Normal completion.
===== DaCapo 9.12 xalan completed warmup 21 in 12016 msec =====
===== DaCapo 9.12 xalan starting warmup 22 =====
Normal completion.
===== DaCapo 9.12 xalan completed warmup 22 in 12007 msec =====
===== DaCapo 9.12 xalan starting warmup 23 =====
Normal completion.
===== DaCapo 9.12 xalan completed warmup 23 in 12141 msec =====
===== DaCapo 9.12 xalan starting warmup 24 =====
Normal completion.
===== DaCapo 9.12 xalan completed warmup 24 in 12051 msec =====
===== DaCapo 9.12 xalan starting warmup 25 =====
Normal completion.
===== DaCapo 9.12 xalan completed warmup 25 in 12441 msec =====
===== DaCapo 9.12 xalan starting warmup 26 =====
Normal completion.
===== DaCapo 9.12 xalan completed warmup 26 in 12088 msec =====
===== DaCapo 9.12 xalan starting warmup 27 =====
Normal completion.
===== DaCapo 9.12 xalan completed warmup 27 in 12073 msec =====
===== DaCapo 9.12 xalan starting warmup 28 =====
Normal completion.
===== DaCapo 9.12 xalan completed warmup 28 in 12137 msec =====
===== DaCapo 9.12 xalan starting warmup 29 =====
Normal completion.
===== DaCapo 9.12 xalan completed warmup 29 in 12025 msec =====
===== DaCapo 9.12 xalan starting warmup 30 =====
Normal completion.
===== DaCapo 9.12 xalan completed warmup 30 in 12223 msec =====
===== DaCapo 9.12 xalan starting warmup 31 =====
Normal completion.
===== DaCapo 9.12 xalan completed warmup 31 in 12164 msec =====
===== DaCapo 9.12 xalan starting warmup 32 =====
Normal completion.
===== DaCapo 9.12 xalan completed warmup 32 in 12042 msec =====
===== DaCapo 9.12 xalan starting warmup 33 =====
Normal completion.
===== DaCapo 9.12 xalan completed warmup 33 in 12034 msec =====
===== DaCapo 9.12 xalan starting warmup 34 =====
Normal completion.
===== DaCapo 9.12 xalan completed warmup 34 in 12065 msec =====
===== DaCapo 9.12 xalan starting warmup 35 =====
Normal completion.
===== DaCapo 9.12 xalan completed warmup 35 in 12125 msec =====
===== DaCapo 9.12 xalan starting warmup 36 =====
Normal completion.
===== DaCapo 9.12 xalan completed warmup 36 in 12101 msec =====
===== DaCapo 9.12 xalan starting warmup 37 =====
Normal completion.
===== DaCapo 9.12 xalan completed warmup 37 in 12053 msec =====
===== DaCapo 9.12 xalan starting warmup 38 =====
Normal completion.
===== DaCapo 9.12 xalan completed warmup 38 in 12126 msec =====
===== DaCapo 9.12 xalan starting warmup 39 =====
Normal completion.
===== DaCapo 9.12 xalan completed warmup 39 in 12065 msec =====
===== DaCapo 9.12 xalan starting warmup 40 =====
Normal completion.
===== DaCapo 9.12 xalan completed warmup 40 in 12188 msec =====
===== DaCapo 9.12 xalan starting warmup 41 =====
Normal completion.
===== DaCapo 9.12 xalan completed warmup 41 in 12100 msec =====
===== DaCapo 9.12 xalan starting warmup 42 =====
Normal completion.
===== DaCapo 9.12 xalan completed warmup 42 in 12359 msec =====
===== DaCapo 9.12 xalan starting warmup 43 =====
Normal completion.
===== DaCapo 9.12 xalan completed warmup 43 in 12324 msec =====
===== DaCapo 9.12 xalan starting warmup 44 =====
Normal completion.
===== DaCapo 9.12 xalan completed warmup 44 in 12178 msec =====
===== DaCapo 9.12 xalan starting warmup 45 =====
Normal completion.
===== DaCapo 9.12 xalan completed warmup 45 in 12333 msec =====
===== DaCapo 9.12 xalan starting warmup 46 =====
Normal completion.
===== DaCapo 9.12 xalan completed warmup 46 in 12132 msec =====
===== DaCapo 9.12 xalan starting warmup 47 =====
Normal completion.
===== DaCapo 9.12 xalan completed warmup 47 in 12391 msec =====
===== DaCapo 9.12 xalan starting warmup 48 =====
Normal completion.
===== DaCapo 9.12 xalan completed warmup 48 in 12097 msec =====
===== DaCapo 9.12 xalan starting warmup 49 =====
Normal completion.
===== DaCapo 9.12 xalan completed warmup 49 in 12019 msec =====
===== DaCapo 9.12 xalan starting warmup 50 =====
Normal completion.
===== DaCapo 9.12 xalan completed warmup 50 in 12367 msec =====
===== DaCapo 9.12 xalan starting warmup 51 =====
Normal completion.
===== DaCapo 9.12 xalan completed warmup 51 in 12080 msec =====
===== DaCapo 9.12 xalan starting warmup 52 =====
Normal completion.
===== DaCapo 9.12 xalan completed warmup 52 in 12228 msec =====
===== DaCapo 9.12 xalan starting warmup 53 =====
Normal completion.
===== DaCapo 9.12 xalan completed warmup 53 in 11996 msec =====
===== DaCapo 9.12 xalan starting warmup 54 =====
Normal completion.
===== DaCapo 9.12 xalan completed warmup 54 in 11988 msec =====
===== DaCapo 9.12 xalan starting warmup 55 =====
Normal completion.
===== DaCapo 9.12 xalan completed warmup 55 in 12078 msec =====
===== DaCapo 9.12 xalan starting warmup 56 =====
Normal completion.
===== DaCapo 9.12 xalan completed warmup 56 in 12081 msec =====
===== DaCapo 9.12 xalan starting warmup 57 =====
Normal completion.
===== DaCapo 9.12 xalan completed warmup 57 in 12192 msec =====
===== DaCapo 9.12 xalan starting warmup 58 =====
Normal completion.
===== DaCapo 9.12 xalan completed warmup 58 in 11931 msec =====
===== DaCapo 9.12 xalan starting warmup 59 =====
Normal completion.
===== DaCapo 9.12 xalan completed warmup 59 in 12035 msec =====
===== DaCapo 9.12 xalan starting warmup 60 =====
Normal completion.
===== DaCapo 9.12 xalan completed warmup 60 in 12149 msec =====
===== DaCapo 9.12 xalan starting warmup 61 =====
Normal completion.
===== DaCapo 9.12 xalan completed warmup 61 in 11963 msec =====
===== DaCapo 9.12 xalan starting warmup 62 =====
Normal completion.
===== DaCapo 9.12 xalan completed warmup 62 in 12218 msec =====
===== DaCapo 9.12 xalan starting warmup 63 =====
Normal completion.
===== DaCapo 9.12 xalan completed warmup 63 in 12157 msec =====
===== DaCapo 9.12 xalan starting warmup 64 =====
Normal completion.
===== DaCapo 9.12 xalan completed warmup 64 in 12149 msec =====
===== DaCapo 9.12 xalan starting warmup 65 =====
Normal completion.
===== DaCapo 9.12 xalan completed warmup 65 in 12018 msec =====
===== DaCapo 9.12 xalan starting warmup 66 =====
Normal completion.
===== DaCapo 9.12 xalan completed warmup 66 in 11983 msec =====
===== DaCapo 9.12 xalan starting warmup 67 =====
Normal completion.
===== DaCapo 9.12 xalan completed warmup 67 in 11892 msec =====
===== DaCapo 9.12 xalan starting warmup 68 =====
Normal completion.
===== DaCapo 9.12 xalan completed warmup 68 in 12008 msec =====
===== DaCapo 9.12 xalan starting warmup 69 =====
Normal completion.
===== DaCapo 9.12 xalan completed warmup 69 in 12051 msec =====
===== DaCapo 9.12 xalan starting warmup 70 =====
Normal completion.
===== DaCapo 9.12 xalan completed warmup 70 in 12068 msec =====
===== DaCapo 9.12 xalan starting warmup 71 =====
Normal completion.
===== DaCapo 9.12 xalan completed warmup 71 in 11968 msec =====
===== DaCapo 9.12 xalan starting warmup 72 =====
Normal completion.
===== DaCapo 9.12 xalan completed warmup 72 in 12056 msec =====
===== DaCapo 9.12 xalan starting warmup 73 =====
Normal completion.
===== DaCapo 9.12 xalan completed warmup 73 in 12022 msec =====
===== DaCapo 9.12 xalan starting warmup 74 =====
Normal completion.
===== DaCapo 9.12 xalan completed warmup 74 in 12044 msec =====
===== DaCapo 9.12 xalan starting warmup 75 =====
Normal completion.
===== DaCapo 9.12 xalan completed warmup 75 in 11988 msec =====
===== DaCapo 9.12 xalan starting warmup 76 =====
Normal completion.
===== DaCapo 9.12 xalan completed warmup 76 in 12050 msec =====
===== DaCapo 9.12 xalan starting warmup 77 =====
Normal completion.
===== DaCapo 9.12 xalan completed warmup 77 in 12209 msec =====
===== DaCapo 9.12 xalan starting warmup 78 =====
Normal completion.
===== DaCapo 9.12 xalan completed warmup 78 in 12027 msec =====
===== DaCapo 9.12 xalan starting warmup 79 =====
Normal completion.
===== DaCapo 9.12 xalan completed warmup 79 in 12011 msec =====
===== DaCapo 9.12 xalan starting warmup 80 =====
Normal completion.
===== DaCapo 9.12 xalan completed warmup 80 in 11996 msec =====
===== DaCapo 9.12 xalan starting warmup 81 =====
Normal completion.
===== DaCapo 9.12 xalan completed warmup 81 in 11992 msec =====
===== DaCapo 9.12 xalan starting warmup 82 =====
Normal completion.
===== DaCapo 9.12 xalan completed warmup 82 in 12124 msec =====
===== DaCapo 9.12 xalan starting warmup 83 =====
Normal completion.
===== DaCapo 9.12 xalan completed warmup 83 in 11981 msec =====
===== DaCapo 9.12 xalan starting warmup 84 =====
Normal completion.
===== DaCapo 9.12 xalan completed warmup 84 in 12046 msec =====
===== DaCapo 9.12 xalan starting warmup 85 =====
Normal completion.
===== DaCapo 9.12 xalan completed warmup 85 in 12136 msec =====
===== DaCapo 9.12 xalan starting warmup 86 =====
Normal completion.
===== DaCapo 9.12 xalan completed warmup 86 in 12056 msec =====
===== DaCapo 9.12 xalan starting warmup 87 =====
Normal completion.
===== DaCapo 9.12 xalan completed warmup 87 in 11964 msec =====
===== DaCapo 9.12 xalan starting warmup 88 =====
Normal completion.
===== DaCapo 9.12 xalan completed warmup 88 in 12005 msec =====
===== DaCapo 9.12 xalan starting warmup 89 =====
Normal completion.
===== DaCapo 9.12 xalan completed warmup 89 in 12022 msec =====
===== DaCapo 9.12 xalan starting warmup 90 =====
Normal completion.
===== DaCapo 9.12 xalan completed warmup 90 in 11921 msec =====
===== DaCapo 9.12 xalan starting warmup 91 =====
Normal completion.
===== DaCapo 9.12 xalan completed warmup 91 in 12216 msec =====
===== DaCapo 9.12 xalan starting warmup 92 =====
Normal completion.
===== DaCapo 9.12 xalan completed warmup 92 in 12306 msec =====
===== DaCapo 9.12 xalan starting warmup 93 =====
Normal completion.
===== DaCapo 9.12 xalan completed warmup 93 in 12230 msec =====
===== DaCapo 9.12 xalan starting warmup 94 =====
Normal completion.
===== DaCapo 9.12 xalan completed warmup 94 in 12073 msec =====
===== DaCapo 9.12 xalan starting warmup 95 =====
Normal completion.
===== DaCapo 9.12 xalan completed warmup 95 in 12020 msec =====
===== DaCapo 9.12 xalan starting warmup 96 =====
Normal completion.
===== DaCapo 9.12 xalan completed warmup 96 in 12055 msec =====
===== DaCapo 9.12 xalan starting warmup 97 =====
Normal completion.
===== DaCapo 9.12 xalan completed warmup 97 in 12111 msec =====
===== DaCapo 9.12 xalan starting warmup 98 =====
Normal completion.
===== DaCapo 9.12 xalan completed warmup 98 in 11941 msec =====
===== DaCapo 9.12 xalan starting warmup 99 =====
