2 302 29.2 107.4 0.4 1.2 0.0243333333333 0.0895 0.000333333333333 0.001 29.0 108.0 0.0241465445462 0.089925062448 0.00217783 3.84986e-05 0.00491024 -0.00273241
2 902 29.4 108.0 0.489897948557 2.2803508502 0.0245 0.09 0.000408248290464 0.00190029237517 29.0 109.0 0.0241666666667 0.0908333333333 0.002205 5.93091e-05 0.00516539 -0.00296039
2 202 29.4 107.0 0.489897948557 0.894427191 0.0245 0.0891666666667 0.000408248290464 0.0007453559925 29.0 107.0 0.0241666666667 0.0891666666667 0.00218458 4.07258e-05 0.00481646 -0.00263188
2 802 29.4 108.4 0.489897948557 1.35646599663 0.0245 0.0903333333333 0.000408248290464 0.00113038833052 29.0 109.0 0.0241666666667 0.0908333333333 0.00221317 4.61195e-05 0.00513799 -0.00292482
2 102 29.0 104.4 0.0 1.01980390272 0.0241666666667 0.087 0.0 0.0008498365856 29.0 104.0 0.0241666666667 0.0866666666667 0.0021025 2.05377e-05 0.00465712 -0.00255462
2 702 29.2 111.4 0.4 2.15406592285 0.0243333333333 0.0928333333333 0.000333333333333 0.00179505493571 29.0 110.0 0.0241666666667 0.0916666666667 0.00225894 5.35301e-05 0.00510694 -0.00284799
2 402 29.4 108.0 0.489897948557 0.0 0.0245 0.09 0.000408248290464 0.0 29.0 108.0 0.0241666666667 0.09 0.002205 3.67423e-05 0.00497694 -0.00277194
2 502 29.6 109.4 0.489897948557 2.57681974535 0.0246666666667 0.0911666666667 0.000408248290464 0.00214734978779 30.0 109.0 0.025 0.0908333333333 0.00224878 6.47366e-05 0.00502874 -0.00277996
2 2 32.0 59.2 3.09838667697 4.11825205639 0.0266666666667 0.0493333333333 0.00258198889748 0.00343187671366 34.0 61.0 0.0283333333333 0.0508333333333 0.00131556 0.000156845 0.00374027 -0.00242471
2 602 29.0 109.4 0.0 2.0591260282 0.0241666666667 0.0910907577019 0.0 0.00171450959883 29.0 109.0 0.0241465445462 0.0907577019151 0.00220136 4.1434e-05 0.0050711 -0.00286974
2 998 29.4 109.8 0.489897948557 1.72046505341 0.0245 0.0915 0.000408248290464 0.00143372087784 29.0 109.0 0.0241666666667 0.0908333333333 0.00224175 5.12759e-05 0.00518898 -0.00294723
102 502 89.0 107.2 1.09544511501 2.63818119165 0.0741666666667 0.0893333333333 0.000912870929175 0.00219848432638 89.0 108.0 0.0741049125729 0.089925062448 0.00662556 0.00018231 0.0067152 -8.96439e-05
102 402 90.6 106.8 0.8 1.72046505341 0.0755 0.089 0.000666666666667 0.00143372087784 90.0 106.0 0.075 0.0883333333333 0.0067195 0.000123441 0.00664602 7.34755e-05
102 302 88.2 107.2 2.31516738056 1.16619037897 0.0735 0.0893333333333 0.00192930615047 0.000971825315808 89.0 107.0 0.0741666666667 0.0891666666667 0.006566 0.000186567 0.00655696 9.04134e-06
102 2 92.8 49.4 0.4 0.489897948557 0.0773333333333 0.0411666666667 0.000333333333333 0.000408248290464 93.0 49.0 0.0775 0.0408333333333 0.00318356 3.44244e-05 0.00499462 -0.00181106
102 602 88.0 107.4 1.67332005307 1.35646599663 0.0733333333333 0.0895 0.00139443337756 0.00113038833052 88.0 108.0 0.0733333333333 0.09 0.00656333 0.000149824 0.00677177 -0.000208433
102 102 92.0 99.6 1.41421356237 2.24499443206 0.0766666666667 0.083 0.00117851130198 0.00187082869338 92.0 100.0 0.0766028309742 0.0832639467111 0.00636333 0.00017361 0.00621896 0.000144376
102 702 92.0 107.6 0.632455532034 1.2 0.0766666666667 0.0896666666667 0.000527046276695 0.001 92.0 107.0 0.0766666666667 0.0891666666667 0.00687444 9.00619e-05 0.00681962 5.4825e-05
102 202 87.8 104.6 1.32664991614 1.74355957742 0.0731666666667 0.0871666666667 0.00110554159678 0.00145296631452 88.0 104.0 0.0733333333333 0.0866666666667 0.00637769 0.000143485 0.00643173 -5.40352e-05
102 802 86.8 106.8 0.979795897113 1.93907194297 0.0723333333333 0.089 0.000816496580928 0.00161589328581 87.0 108.0 0.0725 0.09 0.00643767 0.000137631 0.00686109 -0.000423422
102 898 90.4 108.6 2.41660919472 1.01980390272 0.0753333333333 0.0905 0.0020138409956 0.000849836585599 91.0 109.0 0.0758333333333 0.0908333333333 0.00681767 0.00019317 0.0068963 -7.86288e-05
202 202 93.6 104.0 0.489897948557 0.632455532034 0.078 0.0866666666667 0.000408248290464 0.000527046276695 94.0 104.0 0.0783333333333 0.0866666666667 0.00676 5.42388e-05 0.00671244 4.75597e-05
202 102 95.2 99.2 0.979795897113 2.4 0.0793333333333 0.0826666666667 0.000816496580928 0.002 96.0 99.0 0.08 0.0825 0.00655822 0.000172427 0.00649038 6.78406e-05
202 702 92.6 107.2 2.33238075794 0.979795897113 0.0771666666667 0.0893333333333 0.00194365063162 0.000816496580928 93.0 108.0 0.0775 0.09 0.00689356 0.000184711 0.00711726 -0.000223704
202 2 94.2 49.2 0.748331477355 1.16619037897 0.0785 0.041 0.000623609564463 0.000971825315808 94.0 49.0 0.0783333333333 0.0408333333333 0.0032185 8.04588e-05 0.00521261 -0.00199411
202 602 90.6 107.6 2.24499443206 0.8 0.0755 0.0896666666667 0.00187082869338 0.000666666666667 92.0 108.0 0.0766666666667 0.09 0.00676983 0.000175139 0.00706732 -0.000297484
202 302 91.4 105.0 1.49666295471 1.26491106407 0.0761666666667 0.0875 0.00124721912893 0.00105409255339 91.0 106.0 0.0758333333333 0.0883333333333 0.00666458 0.000135483 0.00684313 -0.000178552
202 402 95.4 106.4 1.01980390272 0.489897948557 0.0795 0.0886666666667 0.0008498365856 0.000408248290464 95.0 106.0 0.0791666666667 0.0883333333333 0.007049 8.20447e-05 0.00693609 0.000112912
202 502 91.4 107.4 0.8 1.49666295471 0.0761666666667 0.0895 0.000666666666667 0.00124721912893 92.0 107.0 0.0766666666667 0.0891666666667 0.00681692 0.00011218 0.00700828 -0.000191365
202 798 93.2 108.8 1.16619037897 0.979795897113 0.0776666666667 0.0906666666667 0.000971825315808 0.000816496580928 93.0 109.0 0.0775 0.0908333333333 0.00704178 0.000108559 0.00715891 -0.000117136
302 2 94.8 49.4 0.748331477355 0.8 0.079 0.0411666666667 0.000623609564463 0.000666666666667 95.0 50.0 0.0791666666667 0.0416666666667 0.00325217 5.85903e-05 0.00534091 -0.00208874
302 602 93.0 108.6 1.09544511501 2.15406592285 0.0775 0.0905 0.000912870929175 0.00179356030212 93.0 108.0 0.0774354704413 0.089925062448 0.00701375 0.000161699 0.00724127 -0.000227517
302 502 96.2 107.6 0.979795897113 3.26190128606 0.0801666666667 0.0896666666667 0.000816496580928 0.00271825107172 97.0 108.0 0.0808333333333 0.09 0.00718828 0.000229883 0.00718078 7.49937e-06
302 402 93.0 106.0 1.8973665961 0.632455532034 0.0775 0.0883333333333 0.00158113883008 0.000527046276695 93.0 106.0 0.0775 0.0883333333333 0.00684583 0.000145518 0.00710681 -0.000260974
302 102 93.2 97.6 0.979795897113 2.87054001888 0.0776666666667 0.0813333333333 0.000816496580928 0.0023921166824 93.0 98.0 0.0775 0.0816666666667 0.00631689 0.0001973 0.00665013 -0.000333242
302 202 95.0 104.2 2.19089023002 0.4 0.0791666666667 0.0867610324729 0.00182422167362 0.000333055786844 96.0 104.0 0.0799333888426 0.0865945045795 0.00686858 0.000160453 0.00687766 -9.07327e-06
302 302 92.6 106.2 0.489897948557 1.6 0.0771666666667 0.0885 0.000408248290464 0.00133333333333 93.0 105.0 0.0775 0.0875 0.00682925 0.000109048 0.00701157 -0.000182316
302 698 93.4 108.4 1.35646599663 2.8 0.0778333333333 0.0903333333333 0.00113038833052 0.00233333333333 94.0 109.0 0.0783333333333 0.0908333333333 0.00703094 0.000208349 0.00729054 -0.000259591
402 502 95.0 106.0 1.09544511501 2.683281573 0.0791666666667 0.0883333333333 0.000912870929175 0.0022360679775 95.0 107.0 0.0791666666667 0.0891666666667 0.00699306 0.000194523 0.00730346 -0.000310406
402 402 95.8 104.2 0.748331477355 1.93907194297 0.0798333333333 0.0868333333333 0.000623609564463 0.00161589328581 96.0 105.0 0.08 0.0875 0.00693219 0.000139906 0.00722823 -0.000296033
402 302 93.0 106.4 2.09761769634 1.35646599663 0.0775 0.0886666666667 0.00174801474695 0.00113038833052 92.0 106.0 0.0766666666667 0.0883333333333 0.00687167 0.000178036 0.00713136 -0.000259692
402 2 95.2 48.6 0.979795897113 1.2 0.0793333333333 0.0405 0.000816496580928 0.001 95.0 48.0 0.0791666666667 0.04 0.003213 8.59493e-05 0.00543216 -0.00221916
402 102 98.4 99.2 0.489897948557 0.979795897113 0.082 0.0826666666667 0.000408248290464 0.000816496580928 98.0 99.0 0.0816666666667 0.0825 0.00677867 7.49775e-05 0.00676375 1.49186e-05
402 202 93.2 102.4 2.22710574513 0.489897948557 0.0776666666667 0.0853333333333 0.00185592145427 0.000408248290464 94.0 102.0 0.0783333333333 0.085 0.00662756 0.000161515 0.00699516 -0.000367604
402 598 96.2 108.0 2.13541565041 1.54919333848 0.0801666666667 0.09 0.00177951304201 0.00129099444874 97.0 107.0 0.0808333333333 0.0891666666667 0.007215 0.000190686 0.00736273 -0.000147726
500 500 68.8 90.2 0.979795897113 0.748331477355 0.0573333333333 0.0751666666667 0.000816496580928 0.000623609564462 69.0 90.0 0.0575 0.075 0.00430956 7.10282e-05 0.00739567 -0.00308611
502 402 95.2 105.2 2.22710574513 2.13541565041 0.0793333333333 0.0876666666667 0.00185592145427 0.00177951304201 96.0 106.0 0.08 0.0883333333333 0.00695489 0.000215412 0.00732253 -0.000367641
502 302 94.4 106.0 0.8 1.54919333848 0.0786666666667 0.0883333333333 0.000666666666667 0.00129099444873 95.0 105.0 0.0791666666667 0.0875 0.00694889 0.000117397 0.0072244 -0.00027551
502 2 95.6 49.2 1.8547236991 0.979795897113 0.0796666666667 0.041 0.00154560308258 0.000816496580928 96.0 50.0 0.08 0.0416666666667 0.00326633 9.08125e-05 0.00550303 -0.00223669
502 102 98.0 98.0 1.09544511501 1.09544511501 0.0816666666667 0.0816666666667 0.000912870929175 0.000912870929175 98.0 98.0 0.0816666666667 0.0816666666667 0.00666944 0.000105431 0.00685199 -0.000182547
502 202 91.8 102.2 2.13541565041 0.748331477355 0.0765 0.0851666666667 0.00177951304201 0.000623609564463 92.0 102.0 0.0766666666667 0.085 0.00651525 0.000158886 0.00708642 -0.000571172
502 498 96.2 106.0 1.83303027798 2.19089023002 0.0801666666667 0.0883333333333 0.00152752523165 0.00182574185835 97.0 106.0 0.0808333333333 0.0883333333333 0.00708139 0.00019907 0.007396 -0.000314613
553 447 96.2 106.8 1.16619037897 0.748331477355 0.0801666666667 0.089 0.000971825315808 0.000623609564463 96.0 107.0 0.08 0.0891666666667 0.00713483 9.9901e-05 0.00740021 -0.00026538
569 431 95.0 107.4 1.54919333848 0.489897948557 0.0791666666667 0.0895 0.00129099444873 0.000408248290464 96.0 107.0 0.0799333888426 0.0890924229808 0.00708542 0.000119979 0.00739978 -0.000314368
602 2 96.0 49.6 0.632455532034 0.8 0.08 0.0413333333333 0.000527046276695 0.000666666666667 96.0 50.0 0.08 0.0416666666667 0.00330667 5.76109e-05 0.00556098 -0.00225431
602 102 94.0 95.8 2.19089023002 1.46969384567 0.0783333333333 0.0798333333333 0.00182574185835 0.00122474487139 94.0 95.0 0.0782681099084 0.0791007493755 0.00625361 0.000174496 0.00692415 -0.00067054
602 202 98.6 103.2 1.01980390272 0.4 0.0821666666667 0.086 0.0008498365856 0.000333333333333 99.0 103.0 0.0825 0.0858333333333 0.00706633 7.80494e-05 0.00716105 -9.47172e-05
602 302 93.2 105.2 1.72046505341 0.748331477355 0.0776666666667 0.0876666666667 0.00143372087784 0.000623609564463 94.0 105.0 0.0783333333333 0.0875 0.00680878 0.000134698 0.00730048 -0.000491702
602 398 96.2 105.4 3.12409987036 2.41660919472 0.0801666666667 0.0878333333333 0.00260341655864 0.0020138409956 98.0 106.0 0.0816666666667 0.0883333333333 0.00704131 0.000279915 0.00739618 -0.000354873
702 202 95.2 103.2 0.748331477355 1.16619037897 0.0793333333333 0.086 0.000623609564463 0.000971825315808 95.0 104.0 0.0791666666667 0.0866666666667 0.00682267 9.39167e-05 0.00722418 -0.000401517
702 102 97.0 97.6 1.67332005307 2.65329983228 0.0808333333333 0.0813333333333 0.00139443337756 0.00221108319357 96.0 97.0 0.08 0.0808333333333 0.00657444 0.000211676 0.0069852 -0.000410751
702 2 95.0 50.2 1.09544511501 0.748331477355 0.0791666666667 0.0418333333333 0.000912870929175 0.000623609564463 95.0 50.0 0.0791666666667 0.0416666666667 0.00331181 6.24153e-05 0.00561001 -0.0022982
702 298 97.8 107.0 1.46969384567 0.894427191 0.0815 0.0891666666667 0.00122474487139 0.0007453559925 98.0 107.0 0.0816666666667 0.0891666666667 0.00726708 0.000124965 0.00736018 -9.30952e-05
802 2 94.6 49.0 1.8547236991 1.26491106407 0.0788333333333 0.0408333333333 0.00154560308258 0.00105409255339 95.0 49.0 0.0791666666667 0.0408333333333 0.00321903 0.000104347 0.00565249 -0.00243347
802 102 97.0 97.4 3.09838667697 1.2 0.0808333333333 0.0811666666667 0.00258198889748 0.001 98.0 98.0 0.0816666666667 0.0816666666667 0.00656097 0.00022462 0.0070381 -0.000477124
802 198 95.4 101.4 2.15406592285 2.41660919472 0.0795 0.0845 0.00179505493571 0.0020138409956 96.0 103.0 0.08 0.0858333333333 0.00671775 0.000220544 0.00727185 -0.000554096
902 2 95.4 47.6 0.489897948557 1.35646599663 0.0795 0.0396666666667 0.000408248290464 0.00113038833052 95.0 48.0 0.0791666666667 0.04 0.0031535 9.13133e-05 0.00568998 -0.00253648
902 98 96.4 99.2 0.489897948557 2.03960780544 0.0803333333333 0.0826666666667 0.000408248290464 0.0016996731712 96.0 99.0 0.08 0.0825 0.00664089 0.000140649 0.00707058 -0.000429693
