             total       used       free     shared    buffers     cached
Mem:      15404388     219552   15184836          0      10668      75404
-/+ buffers/cache:     133480   15270908
Swap:            0          0          0

             total       used       free     shared    buffers     cached
Mem:           14G       214M        14G         0B        10M        73M
-/+ buffers/cache:       130M        14G
Swap:           0B         0B         0B
