1411700227488 0 TOTAL_MEM 4461
1411700247537 5755 CREATION
1411700247537 5755 READING 9 0.991928
1411700247537 5755 MINHEAP 2
1411700247537 5755 MINHEAP 1211
1411700247540 5756 CREATION
1411700247540 5756 READING 9 0.993641
1411700247540 5756 MINHEAP 2
1411700247540 5756 MINHEAP 276
1411700247585 5755 READING 9 0.986893
1411700247593 5756 READING 9 0.989754
1411700247615 5755 READING 9 0.980002
1411700247621 5756 READING 9 0.981974
1411700247640 5755 READING 9 0.969939
1411700247647 5756 READING 9 0.971122
1411700247738 5755 READING 11 0.973639
1411700247767 5756 READING 11 0.982818
1411700247878 5755 READING 11 0.964482
1411700247905 5756 READING 11 0.972373
1411700248026 5755 READING 17 0.969409
1411700248055 5756 READING 17 0.917560
1411700248172 5755 READING 17 0.879036
1411700248233 5756 READING 17 0.876672
1411700248303 5755 READING 30 0.712359
1411700248417 5756 READING 30 0.805704
1411700248469 5755 READING 31 0.365611
1411700248633 5756 READING 31 0.497391
1411700248771 5755 READING 36 0.605177
1411700248859 5756 READING 34 0.765196
1411700248905 5755 READING 48 0.470979
1411700248939 5756 READING 43 0.902343
1411700249187 5756 READING 48 0.452157
1411700249214 5755 READING 50 0.524263
1411700249245 5756 READING 60 0.109935
1411700249305 5755 READING 66 0.400232
1411700249308 5756 READING 66 0.861806
1411700249381 5755 READING 73 0.339648
1411700249578 5756 READING 67 0.454610
1411700249663 5755 READING 73 0.433189
1411700249682 5756 READING 89 0.857580
1411700249817 5755 READING 103 0.557286
1411700249981 5756 READING 91 0.416447
1411700250097 5756 READING 120 0.463876
1411700250185 5756 READING 121 0.335933
1411700250210 5755 READING 104 0.486789
1411700250285 5756 READING 123 0.754140
1411700250307 5755 READING 138 0.699964
1411700250369 5756 READING 126 0.726857
1411700250408 5755 READING 138 0.627627
1411700250518 5755 READING 139 0.368157
1411700250639 5755 READING 142 0.286490
1411700250772 5756 READING 129 0.448145
1411700250889 5756 READING 165 0.635103
1411700250997 5756 READING 169 0.632676
1411700251131 5756 READING 172 0.647839
1411700251229 5756 READING 174 0.613422
1411700251248 5755 READING 145 0.389436
1411700251318 5756 READING 181 0.653468
1411700251355 5755 READING 184 0.311332
1411700251404 5756 READING 183 0.664448
1411700251467 5755 READING 188 0.160479
1411700251605 5755 READING 192 0.737181
1411700251669 5756 READING 189 0.775409
1411700251749 5755 READING 200 0.728211
1411700251870 5755 READING 203 0.742487
1411700252127 5756 READING 193 0.827282
1411700252313 5756 READING 201 0.755383
1411700252544 5756 READING 207 0.775598
1411700252562 5755 READING 207 0.416878
1411700252637 5756 READING 216 0.651049
1411700252721 5756 READING 221 0.539092
1411700252737 5755 READING 256 0.623372
1411700252889 5755 READING 261 0.633505
1411700253044 5755 READING 266 0.669102
1411700253204 5755 READING 270 0.604101
1411700253373 5755 READING 279 0.548339
1411700253525 5755 READING 283 0.489906
1411700253545 5756 READING 227 0.529453
1411700253633 5756 READING 265 0.491340
1411700254096 5756 READING 201 0.099950
1411700254163 5755 READING 294 0.382679
1411700254253 5756 READING 312 0.576471
1411700254289 5755 READING 354 0.516333
1411700254348 5756 READING 313 0.739482
1411700254391 5755 READING 294 0.589566
1411700254428 5756 READING 317 0.828678
1411700254511 5756 READING 317 0.868231
1411700254621 5756 READING 313 0.816492
1411700254680 5756 READING 234 0.795407
1411700254744 5756 READING 305 0.775265
1411700254805 5756 READING 236 0.777465
1411700254886 5756 READING 301 0.705466
1411700254961 5756 READING 305 0.697920
1411700254988 5755 READING 343 0.269357
1411700255024 5756 READING 297 0.772893
1411700255120 5755 READING 404 0.594968
1411700255234 5755 READING 397 0.678568
1411700255320 5756 READING 301 0.942500
1411700255356 5755 READING 401 0.713219
1411700255476 5755 READING 398 0.707110
1411700255555 5756 READING 294 0.942603
1411700255612 5755 READING 400 0.700187
1411700255625 5756 READING 253 0.913762
1411700255697 5756 READING 288 0.877330
1411700255780 5755 READING 401 0.663587
1411700255780 5756 READING 255 0.813036
1411700255853 5756 READING 285 0.824415
1411700255933 5755 READING 407 0.610062
1411700255933 5756 READING 288 0.830129
1411700256111 5756 READING 284 0.196461
1411700256111 5755 READING 409 0.539528
1411700256292 5755 READING 420 0.499780
1411700256293 5756 READING 287 0.673711
1411700256409 5756 READING 285 0.686550
1411700256438 5755 READING 427 0.514040
1411700256484 5756 READING 287 0.485843
1411700256580 5756 READING 292 0.643365
1411700256581 5755 READING 436 0.496152
1411700256669 5756 READING 294 0.586808
1411700256749 5755 READING 440 0.450058
1411700256749 5756 READING 299 0.618538
1411700256857 5756 READING 301 0.522401
1411700256969 5756 READING 307 0.511158
1411700257092 5756 READING 309 0.662036
1411700257489 5755 FUNCTION lru lambda h: 0.766071 * (h ** 0.001)
1411700257489 5756 FUNCTION lru lambda h: 0.723425 * (h ** 0.001)
1411700257490 5755 RECOMMEND 2231
1411700257490 5756 RECOMMEND 2231
1411700257658 5755 READING 451 0.398698
1411700257857 5755 READING 516 0.391380
1411700258005 5755 READING 438 0.414237
1411700258386 5756 READING 314 0.949485
1411700259110 5755 READING 500 0.151335
1411700259312 5755 READING 575 0.398851
1411700259441 5755 READING 575 0.514421
1411700259504 5756 READING 314 0.966329
1411700259557 5755 READING 575 0.573065
1411700259694 5755 READING 568 0.599215
1411700259839 5755 READING 505 0.590006
1411700259993 5755 READING 564 0.567273
1411700260173 5755 READING 567 0.568922
1411700260346 5755 READING 569 0.555940
1411700260549 5755 READING 576 0.523114
1411700260718 5755 READING 582 0.532702
1411700260881 5756 READING 316 0.967281
1411700260884 5755 READING 587 0.537574
1411700261026 5755 READING 591 0.567889
1411700261191 5755 READING 597 0.526791
1411700261877 5756 READING 318 0.962960
1411700262453 5755 READING 603 0.364408
1411700262796 5755 READING 675 0.544404
1411700263234 5756 READING 315 0.968124
1411700263361 5755 READING 687 0.762020
1411700263844 5755 READING 688 0.796301
1411700264192 5756 READING 318 0.962718
1411700264314 5755 READING 689 0.813103
1411700264704 5755 READING 698 0.791408
1411700264858 5755 READING 704 0.696608
1411700265227 5756 READING 314 0.827347
1411700266333 5756 READING 316 0.918453
1411700266400 5755 READING 712 0.473775
1411700266655 5755 READING 783 0.540756
1411700266754 5755 READING 696 0.486381
1411700266854 5755 READING 769 0.441856
1411700266953 5755 READING 775 0.419630
1411700267391 5756 READING 314 0.898028
1411700267490 5755 FUNCTION lru lambda h: 0.66863 * (h ** 0.001)
1411700267490 5756 FUNCTION lru lambda h: 0.64462 * (h ** 0.001)
1411700267491 5755 RECOMMEND 2231
1411700267491 5756 RECOMMEND 2231
1411700267810 5755 READING 773 0.199912
1411700267985 5755 READING 854 0.397414
1411700268437 5755 READING 859 0.763035
1411700268447 5756 READING 316 0.863727
1411700268525 5755 READING 861 0.749999
1411700268626 5755 READING 860 0.718554
1411700268726 5755 READING 863 0.697218
1411700268947 5755 READING 858 0.794994
1411700269597 5756 READING 317 0.883058
1411700269917 5755 READING 862 0.448875
1411700270128 5755 READING 953 0.887706
1411700270210 5755 READING 953 0.881061
1411700270465 5755 READING 960 0.935084
1411700270507 5756 READING 317 0.885359
1411700270577 5755 READING 961 0.937706
1411700270893 5755 READING 955 0.934920
1411700271113 5755 READING 806 0.901398
1411700271251 5755 READING 930 0.863258
1411700271383 5755 READING 827 0.850409
1411700271534 5755 READING 916 0.811792
1411700271693 5756 READING 319 0.887449
1411700271704 5755 READING 831 0.747893
1411700271855 5755 READING 908 0.780435
1411700272005 5755 READING 837 0.797411
1411700272164 5755 READING 901 0.806797
1411700272323 5755 READING 907 0.807691
1411700272493 5755 READING 897 0.810261
1411700272665 5755 READING 902 0.808785
1411700272707 5756 READING 320 0.867898
1411700273364 5755 READING 897 0.946650
1411700273777 5756 READING 322 0.847575
1411700274594 5755 READING 901 0.962459
1411700274702 5756 READING 323 0.733314
1411700274778 5755 READING 903 0.930465
1411700274948 5755 READING 908 0.903024
1411700275122 5755 READING 915 0.877537
1411700275307 5755 READING 917 0.838608
1411700275501 5755 READING 924 0.809801
1411700275699 5755 READING 925 0.803000
1411700275953 5755 READING 933 0.722973
1411700276177 5755 READING 933 0.738936
1411700276445 5755 READING 940 0.773213
1411700276542 5756 READING 324 0.908072
1411700276800 5755 READING 941 0.822580
1411700277182 5755 READING 943 0.868829
1411700277358 5755 READING 947 0.836438
1411700277491 5755 FUNCTION lru lambda h: 0.26639 * (h ** 0.130165)
1411700277491 5756 FUNCTION lru lambda h: 0.595015 * (h ** 0.0203786)
1411700277492 5755 RECOMMEND 3857
1411700277492 5756 RECOMMEND 604
1411700277606 5755 READING 948 0.757283
1411700277658 5756 READING 363 0.963149
1411700279617 5756 READING 366 0.975292
1411700279862 5755 READING 951 0.679435
1411700279904 5756 READING 366 0.971466
1411700280057 5756 READING 363 0.924432
1411700280103 5755 READING 1081 0.643496
1411700280173 5756 READING 365 0.903103
1411700280283 5755 READING 1085 0.689456
1411700280283 5756 READING 371 0.852486
1411700280389 5756 READING 374 0.817567
1411700280478 5755 READING 1088 0.719391
1411700280681 5755 READING 1091 0.728074
1411700280737 5756 READING 382 0.913915
1411700280892 5755 READING 1095 0.150403
1411700281111 5755 READING 1099 0.458938
1411700281331 5755 READING 1110 0.621039
1411700281580 5755 READING 1111 0.687853
1411700282144 5756 READING 384 0.972625
1411700283524 5756 READING 386 0.977599
1411700283620 5755 READING 1125 0.925555
1411700285222 5756 READING 388 0.984046
1411700285354 5755 READING 1128 0.922520
1411700286578 5756 READING 388 0.983639
1411700287160 5755 READING 1141 0.951165
1411700287492 5755 FUNCTION lru lambda h: 0.0921975 * (h ** 0.293017)
1411700287492 5756 FUNCTION lru lambda h: 0.501706 * (h ** 0.0613452)
1411700287493 5755 RECOMMEND 3689
1411700287493 5756 RECOMMEND 772
1411700287818 5756 READING 390 0.982397
1411700288938 5755 READING 1146 0.947537
1411700289131 5756 READING 387 0.982371
1411700290523 5756 READING 390 0.977838
1411700290783 5755 READING 1157 0.950650
1411700291750 5756 READING 388 0.977993
1411700292660 5755 READING 1164 0.947049
1411700293021 5756 READING 390 0.978218
1411700294436 5756 READING 389 0.977252
1411700294556 5755 READING 1176 0.950763
1411700295839 5756 READING 390 0.978255
1411700296444 5755 READING 1179 0.957535
1411700297493 5755 FUNCTION lru lambda h: 0.0839249 * (h ** 0.309873)
1411700297493 5756 FUNCTION lru lambda h: 0.476022 * (h ** 0.0738354)
1411700297494 5755 RECOMMEND 3603
1411700297494 5756 RECOMMEND 858
1411700297548 5756 READING 391 0.980018
1411700298401 5755 READING 1176 0.955303
1411700299138 5756 READING 392 0.979082
1411700299899 5756 READING 394 0.976742
1411700300049 5756 READING 394 0.961773
1411700300166 5756 READING 390 0.941837
1411700300284 5756 READING 395 0.914084
1411700300380 5755 READING 1180 0.954178
1411700300487 5756 READING 402 0.916206
1411700302073 5756 READING 403 0.977593
1411700302421 5755 READING 1181 0.953455
1411700303662 5756 READING 407 0.983307
1411700304436 5755 READING 1183 0.952902
1411700305484 5756 READING 408 0.986294
1411700306441 5755 READING 1189 0.957704
1411700306976 5756 READING 408 0.985247
1411700307494 5755 FUNCTION lru lambda h: 0.0425441 * (h ** 0.412964)
1411700307494 5756 FUNCTION lru lambda h: 0.428638 * (h ** 0.0985542)
1411700307495 5755 RECOMMEND 3601
1411700307495 5756 RECOMMEND 860
1411700308533 5755 READING 1190 0.955679
1411700308717 5756 READING 410 0.985437
1411700310424 5756 READING 407 0.984816
1411700310630 5755 READING 1197 0.953848
1411700311824 5756 READING 410 0.982750
1411700312742 5755 READING 1200 0.953122
1411700313392 5756 READING 410 0.981604
1411700315003 5756 READING 411 0.974084
1411700316461 5756 READING 413 0.971827
1411700316681 5755 READING 1207 0.896503
1411700317495 5755 FUNCTION lru lambda h: 0.0203266 * (h ** 0.523529)
1411700317495 5756 FUNCTION lru lambda h: 0.414108 * (h ** 0.106601)
1411700317497 5755 RECOMMEND 3706
1411700317497 5756 RECOMMEND 755
1411700318388 5756 READING 413 0.977227
1411700318769 5755 READING 1281 0.971628
1411700319447 5756 READING 412 0.979187
1411700319605 5756 READING 416 0.969200
1411700319738 5756 READING 416 0.951744
1411700319875 5756 READING 418 0.924958
1411700320826 5755 READING 1282 0.979945
1411700321057 5756 READING 425 0.973346
1411700322663 5756 READING 426 0.981956
1411700322917 5755 READING 1292 0.981716
1411700324511 5756 READING 429 0.985438
1411700325077 5755 READING 1301 0.979831
1411700326274 5756 READING 431 0.986106
1411700327263 5755 READING 1303 0.976977
1411700327497 5755 FUNCTION lru lambda h: 0.0138687 * (h ** 0.580739)
1411700327497 5756 FUNCTION lru lambda h: 0.38757 * (h ** 0.121918)
1411700327497 5755 RECOMMEND 3687
1411700327498 5756 RECOMMEND 774
1411700328140 5756 READING 431 0.986818
1411700329451 5755 READING 1299 0.975939
1411700329824 5756 READING 432 0.985604
1411700331637 5755 READING 1207 0.968424
1411700331642 5756 READING 430 0.982310
1411700333528 5756 READING 432 0.983484
1411700333894 5755 READING 1290 0.971939
1411700335526 5756 READING 432 0.983669
1411700336160 5755 READING 1228 0.969888
1411700337398 5756 READING 433 0.982925
1411700337498 5755 FUNCTION lru lambda h: 0.00658096 * (h ** 0.68992)
1411700337498 5756 FUNCTION lru lambda h: 0.377701 * (h ** 0.127839)
1411700337499 5755 RECOMMEND 3764
1411700337499 5756 RECOMMEND 697
1411700338481 5755 READING 1291 0.967810
1411700339203 5756 READING 435 0.985342
1411700339386 5756 READING 436 0.977053
1411700339534 5756 READING 435 0.962817
1411700339681 5756 READING 437 0.952325
1411700340825 5755 READING 1293 0.965071
1411700341424 5756 READING 443 0.983486
1411700343158 5755 READING 1297 0.963297
1411700343322 5756 READING 444 0.987093
1411700345282 5756 READING 447 0.987611
1411700345490 5755 READING 1300 0.963998
1411700347400 5756 READING 448 0.988081
1411700347499 5755 FUNCTION lru lambda h: 0.0034878 * (h ** 0.782332)
1411700347499 5756 FUNCTION lru lambda h: 0.359115 * (h ** 0.139332)
1411700347500 5755 RECOMMEND 3787
1411700347500 5756 RECOMMEND 674
1411700347913 5755 READING 1304 0.962348
1411700349227 5756 READING 446 0.986981
1411700350295 5755 READING 1311 0.958932
1411700351084 5756 READING 448 0.984994
1411700352684 5755 READING 1317 0.954585
1411700353183 5756 READING 446 0.985765
1411700355093 5755 READING 1326 0.946975
1411700355094 5756 READING 448 0.982774
1411700357501 5755 FUNCTION lru lambda h: 0.00320963 * (h ** 0.794345)
1411700357501 5756 FUNCTION lru lambda h: 0.284687 * (h ** 0.180689)
1411700357502 5755 RECOMMEND 3634
1411700357502 5756 RECOMMEND 827
1411700357518 5755 READING 1336 0.949410
1411700357554 5756 READING 450 0.987770
1411700358446 5756 READING 451 0.984251
1411700358604 5756 READING 450 0.974577
1411700358764 5756 READING 453 0.959021
1411700360021 5755 READING 1341 0.950970
1411700360049 5756 READING 458 0.978577
1411700362179 5756 READING 459 0.986569
1411700362544 5755 READING 1352 0.951410
1411700364413 5756 READING 462 0.988709
1411700365134 5755 READING 1355 0.951901
1411700366883 5756 READING 463 0.989693
1411700367502 5755 FUNCTION lru lambda h: 0.00609145 * (h ** 0.702015)
1411700367502 5756 FUNCTION lru lambda h: 0.0477666 * (h ** 0.492275)
1411700367503 5755 RECOMMEND 2622
1411700367503 5756 RECOMMEND 1839
1411700367824 5755 READING 1364 0.952888
1411700369084 5756 READING 462 0.988846
1411700370525 5755 READING 1366 0.952026
1411700371240 5756 READING 464 0.987930
1411700373283 5755 READING 1375 0.950288
1411700373574 5756 READING 462 0.986937
1411700375854 5756 READING 463 0.986635
1411700377503 5755 FUNCTION lru lambda h: 0.00473684 * (h ** 0.737891)
1411700377503 5756 FUNCTION lru lambda h: 0.0834167 * (h ** 0.396581)
1411700377504 5755 RECOMMEND 2902
1411700377504 5756 RECOMMEND 1559
1411700378031 5756 READING 466 0.989046
1411700378296 5756 READING 466 0.981593
1411700378467 5756 READING 466 0.970464
1411700378824 5756 READING 468 0.967020
1411700381151 5756 READING 475 0.986682
1411700383572 5756 READING 475 0.989226
1411700385794 5756 READING 475 0.989047
1411700387504 5755 FUNCTION lru lambda h: 0.00473684 * (h ** 0.737891)
1411700387504 5756 FUNCTION lru lambda h: 0.0392073 * (h ** 0.525642)
1411700387505 5755 RECOMMEND 2605
1411700387505 5756 RECOMMEND 1856
1411700388069 5756 READING 477 0.981020
1411700388788 5755 READING 1375 0.931641
1411700390216 5756 READING 475 0.983153
1411700392666 5756 READING 477 0.985168
1411700394840 5756 READING 479 0.984649
1411700397131 5756 READING 479 0.979431
1411700397347 5756 READING 490 0.981969
1411700397505 5755 FUNCTION lru lambda h: 0.00475458 * (h ** 0.737334)
1411700397505 5756 FUNCTION lru lambda h: 0.0501797 * (h ** 0.483711)
1411700397506 5755 RECOMMEND 2694
1411700397506 5756 RECOMMEND 1767
1411700397519 5756 READING 491 0.978474
1411700399161 5756 READING 494 0.990290
1411700400045 5755 READING 1505 0.984500
1411700401645 5756 READING 494 0.993145
1411700404181 5756 READING 500 0.992987
1411700406032 5755 READING 1443 0.984485
1411700406637 5755 READING 1527 0.976449
1411700406666 5756 READING 501 0.993368
1411700407026 5755 READING 1536 0.957319
1411700407346 5755 READING 1538 0.929129
1411700407506 5755 FUNCTION lru lambda h: 0.00491814 * (h ** 0.731536)
1411700407506 5756 FUNCTION lru lambda h: 0.032394 * (h ** 0.557253)
1411700407507 5755 RECOMMEND 2532
1411700407507 5756 RECOMMEND 1929
1411700407674 5755 READING 1556 0.885746
1411700407996 5755 READING 1583 0.850899
1411700408334 5755 READING 1593 0.806136
1411700408802 5755 READING 1625 0.816577
1411700409046 5756 READING 499 0.991013
1411700411538 5756 READING 501 0.983485
1411700411584 5755 READING 1629 0.948648
1411700413980 5756 READING 501 0.984565
1411700414472 5755 READING 1642 0.964450
1411700416534 5756 READING 502 0.987446
1411700416791 5756 READING 505 0.980379
1411700416997 5756 READING 507 0.962764
1411700417306 5755 READING 1650 0.968233
1411700417507 5755 FUNCTION lru lambda h: 0.00691534 * (h ** 0.679737)
1411700417507 5756 FUNCTION lru lambda h: 0.0261743 * (h ** 0.592308)
1411700417508 5755 RECOMMEND 2384
1411700417508 5756 RECOMMEND 2077
1411700418713 5756 READING 514 0.979159
1411700420364 5755 READING 1651 0.969715
1411700421270 5756 READING 519 0.986242
1411700423425 5755 READING 1661 0.972511
1411700423855 5756 READING 517 0.987550
1411700426593 5755 READING 1653 0.971260
1411700426734 5756 READING 520 0.988198
1411700427508 5755 FUNCTION lru lambda h: 0.00934235 * (h ** 0.636879)
1411700427508 5756 FUNCTION lru lambda h: 0.0134682 * (h ** 0.702059)
1411700427509 5755 RECOMMEND 2122
1411700427509 5756 RECOMMEND 2339
1411700429403 5756 READING 525 0.987572
1411700429773 5755 READING 1664 0.970640
1411700432239 5756 READING 525 0.987979
1411700433191 5755 READING 1670 0.973238
1411700435228 5756 READING 529 0.986569
1411700436617 5755 READING 1672 0.974997
1411700436680 5756 READING 531 0.984346
1411700436888 5756 READING 538 0.975848
1411700437509 5755 FUNCTION lru lambda h: 0.0206293 * (h ** 0.525624)
1411700437509 5756 FUNCTION lru lambda h: 0.0207176 * (h ** 0.629914)
1411700437510 5755 RECOMMEND 2029
1411700437510 5756 RECOMMEND 2432
1411700437702 5756 READING 539 0.975982
1411700440222 5755 READING 1674 0.973574
1411700440478 5756 READING 545 0.987179
1411700443665 5756 READING 546 0.988105
1411700443774 5755 READING 1680 0.968449
1411700446568 5756 READING 546 0.989227
1411700447469 5755 READING 1669 0.968711
1411700447510 5755 FUNCTION lru lambda h: 0.0634065 * (h ** 0.369086)
1411700447510 5756 FUNCTION lru lambda h: 0.035195 * (h ** 0.541922)
1411700447511 5755 RECOMMEND 1807
1411700447511 5756 RECOMMEND 2654
1411700449312 5756 READING 548 0.989112
1411700451157 5755 READING 1677 0.967951
1411700452388 5756 READING 545 0.989243
1411700454969 5755 READING 1680 0.966974
1411700455594 5756 READING 548 0.991452
1411700456406 5756 READING 548 0.987421
1411700456629 5756 READING 549 0.978429
1411700457511 5755 FUNCTION lru lambda h: 0.0646528 * (h ** 0.366347)
1411700457511 5756 FUNCTION lru lambda h: 0.0296633 * (h ** 0.569602)
1411700457512 5755 RECOMMEND 1746
1411700457512 5756 RECOMMEND 2715
1411700458614 5756 READING 552 0.973603
1411700458699 5755 READING 1682 0.963148
1411700461794 5756 READING 553 0.986414
1411700462381 5755 READING 1691 0.965266
1411700464783 5756 READING 555 0.988965
1411700466233 5755 READING 1697 0.962431
1411700467512 5755 FUNCTION lru lambda h: 0.0713152 * (h ** 0.352623)
1411700467512 5756 FUNCTION lru lambda h: 0.0275212 * (h ** 0.581146)
1411700467513 5755 RECOMMEND 1685
1411700467513 5756 RECOMMEND 2776
1411700467756 5756 READING 557 0.989860
1411700470849 5756 READING 555 0.984302
1411700471235 5755 READING 1710 0.952774
1411700473853 5756 READING 558 0.986272
1411700474855 5755 READING 1603 0.976944
1411700475822 5756 READING 561 0.986027
1411700476060 5756 READING 561 0.977529
1411700477513 5755 FUNCTION lru lambda h: 0.0925582 * (h ** 0.316552)
1411700477513 5756 FUNCTION lru lambda h: 0.0620339 * (h ** 0.447965)
1411700477514 5755 RECOMMEND 1847
1411700477514 5756 RECOMMEND 2614
1411700477676 5756 READING 566 0.983755
1411700478497 5755 READING 1639 0.982630
1411700481263 5756 READING 567 0.990609
1411700482197 5755 READING 1653 0.984069
1411700484235 5756 READING 569 0.990324
1411700486068 5755 READING 1669 0.981495
1411700487265 5756 READING 572 0.990274
1411700487514 5755 FUNCTION lru lambda h: 0.086637 * (h ** 0.325694)
1411700487514 5756 FUNCTION lru lambda h: 0.112061 * (h ** 0.351096)
1411700487515 5755 RECOMMEND 2147
1411700487515 5756 RECOMMEND 2314
1411700489862 5755 READING 1670 0.980932
1411700490415 5756 READING 570 0.989508
1411700493822 5755 READING 1663 0.980100
1411700493954 5756 READING 573 0.992158
1411700494904 5756 READING 574 0.988992
1411700495153 5756 READING 575 0.980614
1411700497515 5755 FUNCTION lru lambda h: 0.0814748 * (h ** 0.334138)
1411700497515 5756 FUNCTION lru lambda h: 0.337376 * (h ** 0.172121)
1411700497516 5755 RECOMMEND 2944
1411700497516 5756 RECOMMEND 1517
1411700497773 5755 READING 1670 0.981003
1411700497865 5756 READING 580 0.988461
1411700501350 5756 READING 582 0.991355
1411700501852 5755 READING 1649 0.977063
1411700504640 5756 READING 583 0.991348
1411700505854 5755 READING 1660 0.977681
1411700507516 5755 FUNCTION lru lambda h: 0.0679104 * (h ** 0.359252)
1411700507516 5756 FUNCTION lru lambda h: 0.318675 * (h ** 0.181172)
1411700507517 5755 RECOMMEND 2965
1411700507517 5756 RECOMMEND 1496
1411700508142 5756 READING 585 0.991061
1411700511616 5756 READING 585 0.990748
1411700514172 5756 READING 587 0.989593
1411700514426 5756 READING 589 0.984535
1411700514551 5756 DEATH 223
1411700517517 5755 FUNCTION lru lambda h: 0.0679104 * (h ** 0.359252)
1411700517517 5755 RECOMMEND 4461
1411700527517 5755 FUNCTION lru lambda h: 0.0679104 * (h ** 0.359252)
1411700527518 5755 RECOMMEND 4461
1411700529528 5755 READING 1655 0.993646
1411700536407 5755 READING 1659 0.991736
1411700536975 5755 READING 1659 0.983970
1411700537449 5755 READING 1673 0.968412
1411700537518 5755 FUNCTION lru lambda h: 0.058538 * (h ** 0.379728)
1411700537518 5755 RECOMMEND 4461
1411700537918 5755 READING 1715 0.949347
1411700538394 5755 READING 1736 0.927560
1411700538423 5755 DEATH 212
