1413633503745 0 TOTAL_MEM 5012
1413633523767 32570 CREATION
1413633523767 32570 READING 9 0.988702
1413633523767 32570 MINHEAP 2
1413633523767 32570 MINHEAP 30
1413633523795 32569 CREATION
1413633523795 32569 READING 9 0.990470
1413633523795 32569 MINHEAP 2
1413633523795 32569 MINHEAP 1223
1413633523803 32570 READING 9 0.972709
1413633523839 32569 READING 9 0.973428
1413633523861 32570 READING 11 0.980036
1413633523865 32570 READING 11 0.598298
1413633523868 32569 READING 9 0.954301
1413633523869 32570 READING 15 0.831910
1413633523871 32570 READING 15 0.599831
1413633523875 32570 READING 24 0.796512
1413633523878 32570 READING 24 0.752027
1413633523884 32570 READING 40 0.917338
1413633523890 32570 READING 40 0.900715
1413633523894 32569 READING 9 0.950800
1413633523900 32570 READING 60 0.939723
1413633523909 32570 READING 60 0.948587
1413633523924 32570 READING 91 0.962554
1413633523939 32570 READING 91 0.945833
1413633523957 32570 READING 140 0.964913
1413633524010 32569 READING 11 0.986512
1413633524141 32569 READING 11 0.979542
1413633524229 32569 READING 17 0.951714
1413633524348 32569 READING 17 0.642651
1413633524561 32569 READING 30 0.917634
1413633524675 32569 READING 31 0.925391
1413633525012 32569 READING 36 0.421666
1413633525042 32570 READING 140 0.956220
1413633525097 32569 READING 45 0.899440
1413633525402 32569 READING 48 0.345934
1413633525545 32569 READING 63 0.846204
1413633525671 32569 READING 66 0.903503
1413633526066 32569 READING 69 0.235703
1413633526110 32570 READING 224 0.894076
1413633526200 32569 READING 100 0.598474
1413633526603 32569 READING 100 0.229966
1413633526694 32569 READING 133 0.843050
1413633526836 32569 READING 133 0.655791
1413633527002 32569 READING 135 0.835303
1413633527105 32569 READING 137 0.778840
1413633527147 32570 READING 241 0.991919
1413633527716 32569 READING 140 0.154543
1413633527851 32569 READING 178 0.734861
1413633527994 32569 READING 183 0.609412
1413633528140 32569 READING 186 0.776219
1413633528228 32570 READING 275 0.991381
1413633528270 32569 READING 194 0.773985
1413633528421 32569 READING 197 0.647583
1413633529015 32569 READING 200 0.133101
1413633529167 32569 READING 250 0.561338
1413633529325 32569 READING 254 0.700677
1413633529481 32569 READING 259 0.637377
1413633529670 32569 READING 262 0.645974
1413633529819 32569 READING 271 0.538774
1413633529878 32570 READING 292 0.946377
1413633530013 32569 READING 276 0.355390
1413633530758 32569 READING 287 0.124772
1413633530887 32570 READING 315 0.980976
1413633530996 32569 READING 346 0.633634
1413633531154 32569 READING 285 0.657405
1413633531954 32569 READING 335 0.102413
1413633532038 32570 READING 320 0.950222
1413633532142 32569 READING 394 0.414513
1413633532270 32569 READING 389 0.682860
1413633532402 32569 READING 392 0.632359
1413633532538 32569 READING 390 0.626546
1413633532683 32569 READING 391 0.642315
1413633532841 32569 READING 393 0.485692
1413633533025 32569 READING 399 0.504587
1413633533208 32569 READING 404 0.479215
1413633533446 32569 READING 413 0.461282
1413633533490 32570 READING 352 0.984671
1413633533653 32569 READING 418 0.396909
1413633533746 32570 FUNCTION lru lambda h: 0.731234 * (h ** 0.0496265)
1413633533746 32569 FUNCTION lru lambda h: 1.27366 * (h ** 0.001)
1413633533746 32570 RECOMMEND 2506
1413633533746 32569 RECOMMEND 2506
1413633533837 32569 READING 427 0.459360
1413633534669 32570 READING 355 0.989339
1413633535058 32569 READING 436 0.083983
1413633535237 32569 READING 500 0.467370
1413633535389 32569 READING 491 0.587252
1413633536162 32569 READING 498 0.119191
1413633536238 32570 READING 393 0.986937
1413633536368 32569 READING 552 0.458276
1413633536517 32569 READING 557 0.654368
1413633536682 32569 READING 551 0.664145
1413633536907 32569 READING 555 0.467657
1413633537100 32569 READING 557 0.500604
1413633537320 32569 READING 561 0.546315
1413633537480 32570 READING 395 0.974073
1413633537505 32569 READING 568 0.579424
1413633537709 32569 READING 577 0.486659
1413633537902 32569 READING 584 0.506076
1413633538834 32570 READING 423 0.972010
1413633538976 32569 READING 592 0.097580
1413633539209 32569 READING 660 0.420742
1413633539360 32569 READING 668 0.564279
1413633539985 32569 READING 671 0.785845
1413633540301 32570 READING 425 0.981812
1413633540606 32569 READING 672 0.875913
1413633541216 32569 READING 671 0.785447
1413633541662 32569 READING 683 0.773111
1413633541714 32570 READING 458 0.987577
1413633541845 32569 READING 688 0.435606
1413633541982 32569 READING 704 0.388520
1413633542177 32569 READING 713 0.583193
1413633543425 32570 READING 463 0.973179
1413633543746 32570 FUNCTION lru lambda h: 0.734458 * (h ** 0.0483854)
1413633543746 32569 FUNCTION lru lambda h: 1.14172 * (h ** 0.001)
1413633543746 32570 RECOMMEND 2506
1413633543746 32569 RECOMMEND 2506
1413633544765 32569 READING 716 0.011591
1413633544926 32570 READING 497 0.978170
1413633544934 32569 READING 779 0.212416
1413633545034 32569 READING 681 0.356133
1413633545129 32569 READING 775 0.412197
1413633546059 32569 READING 779 0.039502
1413633546586 32569 READING 861 0.789929
1413633546704 32569 READING 861 0.726593
1413633546823 32570 READING 503 0.978160
1413633546824 32569 READING 865 0.537695
1413633546923 32569 READING 866 0.649013
1413633547034 32569 READING 864 0.658271
1413633548616 32570 READING 544 0.982907
1413633548707 32569 READING 867 0.169176
1413633548912 32569 READING 965 0.459745
1413633549194 32569 READING 967 0.972787
1413633549277 32569 READING 974 0.909454
1413633549576 32569 READING 975 0.974607
1413633549727 32569 READING 967 0.955527
1413633550105 32569 READING 776 0.922476
1413633550326 32569 READING 946 0.813684
1413633550340 32570 READING 548 0.963482
1413633550502 32569 READING 826 0.820883
1413633550683 32569 READING 925 0.806296
1413633550856 32569 READING 829 0.839796
1413633551042 32569 READING 911 0.833363
1413633551232 32569 READING 833 0.802466
1413633551440 32569 READING 901 0.768293
1413633551654 32569 READING 837 0.722228
1413633551896 32569 READING 895 0.817350
1413633552107 32569 READING 901 0.832540
1413633552121 32570 READING 583 0.982189
1413633552317 32569 READING 890 0.856926
1413633552528 32569 READING 896 0.857823
1413633553702 32570 READING 587 0.985336
1413633553746 32570 FUNCTION lru lambda h: 0.741325 * (h ** 0.0458859)
1413633553746 32569 FUNCTION lru lambda h: 0.787768 * (h ** 0.001)
1413633553746 32570 RECOMMEND 2506
1413633553746 32569 RECOMMEND 2506
1413633553874 32569 READING 890 0.981965
1413633554682 32569 READING 894 0.928142
1413633554869 32569 READING 894 0.789120
1413633555077 32569 READING 898 0.696763
1413633555263 32569 READING 904 0.800637
1413633555463 32569 READING 907 0.742726
1413633555476 32570 READING 626 0.979824
1413633555669 32569 READING 914 0.768328
1413633555882 32569 READING 915 0.732098
1413633556108 32569 READING 923 0.743876
1413633556332 32569 READING 923 0.743667
1413633556552 32569 READING 930 0.804283
1413633556873 32569 READING 931 0.871029
1413633557294 32569 READING 934 0.791533
1413633557519 32570 READING 631 0.981648
1413633557598 32569 READING 936 0.863171
1413633557834 32569 READING 940 0.696284
1413633558052 32569 READING 942 0.613547
1413633558233 32569 READING 965 0.722089
1413633558429 32569 READING 966 0.661798
1413633558626 32569 READING 976 0.711728
1413633558822 32569 READING 978 0.711696
1413633559033 32569 READING 990 0.704560
1413633559265 32569 READING 992 0.659061
1413633559501 32569 READING 1005 0.677525
1413633559583 32570 READING 680 0.989043
1413633559733 32569 READING 1008 0.671169
1413633559977 32569 READING 1022 0.673089
1413633560243 32569 READING 1025 0.684817
1413633561808 32570 READING 682 0.982885
1413633562753 32569 READING 1042 0.965023
1413633563746 32570 FUNCTION lru lambda h: 0.745082 * (h ** 0.0446058)
1413633563747 32569 FUNCTION lru lambda h: 0.126015 * (h ** 0.229128)
1413633563747 32570 RECOMMEND 2506
1413633563747 32569 RECOMMEND 2506
1413633564258 32570 READING 726 0.987855
1413633565601 32569 READING 1045 0.973866
1413633566571 32570 READING 726 0.988564
1413633568472 32569 READING 1058 0.970146
1413633569122 32570 READING 760 0.991546
1413633571325 32569 READING 1060 0.969930
1413633571635 32570 READING 763 0.991238
1413633573747 32570 FUNCTION lru lambda h: 0.747097 * (h ** 0.0439496)
1413633573747 32569 FUNCTION lru lambda h: 0.0502194 * (h ** 0.371586)
1413633573747 32570 RECOMMEND 2506
1413633573747 32569 RECOMMEND 2506
1413633574011 32570 READING 793 0.995971
1413633574284 32569 READING 1059 0.969895
1413633576485 32570 READING 797 0.984761
1413633577180 32569 READING 1064 0.967649
1413633579104 32570 READING 830 0.991747
1413633580155 32569 READING 1055 0.971980
1413633581801 32570 READING 829 0.986595
1413633583375 32569 READING 1061 0.973435
1413633583747 32570 FUNCTION lru lambda h: 0.750097 * (h ** 0.0429989)
1413633583747 32569 FUNCTION lru lambda h: 0.0252596 * (h ** 0.477839)
1413633583747 32570 RECOMMEND 2506
1413633583747 32569 RECOMMEND 2506
1413633584427 32570 READING 864 0.991162
1413633586454 32569 READING 1051 0.972597
1413633587198 32570 READING 863 0.991489
1413633589572 32569 READING 1056 0.970134
1413633589916 32570 READING 892 0.995862
1413633592819 32570 READING 895 0.991455
1413633593747 32570 FUNCTION lru lambda h: 0.752498 * (h ** 0.0422573)
1413633593747 32569 FUNCTION lru lambda h: 0.0115439 * (h ** 0.596625)
1413633593747 32570 RECOMMEND 2506
1413633593747 32569 RECOMMEND 2506
1413633594906 32569 READING 1055 0.618629
1413633596186 32570 READING 924 0.993517
1413633598178 32569 READING 1144 0.946880
1413633599211 32570 READING 925 0.991653
1413633601427 32569 READING 1147 0.986636
1413633602358 32570 READING 954 0.992722
1413633603747 32570 FUNCTION lru lambda h: 0.754327 * (h ** 0.0417044)
1413633603747 32569 FUNCTION lru lambda h: 0.012247 * (h ** 0.588163)
1413633603747 32570 RECOMMEND 2506
1413633603747 32569 RECOMMEND 2506
1413633604564 32569 READING 1148 0.980552
1413633605481 32570 READING 955 0.992657
1413633608008 32569 READING 1147 0.983479
1413633608625 32570 READING 984 0.990225
1413633611221 32569 READING 1150 0.973594
1413633611738 32570 READING 985 0.994224
1413633613748 32570 FUNCTION lru lambda h: 0.756157 * (h ** 0.0411597)
1413633613748 32569 FUNCTION lru lambda h: 0.00589453 * (h ** 0.697892)
1413633613748 32570 RECOMMEND 2506
1413633613748 32569 RECOMMEND 2506
1413633614761 32569 READING 1141 0.981134
1413633615135 32570 READING 1013 0.992473
1413633618136 32569 READING 1145 0.978523
1413633618335 32570 READING 1015 0.994992
1413633621598 32569 READING 1144 0.974738
1413633622060 32570 READING 1041 0.990635
1413633623748 32570 FUNCTION lru lambda h: 0.757966 * (h ** 0.0406304)
1413633623748 32569 FUNCTION lru lambda h: 0.00274318 * (h ** 0.812239)
1413633623748 32570 RECOMMEND 2506
1413633623748 32569 RECOMMEND 2506
1413633624921 32569 READING 1145 0.975728
1413633625373 32570 READING 1044 0.990970
1413633628443 32569 READING 1147 0.975025
1413633628968 32570 READING 1074 0.992825
1413633632058 32569 READING 1149 0.979027
1413633632562 32570 READING 1075 0.993354
1413633633748 32570 FUNCTION lru lambda h: 0.759781 * (h ** 0.0401069)
1413633633748 32569 FUNCTION lru lambda h: 0.0022924 * (h ** 0.839144)
1413633633748 32570 RECOMMEND 2506
1413633633748 32569 RECOMMEND 2506
1413633635489 32569 READING 1152 0.975987
1413633636554 32570 READING 1106 0.990533
1413633639092 32569 READING 1155 0.974262
1413633640074 32570 READING 1108 0.991541
1413633642429 32569 READING 1159 0.971059
1413633643748 32570 FUNCTION lru lambda h: 0.761129 * (h ** 0.0397234)
1413633643748 32569 FUNCTION lru lambda h: 0.00134299 * (h ** 0.918762)
1413633643748 32570 RECOMMEND 2506
1413633643748 32569 RECOMMEND 2506
1413633643931 32570 READING 1143 0.993884
1413633646047 32569 READING 1164 0.970801
1413633647934 32570 READING 1144 0.990226
1413633649405 32569 READING 1167 0.967458
1413633651745 32570 READING 1177 0.992562
1413633653143 32569 READING 1173 0.968748
1413633653748 32570 FUNCTION lru lambda h: 0.763034 * (h ** 0.0391895)
1413633653748 32569 FUNCTION lru lambda h: 0.00140217 * (h ** 0.91275)
1413633653748 32570 RECOMMEND 2506
1413633653748 32569 RECOMMEND 2506
1413633655651 32570 READING 1178 0.992043
1413633656616 32569 READING 1178 0.967153
1413633659708 32570 READING 1213 0.989445
1413633660060 32569 READING 1182 0.969987
1413633663749 32570 FUNCTION lru lambda h: 0.764429 * (h ** 0.0388035)
1413633663749 32569 FUNCTION lru lambda h: 0.001 * (h ** 0.999)
1413633663749 32570 RECOMMEND 2506
1413633663749 32569 RECOMMEND 2506
1413633663801 32569 READING 1186 0.968342
1413633663931 32570 READING 1214 0.992583
1413633667287 32569 READING 1188 0.972929
1413633668234 32570 READING 1259 0.991046
1413633670767 32569 READING 1193 0.968138
1413633672295 32570 READING 1260 0.992257
1413633673749 32570 FUNCTION lru lambda h: 0.766391 * (h ** 0.0382679)
1413633673749 32569 FUNCTION lru lambda h: 0.001 * (h ** 0.999)
1413633673749 32570 RECOMMEND 2506
1413633673749 32569 RECOMMEND 2506
1413633676438 32569 READING 1194 0.615748
1413633676973 32570 READING 1302 0.991590
1413633680150 32569 READING 1300 0.955034
1413633681207 32570 READING 1303 0.991521
1413633683749 32570 FUNCTION lru lambda h: 0.767784 * (h ** 0.0378934)
1413633683749 32569 FUNCTION lru lambda h: 0.001 * (h ** 0.999)
1413633683749 32570 RECOMMEND 2506
1413633683749 32569 RECOMMEND 2506
1413633683854 32569 READING 1300 0.981907
1413633685617 32570 READING 1348 0.992702
1413633687627 32569 READING 1308 0.981360
1413633690125 32570 READING 1348 0.992328
1413633691278 32569 READING 1309 0.982542
1413633693749 32570 FUNCTION lru lambda h: 0.768471 * (h ** 0.0377106)
1413633693749 32569 FUNCTION lru lambda h: 0.001 * (h ** 0.999)
1413633693749 32570 RECOMMEND 2506
1413633693749 32569 RECOMMEND 2506
1413633694826 32570 READING 1391 0.990584
1413633694979 32569 READING 1308 0.980172
1413633698775 32569 READING 1310 0.977758
1413633699607 32570 READING 1392 0.990365
1413633702600 32569 READING 1302 0.977890
1413633703750 32570 FUNCTION lru lambda h: 0.770066 * (h ** 0.0372904)
1413633703750 32569 FUNCTION lru lambda h: 0.001 * (h ** 0.999)
1413633703750 32570 RECOMMEND 2506
1413633703750 32569 RECOMMEND 2506
1413633704347 32570 READING 1439 0.992940
1413633706762 32569 READING 1240 0.974940
1413633709065 32570 READING 1442 0.990030
1413633710686 32569 READING 1296 0.973821
1413633713750 32570 FUNCTION lru lambda h: 0.771594 * (h ** 0.0368921)
1413633713750 32569 FUNCTION lru lambda h: 0.001 * (h ** 0.999)
1413633713750 32570 RECOMMEND 2506
1413633713750 32569 RECOMMEND 2506
1413633713969 32570 READING 1488 0.992386
1413633714789 32569 READING 1301 0.974095
1413633718960 32569 READING 1302 0.976501
1413633718968 32570 READING 1491 0.988829
1413633722685 32569 READING 1302 0.969359
1413633723516 32570 READING 1543 0.992551
1413633723750 32570 FUNCTION lru lambda h: 0.773967 * (h ** 0.0362819)
1413633723750 32569 FUNCTION lru lambda h: 0.001 * (h ** 0.999)
1413633723750 32570 RECOMMEND 2506
1413633723750 32569 RECOMMEND 2506
1413633728134 32570 READING 1542 0.960671
1413633732891 32570 READING 1613 0.992247
1413633733750 32570 FUNCTION lru lambda h: 0.776796 * (h ** 0.0355629)
1413633733750 32569 FUNCTION lru lambda h: 0.001 * (h ** 0.999)
1413633733750 32570 RECOMMEND 2506
1413633733750 32569 RECOMMEND 2506
1413633737649 32570 READING 1615 0.989245
1413633742336 32570 READING 1663 0.992068
1413633742511 32569 READING 1306 0.993295
1413633743750 32570 FUNCTION lru lambda h: 0.77844 * (h ** 0.0351508)
1413633743750 32569 FUNCTION lru lambda h: 0.001 * (h ** 0.999)
1413633743750 32570 RECOMMEND 2506
1413633743751 32569 RECOMMEND 2506
1413633747233 32570 READING 1666 0.990182
1413633752140 32570 READING 1659 0.990705
1413633753751 32570 FUNCTION lru lambda h: 0.780024 * (h ** 0.0347559)
1413633753751 32569 FUNCTION lru lambda h: 0.001 * (h ** 0.999)
1413633753751 32570 RECOMMEND 2506
1413633753751 32569 RECOMMEND 2506
1413633757294 32570 READING 1652 0.980547
1413633757583 32569 READING 1308 0.906760
1413633761105 32569 READING 1411 0.992917
1413633761521 32569 READING 1459 0.968046
1413633761834 32569 READING 1466 0.890652
1413633762089 32569 READING 1348 0.845433
1413633762265 32570 READING 1657 0.991695
1413633762377 32569 READING 1452 0.799771
1413633762644 32569 READING 1458 0.887012
1413633762931 32569 READING 1451 0.870763
1413633763221 32569 READING 1459 0.882869
1413633763523 32569 READING 1457 0.957363
1413633763751 32570 FUNCTION lru lambda h: 0.781787 * (h ** 0.0343169)
1413633763751 32569 FUNCTION lru lambda h: 0.001 * (h ** 0.999)
1413633763751 32570 RECOMMEND 2506
1413633763751 32569 RECOMMEND 2506
1413633767563 32569 READING 1464 0.995018
1413633767621 32570 READING 1637 0.991591
1413633772072 32569 READING 1487 0.991830
1413633773253 32570 READING 1660 0.991900
1413633773751 32570 FUNCTION lru lambda h: 0.782977 * (h ** 0.034021)
1413633773751 32569 FUNCTION lru lambda h: 0.001 * (h ** 0.999)
1413633773751 32570 RECOMMEND 2506
1413633773751 32569 RECOMMEND 2506
1413633776484 32569 READING 1491 0.989911
1413633778619 32570 READING 1658 0.993817
1413633778948 32570 DEATH 96
1413633781031 32569 READING 1496 0.992372
1413633783751 32569 FUNCTION lru lambda h: 0.001 * (h ** 0.999)
1413633783751 32569 RECOMMEND 5012
1413633785688 32569 READING 1500 0.991286
1413633790663 32569 READING 1488 0.991007
1413633793752 32569 FUNCTION lru lambda h: 0.001 * (h ** 0.999)
1413633793752 32569 RECOMMEND 5012
1413633795333 32569 READING 1401 0.988846
1413633800141 32569 READING 1478 0.988897
1413633803752 32569 FUNCTION lru lambda h: 0.00180892 * (h ** 0.875942)
1413633803752 32569 RECOMMEND 5012
1413633805257 32569 READING 1486 0.988763
1413633809968 32569 READING 1486 0.986725
1413633813752 32569 FUNCTION lru lambda h: 0.00288949 * (h ** 0.809403)
1413633813752 32569 RECOMMEND 5012
1413633814957 32569 READING 1487 0.985888
1413633820235 32569 READING 1490 0.985990
1413633823752 32569 FUNCTION lru lambda h: 0.00410395 * (h ** 0.759726)
1413633823752 32569 RECOMMEND 5012
1413633825070 32569 READING 1495 0.983634
1413633829980 32569 READING 1499 0.983194
1413633833752 32569 FUNCTION lru lambda h: 0.013848 * (h ** 0.588147)
1413633833752 32569 RECOMMEND 5012
1413633834971 32569 READING 1508 0.981295
1413633839921 32569 READING 1512 0.981252
1413633843753 32569 FUNCTION lru lambda h: 0.0184029 * (h ** 0.548139)
1413633843753 32569 RECOMMEND 5012
1413633844755 32569 READING 1523 0.980189
1413633849454 32569 READING 1531 0.979975
1413633853753 32569 FUNCTION lru lambda h: 0.0455328 * (h ** 0.421439)
1413633853753 32569 RECOMMEND 5012
1413633854183 32569 READING 1538 0.979178
1413633859047 32569 READING 1545 0.980220
1413633863753 32569 FUNCTION lru lambda h: 0.0432787 * (h ** 0.428217)
1413633863753 32569 RECOMMEND 5012
1413633863985 32569 READING 1549 0.980197
1413633868953 32569 READING 1557 0.980063
1413633873748 32569 READING 1558 0.979269
1413633873753 32569 FUNCTION lru lambda h: 0.03649 * (h ** 0.451762)
1413633873753 32569 RECOMMEND 5012
1413633878688 32569 READING 1565 0.979478
1413633883613 32569 READING 1565 0.979630
1413633883753 32569 FUNCTION lru lambda h: 0.0352638 * (h ** 0.456444)
1413633883753 32569 RECOMMEND 5012
1413633888722 32569 READING 1569 0.980290
1413633893754 32569 FUNCTION lru lambda h: 0.0357056 * (h ** 0.454617)
1413633893754 32569 RECOMMEND 5012
1413633893945 32569 READING 1570 0.980027
1413633899033 32569 READING 1571 0.979863
1413633903754 32569 FUNCTION lru lambda h: 0.0335527 * (h ** 0.46309)
1413633903754 32569 RECOMMEND 5012
1413633904166 32569 READING 1573 0.979402
1413633909445 32569 READING 1574 0.980190
1413633913754 32569 FUNCTION lru lambda h: 0.0344278 * (h ** 0.459343)
1413633913754 32569 RECOMMEND 5012
1413633915601 32569 READING 1576 0.814180
1413633920954 32569 READING 1612 0.996171
1413633923754 32569 FUNCTION lru lambda h: 0.0374367 * (h ** 0.447107)
1413633923754 32569 RECOMMEND 5012
1413633926584 32569 READING 1614 0.994895
1413633931701 32569 READING 1628 0.993150
1413633933754 32569 FUNCTION lru lambda h: 0.0325894 * (h ** 0.466164)
1413633933754 32569 RECOMMEND 5012
1413633943755 32569 FUNCTION lru lambda h: 0.0325894 * (h ** 0.466164)
1413633943755 32569 RECOMMEND 5012
1413633953755 32569 FUNCTION lru lambda h: 0.0325894 * (h ** 0.466164)
1413633953755 32569 RECOMMEND 5012
1413633959722 32569 READING 1635 0.997180
1413633963755 32569 FUNCTION lru lambda h: 0.0309198 * (h ** 0.473364)
1413633963755 32569 RECOMMEND 5012
1413633966470 32569 READING 1619 0.989247
1413633967187 32569 READING 1631 0.869428
1413633967552 32569 READING 1605 0.793976
1413633967923 32569 READING 1636 0.774015
1413633968292 32569 READING 1665 0.798684
1413633968677 32569 READING 1683 0.781485
1413633969078 32569 READING 1720 0.835696
1413633969117 32569 DEATH 227
