1413726569900 0 TOTAL_MEM 6175
1413726589919 7095 CREATION
1413726589919 7095 READING 9 0.989624
1413726589919 7095 MINHEAP 2
1413726589919 7095 MINHEAP 12
1413726589951 7093 CREATION
1413726589951 7093 READING 9 0.991084
1413726589951 7093 MINHEAP 2
1413726589951 7093 MINHEAP 1223
1413726589997 7093 READING 9 0.982719
1413726590026 7095 READING 9 0.990209
1413726590029 7093 READING 9 0.951606
1413726590048 7095 READING 9 0.984072
1413726590056 7093 READING 9 0.945182
1413726590096 7095 READING 9 0.979215
1413726590148 7093 READING 11 0.959924
1413726590179 7095 READING 11 0.976464
1413726590252 7095 READING 11 0.975644
1413726590304 7093 READING 11 0.952241
1413726590396 7095 READING 16 0.976076
1413726590409 7093 READING 17 0.952889
1413726590577 7093 READING 17 0.880890
1413726590605 7095 READING 16 0.959319
1413726590752 7093 READING 30 0.765138
1413726590897 7093 READING 31 0.416468
1413726591137 7095 READING 24 0.980342
1413726591163 7093 READING 34 0.716669
1413726591221 7093 READING 47 0.491293
1413726591321 7093 READING 49 0.430964
1413726591469 7095 READING 25 0.960467
1413726591627 7093 READING 51 0.398373
1413726591701 7093 READING 75 0.320954
1413726591779 7093 READING 75 0.259680
1413726591800 7095 READING 39 0.871260
1413726592048 7095 READING 40 0.987184
1413726592226 7093 READING 78 0.378142
1413726592280 7095 READING 47 0.884467
1413726592340 7093 READING 104 0.450150
1413726592457 7093 READING 108 0.304071
1413726592491 7095 READING 48 0.926811
1413726592701 7095 READING 56 0.952205
1413726592809 7093 READING 109 0.391829
1413726592925 7093 READING 143 0.468408
1413726592976 7095 READING 56 0.969352
1413726593025 7093 READING 144 0.518223
1413726593151 7093 READING 147 0.250712
1413726593253 7095 READING 66 0.970276
1413726593485 7095 READING 67 0.956928
1413726593796 7095 READING 78 0.960902
1413726593944 7093 READING 150 0.298131
1413726594188 7093 READING 196 0.408476
1413726594333 7093 READING 196 0.356893
1413726594371 7095 READING 78 0.972737
1413726594474 7093 READING 197 0.010633
1413726594609 7093 READING 202 0.735761
1413726595113 7093 READING 204 0.500977
1413726595155 7095 READING 88 0.987750
1413726595247 7093 READING 254 0.684847
1413726595382 7093 READING 257 0.681750
1413726595529 7093 READING 260 0.659657
1413726595661 7093 READING 262 0.673823
1413726595792 7093 READING 270 0.665869
1413726595919 7093 READING 274 0.637687
1413726596042 7093 READING 285 0.601781
1413726596046 7095 READING 89 0.991810
1413726596154 7093 READING 289 0.579639
1413726596272 7093 READING 301 0.552145
1413726596382 7093 READING 307 0.481959
1413726596895 7095 READING 98 0.994367
1413726597132 7093 READING 317 0.401647
1413726597246 7093 READING 374 0.495139
1413726597671 7095 READING 100 0.992034
1413726597821 7093 READING 293 0.158946
1413726597933 7093 READING 416 0.519373
1413726598018 7093 READING 422 0.591284
1413726598109 7093 READING 417 0.634480
1413726598225 7093 READING 342 0.627072
1413726598324 7093 READING 408 0.632945
1413726598437 7093 READING 361 0.632955
1413726598526 7095 READING 110 0.993431
1413726598560 7093 READING 411 0.628176
1413726598705 7093 READING 412 0.594543
1413726598838 7093 READING 416 0.593039
1413726598991 7093 READING 418 0.572996
1413726599118 7093 READING 420 0.578242
1413726599277 7093 READING 425 0.553563
1413726599417 7095 READING 110 0.990852
1413726599438 7093 READING 428 0.514976
1413726599610 7093 READING 435 0.553824
1413726599756 7093 READING 438 0.501279
1413726599900 7095 FUNCTION lru lambda h: 0.944177 * (h ** 0.00525945)
1413726599900 7093 FUNCTION lru lambda h: 0.647486 * (h ** 0.001)
1413726599901 7095 RECOMMEND 4952
1413726599901 7093 RECOMMEND 1223
1413726599905 7093 READING 447 0.489594
1413726600026 7093 READING 452 0.484819
1413726600328 7095 READING 118 0.992710
1413726601000 7093 READING 459 0.410846
1413726601107 7095 READING 118 0.992508
1413726601157 7093 READING 513 0.430131
1413726601286 7093 READING 518 0.449884
1413726601431 7093 READING 518 0.434509
1413726602004 7095 READING 128 0.994120
1413726602380 7093 READING 519 0.176832
1413726602550 7093 READING 568 0.441566
1413726602693 7093 READING 573 0.457759
1413726602836 7093 READING 566 0.468889
1413726602958 7095 READING 128 0.994133
1413726602967 7093 READING 514 0.535115
1413726603109 7093 READING 559 0.582421
1413726603902 7095 READING 137 0.990713
1413726604181 7093 READING 564 0.267115
1413726604373 7093 READING 623 0.548733
1413726604528 7093 READING 626 0.592383
1413726604699 7093 READING 622 0.611220
1413726604850 7095 READING 137 0.989231
1413726604859 7093 READING 625 0.610025
1413726605039 7093 READING 628 0.620991
1413726605651 7093 READING 629 0.812378
1413726605904 7095 READING 145 0.990888
1413726606223 7093 READING 630 0.845731
1413726606842 7093 READING 639 0.844807
1413726606863 7095 READING 146 0.990558
1413726607208 7093 READING 645 0.829497
1413726607878 7095 READING 152 0.992697
1413726608788 7095 READING 152 0.994736
1413726608897 7093 READING 658 0.521092
1413726609227 7093 READING 733 0.709404
1413726609356 7093 READING 741 0.651377
1413726609456 7093 READING 747 0.561526
1413726609555 7093 READING 748 0.487353
1413726609649 7093 READING 739 0.461400
1413726609761 7093 READING 745 0.408245
1413726609902 7095 FUNCTION lru lambda h: 0.921104 * (h ** 0.0127575)
1413726609902 7093 FUNCTION lru lambda h: 0.521463 * (h ** 0.001)
1413726609903 7095 RECOMMEND 4952
1413726609903 7093 RECOMMEND 1223
1413726609905 7095 READING 157 0.996423
1413726610908 7095 READING 158 0.997142
1413726611726 7093 READING 741 0.240612
1413726611901 7095 READING 162 0.997647
1413726612078 7093 READING 826 0.728199
1413726612185 7093 READING 832 0.701559
1413726612286 7093 READING 833 0.688433
1413726612396 7093 READING 835 0.688689
1413726612622 7093 READING 837 0.797863
1413726612984 7095 READING 162 0.997879
1413726613604 7093 READING 839 0.405986
1413726613877 7093 READING 936 0.744757
1413726613952 7093 READING 942 0.777277
1413726614035 7095 READING 166 0.998184
1413726614192 7093 READING 945 0.868882
1413726614309 7093 READING 946 0.879997
1413726614591 7093 READING 948 0.914806
1413726614842 7093 READING 932 0.901381
1413726614975 7093 READING 825 0.859244
1413726615112 7093 READING 912 0.832603
1413726615136 7095 READING 166 0.998225
1413726615256 7093 READING 829 0.814951
1413726615402 7093 READING 902 0.811781
1413726615546 7093 READING 827 0.814218
1413726615695 7093 READING 895 0.820052
1413726615845 7093 READING 902 0.817308
1413726616002 7093 READING 891 0.825093
1413726616157 7093 READING 896 0.830825
1413726616256 7095 READING 169 0.998362
1413726616320 7093 READING 888 0.835936
1413726616481 7093 READING 893 0.842234
1413726617328 7095 READING 169 0.998120
1413726617620 7093 READING 888 0.965026
1413726618419 7095 READING 170 0.998118
1413726618444 7093 READING 892 0.958606
1413726618616 7093 READING 893 0.928243
1413726618787 7093 READING 897 0.892728
1413726618964 7093 READING 902 0.858979
1413726619141 7093 READING 904 0.835732
1413726619323 7093 READING 910 0.822617
1413726619509 7093 READING 911 0.808226
1413726619568 7095 READING 171 0.998321
1413726619703 7093 READING 918 0.808142
1413726619898 7093 READING 918 0.805450
1413726619903 7095 FUNCTION lru lambda h: 0.909011 * (h ** 0.0165967)
1413726619903 7093 FUNCTION lru lambda h: 0.105515 * (h ** 0.273465)
1413726619904 7095 RECOMMEND 353
1413726619904 7093 RECOMMEND 5822
1413726620107 7093 READING 923 0.800250
1413726620424 7093 READING 924 0.856310
1413726620777 7093 READING 927 0.878722
1413726620783 7095 READING 174 0.998570
1413726621048 7093 READING 929 0.876753
1413726621283 7093 READING 933 0.815663
1413726621963 7095 READING 174 0.998539
1413726623044 7095 READING 177 0.998286
1413726623091 7093 READING 934 0.715593
1413726623320 7093 READING 1060 0.673826
1413726623479 7093 READING 1062 0.729897
1413726623655 7093 READING 1063 0.764827
1413726623830 7093 READING 1067 0.776367
1413726624018 7093 READING 1068 0.783618
1413726624210 7093 READING 1071 0.453946
1413726624242 7095 READING 177 0.998517
1413726624416 7093 READING 1077 0.640338
1413726624625 7093 READING 1078 0.703942
1413726624843 7093 READING 1091 0.758123
1413726625494 7095 READING 178 0.998605
1413726626324 7093 READING 1091 0.931645
1413726626745 7095 READING 179 0.998445
1413726627935 7095 READING 169 0.998584
1413726628992 7095 READING 163 0.998543
1413726629475 7093 READING 1106 0.972342
1413726629904 7095 FUNCTION lru lambda h: 0.905097 * (h ** 0.0178308)
1413726629904 7093 FUNCTION lru lambda h: 0.0719391 * (h ** 0.337973)
1413726629906 7095 RECOMMEND 309
1413726629906 7093 RECOMMEND 5866
1413726630047 7095 READING 155 0.998436
1413726631013 7095 READING 149 0.998400
1413726631955 7095 READING 142 0.997941
1413726632481 7093 READING 1109 0.976921
1413726632851 7095 READING 137 0.998087
1413726633700 7095 READING 130 0.998024
1413726634488 7095 READING 125 0.998156
1413726635236 7095 READING 119 0.998096
1413726635623 7093 READING 1115 0.979750
1413726635992 7095 READING 115 0.997600
1413726636686 7095 READING 110 0.997709
1413726637338 7095 READING 106 0.997809
1413726637976 7095 READING 101 0.997624
1413726638580 7095 READING 97 0.997559
1413726638696 7093 READING 1118 0.934908
1413726639177 7095 READING 93 0.997592
1413726639724 7095 READING 90 0.996907
1413726639906 7095 FUNCTION lru lambda h: 0.90277 * (h ** 0.0191365)
1413726639906 7093 FUNCTION lru lambda h: 0.0459361 * (h ** 0.406874)
1413726639908 7095 RECOMMEND 277
1413726639908 7093 RECOMMEND 5898
1413726640262 7095 READING 86 0.997273
1413726640764 7095 READING 83 0.997471
1413726641251 7095 READING 79 0.997646
1413726641693 7095 READING 77 0.997259
1413726641979 7093 READING 1113 0.964955
1413726642160 7095 READING 73 0.997048
1413726642584 7095 READING 71 0.996886
1413726642977 7095 READING 68 0.996513
1413726643360 7095 READING 66 0.996230
1413726643728 7095 READING 63 0.996048
1413726644079 7095 READING 62 0.995973
1413726644413 7095 READING 59 0.995158
1413726644726 7095 READING 57 0.995628
1413726645029 7095 READING 55 0.995526
1413726645269 7093 READING 1118 0.910990
1413726645343 7095 READING 53 0.995858
1413726645614 7095 READING 52 0.995886
1413726645870 7095 READING 50 0.995541
1413726646124 7095 READING 49 0.995319
1413726646380 7095 READING 47 0.995080
1413726646614 7095 READING 46 0.994802
1413726646847 7095 READING 44 0.994012
1413726647084 7095 READING 46 0.994035
1413726647341 7095 READING 47 0.993117
1413726647599 7095 READING 49 0.993920
1413726647871 7095 READING 51 0.994402
1413726648156 7095 READING 53 0.994925
1413726648403 7093 READING 1117 0.894123
1413726648473 7095 READING 55 0.996051
1413726648757 7095 READING 53 0.995067
1413726649032 7095 READING 52 0.995259
1413726649311 7095 READING 50 0.995121
1413726649574 7095 READING 49 0.994779
1413726649823 7095 READING 47 0.994567
1413726649908 7095 FUNCTION lru lambda h: 0.93449 * (h ** 0.0129434)
1413726649908 7093 FUNCTION lru lambda h: 0.031917 * (h ** 0.46202)
1413726649909 7095 RECOMMEND 168
1413726649909 7093 RECOMMEND 6007
1413726650068 7095 READING 46 0.994593
1413726650298 7095 READING 44 0.994890
1413726650513 7095 READING 43 0.995014
1413726650724 7095 READING 42 0.994499
1413726650922 7095 READING 41 0.994295
1413726651140 7095 READING 43 0.994562
1413726651363 7095 READING 44 0.994021
1413726651599 7095 READING 46 0.994193
1413726651802 7093 READING 1119 0.882205
1413726651872 7095 READING 48 0.994737
1413726652133 7095 READING 50 0.994581
1413726652413 7095 READING 52 0.995028
1413726652671 7095 READING 50 0.995376
1413726652928 7095 READING 49 0.994397
1413726653182 7095 READING 47 0.994917
1413726653419 7095 READING 46 0.995234
1413726653642 7095 READING 44 0.987915
1413726653888 7095 READING 47 0.990856
1413726654145 7095 READING 49 0.992925
1413726654421 7095 READING 52 0.994120
1413726654720 7095 READING 54 0.994554
1413726655040 7095 READING 57 0.995088
1413726655068 7093 READING 1123 0.865815
1413726655370 7095 READING 59 0.995240
1413726655696 7095 READING 57 0.995484
1413726655997 7095 READING 55 0.995700
1413726656292 7095 READING 53 0.995988
1413726656578 7095 READING 52 0.995862
1413726656857 7095 READING 50 0.995675
1413726657118 7095 READING 49 0.995205
1413726657370 7095 READING 47 0.994986
1413726657614 7095 READING 46 0.995084
1413726657848 7095 READING 44 0.994310
1413726658070 7095 READING 43 0.993377
1413726658281 7095 READING 42 0.993813
1413726658442 7093 READING 1124 0.820080
1413726658511 7095 READING 41 0.993747
1413726658709 7095 READING 40 0.993949
1413726658898 7095 READING 39 0.992901
1413726659101 7095 READING 41 0.993521
1413726659310 7095 READING 42 0.993793
1413726659526 7095 READING 44 0.993922
1413726659769 7095 READING 46 0.994040
1413726659909 7095 FUNCTION lru lambda h: 0.950609 * (h ** 0.00956786)
1413726659909 7093 FUNCTION lru lambda h: 0.0190508 * (h ** 0.539225)
1413726659910 7095 RECOMMEND 108
1413726659910 7093 RECOMMEND 6067
1413726660029 7095 READING 48 0.993892
1413726660285 7095 READING 50 0.992592
1413726660563 7095 READING 52 0.994218
1413726660863 7095 READING 54 0.995077
1413726661137 7095 READING 52 0.994880
1413726661412 7095 READING 51 0.995449
1413726661671 7095 READING 49 0.995204
1413726661747 7093 READING 1128 0.748537
1413726661932 7095 READING 48 0.995404
1413726662171 7095 READING 46 0.995154
1413726662400 7095 READING 45 0.994497
1413726662637 7095 READING 44 0.994750
1413726662847 7095 READING 43 0.994328
1413726663058 7095 READING 42 0.992856
1413726663255 7095 READING 41 0.993318
1413726663454 7095 READING 40 0.993378
1413726663640 7095 READING 39 0.993593
1413726663825 7095 READING 38 0.992622
1413726664020 7095 READING 39 0.993436
1413726664220 7095 READING 41 0.993666
1413726664425 7095 READING 42 0.993751
1413726664628 7095 READING 41 0.993965
1413726664823 7095 READING 40 0.993093
1413726665041 7095 READING 42 0.994275
1413726665233 7093 READING 1131 0.405215
1413726665261 7095 READING 41 0.994522
1413726665452 7095 READING 40 0.994052
1413726665645 7095 READING 39 0.993921
1413726665828 7095 READING 38 0.993844
1413726666002 7095 READING 37 0.992939
1413726666193 7095 READING 39 0.992931
1413726666400 7095 READING 40 0.992353
1413726666609 7095 READING 42 0.992605
1413726666836 7095 READING 44 0.993255
1413726667086 7095 READING 46 0.993874
1413726667338 7095 READING 48 0.993928
1413726667590 7095 READING 47 0.994230
1413726667821 7095 READING 45 0.994224
1413726668040 7095 READING 44 0.994229
1413726668259 7095 READING 43 0.993131
1413726668480 7095 READING 42 0.992516
1413726668518 7093 READING 1134 0.976871
1413726668704 7095 READING 44 0.993786
1413726668922 7095 READING 43 0.994097
1413726669130 7095 READING 42 0.993321
1413726669338 7095 READING 41 0.993687
1413726669531 7095 READING 40 0.992662
1413726669721 7095 READING 39 0.992793
1413726669901 7095 READING 38 0.992648
1413726669910 7095 FUNCTION lru lambda h: 0.961872 * (h ** 0.00722558)
1413726669910 7093 FUNCTION lru lambda h: 0.0154345 * (h ** 0.568899)
1413726669911 7095 RECOMMEND 77
1413726669911 7093 RECOMMEND 6098
1413726670091 7095 READING 39 0.992857
1413726670290 7095 READING 41 0.992787
1413726670506 7095 READING 43 0.993710
1413726670715 7095 READING 42 0.993967
1413726670919 7095 READING 41 0.994204
1413726671110 7095 READING 40 0.993595
1413726671291 7095 READING 39 0.993076
1413726671474 7095 READING 38 0.982451
1413726671667 7095 READING 40 0.988011
1413726671758 7093 READING 1138 0.977246
1413726671893 7095 READING 43 0.991178
1413726672125 7095 READING 45 0.993178
1413726672368 7095 READING 48 0.994211
1413726672645 7095 READING 50 0.995079
1413726672909 7095 READING 49 0.994688
1413726673155 7095 READING 47 0.994724
1413726673390 7095 READING 46 0.994759
1413726673616 7095 READING 44 0.994207
1413726673825 7095 READING 43 0.994270
1413726674042 7095 READING 42 0.993996
1413726674245 7095 READING 41 0.994318
1413726674445 7095 READING 40 0.993852
1413726674639 7095 READING 39 0.993224
1413726674827 7095 READING 38 0.993728
1413726674997 7095 READING 37 0.992775
1413726675173 7095 READING 36 0.992128
1413726675287 7093 READING 1141 0.977074
1413726675376 7095 READING 38 0.992845
1413726675563 7095 READING 39 0.993048
1413726675764 7095 READING 41 0.985860
1413726675981 7095 READING 43 0.990110
1413726676215 7095 READING 46 0.992720
1413726676467 7095 READING 48 0.993927
1413726676744 7095 READING 51 0.994673
1413726677011 7095 READING 49 0.994536
1413726677266 7095 READING 48 0.994671
1413726677502 7095 READING 46 0.994505
1413726677732 7095 READING 45 0.994812
1413726677948 7095 READING 44 0.994803
1413726678166 7095 READING 43 0.994854
1413726678375 7095 READING 42 0.994653
1413726678578 7093 READING 1145 0.976888
1413726678589 7095 READING 41 0.994549
1413726678783 7095 READING 40 0.994288
1413726678971 7095 READING 39 0.993990
1413726679151 7095 READING 38 0.993262
1413726679322 7095 READING 37 0.993453
1413726679489 7095 READING 36 0.992847
1413726679645 7095 READING 35 0.992988
1413726679806 7095 READING 34 0.992174
1413726679911 7095 FUNCTION lru lambda h: 0.964169 * (h ** 0.00674293)
1413726679911 7093 FUNCTION lru lambda h: 0.0220685 * (h ** 0.516821)
1413726679913 7095 RECOMMEND 80
1413726679913 7093 RECOMMEND 6095
1413726679961 7095 READING 34 0.992125
1413726680108 7095 READING 33 0.990051
1413726680271 7095 READING 35 0.991162
1413726680433 7095 READING 36 0.990114
1413726680613 7095 READING 38 0.991399
1413726680815 7095 READING 40 0.992822
1413726681027 7095 READING 42 0.993816
1413726681237 7095 READING 41 0.993443
1413726681438 7095 READING 40 0.993822
1413726681631 7095 READING 39 0.993909
1413726681815 7095 READING 38 0.992996
1413726681932 7093 READING 1149 0.977009
1413726682008 7095 READING 37 0.993445
1413726682181 7095 READING 36 0.993651
1413726682341 7095 READING 35 0.993024
1413726682502 7095 READING 34 0.992425
1413726682656 7095 READING 34 0.990844
1413726682814 7095 READING 35 0.991526
1413726682990 7095 READING 37 0.991771
1413726683178 7095 READING 38 0.992950
1413726683376 7095 READING 40 0.991751
1413726683593 7095 READING 42 0.993152
1413726683821 7095 READING 44 0.994079
1413726684036 7095 READING 43 0.993060
1413726684248 7095 READING 42 0.993949
1413726684468 7095 READING 41 0.992907
1413726684678 7095 READING 40 0.993723
1413726684881 7095 READING 39 0.994135
1413726685062 7095 READING 38 0.993810
1413726685244 7095 READING 37 0.993767
1413726685417 7095 READING 36 0.993105
1413726685541 7093 READING 1153 0.977257
1413726685599 7095 READING 35 0.993715
1413726685753 7095 READING 34 0.992546
1413726685901 7095 READING 34 0.992401
1413726686047 7095 READING 33 0.992516
1413726686188 7095 READING 33 0.991658
1413726686342 7095 READING 34 0.992311
1413726686506 7095 READING 36 0.992761
1413726686682 7095 READING 37 0.992634
1413726686867 7095 READING 39 0.993386
1413726687061 7095 READING 38 0.994325
1413726687229 7095 READING 37 0.993333
1413726687390 7095 READING 36 0.992544
1413726687546 7095 READING 35 0.992237
1413726687699 7095 READING 34 0.992539
1413726687854 7095 READING 34 0.990847
1413726688018 7095 READING 35 0.991252
1413726688188 7095 READING 37 0.992150
1413726688372 7095 READING 38 0.991266
1413726688573 7095 READING 40 0.992865
1413726688807 7095 READING 42 0.993646
1413726688829 7093 READING 1157 0.975668
1413726689009 7095 READING 41 0.993604
1413726689216 7095 READING 40 0.992885
1413726689410 7095 READING 39 0.993054
1413726689595 7095 READING 38 0.993370
1413726689779 7095 READING 37 0.992091
1413726689913 7095 FUNCTION lru lambda h: 0.964438 * (h ** 0.00668461)
1413726689913 7093 FUNCTION lru lambda h: 0.0144475 * (h ** 0.579999)
1413726689914 7095 RECOMMEND 70
1413726689914 7093 RECOMMEND 6105
1413726689962 7095 READING 39 0.992927
1413726690139 7095 READING 38 0.992431
1413726690339 7095 READING 40 0.992284
1413726690539 7095 READING 42 0.993110
1413726690736 7095 READING 41 0.993666
1413726690928 7095 READING 40 0.992603
1413726691124 7095 READING 39 0.992513
1413726691309 7095 READING 38 0.991984
1413726691509 7095 READING 40 0.991360
1413726691712 7095 READING 42 0.992911
1413726691922 7095 READING 41 0.993768
1413726692118 7095 READING 40 0.992577
1413726692302 7095 READING 39 0.993049
1413726692502 7093 READING 1159 0.977131
1413726692504 7095 READING 38 0.993616
1413726692723 7095 READING 37 0.994779
1413726692881 7095 READING 38 0.992597
1413726693059 7095 READING 40 0.993473
1413726693251 7095 READING 42 0.993972
1413726693472 7095 READING 45 0.994634
1413726693706 7095 READING 47 0.994657
1413726693969 7095 READING 50 0.995097
1413726694244 7095 READING 53 0.995788
1413726694540 7095 READING 56 0.995927
1413726694868 7095 READING 59 0.996296
1413726695213 7095 READING 62 0.996503
1413726695566 7095 READING 65 0.996867
1413726695944 7095 READING 68 0.996291
1413726696118 7093 READING 1162 0.977919
1413726696362 7095 READING 72 0.996720
1413726696765 7095 READING 70 0.996886
1413726697192 7095 READING 73 0.997209
1413726697588 7095 READING 71 0.997048
1413726697978 7095 READING 69 0.997174
1413726698381 7095 READING 72 0.997058
1413726698775 7095 READING 70 0.997298
1413726699190 7095 READING 73 0.997463
1413726699594 7095 READING 71 0.997206
1413726699889 7093 READING 1163 0.977352
1413726699914 7095 FUNCTION lru lambda h: 0.965787 * (h ** 0.00647452)
1413726699914 7093 FUNCTION lru lambda h: 0.00831672 * (h ** 0.661677)
1413726699916 7095 RECOMMEND 60
1413726699916 7093 RECOMMEND 6115
1413726699995 7095 READING 69 0.996857
1413726700370 7095 READING 67 0.996668
1413726700721 7095 READING 65 0.996863
1413726701057 7095 READING 63 0.996548
1413726701381 7095 READING 61 0.996371
1413726701692 7095 READING 60 0.996200
1413726702034 7095 READING 62 0.996621
1413726702363 7095 READING 61 0.996169
1413726702675 7095 READING 59 0.995986
1413726703005 7095 READING 62 0.995353
1413726703334 7095 READING 60 0.995643
1413726703423 7093 READING 1166 0.976521
1413726703661 7095 READING 59 0.995619
1413726703991 7095 READING 61 0.995972
1413726704304 7095 READING 60 0.995885
1413726704646 7095 READING 63 0.996215
1413726704984 7095 READING 61 0.996463
1413726705302 7095 READING 60 0.996413
1413726705648 7095 READING 62 0.996679
1413726705981 7095 READING 61 0.996437
1413726706300 7095 READING 59 0.996195
1413726706636 7095 READING 62 0.996513
1413726706960 7095 READING 60 0.996110
1413726707084 7093 READING 1166 0.976125
1413726707291 7095 READING 59 0.996186
1413726707617 7095 READING 61 0.996388
1413726707932 7095 READING 60 0.996470
1413726708267 7095 READING 62 0.996341
1413726708594 7095 READING 61 0.996414
1413726708903 7095 READING 59 0.996499
1413726709236 7095 READING 62 0.996706
1413726709564 7095 READING 60 0.996376
1413726709875 7095 READING 59 0.996564
1413726709916 7095 FUNCTION lru lambda h: 0.966585 * (h ** 0.00636749)
1413726709916 7093 FUNCTION lru lambda h: 0.00708557 * (h ** 0.685298)
1413726709917 7095 RECOMMEND 57
1413726709917 7093 RECOMMEND 6118
1413726710206 7095 READING 61 0.996506
1413726710519 7095 READING 60 0.996676
1413726710677 7093 READING 1168 0.976155
1413726710843 7095 READING 58 0.996502
1413726711143 7095 READING 57 0.996149
1413726711461 7095 READING 59 0.996076
1413726711766 7095 READING 58 0.996268
1413726712056 7095 READING 56 0.996261
1413726712360 7095 READING 59 0.995865
1413726712668 7095 READING 57 0.996037
1413726712962 7095 READING 56 0.995782
1413726713262 7095 READING 58 0.996061
1413726713562 7095 READING 57 0.995307
1413726713879 7095 READING 60 0.996157
1413726714209 7095 READING 58 0.996590
1413726714494 7095 READING 57 0.995287
1413726714803 7095 READING 60 0.995364
1413726715093 7095 READING 58 0.995134
1413726715383 7095 READING 57 0.992600
1413726715686 7095 READING 60 0.993740
1413726715906 7093 READING 1168 0.955468
1413726715995 7095 READING 59 0.994781
1413726716302 7095 READING 57 0.995596
1413726716598 7095 READING 56 0.995374
1413726716909 7095 READING 59 0.995576
1413726717211 7095 READING 57 0.995760
1413726717503 7095 READING 56 0.995401
1413726717813 7095 READING 59 0.995605
1413726718110 7095 READING 57 0.995579
1413726718402 7095 READING 56 0.995742
1413726718719 7095 READING 58 0.995694
1413726719007 7095 READING 57 0.995738
1413726719324 7095 READING 59 0.994987
1413726719428 7093 READING 1269 0.985640
1413726719658 7095 READING 58 0.995646
1413726719917 7095 FUNCTION lru lambda h: 0.967374 * (h ** 0.00622724)
1413726719917 7093 FUNCTION lru lambda h: 0.00533116 * (h ** 0.727059)
1413726719918 7095 RECOMMEND 52
1413726719918 7093 RECOMMEND 6123
1413726719958 7095 READING 56 0.995206
1413726720248 7095 READING 55 0.995745
1413726720514 7095 READING 53 0.995793
1413726720779 7095 READING 52 0.995771
1413726721043 7095 READING 51 0.994950
1413726721332 7095 READING 54 0.995307
1413726721597 7095 READING 52 0.995347
1413726721855 7095 READING 51 0.995804
1413726722132 7095 READING 54 0.995365
1413726722393 7095 READING 52 0.994856
1413726722658 7095 READING 51 0.994457
1413726722945 7095 READING 54 0.995526
1413726723113 7093 READING 1270 0.989665
1413726723222 7095 READING 52 0.995833
1413726723485 7095 READING 51 0.995976
1413726723757 7095 READING 54 0.994967
1413726724027 7095 READING 52 0.994633
1413726724281 7095 READING 51 0.995042
1413726724558 7095 READING 54 0.995528
1413726724830 7095 READING 52 0.995317
1413726725078 7095 READING 51 0.994671
1413726725360 7095 READING 54 0.995309
1413726725625 7095 READING 52 0.995762
1413726725882 7095 READING 51 0.995833
1413726726158 7095 READING 54 0.995405
1413726726421 7095 READING 52 0.995066
1413726726677 7093 READING 1277 0.990808
1413726726688 7095 READING 51 0.995382
1413726726973 7095 READING 54 0.995944
1413726727235 7095 READING 52 0.995329
1413726727489 7095 READING 51 0.994779
1413726727772 7095 READING 54 0.994967
1413726728043 7095 READING 52 0.995595
1413726728306 7095 READING 51 0.995273
1413726728588 7095 READING 54 0.995828
1413726728850 7095 READING 52 0.995379
1413726729109 7095 READING 51 0.995317
1413726729382 7095 READING 54 0.995523
1413726729650 7095 READING 52 0.995843
1413726729905 7095 READING 51 0.995351
1413726729918 7095 FUNCTION lru lambda h: 0.967483 * (h ** 0.00620674)
1413726729918 7093 FUNCTION lru lambda h: 0.00386244 * (h ** 0.774121)
1413726729919 7095 RECOMMEND 49
1413726729919 7093 RECOMMEND 6126
1413726730182 7095 READING 54 0.995506
1413726730234 7093 READING 1283 0.990771
1413726730470 7095 READING 52 0.995831
1413726730813 7095 READING 51 0.986890
1413726730968 7095 READING 50 0.960346
1413726731087 7095 READING 49 0.952155
1413726731190 7095 READING 49 0.937842
1413726731366 7095 READING 53 0.953142
1413726731496 7095 READING 53 0.931475
1413726731630 7095 READING 51 0.931243
1413726731834 7095 READING 51 0.993822
1413726731963 7095 READING 51 0.953902
1413726732088 7095 READING 50 0.970163
1413726732307 7095 READING 49 0.983630
1413726732542 7095 READING 48 0.988421
1413726732806 7095 READING 52 0.971489
1413726733074 7095 READING 51 0.981201
1413726733313 7095 READING 50 0.987147
1413726733550 7095 READING 51 0.989301
1413726733741 7093 READING 1286 0.989774
1413726733803 7095 READING 48 0.992388
1413726734069 7095 READING 54 0.993449
1413726734313 7095 READING 50 0.993661
1413726734554 7095 READING 51 0.993530
1413726734790 7095 READING 48 0.994310
1413726735050 7095 READING 53 0.993553
1413726735292 7095 READING 50 0.993725
1413726735530 7095 READING 51 0.994196
1413726735765 7095 READING 48 0.994604
1413726736027 7095 READING 53 0.995086
1413726736272 7095 READING 50 0.995443
1413726736507 7095 READING 51 0.995163
1413726736737 7095 READING 48 0.995315
1413726736979 7095 READING 52 0.995372
1413726737183 7093 READING 1175 0.988947
1413726737228 7095 READING 50 0.995361
1413726737461 7095 READING 50 0.995197
1413726737685 7095 READING 48 0.994281
1413726737934 7095 READING 52 0.993877
1413726738174 7095 READING 50 0.994338
1413726738408 7095 READING 50 0.994170
1413726738639 7095 READING 48 0.993948
1413726738895 7095 READING 52 0.993665
1413726739136 7095 READING 50 0.994632
1413726739362 7095 READING 50 0.994077
1413726739596 7095 READING 48 0.994481
1413726739839 7095 READING 52 0.994767
1413726739919 7095 FUNCTION lru lambda h: 0.965117 * (h ** 0.00666138)
1413726739919 7093 FUNCTION lru lambda h: 0.00251532 * (h ** 0.83662)
1413726739920 7095 RECOMMEND 49
1413726739920 7093 RECOMMEND 6126
1413726740082 7095 READING 50 0.994729
1413726740320 7095 READING 50 0.994637
1413726740537 7095 READING 48 0.994373
1413726740780 7093 READING 1276 0.987925
1413726740818 7095 READING 52 0.995121
1413726741050 7095 READING 50 0.995281
1413726741279 7095 READING 49 0.995448
1413726741507 7095 READING 48 0.995093
1413726741750 7095 READING 51 0.995249
1413726741982 7095 READING 50 0.994893
1413726742217 7095 READING 49 0.995167
1413726742433 7095 READING 48 0.994673
1413726742675 7095 READING 51 0.995116
1413726742911 7095 READING 50 0.994433
1413726743142 7095 READING 49 0.993555
1413726743374 7095 READING 48 0.993386
1413726743619 7095 READING 51 0.993031
1413726743872 7095 READING 50 0.993790
1413726744117 7095 READING 49 0.994094
1413726744228 7093 READING 1191 0.985913
1413726744355 7095 READING 48 0.994295
1413726744599 7095 READING 51 0.994106
1413726744841 7095 READING 50 0.994886
1413726745067 7095 READING 49 0.994684
1413726745294 7095 READING 48 0.995012
1413726745541 7095 READING 51 0.994582
1413726745780 7095 READING 50 0.995111
1413726746015 7095 READING 49 0.995290
1413726746243 7095 READING 48 0.993803
1413726746495 7095 READING 51 0.993864
1413726746734 7095 READING 50 0.994553
1413726746967 7095 READING 49 0.994717
1413726747185 7095 READING 48 0.993539
1413726747433 7095 READING 51 0.994210
1413726747680 7095 READING 50 0.994612
1413726747909 7095 READING 49 0.994562
1413726747991 7093 READING 1263 0.985117
1413726748149 7095 READING 48 0.995342
1413726748395 7095 READING 51 0.995406
1413726748637 7095 READING 50 0.995428
1413726748879 7095 READING 49 0.994545
1413726749103 7095 READING 48 0.993817
1413726749347 7095 READING 51 0.994463
1413726749588 7095 READING 50 0.995091
1413726749813 7095 READING 49 0.995156
1413726749920 7095 FUNCTION lru lambda h: 0.966799 * (h ** 0.0063337)
1413726749920 7093 FUNCTION lru lambda h: 0.00201787 * (h ** 0.868628)
1413726749921 7095 RECOMMEND 45
1413726749921 7093 RECOMMEND 6130
1413726750047 7095 READING 48 0.994945
1413726750271 7095 READING 47 0.995325
1413726750480 7095 READING 46 0.994226
1413726750683 7095 READING 46 0.994401
1413726750891 7095 READING 45 0.994810
1413726751090 7095 READING 45 0.994617
1413726751314 7095 READING 47 0.994655
1413726751515 7095 READING 46 0.994091
1413726751745 7095 READING 46 0.993626
1413726751766 7093 READING 1208 0.984060
1413726751947 7095 READING 45 0.994177
1413726752159 7095 READING 45 0.994701
1413726752381 7095 READING 48 0.994565
1413726752593 7095 READING 47 0.993683
1413726752804 7095 READING 46 0.994524
1413726753009 7095 READING 45 0.994423
1413726753208 7095 READING 45 0.994775
1413726753418 7095 READING 48 0.995129
1413726753630 7095 READING 47 0.994890
1413726753839 7095 READING 46 0.994416
1413726754050 7095 READING 45 0.994602
1413726754247 7095 READING 45 0.994456
1413726754471 7095 READING 48 0.994577
1413726754695 7095 READING 47 0.995155
1413726754897 7095 READING 46 0.994721
1413726755102 7095 READING 45 0.994629
1413726755309 7095 READING 45 0.993920
1413726755463 7093 READING 1264 0.982321
1413726755549 7095 READING 48 0.994364
1413726755760 7095 READING 47 0.994652
1413726755967 7095 READING 46 0.994418
1413726756178 7095 READING 45 0.994675
1413726756376 7095 READING 45 0.994279
1413726756604 7095 READING 48 0.994722
1413726756824 7095 READING 47 0.993340
1413726757039 7095 READING 46 0.992692
1413726757244 7095 READING 45 0.994046
1413726757447 7095 READING 45 0.994564
1413726757667 7095 READING 48 0.993814
1413726757878 7095 READING 47 0.993817
1413726758091 7095 READING 46 0.994511
1413726758297 7095 READING 45 0.993338
1413726758494 7095 READING 45 0.993502
1413726758718 7095 READING 48 0.994177
1413726758945 7095 READING 47 0.994343
1413726759156 7095 READING 46 0.994388
1413726759341 7093 READING 1266 0.981883
1413726759372 7095 READING 45 0.993628
1413726759569 7095 READING 45 0.993676
1413726759789 7095 READING 48 0.994533
1413726759921 7095 FUNCTION lru lambda h: 0.966752 * (h ** 0.00634326)
1413726759921 7093 FUNCTION lru lambda h: 0.0042821 * (h ** 0.760049)
1413726759922 7095 RECOMMEND 51
1413726759922 7093 RECOMMEND 6124
1413726760000 7095 READING 47 0.993439
1413726760243 7095 READING 50 0.994692
1413726760501 7095 READING 53 0.995510
1413726760754 7095 READING 52 0.995041
1413726761006 7095 READING 51 0.995199
1413726761255 7095 READING 50 0.995509
1413726761514 7095 READING 53 0.995225
1413726761779 7095 READING 52 0.995570
1413726762030 7095 READING 51 0.995777
1413726762268 7095 READING 50 0.995476
1413726762526 7095 READING 53 0.995522
1413726762780 7095 READING 52 0.995583
1413726762986 7093 READING 1266 0.981319
1413726763043 7095 READING 51 0.995138
1413726763286 7095 READING 50 0.994384
1413726763547 7095 READING 53 0.994936
1413726763803 7095 READING 52 0.994810
1413726764052 7095 READING 51 0.995199
1413726764289 7095 READING 50 0.995382
1413726764549 7095 READING 53 0.995273
1413726764803 7095 READING 52 0.995747
1413726765047 7095 READING 51 0.995512
1413726765292 7095 READING 50 0.995308
1413726765553 7095 READING 53 0.995641
1413726765799 7095 READING 52 0.995337
1413726766051 7095 READING 51 0.995813
1413726766296 7095 READING 50 0.995244
1413726766554 7095 READING 53 0.994958
1413726766762 7093 READING 1269 0.980513
1413726766823 7095 READING 52 0.994559
1413726767068 7095 READING 51 0.994812
1413726767304 7095 READING 50 0.994418
1413726767567 7095 READING 53 0.994884
1413726767821 7095 READING 52 0.994404
1413726768062 7095 READING 51 0.994654
1413726768306 7095 READING 50 0.995209
1413726768559 7095 READING 53 0.994870
1413726768822 7095 READING 52 0.995629
1413726769068 7095 READING 51 0.995196
1413726769312 7095 READING 50 0.994870
1413726769570 7095 READING 53 0.995081
1413726769824 7095 READING 52 0.995287
1413726769922 7095 FUNCTION lru lambda h: 0.967333 * (h ** 0.00623532)
1413726769922 7093 FUNCTION lru lambda h: 0.00428663 * (h ** 0.75989)
1413726769923 7095 RECOMMEND 50
1413726769923 7093 RECOMMEND 6125
1413726770074 7095 READING 51 0.995610
1413726770324 7095 READING 50 0.994272
1413726770571 7095 READING 49 0.994882
1413726770630 7093 READING 1270 0.979177
1413726770828 7095 READING 52 0.995372
1413726771071 7095 READING 51 0.994929
1413726771310 7095 READING 50 0.994909
1413726771542 7095 READING 49 0.994948
1413726771786 7095 READING 52 0.994999
1413726772035 7095 READING 51 0.993962
1413726772273 7095 READING 50 0.994370
1413726772515 7095 READING 49 0.994419
1413726772768 7095 READING 52 0.995205
1413726773009 7095 READING 51 0.995391
1413726773260 7095 READING 50 0.995511
1413726773495 7095 READING 49 0.994856
1413726773740 7095 READING 52 0.995143
1413726773993 7095 READING 51 0.994193
1413726774240 7095 READING 50 0.994979
1413726774413 7093 READING 1276 0.977645
1413726774502 7095 READING 49 0.995157
1413726774759 7095 READING 52 0.995606
1413726775010 7095 READING 51 0.995571
1413726775261 7095 READING 50 0.995120
1413726775486 7095 READING 49 0.995058
1413726775756 7095 READING 52 0.993653
1413726776003 7095 READING 51 0.993841
1413726776242 7095 READING 50 0.994367
1413726776469 7095 READING 49 0.994109
1413726776726 7095 READING 52 0.993413
1413726776971 7095 READING 51 0.994295
1413726777214 7095 READING 50 0.995053
1413726777445 7095 READING 49 0.994903
1413726777698 7095 READING 52 0.995478
1413726777944 7095 READING 51 0.995624
1413726778193 7095 READING 50 0.995374
1413726778260 7093 READING 1281 0.977171
1413726778435 7095 READING 49 0.995104
1413726778699 7095 READING 52 0.994456
1413726778946 7095 READING 51 0.993545
1413726779188 7095 READING 50 0.994101
1413726779432 7095 READING 49 0.994957
1413726779690 7095 READING 52 0.995032
1413726779924 7095 FUNCTION lru lambda h: 0.967254 * (h ** 0.00625031)
1413726779924 7093 FUNCTION lru lambda h: 0.00484486 * (h ** 0.742238)
1413726779926 7095 RECOMMEND 52
1413726779926 7093 RECOMMEND 6123
1413726779934 7095 READING 51 0.995043
1413726780212 7095 READING 54 0.995657
1413726780475 7095 READING 53 0.995496
1413726780734 7095 READING 52 0.994210
1413726780984 7095 READING 51 0.994614
1413726781253 7095 READING 54 0.995025
1413726781519 7095 READING 53 0.995629
1413726781776 7095 READING 52 0.995918
1413726782020 7095 READING 51 0.995654
1413726782282 7095 READING 54 0.995640
1413726782416 7093 READING 1286 0.973166
1413726782564 7095 READING 53 0.995950
1413726782834 7095 READING 52 0.995593
1413726783079 7095 READING 51 0.995618
1413726783345 7095 READING 54 0.995675
1413726783602 7095 READING 53 0.995332
1413726783860 7095 READING 52 0.995469
1413726784109 7095 READING 51 0.995152
1413726784373 7095 READING 54 0.995180
1413726784637 7095 READING 53 0.995446
1413726784889 7095 READING 52 0.995100
1413726785133 7095 READING 51 0.995045
1413726785395 7095 READING 54 0.995594
1413726785660 7095 READING 53 0.994406
1413726785916 7095 READING 52 0.994966
1413726786169 7095 READING 51 0.995590
1413726786387 7093 READING 1291 0.975014
1413726786462 7095 READING 54 0.995811
1413726786729 7095 READING 53 0.994962
1413726786981 7095 READING 52 0.995373
1413726787236 7095 READING 51 0.995636
1413726787502 7095 READING 54 0.995330
1413726787771 7095 READING 53 0.995762
1413726788017 7095 READING 52 0.995369
1413726788269 7095 READING 51 0.995728
1413726788544 7095 READING 54 0.995875
1413726788813 7095 READING 53 0.994866
1413726789067 7095 READING 52 0.994325
1413726789318 7095 READING 51 0.994720
1413726789581 7095 READING 54 0.995444
1413726789843 7095 READING 53 0.995360
1413726789926 7095 FUNCTION lru lambda h: 0.967366 * (h ** 0.0062294)
1413726789926 7093 FUNCTION lru lambda h: 0.00543099 * (h ** 0.725776)
1413726789927 7095 RECOMMEND 53
1413726789927 7093 RECOMMEND 6122
1413726790093 7095 READING 52 0.995636
1413726790367 7095 READING 55 0.995266
1413726790566 7093 READING 1293 0.976740
1413726790654 7095 READING 54 0.995767
1413726790911 7095 READING 53 0.994824
1413726791164 7095 READING 52 0.994708
1413726791444 7095 READING 56 0.994860
1413726791717 7095 READING 55 0.995012
1413726791978 7095 READING 54 0.995222
1413726792229 7095 READING 53 0.994926
1413726792506 7095 READING 56 0.995800
1413726792780 7095 READING 55 0.995606
1413726793049 7095 READING 54 0.995195
1413726793303 7095 READING 53 0.995374
1413726793584 7095 READING 56 0.995964
1413726793842 7095 READING 55 0.996055
1413726794091 7095 READING 54 0.995969
1413726794200 7093 READING 1299 0.975563
1413726794356 7095 READING 53 0.995995
1413726794617 7095 READING 56 0.995892
1413726794875 7095 READING 55 0.995860
1413726795124 7095 READING 54 0.995877
1413726795364 7095 READING 53 0.995499
1413726795626 7095 READING 56 0.995602
1413726795879 7095 READING 55 0.995375
1413726796129 7095 READING 54 0.995382
1413726796372 7095 READING 53 0.995157
1413726796636 7095 READING 56 0.995733
1413726796891 7095 READING 55 0.995677
1413726797157 7095 READING 54 0.994663
1413726797220 7093 READING 1299 0.973098
1413726797406 7095 READING 53 0.995086
1413726797671 7095 READING 56 0.995547
1413726797935 7095 READING 55 0.995587
1413726798184 7095 READING 54 0.995416
1413726798429 7095 READING 53 0.995281
1413726798692 7095 READING 56 0.995328
1413726798950 7095 READING 55 0.995383
1413726799199 7095 READING 54 0.995341
1413726799441 7095 READING 53 0.995289
1413726799706 7095 READING 56 0.995642
1413726799927 7095 FUNCTION lru lambda h: 0.96737 * (h ** 0.00622871)
1413726799927 7093 FUNCTION lru lambda h: 0.0057782 * (h ** 0.71684)
1413726799928 7095 RECOMMEND 53
1413726799928 7093 RECOMMEND 6122
1413726799962 7095 READING 55 0.995310
1413726800210 7095 READING 54 0.994928
1413726800452 7095 READING 53 0.994974
1413726800710 7095 READING 56 0.995027
1413726800963 7095 READING 55 0.995066
1413726801214 7095 READING 54 0.995044
1413726801455 7095 READING 53 0.994894
1413726801720 7095 READING 56 0.995263
1413726801974 7095 READING 55 0.995012
1413726802225 7095 READING 54 0.995021
1413726802468 7095 READING 53 0.994856
1413726802728 7095 READING 56 0.995167
1413726802985 7095 READING 55 0.995202
1413726803235 7095 READING 54 0.995270
1413726803479 7095 READING 53 0.995120
1413726803744 7095 READING 56 0.995391
1413726803999 7095 READING 55 0.995442
1413726804249 7095 READING 54 0.995412
1413726804491 7095 READING 53 0.995155
1413726804753 7095 READING 56 0.995084
1413726805003 7095 READING 55 0.995081
1413726805254 7095 READING 54 0.995091
1413726805496 7095 READING 53 0.995105
1413726805758 7095 READING 56 0.995277
1413726806016 7095 READING 55 0.995321
1413726806264 7095 READING 54 0.995179
1413726806505 7095 READING 53 0.994975
1413726806770 7095 READING 56 0.995118
1413726807035 7095 READING 55 0.995528
1413726807294 7095 READING 54 0.995514
1413726807539 7095 READING 53 0.995075
1413726807810 7095 READING 56 0.995141
1413726808071 7095 READING 55 0.995049
1413726808322 7095 READING 54 0.994763
1413726808564 7095 READING 53 0.994619
1413726808825 7095 READING 56 0.995068
1413726809082 7095 READING 55 0.995234
1413726809333 7095 READING 54 0.994986
1413726809576 7095 READING 53 0.994723
1413726809838 7095 READING 56 0.995267
1413726809928 7095 FUNCTION lru lambda h: 0.967304 * (h ** 0.00624077)
1413726809928 7093 FUNCTION lru lambda h: 0.0057782 * (h ** 0.71684)
1413726809929 7095 RECOMMEND 53
1413726809929 7093 RECOMMEND 6122
1413726810091 7095 READING 55 0.995348
1413726810337 7095 READING 54 0.995422
1413726810582 7095 READING 53 0.995286
1413726810875 7095 READING 56 0.995305
1413726811141 7095 READING 55 0.994945
1413726811401 7095 READING 54 0.994980
1413726811647 7095 READING 53 0.994624
1413726811904 7095 READING 56 0.994260
1413726812155 7095 READING 55 0.993940
1413726812409 7095 READING 54 0.994197
1413726812653 7095 READING 53 0.993873
1413726812917 7095 READING 56 0.994281
1413726813172 7095 READING 55 0.995277
1413726813266 7093 READING 1303 0.959256
1413726813426 7095 READING 54 0.995638
1413726813673 7095 READING 53 0.995746
1413726813934 7095 READING 56 0.995564
1413726814188 7095 READING 55 0.995398
1413726814437 7095 READING 54 0.995287
1413726814689 7095 READING 53 0.995017
1413726814962 7095 READING 56 0.995792
1413726815220 7095 READING 55 0.995882
1413726815471 7095 READING 54 0.995463
1413726815715 7095 READING 53 0.995387
1413726815979 7095 READING 56 0.995673
1413726816235 7095 READING 55 0.995207
1413726816486 7095 READING 54 0.995241
1413726816727 7095 READING 53 0.995145
1413726816991 7095 READING 56 0.995484
1413726817244 7095 READING 55 0.995259
1413726817494 7095 READING 54 0.994993
1413726817737 7095 READING 53 0.995043
1413726818001 7095 READING 56 0.995351
1413726818254 7095 READING 55 0.995432
1413726818503 7095 READING 54 0.995138
1413726818753 7095 READING 53 0.995007
1413726819018 7095 READING 56 0.995323
1413726819272 7095 READING 55 0.994975
1413726819521 7095 READING 54 0.995063
1413726819764 7095 READING 53 0.994876
1413726819929 7095 FUNCTION lru lambda h: 0.967323 * (h ** 0.00623734)
1413726819929 7093 FUNCTION lru lambda h: 0.00549212 * (h ** 0.724069)
1413726819930 7095 RECOMMEND 53
1413726819930 7093 RECOMMEND 6122
1413726820026 7095 READING 56 0.994974
1413726820282 7095 READING 55 0.994751
1413726820529 7095 READING 54 0.994733
1413726820778 7095 READING 53 0.995193
1413726821042 7095 READING 56 0.995231
1413726821294 7095 READING 55 0.994782
1413726821542 7095 READING 54 0.994829
1413726821784 7095 READING 53 0.995002
1413726822047 7095 READING 56 0.995557
1413726822305 7095 READING 55 0.995468
1413726822553 7095 READING 54 0.995341
1413726822805 7095 READING 53 0.995312
1413726823072 7095 READING 56 0.995817
1413726823330 7095 READING 55 0.995847
1413726823578 7095 READING 54 0.995812
1413726823822 7095 READING 53 0.994985
1413726824089 7095 READING 56 0.995192
1413726824365 7095 READING 55 0.994256
1413726824482 7093 READING 1483 0.986991
1413726824635 7095 READING 54 0.995397
1413726824877 7095 READING 53 0.995515
1413726825142 7095 READING 56 0.995878
1413726825396 7095 READING 55 0.995885
1413726825644 7095 READING 54 0.996034
1413726825888 7095 READING 53 0.996003
1413726826151 7095 READING 56 0.995762
1413726826405 7095 READING 55 0.995808
1413726826655 7095 READING 54 0.995583
1413726826899 7095 READING 53 0.995563
1413726827162 7095 READING 56 0.995710
1413726827416 7095 READING 55 0.995545
1413726827665 7095 READING 54 0.995003
1413726827909 7095 READING 53 0.995208
1413726828174 7095 READING 56 0.995532
1413726828427 7095 READING 55 0.995324
1413726828675 7095 READING 54 0.995507
1413726828919 7095 READING 53 0.995636
1413726829181 7095 READING 56 0.995453
1413726829433 7095 READING 55 0.995485
1413726829683 7095 READING 54 0.995509
1413726829924 7095 READING 53 0.995666
1413726829930 7095 FUNCTION lru lambda h: 0.967392 * (h ** 0.00622473)
1413726829930 7093 FUNCTION lru lambda h: 0.0104333 * (h ** 0.631749)
1413726829930 7095 RECOMMEND 60
1413726829930 7093 RECOMMEND 6115
1413726830196 7095 READING 56 0.995526
1413726830494 7095 READING 59 0.995596
1413726830648 7093 READING 1519 0.987618
1413726830829 7095 READING 63 0.996152
1413726831147 7095 READING 61 0.996137
1413726831186 7093 READING 1449 0.980554
1413726831445 7095 READING 60 0.995851
1413726831613 7093 READING 1520 0.965475
1413726831784 7095 READING 63 0.996092
1413726831935 7093 READING 1523 0.934639
1413726832116 7095 READING 62 0.996385
1413726832243 7093 READING 1545 0.901445
1413726832434 7095 READING 60 0.996336
1413726832557 7093 READING 1559 0.857846
1413726832747 7095 READING 59 0.996245
1413726832876 7093 READING 1585 0.826344
1413726833075 7095 READING 62 0.996265
1413726833201 7093 READING 1593 0.799314
1413726833389 7095 READING 60 0.996185
1413726833688 7095 READING 59 0.996026
1413726834007 7095 READING 62 0.996049
1413726834314 7095 READING 60 0.995991
1413726834612 7095 READING 59 0.996225
1413726834828 7093 READING 1622 0.932501
1413726834944 7095 READING 62 0.996467
1413726835247 7095 READING 60 0.995687
1413726835552 7095 READING 59 0.996079
1413726835874 7095 READING 62 0.996119
1413726836179 7095 READING 60 0.995966
1413726836469 7095 READING 59 0.995762
1413726836792 7095 READING 62 0.996008
1413726837096 7095 READING 60 0.996078
1413726837397 7095 READING 59 0.996304
1413726837719 7095 READING 62 0.995077
1413726838029 7095 READING 60 0.995680
1413726838329 7095 READING 59 0.995232
1413726838649 7095 READING 62 0.995439
1413726838964 7095 READING 61 0.994778
1413726839263 7095 READING 59 0.995771
1413726839422 7093 READING 1625 0.976531
1413726839604 7095 READING 63 0.995971
1413726839926 7095 READING 61 0.995682
1413726839931 7095 FUNCTION lru lambda h: 0.96738 * (h ** 0.00622604)
1413726839931 7093 FUNCTION lru lambda h: 0.0136 * (h ** 0.590008)
1413726839931 7095 RECOMMEND 64
1413726839931 7093 RECOMMEND 6111
1413726840232 7095 READING 60 0.995753
1413726840558 7095 READING 63 0.994928
1413726840912 7095 READING 67 0.994970
1413726841252 7095 READING 65 0.995501
1413726841592 7095 READING 64 0.996262
1413726841947 7095 READING 67 0.996545
1413726842302 7095 READING 65 0.996451
1413726842639 7095 READING 64 0.995402
1413726842996 7095 READING 67 0.996021
1413726843343 7095 READING 65 0.996367
1413726843670 7095 READING 64 0.996197
1413726844028 7095 READING 67 0.996591
1413726844371 7095 READING 65 0.995705
1413726844658 7093 READING 1636 0.982637
1413726844715 7095 READING 64 0.995227
1413726845067 7095 READING 67 0.995875
1413726845410 7095 READING 65 0.995925
1413726845734 7095 READING 64 0.996039
1413726846094 7095 READING 67 0.996295
1413726846428 7095 READING 65 0.996047
1413726846764 7095 READING 64 0.996333
1413726847130 7095 READING 67 0.996006
1413726847459 7095 READING 65 0.996240
1413726847795 7095 READING 64 0.995793
1413726848155 7095 READING 67 0.996037
1413726848492 7095 READING 65 0.996388
1413726848821 7095 READING 64 0.996170
1413726849169 7095 READING 67 0.996459
1413726849529 7095 READING 65 0.996575
1413726849535 7093 READING 1643 0.983769
1413726849858 7095 READING 64 0.996339
1413726849932 7095 FUNCTION lru lambda h: 0.967854 * (h ** 0.00617151)
1413726849932 7093 FUNCTION lru lambda h: 0.0165216 * (h ** 0.562097)
1413726849933 7095 RECOMMEND 67
1413726849933 7093 RECOMMEND 6108
1413726850211 7095 READING 67 0.996570
1413726850550 7095 READING 66 0.996830
1413726850885 7095 READING 64 0.996300
1413726851244 7095 READING 67 0.996305
1413726851599 7095 READING 66 0.996728
1413726851971 7095 READING 69 0.996883
1413726852336 7095 READING 67 0.996834
1413726852680 7095 READING 66 0.996912
1413726853016 7095 READING 64 0.996720
1413726853333 7095 READING 62 0.996781
1413726853635 7095 READING 60 0.995721
1413726853962 7095 READING 63 0.995382
1413726854314 7095 READING 67 0.996121
1413726854631 7093 READING 1640 0.985135
1413726854712 7095 READING 71 0.996390
1413726855076 7095 READING 69 0.996358
1413726855438 7095 READING 67 0.996782
1413726855820 7095 READING 70 0.996677
1413726856185 7095 READING 68 0.996912
1413726856535 7095 READING 66 0.996574
1413726856910 7095 READING 70 0.996559
1413726857262 7095 READING 68 0.996564
1413726857618 7095 READING 66 0.996416
1413726857990 7095 READING 70 0.996140
1413726858358 7095 READING 68 0.996339
1413726858713 7095 READING 66 0.996773
1413726859049 7095 READING 64 0.996615
1413726859368 7095 READING 62 0.995953
1413726859710 7095 READING 66 0.996413
1413726859871 7093 READING 1650 0.985128
1413726859933 7095 FUNCTION lru lambda h: 0.968167 * (h ** 0.00613181)
1413726859933 7093 FUNCTION lru lambda h: 0.0296269 * (h ** 0.479559)
1413726859934 7095 RECOMMEND 78
1413726859934 7093 RECOMMEND 6097
1413726860091 7095 READING 69 0.996743
1413726860457 7095 READING 67 0.996588
1413726860847 7095 READING 71 0.996756
1413726861215 7095 READING 69 0.996601
1413726861560 7095 READING 67 0.996250
1413726861943 7095 READING 70 0.996468
1413726862298 7095 READING 68 0.996364
1413726862680 7095 READING 72 0.996605
1413726863047 7095 READING 69 0.996589
1413726863403 7095 READING 67 0.996489
1413726864894 7093 READING 1638 0.984949
1413726866124 7095 DEATH 932
1413726869807 7093 READING 1648 0.986435
1413726869934 7093 FUNCTION lru lambda h: 0.0640224 * (h ** 0.371135)
1413726869934 7093 RECOMMEND 6175
1413726874834 7093 READING 1652 0.987239
1413726879736 7093 READING 1655 0.987118
1413726879934 7093 FUNCTION lru lambda h: 0.0710933 * (h ** 0.356436)
1413726879934 7093 RECOMMEND 6175
1413726884923 7093 READING 1645 0.986758
1413726889934 7093 FUNCTION lru lambda h: 0.0764752 * (h ** 0.346242)
1413726889935 7093 RECOMMEND 6175
1413726890225 7093 READING 1556 0.986258
1413726895423 7093 READING 1637 0.985406
1413726899935 7093 FUNCTION lru lambda h: 0.08138 * (h ** 0.337605)
1413726899935 7093 RECOMMEND 6175
1413726900588 7093 READING 1644 0.984370
1413726906065 7093 READING 1647 0.983869
1413726909935 7093 FUNCTION lru lambda h: 0.12308 * (h ** 0.280132)
1413726909935 7093 RECOMMEND 6175
1413726911329 7093 READING 1648 0.982778
1413726916663 7093 READING 1653 0.981854
1413726919935 7093 FUNCTION lru lambda h: 0.126648 * (h ** 0.276198)
1413726919935 7093 RECOMMEND 6175
1413726921939 7093 READING 1659 0.980981
1413726927612 7093 READING 1666 0.981419
1413726929936 7093 FUNCTION lru lambda h: 0.12306 * (h ** 0.280139)
1413726929936 7093 RECOMMEND 6175
1413726932915 7093 READING 1670 0.980745
1413726939408 7093 READING 1677 0.973109
1413726939936 7093 FUNCTION lru lambda h: 0.116361 * (h ** 0.287778)
1413726939936 7093 RECOMMEND 6175
1413726944376 7093 READING 1600 0.988078
1413726949600 7093 READING 1597 0.991336
1413726949936 7093 FUNCTION lru lambda h: 0.109677 * (h ** 0.296046)
1413726949936 7093 RECOMMEND 6175
1413726954909 7093 READING 1609 0.992331
1413726959936 7093 FUNCTION lru lambda h: 0.107809 * (h ** 0.298461)
1413726959936 7093 RECOMMEND 6175
1413726960186 7093 READING 1620 0.992262
1413726965430 7093 READING 1621 0.991377
1413726969937 7093 FUNCTION lru lambda h: 0.105363 * (h ** 0.301693)
1413726969937 7093 RECOMMEND 6175
1413726970815 7093 READING 1609 0.990651
1413726976172 7093 READING 1465 0.989702
1413726979937 7093 FUNCTION lru lambda h: 0.103792 * (h ** 0.303844)
1413726979937 7093 RECOMMEND 6175
1413726981887 7093 READING 1592 0.988877
1413726987636 7093 READING 1492 0.987916
1413726989937 7093 FUNCTION lru lambda h: 0.0953762 * (h ** 0.315587)
1413726989937 7093 RECOMMEND 6175
1413726992867 7093 READING 1586 0.986490
1413726999937 7093 FUNCTION lru lambda h: 0.0855224 * (h ** 0.330625)
1413726999937 7093 RECOMMEND 6175
1413727009938 7093 FUNCTION lru lambda h: 0.0855224 * (h ** 0.330625)
1413727009938 7093 RECOMMEND 6175
1413727015764 7093 READING 1591 0.994773
1413727019938 7093 FUNCTION lru lambda h: 0.0800362 * (h ** 0.339786)
1413727019938 7093 RECOMMEND 6175
1413727023328 7093 READING 1591 0.992828
1413727024071 7093 READING 1594 0.984615
1413727024449 7093 READING 1571 0.973239
1413727024840 7093 READING 1615 0.951616
1413727025230 7093 READING 1643 0.924493
1413727025625 7093 READING 1657 0.888374
1413727025787 7093 DEATH 232
