1412987498714 0 TOTAL_MEM 2760
1412987518775 29301 CREATION
1412987518775 29301 READING 9 0.992714
1412987518775 29301 MINHEAP 2
1412987518775 29301 MINHEAP 276
1412987518777 29302 CREATION
1412987518777 29302 READING 9 0.991995
1412987518777 29302 MINHEAP 2
1412987518777 29302 MINHEAP 276
1412987518821 29301 READING 9 0.977506
1412987518821 29302 READING 9 0.978291
1412987518849 29301 READING 9 0.968085
1412987518853 29302 READING 9 0.963347
1412987518874 29301 READING 9 0.956149
1412987518878 29302 READING 9 0.958178
1412987518972 29301 READING 11 0.988658
1412987518976 29302 READING 11 0.976403
1412987519122 29302 READING 11 0.983898
1412987519154 29301 READING 11 0.986294
1412987519219 29302 READING 17 0.956174
1412987519266 29301 READING 17 0.958698
1412987519381 29302 READING 17 0.636147
1412987519417 29301 READING 17 0.614799
1412987519557 29302 READING 30 0.977224
1412987519620 29301 READING 30 0.939884
1412987519767 29302 READING 31 0.876292
1412987519778 29301 READING 31 0.800599
1412987519988 29301 READING 35 0.326876
1412987520036 29302 READING 34 0.466845
1412987520075 29301 READING 48 0.882849
1412987520109 29302 READING 46 0.908844
1412987520195 29301 READING 51 0.895755
1412987520205 29302 READING 47 0.910117
1412987520514 29301 READING 54 0.169451
1412987520544 29302 READING 49 0.172705
1412987520606 29301 READING 81 0.667245
1412987520617 29302 READING 73 0.841526
1412987520684 29302 READING 73 0.858915
1412987520816 29301 READING 81 0.384180
1412987520969 29301 READING 103 0.857068
1412987520983 29302 READING 76 0.208624
1412987521081 29301 READING 107 0.821155
1412987521089 29302 READING 99 0.664493
1412987521209 29302 READING 101 0.687761
1412987521330 29302 READING 103 0.777643
1412987521494 29301 READING 108 0.182770
1412987521602 29301 READING 138 0.775789
1412987521655 29302 READING 110 0.252379
1412987521696 29301 READING 141 0.771014
1412987521754 29302 READING 137 0.722738
1412987521842 29302 READING 145 0.762668
1412987521960 29302 READING 145 0.703200
1412987522089 29301 READING 143 0.206186
1412987522227 29301 READING 183 0.759253
1412987522360 29301 READING 184 0.656194
1412987522438 29302 READING 149 0.162996
1412987522465 29301 READING 186 0.756223
1412987522550 29302 READING 187 0.705399
1412987522577 29301 READING 191 0.804025
1412987522681 29302 READING 191 0.665362
1412987522833 29302 READING 194 0.684900
1412987523273 29302 READING 201 0.796791
1412987523393 29301 READING 193 0.321159
1412987523909 29302 READING 205 0.897694
1412987523933 29301 READING 237 0.888212
1412987524129 29301 READING 242 0.821824
1412987524285 29301 READING 245 0.707839
1412987524460 29301 READING 251 0.740024
1412987524619 29301 READING 253 0.622002
1412987524668 29302 READING 207 0.160731
1412987524761 29302 READING 257 0.563656
1412987524853 29301 READING 259 0.872702
1412987524921 29302 READING 262 0.833580
1412987524994 29302 READING 263 0.644516
1412987525037 29301 READING 261 0.832305
1412987525184 29301 READING 263 0.721406
1412987525193 29302 READING 267 0.812560
1412987525295 29301 READING 267 0.760229
1412987525320 29302 READING 267 0.830606
1412987525404 29301 READING 273 0.778428
1412987525486 29302 READING 271 0.826131
1412987525513 29301 READING 277 0.772443
1412987525580 29302 READING 271 0.718360
1412987525625 29301 READING 282 0.807745
1412987525684 29302 READING 278 0.754708
1412987525778 29302 READING 280 0.733117
1412987525877 29302 READING 287 0.737844
1412987526075 29301 READING 284 0.935896
1412987526221 29301 READING 285 0.791016
1412987526282 29302 READING 288 0.928764
1412987526513 29302 READING 290 0.727902
1412987526634 29302 READING 292 0.750348
1412987526819 29301 READING 288 0.120687
1412987526957 29301 READING 328 0.674684
1412987527051 29301 READING 330 0.834388
1412987527263 29301 READING 335 0.849775
1412987527427 29302 READING 292 0.108052
1412987527493 29301 READING 335 0.900208
1412987527569 29302 READING 339 0.615707
1412987527633 29301 READING 334 0.672617
1412987527737 29301 READING 336 0.611976
1412987527769 29302 READING 344 0.878107
1412987527850 29301 READING 343 0.570161
1412987527965 29301 READING 343 0.556274
1412987527981 29302 READING 345 0.707938
1412987528063 29301 READING 351 0.702778
1412987528096 29302 READING 349 0.800129
1412987528193 29301 READING 351 0.532253
1412987528195 29302 READING 349 0.652577
1412987528301 29302 READING 356 0.666997
1412987528421 29302 READING 356 0.612074
1412987528572 29302 READING 365 0.734032
1412987528715 29301 FUNCTION lru lambda h: 0.716192 * (h ** 0.001)
1412987528715 29302 FUNCTION lru lambda h: 0.727001 * (h ** 0.001)
1412987528715 29301 RECOMMEND 1380
1412987528715 29302 RECOMMEND 1380
1412987529330 29301 READING 361 0.943437
1412987529864 29302 READING 365 0.946589
1412987530830 29301 READING 362 0.977464
1412987531864 29302 READING 371 0.980614
1412987532199 29301 READING 363 0.980118
1412987533185 29302 READING 373 0.974149
1412987533624 29301 READING 367 0.971020
1412987534817 29302 READING 372 0.974104
1412987534972 29301 READING 370 0.979039
1412987536096 29302 READING 376 0.974430
1412987536588 29301 READING 372 0.979427
1412987537541 29302 READING 379 0.978058
1412987537989 29301 READING 371 0.973893
1412987538715 29301 FUNCTION lru lambda h: 0.579276 * (h ** 0.0319518)
1412987538715 29302 FUNCTION lru lambda h: 0.595896 * (h ** 0.0216632)
1412987538715 29301 RECOMMEND 1380
1412987538715 29302 RECOMMEND 1380
1412987539004 29302 READING 380 0.981767
1412987539456 29301 READING 374 0.974342
1412987540605 29302 READING 377 0.977696
1412987541065 29301 READING 369 0.972823
1412987542102 29302 READING 380 0.978211
1412987542495 29301 READING 373 0.979305
1412987543557 29302 READING 379 0.973871
1412987543821 29301 READING 373 0.976192
1412987545020 29302 READING 380 0.972420
1412987545276 29301 READING 374 0.973831
1412987546605 29302 READING 383 0.974252
1412987546806 29301 READING 376 0.971711
1412987548058 29302 READING 384 0.969807
1412987548715 29301 FUNCTION lru lambda h: 0.532903 * (h ** 0.0528862)
1412987548715 29302 FUNCTION lru lambda h: 0.537602 * (h ** 0.047691)
1412987548715 29301 RECOMMEND 1380
1412987548715 29302 RECOMMEND 1380
1412987548954 29301 READING 377 0.980362
1412987550203 29302 READING 386 0.976695
1412987550378 29301 READING 375 0.979760
1412987550561 29301 READING 380 0.779030
1412987550581 29302 READING 387 0.883975
1412987550716 29301 READING 378 0.648424
1412987550716 29302 READING 384 0.731367
1412987550848 29301 READING 381 0.714106
1412987550850 29302 READING 389 0.711559
1412987550991 29302 READING 397 0.716229
1412987550991 29301 READING 390 0.739099
1412987551942 29302 READING 399 0.976256
1412987552400 29301 READING 392 0.985152
1412987553479 29302 READING 407 0.984961
1412987554126 29301 READING 397 0.983994
1412987555163 29302 READING 408 0.983138
1412987555932 29301 READING 399 0.985973
1412987556915 29302 READING 411 0.984788
1412987558340 29301 READING 400 0.776684
1412987558715 29301 FUNCTION lru lambda h: 0.493827 * (h ** 0.0716958)
1412987558716 29302 FUNCTION lru lambda h: 0.487461 * (h ** 0.0720336)
1412987558716 29301 RECOMMEND 1380
1412987558716 29302 RECOMMEND 1380
1412987558844 29302 READING 413 0.983091
1412987560081 29301 READING 435 0.996296
1412987560653 29302 READING 412 0.981737
1412987561777 29301 READING 436 0.991614
1412987562515 29302 READING 414 0.981875
1412987563360 29301 READING 439 0.990631
1412987564511 29302 READING 411 0.983283
1412987565100 29301 READING 443 0.989646
1412987566155 29302 READING 414 0.979517
1412987566920 29301 READING 444 0.988344
1412987567746 29302 READING 411 0.978017
1412987568686 29301 READING 440 0.985707
1412987568716 29301 FUNCTION lru lambda h: 0.453774 * (h ** 0.0916662)
1412987568716 29302 FUNCTION lru lambda h: 0.465988 * (h ** 0.0831255)
1412987568716 29301 RECOMMEND 1380
1412987568716 29302 RECOMMEND 1380
1412987570224 29302 READING 413 0.786815
1412987571028 29302 READING 440 0.984627
1412987571188 29302 READING 441 0.855678
1412987571190 29301 READING 443 0.984861
1412987571328 29302 READING 446 0.904533
1412987571635 29302 READING 444 0.967182
1412987571958 29301 READING 436 0.971307
1412987572110 29301 READING 439 0.806890
1412987572252 29301 READING 443 0.870145
1412987572514 29301 READING 447 0.955176
1412987573617 29302 READING 448 0.994442
1412987574702 29301 READING 452 0.989092
1412987575789 29302 READING 450 0.992107
1412987576938 29301 READING 455 0.991943
1412987577966 29302 READING 454 0.991146
1412987578716 29301 FUNCTION lru lambda h: 0.442828 * (h ** 0.0973584)
1412987578716 29302 FUNCTION lru lambda h: 0.433226 * (h ** 0.100577)
1412987578716 29301 RECOMMEND 1380
1412987578716 29302 RECOMMEND 1380
1412987579041 29301 READING 451 0.987894
1412987580303 29302 READING 455 0.989719
1412987581115 29301 READING 455 0.982999
1412987582741 29302 READING 454 0.988882
1412987583083 29301 READING 453 0.985413
1412987584932 29302 READING 456 0.987421
1412987585186 29301 READING 455 0.984823
1412987587123 29302 READING 454 0.986043
1412987587292 29301 READING 457 0.987767
1412987588716 29301 FUNCTION lru lambda h: 0.429496 * (h ** 0.104497)
1412987588716 29302 FUNCTION lru lambda h: 0.423956 * (h ** 0.105731)
1412987588716 29301 RECOMMEND 1380
1412987588716 29302 RECOMMEND 1380
1412987589358 29301 READING 458 0.986913
1412987589516 29302 READING 455 0.986750
1412987591977 29302 READING 456 0.988537
1412987592228 29301 READING 461 0.992906
1412987592355 29302 READING 458 0.948568
1412987592513 29302 READING 457 0.882524
1412987592675 29302 READING 460 0.859360
1412987593239 29301 READING 461 0.977205
1412987593410 29301 READING 461 0.833320
1412987593568 29301 READING 463 0.896043
1412987594430 29302 READING 467 0.988755
1412987594817 29301 READING 471 0.984282
1412987596665 29302 READING 469 0.991119
1412987597058 29301 READING 471 0.989970
1412987598705 29302 READING 470 0.986633
1412987598716 29301 FUNCTION lru lambda h: 0.4177 * (h ** 0.11095)
1412987598716 29302 FUNCTION lru lambda h: 0.406573 * (h ** 0.115634)
1412987598716 29301 RECOMMEND 1380
1412987598716 29302 RECOMMEND 1380
1412987599954 29301 READING 475 0.991029
1412987601164 29302 READING 473 0.990235
1412987602276 29301 READING 477 0.991653
1412987603531 29302 READING 471 0.990379
1412987604477 29301 READING 476 0.990961
1412987605607 29302 READING 474 0.985545
1412987606774 29301 READING 478 0.984423
1412987607956 29302 READING 475 0.986809
1412987608717 29301 FUNCTION lru lambda h: 0.404146 * (h ** 0.118518)
1412987608717 29302 FUNCTION lru lambda h: 0.394018 * (h ** 0.123005)
1412987608717 29301 RECOMMEND 1380
1412987608717 29302 RECOMMEND 1380
1412987609299 29301 READING 477 0.990478
1412987610195 29302 READING 476 0.983401
1412987611465 29301 READING 478 0.985115
1412987612122 29302 READING 479 0.991178
1412987612331 29302 READING 480 0.884283
1412987612506 29302 READING 480 0.886108
1412987613953 29302 READING 482 0.986155
1412987614359 29301 READING 480 0.992865
1412987614608 29301 READING 481 0.935422
1412987614793 29301 READING 480 0.866149
1412987616001 29301 READING 482 0.986964
1412987616571 29302 READING 490 0.991737
1412987618525 29301 READING 489 0.991315
1412987618717 29301 FUNCTION lru lambda h: 0.394776 * (h ** 0.12387)
1412987618717 29302 FUNCTION lru lambda h: 0.382858 * (h ** 0.129713)
1412987618717 29301 RECOMMEND 1380
1412987618717 29302 RECOMMEND 1380
1412987618903 29302 READING 491 0.989320
1412987621191 29301 READING 490 0.991748
1412987621518 29302 READING 491 0.989516
1412987623854 29301 READING 491 0.989949
1412987624306 29302 READING 494 0.988549
1412987626353 29301 READING 493 0.989377
1412987626736 29302 READING 493 0.987865
1412987628717 29301 FUNCTION lru lambda h: 0.387101 * (h ** 0.128323)
1412987628717 29302 FUNCTION lru lambda h: 0.376086 * (h ** 0.133841)
1412987628717 29301 RECOMMEND 1380
1412987628717 29302 RECOMMEND 1380
1412987628838 29301 READING 492 0.986244
1412987629116 29302 READING 495 0.986945
1412987631314 29301 READING 494 0.987424
1412987631918 29302 READING 498 0.992248
1412987632200 29302 READING 498 0.939138
1412987632387 29302 READING 498 0.896278
1412987633710 29302 READING 501 0.988447
1412987634518 29301 READING 496 0.995234
1412987635346 29301 READING 497 0.973853
1412987635541 29301 READING 496 0.890483
1412987636394 29301 READING 499 0.980996
1412987636562 29302 READING 508 0.990695
1412987638717 29301 FUNCTION lru lambda h: 0.377387 * (h ** 0.134069)
1412987638717 29302 FUNCTION lru lambda h: 0.369033 * (h ** 0.138193)
1412987638717 29301 RECOMMEND 1380
1412987638717 29302 RECOMMEND 1380
1412987639000 29301 READING 506 0.992407
1412987639358 29302 READING 509 0.990500
1412987641804 29302 READING 509 0.990455
1412987641901 29301 READING 507 0.992311
1412987644491 29302 READING 512 0.989863
1412987644801 29301 READING 507 0.991299
1412987647285 29302 READING 512 0.986823
1412987647764 29301 READING 509 0.988512
1412987648718 29301 FUNCTION lru lambda h: 0.371529 * (h ** 0.137573)
1412987648718 29302 FUNCTION lru lambda h: 0.365408 * (h ** 0.140445)
1412987648718 29301 RECOMMEND 1380
1412987648718 29302 RECOMMEND 1380
1412987650014 29302 READING 513 0.987811
1412987650645 29301 READING 509 0.987659
1412987651934 29302 READING 515 0.984700
1412987652138 29302 READING 516 0.901935
1412987652653 29302 READING 520 0.973341
1412987653325 29301 READING 510 0.984454
1412987655293 29302 READING 521 0.991798
1412987656305 29301 READING 512 0.991468
1412987656572 29301 READING 513 0.919635
1412987656774 29301 READING 512 0.908831
1412987658284 29302 READING 525 0.991563
1412987658718 29301 FUNCTION lru lambda h: 0.219896 * (h ** 0.228125)
1412987658718 29302 FUNCTION lru lambda h: 0.357395 * (h ** 0.145472)
1412987658718 29301 RECOMMEND 1380
1412987658718 29302 RECOMMEND 1380
1412987659023 29301 READING 515 0.990399
1412987661153 29302 READING 527 0.990144
1412987662090 29301 READING 521 0.992936
1412987664222 29302 READING 526 0.990232
1412987665053 29301 READING 523 0.992934
1412987667245 29302 READING 528 0.988444
1412987668231 29301 READING 523 0.993561
1412987668718 29301 FUNCTION lru lambda h: 0.0919383 * (h ** 0.376629)
1412987668718 29302 FUNCTION lru lambda h: 0.174994 * (h ** 0.267954)
1412987668718 29301 RECOMMEND 1380
1412987668718 29302 RECOMMEND 1380
1412987670594 29302 READING 530 0.989281
1412987671531 29301 READING 525 0.990628
1412987672145 29302 READING 530 0.985541
1412987672358 29302 READING 534 0.914309
1412987673733 29302 READING 536 0.989142
1412987674765 29301 READING 526 0.992382
1412987676951 29302 READING 542 0.993320
1412987678081 29301 READING 527 0.995405
1412987678366 29301 READING 528 0.923178
1412987678578 29301 READING 529 0.949970
1412987678718 29301 FUNCTION lru lambda h: 0.0518534 * (h ** 0.472719)
1412987678718 29302 FUNCTION lru lambda h: 0.0630073 * (h ** 0.439819)
1412987678718 29301 RECOMMEND 1380
1412987678718 29302 RECOMMEND 1380
1412987679874 29302 READING 543 0.991774
1412987681280 29301 READING 537 0.990835
1412987683153 29302 READING 543 0.993792
1412987684545 29301 READING 537 0.992875
1412987686202 29302 READING 545 0.989610
1412987687745 29301 READING 538 0.991387
1412987688718 29301 FUNCTION lru lambda h: 0.0252651 * (h ** 0.592232)
1412987688718 29302 FUNCTION lru lambda h: 0.0537967 * (h ** 0.46621)
1412987688719 29301 RECOMMEND 1380
1412987688719 29302 RECOMMEND 1380
1412987689071 29302 READING 543 0.988513
1412987690891 29301 READING 540 0.990279
1412987691504 29302 READING 545 0.992904
1412987691758 29302 READING 547 0.925098
1412987692529 29302 READING 548 0.978386
1412987694205 29301 READING 540 0.988807
1412987695831 29302 READING 555 0.993845
1412987698024 29301 READING 541 0.995066
1412987698719 29301 FUNCTION lru lambda h: 0.034717 * (h ** 0.539066)
1412987698719 29302 FUNCTION lru lambda h: 0.0420755 * (h ** 0.506582)
1412987698719 29301 RECOMMEND 1380
1412987698719 29302 RECOMMEND 1380
1412987699088 29301 READING 544 0.964224
1412987699098 29302 READING 556 0.991586
1412987699324 29301 READING 545 0.905170
1412987701917 29301 READING 550 0.990788
1412987702489 29302 READING 555 0.993913
1412987705337 29301 READING 552 0.991590
1412987705550 29302 READING 557 0.990274
1412987708621 29301 READING 554 0.991776
1412987708719 29301 FUNCTION lru lambda h: 0.0363194 * (h ** 0.530602)
1412987708719 29302 FUNCTION lru lambda h: 0.0215015 * (h ** 0.617273)
1412987708719 29301 RECOMMEND 1380
1412987708719 29302 RECOMMEND 1380
1412987708807 29302 READING 559 0.989950
1412987711140 29302 READING 559 0.991634
1412987711393 29302 READING 559 0.927460
1412987711813 29301 READING 556 0.988014
1412987712833 29302 READING 561 0.988945
1412987715242 29301 READING 556 0.990792
1412987716399 29302 READING 569 0.994061
1412987718719 29301 FUNCTION lru lambda h: 0.0291647 * (h ** 0.566479)
1412987718719 29302 FUNCTION lru lambda h: 0.0169598 * (h ** 0.655491)
1412987718719 29301 RECOMMEND 1380
1412987718719 29302 RECOMMEND 1380
1412987718977 29301 READING 558 0.994686
1412987719680 29302 READING 570 0.992081
1412987719860 29301 READING 559 0.976153
1412987720102 29301 READING 560 0.911361
1412987723285 29301 READING 565 0.993839
1412987723424 29302 READING 569 0.992476
1412987726533 29301 READING 567 0.993054
1412987726949 29302 READING 571 0.990360
1412987728719 29301 FUNCTION lru lambda h: 0.0352402 * (h ** 0.534364)
1412987728719 29302 FUNCTION lru lambda h: 0.0351309 * (h ** 0.53567)
1412987728719 29301 RECOMMEND 1380
1412987728719 29302 RECOMMEND 1380
1412987730147 29301 READING 569 0.992723
1412987730610 29302 READING 573 0.995438
1412987731437 29302 READING 574 0.973337
1412987731681 29302 READING 574 0.954923
1412987734041 29301 READING 571 0.991849
1412987735475 29302 READING 576 0.994142
1412987737667 29301 READING 571 0.990733
1412987738720 29301 FUNCTION lru lambda h: 0.0328783 * (h ** 0.545354)
1412987738720 29302 FUNCTION lru lambda h: 0.0233644 * (h ** 0.601648)
1412987738720 29301 RECOMMEND 1380
1412987738720 29302 RECOMMEND 1380
1412987739012 29302 READING 579 0.993205
1412987741061 29301 READING 572 0.994685
1412987741358 29301 READING 576 0.922317
1412987742678 29302 READING 580 0.992462
1412987742970 29301 READING 576 0.988336
1412987746002 29302 READING 580 0.989861
1412987746664 29301 READING 582 0.993252
1412987748720 29301 FUNCTION lru lambda h: 0.0269189 * (h ** 0.577238)
1412987748720 29302 FUNCTION lru lambda h: 0.0554568 * (h ** 0.460734)
1412987748720 29301 RECOMMEND 1380
1412987748720 29302 RECOMMEND 1380
1412987749286 29302 READING 581 0.989241
1412987750257 29301 READING 584 0.992110
1412987751402 29302 READING 584 0.989240
1412987751663 29302 READING 585 0.923383
1412987754054 29301 READING 583 0.990437
1412987754593 29302 READING 589 0.990388
1412987757662 29301 READING 585 0.989989
1412987758364 29302 READING 591 0.993589
1412987758720 29301 FUNCTION lru lambda h: 0.0209323 * (h ** 0.617359)
1412987758720 29302 FUNCTION lru lambda h: 0.066442 * (h ** 0.430735)
1412987758720 29301 RECOMMEND 1380
1412987758720 29302 RECOMMEND 1380
1412987761516 29301 READING 587 0.993674
1412987761881 29301 READING 588 0.942619
1412987762103 29302 READING 593 0.991660
1412987763213 29301 READING 588 0.987923
1412987765566 29302 READING 595 0.992246
1412987767261 29301 READING 591 0.994237
1412987768720 29301 FUNCTION lru lambda h: 0.0890024 * (h ** 0.383408)
1412987768720 29302 FUNCTION lru lambda h: 0.0706625 * (h ** 0.420585)
1412987768720 29301 RECOMMEND 1380
1412987768720 29302 RECOMMEND 1380
1412987769402 29302 READING 596 0.991103
1412987771099 29301 READING 592 0.992842
1412987771419 29302 READING 597 0.987918
1412987771690 29302 READING 600 0.913950
1412987774758 29302 READING 601 0.992017
1412987775006 29301 READING 594 0.990320
1412987778721 29301 FUNCTION lru lambda h: 0.107281 * (h ** 0.35323)
1412987778721 29302 FUNCTION lru lambda h: 0.143483 * (h ** 0.306115)
1412987778721 29301 RECOMMEND 1380
1412987778721 29302 RECOMMEND 1380
1412987778953 29302 READING 608 0.989346
1412987778969 29301 READING 594 0.989293
1412987782780 29301 READING 595 0.995870
1412987782871 29302 READING 609 0.992715
1412987783110 29301 READING 596 0.941878
1412987784961 29301 READING 598 0.991480
1412987786747 29302 READING 609 0.991626
1412987788721 29301 FUNCTION lru lambda h: 0.177725 * (h ** 0.271987)
1412987788721 29302 FUNCTION lru lambda h: 0.195531 * (h ** 0.256442)
1412987788721 29301 RECOMMEND 1380
1412987788721 29302 RECOMMEND 1380
1412987788808 29301 READING 605 0.993882
1412987790807 29302 READING 612 0.994193
1412987791589 29302 READING 612 0.970280
1412987791817 29302 DEATH 181
1412987792893 29301 READING 605 0.994632
1412987797301 29301 READING 604 0.994498
1412987798721 29301 FUNCTION lru lambda h: 0.357761 * (h ** 0.160031)
1412987798721 29301 RECOMMEND 2760
1412987801264 29301 READING 606 0.993252
1412987804092 29301 READING 607 0.993244
1412987804363 29301 READING 609 0.936954
1412987804447 29301 DEATH 182
