MemTotal:       16318588 kB
MemFree:        13831312 kB
Buffers:          634872 kB
Cached:           893076 kB
SwapCached:         1296 kB
Active:          1354756 kB
Inactive:         729196 kB
Active(anon):     555508 kB
Inactive(anon):     2044 kB
Active(file):     799248 kB
Inactive(file):   727152 kB
Unevictable:           0 kB
Mlocked:               0 kB
SwapTotal:      16728060 kB
SwapFree:       16726764 kB
Dirty:                52 kB
Writeback:             0 kB
AnonPages:        554728 kB
Mapped:            17256 kB
Shmem:              1552 kB
Slab:             271572 kB
SReclaimable:     253128 kB
SUnreclaim:        18444 kB
KernelStack:        1584 kB
PageTables:         4040 kB
NFS_Unstable:          0 kB
Bounce:                0 kB
WritebackTmp:          0 kB
CommitLimit:    24887352 kB
Committed_AS:     742948 kB
VmallocTotal:   34359738367 kB
VmallocUsed:      370636 kB
VmallocChunk:   34359363072 kB
HardwareCorrupted:     0 kB
AnonHugePages:    530432 kB
HugePages_Total:       0
HugePages_Free:        0
HugePages_Rsvd:        0
HugePages_Surp:        0
Hugepagesize:       2048 kB
DirectMap4k:       62400 kB
DirectMap2M:    16599040 kB
