1411566900684 0 TOTAL_MEM 1000
1411566920731 9464 CREATION
1411566920731 9464 READING 9 0.990355
1411566920731 9464 MINHEAP 2
1411566920760 9464 READING 9 0.949952
1411566920769 9464 READING 9 0.807602
1411566920778 9464 READING 9 0.720102
1411566920791 9464 READING 11 0.842037
1411566920802 9464 READING 11 0.811509
1411566920871 9464 READING 17 0.354193
1411566920894 9464 READING 27 0.740363
1411566920968 9464 READING 33 0.302501
1411566921004 9464 READING 48 0.748134
1411566921194 9464 READING 52 0.894413
1411566921220 9464 READING 48 0.893168
1411566921256 9464 READING 50 0.831954
1411566921351 9464 READING 50 0.330598
1411566921395 9464 READING 73 0.788860
1411566921427 9464 READING 77 0.820923
1411566921547 9464 READING 77 0.233962
1411566921594 9464 READING 105 0.676638
1411566921634 9464 READING 111 0.812969
1411566921688 9464 READING 112 0.700395
1411566921850 9464 READING 112 0.154004
1411566921896 9464 READING 150 0.631467
1411566921933 9464 READING 151 0.661977
1411566922015 9464 READING 157 0.774800
1411566922042 9464 READING 160 0.490359
1411566922076 9464 READING 166 0.430406
1411566922258 9464 READING 171 0.112514
1411566922284 9464 READING 169 0.476076
1411566922304 9464 READING 210 0.798627
1411566922330 9464 READING 211 0.861385
1411566922358 9464 READING 209 0.793229
1411566922386 9464 READING 211 0.810244
1411566922422 9464 READING 207 0.873103
1411566922444 9464 READING 162 0.775471
1411566922469 9464 READING 204 0.803801
1411566922498 9464 READING 164 0.820576
1411566922532 9464 READING 200 0.772073
1411566922569 9464 READING 203 0.853132
1411566922604 9464 READING 198 0.828089
1411566922638 9464 READING 200 0.808472
1411566922683 9464 READING 196 0.881175
1411566922725 9464 READING 198 0.794790
1411566922774 9464 READING 194 0.803297
1411566922816 9464 READING 196 0.830031
1411566922861 9464 READING 194 0.818450
1411566922913 9464 READING 195 0.808238
1411566922970 9464 READING 192 0.727109
1411566923035 9464 READING 195 0.667649
1411566923083 9464 READING 197 0.645221
1411566923140 9464 READING 206 0.558555
1411566923178 9464 READING 207 0.467246
1411566923219 9464 READING 217 0.390200
1411566923331 9464 READING 218 0.024947
1411566923335 9464 READING 200 0.804240
1411566923339 9464 READING 207 0.758237
1411566923344 9464 READING 115 0.727584
1411566923353 9464 READING 204 0.762176
1411566923359 9464 READING 117 0.640838
1411566923368 9464 READING 197 0.655204
1411566923377 9464 READING 118 0.668936
1411566923391 9464 READING 191 0.808225
1411566923404 9464 READING 118 0.815665
1411566923416 9464 READING 184 0.818667
1411566923425 9464 READING 119 0.691700
1411566923442 9464 READING 177 0.798126
1411566923457 9464 READING 124 0.764894
1411566923473 9464 READING 169 0.709855
1411566923493 9464 READING 130 0.724374
1411566923510 9464 READING 164 0.638781
1411566923526 9464 READING 136 0.563679
1411566923549 9464 READING 164 0.666980
1411566923565 9464 READING 136 0.534731
1411566923579 9464 READING 158 0.532534
1411566923808 9464 READING 129 0.074642
1411566923839 9464 READING 195 0.549044
1411566923856 9464 READING 196 0.821746
1411566923868 9464 READING 195 0.696402
1411566923883 9464 READING 163 0.652300
1411566923897 9464 READING 192 0.616961
1411566923918 9464 READING 166 0.720776
1411566923937 9464 READING 189 0.738837
1411566923950 9464 READING 191 0.610921
1411566923967 9464 READING 187 0.697936
1411566923985 9464 READING 189 0.703778
1411566924006 9464 READING 186 0.694432
1411566924029 9464 READING 187 0.793815
1411566924054 9464 READING 185 0.762279
1411566924086 9464 READING 186 0.826709
1411566924111 9464 READING 184 0.780315
1411566924138 9464 READING 186 0.754147
1411566924179 9464 READING 186 0.844757
1411566924216 9464 READING 186 0.869177
1411566924242 9464 READING 186 0.804848
1411566924279 9464 READING 187 0.867178
1411566924331 9464 READING 187 0.805682
1411566924391 9464 READING 188 0.674251
1411566924442 9464 READING 186 0.680935
1411566924554 9464 READING 192 0.295982
1411566924583 9464 READING 133 0.868321
1411566924616 9464 READING 139 0.795547
1411566924653 9464 READING 137 0.739805
1411566924695 9464 READING 139 0.660421
1411566924737 9464 READING 138 0.578750
1411566924778 9464 READING 143 0.556507
1411566924807 9464 READING 144 0.420715
1411566924841 9464 READING 152 0.360698
1411566924862 9464 READING 154 0.097752
1411566924881 9464 READING 161 0.126982
1411566924900 9464 READING 167 0.063331
1411566925115 9464 READING 124 0.004899
1411566925138 9464 READING 217 0.092460
1411566925145 9464 READING 219 0.328110
1411566925148 9464 READING 219 0.574909
1411566925152 9464 READING 220 0.517530
1411566925158 9464 READING 218 0.630973
1411566925169 9464 READING 147 0.794503
1411566925175 9464 READING 214 0.667430
1411566925185 9464 READING 147 0.736623
1411566925192 9464 READING 210 0.624781
1411566925206 9464 READING 148 0.385626
1411566925213 9464 READING 204 0.562158
1411566925227 9464 READING 148 0.407908
1411566925240 9464 READING 200 0.745702
1411566925249 9464 READING 149 0.631591
1411566925258 9464 READING 196 0.613069
1411566925273 9464 READING 150 0.452631
1411566925285 9464 READING 191 0.574364
1411566925300 9464 READING 152 0.658980
1411566925311 9464 READING 187 0.687133
1411566925322 9464 READING 153 0.708669
1411566925336 9464 READING 184 0.772093
1411566925345 9464 READING 154 0.639220
1411566925358 9464 READING 181 0.715494
1411566925369 9464 READING 156 0.691290
1411566925381 9464 READING 178 0.721769
1411566925391 9464 READING 180 0.678350
1411566925408 9464 READING 176 0.812212
1411566925424 9464 READING 178 0.803751
1411566925435 9464 READING 175 0.752226
1411566925452 9464 READING 177 0.810836
1411566925467 9464 READING 176 0.749967
1411566925483 9464 READING 177 0.758640
1411566925501 9464 READING 179 0.766839
1411566925519 9464 READING 179 0.764415
1411566925539 9464 READING 181 0.779330
1411566925561 9464 READING 181 0.733931
1411566925585 9464 READING 183 0.814841
1411566925628 9464 READING 183 0.780557
1411566925675 9464 READING 183 0.741747
1411566925767 9464 READING 185 0.381632
1411566925799 9464 READING 120 0.888178
1411566925833 9464 READING 127 0.794804
1411566925873 9464 READING 127 0.781166
1411566925917 9464 READING 127 0.679991
1411566925951 9464 READING 127 0.631700
1411566925993 9464 READING 134 0.552589
1411566926017 9464 READING 135 0.397587
1411566926045 9464 READING 143 0.335731
1411566926062 9464 READING 146 0.061548
1411566926239 9464 READING 152 0.006840
1411566926254 9464 READING 206 0.121712
1411566926260 9464 READING 209 0.441533
1411566926265 9464 READING 210 0.695694
1411566926271 9464 READING 139 0.674159
1411566926279 9464 READING 206 0.617508
1411566926286 9464 READING 139 0.710126
1411566926297 9464 READING 201 0.760628
1411566926306 9464 READING 140 0.740108
1411566926320 9464 READING 196 0.796920
1411566926334 9464 READING 140 0.741106
1411566926347 9464 READING 192 0.790579
1411566926360 9464 READING 142 0.774857
1411566926389 9464 READING 187 0.907317
1411566926397 9464 READING 142 0.620610
1411566926404 9464 READING 182 0.492072
1411566926411 9464 READING 142 0.461734
1411566926417 9464 READING 178 0.582028
1411566926431 9464 READING 143 0.805149
1411566926445 9464 READING 176 0.703765
1411566926453 9464 READING 144 0.625853
1411566926466 9464 READING 172 0.688720
1411566926479 9464 READING 145 0.783776
1411566926495 9464 READING 171 0.782721
1411566926510 9464 READING 147 0.738010
1411566926522 9464 READING 169 0.747298
1411566926536 9464 READING 148 0.736794
1411566926551 9464 READING 167 0.717594
1411566926565 9464 READING 168 0.757052
1411566926580 9464 READING 166 0.786966
1411566926696 9464 READING 167 0.074308
1411566926707 9464 READING 198 0.837927
1411566926719 9464 READING 199 0.778712
1411566926733 9464 READING 199 0.771540
1411566926752 9464 READING 200 0.810864
1411566926768 9464 READING 201 0.764278
1411566926784 9464 READING 202 0.756431
1411566926805 9464 READING 204 0.795679
1411566926826 9464 READING 205 0.762499
1411566926870 9464 READING 207 0.841488
1411566926922 9464 READING 208 0.740981
1411566926964 9464 READING 206 0.731840
1411566927012 9464 READING 214 0.633268
1411566927047 9464 READING 214 0.582780
1411566927086 9464 READING 222 0.588229
1411566927197 9464 READING 226 0.169974
1411566927220 9464 READING 161 0.894159
1411566927250 9464 READING 188 0.832297
1411566927281 9464 READING 189 0.817088
1411566927312 9464 READING 186 0.821759
1411566927344 9464 READING 187 0.805527
1411566927378 9464 READING 184 0.809023
1411566927411 9464 READING 154 0.795209
1411566927427 9464 READING 180 0.581832
1411566927445 9464 READING 183 0.532981
1411566927590 9464 READING 182 0.077806
1411566927605 9464 READING 240 0.843139
1411566927624 9464 READING 240 0.806383
1411566927641 9464 READING 241 0.800274
1411566927664 9464 READING 239 0.832149
1411566927685 9464 READING 241 0.782291
1411566927714 9464 READING 238 0.805319
1411566927742 9464 READING 240 0.801855
1411566927766 9464 READING 238 0.810472
1411566927798 9464 READING 239 0.841874
1411566927848 9464 READING 239 0.867050
1411566927916 9464 READING 240 0.797441
1411566927979 9464 READING 236 0.746077
1411566928047 9464 READING 243 0.669723
1411566928101 9464 READING 244 0.682842
1411566928161 9464 READING 253 0.568333
1411566928209 9464 READING 256 0.555685
1411566928361 9464 READING 264 0.157669
1411566928396 9464 READING 262 0.896128
1411566928437 9464 READING 263 0.850111
1411566928454 9464 READING 259 0.515155
1411566928468 9464 READING 261 0.726164
1411566928482 9464 READING 260 0.724140
1411566928496 9464 READING 262 0.737804
1411566928516 9464 READING 260 0.817252
1411566928536 9464 READING 261 0.818022
1411566928555 9464 READING 257 0.809235
1411566928578 9464 READING 259 0.841493
1411566928600 9464 READING 254 0.830147
1411566928624 9464 READING 257 0.836735
1411566928653 9464 READING 251 0.855687
1411566928677 9464 READING 254 0.817891
1411566928730 9464 READING 248 0.883158
1411566928795 9464 READING 251 0.827571
1411566928864 9464 READING 247 0.759920
1411566928944 9464 READING 252 0.665457
1411566928999 9464 READING 252 0.614676
1411566929151 9464 READING 266 0.228009
1411566929187 9464 READING 264 0.886427
1411566929230 9464 READING 195 0.843230
1411566929276 9464 READING 260 0.758523
1411566929294 9464 READING 205 0.484297
1411566929309 9464 READING 261 0.710397
1411566929329 9464 READING 262 0.790233
1411566929348 9464 READING 259 0.798241
1411566929370 9464 READING 261 0.819515
1411566929402 9464 READING 257 0.827147
1411566929429 9464 READING 260 0.850922
1411566929453 9464 READING 255 0.830532
1411566929477 9464 READING 257 0.827252
1411566929503 9464 READING 253 0.840899
1411566929551 9464 READING 255 0.904009
1411566929624 9464 READING 250 0.861240
1411566929709 9464 READING 253 0.789365
1411566929784 9464 READING 249 0.714398
1411566929869 9464 READING 259 0.620887
1411566930033 9464 READING 264 0.226984
1411566930075 9464 READING 297 0.891239
1411566930133 9464 READING 296 0.841495
1411566930154 9464 READING 299 0.732651
1411566930172 9464 READING 296 0.734536
1411566930193 9464 READING 298 0.780854
1411566930215 9464 READING 293 0.806882
1411566930241 9464 READING 296 0.834889
1411566930266 9464 READING 289 0.831053
1411566930291 9464 READING 293 0.832957
1411566930321 9464 READING 287 0.856446
1411566930359 9464 READING 290 0.848206
1411566930440 9464 READING 285 0.860083
1411566930533 9464 READING 288 0.824942
1411566930685 9464 FUNCTION lru lambda h: 0.0607786 * (h ** 0.442091)
1411566930717 9464 READING 292 0.435344
1411566930809 9464 READING 286 0.897231
1411566930870 9464 READING 291 0.779307
1411566930917 9464 READING 292 0.655086
1411566930960 9464 READING 295 0.832877
1411566931001 9464 READING 298 0.884906
1411566931045 9464 READING 298 0.893536
1411566931135 9464 READING 300 0.885916
1411566931281 9464 READING 302 0.845174
1411566931550 9464 READING 303 0.450126
1411566931622 9464 READING 366 0.878408
1411566931673 9464 READING 369 0.828270
1411566931734 9464 READING 366 0.841701
1411566931788 9464 READING 369 0.902823
1411566931957 9464 READING 371 0.886276
1411566932156 9464 READING 374 0.765606
1411566932258 9464 READING 365 0.672026
1411566932481 9464 READING 392 0.174263
1411566932537 9464 READING 443 0.918972
1411566932594 9464 READING 446 0.911667
1411566932757 9464 READING 447 0.891672
1411566932944 9464 READING 450 0.821064
1411566933200 9464 READING 455 0.346027
1411566933266 9464 READING 476 0.923252
1411566933355 9464 READING 476 0.940428
1411566933537 9464 READING 479 0.889143
1411566933770 9464 READING 483 0.830601
1411566933883 9464 READING 486 0.551120
1411566934142 9464 READING 518 0.267802
1411566934270 9464 READING 543 0.906407
1411566934509 9464 READING 543 0.858967
1411566934639 9464 READING 543 0.734285
1411566934866 9464 READING 542 0.305974
1411566934963 9464 READING 448 0.919786
1411566935204 9464 READING 559 0.878964
1411566935374 9464 READING 555 0.731105
1411566935595 9464 READING 558 0.299916
1411566935685 9464 READING 471 0.928127
1411566935922 9464 READING 579 0.881558
1411566936100 9464 READING 575 0.746397
1411566936184 9464 READING 581 0.787910
1411566936270 9464 READING 473 0.933438
1411566936506 9464 READING 577 0.883558
1411566936837 9464 READING 575 0.417511
1411566936910 9464 READING 609 0.925621
1411566936992 9464 READING 502 0.934232
1411566937235 9464 READING 607 0.884171
1411566937422 9464 READING 604 0.757919
1411566937535 9464 READING 605 0.591566
1411566937610 9464 READING 605 0.926721
1411566937840 9464 READING 605 0.885719
1411566938166 9464 READING 605 0.468156
1411566938233 9464 READING 625 0.917227
1411566938307 9464 READING 625 0.926108
1411566938496 9464 READING 625 0.887627
1411566938718 9464 READING 625 0.830075
1411566938807 9464 READING 625 0.703762
1411566938883 9464 READING 518 0.921662
1411566939052 9464 READING 628 0.894999
1411566939295 9464 READING 556 0.844781
1411566939535 9464 READING 615 0.254904
1411566939610 9464 READING 632 0.930920
1411566939763 9464 READING 630 0.912072
1411566940013 9464 READING 636 0.853354
1411566940139 9464 READING 633 0.725653
1411566940225 9464 READING 641 0.898805
1411566940410 9464 READING 634 0.898553
1411566940657 9464 READING 641 0.837510
1411566940685 9464 FUNCTION lru lambda h: 0.396297 * (h ** 0.0995726)
1411566940899 9464 READING 637 0.286575
1411566940983 9464 READING 658 0.939371
1411566941231 9464 READING 650 0.888061
1411566941431 9464 READING 655 0.788234
1411566941528 9464 READING 659 0.796315
1411566941652 9464 READING 557 0.914970
1411566941925 9464 READING 658 0.869249
1411566942201 9464 READING 653 0.361601
1411566942282 9464 READING 676 0.937849
1411566942466 9464 READING 574 0.895476
1411566942711 9464 READING 670 0.835558
1411566942814 9464 READING 669 0.709629
1411566942902 9464 READING 676 0.933779
1411566943151 9464 READING 576 0.885387
1411566943338 9464 READING 663 0.779431
1411566943571 9464 READING 671 0.301895
1411566943686 9464 READING 678 0.925250
1411566943950 9464 READING 683 0.873372
1411566944116 9464 READING 676 0.762806
1411566944206 9464 READING 686 0.849992
1411566944372 9464 READING 678 0.914379
1411566944641 9464 READING 684 0.854983
1411566944885 9464 READING 679 0.294378
1411566944970 9464 READING 707 0.939780
1411566945194 9464 READING 700 0.890689
1411566945409 9464 READING 704 0.810692
1411566945509 9464 READING 706 0.756901
1411566945628 9464 READING 609 0.920156
1411566945903 9464 READING 710 0.872368
1411566946048 9464 READING 688 0.726742
1411566946135 9464 READING 706 0.872641
1411566946318 9464 READING 602 0.896302
1411566946701 9464 READING 701 0.544825
1411566946779 9464 READING 710 0.922404
1411566946867 9464 READING 718 0.932517
1411566947100 9464 READING 617 0.891109
1411566947298 9464 READING 709 0.795520
1411566947395 9464 READING 713 0.771631
1411566947499 9464 READING 710 0.933248
1411566947755 9464 READING 714 0.877685
1411566947917 9464 READING 703 0.753006
1411566948008 9464 READING 713 0.831388
1411566948133 9464 READING 706 0.916254
1411566948393 9464 READING 711 0.863884
1411566948683 9464 READING 707 0.351528
1411566948770 9464 READING 738 0.940587
1411566948955 9464 READING 729 0.897496
1411566949201 9464 READING 736 0.836950
1411566949302 9464 READING 733 0.708946
1411566949391 9464 READING 740 0.934396
1411566949657 9464 READING 733 0.885898
1411566949833 9464 READING 712 0.765598
1411566949925 9464 READING 741 0.817724
1411566950068 9464 READING 638 0.905301
1411566950344 9464 READING 739 0.859641
1411566950602 9464 READING 733 0.304306
1411566950685 9464 FUNCTION lru lambda h: 0.772427 * (h ** 0.001)
1411566950685 9464 READING 764 0.941521
1411566950905 9464 READING 664 0.890803
1411566951117 9464 READING 756 0.808740
1411566951216 9464 READING 759 0.759214
1411566951328 9464 READING 759 0.933630
1411566951594 9464 READING 760 0.878096
1411566951749 9464 READING 747 0.739078
1411566951834 9464 READING 757 0.826134
1411566951961 9464 READING 750 0.908238
1411566952220 9464 READING 755 0.862951
1411566952497 9464 READING 752 0.347497
1411566952582 9464 READING 780 0.939575
1411566952767 9464 READING 772 0.895177
1411566953028 9464 READING 778 0.801836
1411566953138 9464 READING 775 0.734081
1411566953229 9464 READING 781 0.932421
1411566953494 9464 READING 774 0.883820
1411566953670 9464 READING 753 0.763860
1411566953760 9464 READING 782 0.814425
1411566953905 9464 READING 679 0.909068
1411566954178 9464 READING 779 0.860227
1411566954438 9464 READING 773 0.316475
1411566954526 9464 READING 803 0.941462
1411566954742 9464 READING 704 0.893519
1411566954974 9464 READING 795 0.816529
1411566955107 9464 READING 798 0.756885
1411566955250 9464 READING 799 0.951961
1411566955510 9464 READING 800 0.879629
1411566955665 9464 READING 786 0.739288
1411566955749 9464 READING 796 0.816920
1411566955874 9464 READING 789 0.913832
1411566956131 9464 READING 794 0.865239
1411566956412 9464 READING 791 0.361357
1411566956494 9464 READING 821 0.937803
1411566956678 9464 READING 812 0.895854
1411566956923 9464 READING 819 0.833388
1411566957027 9464 READING 816 0.710558
1411566957115 9464 READING 822 0.933622
1411566957376 9464 READING 816 0.887196
1411566957555 9464 READING 793 0.763819
1411566957647 9464 READING 824 0.811982
1411566957788 9464 READING 721 0.905650
1411566958065 9464 READING 823 0.860852
1411566958177 9464 READING 816 0.677830
1411566958264 9464 READING 823 0.919440
1411566958550 9464 READING 722 0.676499
1411566958750 9464 READING 775 0.893448
1411566958849 9464 READING 778 0.755742
1411566958952 9464 READING 778 0.930590
1411566959212 9464 READING 780 0.880276
1411566959373 9464 READING 767 0.749008
1411566959460 9464 READING 776 0.821286
1411566959582 9464 READING 770 0.914482
1411566959840 9464 READING 774 0.866772
1411566959978 9464 READING 770 0.726669
1411566960068 9464 READING 780 0.868925
1411566960244 9464 READING 773 0.895603
1411566960502 9464 READING 779 0.842974
1411566960685 9464 FUNCTION lru lambda h: 0.0832325 * (h ** 0.340901)
1411566960751 9464 READING 774 0.299178
1411566960838 9464 READING 863 0.942186
1411566961087 9464 READING 857 0.887239
1411566961274 9464 READING 830 0.777484
1411566961372 9464 READING 864 0.801759
1411566961505 9464 READING 762 0.911658
1411566961779 9464 READING 863 0.864112
1411566961902 9464 READING 857 0.695734
1411566961989 9464 READING 863 0.907704
1411566962187 9464 READING 762 0.891586
1411566962412 9464 READING 857 0.820955
1411566962512 9464 READING 858 0.729808
1411566962597 9464 READING 862 0.930577
1411566962859 9464 READING 763 0.879509
1411566963181 9464 READING 848 0.401172
1411566963258 9464 READING 883 0.924532
1411566963383 9464 READING 876 0.926997
1411566963641 9464 READING 881 0.872556
1411566963791 9464 READING 876 0.744532
1411566963882 9464 READING 886 0.853299
1411566964047 9464 READING 879 0.906087
1411566964312 9464 READING 884 0.852772
1411566964414 9464 READING 879 0.670915
1411566964503 9464 READING 889 0.929501
1411566964744 9464 READING 882 0.892117
1411566964947 9464 READING 886 0.790109
1411566965044 9464 READING 889 0.769654
1411566965165 9464 READING 789 0.913396
1411566965439 9464 READING 890 0.866673
1411566965720 9464 READING 868 0.346437
1411566965806 9464 READING 909 0.940061
1411566965997 9464 READING 806 0.897733
1411566966236 9464 READING 904 0.834835
1411566966333 9464 READING 903 0.701131
1411566966419 9464 READING 910 0.931375
1411566966658 9464 READING 809 0.885458
1411566966849 9464 READING 899 0.786385
1411566966941 9464 READING 905 0.774891
1411566967053 9464 READING 899 0.923772
1411566967315 9464 READING 904 0.874144
1411566967464 9464 READING 896 0.737369
1411566967551 9464 READING 905 0.833678
1411566967693 9464 READING 898 0.904859
1411566967958 9464 READING 903 0.857881
1411566968224 9464 READING 899 0.324598
1411566968310 9464 READING 928 0.940980
1411566968524 9464 READING 921 0.893965
1411566968750 9464 READING 926 0.816885
1411566968854 9464 READING 925 0.758915
1411566968966 9464 READING 928 0.929040
1411566969235 9464 READING 920 0.875459
1411566969388 9464 READING 904 0.742622
1411566969475 9464 READING 928 0.850917
1411566969635 9464 READING 825 0.896946
1411566969896 9464 READING 925 0.847382
1411566970002 9464 READING 920 0.681980
1411566970091 9464 READING 928 0.927091
1411566970321 9464 READING 828 0.887346
1411566970526 9464 READING 919 0.798391
1411566970685 9464 FUNCTION lru lambda h: 0.737231 * (h ** 0.0125806)
1411566970768 9464 READING 924 0.291366
1411566970871 9464 READING 943 0.930183
1411566971131 9464 READING 946 0.877444
1411566971301 9464 READING 934 0.739190
1411566971409 9464 READING 944 0.856243
1411566971569 9464 READING 937 0.908921
1411566971829 9464 READING 942 0.865836
1411566971962 9464 READING 938 0.719249
1411566972051 9464 READING 948 0.884402
1411566972235 9464 READING 940 0.894578
1411566972478 9464 READING 946 0.830880
1411566972582 9464 READING 944 0.713498
1411566972671 9464 READING 950 0.931617
1411566972933 9464 READING 943 0.884327
1411566973114 9464 READING 920 0.769230
1411566973206 9464 READING 951 0.809333
1411566973345 9464 READING 848 0.901251
1411566973736 9464 READING 950 0.604113
1411566973832 9464 READING 943 0.922258
1411566973924 9464 READING 950 0.922364
1411566974139 9464 READING 850 0.892395
1411566974357 9464 READING 942 0.814208
1411566974453 9464 READING 945 0.742542
1411566974552 9464 READING 947 0.933166
1411566974816 9464 READING 948 0.879862
1411566974976 9464 READING 934 0.745144
1411566975064 9464 READING 944 0.822512
1411566975185 9464 READING 937 0.911750
1411566975442 9464 READING 942 0.865328
1411566975581 9464 READING 939 0.734775
1411566975668 9464 READING 948 0.868952
1411566975853 9464 READING 941 0.897992
1411566976100 9464 READING 947 0.838706
1411566976203 9464 READING 943 0.700546
1411566976291 9464 READING 950 0.927774
1411566976552 9464 READING 944 0.884928
1411566976876 9464 READING 921 0.418478
1411566976955 9464 READING 951 0.936318
1411566977102 9464 READING 848 0.913206
1411566977378 9464 READING 950 0.861895
1411566977497 9464 READING 944 0.693422
1411566977583 9464 READING 950 0.922165
1411566977804 9464 READING 850 0.892776
1411566978014 9464 READING 943 0.807082
1411566978113 9464 READING 946 0.748770
1411566978217 9464 READING 947 0.928285
1411566978479 9464 READING 948 0.879642
1411566978637 9464 READING 934 0.742822
1411566978722 9464 READING 944 0.818449
1411566978837 9464 READING 937 0.895779
1411566979095 9464 READING 942 0.864388
1411566979234 9464 READING 938 0.729951
1411566979325 9464 READING 948 0.867296
1411566979508 9464 READING 939 0.900575
1411566979895 9464 READING 946 0.556101
1411566979975 9464 READING 942 0.923680
1411566980062 9464 READING 950 0.933988
1411566980321 9464 READING 944 0.889995
1411566980510 9464 READING 918 0.780690
1411566980603 9464 READING 951 0.798455
1411566980686 9464 FUNCTION lru lambda h: 0.571359 * (h ** 0.0495516)
1411566980745 9464 READING 849 0.912301
1411566981021 9464 READING 950 0.862914
1411566981141 9464 READING 944 0.693297
1411566981228 9464 READING 950 0.910879
1411566981433 9464 READING 849 0.892050
1411566981662 9464 READING 944 0.820217
1411566981763 9464 READING 945 0.739777
1411566981851 9464 READING 949 0.934596
1411566982114 9464 READING 850 0.882880
1411566982282 9464 READING 934 0.752954
1411566982370 9464 READING 943 0.804970
1411566982482 9464 READING 937 0.912000
1411566982740 9464 READING 941 0.869964
1411566983035 9464 READING 938 0.381402
1411566983118 9464 READING 947 0.937149
1411566983279 9464 READING 940 0.905367
1411566983549 9464 READING 945 0.856278
1411566983651 9464 READING 939 0.665836
1411566983743 9464 READING 950 0.934113
1411566983985 9464 READING 944 0.888985
1411566984188 9464 READING 948 0.786628
1411566984284 9464 READING 950 0.771865
1411566984409 9464 READING 850 0.914075
1411566984683 9464 READING 951 0.867701
1411566984815 9464 READING 929 0.708474
1411566984902 9464 READING 950 0.889528
1411566985093 9464 READING 847 0.890325
1411566985329 9464 READING 944 0.829298
1411566985429 9464 READING 944 0.715374
1411566985519 9464 READING 950 0.929878
1411566985767 9464 READING 849 0.884831
1411566986092 9464 READING 938 0.436094
1411566986170 9464 READING 945 0.930343
1411566986278 9464 READING 939 0.918545
1411566986539 9464 READING 943 0.873718
1411566986695 9464 READING 936 0.755884
1411566986782 9464 READING 946 0.843158
1411566986936 9464 READING 939 0.909793
1411566987203 9464 READING 944 0.857826
1411566987315 9464 READING 940 0.689826
1411566987400 9464 READING 950 0.921799
1411566987626 9464 READING 944 0.890423
1411566987839 9464 READING 948 0.802820
1411566987940 9464 READING 949 0.766562
1411566988065 9464 READING 852 0.915816
1411566988345 9464 READING 953 0.870928
1411566988478 9464 READING 931 0.712721
1411566988563 9464 READING 949 0.879609
1411566988750 9464 READING 846 0.893959
1411566989125 9464 READING 944 0.540334
1411566989203 9464 READING 943 0.921145
1411566989291 9464 READING 949 0.931884
1411566989531 9464 READING 848 0.888728
1411566989725 9464 READING 939 0.790391
1411566989818 9464 READING 945 0.772369
1411566989918 9464 READING 940 0.926012
1411566990172 9464 READING 944 0.877414
1411566990332 9464 READING 935 0.754187
1411566990420 9464 READING 945 0.829413
1411566990553 9464 READING 938 0.913616
1411566990686 9464 FUNCTION lru lambda h: 0.62931 * (h ** 0.0362516)
1411566990818 9464 READING 943 0.862974
1411566990946 9464 READING 938 0.708326
1411566991034 9464 READING 949 0.888293
1411566991228 9464 READING 940 0.893830
1411566991474 9464 READING 946 0.830932
1411566991577 9464 READING 944 0.722174
1411566991675 9464 READING 950 0.931119
1411566991939 9464 READING 944 0.881203
1411566992254 9464 READING 924 0.410899
1411566992338 9464 READING 951 0.937724
1411566992483 9464 READING 847 0.903717
1411566992756 9464 READING 948 0.860278
1411566992870 9464 READING 942 0.691277
1411566992962 9464 READING 951 0.930349
1411566993185 9464 READING 852 0.888327
1411566993387 9464 READING 942 0.800181
1411566993482 9464 READING 946 0.757135
1411566993586 9464 READING 944 0.922344
1411566993851 9464 READING 947 0.876550
1411566994001 9464 READING 934 0.737294
1411566994087 9464 READING 944 0.830064
1411566994218 9464 READING 937 0.907863
1411566994477 9464 READING 942 0.862557
1411566994605 9464 READING 939 0.716136
1411566994691 9464 READING 949 0.886997
1411566994887 9464 READING 941 0.895789
1411566995259 9464 READING 947 0.530689
1411566995338 9464 READING 945 0.928607
1411566995425 9464 READING 950 0.934306
1411566995691 9464 READING 944 0.882478
1411566995859 9464 READING 924 0.755242
1411566995950 9464 READING 951 0.822677
1411566996097 9464 READING 847 0.905672
1411566996373 9464 READING 948 0.862128
1411566996484 9464 READING 942 0.683589
1411566996571 9464 READING 951 0.927289
1411566996791 9464 READING 851 0.888765
1411566997001 9464 READING 943 0.805525
1411566997100 9464 READING 947 0.758615
1411566997204 9464 READING 946 0.922056
1411566997467 9464 READING 947 0.874881
1411566997620 9464 READING 934 0.740167
1411566997707 9464 READING 944 0.831411
1411566997839 9464 READING 937 0.908153
1411566998211 9464 READING 942 0.601520
1411566998315 9464 READING 939 0.905076
1411566998403 9464 READING 949 0.889291
1411566998600 9464 READING 941 0.897858
1411566998837 9464 READING 947 0.829164
1411566998938 9464 READING 945 0.728201
1411566999032 9464 READING 950 0.912930
1411566999300 9464 READING 942 0.880243
1411566999469 9464 READING 924 0.760472
1411566999560 9464 READING 951 0.833208
1411566999708 9464 READING 846 0.903701
1411566999982 9464 READING 949 0.860194
1411567000091 9464 READING 942 0.682637
1411567000179 9464 READING 951 0.926017
1411567000403 9464 READING 852 0.888479
1411567000609 9464 READING 943 0.801885
1411567000692 9464 FUNCTION lru lambda h: 0.328615 * (h ** 0.133517)
1411567000708 9464 READING 947 0.758378
1411567000815 9464 READING 945 0.924777
1411567001076 9464 READING 947 0.874114
1411567001369 9464 READING 934 0.385564
1411567001443 9464 READING 944 0.930546
1411567001581 9464 READING 938 0.915564
1411567001842 9464 READING 943 0.864329
1411567001970 9464 READING 939 0.717207
1411567002058 9464 READING 949 0.889868
1411567002254 9464 READING 941 0.897804
1411567002493 9464 READING 947 0.831536
1411567002593 9464 READING 945 0.713070
1411567002682 9464 READING 950 0.932645
1411567002950 9464 READING 943 0.883950
1411567003123 9464 READING 923 0.758672
1411567003213 9464 READING 951 0.818024
1411567003357 9464 READING 847 0.902527
1411567003630 9464 READING 948 0.859199
1411567003737 9464 READING 942 0.661446
1411567003823 9464 READING 951 0.921461
1411567004046 9464 READING 852 0.888651
1411567004393 9464 READING 942 0.479165
1411567004471 9464 READING 946 0.928288
1411567004576 9464 READING 946 0.927371
1411567004842 9464 READING 948 0.878658
1411567004993 9464 READING 934 0.739804
1411567005079 9464 READING 944 0.830920
1411567005205 9464 READING 937 0.909736
1411567005466 9464 READING 942 0.864502
1411567005597 9464 READING 939 0.720183
1411567005687 9464 READING 949 0.885992
1411567005877 9464 READING 941 0.895113
1411567006117 9464 READING 947 0.829143
1411567006218 9464 READING 944 0.710745
1411567006310 9464 READING 950 0.932335
1411567006574 9464 READING 944 0.881798
1411567006746 9464 READING 924 0.759066
1411567006836 9464 READING 951 0.820313
1411567006981 9464 READING 847 0.902851
1411567007369 9464 READING 948 0.605741
1411567007455 9464 READING 942 0.919835
1411567007543 9464 READING 951 0.928000
1411567007764 9464 READING 852 0.888642
1411567007974 9464 READING 943 0.802313
1411567008073 9464 READING 947 0.753763
1411567008175 9464 READING 946 0.922501
1411567008442 9464 READING 947 0.877622
1411567008598 9464 READING 934 0.743888
1411567008683 9464 READING 944 0.830027
1411567008819 9464 READING 937 0.911921
1411567009078 9464 READING 942 0.860437
1411567009209 9464 READING 939 0.723339
1411567009298 9464 READING 949 0.890945
1411567009499 9464 READING 941 0.892560
1411567009734 9464 READING 947 0.824401
1411567009836 9464 READING 946 0.727782
1411567009932 9464 READING 950 0.909784
1411567010198 9464 READING 943 0.879824
1411567010505 9464 READING 925 0.411229
1411567010586 9464 READING 951 0.935319
1411567010693 9464 FUNCTION lru lambda h: 0.368402 * (h ** 0.115891)
1411567010744 9464 READING 846 0.910226
1411567011016 9464 READING 948 0.857639
1411567011123 9464 READING 942 0.677182
1411567011211 9464 READING 951 0.928880
1411567011438 9464 READING 851 0.890172
1411567011646 9464 READING 943 0.801495
1411567011741 9464 READING 947 0.751319
1411567011849 9464 READING 945 0.924457
1411567012115 9464 READING 947 0.876387
1411567012268 9464 READING 934 0.742092
1411567012355 9464 READING 944 0.835863
1411567012490 9464 READING 937 0.911353
1411567012751 9464 READING 942 0.861994
1411567012879 9464 READING 939 0.708038
1411567012966 9464 READING 949 0.886776
1411567013167 9464 READING 941 0.895462
1411567013536 9464 READING 947 0.524779
1411567013614 9464 READING 945 0.926634
1411567013708 9464 READING 950 0.917414
1411567013973 9464 READING 943 0.880201
1411567014142 9464 READING 925 0.755233
1411567014231 9464 READING 951 0.826261
1411567014378 9464 READING 846 0.903094
1411567014651 9464 READING 948 0.857543
1411567014760 9464 READING 942 0.675334
1411567014850 9464 READING 951 0.929842
1411567015078 9464 READING 851 0.890830
1411567015286 9464 READING 943 0.800673
1411567015384 9464 READING 947 0.759445
1411567015486 9464 READING 945 0.920422
1411567015752 9464 READING 947 0.876690
1411567015910 9464 READING 934 0.748693
1411567015995 9464 READING 944 0.828068
1411567016135 9464 READING 937 0.914906
1411567016505 9464 READING 942 0.609877
1411567016615 9464 READING 939 0.905735
1411567016703 9464 READING 949 0.881517
1411567016894 9464 READING 941 0.895976
1411567017135 9464 READING 947 0.832646
1411567017237 9464 READING 944 0.720592
1411567017332 9464 READING 950 0.936175
1411567017596 9464 READING 943 0.883233
1411567017767 9464 READING 923 0.750458
1411567017858 9464 READING 951 0.817191
1411567017997 9464 READING 847 0.905670
1411567018270 9464 READING 948 0.860596
1411567018391 9464 READING 942 0.703295
1411567018480 9464 READING 951 0.919083
1411567018696 9464 READING 851 0.890017
1411567018910 9464 READING 943 0.807831
1411567019010 9464 READING 946 0.747276
1411567019110 9464 READING 947 0.923078
1411567019376 9464 READING 948 0.876030
1411567019676 9464 READING 935 0.389180
1411567019754 9464 READING 944 0.933158
1411567019880 9464 READING 937 0.911264
1411567020140 9464 READING 942 0.863920
1411567020273 9464 READING 938 0.720765
1411567020360 9464 READING 948 0.881850
1411567020549 9464 READING 940 0.898178
1411567020693 9464 FUNCTION lru lambda h: 0.316465 * (h ** 0.138627)
1411567020790 9464 READING 946 0.828970
1411567020895 9464 READING 944 0.713976
1411567020980 9464 READING 950 0.930371
1411567021244 9464 READING 944 0.884265
1411567021420 9464 READING 923 0.752586
1411567021512 9464 READING 951 0.813460
1411567021655 9464 READING 848 0.902221
1411567021931 9464 READING 949 0.860521
1411567022042 9464 READING 942 0.676406
1411567022127 9464 READING 951 0.919926
1411567022355 9464 READING 851 0.890208
1411567022703 9464 READING 943 0.488460
1411567022782 9464 READING 947 0.928601
1411567022883 9464 READING 946 0.929276
1411567023144 9464 READING 947 0.877538
1411567023300 9464 READING 934 0.746595
1411567023385 9464 READING 944 0.826259
1411567023516 9464 READING 937 0.909549
1411567023777 9464 READING 942 0.863308
1411567023905 9464 READING 939 0.715714
1411567023994 9464 READING 949 0.890368
1411567024197 9464 READING 941 0.898956
1411567024437 9464 READING 947 0.831019
1411567024536 9464 READING 945 0.721250
1411567024635 9464 READING 950 0.931877
1411567024901 9464 READING 943 0.878694
1411567025070 9464 READING 925 0.752334
1411567025165 9464 READING 951 0.828722
1411567025316 9464 READING 847 0.901606
1411567025724 9464 READING 949 0.580841
1411567025803 9464 READING 942 0.915908
1411567025891 9464 READING 951 0.929089
1411567026120 9464 READING 851 0.891769
1411567026322 9464 READING 942 0.796634
1411567026417 9464 READING 947 0.760229
1411567026520 9464 READING 944 0.926487
1411567026785 9464 READING 947 0.878526
1411567026936 9464 READING 934 0.739351
1411567027023 9464 READING 944 0.832983
1411567027153 9464 READING 938 0.906616
1411567027417 9464 READING 943 0.864359
1411567027544 9464 READING 939 0.717615
1411567027630 9464 READING 949 0.888500
1411567027824 9464 READING 941 0.894046
1411567028060 9464 READING 947 0.827606
1411567028165 9464 READING 945 0.731407
1411567028253 9464 READING 950 0.929716
1411567028519 9464 READING 943 0.880627
1411567028827 9464 READING 923 0.421572
1411567028910 9464 READING 951 0.933155
1411567029057 9464 READING 847 0.908407
1411567029329 9464 READING 948 0.860237
1411567029439 9464 READING 942 0.685105
1411567029527 9464 READING 951 0.926631
1411567029751 9464 READING 851 0.890494
1411567029962 9464 READING 943 0.805486
1411567030061 9464 READING 947 0.757339
1411567030170 9464 READING 946 0.928195
1411567030432 9464 READING 947 0.876918
1411567030584 9464 READING 934 0.739595
1411567030671 9464 READING 944 0.832320
1411567030693 9464 FUNCTION lru lambda h: 0.439014 * (h ** 0.0896684)
1411567030803 9464 READING 937 0.907568
1411567031062 9464 READING 942 0.862144
1411567031193 9464 READING 939 0.720256
1411567031283 9464 READING 949 0.884967
1411567031485 9464 READING 941 0.896091
1411567031854 9464 READING 947 0.530002
1411567031934 9464 READING 945 0.927983
1411567032034 9464 READING 950 0.933953
1411567032303 9464 READING 942 0.882027
1411567032469 9464 READING 924 0.755950
1411567032560 9464 READING 951 0.829023
1411567032709 9464 READING 847 0.907958
1411567032982 9464 READING 949 0.859249
1411567033095 9464 READING 942 0.688122
1411567033183 9464 READING 951 0.927617
1411567033407 9464 READING 852 0.886614
1411567033614 9464 READING 942 0.800429
1411567033712 9464 READING 947 0.764342
1411567033822 9464 READING 943 0.923527
1411567034085 9464 READING 946 0.874733
1411567034237 9464 READING 934 0.735039
1411567034323 9464 READING 944 0.830250
1411567034458 9464 READING 937 0.909917
1411567034827 9464 READING 942 0.610857
1411567034935 9464 READING 939 0.904596
1411567035023 9464 READING 949 0.880612
1411567035214 9464 READING 941 0.895955
1411567035453 9464 READING 947 0.830796
1411567035557 9464 READING 945 0.729592
1411567035649 9464 READING 950 0.934980
1411567035912 9464 READING 943 0.882062
1411567036082 9464 READING 923 0.756184
1411567036172 9464 READING 951 0.821306
1411567036321 9464 READING 847 0.906678
1411567036595 9464 READING 948 0.858333
1411567036702 9464 READING 942 0.668458
1411567036791 9464 READING 951 0.925471
1411567037019 9464 READING 851 0.889679
1411567037226 9464 READING 942 0.800201
1411567037324 9464 READING 946 0.757362
1411567037430 9464 READING 944 0.922177
1411567037696 9464 READING 947 0.876744
1411567037989 9464 READING 934 0.383292
1411567038066 9464 READING 944 0.932314
1411567038194 9464 READING 937 0.908547
1411567038454 9464 READING 942 0.862332
1411567038585 9464 READING 939 0.720712
1411567038674 9464 READING 949 0.891462
1411567038869 9464 READING 941 0.895848
1411567039110 9464 READING 947 0.829493
1411567039209 9464 READING 945 0.721896
1411567039312 9464 READING 950 0.919133
1411567039577 9464 READING 943 0.879096
1411567039746 9464 READING 925 0.755665
1411567039837 9464 READING 951 0.822210
1411567039987 9464 READING 846 0.903701
1411567040264 9464 READING 949 0.857482
1411567040370 9464 READING 942 0.667273
1411567040459 9464 READING 951 0.927220
1411567040687 9464 READING 852 0.888932
1411567040693 9464 FUNCTION lru lambda h: 0.462165 * (h ** 0.0820046)
1411567041030 9464 READING 943 0.482828
1411567041110 9464 READING 947 0.929534
1411567041213 9464 READING 945 0.921246
1411567041480 9464 READING 947 0.878124
1411567041632 9464 READING 934 0.739309
1411567041718 9464 READING 944 0.834211
1411567041854 9464 READING 937 0.912436
1411567042114 9464 READING 942 0.862738
1411567042241 9464 READING 939 0.713292
1411567042330 9464 READING 949 0.891101
1411567042530 9464 READING 941 0.898730
1411567042773 9464 READING 947 0.832960
1411567042873 9464 READING 945 0.712975
1411567042967 9464 READING 950 0.922604
1411567043229 9464 READING 943 0.879698
1411567043398 9464 READING 924 0.753799
1411567043488 9464 READING 951 0.821218
1411567043640 9464 READING 847 0.904932
1411567044033 9464 READING 949 0.603196
1411567044112 9464 READING 942 0.917034
1411567044199 9464 READING 951 0.928741
1411567044421 9464 READING 851 0.890433
1411567044630 9464 READING 943 0.800842
1411567044729 9464 READING 947 0.752673
1411567044832 9464 READING 946 0.924159
1411567045096 9464 READING 948 0.876400
1411567045244 9464 READING 934 0.733544
1411567045328 9464 READING 944 0.831200
1411567045456 9464 READING 937 0.907757
1411567045715 9464 READING 942 0.862326
1411567045846 9464 READING 938 0.716953
1411567045932 9464 READING 948 0.882136
1411567046126 9464 READING 940 0.896047
1411567046363 9464 READING 946 0.828897
1411567046463 9464 READING 945 0.707924
1411567046550 9464 READING 950 0.929845
1411567046815 9464 READING 943 0.882677
1411567047132 9464 READING 922 0.422158
1411567047211 9464 READING 951 0.934656
1411567047356 9464 READING 848 0.908806
1411567047630 9464 READING 949 0.861635
1411567047748 9464 READING 942 0.700098
1411567047835 9464 READING 951 0.926946
1411567048054 9464 READING 851 0.890358
1411567048264 9464 READING 943 0.804554
1411567048361 9464 READING 946 0.744612
1411567048461 9464 READING 946 0.924527
1411567048727 9464 READING 947 0.877735
1411567048881 9464 READING 935 0.738611
1411567048968 9464 READING 944 0.822603
1411567049099 9464 READING 937 0.910234
1411567049360 9464 READING 942 0.863821
1411567049495 9464 READING 938 0.716557
1411567049582 9464 READING 948 0.879112
1411567049771 9464 READING 940 0.895504
1411567050150 9464 READING 946 0.534943
1411567050228 9464 READING 944 0.923690
1411567050318 9464 READING 950 0.936204
1411567050583 9464 READING 944 0.885974
1411567050693 9464 FUNCTION lru lambda h: 0.795916 * (h ** 0.001)
1411567050756 9464 READING 922 0.757470
1411567050854 9464 READING 951 0.825562
1411567051001 9464 READING 848 0.909721
1411567051274 9464 READING 949 0.861577
1411567051388 9464 READING 942 0.685656
1411567051475 9464 READING 950 0.923565
1411567051694 9464 READING 851 0.893747
1411567051910 9464 READING 943 0.810115
1411567052005 9464 READING 946 0.741833
1411567052100 9464 READING 947 0.913964
1411567052362 9464 READING 948 0.878650
1411567052522 9464 READING 934 0.744203
1411567052608 9464 READING 944 0.814247
1411567052730 9464 READING 937 0.912894
1411567053095 9464 READING 942 0.615595
1411567053212 9464 READING 939 0.901132
1411567053304 9464 READING 948 0.875097
1411567053482 9464 READING 940 0.896487
1411567053732 9464 READING 946 0.841953
1411567053834 9464 READING 943 0.708680
1411567053922 9464 READING 950 0.933103
1411567054181 9464 READING 944 0.887282
1411567054362 9464 READING 920 0.772011
1411567054454 9464 READING 951 0.810767
1411567054598 9464 READING 848 0.911818
1411567054871 9464 READING 949 0.862350
1411567054989 9464 READING 943 0.692488
1411567055076 9464 READING 950 0.913516
1411567055283 9464 READING 850 0.890589
1411567055505 9464 READING 943 0.816890
1411567055602 9464 READING 945 0.736300
1411567055702 9464 READING 949 0.928398
1411567055962 9464 READING 853 0.877879
1411567056261 9464 READING 933 0.409304
1411567056338 9464 READING 943 0.930594
1411567056457 9464 READING 937 0.919297
1411567056713 9464 READING 941 0.869263
1411567056855 9464 READING 938 0.738557
1411567056942 9464 READING 948 0.859787
1411567057115 9464 READING 940 0.900191
1411567057368 9464 READING 946 0.842820
1411567057470 9464 READING 941 0.688248
1411567057559 9464 READING 950 0.932163
1411567057812 9464 READING 944 0.888397
1411567057998 9464 READING 917 0.777416
1411567058096 9464 READING 951 0.803389
1411567058235 9464 READING 849 0.910532
1411567058512 9464 READING 951 0.864188
1411567058632 9464 READING 945 0.694687
1411567058720 9464 READING 950 0.911583
1411567058921 9464 READING 848 0.890828
1411567059283 9464 READING 944 0.517217
1411567059362 9464 READING 945 0.926951
1411567059448 9464 READING 949 0.934406
1411567059710 9464 READING 851 0.884321
1411567059878 9464 READING 934 0.754417
1411567059965 9464 READING 943 0.811803
1411567060071 9464 READING 937 0.918210
1411567060326 9464 READING 941 0.873342
1411567060479 9464 READING 937 0.751414
1411567060567 9464 READING 947 0.840991
1411567060693 9464 FUNCTION lru lambda h: 2.47347 * (h ** 0.001)
1411567060721 9464 READING 940 0.902523
1411567060989 9464 READING 945 0.858033
1411567061095 9464 READING 940 0.676595
1411567061183 9464 READING 950 0.926060
1411567061425 9464 READING 944 0.890423
1411567061630 9464 READING 948 0.795949
1411567061731 9464 READING 950 0.774828
1411567061859 9464 READING 851 0.915188
1411567062248 9464 READING 952 0.617360
1411567062363 9464 READING 930 0.911674
1411567062448 9464 READING 949 0.884635
1411567062645 9464 READING 846 0.898574
1411567062881 9464 READING 943 0.830549
1411567062978 9464 READING 943 0.705115
1411567063066 9464 READING 950 0.934323
1411567063318 9464 READING 849 0.888536
1411567063502 9464 READING 938 0.776157
1411567063592 9464 READING 945 0.781629
1411567063701 9464 READING 938 0.916772
1411567063958 9464 READING 943 0.871713
1411567064120 9464 READING 936 0.754772
1411567064207 9464 READING 946 0.835999
1411567064355 9464 READING 939 0.907005
1411567064622 9464 READING 944 0.857950
1411567064736 9464 READING 940 0.688682
1411567064824 9464 READING 950 0.916905
1411567065051 9464 READING 944 0.890441
1411567065401 9464 READING 948 0.479182
1411567065482 9464 READING 950 0.931970
1411567065611 9464 READING 853 0.919332
1411567065891 9464 READING 954 0.870717
1411567066023 9464 READING 933 0.708423
1411567066110 9464 READING 949 0.892057
1411567066294 9464 READING 845 0.893492
1411567066532 9464 READING 944 0.834385
1411567066629 9464 READING 943 0.702314
1411567066715 9464 READING 949 0.929758
1411567066960 9464 READING 848 0.887638
1411567067151 9464 READING 939 0.778555
1411567067245 9464 READING 945 0.779162
1411567067349 9464 READING 939 0.921363
1411567067610 9464 READING 944 0.861516
1411567067768 9464 READING 935 0.746465
1411567067853 9464 READING 945 0.822236
1411567067990 9464 READING 938 0.910776
1411567068363 9464 READING 943 0.605352
1411567068475 9464 READING 939 0.911135
1411567068566 9464 READING 949 0.898827
1411567068775 9464 READING 941 0.899659
1411567069006 9464 READING 947 0.824211
1411567069107 9464 READING 946 0.736419
1411567069213 9464 READING 950 0.930216
1411567069481 9464 READING 942 0.878048
1411567069641 9464 READING 925 0.748014
1411567069728 9464 READING 951 0.836330
1411567069886 9464 READING 847 0.900263
1411567070152 9464 READING 948 0.853686
1411567070253 9464 READING 942 0.668984
1411567070339 9464 READING 950 0.925978
1411567070567 9464 READING 850 0.887213
1411567070693 9464 FUNCTION lru lambda h: 1.67848 * (h ** 0.001)
1411567070770 9464 READING 941 0.796195
1411567070867 9464 READING 946 0.766458
1411567070969 9464 READING 943 0.918971
1411567071235 9464 READING 946 0.877159
1411567071536 9464 READING 934 0.400087
1411567071611 9464 READING 944 0.930505
1411567071746 9464 READING 937 0.913828
1411567072005 9464 READING 942 0.863239
1411567072132 9464 READING 939 0.719267
1411567072218 9464 READING 949 0.892018
1411567072414 9464 READING 941 0.895842
1411567072649 9464 READING 947 0.828347
1411567072748 9464 READING 945 0.724210
1411567072841 9464 READING 950 0.928632
1411567073111 9464 READING 943 0.882287
1411567073278 9464 READING 925 0.755811
1411567073369 9464 READING 951 0.823615
1411567073518 9464 READING 846 0.906138
1411567073790 9464 READING 949 0.859358
1411567073900 9464 READING 942 0.676456
1411567073987 9464 READING 951 0.922457
1411567074215 9464 READING 852 0.891201
1411567074564 9464 READING 943 0.485633
1411567074642 9464 READING 947 0.928904
1411567074742 9464 READING 946 0.923642
1411567075007 9464 READING 947 0.877555
1411567075160 9464 READING 934 0.739319
1411567075247 9464 READING 944 0.829765
1411567075381 9464 READING 937 0.911192
1411567075643 9464 READING 942 0.865037
1411567075773 9464 READING 939 0.716452
1411567075866 9464 READING 949 0.887989
1411567076058 9464 READING 941 0.893563
1411567076297 9464 READING 947 0.828785
1411567076400 9464 READING 945 0.718297
1411567076489 9464 READING 950 0.924216
1411567076754 9464 READING 944 0.879696
1411567076930 9464 READING 924 0.763189
1411567077021 9464 READING 951 0.819369
1411567077171 9464 READING 847 0.904290
1411567077569 9464 READING 949 0.594975
1411567077644 9464 READING 942 0.911005
1411567077729 9464 READING 951 0.926669
1411567077953 9464 READING 851 0.887119
1411567078161 9464 READING 943 0.805493
1411567078255 9464 READING 947 0.756016
1411567078360 9464 READING 944 0.924086
1411567078624 9464 READING 947 0.875283
1411567078776 9464 READING 934 0.741294
1411567078861 9464 READING 944 0.836270
1411567078998 9464 READING 937 0.911875
1411567079258 9464 READING 942 0.862045
1411567079388 9464 READING 939 0.725092
1411567079478 9464 READING 949 0.891944
1411567079678 9464 READING 941 0.894482
1411567079910 9464 READING 947 0.824031
1411567080009 9464 READING 946 0.728415
1411567080104 9464 READING 950 0.920456
1411567080373 9464 READING 942 0.880655
1411567080678 9464 READING 924 0.405173
1411567080694 9464 FUNCTION lru lambda h: 1.98198 * (h ** 0.001)
1411567080758 9464 READING 951 0.930839
1411567080906 9464 READING 846 0.901660
1411567081179 9464 READING 948 0.854953
1411567081281 9464 READING 942 0.661477
1411567081371 9464 READING 951 0.927955
1411567081600 9464 READING 851 0.891163
1411567081811 9464 READING 943 0.799951
1411567081907 9464 READING 947 0.753543
1411567082017 9464 READING 945 0.926987
1411567082279 9464 READING 947 0.875798
1411567082428 9464 READING 934 0.733641
1411567082515 9464 READING 944 0.837573
1411567082649 9464 READING 937 0.905011
1411567082911 9464 READING 942 0.861536
1411567083037 9464 READING 939 0.711294
1411567083126 9464 READING 949 0.894353
1411567083330 9464 READING 941 0.897094
1411567083695 9464 READING 947 0.523110
1411567083774 9464 READING 946 0.928653
1411567083869 9464 READING 950 0.930844
1411567084138 9464 READING 942 0.882658
1411567084306 9464 READING 924 0.755853
1411567084396 9464 READING 951 0.825164
1411567084548 9464 READING 847 0.904956
1411567084828 9464 READING 949 0.858906
1411567084933 9464 READING 942 0.667490
1411567085019 9464 READING 951 0.926181
1411567085248 9464 READING 851 0.889698
1411567085454 9464 READING 943 0.799896
1411567085552 9464 READING 947 0.760694
1411567085662 9464 READING 945 0.923624
1411567085926 9464 READING 947 0.874652
1411567086074 9464 READING 934 0.730943
1411567086159 9464 READING 944 0.829922
1411567086295 9464 READING 937 0.910494
1411567086667 9464 READING 942 0.601340
1411567086774 9464 READING 939 0.907103
1411567086866 9464 READING 949 0.895917
1411567087062 9464 READING 941 0.897236
1411567087297 9464 READING 947 0.828582
1411567087400 9464 READING 945 0.734951
1411567087495 9464 READING 950 0.933555
1411567087763 9464 READING 943 0.883800
1411567087933 9464 READING 924 0.760434
1411567088024 9464 READING 951 0.828241
1411567088175 9464 READING 846 0.909621
1411567088448 9464 READING 949 0.859805
1411567088556 9464 READING 942 0.676203
1411567088643 9464 READING 951 0.925276
1411567088870 9464 READING 852 0.891044
1411567089078 9464 READING 943 0.801962
1411567089173 9464 READING 947 0.746235
1411567089275 9464 READING 945 0.919571
1411567089537 9464 READING 947 0.874413
1411567089830 9464 READING 934 0.394330
1411567089904 9464 READING 944 0.928065
1411567090031 9464 READING 937 0.909331
1411567090293 9464 READING 942 0.863841
1411567090422 9464 READING 939 0.718240
1411567090510 9464 READING 949 0.889533
1411567090694 9464 FUNCTION lru lambda h: 1.30407 * (h ** 0.001)
1411567090708 9464 READING 941 0.898952
1411567090949 9464 READING 947 0.832616
1411567091049 9464 READING 945 0.716124
1411567091138 9464 READING 950 0.933939
1411567091409 9464 READING 944 0.885649
1411567091582 9464 READING 923 0.756618
1411567091673 9464 READING 951 0.821197
1411567091816 9464 READING 848 0.905159
1411567092090 9464 READING 949 0.859651
1411567092204 9464 READING 942 0.686150
1411567092291 9464 READING 951 0.922210
1411567092513 9464 READING 851 0.888812
1411567092862 9464 READING 943 0.491762
1411567092938 9464 READING 947 0.926542
1411567093039 9464 READING 946 0.921746
1411567093302 9464 READING 947 0.877566
1411567093456 9464 READING 935 0.744203
1411567093543 9464 READING 944 0.831129
1411567093677 9464 READING 937 0.911476
1411567093939 9464 READING 942 0.864971
1411567094070 9464 READING 939 0.714763
1411567094158 9464 READING 949 0.885144
1411567094354 9464 READING 941 0.896355
1411567094589 9464 READING 947 0.822526
1411567094693 9464 READING 945 0.722128
1411567094789 9464 READING 950 0.922718
1411567095057 9464 READING 944 0.881259
1411567095230 9464 READING 924 0.759891
1411567095321 9464 READING 951 0.821828
1411567095472 9464 READING 847 0.904992
1411567095866 9464 READING 949 0.596263
1411567095941 9464 READING 942 0.912712
1411567096027 9464 READING 951 0.928036
1411567096245 9464 READING 851 0.890447
1411567096457 9464 READING 943 0.808177
1411567096553 9464 READING 947 0.746395
1411567096658 9464 READING 946 0.928532
1411567096919 9464 READING 947 0.876029
1411567097072 9464 READING 934 0.741184
1411567097160 9464 READING 944 0.827643
1411567097292 9464 READING 937 0.909851
1411567097554 9464 READING 942 0.862867
1411567097686 9464 READING 939 0.715335
1411567097775 9464 READING 949 0.886010
1411567097970 9464 READING 941 0.894393
1411567098210 9464 READING 947 0.824585
1411567098313 9464 READING 945 0.722248
1411567098403 9464 READING 950 0.927524
1411567098670 9464 READING 944 0.881952
1411567098981 9464 READING 924 0.408270
1411567099062 9464 READING 951 0.934094
1411567099213 9464 READING 847 0.909402
1411567099486 9464 READING 948 0.858790
1411567099596 9464 READING 942 0.678444
1411567099683 9464 READING 951 0.927290
1411567099908 9464 READING 851 0.890081
1411567100114 9464 READING 943 0.800700
1411567100212 9464 READING 947 0.758321
1411567100316 9464 READING 945 0.924482
1411567100579 9464 READING 947 0.876492
1411567100700 9464 FUNCTION lru lambda h: 1.43964 * (h ** 0.001)
1411567100732 9464 READING 934 0.742157
1411567100816 9464 READING 944 0.826571
1411567100946 9464 READING 937 0.905844
1411567101206 9464 READING 942 0.861728
1411567101333 9464 READING 939 0.714313
1411567101418 9464 READING 949 0.888441
1411567101619 9464 READING 941 0.894429
1411567101990 9464 READING 947 0.522062
1411567102070 9464 READING 945 0.929661
1411567102162 9464 READING 950 0.925196
1411567102427 9464 READING 943 0.881027
1411567102593 9464 READING 925 0.754818
1411567102684 9464 READING 951 0.831648
1411567102833 9464 READING 846 0.903986
1411567103108 9464 READING 948 0.858147
1411567103216 9464 READING 942 0.673183
1411567103303 9464 READING 951 0.927152
1411567103327 9464 DEATH 1323
