MemTotal:       16318588 kB
MemFree:        13394372 kB
Buffers:          658132 kB
Cached:          1107096 kB
SwapCached:            0 kB
Active:          1673300 kB
Inactive:         743172 kB
Active(anon):     652044 kB
Inactive(anon):      748 kB
Active(file):    1021256 kB
Inactive(file):   742424 kB
Unevictable:           0 kB
Mlocked:               0 kB
SwapTotal:      16728060 kB
SwapFree:       16728060 kB
Dirty:               604 kB
Writeback:             0 kB
AnonPages:        651240 kB
Mapped:            17400 kB
Shmem:              1552 kB
Slab:             379832 kB
SReclaimable:     360092 kB
SUnreclaim:        19740 kB
KernelStack:        1584 kB
PageTables:         4252 kB
NFS_Unstable:          0 kB
Bounce:                0 kB
WritebackTmp:          0 kB
CommitLimit:    24887352 kB
Committed_AS:     808264 kB
VmallocTotal:   34359738367 kB
VmallocUsed:      370636 kB
VmallocChunk:   34359363072 kB
HardwareCorrupted:     0 kB
AnonHugePages:    628736 kB
HugePages_Total:       0
HugePages_Free:        0
HugePages_Rsvd:        0
HugePages_Surp:        0
Hugepagesize:       2048 kB
DirectMap4k:       70592 kB
DirectMap2M:    16590848 kB
