TIMER,SECONDS
unconstrained,"332.70688390000004 +/- 2.496692906615672"
staticEqual,"364.7208253 +/- 2.4175258886624786"
daemonEqual,"339.9117191 +/- 3.94606596093903"
daemonVengerov,"342.8739944 +/- 5.20661148387922"
