2014-09-01 09:38:29    minHeapAttempt: Initialising...
2014-09-01 09:38:29    minHeapAttempt: Initialised
2014-09-01 09:38:29    minHeapAttempt: 
2014-09-01 09:38:29    minHeapAttempt: Testing benchmark:
2014-09-01 09:38:29    minHeapAttempt:     tomcat, large, 2
2014-09-01 09:38:29    minHeapAttempt: At heap size:
2014-09-01 09:38:29    minHeapAttempt:     11 MB
2014-09-01 09:38:29    minHeapAttempt: 
2014-09-01 09:38:29    minHeapAttempt: Started main process runs
2014-09-01 09:38:29    minHeapAttempt: 
2014-09-01 09:38:29    minHeapAttempt: Run 1 of 1: started
2014-09-01 09:38:29    minHeapAttempt: Starting auxiliary processes...
2014-09-01 09:38:39    minHeapAttempt: Started auxiliary processes
2014-09-01 09:38:39    minHeapAttempt: Running main processes...
2014-09-01 09:42:24    minHeapAttempt: Main processes completed in 224.758586s
2014-09-01 09:42:24    minHeapAttempt: Cleaning up auxiliary processes...
2014-09-01 09:42:34    minHeapAttempt: Cleaned up auxiliary processes
2014-09-01 09:42:34    minHeapAttempt: Run 1 of 1: completed with main runtime of 224.758586s
2014-09-01 09:42:34    minHeapAttempt: 
2014-09-01 09:42:34    minHeapAttempt: Completed main process runs; average runtime 224.758586s
2014-09-01 09:42:34    minHeapAttempt: 
2014-09-01 09:42:34    minHeapAttempt: Cleaning up...
2014-09-01 09:42:34    minHeapAttempt: Benchmark completed successfully
2014-09-01 09:42:34    minHeapAttempt: Cleaned up
2014-09-01 09:42:34    minHeapAttempt: 
2014-09-01 09:42:34    minHeapAttempt: Completed in total time 244.834082s
