Local run on callumc@angsa
Started: 2014 06 11, 12:39:47
Estimated runtime: 1:40:00 (6000 seconds)
Estimated completion at: 2014-06-11 14:19:47.229509

Completed: 2014 06 11, 14:19:48
Runtime: 6001 s
