F S UID        PID  PPID  C PRI  NI ADDR SZ WCHAN    RSS PSR STIME TTY          TIME CMD
4 S root         1     0  0  80   0 -  8480 poll_s  3196   1 Oct15 ?        00:00:00 /sbin/init
1 S root         2     0  0  80   0 -     0 kthrea     0   2 Oct15 ?        00:00:00 [kthreadd]
1 S root         3     2  0  80   0 -     0 smpboo     0   0 Oct15 ?        00:00:02 [ksoftirqd/0]
1 S root         5     2  0  60 -20 -     0 worker     0   0 Oct15 ?        00:00:00 [kworker/0:0H]
1 S root         7     2  0  80   0 -     0 rcu_gp     0   2 Oct15 ?        00:07:53 [rcu_sched]
1 S root         8     2  0  80   0 -     0 rcu_no     0   0 Oct15 ?        00:04:13 [rcuos/0]
1 S root         9     2  0  80   0 -     0 rcu_no     0   1 Oct15 ?        00:07:20 [rcuos/1]
1 S root        10     2  0  80   0 -     0 rcu_no     0   3 Oct15 ?        00:04:12 [rcuos/2]
1 S root        11     2  0  80   0 -     0 rcu_no     0   0 Oct15 ?        00:04:09 [rcuos/3]
1 S root        12     2  0  80   0 -     0 rcu_gp     0   0 Oct15 ?        00:00:00 [rcu_bh]
1 S root        13     2  0  80   0 -     0 rcu_no     0   0 Oct15 ?        00:00:00 [rcuob/0]
1 S root        14     2  0  80   0 -     0 rcu_no     0   0 Oct15 ?        00:00:00 [rcuob/1]
1 S root        15     2  0  80   0 -     0 rcu_no     0   0 Oct15 ?        00:00:00 [rcuob/2]
1 S root        16     2  0  80   0 -     0 rcu_no     0   0 Oct15 ?        00:00:00 [rcuob/3]
1 S root        17     2  0 -40   - -     0 smpboo     0   0 Oct15 ?        00:00:01 [migration/0]
5 S root        18     2  0 -40   - -     0 smpboo     0   0 Oct15 ?        00:00:01 [watchdog/0]
5 S root        19     2  0 -40   - -     0 smpboo     0   1 Oct15 ?        00:00:01 [watchdog/1]
1 S root        20     2  0 -40   - -     0 smpboo     0   1 Oct15 ?        00:00:01 [migration/1]
1 S root        21     2  0  80   0 -     0 smpboo     0   1 Oct15 ?        00:00:02 [ksoftirqd/1]
1 S root        23     2  0  60 -20 -     0 worker     0   1 Oct15 ?        00:00:00 [kworker/1:0H]
5 S root        24     2  0 -40   - -     0 smpboo     0   2 Oct15 ?        00:00:01 [watchdog/2]
1 S root        25     2  0 -40   - -     0 smpboo     0   2 Oct15 ?        00:00:01 [migration/2]
1 S root        26     2  0  80   0 -     0 smpboo     0   2 Oct15 ?        00:00:01 [ksoftirqd/2]
1 S root        28     2  0  60 -20 -     0 worker     0   2 Oct15 ?        00:00:00 [kworker/2:0H]
5 S root        29     2  0 -40   - -     0 smpboo     0   3 Oct15 ?        00:00:01 [watchdog/3]
1 S root        30     2  0 -40   - -     0 smpboo     0   3 Oct15 ?        00:00:01 [migration/3]
1 S root        31     2  0  80   0 -     0 smpboo     0   3 Oct15 ?        00:00:01 [ksoftirqd/3]
1 S root        33     2  0  60 -20 -     0 worker     0   3 Oct15 ?        00:00:00 [kworker/3:0H]
1 S root        34     2  0  60 -20 -     0 rescue     0   3 Oct15 ?        00:00:00 [khelper]
5 S root        35     2  0  80   0 -     0 devtmp     0   3 Oct15 ?        00:00:00 [kdevtmpfs]
1 S root        36     2  0  60 -20 -     0 rescue     0   3 Oct15 ?        00:00:00 [netns]
1 S root        37     2  0  60 -20 -     0 rescue     0   3 Oct15 ?        00:00:00 [writeback]
1 S root        38     2  0  60 -20 -     0 rescue     0   1 Oct15 ?        00:00:00 [kintegrityd]
1 S root        39     2  0  60 -20 -     0 rescue     0   1 Oct15 ?        00:00:00 [bioset]
1 S root        41     2  0  60 -20 -     0 rescue     0   2 Oct15 ?        00:00:00 [kblockd]
1 S root        42     2  0  60 -20 -     0 rescue     0   2 Oct15 ?        00:00:00 [ata_sff]
1 S root        43     2  0  80   0 -     0 hub_th     0   2 Oct15 ?        00:00:00 [khubd]
1 S root        44     2  0  60 -20 -     0 rescue     0   2 Oct15 ?        00:00:00 [md]
1 S root        45     2  0  60 -20 -     0 rescue     0   3 Oct15 ?        00:00:00 [devfreq_wq]
1 S root        46     2  0  80   0 -     0 worker     0   0 Oct15 ?        00:05:32 [kworker/0:1]
1 S root        48     2  0  80   0 -     0 watchd     0   1 Oct15 ?        00:00:00 [khungtaskd]
1 S root        49     2  0  80   0 -     0 kswapd     0   3 Oct15 ?        00:00:00 [kswapd0]
1 S root        50     2  0  85   5 -     0 ksm_sc     0   3 Oct15 ?        00:00:00 [ksmd]
1 S root        51     2  0  99  19 -     0 khugep     0   0 Oct15 ?        00:00:13 [khugepaged]
1 S root        52     2  0  80   0 -     0 fsnoti     0   0 Oct15 ?        00:00:00 [fsnotify_mark]
1 S root        53     2  0  80   0 -     0 ecrypt     0   3 Oct15 ?        00:00:00 [ecryptfs-kthrea]
1 S root        54     2  0  60 -20 -     0 rescue     0   3 Oct15 ?        00:00:00 [crypto]
1 S root        66     2  0  60 -20 -     0 rescue     0   3 Oct15 ?        00:00:00 [kthrotld]
1 S root        87     2  0  60 -20 -     0 rescue     0   3 Oct15 ?        00:00:00 [deferwq]
1 S root        88     2  0  60 -20 -     0 rescue     0   3 Oct15 ?        00:00:00 [charger_manager]
1 S root        95     2  0  80   0 -     0 worker     0   3 Oct15 ?        00:05:12 [kworker/3:1]
1 S root       136     2  0  60 -20 -     0 rescue     0   0 Oct15 ?        00:00:00 [kpsmoused]
1 S root       163     2  0  80   0 -     0 scsi_e     0   0 Oct15 ?        00:00:00 [scsi_eh_0]
1 S root       164     2  0  80   0 -     0 scsi_e     0   1 Oct15 ?        00:00:00 [scsi_eh_1]
1 S root       165     2  0  80   0 -     0 scsi_e     0   2 Oct15 ?        00:00:00 [scsi_eh_2]
1 S root       166     2  0  80   0 -     0 scsi_e     0   2 Oct15 ?        00:00:00 [scsi_eh_3]
1 S root       167     2  0  80   0 -     0 scsi_e     0   2 Oct15 ?        00:00:00 [scsi_eh_4]
1 S root       168     2  0  80   0 -     0 scsi_e     0   2 Oct15 ?        00:00:00 [scsi_eh_5]
1 S root       175     2  0  80   0 -     0 worker     0   2 Oct15 ?        00:05:18 [kworker/2:1]
1 S root       189     2  0  60 -20 -     0 rescue     0   3 Oct15 ?        00:00:00 [kdmflush]
1 S root       190     2  0  60 -20 -     0 rescue     0   3 Oct15 ?        00:00:00 [bioset]
1 S root       192     2  0  60 -20 -     0 rescue     0   3 Oct15 ?        00:00:00 [kdmflush]
1 S root       193     2  0  60 -20 -     0 rescue     0   2 Oct15 ?        00:00:00 [bioset]
1 S root       285     2  0  80   0 -     0 kjourn     0   0 Oct15 ?        00:00:14 [jbd2/dm-0-8]
1 S root       286     2  0  60 -20 -     0 rescue     0   0 Oct15 ?        00:00:00 [ext4-rsv-conver]
1 S root       454     1  0  80   0 -  4869 poll_s   652   2 Oct15 ?        00:00:00 upstart-udev-bridge --daemon
5 S root       459     1  0  80   0 - 12937 ep_pol  1984   3 Oct15 ?        00:00:00 /lib/systemd/systemd-udevd --daemon
1 S root       487     2  0   9   - -     0 irq_th     0   1 Oct15 ?        00:00:00 [irq/46-mei_me]
1 S root       526     2  0  60 -20 -     0 worker     0   1 Oct15 ?        00:00:02 [kworker/u9:1]
1 S root       580     2  0  60 -20 -     0 rescue     0   2 Oct15 ?        00:00:00 [kvm-irqfd-clean]
1 S root       583     2  0  60 -20 -     0 rescue     0   2 Oct15 ?        00:00:00 [hd-audio0]
1 S root       594     2  0  60 -20 -     0 rescue     0   0 Oct15 ?        00:00:00 [kmpathd]
1 S root       595     2  0  60 -20 -     0 rescue     0   0 Oct15 ?        00:00:00 [kmpath_handlerd]
1 S root       663     1  0  80   0 -  3815 poll_s   636   2 Oct15 ?        00:00:00 upstart-socket-bridge --daemon
1 S root       751     2  0  60 -20 -     0 rescue     0   3 Oct15 ?        00:00:00 [ext4-rsv-conver]
1 S root       892     1  0  80   0 -  3819 poll_s   632   2 Oct15 ?        00:00:00 upstart-file-bridge --daemon
1 S root       897     2  0  80   0 -     0 kaudit     0   3 Oct15 ?        00:00:00 [kauditd]
5 S message+   899     1  0  80   0 -  9891 ep_pol  1712   3 Oct15 ?        00:00:00 dbus-daemon --system --fork
4 S root       997     1  0  80   0 - 82566 poll_s  4924   3 Oct15 ?        00:00:00 /usr/sbin/ModemManager
5 S root      1015     2  0  70 -10 -     0 rfcomm     0   0 Oct15 ?        00:00:00 [krfcommd]
5 S syslog    1058     1  0  80   0 - 63961 poll_s  1580   3 Oct15 ?        00:00:00 rsyslogd
4 S root      1072     1  0  80   0 - 10863 ep_pol  1868   1 Oct15 ?        00:00:00 /lib/systemd/systemd-logind
5 S root      1078     1  0  80   0 - 88100 poll_s  8792   1 Oct15 ?        00:00:08 NetworkManager
4 S root      1085     1  0  80   0 - 73631 poll_s  4220   3 Oct15 ?        00:00:00 /usr/lib/policykit-1/polkitd --no-debug
4 S root      1374     1  0  80   0 -  3955 n_tty_   964   0 Oct15 tty4     00:00:00 /sbin/getty -8 38400 tty4
4 S root      1376     1  0  80   0 -  3955 n_tty_   956   0 Oct15 tty5     00:00:00 /sbin/getty -8 38400 tty5
4 S root      1383     1  0  80   0 -  3955 n_tty_   964   0 Oct15 tty2     00:00:00 /sbin/getty -8 38400 tty2
4 S root      1384     1  0  80   0 -  3955 n_tty_   964   0 Oct15 tty3     00:00:00 /sbin/getty -8 38400 tty3
4 S root      1387     1  0  80   0 -  3955 n_tty_   964   1 Oct15 tty6     00:00:00 /sbin/getty -8 38400 tty6
4 S root      1410     1  0  80   0 - 15341 poll_s  3072   3 Oct15 ?        00:00:00 /usr/sbin/sshd -D
1 S root      1422     1  0  80   0 -  1092 poll_s   696   0 Oct15 ?        00:00:00 acpid -c /etc/acpi/events -s /var/run/acpid.socket
5 S root      1458     1  0  80   0 -  4797 hrtime   736   3 Oct15 ?        00:00:21 /usr/sbin/irqbalance
1 S kernoops  1609     1  0  80   0 -  9286 poll_s  1016   3 Oct15 ?        00:00:03 /usr/sbin/kerneloops
1 S root      1629     2  0  60 -20 -     0 rescue     0   3 Oct15 ?        00:00:00 [iprt]
4 S root      1706     1  0  80   0 -  3955 n_tty_   956   3 Oct15 tty1     00:00:00 /sbin/getty -8 38400 tty1
4 S root      1726  1078  0  80   0 -  2558 poll_s  3720   0 Oct15 ?        00:00:31 /sbin/dhclient -d -sf /usr/lib/NetworkManager/nm-dhcp-client.action -pf /run/sendsigs.omit.d/network-manager.dhclient-eth0.pid -lf /var/lib/NetworkManager/dhclient-9cfd9425-a148-4c5d-9461-4bd27e64ca61-eth0.lease -cf /var/lib/NetworkManager/dhclient-eth0.conf eth0
4 S nobody    1735  1078  0  80   0 -  7758 poll_s  1540   2 Oct15 ?        00:00:00 /usr/sbin/dnsmasq --no-resolv --keep-in-foreground --no-hosts --bind-interfaces --pid-file=/run/sendsigs.omit.d/network-manager.dnsmasq.pid --listen-address=127.0.1.1 --conf-file=/var/run/NetworkManager/dnsmasq.conf --cache-size=0 --proxy-dnssec --enable-dbus=org.freedesktop.NetworkManager.dnsmasq --conf-dir=/etc/NetworkManager/dnsmasq.d
4 S root      1952     1  0  80   0 - 525656 poll_s 6244   1 Oct15 ?        00:00:00 /usr/sbin/console-kit-daemon --no-daemon
1 S callum    2237     1  0  80   0 -  6832 poll_s  1640   3 Oct15 ?        00:00:00 SCREEN
0 S callum    2238  2237  0  80   0 - 11866 sigsus  7328   0 Oct15 pts/1    00:00:00 /bin/zsh
4 S colord    2406     1  0  80   0 - 77749 poll_s  6276   0 Oct15 ?        00:00:00 /usr/lib/colord/colord
0 S callum    2580  2238  0  80   0 - 200332 futex_ 627632 1 Oct15 pts/1    00:21:36 ./timer_comparison_many -r 10 -m ../../data/saved/min_heaps.csv --staticEqual --daemonEqual --daemonVengerov ../../data/saved/many_input.csv
1 S root      3026     2  0  80   0 -     0 worker     0   2 Oct22 ?        00:00:00 [kworker/2:0]
1 S root      3092     2  0  80   0 -     0 worker     0   3 Oct22 ?        00:00:00 [kworker/3:2]
1 S root     10652     2  0  80   0 -     0 worker     0   1 Oct21 ?        00:00:58 [kworker/1:0]
1 S root     11187     2  0  80   0 -     0 worker     0   1 Oct21 ?        00:00:00 [kworker/1:1]
1 S root     21989     2  0  80   0 -     0 worker     0   0 Oct17 ?        00:00:00 [kworker/0:0]
1 S root     28439     2  0  80   0 -     0 worker     0   0 01:28 ?        00:00:00 [kworker/u8:1]
1 S root     28702     2  0  80   0 -     0 worker     0   2 01:35 ?        00:00:00 [kworker/u8:2]
0 R callum   29193  2580  0  80   0 -  4615 -       1296   3 01:49 pts/1    00:00:00 ps -elFww
1 S root     30203     2  0  60 -20 -     0 worker     0   2 Oct17 ?        00:00:02 [kworker/u9:2]
