economemd
    total memory: 3669 MB
    timer interval: 10 s
    timer start state: running
    utility model: root

    caches:
        lru

    force utility function validity: yes
    make recommendations: yes
    equal recommendations: no

    reading receiver name: vengerov
    command receiver name: vengerov

    dump file: economemd.dump.log
    log file: /home/callum/economics_memory_code/dynamic_sizing/data/output/timerComparisonMany_2014_10_15_12_35_15/sub12_timerComparisonSingle/sub3_timeBenchmarkDaemon/daemon_run07_log.txt
    log readings: yes
    log functions: yes

PyOptimiser: initialising...
PyOptimiser: initialised
ReadingThread: starting
TimerThread: starting
CommandThread: starting
Recommendation: no clients; no recommendation
Recommendation: no clients; no recommendation
Reading from 7359: heap size 9 MB, throughput 0.985064
Clients: 1
Client 7359 has a minimum heap size of 12 MB
Reading from 7358: heap size 9 MB, throughput 0.989985
Clients: 2
Client 7358 has a minimum heap size of 1211 MB
Reading from 7359: heap size 9 MB, throughput 0.986598
Reading from 7358: heap size 9 MB, throughput 0.988366
Reading from 7358: heap size 9 MB, throughput 0.983917
Reading from 7358: heap size 9 MB, throughput 0.953974
Reading from 7359: heap size 11 MB, throughput 0.984249
Reading from 7359: heap size 11 MB, throughput 0.977215
Reading from 7358: heap size 11 MB, throughput 0.967474
Reading from 7359: heap size 15 MB, throughput 0.979594
Reading from 7358: heap size 11 MB, throughput 0.976958
Reading from 7358: heap size 17 MB, throughput 0.963145
Reading from 7359: heap size 15 MB, throughput 0.983269
Reading from 7358: heap size 17 MB, throughput 0.896954
Reading from 7358: heap size 29 MB, throughput 0.792279
Reading from 7358: heap size 30 MB, throughput 0.951975
Reading from 7359: heap size 25 MB, throughput 0.956555
Reading from 7358: heap size 35 MB, throughput 0.765891
Reading from 7358: heap size 47 MB, throughput 0.416852
Reading from 7358: heap size 49 MB, throughput 0.511426
Reading from 7359: heap size 29 MB, throughput 0.966891
Reading from 7358: heap size 63 MB, throughput 0.32686
Reading from 7358: heap size 70 MB, throughput 0.440566
Reading from 7359: heap size 36 MB, throughput 0.932383
Reading from 7358: heap size 87 MB, throughput 0.331447
Reading from 7358: heap size 95 MB, throughput 0.448659
Reading from 7359: heap size 42 MB, throughput 0.943157
Reading from 7359: heap size 43 MB, throughput 0.83783
Reading from 7358: heap size 95 MB, throughput 0.490196
Reading from 7359: heap size 46 MB, throughput 0.897168
Reading from 7358: heap size 127 MB, throughput 0.521327
Reading from 7359: heap size 53 MB, throughput 0.946756
Reading from 7358: heap size 127 MB, throughput 0.326362
Reading from 7359: heap size 53 MB, throughput 0.965659
Reading from 7358: heap size 166 MB, throughput 0.679266
Reading from 7359: heap size 60 MB, throughput 0.972169
Reading from 7358: heap size 165 MB, throughput 0.675582
Reading from 7358: heap size 166 MB, throughput 0.331056
Reading from 7359: heap size 61 MB, throughput 0.977223
Reading from 7359: heap size 71 MB, throughput 0.961845
Reading from 7358: heap size 169 MB, throughput 0.326828
Reading from 7359: heap size 74 MB, throughput 0.973639
Reading from 7358: heap size 172 MB, throughput 0.50487
Reading from 7358: heap size 215 MB, throughput 0.387031
Reading from 7359: heap size 90 MB, throughput 0.99167
Reading from 7358: heap size 219 MB, throughput 0.328322
Reading from 7358: heap size 222 MB, throughput 0.758272
Reading from 7358: heap size 230 MB, throughput 0.774324
Reading from 7358: heap size 233 MB, throughput 0.761066
Reading from 7359: heap size 91 MB, throughput 0.995566
Reading from 7358: heap size 235 MB, throughput 0.397307
Reading from 7358: heap size 290 MB, throughput 0.633929
Reading from 7358: heap size 294 MB, throughput 0.66244
Reading from 7359: heap size 109 MB, throughput 0.996245
Reading from 7358: heap size 298 MB, throughput 0.640029
Reading from 7358: heap size 300 MB, throughput 0.661733
Reading from 7358: heap size 309 MB, throughput 0.583817
Reading from 7358: heap size 312 MB, throughput 0.570763
Reading from 7358: heap size 325 MB, throughput 0.540375
Reading from 7358: heap size 333 MB, throughput 0.534318
Reading from 7358: heap size 342 MB, throughput 0.55196
Reading from 7359: heap size 110 MB, throughput 0.992583
Reading from 7358: heap size 349 MB, throughput 0.410345
Reading from 7358: heap size 401 MB, throughput 0.456866
Reading from 7358: heap size 391 MB, throughput 0.515501
Reading from 7359: heap size 128 MB, throughput 0.989158
Reading from 7358: heap size 327 MB, throughput 0.188989
Reading from 7358: heap size 440 MB, throughput 0.500653
Reading from 7358: heap size 445 MB, throughput 0.557884
Reading from 7358: heap size 437 MB, throughput 0.608458
Reading from 7359: heap size 130 MB, throughput 0.993533
Reading from 7358: heap size 390 MB, throughput 0.602284
Reading from 7358: heap size 439 MB, throughput 0.629551
Reading from 7358: heap size 440 MB, throughput 0.574251
Reading from 7358: heap size 442 MB, throughput 0.537067
Reading from 7358: heap size 447 MB, throughput 0.515749
Reading from 7358: heap size 453 MB, throughput 0.538345
Numeric result:
Recommendation: 2 clients, utility 0.964775:
    h1: 2458 MB (U(h) = 0.930683*h^0.00887307)
    h2: 1211 MB (U(h) = 0.960409*h^0.001)
Recommendation: 2 clients, utility 0.964775:
    h1: 2458 MB (U(h) = 0.930683*h^0.00887307)
    h2: 1211 MB (U(h) = 0.960409*h^0.001)
Reading from 7358: heap size 459 MB, throughput 0.548676
Reading from 7359: heap size 145 MB, throughput 0.996109
Reading from 7358: heap size 463 MB, throughput 0.510566
Reading from 7358: heap size 470 MB, throughput 0.50057
Reading from 7358: heap size 474 MB, throughput 0.468982
Reading from 7358: heap size 481 MB, throughput 0.483235
Reading from 7359: heap size 148 MB, throughput 0.996861
Reading from 7359: heap size 158 MB, throughput 0.997257
Reading from 7358: heap size 486 MB, throughput 0.334748
Reading from 7358: heap size 547 MB, throughput 0.410015
Reading from 7358: heap size 548 MB, throughput 0.492305
Reading from 7358: heap size 551 MB, throughput 0.458828
Reading from 7359: heap size 160 MB, throughput 0.997616
Reading from 7358: heap size 553 MB, throughput 0.231099
Reading from 7358: heap size 615 MB, throughput 0.489662
Reading from 7358: heap size 607 MB, throughput 0.557141
Reading from 7358: heap size 614 MB, throughput 0.605791
Reading from 7358: heap size 614 MB, throughput 0.599316
Reading from 7358: heap size 617 MB, throughput 0.602833
Reading from 7359: heap size 166 MB, throughput 0.998031
Reading from 7358: heap size 622 MB, throughput 0.600492
Reading from 7358: heap size 627 MB, throughput 0.673033
Reading from 7358: heap size 633 MB, throughput 0.836758
Reading from 7359: heap size 168 MB, throughput 0.99819
Reading from 7359: heap size 173 MB, throughput 0.997889
Reading from 7358: heap size 638 MB, throughput 0.528304
Reading from 7358: heap size 704 MB, throughput 0.844587
Reading from 7359: heap size 175 MB, throughput 0.997992
Reading from 7358: heap size 716 MB, throughput 0.787859
Reading from 7358: heap size 724 MB, throughput 0.708497
Reading from 7358: heap size 730 MB, throughput 0.677891
Reading from 7358: heap size 735 MB, throughput 0.58733
Reading from 7358: heap size 662 MB, throughput 0.511905
Reading from 7359: heap size 180 MB, throughput 0.997819
Numeric result:
Recommendation: 2 clients, utility 0.821758:
    h1: 2458 MB (U(h) = 0.903535*h^0.0175829)
    h2: 1211 MB (U(h) = 0.787226*h^0.001)
Recommendation: 2 clients, utility 0.821758:
    h1: 2458 MB (U(h) = 0.903535*h^0.0175829)
    h2: 1211 MB (U(h) = 0.787226*h^0.001)
Reading from 7359: heap size 181 MB, throughput 0.99772
Reading from 7358: heap size 723 MB, throughput 0.324583
Reading from 7358: heap size 805 MB, throughput 0.399306
Reading from 7358: heap size 807 MB, throughput 0.53913
Reading from 7358: heap size 808 MB, throughput 0.789723
Reading from 7358: heap size 805 MB, throughput 0.738173
Reading from 7358: heap size 809 MB, throughput 0.700133
Reading from 7359: heap size 184 MB, throughput 0.99818
Reading from 7358: heap size 811 MB, throughput 0.696603
Reading from 7359: heap size 185 MB, throughput 0.997688
Reading from 7358: heap size 812 MB, throughput 0.410509
Reading from 7358: heap size 899 MB, throughput 0.659947
Reading from 7359: heap size 189 MB, throughput 0.99094
Reading from 7358: heap size 900 MB, throughput 0.774777
Reading from 7358: heap size 908 MB, throughput 0.855531
Reading from 7359: heap size 189 MB, throughput 0.981188
Reading from 7358: heap size 911 MB, throughput 0.870155
Reading from 7358: heap size 911 MB, throughput 0.907184
Reading from 7358: heap size 748 MB, throughput 0.910964
Reading from 7358: heap size 891 MB, throughput 0.877284
Reading from 7358: heap size 788 MB, throughput 0.863753
Reading from 7359: heap size 194 MB, throughput 0.988095
Reading from 7358: heap size 877 MB, throughput 0.835795
Reading from 7358: heap size 792 MB, throughput 0.843543
Reading from 7358: heap size 869 MB, throughput 0.846248
Reading from 7358: heap size 876 MB, throughput 0.858246
Reading from 7358: heap size 864 MB, throughput 0.868181
Reading from 7358: heap size 870 MB, throughput 0.861494
Reading from 7359: heap size 195 MB, throughput 0.991852
Reading from 7358: heap size 861 MB, throughput 0.867601
Reading from 7358: heap size 865 MB, throughput 0.866558
Reading from 7358: heap size 859 MB, throughput 0.959817
Reading from 7359: heap size 202 MB, throughput 0.994989
Reading from 7358: heap size 863 MB, throughput 0.965628
Reading from 7358: heap size 868 MB, throughput 0.940068
Reading from 7359: heap size 202 MB, throughput 0.995814
Reading from 7358: heap size 869 MB, throughput 0.909349
Reading from 7358: heap size 872 MB, throughput 0.881216
Numeric result:
Recommendation: 2 clients, utility 0.646873:
    h1: 1433.63 MB (U(h) = 0.901791*h^0.0181363)
    h2: 2235.37 MB (U(h) = 0.505387*h^0.0283167)
Recommendation: 2 clients, utility 0.646873:
    h1: 1432.46 MB (U(h) = 0.901791*h^0.0181363)
    h2: 2236.54 MB (U(h) = 0.505387*h^0.0283167)
Reading from 7358: heap size 872 MB, throughput 0.854823
Reading from 7358: heap size 875 MB, throughput 0.846143
Reading from 7358: heap size 876 MB, throughput 0.839396
Reading from 7358: heap size 879 MB, throughput 0.84226
Reading from 7359: heap size 207 MB, throughput 0.996806
Reading from 7358: heap size 880 MB, throughput 0.840515
Reading from 7358: heap size 883 MB, throughput 0.877825
Reading from 7358: heap size 884 MB, throughput 0.87528
Reading from 7358: heap size 889 MB, throughput 0.898265
Reading from 7358: heap size 890 MB, throughput 0.858303
Reading from 7359: heap size 207 MB, throughput 0.997001
Reading from 7359: heap size 212 MB, throughput 0.996237
Reading from 7358: heap size 893 MB, throughput 0.752692
Reading from 7358: heap size 987 MB, throughput 0.684072
Reading from 7358: heap size 1009 MB, throughput 0.72867
Reading from 7358: heap size 1013 MB, throughput 0.74787
Reading from 7358: heap size 1012 MB, throughput 0.755915
Reading from 7358: heap size 1016 MB, throughput 0.755707
Reading from 7358: heap size 1020 MB, throughput 0.753869
Reading from 7359: heap size 212 MB, throughput 0.996511
Reading from 7358: heap size 1022 MB, throughput 0.743285
Reading from 7358: heap size 1035 MB, throughput 0.751038
Reading from 7358: heap size 1035 MB, throughput 0.764348
Reading from 7359: heap size 217 MB, throughput 0.997249
Reading from 7358: heap size 1048 MB, throughput 0.910445
Reading from 7359: heap size 217 MB, throughput 0.996816
Reading from 7358: heap size 1052 MB, throughput 0.953233
Reading from 7359: heap size 221 MB, throughput 0.997319
Numeric result:
Recommendation: 2 clients, utility 1.15051:
    h1: 191.065 MB (U(h) = 0.900709*h^0.0184653)
    h2: 3477.94 MB (U(h) = 0.0748077*h^0.336099)
Recommendation: 2 clients, utility 1.15051:
    h1: 191.077 MB (U(h) = 0.900709*h^0.0184653)
    h2: 3477.92 MB (U(h) = 0.0748077*h^0.336099)
Reading from 7358: heap size 1066 MB, throughput 0.961524
Reading from 7359: heap size 221 MB, throughput 0.997229
Reading from 7359: heap size 209 MB, throughput 0.996789
Reading from 7358: heap size 1068 MB, throughput 0.955918
Reading from 7359: heap size 200 MB, throughput 0.988006
Reading from 7359: heap size 192 MB, throughput 0.978995
Reading from 7358: heap size 1071 MB, throughput 0.960713
Reading from 7359: heap size 184 MB, throughput 0.994212
Reading from 7359: heap size 187 MB, throughput 0.99489
Reading from 7358: heap size 1074 MB, throughput 0.960285
Reading from 7359: heap size 191 MB, throughput 0.996366
Reading from 7358: heap size 1070 MB, throughput 0.961164
Reading from 7359: heap size 194 MB, throughput 0.997082
Reading from 7359: heap size 186 MB, throughput 0.997604
Numeric result:
Recommendation: 2 clients, utility 1.31147:
    h1: 157.868 MB (U(h) = 0.900811*h^0.0184345)
    h2: 3511.13 MB (U(h) = 0.0466675*h^0.409986)
Recommendation: 2 clients, utility 1.31147:
    h1: 157.873 MB (U(h) = 0.900811*h^0.0184345)
    h2: 3511.13 MB (U(h) = 0.0466675*h^0.409986)
Reading from 7358: heap size 1075 MB, throughput 0.962422
Reading from 7359: heap size 189 MB, throughput 0.997592
Reading from 7359: heap size 180 MB, throughput 0.997458
Reading from 7358: heap size 1079 MB, throughput 0.963262
Reading from 7359: heap size 172 MB, throughput 0.997487
Reading from 7359: heap size 165 MB, throughput 0.995954
Reading from 7358: heap size 1080 MB, throughput 0.960566
Reading from 7359: heap size 158 MB, throughput 0.996737
Reading from 7359: heap size 152 MB, throughput 0.996868
Reading from 7358: heap size 1085 MB, throughput 0.962336
Reading from 7359: heap size 155 MB, throughput 0.997025
Reading from 7359: heap size 158 MB, throughput 0.989342
Reading from 7358: heap size 1087 MB, throughput 0.962077
Reading from 7359: heap size 152 MB, throughput 0.98329
Reading from 7359: heap size 154 MB, throughput 0.981646
Reading from 7359: heap size 159 MB, throughput 0.984204
Numeric result:
Recommendation: 2 clients, utility 1.57053:
    h1: 126.552 MB (U(h) = 0.900172*h^0.018641)
    h2: 3542.45 MB (U(h) = 0.0224165*h^0.521783)
Recommendation: 2 clients, utility 1.57053:
    h1: 126.556 MB (U(h) = 0.900172*h^0.018641)
    h2: 3542.44 MB (U(h) = 0.0224165*h^0.521783)
Reading from 7358: heap size 1092 MB, throughput 0.956095
Reading from 7359: heap size 154 MB, throughput 0.995748
Reading from 7359: heap size 147 MB, throughput 0.984591
Reading from 7359: heap size 139 MB, throughput 0.991727
Reading from 7358: heap size 1096 MB, throughput 0.954565
Reading from 7359: heap size 133 MB, throughput 0.99497
Reading from 7359: heap size 128 MB, throughput 0.995045
Reading from 7358: heap size 1102 MB, throughput 0.959383
Reading from 7359: heap size 124 MB, throughput 0.99617
Reading from 7359: heap size 131 MB, throughput 0.997164
Reading from 7359: heap size 122 MB, throughput 0.997979
Reading from 7358: heap size 1106 MB, throughput 0.960883
Reading from 7359: heap size 128 MB, throughput 0.997753
Reading from 7359: heap size 120 MB, throughput 0.998002
Reading from 7359: heap size 126 MB, throughput 0.998009
Reading from 7358: heap size 1112 MB, throughput 0.961391
Reading from 7359: heap size 124 MB, throughput 0.998308
Reading from 7359: heap size 130 MB, throughput 0.998231
Numeric result:
Recommendation: 2 clients, utility 1.89476:
    h1: 105.031 MB (U(h) = 0.899947*h^0.0190136)
    h2: 3563.97 MB (U(h) = 0.00984327*h^0.645216)
Recommendation: 2 clients, utility 1.89476:
    h1: 105.025 MB (U(h) = 0.899947*h^0.0190136)
    h2: 3563.97 MB (U(h) = 0.00984327*h^0.645216)
Reading from 7359: heap size 122 MB, throughput 0.998291
Reading from 7359: heap size 120 MB, throughput 0.997894
Reading from 7359: heap size 112 MB, throughput 0.997274
Reading from 7359: heap size 111 MB, throughput 0.99704
Reading from 7358: heap size 1117 MB, throughput 0.906307
Reading from 7359: heap size 104 MB, throughput 0.997131
Reading from 7359: heap size 109 MB, throughput 0.997017
Reading from 7359: heap size 103 MB, throughput 0.9971
Reading from 7358: heap size 1217 MB, throughput 0.955768
Reading from 7359: heap size 108 MB, throughput 0.997298
Reading from 7359: heap size 102 MB, throughput 0.997538
Reading from 7359: heap size 106 MB, throughput 0.997382
Reading from 7359: heap size 101 MB, throughput 0.996611
Reading from 7359: heap size 105 MB, throughput 0.994361
Reading from 7358: heap size 1221 MB, throughput 0.964896
Reading from 7359: heap size 102 MB, throughput 0.98944
Reading from 7359: heap size 107 MB, throughput 0.925557
Reading from 7359: heap size 102 MB, throughput 0.916347
Reading from 7359: heap size 109 MB, throughput 0.970029
Reading from 7359: heap size 105 MB, throughput 0.985114
Reading from 7358: heap size 1229 MB, throughput 0.972134
Reading from 7359: heap size 109 MB, throughput 0.990491
Reading from 7359: heap size 105 MB, throughput 0.994
Numeric result:
Recommendation: 2 clients, utility 2.16452:
    h1: 92.03 MB (U(h) = 0.900017*h^0.0190172)
    h2: 3576.97 MB (U(h) = 0.00521201*h^0.7392)
Recommendation: 2 clients, utility 2.16452:
    h1: 92.0239 MB (U(h) = 0.900017*h^0.0190172)
    h2: 3576.98 MB (U(h) = 0.00521201*h^0.7392)
Reading from 7359: heap size 102 MB, throughput 0.994779
Reading from 7359: heap size 99 MB, throughput 0.99552
Reading from 7358: heap size 1230 MB, throughput 0.975294
Reading from 7359: heap size 95 MB, throughput 0.995609
Reading from 7359: heap size 92 MB, throughput 0.995955
Reading from 7359: heap size 95 MB, throughput 0.995281
Reading from 7359: heap size 92 MB, throughput 0.995335
Reading from 7358: heap size 1229 MB, throughput 0.976699
Reading from 7359: heap size 89 MB, throughput 0.987385
Reading from 7359: heap size 92 MB, throughput 0.986368
Reading from 7359: heap size 95 MB, throughput 0.985149
Reading from 7359: heap size 91 MB, throughput 0.985055
Reading from 7359: heap size 94 MB, throughput 0.981962
Reading from 7358: heap size 1232 MB, throughput 0.97541
Reading from 7359: heap size 91 MB, throughput 0.987843
Reading from 7359: heap size 96 MB, throughput 0.992388
Reading from 7359: heap size 90 MB, throughput 0.994862
Reading from 7359: heap size 95 MB, throughput 0.996384
Reading from 7358: heap size 1223 MB, throughput 0.973602
Reading from 7359: heap size 90 MB, throughput 0.997092
Reading from 7359: heap size 94 MB, throughput 0.996898
Reading from 7359: heap size 89 MB, throughput 0.996873
Reading from 7359: heap size 93 MB, throughput 0.996763
Numeric result:
Recommendation: 2 clients, utility 2.25685:
    h1: 86.7624 MB (U(h) = 0.90283*h^0.0186306)
    h2: 3582.24 MB (U(h) = 0.0042459*h^0.769189)
Recommendation: 2 clients, utility 2.25685:
    h1: 86.7655 MB (U(h) = 0.90283*h^0.0186306)
    h2: 3582.23 MB (U(h) = 0.0042459*h^0.769189)
Reading from 7359: heap size 88 MB, throughput 0.996168
Reading from 7358: heap size 1165 MB, throughput 0.973112
Reading from 7359: heap size 87 MB, throughput 0.996691
Reading from 7359: heap size 83 MB, throughput 0.997084
Reading from 7359: heap size 86 MB, throughput 0.997217
Reading from 7359: heap size 87 MB, throughput 0.996986
Reading from 7359: heap size 90 MB, throughput 0.996404
Reading from 7358: heap size 1219 MB, throughput 0.972856
Reading from 7359: heap size 86 MB, throughput 0.996294
Reading from 7359: heap size 89 MB, throughput 0.993796
Reading from 7359: heap size 87 MB, throughput 0.991603
Reading from 7359: heap size 91 MB, throughput 0.995263
Reading from 7359: heap size 85 MB, throughput 0.988767
Reading from 7359: heap size 93 MB, throughput 0.988781
Reading from 7359: heap size 89 MB, throughput 0.993913
Reading from 7358: heap size 1223 MB, throughput 0.971663
Reading from 7359: heap size 86 MB, throughput 0.995289
Reading from 7359: heap size 90 MB, throughput 0.995722
Reading from 7359: heap size 87 MB, throughput 0.996117
Reading from 7359: heap size 85 MB, throughput 0.996017
Reading from 7359: heap size 89 MB, throughput 0.996184
Reading from 7358: heap size 1226 MB, throughput 0.969442
Reading from 7359: heap size 86 MB, throughput 0.996735
Reading from 7359: heap size 89 MB, throughput 0.996743
Reading from 7359: heap size 86 MB, throughput 0.996489
Reading from 7359: heap size 89 MB, throughput 0.996488
Reading from 7359: heap size 86 MB, throughput 0.996425
Reading from 7358: heap size 1227 MB, throughput 0.966673
Reading from 7359: heap size 89 MB, throughput 0.996753
Numeric result:
Recommendation: 2 clients, utility 2.18492:
    h1: 86.8442 MB (U(h) = 0.90585*h^0.0181187)
    h2: 3582.16 MB (U(h) = 0.00490755*h^0.747405)
Recommendation: 2 clients, utility 2.18492:
    h1: 86.8393 MB (U(h) = 0.90585*h^0.0181187)
    h2: 3582.16 MB (U(h) = 0.00490755*h^0.747405)
Reading from 7359: heap size 86 MB, throughput 0.996702
Reading from 7359: heap size 89 MB, throughput 0.986799
Reading from 7359: heap size 86 MB, throughput 0.984773
Reading from 7359: heap size 88 MB, throughput 0.990371
Reading from 7358: heap size 1231 MB, throughput 0.965343
Reading from 7359: heap size 85 MB, throughput 0.993953
Reading from 7359: heap size 89 MB, throughput 0.995506
Reading from 7359: heap size 85 MB, throughput 0.996497
Reading from 7359: heap size 89 MB, throughput 0.996923
Reading from 7359: heap size 85 MB, throughput 0.997027
Reading from 7358: heap size 1236 MB, throughput 0.963143
Reading from 7359: heap size 89 MB, throughput 0.997035
Reading from 7359: heap size 85 MB, throughput 0.997002
Reading from 7359: heap size 89 MB, throughput 0.996718
Reading from 7359: heap size 85 MB, throughput 0.996936
Reading from 7359: heap size 89 MB, throughput 0.997116
Reading from 7359: heap size 85 MB, throughput 0.99729
Reading from 7358: heap size 1241 MB, throughput 0.963779
Reading from 7359: heap size 89 MB, throughput 0.997317
Reading from 7359: heap size 85 MB, throughput 0.997535
Reading from 7359: heap size 88 MB, throughput 0.997437
Reading from 7359: heap size 85 MB, throughput 0.997112
Reading from 7359: heap size 88 MB, throughput 0.996819
Reading from 7358: heap size 1248 MB, throughput 0.96068
Reading from 7359: heap size 85 MB, throughput 0.997112
Numeric result:
Recommendation: 2 clients, utility 2.41285:
    h1: 78.8948 MB (U(h) = 0.905836*h^0.0181208)
    h2: 3590.11 MB (U(h) = 0.00288153*h^0.824584)
Recommendation: 2 clients, utility 2.41285:
    h1: 78.8952 MB (U(h) = 0.905836*h^0.0181208)
    h2: 3590.1 MB (U(h) = 0.00288153*h^0.824584)
Reading from 7359: heap size 87 MB, throughput 0.983487
Reading from 7359: heap size 84 MB, throughput 0.978777
Reading from 7359: heap size 82 MB, throughput 0.933111
Reading from 7359: heap size 79 MB, throughput 0.927968
Reading from 7359: heap size 86 MB, throughput 0.956406
Reading from 7359: heap size 83 MB, throughput 0.981523
Reading from 7359: heap size 80 MB, throughput 0.990586
Reading from 7359: heap size 77 MB, throughput 0.989524
Reading from 7358: heap size 1257 MB, throughput 0.961493
Reading from 7359: heap size 83 MB, throughput 0.992865
Reading from 7359: heap size 79 MB, throughput 0.99414
Reading from 7359: heap size 82 MB, throughput 0.99433
Reading from 7359: heap size 78 MB, throughput 0.994432
Reading from 7359: heap size 83 MB, throughput 0.994874
Reading from 7358: heap size 1262 MB, throughput 0.961632
Reading from 7359: heap size 79 MB, throughput 0.995551
Reading from 7359: heap size 77 MB, throughput 0.994786
Reading from 7359: heap size 81 MB, throughput 0.98292
Reading from 7359: heap size 77 MB, throughput 0.98642
Reading from 7359: heap size 78 MB, throughput 0.979054
Reading from 7359: heap size 79 MB, throughput 0.993563
Reading from 7358: heap size 1271 MB, throughput 0.961775
Reading from 7359: heap size 83 MB, throughput 0.991306
Reading from 7359: heap size 78 MB, throughput 0.994112
Reading from 7359: heap size 81 MB, throughput 0.99547
Reading from 7359: heap size 76 MB, throughput 0.99619
Reading from 7359: heap size 79 MB, throughput 0.996809
Reading from 7359: heap size 79 MB, throughput 0.997007
Reading from 7359: heap size 82 MB, throughput 0.996472
Reading from 7358: heap size 1274 MB, throughput 0.961779
Numeric result:
Recommendation: 2 clients, utility 2.55869:
    h1: 73.0165 MB (U(h) = 0.907836*h^0.0177336)
    h2: 3595.98 MB (U(h) = 0.00204863*h^0.873358)
Recommendation: 2 clients, utility 2.55869:
    h1: 73.0166 MB (U(h) = 0.907836*h^0.0177336)
    h2: 3595.98 MB (U(h) = 0.00204863*h^0.873358)
Reading from 7359: heap size 77 MB, throughput 0.996767
Reading from 7359: heap size 74 MB, throughput 0.996941
Reading from 7359: heap size 75 MB, throughput 0.996796
Reading from 7359: heap size 70 MB, throughput 0.99698
Reading from 7359: heap size 75 MB, throughput 0.996937
Reading from 7359: heap size 71 MB, throughput 0.996797
Reading from 7359: heap size 73 MB, throughput 0.993664
Reading from 7358: heap size 1282 MB, throughput 0.961713
Reading from 7359: heap size 69 MB, throughput 0.994919
Reading from 7359: heap size 74 MB, throughput 0.995793
Reading from 7359: heap size 70 MB, throughput 0.996145
Reading from 7359: heap size 73 MB, throughput 0.996003
Reading from 7359: heap size 75 MB, throughput 0.995939
Reading from 7359: heap size 71 MB, throughput 0.995913
Reading from 7359: heap size 74 MB, throughput 0.996159
Reading from 7358: heap size 1284 MB, throughput 0.962006
Reading from 7359: heap size 71 MB, throughput 0.996486
Reading from 7359: heap size 73 MB, throughput 0.996374
Reading from 7359: heap size 73 MB, throughput 0.996292
Reading from 7359: heap size 76 MB, throughput 0.996485
Reading from 7359: heap size 73 MB, throughput 0.995719
Reading from 7359: heap size 75 MB, throughput 0.98177
Reading from 7359: heap size 73 MB, throughput 0.945239
Reading from 7359: heap size 73 MB, throughput 0.949426
Reading from 7359: heap size 75 MB, throughput 0.96218
Reading from 7359: heap size 72 MB, throughput 0.967961
Reading from 7359: heap size 80 MB, throughput 0.984721
Reading from 7359: heap size 77 MB, throughput 0.991529
Reading from 7359: heap size 74 MB, throughput 0.99301
Reading from 7359: heap size 72 MB, throughput 0.993424
Reading from 7359: heap size 76 MB, throughput 0.984757
Reading from 7359: heap size 73 MB, throughput 0.982359
Reading from 7358: heap size 1292 MB, throughput 0.931936
Reading from 7359: heap size 77 MB, throughput 0.982419
Numeric result:
Recommendation: 2 clients, utility 2.5771:
    h1: 69.5412 MB (U(h) = 0.911339*h^0.0170443)
    h2: 3599.46 MB (U(h) = 0.00191732*h^0.882213)
Recommendation: 2 clients, utility 2.5771:
    h1: 69.5412 MB (U(h) = 0.911339*h^0.0170443)
    h2: 3599.46 MB (U(h) = 0.00191732*h^0.882213)
Reading from 7359: heap size 73 MB, throughput 0.979785
Reading from 7359: heap size 71 MB, throughput 0.987449
Reading from 7359: heap size 69 MB, throughput 0.991481
Reading from 7359: heap size 73 MB, throughput 0.993711
Reading from 7359: heap size 71 MB, throughput 0.994592
Reading from 7359: heap size 71 MB, throughput 0.995042
Reading from 7359: heap size 68 MB, throughput 0.989248
Reading from 7358: heap size 1403 MB, throughput 0.957208
Reading from 7359: heap size 72 MB, throughput 0.988772
Reading from 7359: heap size 68 MB, throughput 0.988897
Reading from 7359: heap size 71 MB, throughput 0.992231
Reading from 7359: heap size 67 MB, throughput 0.994111
Reading from 7359: heap size 71 MB, throughput 0.995233
Reading from 7359: heap size 67 MB, throughput 0.995831
Reading from 7359: heap size 70 MB, throughput 0.996079
Reading from 7359: heap size 67 MB, throughput 0.996155
Reading from 7358: heap size 1409 MB, throughput 0.96727
Reading from 7359: heap size 70 MB, throughput 0.996157
Reading from 7359: heap size 67 MB, throughput 0.99603
Reading from 7359: heap size 70 MB, throughput 0.995924
Reading from 7359: heap size 67 MB, throughput 0.995813
Reading from 7359: heap size 70 MB, throughput 0.996275
Reading from 7359: heap size 72 MB, throughput 0.996187
Reading from 7359: heap size 68 MB, throughput 0.996207
Reading from 7359: heap size 71 MB, throughput 0.996139
Reading from 7358: heap size 1411 MB, throughput 0.972523
Reading from 7359: heap size 68 MB, throughput 0.996335
Reading from 7359: heap size 70 MB, throughput 0.9966
Reading from 7359: heap size 70 MB, throughput 0.996511
Reading from 7359: heap size 72 MB, throughput 0.996515
Reading from 7359: heap size 69 MB, throughput 0.996574
Numeric result:
Recommendation: 2 clients, utility 2.26612:
    h1: 75.0091 MB (U(h) = 0.914683*h^0.01639)
    h2: 3593.99 MB (U(h) = 0.0037259*h^0.785259)
Recommendation: 2 clients, utility 2.26612:
    h1: 75.014 MB (U(h) = 0.914683*h^0.01639)
    h2: 3593.99 MB (U(h) = 0.0037259*h^0.785259)
Reading from 7359: heap size 72 MB, throughput 0.996468
Reading from 7359: heap size 71 MB, throughput 0.995783
Reading from 7359: heap size 74 MB, throughput 0.996268
Reading from 7359: heap size 74 MB, throughput 0.996713
Reading from 7359: heap size 77 MB, throughput 0.996503
Reading from 7359: heap size 75 MB, throughput 0.996586
Reading from 7359: heap size 77 MB, throughput 0.996828
Reading from 7359: heap size 74 MB, throughput 0.996649
Reading from 7359: heap size 76 MB, throughput 0.991302
Reading from 7359: heap size 74 MB, throughput 0.966065
Reading from 7359: heap size 75 MB, throughput 0.96304
Reading from 7359: heap size 74 MB, throughput 0.930382
Reading from 7359: heap size 76 MB, throughput 0.952597
Reading from 7359: heap size 76 MB, throughput 0.993003
Reading from 7359: heap size 73 MB, throughput 0.973574
Reading from 7359: heap size 76 MB, throughput 0.987969
Reading from 7359: heap size 72 MB, throughput 0.992469
Reading from 7359: heap size 77 MB, throughput 0.993842
Reading from 7359: heap size 75 MB, throughput 0.995118
Reading from 7359: heap size 73 MB, throughput 0.995425
Reading from 7359: heap size 77 MB, throughput 0.995484
Reading from 7359: heap size 74 MB, throughput 0.995821
Reading from 7359: heap size 75 MB, throughput 0.994251
Reading from 7359: heap size 73 MB, throughput 0.995157
Reading from 7359: heap size 74 MB, throughput 0.995465
Reading from 7359: heap size 75 MB, throughput 0.995224
Reading from 7359: heap size 79 MB, throughput 0.995252
Reading from 7359: heap size 76 MB, throughput 0.995664
Reading from 7359: heap size 74 MB, throughput 0.995752
Reading from 7359: heap size 77 MB, throughput 0.988398
Numeric result:
Recommendation: 2 clients, utility 2.2669:
    h1: 73.9895 MB (U(h) = 0.915891*h^0.0161633)
    h2: 3595.01 MB (U(h) = 0.0037259*h^0.785259)
Recommendation: 2 clients, utility 2.2669:
    h1: 73.9974 MB (U(h) = 0.915891*h^0.0161633)
    h2: 3595 MB (U(h) = 0.0037259*h^0.785259)
Reading from 7359: heap size 74 MB, throughput 0.992128
Reading from 7359: heap size 73 MB, throughput 0.994263
Reading from 7359: heap size 76 MB, throughput 0.995391
Reading from 7359: heap size 74 MB, throughput 0.996136
Reading from 7359: heap size 76 MB, throughput 0.996349
Reading from 7359: heap size 73 MB, throughput 0.996488
Reading from 7359: heap size 75 MB, throughput 0.996349
Reading from 7359: heap size 72 MB, throughput 0.996483
Reading from 7359: heap size 74 MB, throughput 0.996497
Reading from 7359: heap size 71 MB, throughput 0.996186
Reading from 7359: heap size 73 MB, throughput 0.996255
Reading from 7359: heap size 73 MB, throughput 0.996214
Reading from 7359: heap size 77 MB, throughput 0.996225
Reading from 7359: heap size 74 MB, throughput 0.996572
Reading from 7359: heap size 76 MB, throughput 0.996793
Reading from 7359: heap size 74 MB, throughput 0.996678
Reading from 7359: heap size 76 MB, throughput 0.996806
Reading from 7359: heap size 73 MB, throughput 0.996836
Reading from 7359: heap size 75 MB, throughput 0.996725
Reading from 7359: heap size 73 MB, throughput 0.996459
Reading from 7359: heap size 75 MB, throughput 0.996349
Reading from 7359: heap size 72 MB, throughput 0.996493
Reading from 7359: heap size 74 MB, throughput 0.99649
Reading from 7358: heap size 1415 MB, throughput 0.992194
Reading from 7359: heap size 72 MB, throughput 0.996712
Reading from 7359: heap size 74 MB, throughput 0.996667
Reading from 7359: heap size 74 MB, throughput 0.996496
Reading from 7359: heap size 77 MB, throughput 0.989011
Numeric result:
Recommendation: 2 clients, utility 2.1987:
    h1: 75.281 MB (U(h) = 0.916985*h^0.015957)
    h2: 3593.72 MB (U(h) = 0.00438052*h^0.761721)
Recommendation: 2 clients, utility 2.1987:
    h1: 75.2835 MB (U(h) = 0.916985*h^0.015957)
    h2: 3593.72 MB (U(h) = 0.00438052*h^0.761721)
Reading from 7359: heap size 75 MB, throughput 0.968037
Reading from 7359: heap size 76 MB, throughput 0.964074
Reading from 7359: heap size 75 MB, throughput 0.937383
Reading from 7359: heap size 75 MB, throughput 0.946905
Reading from 7359: heap size 77 MB, throughput 0.961852
Reading from 7359: heap size 74 MB, throughput 0.981153
Reading from 7359: heap size 81 MB, throughput 0.991307
Reading from 7359: heap size 79 MB, throughput 0.988897
Reading from 7359: heap size 76 MB, throughput 0.988991
Reading from 7359: heap size 74 MB, throughput 0.989231
Reading from 7359: heap size 79 MB, throughput 0.992852
Reading from 7359: heap size 75 MB, throughput 0.994231
Reading from 7359: heap size 73 MB, throughput 0.994919
Reading from 7359: heap size 79 MB, throughput 0.995293
Reading from 7359: heap size 76 MB, throughput 0.995426
Reading from 7359: heap size 74 MB, throughput 0.995496
Reading from 7359: heap size 77 MB, throughput 0.99555
Reading from 7359: heap size 75 MB, throughput 0.995415
Reading from 7359: heap size 78 MB, throughput 0.987619
Reading from 7359: heap size 74 MB, throughput 0.988644
Reading from 7359: heap size 78 MB, throughput 0.989694
Reading from 7359: heap size 75 MB, throughput 0.992728
Reading from 7359: heap size 78 MB, throughput 0.994458
Reading from 7359: heap size 75 MB, throughput 0.995662
Reading from 7359: heap size 79 MB, throughput 0.996149
Reading from 7359: heap size 75 MB, throughput 0.996791
Reading from 7359: heap size 75 MB, throughput 0.996821
Reading from 7359: heap size 77 MB, throughput 0.996792
Reading from 7359: heap size 74 MB, throughput 0.996912
Numeric result:
Recommendation: 2 clients, utility 2.19849:
    h1: 75.5852 MB (U(h) = 0.916634*h^0.0160235)
    h2: 3593.41 MB (U(h) = 0.00438052*h^0.761721)
Recommendation: 2 clients, utility 2.19849:
    h1: 75.5905 MB (U(h) = 0.916634*h^0.0160235)
    h2: 3593.41 MB (U(h) = 0.00438052*h^0.761721)
Reading from 7359: heap size 77 MB, throughput 0.996557
Reading from 7359: heap size 73 MB, throughput 0.996457
Reading from 7359: heap size 76 MB, throughput 0.996521
Reading from 7359: heap size 75 MB, throughput 0.996555
Reading from 7359: heap size 79 MB, throughput 0.996744
Reading from 7359: heap size 76 MB, throughput 0.996815
Reading from 7359: heap size 78 MB, throughput 0.997019
Reading from 7359: heap size 75 MB, throughput 0.996994
Reading from 7359: heap size 77 MB, throughput 0.996986
Reading from 7359: heap size 74 MB, throughput 0.997025
Reading from 7359: heap size 76 MB, throughput 0.995364
Reading from 7358: heap size 1417 MB, throughput 0.990134
Reading from 7359: heap size 73 MB, throughput 0.995914
Reading from 7359: heap size 75 MB, throughput 0.996148
Reading from 7359: heap size 75 MB, throughput 0.99652
Reading from 7359: heap size 79 MB, throughput 0.996762
Reading from 7359: heap size 76 MB, throughput 0.996693
Reading from 7359: heap size 74 MB, throughput 0.996911
Reading from 7359: heap size 78 MB, throughput 0.994222
Reading from 7359: heap size 76 MB, throughput 0.979504
Reading from 7358: heap size 1391 MB, throughput 0.984158
Reading from 7359: heap size 78 MB, throughput 0.969595
Reading from 7359: heap size 76 MB, throughput 0.993836
Reading from 7359: heap size 74 MB, throughput 0.971013
Reading from 7358: heap size 1430 MB, throughput 0.971019
Reading from 7359: heap size 78 MB, throughput 0.976161
Reading from 7358: heap size 1418 MB, throughput 0.951045
Reading from 7359: heap size 77 MB, throughput 0.989036
Reading from 7358: heap size 1445 MB, throughput 0.918641
Reading from 7359: heap size 75 MB, throughput 0.993466
Reading from 7358: heap size 1471 MB, throughput 0.877985
Reading from 7359: heap size 78 MB, throughput 0.993684
Reading from 7358: heap size 1488 MB, throughput 0.824497
Reading from 7358: heap size 1518 MB, throughput 0.789994
Reading from 7359: heap size 75 MB, throughput 0.994808
Reading from 7358: heap size 1528 MB, throughput 0.789554
Reading from 7359: heap size 81 MB, throughput 0.986548
Reading from 7359: heap size 77 MB, throughput 0.991154
Numeric result:
Recommendation: 2 clients, utility 1.56774:
    h1: 114.66 MB (U(h) = 0.915935*h^0.0161535)
    h2: 3554.34 MB (U(h) = 0.0264359*h^0.500724)
Recommendation: 2 clients, utility 1.56774:
    h1: 114.664 MB (U(h) = 0.915935*h^0.0161535)
    h2: 3554.34 MB (U(h) = 0.0264359*h^0.500724)
Reading from 7359: heap size 75 MB, throughput 0.993711
Reading from 7359: heap size 80 MB, throughput 0.995064
Reading from 7359: heap size 80 MB, throughput 0.995662
Reading from 7358: heap size 1542 MB, throughput 0.934505
Reading from 7359: heap size 85 MB, throughput 0.996535
Reading from 7359: heap size 85 MB, throughput 0.996492
Reading from 7359: heap size 90 MB, throughput 0.996698
Reading from 7359: heap size 90 MB, throughput 0.996763
Reading from 7359: heap size 95 MB, throughput 0.997006
Reading from 7358: heap size 1553 MB, throughput 0.959728
Reading from 7359: heap size 90 MB, throughput 0.993945
Reading from 7359: heap size 87 MB, throughput 0.993435
Reading from 7359: heap size 85 MB, throughput 0.994869
Reading from 7359: heap size 81 MB, throughput 0.995887
Reading from 7359: heap size 79 MB, throughput 0.996219
Reading from 7359: heap size 76 MB, throughput 0.99649
Reading from 7359: heap size 74 MB, throughput 0.996412
Reading from 7358: heap size 1544 MB, throughput 0.966787
Reading from 7359: heap size 71 MB, throughput 0.996697
Reading from 7359: heap size 70 MB, throughput 0.996557
Reading from 7359: heap size 67 MB, throughput 0.996224
Reading from 7359: heap size 66 MB, throughput 0.996201
Reading from 7359: heap size 63 MB, throughput 0.996239
Reading from 7359: heap size 62 MB, throughput 0.995963
Reading from 7359: heap size 59 MB, throughput 0.995898
Reading from 7359: heap size 63 MB, throughput 0.995964
Reading from 7359: heap size 66 MB, throughput 0.996248
Reading from 7359: heap size 70 MB, throughput 0.996175
Reading from 7358: heap size 1559 MB, throughput 0.969178
Numeric result:
Recommendation: 2 clients, utility 1.54282:
    h1: 128.905 MB (U(h) = 0.909042*h^0.0178973)
    h2: 3540.1 MB (U(h) = 0.028036*h^0.491473)
Recommendation: 2 clients, utility 1.54282:
    h1: 128.914 MB (U(h) = 0.909042*h^0.0178973)
    h2: 3540.09 MB (U(h) = 0.028036*h^0.491473)
Reading from 7359: heap size 73 MB, throughput 0.99622
Reading from 7359: heap size 71 MB, throughput 0.996164
Reading from 7359: heap size 68 MB, throughput 0.996072
Reading from 7359: heap size 67 MB, throughput 0.995833
Reading from 7359: heap size 64 MB, throughput 0.996077
Reading from 7359: heap size 63 MB, throughput 0.996292
Reading from 7359: heap size 61 MB, throughput 0.996304
Reading from 7359: heap size 64 MB, throughput 0.996326
Reading from 7359: heap size 62 MB, throughput 0.996265
Reading from 7358: heap size 1546 MB, throughput 0.970949
Reading from 7359: heap size 65 MB, throughput 0.996187
Reading from 7359: heap size 68 MB, throughput 0.99653
Reading from 7359: heap size 67 MB, throughput 0.990256
Reading from 7359: heap size 71 MB, throughput 0.964987
Reading from 7359: heap size 77 MB, throughput 0.927284
Reading from 7359: heap size 82 MB, throughput 0.944256
Reading from 7359: heap size 84 MB, throughput 0.961396
Reading from 7359: heap size 92 MB, throughput 0.974291
Reading from 7359: heap size 92 MB, throughput 0.989777
Reading from 7359: heap size 101 MB, throughput 0.993233
Reading from 7359: heap size 102 MB, throughput 0.987988
Reading from 7359: heap size 109 MB, throughput 0.989655
Reading from 7358: heap size 1559 MB, throughput 0.960994
Reading from 7359: heap size 110 MB, throughput 0.987395
Reading from 7359: heap size 119 MB, throughput 0.992891
Reading from 7359: heap size 119 MB, throughput 0.995109
Reading from 7359: heap size 126 MB, throughput 0.996617
Reading from 7358: heap size 1529 MB, throughput 0.983218
Reading from 7359: heap size 127 MB, throughput 0.997225
Numeric result:
Recommendation: 2 clients, utility 1.44571:
    h1: 199.5 MB (U(h) = 0.879376*h^0.0248009)
    h2: 3469.5 MB (U(h) = 0.0428526*h^0.431292)
Recommendation: 2 clients, utility 1.44571:
    h1: 199.508 MB (U(h) = 0.879376*h^0.0248009)
    h2: 3469.49 MB (U(h) = 0.0428526*h^0.431292)
Reading from 7359: heap size 134 MB, throughput 0.997367
Reading from 7359: heap size 128 MB, throughput 0.997582
Reading from 7359: heap size 123 MB, throughput 0.997696
Reading from 7359: heap size 118 MB, throughput 0.997664
Reading from 7358: heap size 1537 MB, throughput 0.986911
Reading from 7359: heap size 114 MB, throughput 0.994503
Reading from 7359: heap size 109 MB, throughput 0.992629
Reading from 7359: heap size 105 MB, throughput 0.994933
Reading from 7359: heap size 102 MB, throughput 0.996284
Reading from 7359: heap size 97 MB, throughput 0.997043
Reading from 7359: heap size 95 MB, throughput 0.997132
Reading from 7358: heap size 1561 MB, throughput 0.98737
Reading from 7359: heap size 90 MB, throughput 0.997453
Reading from 7359: heap size 89 MB, throughput 0.997392
Reading from 7359: heap size 84 MB, throughput 0.997336
Reading from 7359: heap size 83 MB, throughput 0.997083
Reading from 7359: heap size 79 MB, throughput 0.997001
Reading from 7359: heap size 78 MB, throughput 0.996794
Reading from 7359: heap size 74 MB, throughput 0.996907
Reading from 7359: heap size 73 MB, throughput 0.996277
Reading from 7358: heap size 1567 MB, throughput 0.986975
Reading from 7359: heap size 69 MB, throughput 0.996209
Numeric result:
Recommendation: 2 clients, utility 1.28553:
    h1: 51.4174 MB (U(h) = 0.971438*h^0.00454687)
    h2: 3617.58 MB (U(h) = 0.0945525*h^0.319865)
Recommendation: 2 clients, utility 1.28553:
    h1: 51.4238 MB (U(h) = 0.971438*h^0.00454687)
    h2: 3617.58 MB (U(h) = 0.0945525*h^0.319865)
Reading from 7359: heap size 68 MB, throughput 0.992252
Reading from 7359: heap size 66 MB, throughput 0.988492
Reading from 7359: heap size 65 MB, throughput 0.994411
Reading from 7359: heap size 61 MB, throughput 0.983962
Reading from 7359: heap size 60 MB, throughput 0.982474
Reading from 7359: heap size 58 MB, throughput 0.980124
Reading from 7359: heap size 57 MB, throughput 0.978827
Reading from 7359: heap size 56 MB, throughput 0.97963
Reading from 7359: heap size 55 MB, throughput 0.989815
Reading from 7359: heap size 53 MB, throughput 0.969591
Reading from 7359: heap size 52 MB, throughput 0.96489
Reading from 7359: heap size 50 MB, throughput 0.966285
Reading from 7359: heap size 57 MB, throughput 0.980822
Reading from 7359: heap size 54 MB, throughput 0.987682
Reading from 7359: heap size 55 MB, throughput 0.990846
Reading from 7359: heap size 52 MB, throughput 0.993078
Reading from 7359: heap size 53 MB, throughput 0.993375
Reading from 7358: heap size 1570 MB, throughput 0.985796
Reading from 7359: heap size 50 MB, throughput 0.99388
Reading from 7359: heap size 55 MB, throughput 0.993966
Reading from 7359: heap size 52 MB, throughput 0.994822
Reading from 7359: heap size 53 MB, throughput 0.995012
Reading from 7359: heap size 50 MB, throughput 0.995133
Reading from 7359: heap size 55 MB, throughput 0.995205
Reading from 7359: heap size 53 MB, throughput 0.995239
Reading from 7359: heap size 53 MB, throughput 0.994956
Reading from 7359: heap size 51 MB, throughput 0.99516
Reading from 7359: heap size 51 MB, throughput 0.99512
Reading from 7359: heap size 49 MB, throughput 0.995121
Reading from 7359: heap size 49 MB, throughput 0.995077
Reading from 7359: heap size 47 MB, throughput 0.994996
Reading from 7359: heap size 51 MB, throughput 0.99491
Reading from 7359: heap size 53 MB, throughput 0.995137
Reading from 7358: heap size 1576 MB, throughput 0.984919
Reading from 7359: heap size 53 MB, throughput 0.995474
Reading from 7359: heap size 51 MB, throughput 0.995443
Reading from 7359: heap size 51 MB, throughput 0.995431
Reading from 7359: heap size 49 MB, throughput 0.995141
Reading from 7359: heap size 49 MB, throughput 0.994695
Reading from 7359: heap size 47 MB, throughput 0.994745
Reading from 7359: heap size 51 MB, throughput 0.994604
Reading from 7359: heap size 49 MB, throughput 0.994717
Reading from 7359: heap size 49 MB, throughput 0.994845
Reading from 7359: heap size 51 MB, throughput 0.99513
Reading from 7359: heap size 51 MB, throughput 0.995084
Reading from 7359: heap size 49 MB, throughput 0.995082
Reading from 7359: heap size 49 MB, throughput 0.994999
Reading from 7359: heap size 47 MB, throughput 0.994869
Reading from 7359: heap size 50 MB, throughput 0.99517
Numeric result:
Recommendation: 2 clients, utility 1.23522:
    h1: 47.1637 MB (U(h) = 0.975085*h^0.00366643)
    h2: 3621.84 MB (U(h) = 0.124292*h^0.281579)
Recommendation: 2 clients, utility 1.23522:
    h1: 47.1598 MB (U(h) = 0.975085*h^0.00366643)
    h2: 3621.84 MB (U(h) = 0.124292*h^0.281579)
Reading from 7359: heap size 54 MB, throughput 0.995676
Reading from 7358: heap size 1558 MB, throughput 0.983394
Reading from 7359: heap size 53 MB, throughput 0.995806
Reading from 7359: heap size 52 MB, throughput 0.995675
Reading from 7359: heap size 51 MB, throughput 0.995438
Reading from 7359: heap size 50 MB, throughput 0.995066
Reading from 7359: heap size 49 MB, throughput 0.994791
Reading from 7359: heap size 48 MB, throughput 0.994788
Reading from 7359: heap size 47 MB, throughput 0.994192
Reading from 7359: heap size 50 MB, throughput 0.994495
Reading from 7359: heap size 49 MB, throughput 0.994204
Reading from 7359: heap size 48 MB, throughput 0.994079
Reading from 7359: heap size 47 MB, throughput 0.994297
Reading from 7359: heap size 50 MB, throughput 0.994861
Reading from 7359: heap size 49 MB, throughput 0.994972
Reading from 7359: heap size 48 MB, throughput 0.995187
Reading from 7359: heap size 47 MB, throughput 0.994886
Reading from 7359: heap size 46 MB, throughput 0.994582
Reading from 7359: heap size 49 MB, throughput 0.995126
Reading from 7358: heap size 1399 MB, throughput 0.98126
Reading from 7359: heap size 48 MB, throughput 0.994965
Reading from 7359: heap size 47 MB, throughput 0.994949
Reading from 7359: heap size 46 MB, throughput 0.994562
Reading from 7359: heap size 49 MB, throughput 0.994811
Reading from 7359: heap size 48 MB, throughput 0.99496
Reading from 7359: heap size 47 MB, throughput 0.995184
Reading from 7359: heap size 46 MB, throughput 0.994777
Reading from 7359: heap size 49 MB, throughput 0.994714
Reading from 7359: heap size 48 MB, throughput 0.994654
Reading from 7359: heap size 47 MB, throughput 0.994436
Reading from 7359: heap size 46 MB, throughput 0.994322
Reading from 7359: heap size 49 MB, throughput 0.994907
Reading from 7359: heap size 48 MB, throughput 0.985275
Reading from 7359: heap size 47 MB, throughput 0.958887
Reading from 7359: heap size 46 MB, throughput 0.956384
Reading from 7359: heap size 51 MB, throughput 0.934694
Reading from 7359: heap size 50 MB, throughput 0.902464
Reading from 7359: heap size 50 MB, throughput 0.857514
Reading from 7359: heap size 48 MB, throughput 0.883068
Reading from 7359: heap size 48 MB, throughput 0.922324
Reading from 7359: heap size 48 MB, throughput 0.902191
Reading from 7359: heap size 47 MB, throughput 0.909344
Reading from 7359: heap size 46 MB, throughput 0.98995
Reading from 7359: heap size 53 MB, throughput 0.96937
Reading from 7358: heap size 1541 MB, throughput 0.978914
Reading from 7359: heap size 52 MB, throughput 0.986951
Reading from 7359: heap size 50 MB, throughput 0.979512
Reading from 7359: heap size 49 MB, throughput 0.986713
Reading from 7359: heap size 51 MB, throughput 0.989649
Reading from 7359: heap size 48 MB, throughput 0.991971
Reading from 7359: heap size 50 MB, throughput 0.992662
Reading from 7359: heap size 47 MB, throughput 0.993227
Reading from 7359: heap size 53 MB, throughput 0.993584
Reading from 7359: heap size 50 MB, throughput 0.993723
Reading from 7359: heap size 51 MB, throughput 0.993534
Reading from 7359: heap size 48 MB, throughput 0.993906
Numeric result:
Recommendation: 2 clients, utility 1.13858:
    h1: 114.997 MB (U(h) = 0.961579*h^0.00654025)
    h2: 3554 MB (U(h) = 0.219917*h^0.202112)
Recommendation: 2 clients, utility 1.13858:
    h1: 115.006 MB (U(h) = 0.961579*h^0.00654025)
    h2: 3553.99 MB (U(h) = 0.219917*h^0.202112)
Reading from 7359: heap size 49 MB, throughput 0.993663
Reading from 7359: heap size 51 MB, throughput 0.994447
Reading from 7359: heap size 56 MB, throughput 0.994551
Reading from 7359: heap size 53 MB, throughput 0.994834
Reading from 7359: heap size 53 MB, throughput 0.994686
Reading from 7359: heap size 51 MB, throughput 0.995088
Reading from 7358: heap size 1431 MB, throughput 0.978229
Reading from 7359: heap size 51 MB, throughput 0.995101
Reading from 7359: heap size 49 MB, throughput 0.994938
Reading from 7359: heap size 49 MB, throughput 0.994802
Reading from 7359: heap size 47 MB, throughput 0.994659
Reading from 7359: heap size 47 MB, throughput 0.993746
Reading from 7359: heap size 49 MB, throughput 0.994144
Reading from 7359: heap size 53 MB, throughput 0.994324
Reading from 7359: heap size 51 MB, throughput 0.994376
Reading from 7359: heap size 51 MB, throughput 0.994421
Reading from 7359: heap size 49 MB, throughput 0.994677
Reading from 7359: heap size 49 MB, throughput 0.994266
Reading from 7359: heap size 47 MB, throughput 0.994151
Reading from 7359: heap size 51 MB, throughput 0.994679
Reading from 7359: heap size 49 MB, throughput 0.994633
Reading from 7359: heap size 49 MB, throughput 0.994336
Reading from 7359: heap size 52 MB, throughput 0.994317
Reading from 7359: heap size 51 MB, throughput 0.99468
Reading from 7359: heap size 50 MB, throughput 0.994992
Reading from 7358: heap size 1541 MB, throughput 0.977173
Reading from 7359: heap size 49 MB, throughput 0.995363
Reading from 7359: heap size 48 MB, throughput 0.995204
Reading from 7359: heap size 47 MB, throughput 0.994882
Reading from 7359: heap size 46 MB, throughput 0.994866
Reading from 7359: heap size 45 MB, throughput 0.994547
Reading from 7359: heap size 48 MB, throughput 0.994329
Reading from 7359: heap size 51 MB, throughput 0.994761
Reading from 7359: heap size 54 MB, throughput 0.994912
Reading from 7359: heap size 53 MB, throughput 0.994812
Reading from 7359: heap size 52 MB, throughput 0.994465
Reading from 7359: heap size 51 MB, throughput 0.994746
Reading from 7359: heap size 50 MB, throughput 0.994896
Reading from 7359: heap size 49 MB, throughput 0.994908
Reading from 7359: heap size 48 MB, throughput 0.994782
Reading from 7359: heap size 47 MB, throughput 0.994661
Reading from 7359: heap size 46 MB, throughput 0.994553
Reading from 7359: heap size 49 MB, throughput 0.99476
Reading from 7359: heap size 48 MB, throughput 0.994876
Reading from 7358: heap size 1547 MB, throughput 0.97483
Reading from 7359: heap size 47 MB, throughput 0.995039
Reading from 7359: heap size 46 MB, throughput 0.994526
Reading from 7359: heap size 45 MB, throughput 0.994293
Reading from 7359: heap size 44 MB, throughput 0.994274
Reading from 7359: heap size 47 MB, throughput 0.994554
Numeric result:
Recommendation: 2 clients, utility 1.13548:
    h1: 32.3146 MB (U(h) = 0.983928*h^0.00174219)
    h2: 3636.69 MB (U(h) = 0.22991*h^0.196037)
Recommendation: 2 clients, utility 1.13548:
    h1: 32.3194 MB (U(h) = 0.983928*h^0.00174219)
    h2: 3636.68 MB (U(h) = 0.22991*h^0.196037)
Reading from 7359: heap size 50 MB, throughput 0.994884
Reading from 7359: heap size 48 MB, throughput 0.994996
Reading from 7359: heap size 47 MB, throughput 0.99447
Reading from 7359: heap size 46 MB, throughput 0.994499
Reading from 7359: heap size 45 MB, throughput 0.99455
Reading from 7359: heap size 44 MB, throughput 0.994207
Reading from 7359: heap size 43 MB, throughput 0.993807
Reading from 7359: heap size 42 MB, throughput 0.993318
Reading from 7359: heap size 42 MB, throughput 0.99303
Reading from 7359: heap size 41 MB, throughput 0.992536
Reading from 7359: heap size 41 MB, throughput 0.993032
Reading from 7359: heap size 40 MB, throughput 0.993146
Reading from 7359: heap size 40 MB, throughput 0.992953
Reading from 7359: heap size 39 MB, throughput 0.993015
Reading from 7359: heap size 39 MB, throughput 0.99206
Reading from 7359: heap size 38 MB, throughput 0.992109
Reading from 7359: heap size 38 MB, throughput 0.992066
Reading from 7359: heap size 37 MB, throughput 0.991706
Reading from 7358: heap size 1553 MB, throughput 0.973492
Reading from 7359: heap size 37 MB, throughput 0.992224
Reading from 7359: heap size 36 MB, throughput 0.991254
Reading from 7359: heap size 36 MB, throughput 0.990581
Reading from 7359: heap size 35 MB, throughput 0.990578
Reading from 7359: heap size 35 MB, throughput 0.968633
Reading from 7359: heap size 35 MB, throughput 0.925476
Reading from 7359: heap size 35 MB, throughput 0.923311
Reading from 7359: heap size 36 MB, throughput 0.929126
Reading from 7359: heap size 35 MB, throughput 0.931754
Reading from 7359: heap size 36 MB, throughput 0.931785
Reading from 7359: heap size 36 MB, throughput 0.930779
Reading from 7359: heap size 36 MB, throughput 0.910673
Reading from 7359: heap size 35 MB, throughput 0.928743
Reading from 7359: heap size 36 MB, throughput 0.927858
Reading from 7359: heap size 36 MB, throughput 0.918366
Reading from 7359: heap size 36 MB, throughput 0.933093
Reading from 7359: heap size 35 MB, throughput 0.927963
Reading from 7359: heap size 36 MB, throughput 0.92681
Reading from 7359: heap size 36 MB, throughput 0.937361
Reading from 7359: heap size 36 MB, throughput 0.941379
Reading from 7359: heap size 35 MB, throughput 0.940161
Reading from 7359: heap size 36 MB, throughput 0.939995
Reading from 7359: heap size 36 MB, throughput 0.93608
Reading from 7359: heap size 36 MB, throughput 0.967955
Reading from 7359: heap size 35 MB, throughput 0.979931
Reading from 7359: heap size 36 MB, throughput 0.984882
Reading from 7359: heap size 35 MB, throughput 0.987117
Reading from 7359: heap size 36 MB, throughput 0.988156
Reading from 7359: heap size 35 MB, throughput 0.989343
Reading from 7359: heap size 36 MB, throughput 0.989494
Reading from 7359: heap size 35 MB, throughput 0.989921
Reading from 7359: heap size 36 MB, throughput 0.989958
Reading from 7359: heap size 35 MB, throughput 0.990134
Reading from 7359: heap size 36 MB, throughput 0.987702
Reading from 7359: heap size 35 MB, throughput 0.989213
Reading from 7359: heap size 36 MB, throughput 0.989436
Reading from 7359: heap size 35 MB, throughput 0.990029
Reading from 7359: heap size 36 MB, throughput 0.989946
Reading from 7359: heap size 35 MB, throughput 0.989965
Reading from 7359: heap size 36 MB, throughput 0.989862
Reading from 7359: heap size 35 MB, throughput 0.99029
Reading from 7359: heap size 36 MB, throughput 0.989731
Reading from 7359: heap size 35 MB, throughput 0.989571
Reading from 7359: heap size 36 MB, throughput 0.989974
Reading from 7359: heap size 35 MB, throughput 0.989488
Reading from 7359: heap size 36 MB, throughput 0.991059
Reading from 7358: heap size 1556 MB, throughput 0.972033
Reading from 7359: heap size 35 MB, throughput 0.990004
Reading from 7359: heap size 35 MB, throughput 0.990526
Reading from 7359: heap size 35 MB, throughput 0.990724
Reading from 7359: heap size 35 MB, throughput 0.990693
Reading from 7359: heap size 35 MB, throughput 0.990624
Reading from 7359: heap size 35 MB, throughput 0.990406
Reading from 7359: heap size 35 MB, throughput 0.989842
Reading from 7359: heap size 35 MB, throughput 0.989785
Reading from 7359: heap size 35 MB, throughput 0.989924
Reading from 7359: heap size 35 MB, throughput 0.989363
Reading from 7359: heap size 35 MB, throughput 0.98998
Reading from 7359: heap size 35 MB, throughput 0.990124
Reading from 7359: heap size 35 MB, throughput 0.990241
Reading from 7359: heap size 35 MB, throughput 0.990136
Reading from 7359: heap size 35 MB, throughput 0.990317
Reading from 7359: heap size 35 MB, throughput 0.989991
Reading from 7359: heap size 35 MB, throughput 0.989686
Reading from 7359: heap size 35 MB, throughput 0.989882
Reading from 7359: heap size 35 MB, throughput 0.990099
Reading from 7359: heap size 35 MB, throughput 0.989805
Reading from 7359: heap size 35 MB, throughput 0.98952
Reading from 7359: heap size 35 MB, throughput 0.989537
Reading from 7359: heap size 35 MB, throughput 0.989537
Reading from 7359: heap size 35 MB, throughput 0.989935
Reading from 7359: heap size 35 MB, throughput 0.990152
Reading from 7359: heap size 35 MB, throughput 0.990255
Numeric result:
Recommendation: 2 clients, utility 1.13834:
    h1: 20.3818 MB (U(h) = 0.986948*h^0.00110299)
    h2: 3648.62 MB (U(h) = 0.227607*h^0.197452)
Recommendation: 2 clients, utility 1.13834:
    h1: 20.3817 MB (U(h) = 0.986948*h^0.00110299)
    h2: 3648.62 MB (U(h) = 0.227607*h^0.197452)
Reading from 7359: heap size 35 MB, throughput 0.990192
Reading from 7359: heap size 35 MB, throughput 0.990359
Reading from 7359: heap size 34 MB, throughput 0.989871
Reading from 7359: heap size 34 MB, throughput 0.989662
Reading from 7359: heap size 33 MB, throughput 0.989246
Reading from 7359: heap size 33 MB, throughput 0.988992
Reading from 7358: heap size 1564 MB, throughput 0.969859
Reading from 7359: heap size 32 MB, throughput 0.988944
Reading from 7359: heap size 32 MB, throughput 0.988133
Reading from 7359: heap size 32 MB, throughput 0.98799
Reading from 7359: heap size 32 MB, throughput 0.987136
Reading from 7359: heap size 32 MB, throughput 0.987455
Reading from 7359: heap size 32 MB, throughput 0.987568
Reading from 7359: heap size 32 MB, throughput 0.987726
Reading from 7359: heap size 32 MB, throughput 0.9875
Reading from 7359: heap size 32 MB, throughput 0.987715
Reading from 7359: heap size 32 MB, throughput 0.987613
Reading from 7359: heap size 32 MB, throughput 0.987171
Reading from 7359: heap size 32 MB, throughput 0.987796
Reading from 7359: heap size 32 MB, throughput 0.987254
Reading from 7359: heap size 32 MB, throughput 0.98759
Reading from 7359: heap size 32 MB, throughput 0.987356
Reading from 7359: heap size 32 MB, throughput 0.987684
Reading from 7359: heap size 32 MB, throughput 0.987004
Reading from 7359: heap size 32 MB, throughput 0.987684
Reading from 7359: heap size 32 MB, throughput 0.987049
Reading from 7359: heap size 32 MB, throughput 0.987952
Reading from 7359: heap size 32 MB, throughput 0.987498
Reading from 7359: heap size 32 MB, throughput 0.98792
Reading from 7359: heap size 32 MB, throughput 0.987205
Reading from 7359: heap size 32 MB, throughput 0.987439
Reading from 7359: heap size 32 MB, throughput 0.987606
Reading from 7359: heap size 32 MB, throughput 0.98787
Reading from 7359: heap size 32 MB, throughput 0.987732
Reading from 7359: heap size 32 MB, throughput 0.98729
Reading from 7359: heap size 32 MB, throughput 0.987648
Reading from 7359: heap size 32 MB, throughput 0.987331
Reading from 7359: heap size 32 MB, throughput 0.987496
Reading from 7359: heap size 32 MB, throughput 0.987773
Reading from 7359: heap size 32 MB, throughput 0.987391
Reading from 7359: heap size 32 MB, throughput 0.986967
Reading from 7359: heap size 32 MB, throughput 0.987329
Reading from 7359: heap size 32 MB, throughput 0.987284
Reading from 7359: heap size 32 MB, throughput 0.987447
Reading from 7359: heap size 32 MB, throughput 0.987132
Reading from 7359: heap size 32 MB, throughput 0.986741
Reading from 7359: heap size 32 MB, throughput 0.987265
Reading from 7359: heap size 32 MB, throughput 0.988466
Reading from 7358: heap size 1572 MB, throughput 0.968345
Reading from 7359: heap size 32 MB, throughput 0.988424
Reading from 7359: heap size 32 MB, throughput 0.988163
Reading from 7359: heap size 32 MB, throughput 0.986977
Reading from 7359: heap size 32 MB, throughput 0.987492
Reading from 7359: heap size 32 MB, throughput 0.987167
Reading from 7359: heap size 32 MB, throughput 0.987911
Reading from 7359: heap size 32 MB, throughput 0.98681
Reading from 7359: heap size 32 MB, throughput 0.986552
Reading from 7359: heap size 32 MB, throughput 0.987022
Reading from 7359: heap size 32 MB, throughput 0.987533
Reading from 7359: heap size 32 MB, throughput 0.987622
Reading from 7359: heap size 32 MB, throughput 0.987318
Reading from 7359: heap size 32 MB, throughput 0.987278
Reading from 7359: heap size 32 MB, throughput 0.98741
Reading from 7359: heap size 32 MB, throughput 0.987361
Reading from 7359: heap size 32 MB, throughput 0.987779
Reading from 7359: heap size 32 MB, throughput 0.987804
Reading from 7359: heap size 32 MB, throughput 0.987808
Reading from 7359: heap size 32 MB, throughput 0.987694
Reading from 7359: heap size 32 MB, throughput 0.98712
Reading from 7359: heap size 32 MB, throughput 0.987249
Reading from 7359: heap size 32 MB, throughput 0.98599
Reading from 7359: heap size 32 MB, throughput 0.987182
Reading from 7359: heap size 32 MB, throughput 0.986572
Reading from 7359: heap size 32 MB, throughput 0.987628
Reading from 7359: heap size 32 MB, throughput 0.987012
Reading from 7359: heap size 32 MB, throughput 0.987507
Reading from 7359: heap size 32 MB, throughput 0.987363
Reading from 7359: heap size 32 MB, throughput 0.987926
Reading from 7359: heap size 32 MB, throughput 0.987499
Reading from 7359: heap size 32 MB, throughput 0.987777
Reading from 7359: heap size 32 MB, throughput 0.987852
Reading from 7359: heap size 32 MB, throughput 0.987979
Reading from 7359: heap size 32 MB, throughput 0.9877
Reading from 7359: heap size 32 MB, throughput 0.987219
Reading from 7359: heap size 32 MB, throughput 0.987777
Reading from 7359: heap size 32 MB, throughput 0.98766
Reading from 7359: heap size 32 MB, throughput 0.988034
Reading from 7359: heap size 32 MB, throughput 0.987619
Reading from 7359: heap size 32 MB, throughput 0.98713
Reading from 7359: heap size 32 MB, throughput 0.987257
Reading from 7359: heap size 32 MB, throughput 0.987434
Reading from 7358: heap size 1587 MB, throughput 0.967741
Reading from 7359: heap size 32 MB, throughput 0.987428
Reading from 7359: heap size 32 MB, throughput 0.987437
Reading from 7359: heap size 32 MB, throughput 0.987247
Reading from 7359: heap size 32 MB, throughput 0.987705
Reading from 7359: heap size 32 MB, throughput 0.987244
Reading from 7359: heap size 32 MB, throughput 0.987928
Reading from 7359: heap size 32 MB, throughput 0.9876
Reading from 7359: heap size 32 MB, throughput 0.987632
Reading from 7359: heap size 32 MB, throughput 0.987077
Reading from 7359: heap size 32 MB, throughput 0.987386
Reading from 7359: heap size 32 MB, throughput 0.987623
Reading from 7359: heap size 32 MB, throughput 0.987352
Reading from 7359: heap size 32 MB, throughput 0.987369
Reading from 7359: heap size 32 MB, throughput 0.987468
Reading from 7359: heap size 32 MB, throughput 0.987882
Numeric result:
Recommendation: 2 clients, utility 1.1506:
    h1: 17.6251 MB (U(h) = 0.988178*h^0.001)
    h2: 3651.37 MB (U(h) = 0.21221*h^0.207182)
Recommendation: 2 clients, utility 1.1506:
    h1: 17.624 MB (U(h) = 0.988178*h^0.001)
    h2: 3651.38 MB (U(h) = 0.21221*h^0.207182)
Reading from 7359: heap size 32 MB, throughput 0.987517
Client 7359 died
Clients: 1
Reading from 7358: heap size 1595 MB, throughput 0.968277
Reading from 7358: heap size 1610 MB, throughput 0.968776
Reading from 7358: heap size 1615 MB, throughput 0.968417
Recommendation: one client; give it all the memory
Reading from 7358: heap size 1631 MB, throughput 0.969011
Reading from 7358: heap size 1634 MB, throughput 0.968783
Recommendation: one client; give it all the memory
Reading from 7358: heap size 1649 MB, throughput 0.968872
Recommendation: one client; give it all the memory
Recommendation: one client; give it all the memory
Recommendation: one client; give it all the memory
Reading from 7358: heap size 1651 MB, throughput 0.99225
Reading from 7358: heap size 1660 MB, throughput 0.990035
Reading from 7358: heap size 1667 MB, throughput 0.980863
Reading from 7358: heap size 1652 MB, throughput 0.966833
Reading from 7358: heap size 1677 MB, throughput 0.942278
Client 7358 died
Clients: 0
Recommendation: no clients; no recommendation
Recommendation: no clients; no recommendation
ReadingThread: finished
TimerThread: finished
CommandThread: finished
Main: All threads killed, cleaning up
