F S UID        PID  PPID  C PRI  NI ADDR SZ WCHAN    RSS PSR STIME TTY          TIME CMD
4 S root         1     0  0  80   0 -  8460 poll_s  3200   2 Sep25 ?        00:00:00 /sbin/init
1 S root         2     0  0  80   0 -     0 kthrea     0   0 Sep25 ?        00:00:00 [kthreadd]
1 S root         3     2  0  80   0 -     0 smpboo     0   0 Sep25 ?        00:00:00 [ksoftirqd/0]
1 S root         5     2  0  60 -20 -     0 worker     0   0 Sep25 ?        00:00:00 [kworker/0:0H]
1 S root         7     2  0  80   0 -     0 rcu_gp     0   1 Sep25 ?        00:00:20 [rcu_sched]
1 S root         8     2  0  80   0 -     0 rcu_no     0   2 Sep25 ?        00:00:08 [rcuos/0]
1 S root         9     2  0  80   0 -     0 rcu_no     0   2 Sep25 ?        00:00:39 [rcuos/1]
1 S root        10     2  0  80   0 -     0 rcu_no     0   3 Sep25 ?        00:00:06 [rcuos/2]
1 S root        11     2  0  80   0 -     0 rcu_no     0   3 Sep25 ?        00:00:03 [rcuos/3]
1 S root        12     2  0  80   0 -     0 rcu_gp     0   0 Sep25 ?        00:00:00 [rcu_bh]
1 S root        13     2  0  80   0 -     0 rcu_no     0   0 Sep25 ?        00:00:00 [rcuob/0]
1 S root        14     2  0  80   0 -     0 rcu_no     0   0 Sep25 ?        00:00:00 [rcuob/1]
1 S root        15     2  0  80   0 -     0 rcu_no     0   0 Sep25 ?        00:00:00 [rcuob/2]
1 S root        16     2  0  80   0 -     0 rcu_no     0   0 Sep25 ?        00:00:00 [rcuob/3]
1 S root        17     2  0 -40   - -     0 smpboo     0   0 Sep25 ?        00:00:00 [migration/0]
5 S root        18     2  0 -40   - -     0 smpboo     0   0 Sep25 ?        00:00:00 [watchdog/0]
5 S root        19     2  0 -40   - -     0 smpboo     0   1 Sep25 ?        00:00:00 [watchdog/1]
1 S root        20     2  0 -40   - -     0 smpboo     0   1 Sep25 ?        00:00:00 [migration/1]
1 S root        21     2  0  80   0 -     0 smpboo     0   1 Sep25 ?        00:00:00 [ksoftirqd/1]
1 S root        23     2  0  60 -20 -     0 worker     0   1 Sep25 ?        00:00:00 [kworker/1:0H]
5 S root        24     2  0 -40   - -     0 smpboo     0   2 Sep25 ?        00:00:00 [watchdog/2]
1 S root        25     2  0 -40   - -     0 smpboo     0   2 Sep25 ?        00:00:00 [migration/2]
1 S root        26     2  0  80   0 -     0 smpboo     0   2 Sep25 ?        00:00:00 [ksoftirqd/2]
1 S root        27     2  0  80   0 -     0 worker     0   2 Sep25 ?        00:00:00 [kworker/2:0]
1 S root        28     2  0  60 -20 -     0 worker     0   2 Sep25 ?        00:00:00 [kworker/2:0H]
5 S root        29     2  0 -40   - -     0 smpboo     0   3 Sep25 ?        00:00:00 [watchdog/3]
1 S root        30     2  0 -40   - -     0 smpboo     0   3 Sep25 ?        00:00:00 [migration/3]
1 S root        31     2  0  80   0 -     0 smpboo     0   3 Sep25 ?        00:00:00 [ksoftirqd/3]
1 S root        32     2  0  80   0 -     0 worker     0   3 Sep25 ?        00:00:00 [kworker/3:0]
1 S root        33     2  0  60 -20 -     0 worker     0   3 Sep25 ?        00:00:00 [kworker/3:0H]
1 S root        34     2  0  60 -20 -     0 rescue     0   3 Sep25 ?        00:00:00 [khelper]
5 S root        35     2  0  80   0 -     0 devtmp     0   0 Sep25 ?        00:00:00 [kdevtmpfs]
1 S root        36     2  0  60 -20 -     0 rescue     0   3 Sep25 ?        00:00:00 [netns]
1 S root        37     2  0  60 -20 -     0 rescue     0   3 Sep25 ?        00:00:00 [writeback]
1 S root        38     2  0  60 -20 -     0 rescue     0   1 Sep25 ?        00:00:00 [kintegrityd]
1 S root        39     2  0  60 -20 -     0 rescue     0   1 Sep25 ?        00:00:00 [bioset]
1 S root        41     2  0  60 -20 -     0 rescue     0   2 Sep25 ?        00:00:00 [kblockd]
1 S root        42     2  0  60 -20 -     0 rescue     0   2 Sep25 ?        00:00:00 [ata_sff]
1 S root        43     2  0  80   0 -     0 hub_th     0   1 Sep25 ?        00:00:00 [khubd]
1 S root        44     2  0  60 -20 -     0 rescue     0   2 Sep25 ?        00:00:00 [md]
1 S root        45     2  0  60 -20 -     0 rescue     0   3 Sep25 ?        00:00:00 [devfreq_wq]
1 S root        46     2  0  80   0 -     0 worker     0   0 Sep25 ?        00:00:00 [kworker/0:1]
1 S root        47     2  0  80   0 -     0 worker     0   1 Sep25 ?        00:00:00 [kworker/1:1]
1 S root        49     2  0  80   0 -     0 watchd     0   1 Sep25 ?        00:00:00 [khungtaskd]
1 S root        50     2  0  80   0 -     0 kswapd     0   3 Sep25 ?        00:00:00 [kswapd0]
1 S root        51     2  0  85   5 -     0 ksm_sc     0   3 Sep25 ?        00:00:00 [ksmd]
1 S root        52     2  0  99  19 -     0 khugep     0   3 Sep25 ?        00:00:04 [khugepaged]
1 S root        53     2  0  80   0 -     0 fsnoti     0   2 Sep25 ?        00:00:00 [fsnotify_mark]
1 S root        54     2  0  80   0 -     0 ecrypt     0   3 Sep25 ?        00:00:00 [ecryptfs-kthrea]
1 S root        55     2  0  60 -20 -     0 rescue     0   3 Sep25 ?        00:00:00 [crypto]
1 S root        67     2  0  60 -20 -     0 rescue     0   3 Sep25 ?        00:00:00 [kthrotld]
1 S root        87     2  0  60 -20 -     0 rescue     0   0 Sep25 ?        00:00:00 [deferwq]
1 S root        88     2  0  60 -20 -     0 rescue     0   0 Sep25 ?        00:00:00 [charger_manager]
1 S root        94     2  0  80   0 -     0 worker     0   2 Sep25 ?        00:00:23 [kworker/2:1]
1 S root       136     2  0  60 -20 -     0 rescue     0   2 Sep25 ?        00:00:00 [kpsmoused]
1 S root       137     2  0  80   0 -     0 worker     0   0 Sep25 ?        00:00:25 [kworker/0:2]
1 S root       138     2  0  80   0 -     0 scsi_e     0   0 Sep25 ?        00:00:00 [scsi_eh_0]
1 S root       139     2  0  80   0 -     0 scsi_e     0   1 Sep25 ?        00:00:00 [scsi_eh_1]
1 S root       140     2  0  80   0 -     0 scsi_e     0   2 Sep25 ?        00:00:00 [scsi_eh_2]
1 S root       141     2  0  80   0 -     0 scsi_e     0   2 Sep25 ?        00:00:00 [scsi_eh_3]
1 S root       142     2  0  80   0 -     0 scsi_e     0   2 Sep25 ?        00:00:00 [scsi_eh_4]
1 S root       143     2  0  80   0 -     0 scsi_e     0   2 Sep25 ?        00:00:00 [scsi_eh_5]
1 S root       174     2  0  80   0 -     0 worker     0   1 Sep25 ?        00:00:22 [kworker/1:2]
1 S root       175     2  0  80   0 -     0 worker     0   3 Sep25 ?        00:00:22 [kworker/3:1]
1 S root       189     2  0  60 -20 -     0 rescue     0   0 Sep25 ?        00:00:00 [kdmflush]
1 S root       190     2  0  60 -20 -     0 rescue     0   1 Sep25 ?        00:00:00 [bioset]
1 S root       192     2  0  60 -20 -     0 rescue     0   1 Sep25 ?        00:00:00 [kdmflush]
1 S root       194     2  0  60 -20 -     0 rescue     0   1 Sep25 ?        00:00:00 [bioset]
1 S root       285     2  0  80   0 -     0 kjourn     0   2 Sep25 ?        00:00:01 [jbd2/dm-0-8]
1 S root       286     2  0  60 -20 -     0 rescue     0   3 Sep25 ?        00:00:00 [ext4-rsv-conver]
1 S root       454     1  0  80   0 -  4869 poll_s   656   0 Sep25 ?        00:00:00 upstart-udev-bridge --daemon
5 S root       459     1  0  80   0 - 12937 ep_pol  1976   3 Sep25 ?        00:00:00 /lib/systemd/systemd-udevd --daemon
1 S root       491     2  0   9   - -     0 irq_th     0   0 Sep25 ?        00:00:00 [irq/46-mei_me]
1 S root       559     2  0  60 -20 -     0 rescue     0   1 Sep25 ?        00:00:00 [kvm-irqfd-clean]
1 S root       573     2  0  60 -20 -     0 rescue     0   0 Sep25 ?        00:00:00 [kmpathd]
1 S root       575     2  0  60 -20 -     0 rescue     0   3 Sep25 ?        00:00:00 [kmpath_handlerd]
1 S root       609     2  0  60 -20 -     0 rescue     0   0 Sep25 ?        00:00:00 [hd-audio0]
1 S root       663     1  0  80   0 -  3815 poll_s   644   1 Sep25 ?        00:00:00 upstart-socket-bridge --daemon
1 S root       727     2  0  60 -20 -     0 worker     0   3 Sep25 ?        00:00:00 [kworker/u9:2]
1 S root       796     2  0  60 -20 -     0 rescue     0   3 Sep25 ?        00:00:00 [ext4-rsv-conver]
1 S root       802     2  0  80   0 -     0 kaudit     0   3 Sep25 ?        00:00:00 [kauditd]
1 S root       811     2  0  60 -20 -     0 worker     0   3 Sep25 ?        00:00:00 [kworker/u9:1]
5 S message+   933     1  0  80   0 -  9891 ep_pol  1688   1 Sep25 ?        00:00:00 dbus-daemon --system --fork
4 S root       954     1  0  80   0 - 82566 poll_s  4924   3 Sep25 ?        00:00:00 /usr/sbin/ModemManager
1 S root       959     1  0  80   0 -  3852 poll_s   636   3 Sep25 ?        00:00:00 upstart-file-bridge --daemon
5 S root       972     2  0  70 -10 -     0 rfcomm     0   3 Sep25 ?        00:00:00 [krfcommd]
5 S syslog     995     1  0  80   0 - 63961 poll_s  1560   1 Sep25 ?        00:00:00 rsyslogd
4 S root      1067     1  0  80   0 - 10863 ep_pol  1844   1 Sep25 ?        00:00:00 /lib/systemd/systemd-logind
5 S root      1111     1  0  80   0 - 88100 poll_s  6764   2 Sep25 ?        00:00:00 NetworkManager
4 S root      1118     1  0  80   0 - 73631 poll_s  6256   0 Sep25 ?        00:00:00 /usr/lib/policykit-1/polkitd --no-debug
4 S root      1334     1  0  80   0 -  3955 n_tty_   956   1 Sep25 tty4     00:00:00 /sbin/getty -8 38400 tty4
4 S root      1336     1  0  80   0 -  3955 n_tty_   968   1 Sep25 tty5     00:00:00 /sbin/getty -8 38400 tty5
4 S root      1343     1  0  80   0 -  3955 n_tty_   960   3 Sep25 tty2     00:00:00 /sbin/getty -8 38400 tty2
4 S root      1344     1  0  80   0 -  3955 n_tty_   964   3 Sep25 tty3     00:00:00 /sbin/getty -8 38400 tty3
4 S root      1347     1  0  80   0 -  3955 n_tty_   968   3 Sep25 tty6     00:00:00 /sbin/getty -8 38400 tty6
4 S root      1374     1  0  80   0 - 15341 poll_s  3064   3 Sep25 ?        00:00:00 /usr/sbin/sshd -D
1 S root      1391     1  0  80   0 -  1092 poll_s   692   0 Sep25 ?        00:00:00 acpid -c /etc/acpi/events -s /var/run/acpid.socket
5 S root      1410     1  0  80   0 -  4797 hrtime   736   2 Sep25 ?        00:00:02 /usr/sbin/irqbalance
1 S kernoops  1568     1  0  80   0 -  9286 poll_s  1012   3 Sep25 ?        00:00:00 /usr/sbin/kerneloops
1 S root      1590     2  0  60 -20 -     0 rescue     0   3 Sep25 ?        00:00:00 [iprt]
4 S root      1670     1  0  80   0 -  3955 n_tty_   956   2 Sep25 tty1     00:00:00 /sbin/getty -8 38400 tty1
4 S root      1692  1111  0  80   0 -  2558 poll_s  3712   1 Sep25 ?        00:00:01 /sbin/dhclient -d -sf /usr/lib/NetworkManager/nm-dhcp-client.action -pf /run/sendsigs.omit.d/network-manager.dhclient-eth0.pid -lf /var/lib/NetworkManager/dhclient-1018f517-1f89-4bde-b66d-da1e2232a21c-eth0.lease -cf /var/lib/NetworkManager/dhclient-eth0.conf eth0
4 S root      1702     1  0  80   0 - 525657 poll_s 4156   1 Sep25 ?        00:00:00 /usr/sbin/console-kit-daemon --no-daemon
4 S nobody    1796  1111  0  80   0 -  7758 poll_s  1540   3 Sep25 ?        00:00:00 /usr/sbin/dnsmasq --no-resolv --keep-in-foreground --no-hosts --bind-interfaces --pid-file=/run/sendsigs.omit.d/network-manager.dnsmasq.pid --listen-address=127.0.1.1 --conf-file=/var/run/NetworkManager/dnsmasq.conf --cache-size=0 --proxy-dnssec --enable-dbus=org.freedesktop.NetworkManager.dnsmasq --conf-dir=/etc/NetworkManager/dnsmasq.d
1 S callum    2302     1  0  80   0 -  6832 poll_s  1512   3 Sep25 ?        00:00:00 SCREEN
0 S callum    2303  2302  0  80   0 - 11989 sigsus  7860   0 Sep25 pts/1    00:00:00 /bin/zsh
0 S callum    2452  2303  0  80   0 - 240069 futex_ 776336 1 Sep25 pts/1    00:02:40 ./timer_comparison_many -r 10 -m ../../data/saved/min_heaps.csv --cgroupFair --daemonEqual --daemonVengerov ../../data/saved/many_input.csv
1 S root      9600     2  0  80   0 -     0 worker     0   2 08:20 ?        00:00:00 [kworker/u8:0]
1 S root     11036     2  0  80   0 -     0 worker     0   1 09:42 ?        00:00:00 [kworker/u8:1]
0 R callum   11779  2452  0  80   0 -  4615 -       1296   0 10:34 pts/1    00:00:00 ps -elFww
