1413388453432 0 TOTAL_MEM 4461
1413388473482 30522 CREATION
1413388473482 30522 READING 9 0.992002
1413388473482 30522 MINHEAP 2
1413388473482 30522 MINHEAP 276
1413388473489 30521 CREATION
1413388473489 30521 READING 9 0.965565
1413388473489 30521 MINHEAP 2
1413388473489 30521 MINHEAP 1211
1413388473527 30522 READING 9 0.979556
1413388473547 30521 READING 9 0.977433
1413388473555 30522 READING 9 0.913022
1413388473579 30522 READING 9 0.928087
1413388473598 30521 READING 11 0.959420
1413388473668 30522 READING 11 0.978206
1413388473730 30521 READING 11 0.947098
1413388473816 30522 READING 11 0.942361
1413388473909 30522 READING 17 0.922952
1413388473973 30521 READING 15 0.723257
1413388474055 30521 READING 19 0.965070
1413388474067 30522 READING 17 0.661630
1413388474222 30521 READING 23 0.866513
1413388474276 30522 READING 29 0.979274
1413388474395 30521 READING 28 0.756846
1413388474419 30522 READING 30 0.836386
1413388474564 30521 READING 28 0.426705
1413388474634 30521 READING 37 0.552164
1413388474646 30522 READING 34 0.445645
1413388474708 30521 READING 43 0.920756
1413388474764 30522 READING 47 0.840980
1413388474853 30521 READING 43 0.880657
1413388474998 30522 READING 50 0.548039
1413388475095 30522 READING 63 0.803711
1413388475167 30521 READING 47 0.252463
1413388475189 30522 READING 70 0.874055
1413388475370 30521 READING 62 0.249941
1413388475467 30521 READING 83 0.807283
1413388475486 30522 READING 71 0.221198
1413388475553 30521 READING 85 0.726318
1413388475572 30522 READING 101 0.798084
1413388475644 30521 READING 87 0.784732
1413388475689 30522 READING 102 0.831213
1413388475735 30521 READING 90 0.691416
1413388476064 30522 READING 104 0.196031
1413388476143 30521 READING 92 0.158197
1413388476169 30522 READING 134 0.832456
1413388476242 30521 READING 121 0.705850
1413388476360 30521 READING 125 0.654241
1413388476461 30521 READING 127 0.601428
1413388476544 30521 READING 134 0.837209
1413388476558 30522 READING 138 0.245810
1413388476641 30521 READING 136 0.693845
1413388476665 30522 READING 172 0.897032
1413388476784 30522 READING 175 0.781967
1413388476915 30522 READING 176 0.707527
1413388477149 30521 READING 140 0.146886
1413388477265 30521 READING 177 0.689824
1413388477365 30521 READING 180 0.610918
1413388477407 30522 READING 182 0.195884
1413388477471 30521 READING 184 0.719424
1413388477561 30522 READING 221 0.615829
1413388477570 30521 READING 188 0.627145
1413388477701 30521 READING 196 0.545013
1413388477805 30521 READING 200 0.575040
1413388477925 30521 READING 210 0.474911
1413388478309 30522 READING 228 0.945865
1413388478441 30521 READING 216 0.116134
1413388478561 30521 READING 256 0.448691
1413388478597 30522 READING 231 0.888147
1413388478989 30522 READING 240 0.912706
1413388479179 30521 READING 253 0.101285
1413388479281 30522 READING 241 0.919915
1413388479299 30521 READING 250 0.539315
1413388479425 30521 READING 291 0.718501
1413388479455 30522 READING 243 0.927454
1413388479542 30521 READING 249 0.627837
1413388479589 30522 READING 245 0.903376
1413388479665 30521 READING 292 0.645988
1413388479802 30521 READING 293 0.530800
1413388479802 30522 READING 249 0.848872
1413388479917 30521 READING 294 0.633465
1413388479973 30522 READING 250 0.686411
1413388480043 30521 READING 298 0.594452
1413388480091 30522 READING 255 0.804306
1413388480153 30521 READING 298 0.579744
1413388480203 30522 READING 259 0.825332
1413388480276 30521 READING 307 0.577235
1413388480375 30521 READING 310 0.479036
1413388480475 30521 READING 321 0.476999
1413388480573 30521 READING 325 0.489363
1413388480664 30521 READING 332 0.437451
1413388480770 30521 READING 336 0.369702
1413388480770 30522 READING 265 0.953105
1413388480905 30522 READING 267 0.683487
1413388481035 30522 READING 273 0.711802
1413388481165 30522 READING 276 0.709682
1413388481381 30522 READING 284 0.787402
1413388481483 30521 READING 341 0.056476
1413388481621 30521 READING 385 0.330436
1413388482447 30521 READING 321 0.072861
1413388482590 30521 READING 426 0.345275
1413388482683 30522 READING 286 0.198996
1413388482702 30521 READING 431 0.673088
1413388482809 30521 READING 428 0.489669
1413388482965 30521 READING 360 0.719586
1413388483026 30522 READING 332 0.902058
1413388483075 30521 READING 419 0.564619
1413388483116 30522 READING 335 0.748504
1413388483179 30521 READING 375 0.577551
1413388483211 30522 READING 341 0.757196
1413388483321 30521 READING 419 0.488489
1413388483322 30522 READING 341 0.644962
1413388483433 30522 FUNCTION lru lambda h: 0.750985 * (h ** 0.001)
1413388483433 30521 FUNCTION lru lambda h: 1.26099 * (h ** 0.001)
1413388483433 30522 RECOMMEND 2230
1413388483433 30521 RECOMMEND 2230
1413388483457 30521 READING 421 0.458502
1413388483467 30522 READING 348 0.701666
1413388483618 30521 READING 422 0.471142
1413388483618 30522 READING 348 0.543154
1413388483793 30521 READING 423 0.399932
1413388484811 30521 READING 427 0.083879
1413388485041 30521 READING 477 0.370710
1413388485198 30521 READING 482 0.596871
1413388485372 30521 READING 483 0.571577
1413388485553 30521 READING 485 0.495450
1413388485579 30522 READING 358 0.982821
1413388485718 30521 READING 489 0.589269
1413388485869 30521 READING 493 0.587478
1413388486040 30521 READING 499 0.501668
1413388486211 30521 READING 505 0.409516
1413388487166 30521 READING 511 0.079551
1413388487354 30522 READING 357 0.958737
1413388487405 30521 READING 559 0.381139
1413388487573 30521 READING 567 0.497089
1413388487728 30521 READING 572 0.540875
1413388487895 30521 READING 575 0.520369
1413388488113 30521 READING 581 0.427093
1413388488666 30522 READING 359 0.962554
1413388489306 30521 READING 584 0.079962
1413388489481 30521 READING 644 0.514310
1413388489631 30521 READING 646 0.606082
1413388490034 30522 READING 362 0.971259
1413388490202 30521 READING 646 0.827151
1413388490804 30521 READING 647 0.847207
1413388491291 30521 READING 649 0.818261
1413388491536 30522 READING 364 0.968317
1413388493058 30522 READING 366 0.970147
1413388493351 30521 READING 659 0.239926
1413388493433 30522 FUNCTION lru lambda h: 0.62954 * (h ** 0.0232737)
1413388493433 30521 FUNCTION lru lambda h: 1.18385 * (h ** 0.001)
1413388493433 30522 RECOMMEND 2230
1413388493433 30521 RECOMMEND 2230
1413388493532 30521 READING 732 0.316575
1413388493675 30521 READING 741 0.526972
1413388493865 30521 READING 745 0.546485
1413388493977 30521 READING 745 0.315486
1413388494086 30521 READING 732 0.377771
1413388494933 30521 READING 739 0.046922
1413388495015 30522 READING 364 0.966537
1413388495102 30521 READING 812 0.278033
1413388495543 30521 READING 813 0.868505
1413388495661 30521 READING 816 0.607783
1413388495778 30521 READING 819 0.555857
1413388495899 30521 READING 817 0.589462
1413388496177 30521 READING 820 0.837519
1413388496594 30522 READING 367 0.952696
1413388497878 30521 READING 824 0.078767
1413388498194 30522 READING 370 0.952932
1413388498258 30521 READING 910 0.631259
1413388498347 30521 READING 913 0.832473
1413388498704 30521 READING 919 0.935562
1413388498889 30521 READING 928 0.838146
1413388499317 30521 READING 929 0.921100
1413388499497 30521 READING 913 0.819378
1413388499673 30521 READING 797 0.844375
1413388499829 30522 READING 370 0.976387
1413388499865 30521 READING 901 0.816937
1413388500054 30521 READING 802 0.821848
1413388500250 30521 READING 891 0.830618
1413388500437 30521 READING 801 0.866178
1413388500643 30521 READING 885 0.846809
1413388500853 30521 READING 892 0.833717
1413388501068 30521 READING 881 0.853294
1413388501275 30521 READING 886 0.884682
1413388501446 30522 READING 373 0.975855
1413388501500 30521 READING 878 0.859564
1413388502843 30522 READING 375 0.959031
1413388503073 30521 READING 883 0.982067
1413388503433 30522 FUNCTION lru lambda h: 0.580231 * (h ** 0.0437765)
1413388503434 30521 FUNCTION lru lambda h: 0.511721 * (h ** 0.001)
1413388503434 30522 RECOMMEND 2230
1413388503434 30521 RECOMMEND 2230
1413388503563 30521 READING 875 0.913522
1413388503751 30521 READING 880 0.790802
1413388503953 30521 READING 884 0.755940
1413388504148 30521 READING 884 0.790644
1413388504351 30521 READING 889 0.806032
1413388504552 30521 READING 889 0.805346
1413388504767 30521 READING 893 0.815475
1413388504870 30522 READING 379 0.982947
1413388504984 30521 READING 894 0.814463
1413388505207 30521 READING 898 0.823126
1413388505617 30521 READING 899 0.867124
1413388505672 30522 READING 380 0.964134
1413388505838 30522 READING 379 0.843737
1413388505974 30522 READING 380 0.808942
1413388506059 30521 READING 902 0.893376
1413388506110 30522 READING 389 0.839767
1413388506281 30521 READING 904 0.765235
1413388506965 30522 READING 391 0.966206
1413388508106 30521 READING 911 0.096562
1413388508382 30521 READING 1001 0.474362
1413388508567 30521 READING 1026 0.731743
1413388508750 30522 READING 397 0.976844
1413388508766 30521 READING 1029 0.667371
1413388508971 30521 READING 1033 0.721709
1413388509172 30521 READING 1035 0.730003
1413388509395 30521 READING 1041 0.723366
1413388509624 30521 READING 1043 0.691156
1413388509867 30521 READING 1057 0.716366
1413388510133 30521 READING 1057 0.697444
1413388510563 30522 READING 399 0.975812
1413388511747 30521 READING 1073 0.950300
1413388512215 30522 READING 400 0.978395
1413388513434 30522 FUNCTION lru lambda h: 0.529546 * (h ** 0.0663692)
1413388513434 30521 FUNCTION lru lambda h: 0.0477651 * (h ** 0.372846)
1413388513434 30522 RECOMMEND 2230
1413388513434 30521 RECOMMEND 2230
1413388513645 30521 READING 1076 0.946720
1413388514002 30522 READING 402 0.984857
1413388515506 30521 READING 1092 0.949050
1413388516046 30522 READING 400 0.986841
1413388517345 30521 READING 1096 0.949477
1413388517793 30522 READING 402 0.976798
1413388519225 30521 READING 1109 0.943967
1413388519717 30522 READING 400 0.984337
1413388521565 30522 READING 402 0.951846
1413388522092 30521 READING 1115 0.626056
1413388523434 30522 FUNCTION lru lambda h: 0.522747 * (h ** 0.0695358)
1413388523434 30521 FUNCTION lru lambda h: 0.0138288 * (h ** 0.563781)
1413388523434 30522 RECOMMEND 2230
1413388523434 30521 RECOMMEND 2230
1413388524009 30522 READING 403 0.754818
1413388524048 30521 READING 1222 0.990066
1413388526009 30521 READING 1224 0.986124
1413388526363 30522 READING 439 0.975981
1413388526844 30522 READING 443 0.955545
1413388527001 30522 READING 443 0.843836
1413388527154 30522 READING 447 0.884550
1413388528014 30521 READING 1239 0.978345
1413388528071 30522 READING 447 0.982851
1413388530012 30521 READING 1243 0.985893
1413388530379 30522 READING 453 0.990960
1413388532090 30521 READING 1246 0.982815
1413388532451 30522 READING 455 0.988840
1413388533434 30522 FUNCTION lru lambda h: 0.495963 * (h ** 0.0819817)
1413388533434 30521 FUNCTION lru lambda h: 0.0132923 * (h ** 0.572374)
1413388533434 30522 RECOMMEND 2230
1413388533434 30521 RECOMMEND 2230
1413388534187 30521 READING 1249 0.974788
1413388534713 30522 READING 458 0.989344
1413388536300 30521 READING 1239 0.972139
1413388537037 30522 READING 460 0.988441
1413388538447 30521 READING 1161 0.970006
1413388539013 30522 READING 460 0.988766
1413388540641 30521 READING 1231 0.967072
1413388541165 30522 READING 462 0.985501
1413388542878 30521 READING 1238 0.965423
1413388543286 30522 READING 460 0.984831
1413388543434 30522 FUNCTION lru lambda h: 0.480024 * (h ** 0.0896654)
1413388543434 30521 FUNCTION lru lambda h: 0.00444884 * (h ** 0.73677)
1413388543434 30522 RECOMMEND 2230
1413388543434 30521 RECOMMEND 2230
1413388545126 30521 READING 1240 0.965345
1413388545521 30522 READING 462 0.982015
1413388546958 30522 READING 462 0.985960
1413388547147 30522 READING 465 0.874536
1413388547357 30522 READING 466 0.715539
1413388547418 30521 READING 1240 0.955063
1413388548609 30522 READING 467 0.987264
1413388549694 30521 READING 1244 0.955148
1413388550861 30522 READING 477 0.990588
1413388551989 30521 READING 1248 0.954527
1413388553247 30522 READING 478 0.990684
1413388553435 30522 FUNCTION lru lambda h: 0.46942 * (h ** 0.0948652)
1413388553435 30521 FUNCTION lru lambda h: 0.00200656 * (h ** 0.855088)
1413388553435 30522 RECOMMEND 2230
1413388553435 30521 RECOMMEND 2230
1413388554304 30521 READING 1254 0.949900
1413388555688 30522 READING 482 0.989414
1413388556625 30521 READING 1261 0.951819
1413388558279 30522 READING 484 0.988735
1413388558956 30521 READING 1271 0.948781
1413388560799 30522 READING 483 0.987299
1413388561310 30521 READING 1277 0.952190
1413388563205 30522 READING 486 0.986009
1413388563435 30522 FUNCTION lru lambda h: 0.45456 * (h ** 0.102316)
1413388563435 30521 FUNCTION lru lambda h: 0.0022543 * (h ** 0.838584)
1413388563435 30522 RECOMMEND 2230
1413388563435 30521 RECOMMEND 2230
1413388563661 30521 READING 1286 0.954740
1413388565661 30522 READING 489 0.984360
1413388566144 30521 READING 1291 0.952592
1413388567165 30522 READING 489 0.983306
1413388567357 30522 READING 494 0.904846
1413388567554 30522 READING 496 0.926794
1413388568633 30521 READING 1299 0.952474
1413388570190 30522 READING 502 0.993143
1413388571204 30521 READING 1302 0.962005
1413388572901 30522 READING 503 0.991669
1413388573435 30522 FUNCTION lru lambda h: 0.442552 * (h ** 0.108461)
1413388573435 30521 FUNCTION lru lambda h: 0.00179812 * (h ** 0.871732)
1413388573435 30522 RECOMMEND 2230
1413388573435 30521 RECOMMEND 2230
1413388573762 30521 READING 1310 0.957315
1413388575476 30522 READING 505 0.990134
1413388576403 30521 READING 1312 0.960281
1413388578327 30522 READING 507 0.990169
1413388579116 30521 READING 1321 0.954730
1413388580849 30522 READING 505 0.987490
1413388581887 30521 READING 1321 0.951604
1413388583435 30522 FUNCTION lru lambda h: 0.437167 * (h ** 0.111256)
1413388583435 30521 FUNCTION lru lambda h: 0.001 * (h ** 0.999)
1413388583435 30522 RECOMMEND 2230
1413388583435 30521 RECOMMEND 2230
1413388583486 30522 READING 507 0.987030
1413388584727 30521 READING 1329 0.957549
1413388586425 30522 READING 510 0.992329
1413388587197 30522 READING 510 0.973013
1413388587404 30522 READING 510 0.913089
1413388587531 30521 READING 1329 0.956041
1413388588794 30522 READING 512 0.987080
1413388591661 30522 READING 519 0.988274
1413388592612 30521 READING 1336 0.553043
1413388593436 30522 FUNCTION lru lambda h: 0.430818 * (h ** 0.114577)
1413388593436 30521 FUNCTION lru lambda h: 0.001 * (h ** 0.999)
1413388593436 30522 RECOMMEND 2230
1413388593436 30521 RECOMMEND 2230
1413388594345 30522 READING 520 0.991082
1413388595542 30521 READING 1451 0.938186
1413388597248 30522 READING 521 0.990376
1413388598317 30521 READING 1451 0.979000
1413388600521 30522 READING 522 0.990682
1413388601178 30521 READING 1460 0.977851
1413388603229 30522 READING 521 0.987953
1413388603436 30522 FUNCTION lru lambda h: 0.424253 * (h ** 0.118048)
1413388603436 30521 FUNCTION lru lambda h: 0.001 * (h ** 0.999)
1413388603436 30522 RECOMMEND 2230
1413388603436 30521 RECOMMEND 2230
1413388604162 30521 READING 1471 0.975475
1413388606492 30522 READING 522 0.992620
1413388607088 30521 READING 1472 0.974021
1413388607435 30522 READING 525 0.976226
1413388607656 30522 READING 525 0.908553
1413388609216 30522 READING 528 0.988602
1413388610134 30521 READING 1467 0.970362
1413388612350 30522 READING 530 0.992959
1413388613436 30522 FUNCTION lru lambda h: 0.419264 * (h ** 0.120709)
1413388613436 30521 FUNCTION lru lambda h: 0.001 * (h ** 0.999)
1413388613436 30522 RECOMMEND 2230
1413388613436 30521 RECOMMEND 2230
1413388615387 30522 READING 533 0.991307
1413388618455 30522 READING 534 0.990353
1413388621359 30522 READING 532 0.989194
1413388623436 30522 FUNCTION lru lambda h: 0.414003 * (h ** 0.123541)
1413388623436 30521 FUNCTION lru lambda h: 0.001 * (h ** 0.999)
1413388623436 30522 RECOMMEND 2230
1413388623436 30521 RECOMMEND 2230
1413388624170 30522 READING 534 0.987896
1413388627103 30522 READING 536 0.993071
1413388627380 30522 READING 537 0.931205
1413388627610 30522 READING 537 0.938951
1413388630684 30522 READING 539 0.992064
1413388633437 30522 FUNCTION lru lambda h: 0.410174 * (h ** 0.125619)
1413388633437 30521 FUNCTION lru lambda h: 0.001 * (h ** 0.999)
1413388633437 30522 RECOMMEND 2230
1413388633437 30521 RECOMMEND 2230
1413388633889 30522 READING 543 0.992365
1413388637220 30522 READING 545 0.991790
1413388640633 30522 READING 543 0.991292
1413388640934 30521 READING 1473 0.996638
1413388643437 30522 FUNCTION lru lambda h: 0.34342 * (h ** 0.156406)
1413388643437 30521 FUNCTION lru lambda h: 0.001 * (h ** 0.999)
1413388643437 30522 RECOMMEND 2230
1413388643437 30521 RECOMMEND 2230
1413388643818 30522 READING 546 0.989494
1413388647291 30522 READING 548 0.994335
1413388647630 30522 READING 549 0.940590
1413388647870 30522 READING 548 0.941108
1413388648874 30521 READING 1470 0.984956
1413388649593 30521 READING 1474 0.842974
1413388650081 30521 READING 1493 0.781612
1413388650474 30521 READING 1510 0.704138
1413388650853 30521 READING 1549 0.714770
1413388650975 30522 READING 551 0.993071
1413388651277 30521 READING 1572 0.659617
1413388651672 30521 READING 1606 0.741548
1413388653156 30521 READING 1621 0.919929
1413388653437 30522 FUNCTION lru lambda h: 0.140735 * (h ** 0.307737)
1413388653437 30521 FUNCTION lru lambda h: 0.00104294 * (h ** 0.942995)
1413388653437 30522 RECOMMEND 2230
1413388653437 30521 RECOMMEND 2230
1413388654338 30522 READING 554 0.992777
1413388656372 30521 READING 1631 0.965209
1413388657546 30522 READING 556 0.991262
1413388659532 30521 READING 1649 0.962302
1413388660923 30522 READING 555 0.990981
1413388662894 30521 READING 1636 0.965210
1413388663437 30522 FUNCTION lru lambda h: 0.0940258 * (h ** 0.375208)
1413388663437 30521 FUNCTION lru lambda h: 0.001 * (h ** 0.958696)
1413388663437 30522 RECOMMEND 2230
1413388663437 30521 RECOMMEND 2230
1413388664146 30522 READING 557 0.989378
1413388666299 30521 READING 1651 0.966597
1413388667241 30522 READING 560 0.993527
1413388667521 30522 READING 561 0.927151
1413388668540 30522 READING 561 0.984132
1413388669837 30521 READING 1641 0.964112
1413388671888 30522 READING 564 0.992944
1413388673345 30521 READING 1654 0.964286
1413388673437 30522 FUNCTION lru lambda h: 0.0548352 * (h ** 0.464316)
1413388673438 30521 FUNCTION lru lambda h: 0.00259288 * (h ** 0.812298)
1413388673438 30522 RECOMMEND 2230
1413388673438 30521 RECOMMEND 2230
1413388675213 30522 READING 565 0.991970
1413388678033 30521 READING 1649 0.767347
1413388678533 30522 READING 567 0.991216
1413388681606 30521 READING 1637 0.990042
1413388681943 30522 READING 567 0.990302
1413388683438 30522 FUNCTION lru lambda h: 0.0679385 * (h ** 0.428804)
1413388683438 30521 FUNCTION lru lambda h: 0.00202997 * (h ** 0.846259)
1413388683438 30522 RECOMMEND 2230
1413388683438 30521 RECOMMEND 2230
1413388685291 30521 READING 1635 0.987658
1413388685671 30522 READING 568 0.988822
1413388687166 30522 READING 569 0.985276
1413388687422 30522 READING 573 0.922450
1413388689011 30521 READING 1650 0.984301
1413388690005 30522 READING 577 0.991095
1413388692949 30521 READING 1670 0.983645
1413388693438 30522 FUNCTION lru lambda h: 0.0679522 * (h ** 0.428058)
1413388693438 30521 FUNCTION lru lambda h: 0.00261072 * (h ** 0.810414)
1413388693438 30522 RECOMMEND 2230
1413388693438 30521 RECOMMEND 2230
1413388693592 30522 READING 578 0.992848
1413388696864 30521 READING 1672 0.986620
1413388697606 30522 READING 579 0.992437
1413388700945 30522 READING 581 0.982304
1413388701013 30521 READING 1664 0.976568
1413388703439 30522 FUNCTION lru lambda h: 0.153988 * (h ** 0.294706)
1413388703439 30521 FUNCTION lru lambda h: 0.00411853 * (h ** 0.746445)
1413388703439 30522 RECOMMEND 2230
1413388703439 30521 RECOMMEND 2230
1413388704265 30522 READING 581 0.989739
1413388705020 30521 READING 1672 0.976790
1413388706929 30522 READING 582 0.990400
1413388707198 30522 READING 585 0.925051
1413388709194 30521 READING 1649 0.975834
1413388709238 30522 READING 587 0.990260
1413388713050 30522 READING 592 0.993548
1413388713356 30521 READING 1526 0.975898
1413388713439 30522 FUNCTION lru lambda h: 0.102691 * (h ** 0.359813)
1413388713439 30521 FUNCTION lru lambda h: 0.0160948 * (h ** 0.556702)
1413388713439 30522 RECOMMEND 2230
1413388713439 30521 RECOMMEND 2230
1413388716782 30522 READING 593 0.992219
1413388717600 30521 READING 1645 0.971249
1413388720095 30522 READING 593 0.990325
1413388721900 30521 READING 1652 0.967193
1413388723439 30522 FUNCTION lru lambda h: 0.0898704 * (h ** 0.381242)
1413388723439 30521 FUNCTION lru lambda h: 0.0218775 * (h ** 0.514051)
1413388723439 30522 RECOMMEND 2230
1413388723439 30521 RECOMMEND 2230
1413388723648 30522 READING 595 0.990216
1413388726334 30521 READING 1661 0.968235
1413388726373 30522 READING 597 0.991162
1413388726655 30522 READING 598 0.921612
1413388729085 30522 READING 601 0.991834
1413388730779 30521 READING 1663 0.965079
1413388732987 30522 READING 603 0.993520
1413388733439 30522 FUNCTION lru lambda h: 0.0660813 * (h ** 0.430091)
1413388733439 30521 FUNCTION lru lambda h: 0.0261112 * (h ** 0.489461)
1413388733439 30522 RECOMMEND 2230
1413388733439 30521 RECOMMEND 2230
1413388735084 30521 READING 1675 0.969667
1413388737076 30522 READING 605 0.993047
1413388739431 30521 READING 1684 0.963228
1413388741252 30522 READING 607 0.992228
1413388743440 30522 FUNCTION lru lambda h: 0.0568742 * (h ** 0.453954)
1413388743440 30521 FUNCTION lru lambda h: 0.0263976 * (h ** 0.48783)
1413388743440 30522 RECOMMEND 2230
1413388743440 30521 RECOMMEND 2230
1413388743850 30521 READING 1697 0.960729
1413388744744 30522 READING 608 0.990154
1413388746737 30522 READING 609 0.988088
1413388747025 30522 READING 611 0.951811
1413388747037 30522 DEATH 173
1413388748158 30521 READING 1711 0.968925
1413388753440 30521 FUNCTION lru lambda h: 0.0854623 * (h ** 0.32568)
1413388753440 30521 RECOMMEND 4461
1413388763440 30521 FUNCTION lru lambda h: 0.0854623 * (h ** 0.32568)
1413388763440 30521 RECOMMEND 4461
1413388763890 30521 READING 1730 0.988300
1413388773440 30521 FUNCTION lru lambda h: 0.0795713 * (h ** 0.335511)
1413388773440 30521 RECOMMEND 4461
1413388782776 30521 READING 1739 0.994075
1413388783440 30521 FUNCTION lru lambda h: 0.0770957 * (h ** 0.339895)
1413388783440 30521 RECOMMEND 4461
1413388783687 30521 READING 1772 0.892507
1413388784235 30521 READING 1776 0.785217
1413388784767 30521 READING 1805 0.819698
1413388785303 30521 READING 1822 0.860766
1413388785357 30521 DEATH 216
