1412262196424 0 TOTAL_MEM 2446
1412262216472 23342 CREATION
1412262216473 23342 READING 9 0.987998
1412262216473 23342 MINHEAP 2
1412262216473 23342 MINHEAP 12
1412262216504 23341 CREATION
1412262216504 23341 READING 9 0.991800
1412262216504 23341 MINHEAP 2
1412262216504 23341 MINHEAP 1211
1412262216569 23342 READING 9 0.986930
1412262216576 23341 READING 9 0.987154
1412262216609 23341 READING 9 0.945084
1412262216631 23341 READING 9 0.945132
1412262216636 23342 READING 11 0.979356
1412262216729 23342 READING 11 0.979480
1412262216757 23341 READING 11 0.957238
1412262216868 23342 READING 15 0.985303
1412262216920 23341 READING 11 0.985534
1412262217001 23341 READING 17 0.932313
1412262217091 23342 READING 15 0.990033
1412262217135 23341 READING 17 0.490467
1412262217237 23341 READING 30 0.936972
1412262217353 23341 READING 31 0.920031
1412262217587 23342 READING 25 0.908610
1412262217621 23341 READING 34 0.546574
1412262217735 23341 READING 47 0.952237
1412262217822 23341 READING 49 0.863798
1412262217901 23341 READING 50 0.754700
1412262217937 23342 READING 29 0.990090
1412262218221 23342 READING 36 0.981962
1412262218263 23341 READING 53 0.152011
1412262218406 23341 READING 71 0.272501
1412262218493 23341 READING 83 0.879189
1412262218516 23342 READING 42 0.982929
1412262218574 23341 READING 86 0.837417
1412262218669 23341 READING 87 0.792322
1412262218768 23342 READING 43 0.939569
1412262218769 23341 READING 89 0.837950
1412262218849 23341 READING 94 0.708390
1412262219058 23342 READING 46 0.769991
1412262219179 23341 READING 95 0.141147
1412262219276 23342 READING 58 0.989078
1412262219329 23341 READING 119 0.808638
1412262219425 23341 READING 123 0.823886
1412262219501 23341 READING 125 0.712321
1412262219553 23342 READING 59 0.989983
1412262219619 23341 READING 127 0.710221
1412262219703 23341 READING 130 0.587717
1412262219783 23342 READING 66 0.988999
1412262219800 23341 READING 135 0.509508
1412262219996 23342 READING 67 0.986889
1412262220248 23342 READING 75 0.974134
1412262220487 23341 READING 137 0.084701
1412262220581 23341 READING 170 0.547914
1412262220661 23341 READING 176 0.555125
1412262220742 23342 READING 76 0.990729
1412262220769 23341 READING 177 0.576529
1412262220869 23341 READING 180 0.697909
1412262220959 23341 READING 184 0.573857
1412262221046 23341 READING 187 0.681016
1412262221470 23342 READING 83 0.994447
1412262221493 23341 READING 192 0.103271
1412262221588 23341 READING 229 0.596892
1412262221669 23341 READING 233 0.711798
1412262221749 23341 READING 234 0.611142
1412262221841 23341 READING 235 0.579609
1412262221981 23341 READING 238 0.698547
1412262222069 23341 READING 242 0.590254
1412262222157 23341 READING 245 0.543147
1412262222195 23342 READING 83 0.995149
1412262222285 23341 READING 249 0.651856
1412262222382 23341 READING 253 0.496865
1412262222868 23342 READING 88 0.978335
1412262223040 23341 READING 257 0.070358
1412262223176 23341 READING 297 0.452479
1412262223275 23341 READING 299 0.571627
1412262223414 23341 READING 295 0.616256
1412262223512 23341 READING 297 0.607128
1412262223591 23342 READING 90 0.984389
1412262224084 23341 READING 299 0.110187
1412262224206 23341 READING 340 0.590083
1412262224297 23342 READING 97 0.991033
1412262224301 23341 READING 338 0.695942
1412262224421 23341 READING 341 0.717797
1412262224526 23341 READING 342 0.647135
1412262224649 23341 READING 345 0.609614
1412262224769 23341 READING 349 0.551863
1412262224898 23341 READING 354 0.575785
1412262225027 23341 READING 358 0.519913
1412262225034 23342 READING 97 0.990551
1412262225156 23341 READING 363 0.584183
1412262225285 23341 READING 366 0.491319
1412262225765 23342 READING 105 0.994806
1412262226182 23341 READING 372 0.070604
1412262226331 23341 READING 423 0.475998
1412262226424 23342 FUNCTION lru lambda h: 0.943072 * (h ** 0.00683178)
1412262226424 23341 FUNCTION lru lambda h: 1.25695 * (h ** 0.001)
1412262226424 23342 RECOMMEND 1223
1412262226424 23341 RECOMMEND 1223
1412262226471 23341 READING 428 0.422497
1412262226498 23342 READING 105 0.989412
1412262226649 23341 READING 429 0.430103
1412262227241 23342 READING 111 0.995233
1412262227372 23341 READING 429 0.097430
1412262227559 23341 READING 480 0.479115
1412262227702 23341 READING 484 0.591579
1412262227849 23341 READING 477 0.624506
1412262228007 23341 READING 481 0.570996
1412262228032 23342 READING 111 0.995349
1412262228766 23342 READING 115 0.989301
1412262228871 23341 READING 477 0.111411
1412262229074 23341 READING 538 0.515218
1412262229257 23341 READING 536 0.603980
1412262229449 23341 READING 539 0.576461
1412262229536 23342 READING 116 0.996152
1412262229605 23341 READING 540 0.562573
1412262229781 23341 READING 545 0.625114
1412262229951 23341 READING 554 0.625862
1412262230136 23341 READING 561 0.549029
1412262230293 23341 READING 565 0.588510
1412262230388 23342 READING 121 0.996290
1412262230454 23341 READING 577 0.545632
1412262230599 23341 READING 583 0.518930
1412262231167 23342 READING 122 0.996192
1412262231756 23341 READING 593 0.071769
1412262231937 23341 READING 660 0.403215
1412262231957 23342 READING 126 0.995968
1412262232494 23341 READING 667 0.839673
1412262232786 23342 READING 126 0.997711
1412262232920 23341 READING 669 0.838186
1412262233358 23341 READING 672 0.810696
1412262233601 23342 READING 129 0.998250
1412262233889 23341 READING 672 0.848186
1412262234055 23341 READING 681 0.531024
1412262234489 23342 READING 129 0.998316
1412262235254 23342 READING 131 0.998088
1412262235912 23341 READING 690 0.026051
1412262236039 23342 READING 132 0.997757
1412262236115 23341 READING 761 0.224548
1412262236291 23341 READING 749 0.645054
1412262236396 23341 READING 671 0.311847
1412262236424 23342 FUNCTION lru lambda h: 0.917533 * (h ** 0.0150867)
1412262236424 23341 FUNCTION lru lambda h: 1.22261 * (h ** 0.001)
1412262236424 23342 RECOMMEND 1223
1412262236424 23341 RECOMMEND 1223
1412262236512 23341 READING 747 0.312688
1412262236921 23342 READING 133 0.998319
1412262237695 23342 READING 134 0.997588
1412262237815 23341 READING 751 0.027710
1412262237960 23341 READING 833 0.324416
1412262238034 23341 READING 834 0.545398
1412262238520 23341 READING 840 0.889359
1412262238579 23342 READING 136 0.998677
1412262238622 23341 READING 840 0.643080
1412262238728 23341 READING 835 0.632638
1412262238827 23341 READING 838 0.674138
1412262239422 23342 READING 136 0.998091
1412262240158 23342 READING 137 0.996033
1412262240367 23341 READING 841 0.047830
1412262240720 23342 READING 137 0.984913
1412262240738 23341 READING 932 0.564081
1412262240853 23341 READING 935 0.815278
1412262241105 23341 READING 939 0.910010
1412262241172 23342 READING 139 0.991214
1412262241209 23341 READING 940 0.657072
1412262241482 23341 READING 942 0.951120
1412262241607 23341 READING 931 0.872625
1412262241938 23341 READING 771 0.913093
1412262242100 23342 READING 139 0.997318
1412262242177 23341 READING 914 0.855707
1412262242326 23341 READING 818 0.752228
1412262242472 23341 READING 905 0.782166
1412262242637 23341 READING 822 0.699534
1412262242790 23341 READING 895 0.816427
1412262242941 23341 READING 817 0.818704
1412262243082 23342 READING 144 0.988909
1412262243099 23341 READING 888 0.832263
1412262243258 23341 READING 822 0.817686
1412262243424 23341 READING 882 0.827788
1412262243589 23341 READING 888 0.841630
1412262243763 23341 READING 880 0.836037
1412262243931 23341 READING 884 0.855666
1412262244012 23342 READING 144 0.996633
1412262244920 23342 READING 148 0.996801
1412262245242 23341 READING 880 0.985180
1412262245827 23342 READING 149 0.997113
1412262245959 23341 READING 883 0.950884
1412262246140 23341 READING 885 0.809775
1412262246321 23341 READING 888 0.810601
1412262246425 23342 FUNCTION lru lambda h: 0.911818 * (h ** 0.0168999)
1412262246425 23341 FUNCTION lru lambda h: 0.341055 * (h ** 0.0617247)
1412262246425 23342 RECOMMEND 1223
1412262246425 23341 RECOMMEND 1223
1412262246509 23341 READING 893 0.807724
1412262246696 23341 READING 895 0.810164
1412262246795 23342 READING 152 0.997537
1412262246891 23341 READING 901 0.816935
1412262247084 23341 READING 901 0.824283
1412262247287 23341 READING 907 0.830541
1412262247491 23341 READING 907 0.825569
1412262247707 23341 READING 912 0.819177
1412262247768 23342 READING 152 0.997565
1412262248046 23341 READING 913 0.871494
1412262248407 23341 READING 914 0.897992
1412262248613 23341 READING 917 0.845082
1412262248784 23342 READING 155 0.997076
1412262248861 23341 READING 921 0.730338
1412262249763 23342 READING 155 0.986273
1412262250680 23342 READING 158 0.990006
1412262250985 23341 READING 922 0.057442
1412262251206 23341 READING 1063 0.581319
1412262251366 23341 READING 1065 0.800297
1412262251542 23341 READING 1069 0.813636
1412262251671 23342 READING 158 0.996574
1412262251733 23341 READING 1071 0.738399
1412262251921 23341 READING 1073 0.785948
1412262252114 23341 READING 1075 0.766095
1412262252323 23341 READING 1079 0.771533
1412262252539 23341 READING 1081 0.756477
1412262252747 23342 READING 162 0.991912
1412262252774 23341 READING 1093 0.740531
1412262253558 23341 READING 1093 0.909151
1412262253878 23342 READING 162 0.988509
1412262255001 23342 READING 167 0.998061
1412262255561 23341 READING 1107 0.957460
1412262256084 23342 READING 167 0.997586
1412262256425 23342 FUNCTION lru lambda h: 0.911457 * (h ** 0.0170108)
1412262256425 23341 FUNCTION lru lambda h: 0.12225 * (h ** 0.228588)
1412262256425 23342 RECOMMEND 1223
1412262256425 23341 RECOMMEND 1223
1412262257180 23342 READING 170 0.998831
1412262257344 23341 READING 1108 0.958080
1412262258249 23342 READING 171 0.998498
1412262258905 23342 READING 174 0.996231
1412262259171 23341 READING 1120 0.947637
1412262259505 23342 READING 174 0.994321
1412262260322 23342 READING 178 0.997006
1412262260947 23341 READING 1124 0.951224
1412262261436 23342 READING 178 0.997805
1412262262540 23342 READING 180 0.997908
1412262262747 23341 READING 1140 0.962137
1412262263664 23342 READING 181 0.997818
1412262264549 23341 READING 1140 0.957753
1412262264791 23342 READING 183 0.997644
1412262265907 23342 READING 183 0.997711
1412262266406 23341 READING 1140 0.960899
1412262266425 23342 FUNCTION lru lambda h: 0.910081 * (h ** 0.0174193)
1412262266425 23341 FUNCTION lru lambda h: 0.0897387 * (h ** 0.279396)
1412262266425 23342 RECOMMEND 1223
1412262266425 23341 RECOMMEND 1223
1412262267044 23342 READING 185 0.997964
1412262268172 23342 READING 185 0.997536
1412262268288 23341 READING 1144 0.960287
1412262269336 23342 READING 188 0.997819
1412262270196 23341 READING 1139 0.961456
1412262270509 23342 READING 188 0.997642
1412262271652 23342 READING 190 0.997587
1412262272084 23341 READING 1143 0.959752
1412262272824 23342 READING 190 0.997066
1412262274009 23342 READING 192 0.997221
1412262274016 23341 READING 1145 0.960924
1412262275174 23342 READING 192 0.997486
1412262276041 23341 READING 1146 0.935987
1412262276120 23342 READING 195 0.996712
1412262276425 23342 FUNCTION lru lambda h: 0.910011 * (h ** 0.0174401)
1412262276425 23341 FUNCTION lru lambda h: 0.0305489 * (h ** 0.444726)
1412262276425 23342 RECOMMEND 1223
1412262276425 23341 RECOMMEND 1223
1412262276624 23342 READING 195 0.992045
1412262277474 23342 READING 197 0.996922
1412262278018 23341 READING 1151 0.959711
1412262278699 23342 READING 197 0.997876
1412262279922 23342 READING 201 0.998104
1412262280012 23341 READING 1153 0.959978
1412262281169 23342 READING 201 0.997942
1412262282012 23341 READING 1157 0.960096
1412262282358 23342 READING 190 0.997968
1412262283472 23342 READING 182 0.997986
1412262284009 23341 READING 1161 0.958697
1412262284550 23342 READING 175 0.997816
1412262285566 23342 READING 167 0.997528
1412262286425 23342 FUNCTION lru lambda h: 0.909998 * (h ** 0.0174462)
1412262286425 23341 FUNCTION lru lambda h: 0.0112194 * (h ** 0.596261)
1412262286425 23342 RECOMMEND 1223
1412262286425 23341 RECOMMEND 1223
1412262286552 23342 READING 160 0.996918
1412262287448 23342 READING 154 0.997450
1412262287474 23341 READING 1167 0.557597
1412262288317 23342 READING 147 0.996925
1412262289144 23342 READING 141 0.996922
1412262289422 23341 READING 1241 0.992594
1412262289951 23342 READING 136 0.996874
1412262290794 23342 READING 130 0.886052
1412262291402 23341 READING 1240 0.989776
1412262291536 23342 READING 129 0.998208
1412262292269 23342 READING 130 0.997778
1412262292965 23342 READING 132 0.996701
1412262293256 23342 READING 138 0.989780
1412262293409 23341 READING 1247 0.969303
1412262293585 23342 READING 141 0.991968
1412262294039 23342 READING 146 0.994853
1412262294904 23342 READING 149 0.996808
1412262295381 23341 READING 1249 0.984657
1412262295814 23342 READING 154 0.997403
1412262296426 23342 FUNCTION lru lambda h: 0.910271 * (h ** 0.0172546)
1412262296426 23341 FUNCTION lru lambda h: 0.010598 * (h ** 0.605583)
1412262296426 23342 RECOMMEND 1223
1412262296426 23341 RECOMMEND 1223
1412262296732 23342 READING 158 0.997485
1412262297351 23341 READING 1138 0.982478
1412262297693 23342 READING 162 0.997818
1412262298654 23342 READING 165 0.997470
1412262299357 23341 READING 1248 0.980596
1412262299652 23342 READING 169 0.997664
1412262300670 23342 READING 172 0.997735
1412262301330 23341 READING 1153 0.977638
1412262301725 23342 READING 175 0.997715
1412262302754 23342 READING 176 0.997618
1412262303354 23341 READING 1235 0.974357
1412262303796 23342 READING 176 0.997048
1412262304836 23342 READING 178 0.997460
1412262305328 23341 READING 1168 0.973345
1412262305904 23342 READING 179 0.997153
1412262306426 23342 FUNCTION lru lambda h: 0.909436 * (h ** 0.0175083)
1412262306426 23341 FUNCTION lru lambda h: 0.0027283 * (h ** 0.806216)
1412262306426 23342 RECOMMEND 1223
1412262306426 23341 RECOMMEND 1223
1412262306963 23342 READING 182 0.997700
1412262307331 23341 READING 1229 0.971610
1412262308055 23342 READING 182 0.997810
1412262309140 23342 READING 184 0.998565
1412262309421 23341 READING 1183 0.968955
1412262309893 23342 READING 185 0.996361
1412262310259 23342 READING 188 0.990705
1412262310983 23342 READING 188 0.995653
1412262311403 23341 READING 1223 0.966980
1412262312155 23342 READING 193 0.998069
1412262313298 23342 READING 193 0.997805
1412262313463 23341 READING 1222 0.962918
1412262314506 23342 READING 198 0.997978
1412262315424 23341 READING 1221 0.956219
1412262315697 23342 READING 198 0.997836
1412262316426 23342 FUNCTION lru lambda h: 0.909464 * (h ** 0.0175005)
1412262316426 23341 FUNCTION lru lambda h: 0.001 * (h ** 0.999)
1412262316426 23342 RECOMMEND 1223
1412262316426 23341 RECOMMEND 1223
1412262316906 23342 READING 201 0.998023
1412262317402 23341 READING 1226 0.955451
1412262318131 23342 READING 201 0.997756
1412262319353 23341 READING 1230 0.956794
1412262319388 23342 READING 205 0.997847
1412262320604 23342 READING 205 0.997646
1412262321302 23341 READING 1235 0.957763
1412262321859 23342 READING 208 0.997753
1412262323089 23342 READING 208 0.997504
1412262323337 23341 READING 1237 0.958237
1412262324379 23342 READING 211 0.997876
1412262325315 23341 READING 1238 0.955963
1412262325650 23342 READING 211 0.997692
1412262326426 23342 FUNCTION lru lambda h: 0.909622 * (h ** 0.0174569)
1412262326426 23341 FUNCTION lru lambda h: 0.001 * (h ** 0.999)
1412262326426 23342 RECOMMEND 1223
1412262326426 23341 RECOMMEND 1223
1412262326625 23342 READING 215 0.996851
1412262327064 23342 READING 215 0.988823
1412262327421 23341 READING 1239 0.936043
1412262328108 23342 READING 217 0.997244
1412262329440 23341 READING 1191 0.958065
1412262329440 23342 READING 218 0.998266
1412262330777 23342 READING 221 0.998179
1412262331425 23341 READING 1239 0.952987
1412262332135 23342 READING 223 0.997717
1412262333435 23341 READING 1189 0.954503
1412262333523 23342 READING 227 0.998230
1412262334873 23342 READING 227 0.997810
1412262335461 23341 READING 1237 0.957876
1412262336289 23342 READING 231 0.998122
1412262336426 23342 FUNCTION lru lambda h: 0.910607 * (h ** 0.0171897)
1412262336426 23341 FUNCTION lru lambda h: 0.001 * (h ** 0.999)
1412262336426 23342 RECOMMEND 1223
1412262336426 23341 RECOMMEND 1223
1412262337483 23341 READING 1187 0.957653
1412262337700 23342 READING 231 0.997680
1412262339121 23342 READING 234 0.998049
1412262339516 23341 READING 1233 0.960080
1412262340564 23342 READING 235 0.997757
1412262341578 23341 READING 1186 0.957778
1412262342032 23342 READING 238 0.998112
1412262343275 23342 READING 238 0.997332
1412262343717 23341 READING 1229 0.946277
1412262343790 23342 READING 242 0.992099
1412262344953 23342 READING 242 0.996375
1412262346427 23342 FUNCTION lru lambda h: 0.911484 * (h ** 0.0169571)
1412262346427 23341 FUNCTION lru lambda h: 0.001 * (h ** 0.999)
1412262346427 23342 RECOMMEND 1223
1412262346427 23341 RECOMMEND 1223
1412262346482 23342 READING 248 0.997975
1412262347902 23341 READING 1185 0.487790
1412262347970 23342 READING 248 0.998072
1412262349491 23342 READING 252 0.998283
1412262350009 23341 READING 1345 0.940529
1412262351048 23342 READING 253 0.997878
1412262352004 23341 READING 1340 0.983009
1412262352623 23342 READING 257 0.998109
1412262353980 23341 READING 1345 0.981589
1412262354183 23342 READING 257 0.997971
1412262355777 23342 READING 261 0.998256
1412262356427 23342 FUNCTION lru lambda h: 0.912466 * (h ** 0.0167011)
1412262356427 23341 FUNCTION lru lambda h: 0.001 * (h ** 0.999)
1412262356427 23342 RECOMMEND 1223
1412262356427 23341 RECOMMEND 1223
1412262357370 23342 READING 261 0.997993
1412262358989 23342 READING 264 0.998296
1412262360053 23342 READING 265 0.995362
1412262360896 23342 READING 268 0.995439
1412262362548 23342 READING 268 0.997793
1412262364240 23342 READING 273 0.998543
1412262365921 23342 READING 274 0.998155
1412262366427 23342 FUNCTION lru lambda h: 0.913829 * (h ** 0.0163499)
1412262366427 23341 FUNCTION lru lambda h: 0.001 * (h ** 0.999)
1412262366427 23342 RECOMMEND 1223
1412262366427 23341 RECOMMEND 1223
1412262367620 23342 READING 278 0.998342
1412262368527 23341 READING 1348 0.989578
1412262369376 23342 READING 278 0.998128
1412262371110 23342 READING 281 0.998432
1412262372830 23342 READING 282 0.998305
1412262374585 23342 READING 286 0.998309
1412262376331 23342 READING 286 0.997895
1412262376427 23342 FUNCTION lru lambda h: 0.90096 * (h ** 0.0190934)
1412262376427 23341 FUNCTION lru lambda h: 0.001 * (h ** 0.999)
1412262376427 23342 RECOMMEND 1223
1412262376427 23341 RECOMMEND 1223
1412262377018 23342 READING 290 0.877979
1412262378483 23342 READING 299 0.998233
1412262380348 23342 READING 307 0.998839
1412262380453 23341 READING 1324 0.994817
1412262382186 23342 READING 307 0.998871
1412262384048 23342 READING 313 0.998997
1412262385923 23342 READING 314 0.998804
1412262386428 23342 FUNCTION lru lambda h: 0.879994 * (h ** 0.0232587)
1412262386428 23341 FUNCTION lru lambda h: 0.001 * (h ** 0.999)
1412262386428 23342 RECOMMEND 1223
1412262386428 23341 RECOMMEND 1223
1412262386505 23341 READING 1348 0.981730
1412262387557 23341 READING 1328 0.926470
1412262387887 23342 READING 317 0.999128
1412262387977 23341 READING 1350 0.831042
1412262388318 23341 READING 1357 0.726471
1412262388578 23341 READING 1365 0.576176
1412262388798 23341 READING 1381 0.572744
1412262389011 23341 READING 1354 0.575077
1412262389229 23341 READING 1396 0.572616
1412262389972 23342 READING 318 0.998829
1412262390251 23341 READING 1341 0.122195
1412262390381 23341 READING 1382 0.988216
1412262390510 23341 READING 1111 0.987740
1412262390638 23341 READING 1382 0.981339
1412262390769 23341 READING 1111 0.973045
1412262390902 23341 READING 1382 0.973843
1412262391032 23341 READING 1110 0.989441
1412262391162 23341 READING 1381 0.988486
1412262391307 23341 READING 1110 0.971209
1412262391959 23342 READING 323 0.999078
1412262392388 23341 READING 1381 0.991805
1412262393467 23342 READING 323 0.997740
1412262393640 23341 READING 1113 0.981889
1412262394406 23342 READING 326 0.996019
1412262394858 23341 READING 1382 0.988764
1412262396068 23341 READING 1119 0.986080
1412262396393 23342 READING 327 0.998058
1412262396428 23342 FUNCTION lru lambda h: 0.97435 * (h ** 0.0038877)
1412262396428 23341 FUNCTION lru lambda h: 0.001 * (h ** 0.999)
1412262396428 23342 RECOMMEND 1223
1412262396428 23341 RECOMMEND 1223
1412262397359 23341 READING 1346 0.982510
1412262398404 23342 READING 333 0.998342
1412262398584 23341 READING 1131 0.980967
1412262399849 23341 READING 1319 0.974070
1412262400431 23342 READING 333 0.998024
1412262401112 23341 READING 1142 0.975452
1412262402410 23341 READING 1294 0.974744
1412262402517 23342 READING 339 0.998698
1412262403738 23341 READING 1154 0.968174
1412262404594 23342 READING 339 0.995863
1412262405093 23341 READING 1273 0.970137
1412262406428 23342 FUNCTION lru lambda h: 0.975899 * (h ** 0.00359723)
1412262406428 23341 FUNCTION lru lambda h: 0.0114388 * (h ** 0.607833)
1412262406428 23342 RECOMMEND 1223
1412262406428 23341 RECOMMEND 1223
1412262406482 23341 READING 1165 0.970551
1412262406704 23342 READING 344 0.998389
1412262407846 23341 READING 1262 0.964956
1412262408788 23342 READING 344 0.998479
1412262409217 23341 READING 1176 0.960013
1412262410277 23342 READING 349 0.997346
1412262410669 23341 READING 1260 0.958408
1412262411609 23342 READING 350 0.996362
1412262412050 23341 READING 1188 0.958281
1412262413481 23341 READING 1257 0.959538
1412262413817 23342 READING 356 0.998510
1412262414920 23341 READING 1193 0.958244
1412262415989 23342 READING 357 0.998162
1412262416385 23341 READING 1255 0.961551
1412262416428 23342 FUNCTION lru lambda h: 0.989788 * (h ** 0.00100557)
1412262416428 23341 FUNCTION lru lambda h: 0.0790675 * (h ** 0.336896)
1412262416428 23342 RECOMMEND 1223
1412262416428 23341 RECOMMEND 1223
1412262417792 23341 READING 1194 0.956548
1412262418200 23342 READING 363 0.998431
1412262419264 23341 READING 1252 0.956666
1412262420437 23342 READING 363 0.998046
1412262420723 23341 READING 1195 0.955313
1412262422226 23341 READING 1249 0.954705
1412262422691 23342 READING 369 0.998235
1412262423683 23341 READING 1197 0.959611
1412262424938 23342 READING 369 0.998095
1412262425222 23341 READING 1246 0.958011
1412262426428 23342 FUNCTION lru lambda h: 0.990523 * (h ** 0.001)
1412262426428 23341 FUNCTION lru lambda h: 0.0581658 * (h ** 0.38095)
1412262426429 23342 RECOMMEND 1223
1412262426429 23341 RECOMMEND 1223
1412262426775 23341 READING 1198 0.934177
1412262426816 23342 READING 374 0.998081
1412262428043 23342 READING 375 0.995781
1412262428275 23341 READING 1243 0.958103
1412262429781 23341 READING 1199 0.958190
1412262430406 23342 READING 380 0.998404
1412262431324 23341 READING 1240 0.959988
1412262432737 23342 READING 381 0.998225
1412262432854 23341 READING 1201 0.955590
1412262434376 23341 READING 1238 0.958235
1412262435123 23342 READING 387 0.998382
1412262435937 23341 READING 1202 0.958084
1412262436429 23342 FUNCTION lru lambda h: 0.987999 * (h ** 0.00138055)
1412262436429 23341 FUNCTION lru lambda h: 0.0190172 * (h ** 0.538984)
1412262436429 23342 RECOMMEND 1223
1412262436429 23341 RECOMMEND 1223
1412262437488 23341 READING 1234 0.954635
1412262437535 23342 READING 388 0.997573
1412262439059 23341 READING 1203 0.960648
1412262439962 23342 READING 394 0.998248
1412262440638 23341 READING 1232 0.958000
1412262442230 23341 READING 1204 0.958299
1412262442424 23342 READING 394 0.998146
1412262443709 23342 READING 401 0.995571
1412262443869 23341 READING 1230 0.921955
1412262445417 23341 READING 1204 0.951537
1412262445947 23342 READING 401 0.998107
1412262446429 23342 FUNCTION lru lambda h: 0.984386 * (h ** 0.00204773)
1412262446429 23341 FUNCTION lru lambda h: 0.00748353 * (h ** 0.670709)
1412262446429 23342 RECOMMEND 1223
1412262446429 23341 RECOMMEND 1223
1412262447012 23341 READING 1228 0.957921
1412262448497 23342 READING 410 0.995649
1412262448545 23341 READING 1205 0.957096
1412262450079 23341 READING 1226 0.953360
1412262451035 23342 READING 411 0.998211
1412262451665 23341 READING 1205 0.951811
1412262453297 23341 READING 1224 0.956544
1412262453645 23342 READING 419 0.998486
1412262454847 23341 READING 1205 0.956921
1412262456244 23342 READING 420 0.998356
1412262456386 23341 READING 1222 0.955090
1412262456429 23342 FUNCTION lru lambda h: 0.983823 * (h ** 0.00216474)
1412262456429 23341 FUNCTION lru lambda h: 0.00164865 * (h ** 0.883849)
1412262456429 23342 RECOMMEND 1223
1412262456429 23341 RECOMMEND 1223
1412262458008 23341 READING 1221 0.959131
1412262458915 23342 READING 427 0.998539
1412262460700 23342 READING 428 0.992606
1412262460922 23341 READING 1224 0.553873
1412262462460 23341 READING 1197 0.991457
1412262463189 23342 READING 434 0.998312
1412262463906 23341 READING 1200 0.988370
1412262465434 23341 READING 1209 0.984805
1412262465909 23342 READING 435 0.998425
1412262466429 23342 FUNCTION lru lambda h: 0.98241 * (h ** 0.00241589)
1412262466429 23341 FUNCTION lru lambda h: 0.001 * (h ** 0.999)
1412262466429 23342 RECOMMEND 1223
1412262466429 23341 RECOMMEND 1223
1412262466931 23341 READING 1218 0.984050
1412262468445 23341 READING 1221 0.982301
1412262468683 23342 READING 443 0.998630
1412262470049 23341 READING 1224 0.979362
1412262471409 23342 READING 444 0.998393
1412262471660 23341 READING 1153 0.977176
1412262473265 23341 READING 1223 0.975693
1412262474250 23342 READING 451 0.998664
1412262474895 23341 READING 1222 0.975259
1412262476430 23342 FUNCTION lru lambda h: 0.980071 * (h ** 0.0028422)
1412262476430 23341 FUNCTION lru lambda h: 21.4195 * (h ** 0.001)
1412262476430 23342 RECOMMEND 1223
1412262476430 23341 RECOMMEND 1223
1412262476539 23341 READING 1213 0.973217
1412262478107 23341 READING 1218 0.970807
1412262478741 23342 DEATH 213
1412262479713 23341 READING 1220 0.970282
1412262481293 23341 READING 1220 0.967626
1412262482925 23341 READING 1225 0.966823
1412262484571 23341 READING 1227 0.964951
1412262486144 23341 READING 1225 0.962399
1412262486430 23341 FUNCTION lru lambda h: 242.835 * (h ** 0.001)
1412262486430 23341 RECOMMEND 2446
1412262487702 23341 READING 1229 0.961806
1412262489268 23341 READING 1230 0.960671
1412262490844 23341 READING 1233 0.960825
1412262492467 23341 READING 1241 0.962438
1412262494106 23341 READING 1242 0.961614
1412262495767 23341 READING 1250 0.961837
1412262496430 23341 FUNCTION lru lambda h: 760.683 * (h ** 0.001)
1412262496430 23341 RECOMMEND 2446
1412262497435 23341 READING 1251 0.962063
1412262499170 23341 READING 1259 0.962629
1412262506430 23341 FUNCTION lru lambda h: 3002.17 * (h ** 0.001)
1412262506430 23341 RECOMMEND 2446
1412262513488 23341 READING 1259 0.838084
1412262516430 23341 FUNCTION lru lambda h: 3146.49 * (h ** 0.001)
1412262516430 23341 RECOMMEND 2446
1412262524022 23341 READING 1387 0.989281
1412262526151 23341 READING 1419 0.962923
1412262526431 23341 FUNCTION lru lambda h: 1660.14 * (h ** 0.001)
1412262526431 23341 RECOMMEND 2446
1412262530985 23341 READING 1415 0.986373
1412262531390 23341 READING 1426 0.849561
1412262531652 23341 READING 1427 0.774617
1412262531982 23341 READING 1435 0.753869
1412262532171 23341 READING 1421 0.668306
1412262532364 23341 READING 1448 0.647132
1412262532558 23341 READING 1471 0.678371
1412262532761 23341 READING 1482 0.665700
1412262532973 23341 READING 1508 0.698486
1412262533891 23341 READING 1514 0.159609
1412262534068 23341 READING 1428 0.990406
1412262534251 23341 READING 1430 0.991229
1412262534448 23341 READING 1463 0.991360
1412262534616 23341 DEATH 301
