MemTotal:       16318588 kB
MemFree:        12990836 kB
Buffers:          230052 kB
Cached:          2607640 kB
SwapCached:            0 kB
Active:          2681900 kB
Inactive:         383588 kB
Active(anon):     228416 kB
Inactive(anon):      748 kB
Active(file):    2453484 kB
Inactive(file):   382840 kB
Unevictable:           0 kB
Mlocked:               0 kB
SwapTotal:      16728060 kB
SwapFree:       16728060 kB
Dirty:                68 kB
Writeback:             0 kB
AnonPages:        227580 kB
Mapped:            17460 kB
Shmem:              1552 kB
Slab:             133584 kB
SReclaimable:     115508 kB
SUnreclaim:        18076 kB
KernelStack:        1712 kB
PageTables:         3428 kB
NFS_Unstable:          0 kB
Bounce:                0 kB
WritebackTmp:          0 kB
CommitLimit:    24887352 kB
Committed_AS:     388580 kB
VmallocTotal:   34359738367 kB
VmallocUsed:      375664 kB
VmallocChunk:   34359355992 kB
HardwareCorrupted:     0 kB
AnonHugePages:    253952 kB
HugePages_Total:       0
HugePages_Free:        0
HugePages_Rsvd:        0
HugePages_Surp:        0
Hugepagesize:       2048 kB
DirectMap4k:       66496 kB
DirectMap2M:    16594944 kB
