===== DaCapo 9.12 pmd starting warmup 1 =====
===== DaCapo 9.12 pmd completed warmup 1 in 5427 msec =====
===== DaCapo 9.12 pmd starting warmup 2 =====
===== DaCapo 9.12 pmd completed warmup 2 in 4138 msec =====
===== DaCapo 9.12 pmd starting warmup 3 =====
===== DaCapo 9.12 pmd completed warmup 3 in 3327 msec =====
===== DaCapo 9.12 pmd starting warmup 4 =====
===== DaCapo 9.12 pmd completed warmup 4 in 3146 msec =====
===== DaCapo 9.12 pmd starting warmup 5 =====
===== DaCapo 9.12 pmd completed warmup 5 in 2849 msec =====
===== DaCapo 9.12 pmd starting warmup 6 =====
===== DaCapo 9.12 pmd completed warmup 6 in 3004 msec =====
===== DaCapo 9.12 pmd starting warmup 7 =====
===== DaCapo 9.12 pmd completed warmup 7 in 2948 msec =====
===== DaCapo 9.12 pmd starting warmup 8 =====
===== DaCapo 9.12 pmd completed warmup 8 in 2935 msec =====
===== DaCapo 9.12 pmd starting warmup 9 =====
===== DaCapo 9.12 pmd completed warmup 9 in 2789 msec =====
===== DaCapo 9.12 pmd starting warmup 10 =====
===== DaCapo 9.12 pmd completed warmup 10 in 2824 msec =====
===== DaCapo 9.12 pmd starting warmup 11 =====
===== DaCapo 9.12 pmd completed warmup 11 in 2867 msec =====
===== DaCapo 9.12 pmd starting warmup 12 =====
===== DaCapo 9.12 pmd completed warmup 12 in 3021 msec =====
===== DaCapo 9.12 pmd starting warmup 13 =====
===== DaCapo 9.12 pmd completed warmup 13 in 3096 msec =====
===== DaCapo 9.12 pmd starting warmup 14 =====
===== DaCapo 9.12 pmd completed warmup 14 in 2832 msec =====
===== DaCapo 9.12 pmd starting warmup 15 =====
===== DaCapo 9.12 pmd completed warmup 15 in 2977 msec =====
===== DaCapo 9.12 pmd starting warmup 16 =====
===== DaCapo 9.12 pmd completed warmup 16 in 2963 msec =====
===== DaCapo 9.12 pmd starting warmup 17 =====
===== DaCapo 9.12 pmd completed warmup 17 in 2886 msec =====
===== DaCapo 9.12 pmd starting warmup 18 =====
===== DaCapo 9.12 pmd completed warmup 18 in 2784 msec =====
===== DaCapo 9.12 pmd starting warmup 19 =====
===== DaCapo 9.12 pmd completed warmup 19 in 2869 msec =====
===== DaCapo 9.12 pmd starting warmup 20 =====
===== DaCapo 9.12 pmd completed warmup 20 in 2947 msec =====
===== DaCapo 9.12 pmd starting warmup 21 =====
===== DaCapo 9.12 pmd completed warmup 21 in 2959 msec =====
===== DaCapo 9.12 pmd starting warmup 22 =====
===== DaCapo 9.12 pmd completed warmup 22 in 2919 msec =====
===== DaCapo 9.12 pmd starting warmup 23 =====
===== DaCapo 9.12 pmd completed warmup 23 in 2746 msec =====
===== DaCapo 9.12 pmd starting warmup 24 =====
===== DaCapo 9.12 pmd completed warmup 24 in 2832 msec =====
===== DaCapo 9.12 pmd starting warmup 25 =====
===== DaCapo 9.12 pmd completed warmup 25 in 2809 msec =====
===== DaCapo 9.12 pmd starting warmup 26 =====
===== DaCapo 9.12 pmd completed warmup 26 in 2731 msec =====
===== DaCapo 9.12 pmd starting warmup 27 =====
===== DaCapo 9.12 pmd completed warmup 27 in 2827 msec =====
===== DaCapo 9.12 pmd starting warmup 28 =====
===== DaCapo 9.12 pmd completed warmup 28 in 2783 msec =====
===== DaCapo 9.12 pmd starting warmup 29 =====
===== DaCapo 9.12 pmd completed warmup 29 in 2825 msec =====
===== DaCapo 9.12 pmd starting warmup 30 =====
===== DaCapo 9.12 pmd completed warmup 30 in 2737 msec =====
===== DaCapo 9.12 pmd starting warmup 31 =====
===== DaCapo 9.12 pmd completed warmup 31 in 2747 msec =====
===== DaCapo 9.12 pmd starting warmup 32 =====
===== DaCapo 9.12 pmd completed warmup 32 in 2744 msec =====
===== DaCapo 9.12 pmd starting warmup 33 =====
===== DaCapo 9.12 pmd completed warmup 33 in 2760 msec =====
===== DaCapo 9.12 pmd starting warmup 34 =====
===== DaCapo 9.12 pmd completed warmup 34 in 2715 msec =====
===== DaCapo 9.12 pmd starting warmup 35 =====
===== DaCapo 9.12 pmd completed warmup 35 in 2766 msec =====
===== DaCapo 9.12 pmd starting warmup 36 =====
===== DaCapo 9.12 pmd completed warmup 36 in 2746 msec =====
===== DaCapo 9.12 pmd starting warmup 37 =====
===== DaCapo 9.12 pmd completed warmup 37 in 2640 msec =====
===== DaCapo 9.12 pmd starting warmup 38 =====
===== DaCapo 9.12 pmd completed warmup 38 in 2800 msec =====
===== DaCapo 9.12 pmd starting warmup 39 =====
===== DaCapo 9.12 pmd completed warmup 39 in 2653 msec =====
===== DaCapo 9.12 pmd starting warmup 40 =====
===== DaCapo 9.12 pmd completed warmup 40 in 2700 msec =====
===== DaCapo 9.12 pmd starting warmup 41 =====
===== DaCapo 9.12 pmd completed warmup 41 in 2698 msec =====
===== DaCapo 9.12 pmd starting warmup 42 =====
===== DaCapo 9.12 pmd completed warmup 42 in 2816 msec =====
===== DaCapo 9.12 pmd starting warmup 43 =====
===== DaCapo 9.12 pmd completed warmup 43 in 2685 msec =====
===== DaCapo 9.12 pmd starting warmup 44 =====
===== DaCapo 9.12 pmd completed warmup 44 in 2666 msec =====
===== DaCapo 9.12 pmd starting warmup 45 =====
===== DaCapo 9.12 pmd completed warmup 45 in 2802 msec =====
===== DaCapo 9.12 pmd starting warmup 46 =====
===== DaCapo 9.12 pmd completed warmup 46 in 2744 msec =====
===== DaCapo 9.12 pmd starting warmup 47 =====
===== DaCapo 9.12 pmd completed warmup 47 in 2676 msec =====
===== DaCapo 9.12 pmd starting warmup 48 =====
===== DaCapo 9.12 pmd completed warmup 48 in 2695 msec =====
===== DaCapo 9.12 pmd starting warmup 49 =====
===== DaCapo 9.12 pmd completed warmup 49 in 2683 msec =====
===== DaCapo 9.12 pmd starting warmup 50 =====
===== DaCapo 9.12 pmd completed warmup 50 in 2632 msec =====
===== DaCapo 9.12 pmd starting warmup 51 =====
===== DaCapo 9.12 pmd completed warmup 51 in 2754 msec =====
===== DaCapo 9.12 pmd starting warmup 52 =====
===== DaCapo 9.12 pmd completed warmup 52 in 2801 msec =====
===== DaCapo 9.12 pmd starting warmup 53 =====
===== DaCapo 9.12 pmd completed warmup 53 in 2703 msec =====
===== DaCapo 9.12 pmd starting warmup 54 =====
===== DaCapo 9.12 pmd completed warmup 54 in 2774 msec =====
===== DaCapo 9.12 pmd starting warmup 55 =====
===== DaCapo 9.12 pmd completed warmup 55 in 2693 msec =====
===== DaCapo 9.12 pmd starting warmup 56 =====
===== DaCapo 9.12 pmd completed warmup 56 in 2678 msec =====
===== DaCapo 9.12 pmd starting warmup 57 =====
===== DaCapo 9.12 pmd completed warmup 57 in 2667 msec =====
===== DaCapo 9.12 pmd starting warmup 58 =====
===== DaCapo 9.12 pmd completed warmup 58 in 2750 msec =====
===== DaCapo 9.12 pmd starting warmup 59 =====
===== DaCapo 9.12 pmd completed warmup 59 in 2756 msec =====
===== DaCapo 9.12 pmd starting warmup 60 =====
===== DaCapo 9.12 pmd completed warmup 60 in 2774 msec =====
===== DaCapo 9.12 pmd starting warmup 61 =====
===== DaCapo 9.12 pmd completed warmup 61 in 2724 msec =====
===== DaCapo 9.12 pmd starting warmup 62 =====
===== DaCapo 9.12 pmd completed warmup 62 in 2690 msec =====
===== DaCapo 9.12 pmd starting warmup 63 =====
===== DaCapo 9.12 pmd completed warmup 63 in 2792 msec =====
===== DaCapo 9.12 pmd starting warmup 64 =====
===== DaCapo 9.12 pmd completed warmup 64 in 2755 msec =====
===== DaCapo 9.12 pmd starting warmup 65 =====
===== DaCapo 9.12 pmd completed warmup 65 in 2665 msec =====
===== DaCapo 9.12 pmd starting warmup 66 =====
===== DaCapo 9.12 pmd completed warmup 66 in 2673 msec =====
===== DaCapo 9.12 pmd starting warmup 67 =====
===== DaCapo 9.12 pmd completed warmup 67 in 2741 msec =====
===== DaCapo 9.12 pmd starting warmup 68 =====
===== DaCapo 9.12 pmd completed warmup 68 in 2776 msec =====
===== DaCapo 9.12 pmd starting warmup 69 =====
===== DaCapo 9.12 pmd completed warmup 69 in 2802 msec =====
===== DaCapo 9.12 pmd starting warmup 70 =====
===== DaCapo 9.12 pmd completed warmup 70 in 2804 msec =====
===== DaCapo 9.12 pmd starting warmup 71 =====
===== DaCapo 9.12 pmd completed warmup 71 in 2817 msec =====
===== DaCapo 9.12 pmd starting warmup 72 =====
===== DaCapo 9.12 pmd completed warmup 72 in 2800 msec =====
===== DaCapo 9.12 pmd starting warmup 73 =====
===== DaCapo 9.12 pmd completed warmup 73 in 2790 msec =====
===== DaCapo 9.12 pmd starting warmup 74 =====
===== DaCapo 9.12 pmd completed warmup 74 in 2833 msec =====
===== DaCapo 9.12 pmd starting warmup 75 =====
===== DaCapo 9.12 pmd completed warmup 75 in 2761 msec =====
===== DaCapo 9.12 pmd starting warmup 76 =====
===== DaCapo 9.12 pmd completed warmup 76 in 2669 msec =====
===== DaCapo 9.12 pmd starting warmup 77 =====
===== DaCapo 9.12 pmd completed warmup 77 in 2756 msec =====
===== DaCapo 9.12 pmd starting warmup 78 =====
===== DaCapo 9.12 pmd completed warmup 78 in 2727 msec =====
===== DaCapo 9.12 pmd starting warmup 79 =====
===== DaCapo 9.12 pmd completed warmup 79 in 2820 msec =====
===== DaCapo 9.12 pmd starting warmup 80 =====
===== DaCapo 9.12 pmd completed warmup 80 in 2666 msec =====
===== DaCapo 9.12 pmd starting warmup 81 =====
===== DaCapo 9.12 pmd completed warmup 81 in 2671 msec =====
===== DaCapo 9.12 pmd starting warmup 82 =====
===== DaCapo 9.12 pmd completed warmup 82 in 2637 msec =====
===== DaCapo 9.12 pmd starting warmup 83 =====
===== DaCapo 9.12 pmd completed warmup 83 in 2647 msec =====
===== DaCapo 9.12 pmd starting warmup 84 =====
===== DaCapo 9.12 pmd completed warmup 84 in 2618 msec =====
===== DaCapo 9.12 pmd starting warmup 85 =====
===== DaCapo 9.12 pmd completed warmup 85 in 2607 msec =====
===== DaCapo 9.12 pmd starting warmup 86 =====
===== DaCapo 9.12 pmd completed warmup 86 in 2698 msec =====
===== DaCapo 9.12 pmd starting warmup 87 =====
===== DaCapo 9.12 pmd completed warmup 87 in 2730 msec =====
===== DaCapo 9.12 pmd starting warmup 88 =====
===== DaCapo 9.12 pmd completed warmup 88 in 2580 msec =====
===== DaCapo 9.12 pmd starting warmup 89 =====
===== DaCapo 9.12 pmd completed warmup 89 in 2513 msec =====
===== DaCapo 9.12 pmd starting =====
===== DaCapo 9.12 pmd PASSED in 2610 msec =====
