1412273386960 0 TOTAL_MEM 3669
1412273406987 26572 CREATION
1412273406987 26572 READING 9 0.989701
1412273406987 26572 MINHEAP 2
1412273406987 26572 MINHEAP 12
1412273407018 26571 CREATION
1412273407018 26571 READING 9 0.992451
1412273407018 26571 MINHEAP 2
1412273407018 26571 MINHEAP 1211
1412273407068 26572 READING 9 0.988316
1412273407096 26572 READING 9 0.976445
1412273407102 26571 READING 9 0.990714
1412273407131 26571 READING 9 0.958926
1412273407142 26572 READING 9 0.971250
1412273407154 26571 READING 9 0.942472
1412273407232 26572 READING 11 0.984266
1412273407259 26571 READING 11 0.975961
1412273407331 26572 READING 11 0.980568
1412273407393 26571 READING 11 0.984856
1412273407496 26571 READING 17 0.959848
1412273407500 26572 READING 16 0.980545
1412273407671 26571 READING 17 0.644466
1412273407706 26572 READING 16 0.957890
1412273407872 26571 READING 30 0.941579
1412273408007 26571 READING 31 0.937402
1412273408158 26572 READING 23 0.925365
1412273408202 26571 READING 34 0.544736
1412273408277 26571 READING 43 0.849808
1412273408358 26571 READING 47 0.903293
1412273408462 26572 READING 29 0.983160
1412273408632 26571 READING 48 0.365757
1412273408700 26571 READING 66 0.734237
1412273408720 26572 READING 33 0.986515
1412273408935 26571 READING 68 0.264320
1412273408948 26572 READING 37 0.989688
1412273409069 26571 READING 92 0.656520
1412273409176 26572 READING 42 0.991666
1412273409202 26571 READING 93 0.884124
1412273409320 26572 READING 41 0.979300
1412273409373 26571 READING 95 0.845760
1412273409487 26571 READING 98 0.521324
1412273409494 26572 READING 48 0.987995
1412273409727 26572 READING 48 0.989356
1412273409906 26571 READING 100 0.190161
1412273410011 26571 READING 129 0.685360
1412273410033 26572 READING 55 0.991373
1412273410106 26571 READING 132 0.621260
1412273410219 26571 READING 135 0.719881
1412273410236 26572 READING 55 0.983845
1412273410325 26571 READING 139 0.700006
1412273410420 26571 READING 145 0.604774
1412273410455 26572 READING 62 0.734028
1412273410644 26572 READING 66 0.988259
1412273410983 26572 READING 74 0.992716
1412273411084 26571 READING 153 0.112206
1412273411205 26571 READING 187 0.532558
1412273411315 26571 READING 192 0.681977
1412273411423 26571 READING 193 0.723465
1412273411524 26571 READING 195 0.669552
1412273411649 26571 READING 200 0.663568
1412273411673 26572 READING 74 0.997139
1412273411743 26571 READING 204 0.630782
1412273411845 26571 READING 211 0.552582
1412273411950 26571 READING 217 0.637898
1412273412411 26572 READING 79 0.997415
1412273412455 26571 READING 224 0.100779
1412273412573 26571 READING 264 0.589425
1412273412665 26571 READING 268 0.603669
1412273412768 26571 READING 270 0.593373
1412273413077 26572 READING 81 0.995351
1412273413348 26571 READING 271 0.137506
1412273413515 26571 READING 311 0.472162
1412273413635 26571 READING 312 0.697419
1412273413750 26571 READING 305 0.642296
1412273413774 26572 READING 87 0.996563
1412273413891 26571 READING 309 0.595925
1412273414049 26571 READING 311 0.555047
1412273414201 26571 READING 313 0.578357
1412273414327 26571 READING 317 0.629806
1412273414450 26572 READING 87 0.993603
1412273414987 26571 READING 322 0.127566
1412273415077 26572 READING 92 0.994101
1412273415153 26571 READING 369 0.421036
1412273415304 26571 READING 375 0.571402
1412273415454 26571 READING 378 0.561803
1412273415613 26571 READING 380 0.526722
1412273415784 26571 READING 383 0.493283
1412273415787 26572 READING 92 0.996489
1412273416421 26572 READING 95 0.994667
1412273416884 26571 READING 388 0.069336
1412273416960 26572 FUNCTION lru lambda h: 0.96738 * (h ** 0.001)
1412273416961 26571 FUNCTION lru lambda h: 1.64758 * (h ** 0.001)
1412273416961 26572 RECOMMEND 1834
1412273416961 26571 RECOMMEND 1834
1412273417050 26572 READING 96 0.990781
1412273417083 26571 READING 447 0.486070
1412273417241 26571 READING 448 0.567301
1412273417421 26571 READING 449 0.539400
1412273417607 26571 READING 450 0.549427
1412273417762 26572 READING 101 0.991528
1412273417793 26571 READING 453 0.582680
1412273418421 26572 READING 101 0.994489
1412273418582 26571 READING 456 0.124935
1412273418783 26571 READING 520 0.542178
1412273418997 26571 READING 523 0.526311
1412273419155 26572 READING 105 0.994528
1412273419232 26571 READING 524 0.491307
1412273419433 26571 READING 529 0.529816
1412273419903 26572 READING 106 0.995167
1412273420467 26571 READING 536 0.111697
1412273420584 26572 READING 110 0.987428
1412273420720 26571 READING 605 0.482258
1412273420916 26571 READING 603 0.681457
1412273421105 26571 READING 609 0.652139
1412273421304 26572 READING 110 0.994407
1412273421320 26571 READING 611 0.624003
1412273421548 26571 READING 612 0.578963
1412273421816 26571 READING 615 0.671720
1412273422105 26572 READING 115 0.996854
1412273422852 26572 READING 116 0.997209
1412273423549 26572 READING 120 0.996855
1412273423904 26571 READING 626 0.362366
1412273424277 26572 READING 120 0.997532
1412273424544 26571 READING 697 0.788158
1412273425065 26572 READING 124 0.998308
1412273425251 26571 READING 712 0.843825
1412273425467 26571 READING 715 0.365057
1412273425720 26571 READING 731 0.530930
1412273425890 26571 READING 741 0.323608
1412273425938 26572 READING 124 0.997330
1412273426010 26571 READING 749 0.296450
1412273426726 26572 READING 127 0.997701
1412273426961 26572 FUNCTION lru lambda h: 0.933928 * (h ** 0.0113284)
1412273426961 26571 FUNCTION lru lambda h: 1.18657 * (h ** 0.001)
1412273426961 26572 RECOMMEND 1834
1412273426961 26571 RECOMMEND 1834
1412273427455 26572 READING 127 0.997423
1412273427742 26571 READING 741 0.022709
1412273427895 26571 READING 727 0.297571
1412273428002 26571 READING 827 0.409532
1412273428252 26572 READING 130 0.998479
1412273429012 26572 READING 130 0.997966
1412273429636 26571 READING 828 0.253111
1412273429796 26572 READING 132 0.997820
1412273429800 26571 READING 926 0.514117
1412273429893 26571 READING 927 0.788338
1412273429992 26571 READING 935 0.783302
1412273430102 26571 READING 936 0.720212
1412273430425 26572 READING 132 0.992173
1412273430450 26571 READING 936 0.885292
1412273430689 26571 READING 938 0.747392
1412273430814 26572 READING 134 0.980742
1412273430937 26571 READING 935 0.841209
1412273431224 26572 READING 135 0.988380
1412273431277 26571 READING 937 0.919556
1412273431443 26571 READING 928 0.918754
1412273431734 26571 READING 755 0.936491
1412273432068 26571 READING 913 0.872951
1412273432091 26572 READING 142 0.996851
1412273432269 26571 READING 801 0.755307
1412273432465 26571 READING 898 0.826292
1412273432660 26571 READING 806 0.826262
1412273432863 26571 READING 887 0.829759
1412273433017 26572 READING 142 0.997176
1412273433059 26571 READING 798 0.856735
1412273433264 26571 READING 879 0.857558
1412273433474 26571 READING 803 0.868720
1412273433689 26571 READING 873 0.869504
1412273433901 26571 READING 808 0.871857
1412273433971 26572 READING 147 0.997564
1412273434122 26571 READING 869 0.887376
1412273434854 26571 READING 874 0.983745
1412273434885 26572 READING 148 0.997126
1412273435807 26572 READING 153 0.997597
1412273436276 26571 READING 873 0.974088
1412273436459 26571 READING 875 0.811571
1412273436658 26571 READING 879 0.775909
1412273436769 26572 READING 153 0.997155
1412273436849 26571 READING 879 0.816662
1412273436961 26572 FUNCTION lru lambda h: 0.928297 * (h ** 0.0130624)
1412273436962 26571 FUNCTION lru lambda h: 0.647401 * (h ** 0.001)
1412273436962 26572 RECOMMEND 1834
1412273436962 26571 RECOMMEND 1834
1412273437046 26571 READING 884 0.817821
1412273437246 26571 READING 884 0.814788
1412273437452 26571 READING 888 0.830601
1412273437666 26571 READING 889 0.801577
1412273437768 26572 READING 157 0.997642
1412273437883 26571 READING 893 0.840723
1412273438102 26571 READING 894 0.839444
1412273438457 26571 READING 896 0.890256
1412273438783 26572 READING 157 0.996647
1412273438822 26571 READING 898 0.888482
1412273439049 26571 READING 900 0.855477
1412273439850 26572 READING 161 0.997299
1412273440802 26572 READING 161 0.994191
1412273440969 26571 READING 902 0.089401
1412273441203 26571 READING 974 0.503766
1412273441344 26571 READING 995 0.781771
1412273441502 26571 READING 994 0.748029
1412273441656 26571 READING 997 0.764252
1412273441821 26571 READING 996 0.774856
1412273441880 26572 READING 165 0.997700
1412273441987 26571 READING 1000 0.757544
1412273442167 26571 READING 1003 0.756495
1412273442353 26571 READING 1005 0.741091
1412273442551 26571 READING 1015 0.743313
1412273442760 26571 READING 1015 0.717786
1412273443006 26572 READING 165 0.994454
1412273443008 26571 READING 1029 0.706216
1412273444194 26572 READING 169 0.997992
1412273444593 26571 READING 1030 0.940946
1412273445319 26572 READING 169 0.997540
1412273446311 26571 READING 1047 0.955507
1412273446434 26572 READING 173 0.998210
1412273446962 26572 FUNCTION lru lambda h: 0.925762 * (h ** 0.0138167)
1412273446962 26571 FUNCTION lru lambda h: 0.116835 * (h ** 0.249611)
1412273446962 26572 RECOMMEND 1834
1412273446962 26571 RECOMMEND 1834
1412273447504 26572 READING 173 0.998331
1412273447950 26571 READING 1050 0.954897
1412273448568 26572 READING 176 0.998058
1412273449038 26572 READING 176 0.977492
1412273449524 26572 READING 178 0.993518
1412273450466 26571 READING 1061 0.680409
1412273450628 26572 READING 179 0.997360
1412273451773 26572 READING 185 0.997365
1412273452057 26571 READING 1154 0.992422
1412273452926 26572 READING 186 0.997560
1412273453682 26571 READING 1159 0.988733
1412273454102 26572 READING 191 0.997987
1412273455273 26572 READING 192 0.997506
1412273455333 26571 READING 1167 0.987076
1412273456486 26572 READING 196 0.997936
1412273456962 26572 FUNCTION lru lambda h: 0.925069 * (h ** 0.0140134)
1412273456962 26571 FUNCTION lru lambda h: 0.0418606 * (h ** 0.408823)
1412273456962 26572 RECOMMEND 1834
1412273456962 26571 RECOMMEND 1834
1412273457030 26571 READING 1178 0.984402
1412273457705 26572 READING 196 0.997412
1412273458784 26571 READING 1179 0.982868
1412273458948 26572 READING 201 0.997908
1412273460195 26572 READING 201 0.997429
1412273460545 26571 READING 1176 0.981032
1412273461457 26572 READING 204 0.997913
1412273462301 26571 READING 1180 0.977356
1412273462731 26572 READING 204 0.997106
1412273463918 26572 READING 194 0.997617
1412273464115 26571 READING 1168 0.972691
1412273465059 26572 READING 185 0.997579
1412273465977 26572 READING 177 0.994124
1412273465982 26571 READING 1105 0.957460
1412273466549 26572 READING 182 0.820503
1412273466962 26572 FUNCTION lru lambda h: 0.938558 * (h ** 0.0100928)
1412273466962 26571 FUNCTION lru lambda h: 0.0183625 * (h ** 0.535297)
1412273466962 26572 RECOMMEND 1834
1412273466962 26571 RECOMMEND 1834
1412273467279 26572 READING 191 0.997105
1412273467909 26571 READING 1164 0.973267
1412273468510 26572 READING 197 0.998481
1412273469729 26572 READING 202 0.998385
1412273469754 26571 READING 1168 0.968132
1412273470953 26572 READING 202 0.998477
1412273471669 26571 READING 1170 0.965887
1412273472218 26572 READING 207 0.998752
1412273473467 26572 READING 208 0.998615
1412273473539 26571 READING 1171 0.967977
1412273474765 26572 READING 212 0.998693
1412273475491 26571 READING 1174 0.965775
1412273476075 26572 READING 212 0.998338
1412273476962 26572 FUNCTION lru lambda h: 0.93551 * (h ** 0.0109412)
1412273476962 26571 FUNCTION lru lambda h: 0.0117883 * (h ** 0.602914)
1412273476962 26572 RECOMMEND 1834
1412273476962 26571 RECOMMEND 1834
1412273477385 26572 READING 216 0.997116
1412273477421 26571 READING 1178 0.960845
1412273478678 26572 READING 216 0.998350
1412273479313 26571 READING 1182 0.960852
1412273480030 26572 READING 220 0.998547
1412273481300 26571 READING 1188 0.962446
1412273481370 26572 READING 220 0.998386
1412273482721 26572 READING 224 0.998519
1412273483314 26572 READING 224 0.981754
1412273483361 26571 READING 1195 0.920188
1412273484077 26572 READING 227 0.995564
1412273485401 26571 READING 1198 0.961363
1412273485486 26572 READING 228 0.998115
1412273486938 26572 READING 236 0.998268
1412273486963 26572 FUNCTION lru lambda h: 0.933891 * (h ** 0.011382)
1412273486963 26571 FUNCTION lru lambda h: 0.0078347 * (h ** 0.664236)
1412273486963 26572 RECOMMEND 1834
1412273486963 26571 RECOMMEND 1834
1412273487452 26571 READING 1206 0.963292
1412273488408 26572 READING 238 0.997869
1412273489564 26571 READING 1208 0.963655
1412273489917 26572 READING 245 0.998291
1412273491404 26572 READING 246 0.997875
1412273491750 26571 READING 1215 0.964253
1412273492970 26572 READING 252 0.998000
1412273493902 26571 READING 1216 0.957601
1412273494514 26572 READING 252 0.997983
1412273496102 26572 READING 258 0.997630
1412273496122 26571 READING 1223 0.963178
1412273496963 26572 FUNCTION lru lambda h: 0.932619 * (h ** 0.0117211)
1412273496963 26571 FUNCTION lru lambda h: 0.00188025 * (h ** 0.874392)
1412273496963 26572 RECOMMEND 1834
1412273496963 26571 RECOMMEND 1834
1412273497668 26572 READING 258 0.997945
1412273498340 26571 READING 1223 0.960868
1412273499296 26572 READING 263 0.998070
1412273500084 26572 READING 264 0.993968
1412273500780 26571 READING 1230 0.965227
1412273501169 26572 READING 269 0.995899
1412273502832 26572 READING 270 0.997909
1412273503074 26571 READING 1230 0.959982
1412273504570 26572 READING 277 0.997971
1412273505582 26571 READING 1237 0.963110
1412273506294 26572 READING 278 0.997976
1412273506963 26572 FUNCTION lru lambda h: 0.932156 * (h ** 0.0118421)
1412273506963 26571 FUNCTION lru lambda h: 0.00191101 * (h ** 0.872097)
1412273506963 26572 RECOMMEND 1834
1412273506963 26571 RECOMMEND 1834
1412273508000 26571 READING 1237 0.961036
1412273508083 26572 READING 283 0.998372
1412273509842 26572 READING 284 0.997860
1412273510498 26571 READING 1242 0.964147
1412273511659 26572 READING 290 0.998218
1412273512983 26571 READING 1243 0.959910
1412273513474 26572 READING 291 0.997929
1412273515315 26572 READING 296 0.998264
1412273515612 26571 READING 1249 0.964157
1412273516579 26572 READING 297 0.996415
1412273516963 26572 FUNCTION lru lambda h: 0.931798 * (h ** 0.0119348)
1412273516963 26571 FUNCTION lru lambda h: 0.001 * (h ** 0.977382)
1412273516963 26572 RECOMMEND 1834
1412273516963 26571 RECOMMEND 1834
1412273517537 26572 READING 302 0.995372
1412273519465 26572 READING 303 0.994935
1412273520212 26571 READING 1249 0.547291
1412273521397 26572 READING 312 0.998050
1412273522845 26571 READING 1367 0.956006
1412273523351 26572 READING 312 0.997939
1412273525351 26572 READING 319 0.992845
1412273525372 26571 READING 1367 0.987012
1412273526963 26572 FUNCTION lru lambda h: 0.932439 * (h ** 0.0117716)
1412273526963 26571 FUNCTION lru lambda h: 0.001 * (h ** 0.999)
1412273526963 26572 RECOMMEND 1834
1412273526963 26571 RECOMMEND 1834
1412273527339 26572 READING 320 0.997952
1412273527995 26571 READING 1380 0.985554
1412273529406 26572 READING 329 0.998191
1412273530619 26571 READING 1385 0.981090
1412273531470 26572 READING 330 0.998298
1412273533123 26572 READING 338 0.995875
1412273533348 26571 READING 1388 0.979311
1412273534259 26572 READING 339 0.995556
1412273536060 26571 READING 1390 0.979668
1412273536459 26572 READING 349 0.998431
1412273536964 26572 FUNCTION lru lambda h: 0.93284 * (h ** 0.0116715)
1412273536964 26571 FUNCTION lru lambda h: 0.00107547 * (h ** 0.954121)
1412273536964 26572 RECOMMEND 1834
1412273536964 26571 RECOMMEND 1834
1412273538653 26572 READING 349 0.997895
1412273538854 26571 READING 1381 0.978700
1412273540924 26572 READING 358 0.998168
1412273541681 26571 READING 1303 0.973213
1412273543187 26572 READING 359 0.997924
1412273544481 26571 READING 1374 0.973883
1412273545478 26572 READING 366 0.998300
1412273546964 26572 FUNCTION lru lambda h: 0.933058 * (h ** 0.0116175)
1412273546964 26571 FUNCTION lru lambda h: 0.001 * (h ** 0.999)
1412273546964 26572 RECOMMEND 1834
1412273546964 26571 RECOMMEND 1834
1412273547336 26571 READING 1380 0.974041
1412273547809 26572 READING 367 0.998562
1412273549656 26572 READING 374 0.997727
1412273551034 26572 READING 374 0.996446
1412273553438 26572 READING 382 0.998385
1412273555843 26572 READING 382 0.998314
1412273556964 26572 FUNCTION lru lambda h: 0.933342 * (h ** 0.0115478)
1412273556964 26571 FUNCTION lru lambda h: 0.001 * (h ** 0.999)
1412273556964 26572 RECOMMEND 1834
1412273556964 26571 RECOMMEND 1834
1412273558298 26572 READING 390 0.998235
1412273560764 26572 READING 390 0.998249
1412273563255 26572 READING 398 0.998204
1412273565748 26572 READING 398 0.998103
1412273566874 26572 READING 405 0.925895
1412273566964 26572 FUNCTION lru lambda h: 0.926754 * (h ** 0.0126867)
1412273566964 26571 FUNCTION lru lambda h: 0.001 * (h ** 0.999)
1412273566964 26572 RECOMMEND 1834
1412273566964 26571 RECOMMEND 1834
1412273569437 26572 READING 412 0.999155
1412273572068 26572 READING 424 0.999396
1412273574690 26572 READING 424 0.999237
1412273576964 26572 FUNCTION lru lambda h: 0.93512 * (h ** 0.0110098)
1412273576965 26571 FUNCTION lru lambda h: 0.001 * (h ** 0.999)
1412273576965 26572 RECOMMEND 1834
1412273576965 26571 RECOMMEND 1834
1412273577360 26572 READING 433 0.999293
1412273578194 26571 READING 1383 0.996679
1412273580102 26572 READING 434 0.999232
1412273582473 26572 READING 441 0.998626
1412273584067 26572 READING 441 0.997041
1412273585920 26571 READING 1383 0.853251
1412273586875 26572 READING 447 0.998801
1412273586965 26572 FUNCTION lru lambda h: 0.917175 * (h ** 0.0145483)
1412273586965 26571 FUNCTION lru lambda h: 0.00106044 * (h ** 0.955406)
1412273586965 26572 RECOMMEND 1834
1412273586965 26571 RECOMMEND 1834
1412273588111 26571 READING 1417 0.993986
1412273588506 26571 READING 1466 0.931363
1412273588765 26571 READING 1454 0.889182
1412273589026 26571 READING 1463 0.891131
1412273589301 26571 READING 1452 0.898914
1412273589575 26571 READING 1459 0.900609
1412273589765 26572 READING 448 0.998861
1412273589868 26571 READING 1455 0.904020
1412273590157 26571 READING 1462 0.986071
1412273592718 26572 READING 455 0.998974
1412273592924 26571 READING 1468 0.994064
1412273595613 26572 READING 456 0.998603
1412273595660 26571 READING 1475 0.990956
1412273596965 26572 FUNCTION lru lambda h: 0.905008 * (h ** 0.0169358)
1412273596965 26571 FUNCTION lru lambda h: 0.00162196 * (h ** 0.890892)
1412273596965 26572 RECOMMEND 1834
1412273596965 26571 RECOMMEND 1834
1412273598471 26571 READING 1489 0.986856
1412273598548 26572 READING 464 0.998795
1412273599919 26572 READING 464 0.995830
1412273601305 26571 READING 1492 0.987184
1412273602916 26572 READING 472 0.998699
1412273604295 26571 READING 1487 0.985400
1412273605896 26572 READING 473 0.998561
1412273606965 26572 FUNCTION lru lambda h: 0.981528 * (h ** 0.00234962)
1412273606965 26571 FUNCTION lru lambda h: 0.00149824 * (h ** 0.90137)
1412273606965 26572 RECOMMEND 1834
1412273606965 26571 RECOMMEND 1834
1412273607269 26571 READING 1493 0.983254
1412273608942 26572 READING 482 0.998726
1412273610271 26571 READING 1478 0.980442
1412273611984 26572 READING 483 0.998488
1412273613356 26571 READING 1487 0.977039
1412273615092 26572 READING 492 0.998668
1412273616467 26571 READING 1487 0.977090
1412273616693 26572 READING 493 0.995549
1412273616965 26572 FUNCTION lru lambda h: 0.975613 * (h ** 0.00343723)
1412273616965 26571 FUNCTION lru lambda h: 0.00166918 * (h ** 0.885644)
1412273616965 26572 RECOMMEND 1834
1412273616965 26571 RECOMMEND 1834
1412273619618 26571 READING 1488 0.976394
1412273619881 26572 READING 502 0.998365
1412273622781 26571 READING 1494 0.975006
1412273623061 26572 READING 503 0.998339
1412273625949 26571 READING 1498 0.973099
1412273626314 26572 READING 513 0.998523
1412273626966 26572 FUNCTION lru lambda h: 0.973252 * (h ** 0.00387497)
1412273626966 26571 FUNCTION lru lambda h: 0.00748035 * (h ** 0.674052)
1412273626966 26572 RECOMMEND 1834
1412273626966 26571 RECOMMEND 1834
1412273629155 26571 READING 1506 0.972482
1412273629533 26572 READING 515 0.998473
1412273632228 26572 READING 525 0.995765
1412273632345 26571 READING 1514 0.958356
1412273634699 26572 READING 526 0.997436
1412273635540 26571 READING 1522 0.966178
1412273636966 26572 FUNCTION lru lambda h: 0.971112 * (h ** 0.00425628)
1412273636966 26571 FUNCTION lru lambda h: 0.0348678 * (h ** 0.458022)
1412273636966 26572 RECOMMEND 1834
1412273636966 26571 RECOMMEND 1834
1412273638138 26572 READING 541 0.998544
1412273638749 26571 READING 1534 0.962864
1412273641562 26572 READING 542 0.998284
1412273641942 26571 READING 1547 0.964060
1412273645125 26572 READING 554 0.995894
1412273645152 26571 READING 1557 0.963570
1412273646966 26572 FUNCTION lru lambda h: 0.96611 * (h ** 0.00514199)
1412273646966 26571 FUNCTION lru lambda h: 0.0438443 * (h ** 0.425949)
1412273646966 26572 RECOMMEND 1834
1412273646966 26571 RECOMMEND 1834
1412273648461 26571 READING 1571 0.965786
1412273648561 26572 READING 555 0.998708
1412273650770 26572 READING 569 0.997363
1412273651776 26571 READING 1577 0.966453
1412273654410 26572 READING 571 0.998457
1412273655290 26571 READING 1591 0.965924
1412273656966 26572 FUNCTION lru lambda h: 0.960104 * (h ** 0.00620263)
1412273656966 26571 FUNCTION lru lambda h: 0.045828 * (h ** 0.419415)
1412273656966 26572 RECOMMEND 1834
1412273656966 26571 RECOMMEND 1834
1412273658157 26572 READING 586 0.998439
1412273658698 26571 READING 1594 0.964659
1412273661873 26572 READING 587 0.998561
1412273662229 26571 READING 1607 0.967742
1412273665788 26571 READING 1609 0.969804
1412273666966 26572 FUNCTION lru lambda h: 0.961194 * (h ** 0.00600902)
1412273666966 26571 FUNCTION lru lambda h: 0.037331 * (h ** 0.447543)
1412273666966 26572 RECOMMEND 1834
1412273666966 26571 RECOMMEND 1834
1412273667441 26572 DEATH 178
1412273669247 26571 READING 1622 0.968580
1412273672693 26571 READING 1623 0.968534
1412273676225 26571 READING 1635 0.968744
1412273676967 26571 FUNCTION lru lambda h: 0.0359393 * (h ** 0.452415)
1412273676967 26571 RECOMMEND 3669
1412273679765 26571 READING 1635 0.967834
1412273683502 26571 READING 1647 0.969194
1412273686967 26571 FUNCTION lru lambda h: 0.0331416 * (h ** 0.46353)
1412273686967 26571 RECOMMEND 3669
1412273688318 26571 READING 1647 0.751878
1412273691969 26571 READING 1719 0.993850
1412273696967 26571 FUNCTION lru lambda h: 0.0319828 * (h ** 0.468059)
1412273696967 26571 RECOMMEND 3669
1412273706967 26571 FUNCTION lru lambda h: 0.0319828 * (h ** 0.468059)
1412273706967 26571 RECOMMEND 3669
1412273716967 26571 FUNCTION lru lambda h: 0.0319828 * (h ** 0.468059)
1412273716967 26571 RECOMMEND 3669
1412273719849 26571 READING 1720 0.997623
1412273726968 26571 FUNCTION lru lambda h: 0.0287755 * (h ** 0.482589)
1412273726968 26571 RECOMMEND 3669
1412273727204 26571 READING 1743 0.990517
1412273727964 26571 READING 1745 0.881479
1412273728382 26571 READING 1726 0.824489
1412273728817 26571 READING 1749 0.803616
1412273729257 26571 READING 1786 0.831106
1412273729553 26571 DEATH 223
