1412273047686 0 TOTAL_MEM 3669
1412273067710 26469 CREATION
1412273067710 26469 READING 9 0.988783
1412273067710 26469 MINHEAP 2
1412273067710 26469 MINHEAP 12
1412273067742 26468 CREATION
1412273067742 26468 READING 9 0.992271
1412273067742 26468 MINHEAP 2
1412273067742 26468 MINHEAP 1211
1412273067793 26468 READING 9 0.975638
1412273067809 26469 READING 9 0.984530
1412273067829 26468 READING 9 0.967774
1412273067854 26468 READING 9 0.947436
1412273067881 26469 READING 11 0.984036
1412273067947 26468 READING 11 0.984530
1412273067994 26469 READING 11 0.981390
1412273068058 26468 READING 11 0.977270
1412273068179 26469 READING 15 0.960016
1412273068185 26468 READING 17 0.948084
1412273068304 26468 READING 17 0.586342
1412273068365 26469 READING 15 0.979293
1412273068459 26468 READING 30 0.907385
1412273068580 26468 READING 31 0.927393
1412273068818 26468 READING 35 0.432006
1412273068883 26469 READING 24 0.928550
1412273068889 26468 READING 48 0.787299
1412273068990 26468 READING 50 0.661642
1412273069184 26469 READING 30 0.987115
1412273069256 26468 READING 52 0.232752
1412273069340 26468 READING 79 0.769377
1412273069452 26469 READING 36 0.985127
1412273069592 26468 READING 79 0.276572
1412273069729 26468 READING 102 0.793614
1412273069747 26469 READING 42 0.971236
1412273069870 26468 READING 105 0.802286
1412273069971 26469 READING 43 0.980079
1412273070100 26469 READING 46 0.978608
1412273070235 26468 READING 108 0.186445
1412273070321 26469 READING 53 0.985917
1412273070346 26468 READING 137 0.763085
1412273070477 26468 READING 140 0.724280
1412273070628 26469 READING 53 0.988521
1412273070905 26469 READING 61 0.987300
1412273071078 26468 READING 142 0.237697
1412273071088 26469 READING 61 0.969845
1412273071165 26469 READING 71 0.331284
1412273071202 26468 READING 183 0.725711
1412273071357 26468 READING 185 0.652136
1412273071384 26469 READING 74 0.991903
1412273071473 26468 READING 187 0.707339
1412273071629 26468 READING 190 0.705039
1412273071806 26468 READING 198 0.742233
1412273071832 26469 READING 87 0.995597
1412273072440 26468 READING 203 0.158312
1412273072597 26468 READING 249 0.705352
1412273072606 26469 READING 88 0.997321
1412273072751 26468 READING 253 0.693586
1412273072897 26468 READING 256 0.648211
1412273073073 26468 READING 263 0.707347
1412273073197 26468 READING 267 0.637875
1412273073334 26468 READING 279 0.653300
1412273073444 26468 READING 282 0.600710
1412273073586 26468 READING 295 0.579453
1412273073678 26468 READING 298 0.402164
1412273073787 26469 READING 100 0.997261
1412273073793 26468 READING 311 0.399457
1412273074518 26469 READING 101 0.996012
1412273075004 26468 READING 322 0.044444
1412273075120 26468 READING 374 0.411590
1412273075305 26469 READING 111 0.993097
1412273075843 26468 READING 358 0.070382
1412273075979 26468 READING 341 0.449375
1412273076063 26468 READING 410 0.634704
1412273076108 26469 READING 113 0.997074
1412273076156 26468 READING 332 0.580103
1412273076278 26468 READING 402 0.580492
1412273076397 26468 READING 348 0.456410
1412273076543 26468 READING 400 0.525249
1412273076690 26468 READING 402 0.566845
1412273076845 26468 READING 405 0.507238
1412273076984 26468 READING 407 0.500855
1412273077016 26469 READING 122 0.997149
1412273077165 26468 READING 412 0.468995
1412273077312 26468 READING 413 0.478628
1412273077477 26468 READING 417 0.524790
1412273077628 26468 READING 420 0.531792
1412273077686 26469 FUNCTION lru lambda h: 1.02335 * (h ** 0.001)
1412273077686 26468 FUNCTION lru lambda h: 1.29796 * (h ** 0.001)
1412273077686 26469 RECOMMEND 1834
1412273077686 26468 RECOMMEND 1834
1412273077817 26468 READING 424 0.518160
1412273077888 26469 READING 124 0.997106
1412273077996 26468 READING 429 0.426253
1412273078787 26469 READING 130 0.997274
1412273079214 26468 READING 432 0.069673
1412273079422 26468 READING 488 0.361937
1412273079615 26468 READING 496 0.428484
1412273079674 26469 READING 131 0.997238
1412273079793 26468 READING 499 0.478199
1412273079963 26468 READING 504 0.456860
1412273080577 26469 READING 136 0.995906
1412273080893 26468 READING 507 0.090332
1412273081097 26468 READING 570 0.414082
1412273081285 26468 READING 504 0.530341
1412273081456 26468 READING 564 0.573277
1412273081507 26469 READING 137 0.996702
1412273081619 26468 READING 566 0.635410
1412273082432 26469 READING 141 0.995907
1412273082585 26468 READING 569 0.118774
1412273082801 26468 READING 629 0.533299
1412273083001 26468 READING 635 0.572202
1412273083212 26468 READING 635 0.549042
1412273083370 26469 READING 142 0.994018
1412273083421 26468 READING 640 0.566985
1412273084075 26468 READING 645 0.839684
1412273084347 26469 READING 147 0.997433
1412273084654 26468 READING 648 0.847146
1412273085298 26469 READING 147 0.997563
1412273085433 26468 READING 657 0.866952
1412273086299 26469 READING 151 0.997410
1412273087117 26468 READING 660 0.060322
1412273087262 26469 READING 151 0.996738
1412273087371 26468 READING 740 0.195449
1412273087598 26468 READING 754 0.638000
1412273087686 26469 FUNCTION lru lambda h: 0.919639 * (h ** 0.00809979)
1412273087687 26468 FUNCTION lru lambda h: 1.37384 * (h ** 0.001)
1412273087687 26469 RECOMMEND 1834
1412273087687 26468 RECOMMEND 1834
1412273087713 26468 READING 755 0.361893
1412273087834 26468 READING 755 0.379367
1412273087942 26468 READING 684 0.422569
1412273088321 26469 READING 155 0.998017
1412273089231 26469 READING 155 0.997627
1412273089472 26468 READING 746 0.037492
1412273090113 26468 READING 824 0.794399
1412273090232 26468 READING 830 0.647469
1412273090268 26469 READING 158 0.998267
1412273090351 26468 READING 830 0.654762
1412273090480 26468 READING 833 0.665710
1412273090737 26468 READING 834 0.868093
1412273091285 26469 READING 159 0.996089
1412273091954 26468 READING 840 0.190094
1412273092155 26469 READING 162 0.992933
1412273092201 26468 READING 924 0.352941
1412273092558 26468 READING 926 0.890977
1412273092710 26468 READING 931 0.951901
1412273092738 26469 READING 162 0.994163
1412273093143 26468 READING 939 0.938452
1412273093301 26468 READING 785 0.770627
1412273093467 26468 READING 921 0.770552
1412273093622 26468 READING 790 0.827127
1412273093797 26468 READING 911 0.775268
1412273093885 26469 READING 167 0.997920
1412273093961 26468 READING 796 0.839419
1412273094133 26468 READING 903 0.837038
1412273094307 26468 READING 910 0.827542
1412273094487 26468 READING 898 0.839386
1412273094664 26468 READING 904 0.862245
1412273094856 26468 READING 894 0.840183
1412273094995 26469 READING 167 0.997381
1412273096053 26468 READING 899 0.983026
1412273096069 26469 READING 172 0.997760
1412273096879 26468 READING 892 0.954926
1412273097075 26468 READING 896 0.811376
1412273097167 26469 READING 172 0.997356
1412273097293 26468 READING 897 0.755150
1412273097492 26468 READING 899 0.828340
1412273097687 26469 FUNCTION lru lambda h: 0.895078 * (h ** 0.0158527)
1412273097687 26468 FUNCTION lru lambda h: 0.704282 * (h ** 0.001)
1412273097687 26469 RECOMMEND 1834
1412273097687 26468 RECOMMEND 1834
1412273097702 26468 READING 899 0.825333
1412273097918 26468 READING 902 0.811261
1412273098141 26468 READING 903 0.844227
1412273098328 26469 READING 176 0.997757
1412273098364 26468 READING 905 0.842640
1412273098637 26468 READING 905 0.921686
1412273098953 26468 READING 908 0.890703
1412273099361 26468 READING 908 0.914208
1412273099511 26469 READING 176 0.997532
1412273099580 26468 READING 911 0.746307
1412273100635 26469 READING 179 0.997462
1412273101093 26468 READING 909 0.102400
1412273101399 26468 READING 1005 0.437591
1412273101604 26468 READING 1026 0.690500
1412273101789 26469 READING 180 0.996131
1412273101809 26468 READING 1030 0.679839
1412273102020 26468 READING 1032 0.705666
1412273102250 26468 READING 1035 0.646765
1412273102478 26468 READING 1038 0.713026
1412273102724 26468 READING 1042 0.668341
1412273102983 26468 READING 1055 0.688073
1412273102991 26469 READING 183 0.997719
1412273103297 26468 READING 1056 0.602102
1412273104286 26469 READING 183 0.997285
1412273105437 26468 READING 1073 0.948833
1412273105528 26469 READING 186 0.997706
1412273106734 26469 READING 186 0.997192
1412273107288 26468 READING 1075 0.950428
1412273107687 26469 FUNCTION lru lambda h: 0.883126 * (h ** 0.0195811)
1412273107687 26468 FUNCTION lru lambda h: 0.203061 * (h ** 0.146781)
1412273107687 26469 RECOMMEND 1834
1412273107687 26468 RECOMMEND 1834
1412273107925 26469 READING 190 0.997236
1412273109077 26469 READING 190 0.997749
1412273109244 26468 READING 1092 0.955101
1412273110013 26469 READING 193 0.994967
1412273110591 26469 READING 193 0.993146
1412273111238 26468 READING 1097 0.946498
1412273111633 26469 READING 197 0.996950
1412273112860 26469 READING 197 0.997422
1412273113238 26468 READING 1110 0.946785
1412273114135 26469 READING 200 0.998391
1412273115396 26469 READING 201 0.997601
1412273115981 26468 READING 1118 0.678310
1412273116657 26469 READING 205 0.998073
1412273117688 26469 FUNCTION lru lambda h: 0.874439 * (h ** 0.0222532)
1412273117688 26468 FUNCTION lru lambda h: 0.118731 * (h ** 0.232965)
1412273117688 26469 RECOMMEND 1834
1412273117688 26468 RECOMMEND 1834
1412273117905 26469 READING 205 0.997395
1412273117968 26468 READING 1228 0.992800
1412273119209 26469 READING 209 0.997877
1412273119955 26468 READING 1230 0.987113
1412273120504 26469 READING 209 0.997513
1412273121820 26469 READING 212 0.997883
1412273122050 26468 READING 1246 0.986960
1412273123167 26469 READING 212 0.997671
1412273124121 26468 READING 1250 0.985306
1412273124518 26469 READING 215 0.997880
1412273125777 26469 READING 205 0.997542
1412273126274 26468 READING 1254 0.979569
1412273126995 26469 READING 195 0.997835
1412273127631 26469 READING 186 0.868395
1412273127688 26469 FUNCTION lru lambda h: 0.874564 * (h ** 0.0221604)
1412273127688 26468 FUNCTION lru lambda h: 0.0423704 * (h ** 0.3938)
1412273127688 26469 RECOMMEND 1834
1412273127688 26468 RECOMMEND 1834
1412273128115 26469 READING 197 0.994623
1412273128497 26468 READING 1257 0.978263
1412273129365 26469 READING 203 0.998346
1412273130639 26469 READING 208 0.998447
1412273130701 26468 READING 1248 0.975521
1412273131918 26469 READING 211 0.998206
1412273132907 26468 READING 1175 0.973756
1412273133231 26469 READING 215 0.998384
1412273134517 26469 READING 216 0.998209
1412273135209 26468 READING 1242 0.974262
1412273135853 26469 READING 220 0.998353
1412273137177 26469 READING 220 0.998098
1412273137484 26468 READING 1247 0.973191
1412273137688 26469 FUNCTION lru lambda h: 0.870189 * (h ** 0.0234875)
1412273137688 26468 FUNCTION lru lambda h: 0.014648 * (h ** 0.5561)
1412273137688 26469 RECOMMEND 1834
1412273137688 26468 RECOMMEND 1834
1412273138546 26469 READING 224 0.998412
1412273139848 26468 READING 1250 0.972710
1412273139915 26469 READING 224 0.998255
1412273141295 26469 READING 228 0.998367
1412273142189 26468 READING 1251 0.969125
1412273142692 26469 READING 228 0.998197
1412273144061 26469 READING 231 0.997580
1412273144627 26469 READING 232 0.991092
1412273144693 26468 READING 1254 0.932402
1412273145597 26469 READING 235 0.996077
1412273147060 26469 READING 236 0.997602
1412273147069 26468 READING 1259 0.961139
1412273147688 26469 FUNCTION lru lambda h: 0.867314 * (h ** 0.0243397)
1412273147688 26468 FUNCTION lru lambda h: 0.00839068 * (h ** 0.639565)
1412273147688 26469 RECOMMEND 1834
1412273147688 26468 RECOMMEND 1834
1412273148546 26469 READING 244 0.998044
1412273149466 26468 READING 1265 0.964206
1412273150051 26469 READING 244 0.997801
1412273151569 26469 READING 250 0.998218
1412273151822 26468 READING 1273 0.961085
1412273153123 26469 READING 250 0.997746
1412273154182 26468 READING 1282 0.959167
1412273154705 26469 READING 256 0.998218
1412273156262 26469 READING 256 0.997904
1412273156552 26468 READING 1289 0.959812
1412273157688 26469 FUNCTION lru lambda h: 0.866153 * (h ** 0.0246765)
1412273157688 26468 FUNCTION lru lambda h: 0.00240308 * (h ** 0.825175)
1412273157688 26469 RECOMMEND 1834
1412273157688 26468 RECOMMEND 1834
1412273157894 26469 READING 261 0.998177
1412273159094 26468 READING 1299 0.963300
1412273159506 26469 READING 261 0.997833
1412273160949 26469 READING 267 0.997267
1412273161485 26469 READING 267 0.982823
1412273161589 26468 READING 1303 0.950852
1412273163048 26469 READING 271 0.997596
1412273164208 26468 READING 1311 0.962975
1412273164747 26469 READING 272 0.997522
1412273166499 26469 READING 282 0.997715
1412273166743 26468 READING 1314 0.960846
1412273167689 26469 FUNCTION lru lambda h: 0.865623 * (h ** 0.0248269)
1412273167689 26468 FUNCTION lru lambda h: 0.00239226 * (h ** 0.826653)
1412273167689 26469 RECOMMEND 1834
1412273167689 26468 RECOMMEND 1834
1412273168262 26469 READING 283 0.998010
1412273169410 26468 READING 1322 0.959829
1412273170085 26469 READING 291 0.998163
1412273171874 26469 READING 292 0.997927
1412273172066 26468 READING 1324 0.962361
1412273173736 26469 READING 298 0.998161
1412273174849 26468 READING 1332 0.963025
1412273175603 26469 READING 299 0.997946
1412273177510 26469 READING 305 0.998344
1412273177689 26469 FUNCTION lru lambda h: 0.865176 * (h ** 0.0249518)
1412273177689 26468 FUNCTION lru lambda h: 0.00313794 * (h ** 0.787643)
1412273177689 26469 RECOMMEND 1834
1412273177689 26468 RECOMMEND 1834
1412273177693 26468 READING 1332 0.959987
1412273178166 26469 READING 306 0.991398
1412273179913 26469 READING 311 0.997798
1412273180554 26468 READING 1339 0.964313
1412273181871 26469 READING 312 0.997764
1412273183444 26468 READING 1340 0.961399
1412273183900 26469 READING 321 0.998025
1412273185899 26469 READING 321 0.997872
1412273187689 26469 FUNCTION lru lambda h: 0.865716 * (h ** 0.0248029)
1412273187689 26468 FUNCTION lru lambda h: 0.00187526 * (h ** 0.862474)
1412273187689 26469 RECOMMEND 1834
1412273187689 26468 RECOMMEND 1834
1412273187930 26469 READING 328 0.997950
1412273188348 26468 READING 1345 0.586380
1412273189950 26469 READING 329 0.998076
1412273191219 26468 READING 1462 0.953700
1412273192072 26469 READING 336 0.998229
1412273194089 26469 READING 336 0.997706
1412273194133 26468 READING 1461 0.977008
1412273194886 26469 READING 343 0.905759
1412273197047 26469 READING 349 0.998807
1412273197050 26468 READING 1469 0.982201
1412273197689 26469 FUNCTION lru lambda h: 0.872164 * (h ** 0.0230721)
1412273197689 26468 FUNCTION lru lambda h: 0.001 * (h ** 0.965095)
1412273197689 26469 RECOMMEND 1834
1412273197689 26468 RECOMMEND 1834
1412273199272 26469 READING 361 0.999220
1412273200011 26468 READING 1480 0.980376
1412273201489 26469 READING 361 0.999104
1412273202994 26468 READING 1481 0.979353
1412273203787 26469 READING 369 0.999020
1412273206059 26469 READING 371 0.998975
1412273207689 26469 FUNCTION lru lambda h: 0.872242 * (h ** 0.0230516)
1412273207689 26468 FUNCTION lru lambda h: 0.001 * (h ** 0.999)
1412273207690 26469 RECOMMEND 1834
1412273207690 26468 RECOMMEND 1834
1412273208369 26469 READING 378 0.999226
1412273210621 26469 READING 378 0.998348
1412273211574 26469 READING 385 0.995354
1412273213984 26469 READING 385 0.998517
1412273216438 26469 READING 395 0.998701
1412273217690 26469 FUNCTION lru lambda h: 0.872692 * (h ** 0.0229339)
1412273217690 26468 FUNCTION lru lambda h: 0.001 * (h ** 0.999)
1412273217690 26469 RECOMMEND 1834
1412273217690 26468 RECOMMEND 1834
1412273218671 26468 READING 1475 0.992838
1412273218897 26469 READING 396 0.998529
1412273221391 26469 READING 404 0.998611
1412273223877 26469 READING 404 0.998620
1412273226453 26469 READING 412 0.998781
1412273227690 26469 FUNCTION lru lambda h: 0.873199 * (h ** 0.0228026)
1412273227690 26468 FUNCTION lru lambda h: 0.001 * (h ** 0.999)
1412273227690 26469 RECOMMEND 1834
1412273227690 26468 RECOMMEND 1834
1412273227762 26469 READING 412 0.995062
1412273230171 26469 READING 419 0.998307
1412273232759 26469 READING 420 0.998162
1412273233713 26468 READING 1480 0.990867
1412273234913 26468 READING 1468 0.927761
1412273235423 26468 READING 1497 0.754283
1412273235533 26469 READING 430 0.998476
1412273235779 26468 READING 1480 0.685148
1412273236132 26468 READING 1521 0.690696
1412273236482 26468 READING 1550 0.712525
1412273236843 26468 READING 1570 0.686911
1412273237207 26468 READING 1604 0.728184
1412273237690 26469 FUNCTION lru lambda h: 0.874009 * (h ** 0.0225943)
1412273237690 26468 FUNCTION lru lambda h: 0.001 * (h ** 0.999)
1412273237690 26469 RECOMMEND 1834
1412273237690 26468 RECOMMEND 1834
1412273238360 26469 READING 431 0.998376
1412273238859 26468 READING 1615 0.938220
1412273241144 26469 READING 439 0.998493
1412273241746 26468 READING 1615 0.968075
1412273243863 26469 READING 440 0.998321
1412273244615 26468 READING 1635 0.963155
1412273245260 26469 READING 450 0.995550
1412273247662 26468 READING 1610 0.969106
1412273247690 26469 FUNCTION lru lambda h: 0.875177 * (h ** 0.0222963)
1412273247690 26468 FUNCTION lru lambda h: 0.00115859 * (h ** 0.925015)
1412273247690 26469 RECOMMEND 1834
1412273247690 26468 RECOMMEND 1834
1412273248102 26469 READING 450 0.998091
1412273250708 26468 READING 1629 0.967600
1412273251014 26469 READING 462 0.998473
1412273253934 26469 READING 463 0.997992
1412273253968 26468 READING 1611 0.969208
1412273256928 26469 READING 473 0.998392
1412273257691 26469 FUNCTION lru lambda h: 0.820732 * (h ** 0.0340757)
1412273257691 26468 FUNCTION lru lambda h: 0.00102726 * (h ** 0.941561)
1412273257691 26469 RECOMMEND 1834
1412273257691 26468 RECOMMEND 1834
1412273257974 26468 READING 1626 0.776645
1412273259940 26469 READING 474 0.998414
1412273261282 26468 READING 1597 0.993896
1412273261475 26469 READING 484 0.995683
1412273264533 26469 READING 485 0.998201
1412273264599 26468 READING 1601 0.987308
1412273267684 26469 READING 499 0.998482
1412273267691 26469 FUNCTION lru lambda h: 0.776712 * (h ** 0.0438272)
1412273267691 26468 FUNCTION lru lambda h: 0.00158499 * (h ** 0.879374)
1412273267691 26469 RECOMMEND 1834
1412273267691 26468 RECOMMEND 1834
1412273268069 26468 READING 1627 0.989026
1412273270836 26469 READING 499 0.998337
1412273271606 26468 READING 1634 0.984802
1412273274058 26469 READING 510 0.998426
1412273275258 26468 READING 1638 0.984704
1412273277075 26469 READING 511 0.998167
1412273277691 26469 FUNCTION lru lambda h: 0.747231 * (h ** 0.0506071)
1412273277691 26468 FUNCTION lru lambda h: 0.00125134 * (h ** 0.911985)
1412273277691 26469 RECOMMEND 1834
1412273277691 26468 RECOMMEND 1834
1412273278961 26468 READING 1643 0.982611
1412273279076 26469 READING 521 0.996978
1412273282375 26469 READING 522 0.998393
1412273282730 26468 READING 1625 0.981735
1412273285794 26469 READING 535 0.998387
1412273286552 26468 READING 1449 0.980571
1412273287691 26469 FUNCTION lru lambda h: 0.990882 * (h ** 0.001)
1412273287691 26468 FUNCTION lru lambda h: 0.001 * (h ** 0.999)
1412273287691 26469 RECOMMEND 1834
1412273287691 26468 RECOMMEND 1834
1412273289186 26469 READING 536 0.998307
1412273290386 26468 READING 1605 0.975654
1412273292621 26469 READING 547 0.998539
1412273294251 26468 READING 1483 0.971383
1412273294560 26469 READING 547 0.996192
1412273297691 26469 FUNCTION lru lambda h: 0.991017 * (h ** 0.001)
1412273297691 26468 FUNCTION lru lambda h: 0.00259132 * (h ** 0.810192)
1412273297691 26469 RECOMMEND 1834
1412273297691 26468 RECOMMEND 1834
1412273298114 26469 READING 558 0.998078
1412273298175 26468 READING 1606 0.975084
1412273301649 26469 READING 559 0.998295
1412273302186 26468 READING 1612 0.972606
1412273305303 26469 READING 572 0.998242
1412273306204 26468 READING 1619 0.971513
1412273307692 26469 FUNCTION lru lambda h: 0.988247 * (h ** 0.00135956)
1412273307692 26468 FUNCTION lru lambda h: 0.00372789 * (h ** 0.759251)
1412273307692 26469 RECOMMEND 1834
1412273307692 26468 RECOMMEND 1834
1412273308944 26469 READING 573 0.998362
1412273310294 26468 READING 1621 0.962808
1412273311177 26469 READING 585 0.996367
1412273314374 26468 READING 1631 0.966649
1412273314905 26469 READING 586 0.998510
1412273317692 26469 FUNCTION lru lambda h: 0.986844 * (h ** 0.00160978)
1412273317692 26468 FUNCTION lru lambda h: 0.0199676 * (h ** 0.526018)
1412273317692 26469 RECOMMEND 1834
1412273317692 26468 RECOMMEND 1834
1412273318433 26468 READING 1639 0.958026
1412273318739 26469 READING 601 0.998559
1412273322400 26469 READING 602 0.973215
1412273322561 26468 READING 1656 0.964118
1412273326313 26469 READING 616 0.999301
1412273326639 26468 READING 1665 0.969331
1412273327692 26469 FUNCTION lru lambda h: 0.988832 * (h ** 0.00120679)
1412273327692 26468 FUNCTION lru lambda h: 0.0188451 * (h ** 0.533845)
1412273327692 26469 RECOMMEND 1834
1412273327692 26468 RECOMMEND 1834
1412273328361 26469 DEATH 165
1412273330607 26468 READING 1683 0.969183
1412273334545 26468 READING 1688 0.967408
1412273337692 26468 FUNCTION lru lambda h: 0.0539537 * (h ** 0.389028)
1412273337692 26468 RECOMMEND 3669
1412273347692 26468 FUNCTION lru lambda h: 0.0539537 * (h ** 0.389028)
1412273347692 26468 RECOMMEND 3669
1412273348390 26468 READING 1705 0.985179
1412273357693 26468 FUNCTION lru lambda h: 0.0504082 * (h ** 0.398362)
1412273357693 26468 RECOMMEND 3669
1412273363442 26468 READING 1708 0.989595
1412273364301 26468 READING 1757 0.857460
1412273364839 26468 READING 1768 0.743016
1412273365299 26468 READING 1727 0.741930
1412273366503 26468 READING 1658 0.286046
1412273366741 26468 DEATH 206
