1410259935801 0 TOTAL_MEM 1800
1410259955857 6521 CREATION
1410259955857 6521 READING 9 0.991451
1410259955857 6521 MINHEAP 2
1410259955857 6521 MINHEAP 1223
1410259955863 6523 CREATION
1410259955863 6523 READING 9 0.991876
1410259955863 6523 MINHEAP 2
1410259955863 6523 MINHEAP 276
1410259955910 6521 READING 9 0.977128
1410259955923 6523 READING 9 0.869526
1410259955939 6521 READING 9 0.964784
1410259955951 6523 READING 9 0.940326
1410259955962 6521 READING 9 0.957077
1410259955979 6523 READING 9 0.965330
1410259956060 6521 READING 11 0.977741
1410259956081 6523 READING 11 0.986753
1410259956208 6521 READING 11 0.986796
1410259956224 6523 READING 11 0.975398
1410259956341 6521 READING 17 0.975186
1410259956390 6523 READING 17 0.909296
1410259956550 6523 READING 17 0.593219
1410259956561 6521 READING 17 0.594251
1410259956667 6523 READING 30 0.880710
1410259956764 6521 READING 30 0.965600
1410259956831 6523 READING 31 0.843666
1410259956894 6521 READING 31 0.836954
1410259957097 6523 READING 35 0.579066
1410259957205 6521 READING 34 0.177030
1410259957221 6523 READING 48 0.833560
1410259957268 6521 READING 47 0.845105
1410259957383 6521 READING 47 0.852018
1410259957394 6523 READING 51 0.916617
1410259957615 6521 READING 50 0.314142
1410259957689 6521 READING 73 0.810427
1410259957744 6523 READING 53 0.299704
1410259957827 6523 READING 77 0.751231
1410259957960 6521 READING 73 0.360716
1410259958067 6521 READING 100 0.803235
1410259958099 6523 READING 77 0.418726
1410259958173 6521 READING 100 0.862964
1410259958250 6523 READING 104 0.830152
1410259958297 6521 READING 101 0.764861
1410259958377 6523 READING 105 0.753893
1410259958413 6521 READING 103 0.749615
1410259958483 6523 READING 106 0.784820
1410259958601 6523 READING 109 0.692294
1410259958871 6521 READING 106 0.199683
1410259958994 6521 READING 137 0.724791
1410259959091 6521 READING 141 0.743443
1410259959102 6523 READING 112 0.202528
1410259959189 6521 READING 143 0.757262
1410259959212 6523 READING 147 0.589220
1410259959286 6521 READING 150 0.746090
1410259959314 6523 READING 151 0.759291
1410259959799 6523 READING 154 0.138131
1410259959871 6521 READING 153 0.155498
1410259959940 6523 READING 198 0.782890
1410259959981 6521 READING 197 0.689584
1410259960063 6523 READING 199 0.791691
1410259960117 6521 READING 198 0.698880
1410259960182 6523 READING 200 0.780766
1410259960233 6521 READING 201 0.743574
1410259960381 6521 READING 206 0.562848
1410259960441 6523 READING 204 0.867779
1410259960581 6521 READING 213 0.678459
1410259960721 6521 READING 218 0.636438
1410259960865 6521 READING 222 0.561637
1410259961049 6521 READING 230 0.548856
1410259961050 6523 READING 210 0.913638
1410259961792 6521 READING 235 0.108745
1410259962009 6521 READING 284 0.503379
1410259962016 6523 READING 216 0.288885
1410259962197 6521 READING 289 0.416653
1410259962229 6523 READING 267 0.743137
1410259962453 6523 READING 269 0.840184
1410259962653 6523 READING 269 0.859193
1410259962928 6521 READING 291 0.139569
1410259962959 6523 READING 270 0.952523
1410259963084 6521 READING 335 0.601837
1410259963157 6523 READING 270 0.851919
1410259963229 6521 READING 339 0.757900
1410259963285 6523 READING 271 0.754019
1410259963349 6521 READING 334 0.743501
1410259963423 6523 READING 276 0.817540
1410259963486 6521 READING 338 0.725482
1410259963548 6523 READING 279 0.798211
1410259963625 6521 READING 339 0.687349
1410259963669 6523 READING 284 0.863331
1410259963788 6521 READING 344 0.668557
1410259963927 6521 READING 347 0.619980
1410259964073 6521 READING 356 0.537055
1410259964087 6523 READING 285 0.933655
1410259964212 6521 READING 359 0.529424
1410259964377 6521 READING 371 0.389362
1410259964393 6523 READING 288 0.818073
1410259964520 6523 READING 290 0.677437
1410259964645 6523 READING 297 0.726723
1410259964765 6523 READING 296 0.754077
1410259964978 6523 READING 299 0.860800
1410259965314 6523 READING 299 0.878310
1410259965458 6523 READING 303 0.864079
1410259965469 6521 READING 378 0.057896
1410259965581 6523 READING 304 0.516042
1410259965618 6521 READING 438 0.378135
1410259965745 6521 READING 433 0.517803
1410259965801 6521 FUNCTION lru lambda h: 1.22092 * (h ** 0.001)
1410259965801 6523 FUNCTION lru lambda h: 0.752302 * (h ** 0.001)
1410259965801 6521 RECOMMEND 900
1410259965801 6523 RECOMMEND 900
1410259966577 6523 READING 310 0.081960
1410259966767 6523 READING 350 0.693110
1410259966809 6521 READING 369 0.069809
1410259966877 6523 READING 352 0.719491
1410259966956 6521 READING 486 0.486189
1410259967102 6521 READING 492 0.553530
1410259967250 6521 READING 487 0.560387
1410259967501 6521 READING 491 0.670687
1410259967506 6523 READING 355 0.933431
1410259967724 6521 READING 484 0.627077
1410259967904 6521 READING 487 0.524438
1410259968105 6521 READING 488 0.520478
1410259968325 6521 READING 492 0.443566
1410259968558 6521 READING 498 0.457366
1410259968801 6521 READING 503 0.415199
1410259968989 6521 READING 508 0.460455
1410259969414 6523 READING 357 0.949112
1410259970221 6521 READING 514 0.096783
1410259970445 6521 READING 579 0.377154
1410259970652 6521 READING 584 0.476161
1410259970882 6521 READING 588 0.534250
1410259971077 6523 READING 359 0.962722
1410259972182 6521 READING 588 0.079966
1410259972421 6521 READING 651 0.492167
1410259972645 6521 READING 656 0.505712
1410259972656 6523 READING 365 0.967846
1410259972869 6521 READING 651 0.525528
1410259973092 6521 READING 655 0.556179
1410259973833 6521 READING 659 0.867439
1410259974142 6523 READING 366 0.977834
1410259974491 6521 READING 659 0.862301
1410259975280 6521 READING 656 0.872211
1410259975546 6521 READING 670 0.590923
1410259975782 6523 READING 370 0.961518
1410259975802 6521 FUNCTION lru lambda h: 1.07399 * (h ** 0.001)
1410259975802 6523 FUNCTION lru lambda h: 0.721865 * (h ** 0.001)
1410259975802 6521 RECOMMEND 900
1410259975802 6523 RECOMMEND 900
1410259975813 6521 READING 677 0.551535
1410259975947 6521 READING 687 0.410499
1410259976097 6521 READING 694 0.342370
1410259976245 6521 READING 702 0.337627
1410259977275 6523 READING 371 0.963266
1410259978504 6521 READING 712 0.023754
1410259978725 6521 READING 790 0.269184
1410259979068 6523 READING 374 0.974760
1410259979235 6521 READING 779 0.854637
1410259979376 6521 READING 785 0.538544
1410259979522 6521 READING 777 0.571187
1410259980591 6523 READING 376 0.938013
1410259981280 6521 READING 782 0.048177
1410259981676 6521 READING 868 0.751658
1410259981858 6521 READING 868 0.796441
1410259982156 6521 READING 876 0.880483
1410259982269 6521 READING 876 0.668734
1410259982309 6523 READING 380 0.977437
1410259982650 6521 READING 881 0.949775
1410259982820 6521 READING 885 0.906888
1410259983265 6521 READING 887 0.888004
1410259983467 6521 READING 771 0.756338
1410259983682 6521 READING 866 0.741725
1410259983898 6521 READING 776 0.816928
1410259984141 6521 READING 856 0.704790
1410259984287 6523 READING 383 0.682541
1410259985352 6521 READING 781 0.174430
1410259985703 6521 READING 945 0.519719
1410259985802 6521 FUNCTION lru lambda h: 0.935494 * (h ** 0.001)
1410259985802 6523 FUNCTION lru lambda h: 0.658463 * (h ** 0.0135094)
1410259985802 6521 RECOMMEND 900
1410259985802 6523 RECOMMEND 900
1410259985957 6521 READING 950 0.698875
1410259986081 6523 READING 429 0.991947
1410259986183 6521 READING 947 0.806215
1410259986420 6521 READING 838 0.743572
1410259986646 6521 READING 949 0.802795
1410259986873 6521 READING 840 0.797926
1410259987606 6523 READING 431 0.990248
1410259987933 6521 READING 946 0.953081
1410259989111 6521 READING 868 0.917744
1410259989182 6523 READING 436 0.991077
1410259989337 6521 READING 923 0.548985
1410259989531 6521 READING 936 0.624390
1410259989714 6521 READING 937 0.656058
1410259989929 6521 READING 874 0.576648
1410259990104 6521 READING 942 0.734220
1410259990275 6521 READING 878 0.743020
1410259990456 6521 READING 937 0.716119
1410259990634 6521 READING 881 0.748852
1410259990856 6521 READING 933 0.624724
1410259991045 6521 READING 884 0.746860
1410259991231 6521 READING 929 0.750234
1410259991594 6521 READING 887 0.868444
1410259991594 6523 READING 438 0.980761
1410259991849 6523 READING 434 0.809817
1410259991873 6521 READING 924 0.704441
1410259991989 6523 READING 438 0.752659
1410259992118 6523 READING 444 0.782249
1410259992166 6521 READING 868 0.838789
1410259992277 6523 READING 446 0.818906
1410259993189 6521 READING 921 0.210387
1410259993279 6521 READING 965 0.958048
1410259993444 6521 READING 965 0.814334
1410259993558 6521 READING 969 0.673006
1410259993650 6523 READING 457 0.978816
1410259993679 6521 READING 969 0.622374
1410259993797 6521 READING 974 0.632329
1410259993920 6521 READING 975 0.606562
1410259994045 6521 READING 978 0.589073
1410259994163 6521 READING 979 0.588303
1410259994280 6521 READING 981 0.592478
1410259994407 6521 READING 981 0.540066
1410259994533 6521 READING 983 0.538243
1410259994664 6521 READING 983 0.500573
1410259995800 6521 READING 984 0.058872
1410259995802 6521 FUNCTION lru lambda h: 0.404108 * (h ** 0.0308057)
1410259995802 6523 FUNCTION lru lambda h: 0.585706 * (h ** 0.0415542)
1410259995802 6521 RECOMMEND 900
1410259995802 6523 RECOMMEND 900
1410259995874 6521 READING 1102 0.890691
1410259995966 6521 READING 1107 0.737335
1410259995999 6523 READING 458 0.985301
1410259996040 6521 READING 1110 0.842644
1410259996124 6521 READING 1112 0.738885
1410259996202 6521 READING 1110 0.812660
1410259996298 6521 READING 958 0.706982
1410259996383 6521 READING 1099 0.754635
1410259996471 6521 READING 961 0.691057
1410259996583 6521 READING 1088 0.554153
1410259996699 6521 READING 963 0.645875
1410259996793 6521 READING 1072 0.679751
1410259998217 6521 READING 971 0.957168
1410259998217 6523 READING 457 0.972516
1410259999312 6521 READING 1060 0.972657
1410260000213 6523 READING 461 0.983615
1410260000369 6521 READING 969 0.968984
1410260001449 6521 READING 1047 0.943600
1410260002385 6523 READING 458 0.986555
1410260002613 6521 READING 974 0.947394
1410260003625 6521 READING 1034 0.952025
1410260004527 6523 READING 462 0.982486
1410260004651 6521 READING 977 0.968092
1410260005768 6521 READING 1024 0.963598
1410260005802 6521 FUNCTION lru lambda h: 0.0184029 * (h ** 0.510569)
1410260005802 6523 FUNCTION lru lambda h: 0.557477 * (h ** 0.0532204)
1410260005802 6521 RECOMMEND 900
1410260005802 6523 RECOMMEND 900
1410260006636 6523 READING 462 0.984463
1410260006818 6521 READING 979 0.951119
1410260007823 6521 READING 1016 0.952642
1410260008865 6523 READING 464 0.968496
1410260008873 6521 READING 981 0.914252
1410260009856 6521 READING 1013 0.944240
1410260010795 6523 READING 466 0.976435
1410260010885 6521 READING 984 0.942331
1410260011877 6521 READING 1010 0.959371
1410260012656 6523 READING 467 0.978836
1410260012906 6521 READING 986 0.944520
1410260013904 6521 READING 1010 0.954721
1410260014855 6521 READING 988 0.940840
1410260015427 6523 READING 468 0.990270
1410260015688 6523 READING 469 0.910262
1410260015802 6521 FUNCTION lru lambda h: 0.00594169 * (h ** 0.687725)
1410260015803 6523 FUNCTION lru lambda h: 0.524032 * (h ** 0.0677741)
1410260015803 6521 RECOMMEND 900
1410260015803 6523 RECOMMEND 900
1410260015844 6521 READING 1009 0.952533
1410260015856 6523 READING 472 0.808720
1410260016020 6523 READING 473 0.824586
1410260016820 6521 READING 987 0.947742
1410260017326 6523 READING 481 0.980673
1410260017867 6521 READING 1006 0.943305
1410260018873 6521 READING 986 0.943329
1410260019644 6523 READING 482 0.987981
1410260019904 6521 READING 1003 0.947855
1410260021067 6521 READING 986 0.962650
1410260021989 6523 READING 488 0.984631
1410260022111 6521 READING 1001 0.950063
1410260023257 6521 READING 986 0.943674
1410260024282 6521 READING 998 0.951487
1410260024790 6523 READING 490 0.991631
1410260025351 6521 READING 985 0.957756
1410260025803 6521 FUNCTION lru lambda h: 0.001 * (h ** 0.999)
1410260025803 6523 FUNCTION lru lambda h: 0.500213 * (h ** 0.0785868)
1410260025803 6521 RECOMMEND 900
1410260025803 6523 RECOMMEND 900
1410260026407 6521 READING 996 0.954062
1410260027218 6523 READING 491 0.986093
1410260027496 6521 READING 985 0.957562
1410260028588 6521 READING 993 0.938561
1410260029825 6523 READING 494 0.976445
1410260029834 6521 READING 985 0.954283
1410260031007 6521 READING 993 0.949058
1410260032077 6521 READING 985 0.959255
1410260032343 6523 READING 492 0.981784
1410260033091 6521 READING 991 0.954294
1410260034170 6521 READING 985 0.957242
1410260034822 6523 READING 495 0.984273
1410260035265 6521 READING 990 0.956468
1410260035803 6521 FUNCTION lru lambda h: 0.001 * (h ** 0.999)
1410260035803 6523 FUNCTION lru lambda h: 0.48238 * (h ** 0.0869764)
1410260035803 6521 RECOMMEND 900
1410260035803 6523 RECOMMEND 900
1410260036301 6521 READING 985 0.956884
1410260037323 6521 READING 989 0.947179
1410260038082 6523 READING 498 0.993733
1410260038315 6521 READING 984 0.948988
1410260038375 6523 READING 498 0.921539
1410260038563 6523 READING 499 0.855692
1410260038904 6523 READING 501 0.950475
1410260039400 6521 READING 989 0.955438
1410260040443 6521 READING 984 0.946022
1410260041571 6521 READING 987 0.954560
1410260042020 6523 READING 511 0.990499
1410260042622 6521 READING 988 0.952334
1410260043835 6521 READING 987 0.956895
1410260044974 6523 READING 512 0.980740
1410260044983 6521 READING 987 0.953087
1410260045803 6521 FUNCTION lru lambda h: 0.001 * (h ** 0.999)
1410260045803 6523 FUNCTION lru lambda h: 0.468071 * (h ** 0.0938755)
1410260045803 6521 RECOMMEND 900
1410260045803 6523 RECOMMEND 900
1410260046048 6521 READING 986 0.965459
1410260047127 6521 READING 987 0.954318
1410260047763 6523 READING 515 0.989283
1410260048203 6521 READING 987 0.950931
1410260049319 6521 READING 987 0.956956
1410260050500 6521 READING 987 0.956120
1410260050797 6523 READING 517 0.988413
1410260051641 6521 READING 987 0.949640
1410260052815 6521 READING 987 0.951007
1410260053957 6523 READING 516 0.985557
1410260053995 6521 READING 987 0.954241
1410260055106 6521 READING 987 0.956061
1410260055803 6521 FUNCTION lru lambda h: 0.001 * (h ** 0.999)
1410260055803 6523 FUNCTION lru lambda h: 0.458134 * (h ** 0.0987572)
1410260055803 6521 RECOMMEND 900
1410260055803 6523 RECOMMEND 900
1410260056291 6521 READING 987 0.947374
1410260057300 6523 READING 518 0.989337
1410260057359 6521 READING 986 0.965598
1410260058410 6521 READING 987 0.951142
1410260059539 6521 READING 987 0.953660
1410260060651 6521 READING 985 0.954952
1410260061173 6523 READING 522 0.993296
1410260061747 6521 READING 986 0.952767
1410260062202 6523 READING 522 0.971281
1410260062404 6523 READING 522 0.904149
1410260062817 6521 READING 986 0.939345
1410260062820 6523 READING 525 0.942867
1410260064121 6521 READING 986 0.957970
1410260065232 6521 READING 986 0.943315
1410260065804 6521 FUNCTION lru lambda h: 0.001 * (h ** 0.999)
1410260065804 6523 FUNCTION lru lambda h: 0.451111 * (h ** 0.102259)
1410260065804 6521 RECOMMEND 900
1410260065804 6523 RECOMMEND 900
1410260065983 6523 READING 533 0.993059
1410260066544 6521 READING 986 0.953413
1410260069117 6523 READING 534 0.987084
1410260069714 6521 READING 986 0.362213
1410260070882 6521 READING 947 0.991043
1410260071961 6521 READING 947 0.979584
1410260072634 6523 READING 535 0.991304
1410260073031 6521 READING 949 0.985696
1410260074159 6521 READING 952 0.982161
1410260075163 6521 READING 953 0.980894
1410260075646 6523 READING 537 0.985152
1410260075804 6521 FUNCTION lru lambda h: 0.001 * (h ** 0.999)
1410260075804 6523 FUNCTION lru lambda h: 0.440471 * (h ** 0.107621)
1410260075804 6521 RECOMMEND 900
1410260075804 6523 RECOMMEND 900
1410260076238 6521 READING 954 0.970545
1410260077224 6521 READING 952 0.972924
1410260078265 6521 READING 923 0.965634
1410260078698 6523 READING 538 0.989169
1410260079367 6521 READING 948 0.967386
1410260080389 6521 READING 928 0.952894
1410260081479 6521 READING 945 0.958794
1410260081856 6523 READING 539 0.985143
1410260082504 6521 READING 932 0.964976
1410260083449 6521 READING 946 0.955318
1410260084521 6521 READING 946 0.959323
1410260084767 6523 READING 541 0.991538
1410260085009 6523 READING 543 0.913935
1410260085238 6523 READING 544 0.888592
1410260085505 6521 READING 945 0.956870
1410260085804 6521 FUNCTION lru lambda h: 0.001 * (h ** 0.999)
1410260085804 6523 FUNCTION lru lambda h: 0.432436 * (h ** 0.111742)
1410260085804 6521 RECOMMEND 900
1410260085804 6523 RECOMMEND 900
1410260086522 6521 READING 947 0.959460
1410260087538 6521 READING 947 0.955161
1410260088361 6523 READING 546 0.991204
1410260088563 6521 READING 948 0.953132
1410260089664 6521 READING 949 0.950218
1410260090655 6521 READING 949 0.948741
1410260091604 6521 READING 950 0.948242
1410260091710 6523 READING 550 0.994938
1410260092634 6521 READING 950 0.954548
1410260093598 6521 READING 949 0.949575
1410260094605 6521 READING 936 0.955376
1410260095244 6523 READING 553 0.991057
1410260095721 6521 READING 948 0.957082
1410260095807 6521 FUNCTION lru lambda h: 0.001 * (h ** 0.999)
1410260095807 6523 FUNCTION lru lambda h: 0.285311 * (h ** 0.183351)
1410260095807 6521 RECOMMEND 900
1410260095807 6523 RECOMMEND 900
1410260096769 6521 READING 936 0.952820
1410260097818 6521 READING 947 0.956425
1410260098776 6521 READING 936 0.945970
1410260098882 6523 READING 553 0.991156
1410260099776 6521 READING 945 0.959037
1410260100844 6521 READING 935 0.958526
1410260101799 6521 READING 943 0.957250
1410260102453 6523 READING 555 0.989988
1410260102932 6521 READING 935 0.969284
1410260103988 6521 READING 942 0.963574
1410260105128 6521 READING 936 0.964715
1410260105807 6521 FUNCTION lru lambda h: 0.001 * (h ** 0.999)
1410260105807 6523 FUNCTION lru lambda h: 0.241088 * (h ** 0.212048)
1410260105807 6521 RECOMMEND 900
1410260105807 6523 RECOMMEND 900
1410260106164 6521 READING 941 0.950971
1410260106314 6523 READING 558 0.989560
1410260107134 6521 READING 936 0.950893
1410260108093 6523 READING 559 0.974734
1410260108129 6521 READING 941 0.947459
1410260108345 6523 READING 564 0.894996
1410260109084 6521 READING 936 0.964850
1410260110109 6521 READING 941 0.960735
1410260110298 6523 READING 567 0.987222
1410260111071 6521 READING 936 0.951629
1410260112103 6521 READING 939 0.943920
1410260113155 6521 READING 940 0.940154
1410260113866 6523 READING 574 0.991339
1410260114197 6521 READING 939 0.943353
1410260115252 6521 READING 936 0.948130
1410260115807 6521 FUNCTION lru lambda h: 0.001 * (h ** 0.999)
1410260115807 6523 FUNCTION lru lambda h: 0.0738144 * (h ** 0.410183)
1410260115807 6521 RECOMMEND 900
1410260115807 6523 RECOMMEND 900
1410260116199 6521 READING 939 0.942417
1410260117158 6521 READING 936 0.942892
1410260117513 6523 READING 575 0.993782
1410260118249 6521 READING 938 0.957764
1410260119271 6521 READING 938 0.949759
1410260121357 6523 READING 575 0.979068
1410260122516 6521 READING 937 0.303739
1410260123579 6521 READING 997 0.988541
1410260124563 6521 READING 992 0.976410
1410260125336 6523 READING 578 0.990381
1410260125533 6521 READING 997 0.975381
1410260125807 6521 FUNCTION lru lambda h: 0.001 * (h ** 0.999)
1410260125807 6523 FUNCTION lru lambda h: 0.0737517 * (h ** 0.410179)
1410260125807 6521 RECOMMEND 900
1410260125807 6523 RECOMMEND 900
1410260126458 6521 READING 998 0.976947
1410260127274 6521 READING 1000 0.969917
1410260128226 6521 READING 1000 0.965944
1410260128877 6523 READING 579 0.988680
1410260129120 6521 READING 969 0.976476
1410260130020 6521 READING 997 0.965676
1410260130976 6521 READING 973 0.950563
1410260131661 6523 READING 580 0.989943
1410260131879 6521 READING 993 0.959708
1410260131911 6523 READING 583 0.916330
1410260132836 6521 READING 977 0.970831
1410260133890 6521 READING 991 0.955557
1410260133953 6523 READING 585 0.986145
1410260134793 6521 READING 992 0.951732
1410260135749 6521 READING 992 0.954325
1410260135807 6521 FUNCTION lru lambda h: 0.001 * (h ** 0.999)
1410260135808 6523 FUNCTION lru lambda h: 0.0263505 * (h ** 0.578957)
1410260135808 6521 RECOMMEND 900
1410260135808 6523 RECOMMEND 900
1410260136622 6521 READING 992 0.946685
1410260137439 6523 READING 592 0.991804
1410260137505 6521 READING 992 0.959235
1410260138446 6521 READING 993 0.949260
1410260139361 6521 READING 994 0.949843
1410260140310 6521 READING 994 0.956946
1410260141247 6521 READING 995 0.948683
1410260141417 6523 READING 593 0.992602
1410260142129 6521 READING 995 0.948836
1410260143038 6521 READING 995 0.959931
1410260143921 6521 READING 983 0.940564
1410260144848 6521 READING 993 0.945065
1410260145151 6523 READING 592 0.989992
1410260145791 6521 READING 994 0.946435
1410260145808 6521 FUNCTION lru lambda h: 0.001 * (h ** 0.999)
1410260145808 6523 FUNCTION lru lambda h: 0.0398405 * (h ** 0.510845)
1410260145808 6521 RECOMMEND 900
1410260145808 6523 RECOMMEND 900
1410260146739 6521 READING 993 0.941713
1410260147668 6521 READING 983 0.950665
1410260148600 6521 READING 992 0.944683
1410260149352 6523 READING 595 0.990356
1410260149529 6521 READING 983 0.955599
1410260150409 6521 READING 991 0.946961
1410260151267 6521 READING 983 0.948620
1410260152113 6521 READING 990 0.944737
1410260153100 6521 READING 983 0.946006
1410260153948 6521 READING 989 0.941838
1410260154016 6523 READING 597 0.995297
1410260154382 6523 READING 597 0.934180
1410260154692 6523 READING 598 0.946240
1410260154896 6521 READING 983 0.937152
1410260155808 6521 FUNCTION lru lambda h: 0.001 * (h ** 0.999)
1410260155808 6523 FUNCTION lru lambda h: 0.0721948 * (h ** 0.413443)
1410260155808 6521 RECOMMEND 900
1410260155808 6523 RECOMMEND 900
1410260155823 6521 READING 988 0.953776
1410260156771 6521 READING 988 0.941729
1410260157719 6521 READING 987 0.954351
1410260158563 6523 READING 600 0.993871
1410260158673 6521 READING 983 0.951321
1410260159601 6521 READING 986 0.944680
1410260160616 6521 READING 987 0.941900
1410260161628 6521 READING 986 0.918043
1410260162580 6521 READING 983 0.946240
1410260162775 6523 READING 604 0.991285
1410260163620 6521 READING 986 0.946422
1410260164573 6521 READING 986 0.943296
1410260165536 6521 READING 985 0.934509
1410260165809 6521 FUNCTION lru lambda h: 0.001 * (h ** 0.999)
1410260165809 6523 FUNCTION lru lambda h: 0.0564904 * (h ** 0.453052)
1410260165809 6521 RECOMMEND 900
1410260165809 6523 RECOMMEND 900
1410260166538 6521 READING 985 0.951161
1410260167203 6523 READING 606 0.992515
1410260167516 6521 READING 985 0.938678
1410260168366 6521 READING 983 0.942384
1410260169274 6521 READING 985 0.949199
1410260170279 6521 READING 985 0.941857
1410260171172 6523 READING 606 0.989761
1410260171330 6521 READING 984 0.941035
1410260174892 6521 READING 984 0.271314
1410260175745 6521 READING 1039 0.986327
1410260175809 6521 FUNCTION lru lambda h: 0.001 * (h ** 0.999)
1410260175809 6523 FUNCTION lru lambda h: 0.0457354 * (h ** 0.487133)
1410260175809 6521 RECOMMEND 900
1410260175809 6523 RECOMMEND 900
1410260176072 6523 READING 608 0.994962
1410260176559 6521 READING 1039 0.981301
1410260177186 6523 READING 610 0.972800
1410260177455 6523 READING 611 0.941688
1410260178790 6521 READING 1041 0.987431
1410260181309 6523 READING 619 0.993091
1410260185335 6523 READING 619 0.991987
1410260185809 6521 FUNCTION lru lambda h: 0.001 * (h ** 0.999)
1410260185809 6523 FUNCTION lru lambda h: 0.0575682 * (h ** 0.449359)
1410260185809 6521 RECOMMEND 900
1410260185809 6523 RECOMMEND 900
1410260189443 6523 READING 619 0.991533
1410260190472 6521 READING 1043 0.992741
1410260191899 6521 READING 1034 0.951621
1410260193405 6523 READING 621 0.983103
1410260195810 6521 FUNCTION lru lambda h: 0.001 * (h ** 0.999)
1410260195810 6523 FUNCTION lru lambda h: 0.0506564 * (h ** 0.469729)
1410260195810 6521 RECOMMEND 900
1410260195810 6523 RECOMMEND 900
1410260197368 6521 READING 1044 0.267575
1410260198487 6521 READING 1129 0.818982
1410260198870 6523 READING 624 0.992110
1410260199404 6523 READING 625 0.946921
1410260199685 6521 READING 1111 0.977668
1410260200157 6523 READING 627 0.969997
1410260204103 6521 READING 1138 0.993926
1410260204861 6523 READING 629 0.993204
1410260205810 6521 FUNCTION lru lambda h: 0.001 * (h ** 0.999)
1410260205810 6523 FUNCTION lru lambda h: 0.0386867 * (h ** 0.51217)
1410260205810 6521 RECOMMEND 900
1410260205810 6523 RECOMMEND 900
1410260209305 6523 READING 631 0.991436
1410260210732 6521 READING 1092 0.995162
1410260211024 6521 READING 1133 0.883269
1410260211753 6521 READING 1136 0.939866
1410260212177 6521 READING 1133 0.903528
1410260212322 6521 READING 1137 0.730511
1410260212514 6521 READING 1130 0.705577
1410260212913 6521 READING 1139 0.817563
1410260213074 6521 READING 1137 0.699332
1410260213255 6521 READING 1151 0.671899
1410260213313 6521 READING 1157 0.190305
1410260213373 6521 READING 1163 0.172348
1410260213429 6523 READING 634 0.987172
1410260213444 6521 READING 1165 0.158916
1410260214478 6521 READING 1104 0.010436
1410260214494 6521 READING 1013 0.698084
1410260214510 6521 READING 1015 0.693494
1410260214530 6521 READING 1019 0.573797
1410260214546 6521 READING 1019 0.675430
1410260214568 6521 READING 1019 0.617324
1410260214588 6521 READING 894 0.783679
1410260214618 6521 READING 1014 0.859709
1410260214653 6521 READING 894 0.655269
1410260214709 6521 READING 1005 0.614278
1410260214752 6521 READING 895 0.780775
1410260214809 6521 READING 995 0.859890
1410260214868 6521 READING 895 0.854428
1410260214943 6521 READING 986 0.869233
1410260215021 6521 READING 896 0.787710
1410260215107 6521 READING 976 0.899556
1410260215208 6521 READING 897 0.790973
1410260215340 6521 READING 969 0.910963
1410260215475 6521 READING 899 0.906107
1410260215659 6521 READING 960 0.865864
1410260215810 6521 FUNCTION lru lambda h: 1.02059e+07 * (h ** 0.001)
1410260215810 6523 FUNCTION lru lambda h: 0.0288589 * (h ** 0.558641)
1410260215811 6521 RECOMMEND 900
1410260215811 6523 RECOMMEND 900
1410260215838 6521 READING 901 0.905212
1410260216024 6521 READING 951 0.912528
1410260216214 6521 READING 901 0.917027
1410260216423 6521 READING 943 0.873515
1410260216636 6521 READING 908 0.854462
1410260216861 6521 READING 940 0.902708
1410260217100 6521 READING 915 0.827310
1410260217299 6521 READING 940 0.837718
1410260217495 6521 READING 941 0.837420
1410260217719 6521 READING 940 0.770225
1410260217960 6521 READING 915 0.886897
1410260218153 6521 READING 934 0.913898
1410260218352 6523 READING 635 0.992280
1410260218391 6521 READING 900 0.971469
1410260218688 6521 READING 935 0.964626
1410260219005 6521 READING 900 0.961558
1410260219351 6521 READING 933 0.970850
1410260219742 6521 READING 901 0.949909
1410260219952 6521 READING 928 0.954443
1410260220103 6521 READING 901 0.908366
1410260220273 6521 READING 925 0.946851
1410260220443 6521 READING 902 0.952460
1410260220469 6521 READING 921 0.457621
1410260220512 6521 READING 908 0.306362
1410260220533 6521 READING 922 0.449226
1410260220549 6521 READING 923 0.576368
1410260220568 6521 READING 923 0.488719
1410260220585 6521 READING 910 0.585180
1410260220602 6521 READING 921 0.577616
1410260220619 6521 READING 922 0.523661
1410260220638 6521 READING 921 0.526968
1410260220652 6521 READING 921 0.673061
1410260220670 6521 READING 921 0.552536
1410260220684 6521 READING 897 0.681895
1410260220699 6521 READING 921 0.707049
1410260220715 6521 READING 897 0.574727
1410260220736 6521 READING 921 0.621726
1410260220751 6521 READING 898 0.709649
1410260220769 6521 READING 920 0.755426
1410260220786 6521 READING 899 0.742869
1410260220808 6521 READING 919 0.701552
1410260220830 6521 READING 900 0.714736
1410260220852 6521 READING 918 0.694516
1410260220873 6521 READING 900 0.784467
1410260220900 6521 READING 914 0.576228
1410260220929 6521 READING 900 0.579578
1410260220953 6521 READING 914 0.688149
1410260221823 6521 READING 914 0.021893
1410260221843 6521 READING 857 0.702701
1410260221869 6521 READING 857 0.793165
1410260221896 6521 READING 857 0.876680
1410260221923 6521 READING 858 0.919579
1410260221956 6521 READING 858 0.875270
1410260221993 6521 READING 858 0.767863
1410260222028 6521 READING 857 0.942467
1410260222062 6521 READING 858 0.941957
1410260222102 6521 READING 858 0.946682
1410260222138 6521 READING 859 0.920979
1410260222160 6521 READING 859 0.762413
1410260222177 6521 READING 859 0.673949
1410260222195 6521 READING 861 0.705725
1410260222209 6521 READING 862 0.855807
1410260222225 6521 READING 862 0.868306
1410260222253 6521 READING 863 0.479716
1410260222270 6521 READING 864 0.878317
1410260222288 6521 READING 864 0.886935
1410260222334 6521 READING 865 0.843587
1410260222394 6521 READING 866 0.712685
1410260222438 6521 READING 864 0.676722
1410260222507 6523 READING 636 0.986988
1410260222952 6523 READING 639 0.861354
1410260223377 6521 READING 873 0.043830
1410260223413 6521 READING 937 0.705711
1410260223458 6521 READING 939 0.700145
1410260223487 6521 READING 937 0.424970
1410260223516 6521 READING 917 0.356384
1410260223529 6521 READING 938 0.848918
1410260223547 6521 READING 909 0.655019
1410260223559 6521 READING 936 0.843330
1410260223577 6521 READING 909 0.861509
1410260223598 6521 READING 934 0.878969
1410260223614 6521 READING 909 0.834625
1410260223636 6521 READING 932 0.827144
1410260223651 6521 READING 909 0.823246
1410260223669 6521 READING 929 0.772134
1410260223681 6521 READING 909 0.776992
1410260223694 6521 READING 928 0.819716
1410260223708 6521 READING 909 0.800217
1410260223721 6521 READING 925 0.825061
1410260223739 6521 READING 909 0.568183
1410260223752 6521 READING 923 0.827904
1410260223764 6521 READING 909 0.819509
1410260223778 6521 READING 921 0.829121
1410260223792 6521 READING 909 0.831500
1410260223809 6521 READING 919 0.621603
1410260223822 6521 READING 909 0.778936
1410260223838 6521 READING 918 0.672466
1410260223851 6521 READING 909 0.828636
1410260223865 6521 READING 916 0.728756
1410260223879 6521 READING 909 0.811608
1410260223892 6521 READING 916 0.790776
1410260223912 6521 READING 909 0.629697
1410260223934 6521 READING 915 0.483820
1410260223947 6521 READING 909 0.823175
1410260223960 6521 READING 914 0.818935
1410260223974 6521 READING 909 0.830932
1410260223990 6521 READING 913 0.737005
1410260224005 6521 READING 909 0.714334
1410260224020 6521 READING 913 0.683663
1410260224036 6521 READING 909 0.631746
1410260224051 6521 READING 911 0.835806
1410260224074 6521 READING 912 0.524472
1410260224088 6521 READING 911 0.720327
1410260224104 6521 READING 911 0.644420
1410260224118 6521 READING 910 0.798998
1410260224133 6521 READING 911 0.770939
1410260224146 6521 READING 911 0.838533
1410260224160 6521 READING 909 0.775340
1410260224174 6521 READING 910 0.849690
1410260224187 6521 READING 910 0.840573
1410260224203 6521 READING 909 0.825385
1410260224218 6521 READING 910 0.798533
1410260224232 6521 READING 910 0.784284
1410260224245 6521 READING 910 0.834572
1410260224258 6521 READING 910 0.828767
1410260224271 6521 READING 909 0.849530
1410260224284 6521 READING 909 0.850049
1410260224303 6521 READING 909 0.571429
1410260224320 6521 READING 909 0.628052
1410260224337 6521 READING 909 0.718528
1410260224350 6521 READING 909 0.811790
1410260224367 6521 READING 909 0.790038
1410260224381 6521 READING 909 0.839691
1410260224403 6521 READING 909 0.569667
1410260224416 6521 READING 909 0.844570
1410260224436 6521 READING 909 0.525166
1410260224448 6521 READING 909 0.828646
1410260224474 6521 READING 909 0.407620
1410260224496 6521 READING 909 0.469128
1410260224509 6521 READING 909 0.827815
1410260224522 6521 READING 909 0.837699
1410260224535 6521 READING 909 0.788293
1410260224547 6521 READING 909 0.835694
1410260224565 6521 READING 909 0.568127
1410260224578 6521 READING 909 0.799816
1410260224601 6521 READING 909 0.454262
1410260224620 6521 READING 909 0.546092
1410260224637 6521 READING 909 0.601116
1410260224650 6521 READING 909 0.823487
1410260224667 6521 READING 909 0.582765
1410260224680 6521 READING 909 0.816848
1410260224700 6521 READING 909 0.522938
1410260224720 6521 READING 909 0.553807
1410260224736 6521 READING 909 0.818517
1410260224749 6521 READING 909 0.841613
1410260224766 6521 READING 909 0.842659
1410260224779 6521 READING 909 0.805380
1410260224798 6521 READING 909 0.548722
1410260224814 6521 READING 909 0.675837
1410260224833 6521 READING 909 0.556560
1410260224861 6521 READING 909 0.364789
1410260224876 6521 READING 909 0.850069
1410260224889 6521 READING 909 0.836461
1410260224910 6521 READING 909 0.662505
1410260224929 6521 READING 909 0.556093
1410260224947 6521 READING 909 0.562835
1410260224969 6521 READING 909 0.486570
1410260224986 6521 READING 909 0.650950
1410260225000 6521 READING 909 0.855249
1410260225014 6521 READING 909 0.790903
1410260225029 6521 READING 909 0.732246
1410260225043 6521 READING 909 0.790363
1410260225059 6521 READING 909 0.802930
1410260225074 6521 READING 909 0.859007
1410260225087 6521 READING 909 0.822775
1410260225100 6521 READING 909 0.806098
1410260225116 6521 READING 909 0.834087
1410260225131 6521 READING 909 0.868749
1410260225145 6521 READING 909 0.842768
1410260225158 6521 READING 909 0.838502
1410260225171 6521 READING 909 0.852022
1410260225183 6521 READING 909 0.849176
1410260225196 6521 READING 909 0.846651
1410260225211 6521 READING 909 0.855103
1410260225235 6521 READING 909 0.508834
1410260225248 6521 READING 909 0.847346
1410260225278 6521 READING 909 0.379887
1410260225293 6521 READING 909 0.762659
1410260225306 6521 READING 909 0.840631
1410260225319 6521 READING 909 0.819580
1410260225332 6521 READING 909 0.843224
1410260225345 6521 READING 909 0.841306
1410260225360 6521 READING 909 0.681971
1410260225373 6521 READING 909 0.805607
1410260225386 6521 READING 909 0.806903
1410260225400 6521 READING 909 0.808003
1410260225414 6521 READING 909 0.796361
1410260225429 6521 READING 909 0.816374
1410260225444 6521 READING 909 0.863575
1410260225460 6521 READING 909 0.805639
1410260225473 6521 READING 909 0.801254
1410260225486 6521 READING 909 0.836075
1410260225503 6521 READING 909 0.849865
1410260225534 6521 READING 909 0.795463
1410260225553 6521 READING 907 0.517864
1410260225573 6521 READING 909 0.483051
1410260225584 6521 READING 909 0.749956
1410260225596 6521 READING 907 0.757760
1410260225611 6521 READING 909 0.718504
1410260225628 6521 READING 907 0.491932
1410260225645 6521 READING 908 0.551682
1410260225660 6521 READING 908 0.553955
1410260225674 6521 READING 908 0.605658
1410260225685 6521 READING 908 0.802417
1410260225697 6521 READING 908 0.795797
1410260225803 6521 READING 908 0.955249
1410260225811 6521 FUNCTION lru lambda h: 4271.98 * (h ** 0.001)
1410260225811 6523 FUNCTION lru lambda h: 0.0300713 * (h ** 0.551251)
1410260225811 6521 RECOMMEND 900
1410260225811 6523 RECOMMEND 900
1410260225891 6523 READING 641 0.989567
1410260225967 6521 READING 908 0.963365
1410260226124 6521 READING 908 0.901766
1410260226277 6521 READING 908 0.964531
1410260226411 6521 READING 908 0.930093
1410260226569 6521 READING 908 0.954148
1410260226761 6521 READING 908 0.968969
1410260226889 6521 READING 908 0.887161
1410260227039 6521 READING 909 0.932414
1410260227192 6521 READING 909 0.897120
1410260227359 6521 READING 909 0.882345
1410260227490 6521 READING 909 0.870250
1410260227637 6521 READING 910 0.927544
1410260227767 6521 READING 910 0.909494
1410260227921 6521 READING 910 0.861427
1410260228037 6521 READING 910 0.884201
1410260228162 6521 READING 910 0.875307
1410260228284 6521 READING 910 0.860240
1410260228400 6521 READING 911 0.884360
1410260228534 6521 READING 911 0.905649
1410260228654 6521 READING 911 0.818994
1410260228754 6521 READING 910 0.857287
1410260228879 6521 READING 910 0.833886
1410260229018 6521 READING 910 0.904187
1410260229151 6521 READING 907 0.868108
1410260229268 6521 READING 910 0.900388
1410260229384 6521 READING 907 0.899645
1410260229503 6521 READING 909 0.895794
1410260229622 6521 READING 907 0.902314
1410260229745 6521 READING 909 0.853684
1410260229865 6521 READING 907 0.909652
1410260229986 6521 READING 908 0.900076
1410260230110 6521 READING 908 0.858881
1410260230243 6521 READING 908 0.874846
1410260230412 6521 READING 907 0.919946
1410260230531 6521 READING 908 0.908600
1410260230655 6521 READING 908 0.929333
1410260230811 6521 READING 908 0.726521
1410260230814 6523 READING 650 0.991863
1410260230929 6521 READING 908 0.931469
1410260231028 6521 READING 907 0.892786
1410260231140 6521 READING 907 0.868311
1410260231279 6521 READING 907 0.919088
1410260231386 6521 READING 907 0.897030
1410260231502 6521 READING 907 0.874013
1410260231618 6521 READING 907 0.867049
1410260231739 6521 READING 907 0.881603
1410260231847 6521 READING 907 0.852411
1410260231970 6521 READING 907 0.842080
1410260232076 6521 READING 907 0.866088
1410260232185 6521 READING 907 0.912678
1410260232297 6521 READING 907 0.864376
1410260232388 6521 READING 907 0.875261
1410260232523 6521 READING 907 0.911538
1410260232633 6521 READING 906 0.852594
1410260232743 6521 READING 907 0.897763
1410260232872 6521 READING 907 0.883697
1410260232984 6521 READING 907 0.902307
1410260233120 6521 READING 907 0.913755
1410260233233 6521 READING 907 0.848747
1410260233344 6521 READING 907 0.895354
1410260233460 6521 READING 907 0.887939
1410260233571 6521 READING 907 0.931138
1410260233697 6521 READING 907 0.893065
1410260233822 6521 READING 907 0.886633
1410260233934 6521 READING 907 0.894493
1410260234061 6521 READING 907 0.894889
1410260234169 6521 READING 907 0.896617
1410260234296 6521 READING 907 0.831072
1410260234408 6521 READING 907 0.903724
1410260234527 6521 READING 907 0.908840
1410260234657 6521 READING 907 0.861524
1410260234790 6521 READING 907 0.833169
1410260234894 6521 READING 907 0.891431
1410260235044 6521 READING 907 0.922241
1410260235164 6521 READING 907 0.937108
1410260235302 6521 READING 907 0.936630
1410260235439 6521 READING 907 0.875668
1410260235568 6521 READING 907 0.940732
1410260235639 6523 READING 652 0.993963
1410260235701 6521 READING 907 0.915167
1410260235811 6521 FUNCTION lru lambda h: 7565.87 * (h ** 0.001)
1410260235811 6523 FUNCTION lru lambda h: 0.0291336 * (h ** 0.555791)
1410260235811 6521 RECOMMEND 900
1410260235811 6523 RECOMMEND 900
1410260235820 6521 READING 907 0.909702
1410260235924 6521 READING 907 0.893283
1410260236052 6521 READING 907 0.849776
1410260236161 6521 READING 907 0.903417
1410260236275 6521 READING 907 0.825843
1410260236382 6521 READING 907 0.886900
1410260236484 6521 READING 907 0.894607
1410260236620 6521 READING 907 0.838183
1410260236743 6521 READING 907 0.830470
1410260236877 6521 READING 907 0.818061
1410260236986 6521 READING 907 0.882133
1410260237084 6521 READING 907 0.881073
1410260237191 6521 READING 907 0.884543
1410260237298 6521 READING 907 0.861209
1410260237409 6521 READING 907 0.897253
1410260237519 6521 READING 907 0.900630
1410260237614 6521 READING 907 0.869094
1410260237733 6521 READING 907 0.852418
1410260237869 6521 READING 907 0.835525
1410260237976 6521 READING 907 0.900130
1410260238106 6521 READING 907 0.902408
1410260238215 6521 READING 907 0.896714
1410260238312 6521 READING 907 0.916163
1410260238445 6521 READING 907 0.948120
1410260238569 6521 READING 907 0.899713
1410260238696 6521 READING 907 0.869306
1410260238829 6521 READING 907 0.872572
1410260238965 6521 READING 907 0.862457
1410260239069 6521 READING 907 0.866489
1410260239175 6521 READING 907 0.889501
1410260239276 6521 READING 907 0.874194
1410260239379 6521 READING 907 0.892799
1410260239507 6521 READING 907 0.815116
1410260239606 6521 READING 907 0.917645
1410260239733 6521 READING 907 0.904554
1410260239869 6521 READING 907 0.898444
1410260239971 6521 READING 907 0.887225
1410260240089 6521 READING 907 0.842877
1410260240204 6521 READING 907 0.901466
1410260240323 6521 READING 907 0.864819
1410260240369 6523 READING 654 0.992310
1410260240459 6521 READING 907 0.853460
1410260240568 6521 READING 907 0.887386
1410260240691 6521 READING 907 0.921706
1410260240825 6521 READING 907 0.902268
1410260240936 6521 READING 907 0.888456
1410260241054 6521 READING 907 0.810074
1410260241191 6521 READING 907 0.884901
1410260241317 6521 READING 907 0.839960
1410260241438 6521 READING 907 0.899152
1410260241553 6521 READING 907 0.863291
1410260241663 6521 READING 907 0.895274
1410260241779 6521 READING 907 0.873213
1410260241886 6521 READING 907 0.887675
1410260241999 6521 READING 907 0.888098
1410260242121 6521 READING 907 0.900382
1410260242216 6521 READING 907 0.833863
1410260242347 6521 READING 907 0.929824
1410260242451 6521 READING 907 0.922197
1410260242577 6521 READING 907 0.870810
1410260242708 6521 READING 907 0.874270
1410260242809 6521 READING 907 0.829443
1410260242939 6521 READING 907 0.845913
1410260243051 6521 READING 907 0.895408
1410260243159 6521 READING 907 0.896605
1410260243274 6521 READING 907 0.854516
1410260243377 6521 READING 907 0.930054
1410260243482 6521 READING 907 0.884324
1410260243587 6521 READING 907 0.892657
1410260243694 6521 READING 907 0.896569
1410260243807 6521 READING 907 0.811698
1410260243925 6521 READING 907 0.906184
1410260244038 6521 READING 907 0.816481
1410260244147 6521 READING 907 0.890507
1410260244257 6521 READING 907 0.903724
1410260244375 6521 READING 907 0.831278
1410260244486 6521 READING 907 0.828883
1410260244607 6521 READING 907 0.831003
1410260244715 6521 READING 907 0.899763
1410260244838 6521 READING 907 0.887345
1410260244954 6521 READING 907 0.900398
1410260245046 6521 READING 907 0.845983
1410260245230 6521 READING 907 0.924365
1410260245342 6521 READING 907 0.899844
1410260245457 6521 READING 907 0.880736
1410260245532 6523 READING 657 0.993854
1410260245567 6521 READING 907 0.888189
1410260245680 6521 READING 907 0.889852
1410260245795 6521 READING 907 0.850351
1410260245811 6521 FUNCTION lru lambda h: 7300.88 * (h ** 0.001)
1410260245811 6523 FUNCTION lru lambda h: 0.380017 * (h ** 0.14789)
1410260245811 6521 RECOMMEND 900
1410260245811 6523 RECOMMEND 900
1410260245902 6521 READING 907 0.879239
1410260245928 6523 READING 660 0.943246
1410260246027 6521 READING 907 0.834148
1410260246142 6521 READING 907 0.935354
1410260246269 6521 READING 907 0.899319
1410260246390 6521 READING 907 0.823267
1410260246499 6521 READING 907 0.890252
1410260246627 6521 READING 907 0.928544
1410260246772 6521 READING 907 0.920057
1410260246870 6521 READING 907 0.886663
1410260246998 6521 READING 907 0.904692
1410260247129 6521 READING 907 0.913787
1410260247231 6521 READING 907 0.872589
1410260247357 6521 READING 907 0.874336
1410260247474 6521 READING 907 0.896250
1410260247601 6521 READING 907 0.905198
1410260247726 6521 READING 907 0.899417
1410260247839 6521 READING 907 0.894858
1410260247973 6521 READING 907 0.910171
1410260248089 6521 READING 907 0.856123
1410260248196 6521 READING 907 0.823162
1410260248298 6521 READING 907 0.887825
1410260248392 6523 READING 661 0.990146
1410260248402 6521 READING 907 0.888241
1410260248533 6521 READING 907 0.910442
1410260248644 6521 READING 907 0.878958
1410260248750 6521 READING 907 0.882425
1410260248867 6521 READING 907 0.906837
1410260248974 6521 READING 907 0.892693
1410260249087 6521 READING 907 0.856464
1410260249197 6521 READING 907 0.928164
1410260249318 6521 READING 907 0.833729
1410260249498 6521 READING 907 0.935438
1410260249596 6521 READING 907 0.879349
1410260249727 6521 READING 907 0.873351
1410260249856 6521 READING 907 0.844596
1410260249998 6521 READING 907 0.919500
1410260250103 6521 READING 907 0.887865
1410260250254 6521 READING 907 0.878959
1410260250390 6521 READING 907 0.943626
1410260250516 6521 READING 907 0.917074
1410260250617 6521 READING 907 0.891836
1410260250712 6521 READING 907 0.856592
1410260250814 6521 READING 907 0.877401
1410260250911 6521 READING 907 0.892293
1410260251027 6521 READING 907 0.900410
1410260251139 6521 READING 907 0.846622
1410260251242 6521 READING 907 0.877139
1410260251376 6521 READING 907 0.872424
1410260251486 6521 READING 907 0.931337
1410260251610 6521 READING 907 0.905320
1410260251741 6521 READING 907 0.870148
1410260251853 6521 READING 907 0.894321
1410260251965 6521 READING 907 0.818408
1410260252090 6521 READING 907 0.905271
1410260252208 6521 READING 907 0.902970
1410260252336 6521 READING 907 0.832342
1410260252475 6521 READING 907 0.917475
1410260252599 6521 READING 907 0.860683
1410260252714 6521 READING 907 0.895607
1410260252834 6521 READING 907 0.905961
1410260252965 6521 READING 907 0.944323
1410260253091 6521 READING 907 0.862414
1410260253140 6523 READING 669 0.994089
1410260253228 6521 READING 907 0.879397
1410260253359 6521 READING 907 0.883117
1410260253490 6521 READING 907 0.881298
1410260253607 6521 READING 907 0.918144
1410260253725 6521 READING 907 0.847677
1410260253857 6521 READING 907 0.827209
1410260254056 6521 READING 907 0.920185
1410260254168 6521 READING 907 0.928148
1410260254289 6521 READING 907 0.940507
1410260254399 6521 READING 907 0.899886
1410260254551 6521 READING 907 0.913794
1410260254655 6521 READING 907 0.912047
1410260254777 6521 READING 907 0.867772
1410260254907 6521 READING 907 0.891795
1410260255019 6521 READING 907 0.900885
1410260255129 6521 READING 907 0.928408
1410260255273 6521 READING 907 0.854505
1410260255380 6521 READING 907 0.861665
1410260255497 6521 READING 907 0.894069
1410260255620 6521 READING 907 0.907071
1410260255738 6521 READING 907 0.885542
1410260255811 6521 FUNCTION lru lambda h: 7414.16 * (h ** 0.001)
1410260255811 6523 FUNCTION lru lambda h: 0.455294 * (h ** 0.119196)
1410260255811 6521 RECOMMEND 900
1410260255811 6523 RECOMMEND 900
1410260255827 6521 READING 907 0.864124
1410260255948 6521 READING 907 0.871325
1410260257102 6521 READING 907 0.087826
1410260257213 6521 READING 850 0.963739
1410260257310 6521 READING 850 0.955235
1410260257457 6521 READING 851 0.943630
1410260257575 6521 READING 851 0.947182
1410260257707 6521 READING 852 0.946878
1410260257825 6521 READING 852 0.921440
1410260257987 6521 READING 853 0.821989
1410260257992 6523 READING 670 0.992446
1410260258228 6521 READING 853 0.952453
1410260258410 6521 READING 854 0.947912
1410260258586 6521 READING 854 0.946243
1410260258803 6521 READING 855 0.969221
1410260259001 6521 READING 855 0.951107
1410260259188 6521 READING 855 0.901862
1410260259427 6521 READING 856 0.959065
1410260259617 6521 READING 856 0.912834
1410260259789 6521 READING 857 0.919389
1410260259984 6521 READING 858 0.897364
1410260260175 6521 READING 858 0.914744
1410260260390 6521 READING 860 0.933324
1410260260587 6521 READING 860 0.925176
1410260260814 6521 READING 861 0.905656
1410260261060 6521 READING 861 0.946446
1410260261295 6521 READING 862 0.941245
1410260261523 6521 READING 862 0.921990
1410260261814 6521 READING 863 0.945520
1410260262056 6521 READING 863 0.947546
1410260262311 6521 READING 864 0.914631
1410260262544 6521 READING 864 0.917668
1410260262810 6521 READING 866 0.921794
1410260262842 6523 READING 670 0.991124
1410260263054 6521 READING 866 0.931907
1410260263327 6521 READING 868 0.930162
1410260263655 6521 READING 868 0.945700
1410260263971 6521 READING 869 0.943362
1410260264269 6521 READING 869 0.934565
1410260264595 6521 READING 871 0.920322
1410260264890 6521 READING 871 0.929812
1410260265267 6521 READING 873 0.953720
1410260265588 6521 READING 873 0.935717
1410260265812 6521 FUNCTION lru lambda h: 871147 * (h ** 0.001)
1410260265812 6523 FUNCTION lru lambda h: 0.433838 * (h ** 0.126823)
1410260265812 6521 RECOMMEND 900
1410260265812 6523 RECOMMEND 900
1410260265930 6521 READING 875 0.939073
1410260266295 6521 READING 875 0.941188
1410260266751 6521 READING 877 0.953077
1410260267114 6521 READING 877 0.925087
1410260267510 6521 READING 879 0.926869
1410260267895 6521 READING 879 0.949664
1410260268079 6523 READING 672 0.993958
1410260268351 6521 READING 881 0.941436
1410260268444 6523 READING 674 0.928608
1410260268593 6523 DEATH
1410260268802 6521 READING 881 0.949193
1410260269250 6521 READING 883 0.967345
1410260269771 6521 READING 883 0.963842
1410260270404 6521 READING 885 0.973134
1410260270904 6521 READING 885 0.958047
1410260271436 6521 READING 886 0.963493
1410260271938 6521 READING 887 0.968660
1410260272491 6521 READING 888 0.961801
1410260273030 6521 READING 889 0.964726
1410260273622 6521 READING 890 0.959882
1410260274180 6521 READING 890 0.955583
1410260274696 6521 READING 892 0.967186
1410260275318 6521 READING 892 0.962091
1410260275812 6521 FUNCTION lru lambda h: 2.11533e+07 * (h ** 0.001)
1410260275812 6521 RECOMMEND 1800
1410260275891 6521 READING 894 0.966766
1410260276442 6521 READING 894 0.955352
1410260277066 6521 READING 896 0.963498
1410260277696 6521 READING 896 0.954994
1410260278276 6521 READING 898 0.966754
1410260278908 6521 READING 898 0.969645
1410260279599 6521 READING 900 0.961912
1410260280363 6521 READING 900 0.966256
1410260281088 6521 READING 902 0.962712
1410260281757 6521 READING 902 0.960203
1410260282481 6521 READING 903 0.964806
1410260283171 6521 READING 904 0.960306
1410260283875 6521 READING 905 0.959679
1410260284589 6521 READING 906 0.970854
1410260285337 6521 READING 907 0.962449
1410260285812 6521 FUNCTION lru lambda h: 1.55211e+08 * (h ** 0.001)
1410260285812 6521 RECOMMEND 1800
1410260286142 6521 READING 908 0.966382
1410260286965 6521 READING 910 0.964759
1410260287696 6521 READING 910 0.961362
1410260288453 6521 READING 912 0.962662
1410260289260 6521 READING 913 0.962936
1410260290159 6521 READING 914 0.968098
1410260291012 6521 READING 915 0.967348
1410260291854 6521 READING 916 0.965756
1410260292670 6521 READING 917 0.961203
1410260293547 6521 READING 919 0.970159
1410260294502 6521 READING 919 0.969823
1410260295438 6521 READING 921 0.970599
1410260295812 6521 FUNCTION lru lambda h: 2.369e+08 * (h ** 0.001)
1410260295812 6521 RECOMMEND 1800
1410260296305 6521 READING 921 0.964520
1410260297269 6521 READING 923 0.968469
1410260298191 6521 READING 924 0.966343
1410260299181 6521 READING 925 0.966937
1410260300379 6521 READING 926 0.976282
1410260301358 6521 READING 928 0.972282
1410260302320 6521 READING 928 0.966812
1410260303433 6521 READING 931 0.971083
1410260304538 6521 READING 931 0.970600
1410260305577 6521 READING 933 0.968932
1410260305813 6521 FUNCTION lru lambda h: 2.98419e+10 * (h ** 0.001)
1410260305813 6521 RECOMMEND 1800
1410260306708 6521 READING 933 0.970917
1410260307797 6521 READING 935 0.969343
1410260308825 6521 READING 936 0.968539
1410260309922 6521 READING 938 0.971676
1410260311029 6521 READING 938 0.969048
1410260312211 6521 READING 940 0.973246
1410260314183 6521 READING 940 0.520440
1410260315362 6521 READING 1003 0.991561
1410260315813 6521 FUNCTION lru lambda h: 1.39983e+11 * (h ** 0.001)
1410260315813 6521 RECOMMEND 1800
1410260316497 6521 READING 1003 0.989400
1410260317697 6521 READING 1006 0.984231
1410260318922 6521 READING 1008 0.988071
1410260320113 6521 READING 1011 0.982370
1410260321414 6521 READING 1011 0.986183
1410260322635 6521 READING 1009 0.980611
1410260323822 6521 READING 1010 0.977352
1410260325155 6521 READING 1008 0.981208
1410260325813 6521 FUNCTION lru lambda h: 6.99215e+12 * (h ** 0.001)
1410260325813 6521 RECOMMEND 1800
1410260326334 6521 READING 1009 0.978762
1410260327607 6521 READING 1010 0.975150
1410260328883 6521 READING 1011 0.975778
1410260330107 6521 READING 1012 0.973147
1410260331360 6521 READING 1014 0.970823
1410260332586 6521 READING 1016 0.962027
1410260333822 6521 READING 1018 0.971066
1410260335112 6521 READING 1022 0.966350
1410260335813 6521 FUNCTION lru lambda h: 2.80902 * (h ** 0.001)
1410260335813 6521 RECOMMEND 1800
1410260336482 6521 READING 1024 0.971797
1410260337863 6521 READING 1027 0.966637
1410260339218 6521 READING 1028 0.971147
1410260340536 6521 READING 1032 0.964313
1410260341925 6521 READING 1032 0.971278
1410260343262 6521 READING 1036 0.970655
1410260344791 6521 READING 1036 0.972994
1410260345814 6521 FUNCTION lru lambda h: 0.0998097 * (h ** 0.320657)
1410260345814 6521 RECOMMEND 1800
1410260346298 6521 READING 1039 0.971130
1410260347844 6521 READING 1040 0.975377
1410260349390 6521 READING 1042 0.975097
1410260350789 6521 READING 1043 0.971376
1410260352304 6521 READING 1046 0.974300
1410260353829 6521 READING 1046 0.969301
1410260355460 6521 READING 1050 0.974509
1410260355814 6521 FUNCTION lru lambda h: 0.0505794 * (h ** 0.420687)
1410260355814 6521 RECOMMEND 1800
1410260357055 6521 READING 1050 0.974271
1410260358784 6521 READING 1053 0.977178
1410260360405 6521 READING 1053 0.968003
1410260362152 6521 READING 1056 0.972736
1410260363995 6521 READING 1057 0.975431
1410260365814 6521 FUNCTION lru lambda h: 0.0441386 * (h ** 0.441594)
1410260365814 6521 RECOMMEND 1800
1410260365917 6521 READING 1060 0.973919
1410260367803 6521 READING 1060 0.975203
1410260369575 6521 READING 1064 0.972378
1410260371416 6521 READING 1064 0.975144
1410260373174 6521 READING 1068 0.972311
1410260375233 6521 READING 1069 0.975266
1410260375814 6521 FUNCTION lru lambda h: 0.0593217 * (h ** 0.399472)
1410260375814 6521 RECOMMEND 1800
1410260377128 6521 READING 1073 0.974978
1410260379010 6521 READING 1073 0.971416
1410260380975 6521 READING 1077 0.975434
1410260382922 6521 READING 1078 0.972313
1410260384984 6521 READING 1082 0.975542
1410260385814 6521 FUNCTION lru lambda h: 0.0601597 * (h ** 0.398568)
1410260385814 6521 RECOMMEND 1800
1410260386936 6521 READING 1083 0.970221
1410260389021 6521 READING 1086 0.972502
1410260391324 6521 READING 1087 0.973242
1410260394563 6521 READING 1091 0.626260
1410260395815 6521 FUNCTION lru lambda h: 0.139957 * (h ** 0.275492)
1410260395815 6521 RECOMMEND 1800
1410260396636 6521 READING 1171 0.994620
1410260398763 6521 READING 1171 0.992500
1410260400894 6521 READING 1176 0.991597
1410260403129 6521 READING 1182 0.986980
1410260405397 6521 READING 1183 0.986338
1410260405815 6521 FUNCTION lru lambda h: 0.115166 * (h ** 0.303785)
1410260405815 6521 RECOMMEND 1800
1410260407619 6521 READING 1184 0.986145
1410260409908 6521 READING 1185 0.983681
1410260412232 6521 READING 1180 0.982318
1410260414438 6521 READING 1183 0.981197
1410260415815 6521 FUNCTION lru lambda h: 0.108333 * (h ** 0.312534)
1410260415815 6521 RECOMMEND 1800
1410260416729 6521 READING 1183 0.980813
1410260418649 6521 READING 1183 0.977812
1410260420063 6521 READING 1186 0.967043
1410260425815 6521 FUNCTION lru lambda h: 0.107969 * (h ** 0.312917)
1410260425815 6521 RECOMMEND 1800
1410260435815 6521 FUNCTION lru lambda h: 0.107969 * (h ** 0.312917)
1410260435815 6521 RECOMMEND 1800
1410260437652 6521 READING 1187 0.913806
1410260442429 6521 READING 1293 0.993017
1410260445816 6521 FUNCTION lru lambda h: 0.122814 * (h ** 0.29402)
1410260445816 6521 RECOMMEND 1800
1410260450870 6521 READING 1329 0.996692
1410260452382 6521 READING 1322 0.945479
1410260455816 6521 FUNCTION lru lambda h: 0.143086 * (h ** 0.271701)
1410260455816 6521 RECOMMEND 1800
1410260457057 6521 READING 1327 0.988412
1410260457299 6521 READING 1351 0.832204
1410260457649 6521 READING 1354 0.865375
1410260457798 6521 READING 1366 0.737691
1410260458094 6521 READING 1366 0.733115
1410260458241 6521 READING 1353 0.639735
1410260458396 6521 READING 1381 0.616746
1410260458554 6521 READING 1401 0.642482
1410260458717 6521 READING 1410 0.613246
1410260459710 6521 READING 1424 0.117916
1410260459830 6521 READING 1311 0.985439
1410260459971 6521 READING 1326 0.983995
1410260460111 6521 READING 1331 0.969206
1410260460262 6521 READING 1353 0.989935
1410260460418 6521 READING 1355 0.989052
1410260460608 6521 READING 1364 0.971085
1410260460673 6521 DEATH
