9 302 65.2 217.0 0.4 2.09761769634 0.0543333333333 0.180833333333 0.000333333333333 0.00174801474695 65.0 218.0 0.0541666666667 0.181666666667
209 102 74.8 210.2 0.4 1.72046505341 0.0623333333333 0.175166666667 0.000333333333333 0.00143372087784 75.0 210.0 0.0625 0.175
409 102 74.8 209.6 0.4 0.489897948557 0.0623333333333 0.174666666667 0.000333333333333 0.000408248290464 75.0 210.0 0.0625 0.175
709 102 74.8 206.6 0.4 4.9638694584 0.0623333333333 0.172166666667 0.000333333333333 0.004136557882 75.0 209.0 0.0625 0.174166666667
