MemTotal:       16318588 kB
MemFree:        11277440 kB
Buffers:          647760 kB
Cached:          3441172 kB
SwapCached:            0 kB
Active:          2540172 kB
Inactive:        2035104 kB
Active(anon):     487144 kB
Inactive(anon):      748 kB
Active(file):    2053028 kB
Inactive(file):  2034356 kB
Unevictable:           0 kB
Mlocked:               0 kB
SwapTotal:      16728060 kB
SwapFree:       16728060 kB
Dirty:               216 kB
Writeback:            24 kB
AnonPages:        486340 kB
Mapped:            17132 kB
Shmem:              1552 kB
Slab:             336564 kB
SReclaimable:     318220 kB
SUnreclaim:        18344 kB
KernelStack:        1576 kB
PageTables:         3936 kB
NFS_Unstable:          0 kB
Bounce:                0 kB
WritebackTmp:          0 kB
CommitLimit:    24887352 kB
Committed_AS:     670064 kB
VmallocTotal:   34359738367 kB
VmallocUsed:      370636 kB
VmallocChunk:   34359363072 kB
HardwareCorrupted:     0 kB
AnonHugePages:    460800 kB
HugePages_Total:       0
HugePages_Free:        0
HugePages_Rsvd:        0
HugePages_Surp:        0
Hugepagesize:       2048 kB
DirectMap4k:       68544 kB
DirectMap2M:    16592896 kB
