MemTotal:       16318588 kB
MemFree:        15719088 kB
Buffers:           80616 kB
Cached:           301624 kB
SwapCached:            0 kB
Active:           113304 kB
Inactive:         318168 kB
Active(anon):      50116 kB
Inactive(anon):      744 kB
Active(file):      63188 kB
Inactive(file):   317424 kB
Unevictable:           0 kB
Mlocked:               0 kB
SwapTotal:      16728060 kB
SwapFree:       16728060 kB
Dirty:               284 kB
Writeback:             0 kB
AnonPages:         49312 kB
Mapped:            17048 kB
Shmem:              1548 kB
Slab:              43920 kB
SReclaimable:      27760 kB
SUnreclaim:        16160 kB
KernelStack:        1648 kB
PageTables:         2976 kB
NFS_Unstable:          0 kB
Bounce:                0 kB
WritebackTmp:          0 kB
CommitLimit:    24887352 kB
Committed_AS:     206272 kB
VmallocTotal:   34359738367 kB
VmallocUsed:      370636 kB
VmallocChunk:   34359363072 kB
HardwareCorrupted:     0 kB
AnonHugePages:     28672 kB
HugePages_Total:       0
HugePages_Free:        0
HugePages_Rsvd:        0
HugePages_Surp:        0
Hugepagesize:       2048 kB
DirectMap4k:       68544 kB
DirectMap2M:    16592896 kB
