F S UID        PID  PPID  C PRI  NI ADDR SZ WCHAN    RSS PSR STIME TTY          TIME CMD
4 S root         1     0  0  80   0 -  8479 poll_s  3192   0 09:56 ?        00:00:00 /sbin/init
1 S root         2     0  0  80   0 -     0 kthrea     0   0 09:56 ?        00:00:00 [kthreadd]
1 S root         3     2  0  80   0 -     0 smpboo     0   0 09:56 ?        00:00:00 [ksoftirqd/0]
1 S root         5     2  0  60 -20 -     0 worker     0   0 09:56 ?        00:00:00 [kworker/0:0H]
1 S root         7     2  0  80   0 -     0 rcu_gp     0   1 09:56 ?        00:00:01 [rcu_sched]
1 S root         8     2  0  80   0 -     0 rcu_no     0   2 09:56 ?        00:00:00 [rcuos/0]
1 S root         9     2  0  80   0 -     0 rcu_no     0   3 09:56 ?        00:00:01 [rcuos/1]
1 S root        10     2  0  80   0 -     0 rcu_no     0   3 09:56 ?        00:00:00 [rcuos/2]
1 S root        11     2  0  80   0 -     0 rcu_no     0   0 09:56 ?        00:00:00 [rcuos/3]
1 S root        12     2  0  80   0 -     0 rcu_gp     0   0 09:56 ?        00:00:00 [rcu_bh]
1 S root        13     2  0  80   0 -     0 rcu_no     0   0 09:56 ?        00:00:00 [rcuob/0]
1 S root        14     2  0  80   0 -     0 rcu_no     0   0 09:56 ?        00:00:00 [rcuob/1]
1 S root        15     2  0  80   0 -     0 rcu_no     0   0 09:56 ?        00:00:00 [rcuob/2]
1 S root        16     2  0  80   0 -     0 rcu_no     0   0 09:56 ?        00:00:00 [rcuob/3]
1 S root        17     2  0 -40   - -     0 smpboo     0   0 09:56 ?        00:00:00 [migration/0]
5 S root        18     2  0 -40   - -     0 smpboo     0   0 09:56 ?        00:00:00 [watchdog/0]
5 S root        19     2  0 -40   - -     0 smpboo     0   1 09:56 ?        00:00:00 [watchdog/1]
1 S root        20     2  0 -40   - -     0 smpboo     0   1 09:56 ?        00:00:00 [migration/1]
1 S root        21     2  0  80   0 -     0 smpboo     0   1 09:56 ?        00:00:00 [ksoftirqd/1]
1 S root        23     2  0  60 -20 -     0 worker     0   1 09:56 ?        00:00:00 [kworker/1:0H]
5 S root        24     2  0 -40   - -     0 smpboo     0   2 09:56 ?        00:00:00 [watchdog/2]
1 S root        25     2  0 -40   - -     0 smpboo     0   2 09:56 ?        00:00:00 [migration/2]
1 S root        26     2  0  80   0 -     0 smpboo     0   2 09:56 ?        00:00:00 [ksoftirqd/2]
1 S root        27     2  0  80   0 -     0 worker     0   2 09:56 ?        00:00:00 [kworker/2:0]
1 S root        28     2  0  60 -20 -     0 worker     0   2 09:56 ?        00:00:00 [kworker/2:0H]
5 S root        29     2  0 -40   - -     0 smpboo     0   3 09:56 ?        00:00:00 [watchdog/3]
1 S root        30     2  0 -40   - -     0 smpboo     0   3 09:56 ?        00:00:00 [migration/3]
1 S root        31     2  0  80   0 -     0 smpboo     0   3 09:56 ?        00:00:00 [ksoftirqd/3]
1 S root        32     2  0  80   0 -     0 worker     0   3 09:56 ?        00:00:00 [kworker/3:0]
1 S root        33     2  0  60 -20 -     0 worker     0   3 09:56 ?        00:00:00 [kworker/3:0H]
1 S root        34     2  0  60 -20 -     0 rescue     0   3 09:56 ?        00:00:00 [khelper]
5 S root        35     2  0  80   0 -     0 devtmp     0   0 09:56 ?        00:00:00 [kdevtmpfs]
1 S root        36     2  0  60 -20 -     0 rescue     0   3 09:56 ?        00:00:00 [netns]
1 S root        37     2  0  60 -20 -     0 rescue     0   3 09:56 ?        00:00:00 [writeback]
1 S root        38     2  0  60 -20 -     0 rescue     0   1 09:56 ?        00:00:00 [kintegrityd]
1 S root        39     2  0  60 -20 -     0 rescue     0   1 09:56 ?        00:00:00 [bioset]
1 S root        40     2  0  60 -20 -     0 worker     0   0 09:56 ?        00:00:00 [kworker/u9:0]
1 S root        41     2  0  60 -20 -     0 rescue     0   2 09:56 ?        00:00:00 [kblockd]
1 S root        42     2  0  60 -20 -     0 rescue     0   2 09:56 ?        00:00:00 [ata_sff]
1 S root        43     2  0  80   0 -     0 hub_th     0   1 09:56 ?        00:00:00 [khubd]
1 S root        44     2  0  60 -20 -     0 rescue     0   2 09:56 ?        00:00:00 [md]
1 S root        45     2  0  60 -20 -     0 rescue     0   3 09:56 ?        00:00:00 [devfreq_wq]
1 S root        46     2  0  80   0 -     0 worker     0   0 09:56 ?        00:00:00 [kworker/0:1]
1 S root        48     2  0  80   0 -     0 watchd     0   1 09:56 ?        00:00:00 [khungtaskd]
1 S root        49     2  0  80   0 -     0 kswapd     0   3 09:56 ?        00:00:00 [kswapd0]
1 S root        50     2  0  85   5 -     0 ksm_sc     0   3 09:56 ?        00:00:00 [ksmd]
1 S root        51     2  0  99  19 -     0 khugep     0   3 09:56 ?        00:00:00 [khugepaged]
1 S root        52     2  0  80   0 -     0 fsnoti     0   0 09:56 ?        00:00:00 [fsnotify_mark]
1 S root        53     2  0  80   0 -     0 ecrypt     0   3 09:56 ?        00:00:00 [ecryptfs-kthrea]
1 S root        54     2  0  60 -20 -     0 rescue     0   3 09:56 ?        00:00:00 [crypto]
1 S root        66     2  0  60 -20 -     0 rescue     0   3 09:56 ?        00:00:00 [kthrotld]
1 S root        68     2  0  80   0 -     0 worker     0   1 09:56 ?        00:00:00 [kworker/1:1]
1 S root        87     2  0  60 -20 -     0 rescue     0   1 09:56 ?        00:00:00 [deferwq]
1 S root        88     2  0  60 -20 -     0 rescue     0   1 09:56 ?        00:00:00 [charger_manager]
1 S root        94     2  0  80   0 -     0 worker     0   3 09:56 ?        00:00:01 [kworker/3:1]
1 S root       136     2  0  60 -20 -     0 rescue     0   1 09:56 ?        00:00:00 [kpsmoused]
1 S root       137     2  0  80   0 -     0 worker     0   0 09:56 ?        00:00:02 [kworker/0:2]
1 S root       138     2  0  80   0 -     0 scsi_e     0   0 09:56 ?        00:00:00 [scsi_eh_0]
1 S root       139     2  0  80   0 -     0 scsi_e     0   0 09:56 ?        00:00:00 [scsi_eh_1]
1 S root       140     2  0  80   0 -     0 scsi_e     0   1 09:56 ?        00:00:00 [scsi_eh_2]
1 S root       141     2  0  80   0 -     0 scsi_e     0   1 09:56 ?        00:00:00 [scsi_eh_3]
1 S root       142     2  0  80   0 -     0 scsi_e     0   1 09:56 ?        00:00:00 [scsi_eh_4]
1 S root       143     2  0  80   0 -     0 scsi_e     0   1 09:56 ?        00:00:00 [scsi_eh_5]
1 S root       166     2  0  60 -20 -     0 rescue     0   2 09:56 ?        00:00:00 [ttm_swap]
1 S root       172     2  0  80   0 -     0 worker     0   0 09:56 ?        00:00:00 [kworker/u8:5]
1 S root       174     2  1  80   0 -     0 worker     0   1 09:56 ?        00:00:03 [kworker/1:2]
1 S root       175     2  0  80   0 -     0 worker     0   2 09:56 ?        00:00:00 [kworker/u8:7]
1 S root       176     2  0  80   0 -     0 worker     0   2 09:56 ?        00:00:03 [kworker/2:1]
1 S root       192     2  0  60 -20 -     0 rescue     0   2 09:56 ?        00:00:00 [kdmflush]
1 S root       193     2  0  60 -20 -     0 rescue     0   0 09:56 ?        00:00:00 [bioset]
1 S root       195     2  0  60 -20 -     0 rescue     0   3 09:56 ?        00:00:00 [kdmflush]
1 S root       196     2  0  60 -20 -     0 rescue     0   1 09:56 ?        00:00:00 [bioset]
1 S root       286     2  0  80   0 -     0 kjourn     0   2 09:56 ?        00:00:00 [jbd2/dm-0-8]
1 S root       287     2  0  60 -20 -     0 rescue     0   3 09:56 ?        00:00:00 [ext4-rsv-conver]
1 S root       455     1  0  80   0 -  4869 poll_s   652   2 09:56 ?        00:00:00 upstart-udev-bridge --daemon
5 S root       460     1  0  80   0 - 12937 ep_pol  1980   3 09:56 ?        00:00:00 /lib/systemd/systemd-udevd --daemon
1 S root       492     2  0   9   - -     0 irq_th     0   2 09:56 ?        00:00:00 [irq/46-mei_me]
1 S root       515     2  0  60 -20 -     0 worker     0   3 09:56 ?        00:00:00 [kworker/u9:1]
1 S root       569     2  0  60 -20 -     0 rescue     0   3 09:56 ?        00:00:00 [kvm-irqfd-clean]
1 S root       571     2  0  60 -20 -     0 rescue     0   1 09:56 ?        00:00:00 [kmpathd]
1 S root       572     2  0  60 -20 -     0 rescue     0   1 09:56 ?        00:00:00 [kmpath_handlerd]
1 S root       609     2  0  60 -20 -     0 rescue     0   3 09:56 ?        00:00:00 [hd-audio0]
1 S root       664     1  0  80   0 -  3848 poll_s   644   0 09:56 ?        00:00:00 upstart-socket-bridge --daemon
1 S root       762     2  0  60 -20 -     0 rescue     0   3 09:56 ?        00:00:00 [ext4-rsv-conver]
1 S root       770     2  0  80   0 -     0 kaudit     0   0 09:56 ?        00:00:00 [kauditd]
4 S root       895     1  0  80   0 - 68176 poll_s  7868   3 09:56 ?        00:00:00 smbd -F
1 S root       987     1  0  80   0 -  3819 poll_s   628   2 09:56 ?        00:00:00 upstart-file-bridge --daemon
5 S syslog    1035     1  0  80   0 - 63961 poll_s  1412   1 09:56 ?        00:00:00 rsyslogd
5 S message+  1041     1  0  80   0 -  9892 ep_pol  1676   2 09:56 ?        00:00:00 dbus-daemon --system --fork
4 S root      1054     1  0  80   0 - 82566 poll_s  4928   3 09:56 ?        00:00:00 /usr/sbin/ModemManager
5 S root      1059     1  0  80   0 -  4823 poll_s  1476   1 09:56 ?        00:00:00 /usr/sbin/bluetoothd
5 S root      1070     2  0  70 -10 -     0 rfcomm     0   0 09:56 ?        00:00:00 [krfcommd]
4 S root      1077     1  0  80   0 - 10863 ep_pol  1840   2 09:56 ?        00:00:00 /lib/systemd/systemd-logind
5 S avahi     1088     1  0  80   0 -  8153 poll_s  2044   2 09:56 ?        00:00:00 avahi-daemon: running [Sulabesi.local]
1 S avahi     1090  1088  0  80   0 -  8056 unix_s   468   1 09:56 ?        00:00:00 avahi-daemon: chroot helper
5 S root      1098     1  0  80   0 - 88100 poll_s  6756   2 09:56 ?        00:00:00 NetworkManager
4 S root      1132     1  0  80   0 - 73631 poll_s  4216   0 09:56 ?        00:00:00 /usr/lib/policykit-1/polkitd --no-debug
5 S root      1134   895  0  80   0 - 68176 poll_s  3892   1 09:56 ?        00:00:00 smbd -F
4 S root      1320     1  0  80   0 -  3955 n_tty_   968   1 09:56 tty4     00:00:00 /sbin/getty -8 38400 tty4
4 S root      1322     1  0  80   0 -  3955 n_tty_   968   1 09:56 tty5     00:00:00 /sbin/getty -8 38400 tty5
4 S root      1330     1  0  80   0 -  3955 n_tty_   964   1 09:56 tty2     00:00:00 /sbin/getty -8 38400 tty2
4 S root      1331     1  0  80   0 -  3955 n_tty_   964   1 09:56 tty3     00:00:00 /sbin/getty -8 38400 tty3
4 S root      1334     1  0  80   0 -  3955 n_tty_   968   1 09:56 tty6     00:00:00 /sbin/getty -8 38400 tty6
4 S root      1352     1  0  80   0 - 15341 poll_s  3064   1 09:56 ?        00:00:00 /usr/sbin/sshd -D
1 S root      1371     1  0  80   0 -  1092 poll_s   700   1 09:56 ?        00:00:00 acpid -c /etc/acpi/events -s /var/run/acpid.socket
1 S root      1386     1  0  80   0 -  5914 hrtime  1020   3 09:56 ?        00:00:00 cron
4 S root      1394     1  0  80   0 - 18338 poll_s  3612   1 09:56 ?        00:00:00 /usr/sbin/cups-browsed
4 S root      1403     1  0  80   0 - 33230 poll_s  4124   3 09:56 ?        00:00:00 mdm
5 S root      1408     1  0  80   0 -  4797 hrtime   744   2 09:56 ?        00:00:00 /usr/sbin/irqbalance
1 S dictd     1538     1  0  80   0 - 13072 inet_c  8884   1 09:56 ?        00:00:00 dictd 1.12.1: 0/0
1 S kernoops  1556     1  0  80   0 -  9286 poll_s  1012   0 09:56 ?        00:00:00 /usr/sbin/kerneloops
1 S root      1578     2  0  60 -20 -     0 rescue     0   1 09:56 ?        00:00:00 [iprt]
4 S root      1649     1  0  80   0 -  3955 n_tty_   964   0 09:56 tty1     00:00:00 /sbin/getty -8 38400 tty1
5 S root      1656  1403  0  80   0 - 48315 pipe_w  4564   1 09:56 ?        00:00:00 mdm
4 S root      1663  1656 28  80   0 - 54581 poll_s 31924   1 09:56 tty7     00:01:34 /usr/bin/X :0 -audit 0 -auth /var/lib/mdm/:0.Xauth -nolisten tcp vt7
4 S mdm       1678  1656 16  80   0 - 605310 poll_s 93000  2 09:56 ?        00:00:54 /usr/lib/mdm/mdmwebkit
4 S root      1680  1098  0  80   0 -  2558 poll_s  3708   1 09:57 ?        00:00:00 /sbin/dhclient -d -sf /usr/lib/NetworkManager/nm-dhcp-client.action -pf /run/sendsigs.omit.d/network-manager.dhclient-eth0.pid -lf /var/lib/NetworkManager/dhclient-057fcb2a-930a-40af-b400-257d65e25cd1-eth0.lease -cf /var/lib/NetworkManager/dhclient-eth0.conf eth0
4 S nobody    1690  1098  0  80   0 -  7758 poll_s  1540   1 09:57 ?        00:00:00 /usr/sbin/dnsmasq --no-resolv --keep-in-foreground --no-hosts --bind-interfaces --pid-file=/run/sendsigs.omit.d/network-manager.dnsmasq.pid --listen-address=127.0.1.1 --conf-file=/var/run/NetworkManager/dnsmasq.conf --cache-size=0 --proxy-dnssec --enable-dbus=org.freedesktop.NetworkManager.dnsmasq --conf-dir=/etc/NetworkManager/dnsmasq.d
5 S root      1836     1  0  80   0 - 47862 poll_s  2784   3 09:57 ?        00:00:00 nmbd -D
1 S mdm       1867     1  0  80   0 -  6143 poll_s   592   2 09:57 ?        00:00:00 dbus-launch --autolaunch=c5eecb21099843cdb66b8a3e53a16a25 --binary-syntax --close-stderr
1 S mdm       1870     1  0  80   0 -  9779 ep_pol  1004   3 09:57 ?        00:00:00 //bin/dbus-daemon --fork --print-pid 5 --print-address 7 --session
4 S root      1943     1  0  80   0 - 18998 ep_pol  5256   3 09:57 ?        00:00:00 /usr/sbin/cupsd -f
4 S colord    1947     1  0  80   0 - 77762 poll_s  8316   3 09:57 ?        00:00:00 /usr/lib/colord/colord
4 S root      1961  1352  0  80   0 - 32008 poll_s  4712   1 09:58 ?        00:00:00 sshd: callum [priv] 
4 S root      1964     1  0  80   0 - 525107 poll_s 4024   2 09:58 ?        00:00:00 /usr/sbin/console-kit-daemon --no-daemon
5 S callum    2097  1961  0  80   0 - 32008 poll_s  2072   1 09:58 ?        00:00:00 sshd: callum@pts/2  
0 S callum    2098  2097  0  80   0 - 11737 sigsus  6784   2 09:58 pts/2    00:00:00 -zsh
4 S root      2887  1352  0  80   0 - 32008 poll_s  4712   3 10:00 ?        00:00:00 sshd: callum [priv] 
5 S callum    2916  2887  0  80   0 - 32042 poll_s  2220   1 10:00 ?        00:00:00 sshd: callum@pts/3  
0 S callum    2917  2916  0  80   0 -  1111 n_tty_   728   2 10:00 pts/3    00:00:00 /bin/sh
0 S callum    3166  2098  0  80   0 -  6733 pause   1108   2 10:02 pts/2    00:00:00 screen
1 S callum    3167  3166  0  80   0 -  6799 poll_s  1444   3 10:02 ?        00:00:00 SCREEN
0 S callum    3168  3167  0  80   0 - 11680 sigsus  6520   3 10:02 pts/5    00:00:00 /bin/zsh
0 S callum    3304  3168  1  80   0 - 45676 futex_  5488   2 10:02 pts/5    00:00:00 ./cgroup_overhead_calculator -r 5 jbb_input.csv 500
0 R callum    3343  3304  0  80   0 -  4615 -       1296   0 10:02 pts/5    00:00:00 ps -elFww
