1413000715657 0 TOTAL_MEM 3312
1413000735711 1258 CREATION
1413000735711 1258 READING 9 0.986818
1413000735711 1258 MINHEAP 2
1413000735711 1258 MINHEAP 276
1413000735711 1259 CREATION
1413000735711 1259 READING 9 0.986154
1413000735711 1259 MINHEAP 2
1413000735711 1259 MINHEAP 276
1413000735758 1259 READING 9 0.984252
1413000735765 1258 READING 9 0.985702
1413000735811 1259 READING 11 0.981122
1413000735818 1258 READING 11 0.980106
1413000735909 1259 READING 11 0.974637
1413000735925 1258 READING 11 0.970924
1413000736097 1259 READING 15 0.899272
1413000736173 1258 READING 15 0.883383
1413000736193 1259 READING 19 0.902262
1413000736283 1259 READING 23 0.793047
1413000736297 1258 READING 19 0.918217
1413000736449 1259 READING 27 0.768341
1413000736453 1258 READING 23 0.844586
1413000736671 1258 READING 26 0.751638
1413000736674 1259 READING 27 0.648412
1413000736757 1259 READING 37 0.401167
1413000736791 1258 READING 37 0.852777
1413000736830 1259 READING 43 0.306756
1413000736893 1258 READING 40 0.864409
1413000736901 1259 READING 43 0.796775
1413000736953 1258 READING 40 0.692237
1413000737018 1258 READING 41 0.433863
1413000737107 1258 READING 44 0.098789
1413000737165 1258 READING 46 0.790431
1413000737278 1259 READING 47 0.500664
1413000737395 1259 READING 62 0.783930
1413000737448 1258 READING 52 0.637050
1413000737466 1259 READING 68 0.820715
1413000737516 1258 READING 67 0.675586
1413000737691 1259 READING 70 0.531602
1413000737769 1259 READING 90 0.741026
1413000737797 1258 READING 73 0.256788
1413000737861 1259 READING 94 0.699854
1413000737865 1258 READING 94 0.214317
1413000737941 1258 READING 97 0.316069
1413000738010 1259 READING 97 0.617077
1413000738056 1258 READING 98 0.151425
1413000738347 1259 READING 99 0.385123
1413000738390 1258 READING 101 0.387429
1413000738447 1259 READING 130 0.632799
1413000738493 1258 READING 130 0.196760
1413000738541 1259 READING 132 0.649001
1413000738593 1258 READING 137 0.284590
1413000738633 1259 READING 136 0.683868
1413000738676 1258 READING 137 0.709735
1413000738742 1259 READING 139 0.687352
1413000738772 1258 READING 141 0.737904
1413000738873 1258 READING 146 0.659657
1413000738993 1258 READING 148 0.605272
1413000739132 1259 READING 145 0.423609
1413000739291 1259 READING 179 0.532280
1413000739440 1259 READING 187 0.650279
1413000739460 1258 READING 154 0.423994
1413000739557 1259 READING 189 0.627427
1413000739569 1258 READING 192 0.542858
1413000739676 1259 READING 192 0.579040
1413000739968 1258 READING 195 0.257592
1413000740077 1258 READING 234 0.629270
1413000740514 1259 READING 200 0.527525
1413000740666 1258 READING 235 0.897620
1413000741065 1259 READING 240 0.850285
1413000741137 1258 READING 237 0.880792
1413000741324 1259 READING 245 0.783647
1413000741362 1258 READING 238 0.853896
1413000741417 1259 READING 251 0.749536
1413000741617 1258 READING 242 0.800383
1413000741677 1259 READING 254 0.784135
1413000741741 1258 READING 244 0.805962
1413000741864 1259 READING 260 0.783164
1413000741898 1258 READING 249 0.761403
1413000742056 1259 READING 260 0.792044
1413000742088 1258 READING 251 0.823812
1413000742214 1259 READING 263 0.804689
1413000742255 1258 READING 255 0.827320
1413000742343 1258 READING 257 0.778118
1413000742395 1259 READING 264 0.812457
1413000742433 1258 READING 262 0.756037
1413000742521 1259 READING 265 0.734129
1413000742531 1258 READING 266 0.697827
1413000742645 1258 READING 272 0.621613
1413000742646 1259 READING 269 0.681414
1413000742734 1258 READING 274 0.663994
1413000742763 1259 READING 277 0.712487
1413000743265 1258 READING 279 0.872167
1413000743368 1258 READING 279 0.823532
1413000743407 1259 READING 277 0.631509
1413000743995 1259 READING 310 0.833604
1413000744077 1258 READING 282 0.698176
1413000744123 1259 READING 314 0.820621
1413000744198 1258 READING 326 0.706105
1413000744243 1259 READING 312 0.807923
1413000744299 1258 READING 330 0.750667
1413000744355 1259 READING 314 0.813461
1413000744508 1259 READING 320 0.748346
1413000744513 1258 READING 331 0.791392
1413000744729 1258 READING 333 0.822321
1413000744800 1259 READING 320 0.872702
1413000744873 1258 READING 335 0.773799
1413000745017 1258 READING 340 0.614553
1413000745131 1258 READING 340 0.591114
1413000745278 1258 READING 348 0.654044
1413000745401 1258 READING 348 0.614045
1413000745532 1259 READING 324 0.613455
1413000745657 1258 FUNCTION lru lambda h: 0.548233 * (h ** 0.0183312)
1413000745657 1259 FUNCTION lru lambda h: 0.774561 * (h ** 0.001)
1413000745658 1258 RECOMMEND 3036
1413000745658 1259 RECOMMEND 276
1413000745703 1259 READING 367 0.676587
1413000745810 1259 READING 371 0.686471
1413000745847 1258 READING 357 0.813431
1413000745939 1259 READING 324 0.687159
1413000746051 1259 READING 367 0.681496
1413000746169 1259 READING 324 0.667545
1413000747490 1259 READING 360 0.938875
1413000747709 1258 READING 357 0.943769
1413000748803 1259 READING 326 0.964997
1413000748960 1258 READING 360 0.958755
1413000749950 1259 READING 353 0.957599
1413000750494 1258 READING 363 0.961094
1413000751069 1259 READING 329 0.963669
1413000751875 1258 READING 367 0.969612
1413000752083 1259 READING 347 0.960585
1413000753189 1258 READING 368 0.964075
1413000753196 1259 READING 326 0.961862
1413000754288 1259 READING 342 0.959656
1413000754804 1258 READING 368 0.970415
1413000755353 1259 READING 328 0.962824
1413000755658 1258 FUNCTION lru lambda h: 0.470484 * (h ** 0.0577444)
1413000755658 1259 FUNCTION lru lambda h: 0.647449 * (h ** 0.0217095)
1413000755660 1258 RECOMMEND 2407
1413000755660 1259 RECOMMEND 905
1413000756108 1258 READING 370 0.970904
1413000756261 1259 READING 342 0.952561
1413000757265 1259 READING 342 0.949016
1413000757525 1258 READING 367 0.974984
1413000758355 1259 READING 345 0.954323
1413000759110 1258 READING 370 0.967591
1413000759203 1259 READING 345 0.962045
1413000760323 1259 READING 345 0.963706
1413000760662 1258 READING 371 0.974771
1413000761491 1259 READING 346 0.967046
1413000762141 1258 READING 372 0.975367
1413000762594 1259 READING 345 0.968719
1413000763617 1259 READING 346 0.965233
1413000763693 1258 READING 376 0.976640
1413000764625 1259 READING 345 0.971176
1413000765660 1258 FUNCTION lru lambda h: 0.427005 * (h ** 0.0825737)
1413000765660 1259 FUNCTION lru lambda h: 0.625213 * (h ** 0.0308459)
1413000765662 1258 RECOMMEND 2411
1413000765662 1259 RECOMMEND 901
1413000765789 1258 READING 376 0.964478
1413000766129 1259 READING 346 0.925711
1413000767327 1258 READING 374 0.971884
1413000767496 1258 READING 380 0.960318
1413000767615 1258 READING 377 0.941718
1413000767757 1258 READING 381 0.883503
1413000767811 1259 READING 381 0.355136
1413000767892 1258 READING 389 0.855819
1413000768573 1259 READING 382 0.982899
1413000768741 1259 READING 386 0.967681
1413000768837 1259 READING 387 0.945516
1413000768930 1259 READING 391 0.917884
1413000769025 1259 READING 393 0.883545
1413000769126 1259 READING 400 0.860486
1413000769601 1259 READING 401 0.937532
1413000769744 1258 READING 390 0.931538
1413000770867 1259 READING 409 0.976523
1413000771542 1258 READING 425 0.983702
1413000772203 1259 READING 410 0.983507
1413000773101 1258 READING 427 0.988420
1413000773701 1259 READING 414 0.984884
1413000774707 1258 READING 437 0.989489
1413000774989 1259 READING 415 0.984094
1413000775662 1258 FUNCTION lru lambda h: 0.370982 * (h ** 0.117918)
1413000775662 1259 FUNCTION lru lambda h: 0.567299 * (h ** 0.0550407)
1413000775663 1258 RECOMMEND 2258
1413000775663 1259 RECOMMEND 1054
1413000776349 1258 READING 438 0.988726
1413000776543 1259 READING 415 0.984906
1413000777881 1259 READING 417 0.983397
1413000778201 1258 READING 439 0.988603
1413000779345 1259 READING 415 0.982476
1413000779979 1258 READING 442 0.987617
1413000780672 1259 READING 417 0.978835
1413000781837 1258 READING 436 0.986572
1413000782113 1259 READING 417 0.981616
1413000783794 1258 READING 440 0.977438
1413000783796 1259 READING 418 0.600817
1413000785271 1259 READING 418 0.857303
1413000785663 1258 FUNCTION lru lambda h: 0.346682 * (h ** 0.134475)
1413000785663 1259 FUNCTION lru lambda h: 0.563222 * (h ** 0.0568245)
1413000785664 1258 RECOMMEND 2328
1413000785664 1259 RECOMMEND 984
1413000785750 1258 READING 437 0.980432
1413000786726 1259 READING 419 0.889402
1413000788281 1258 READING 438 0.983097
1413000788694 1258 READING 439 0.977000
1413000788730 1259 READING 421 0.984188
1413000788842 1258 READING 441 0.961535
1413000788961 1259 READING 423 0.519808
1413000788988 1258 READING 446 0.941631
1413000789085 1259 READING 420 0.959975
1413000789211 1259 READING 424 0.936834
1413000789340 1259 READING 431 0.908568
1413000789602 1258 READING 449 0.956519
1413000790449 1259 READING 433 0.974694
1413000791892 1258 READING 454 0.983430
1413000792007 1259 READING 441 0.983172
1413000793646 1259 READING 442 0.984818
1413000793886 1258 READING 457 0.987822
1413000795605 1259 READING 445 0.986586
1413000795664 1258 FUNCTION lru lambda h: 0.33046 * (h ** 0.146105)
1413000795664 1259 FUNCTION lru lambda h: 0.532718 * (h ** 0.0703997)
1413000795665 1258 RECOMMEND 2235
1413000795665 1259 RECOMMEND 1077
1413000795993 1258 READING 453 0.987280
1413000797384 1259 READING 447 0.986086
1413000798015 1258 READING 457 0.986578
1413000799222 1259 READING 446 0.985462
1413000800030 1258 READING 453 0.985451
1413000800990 1259 READING 449 0.985178
1413000802061 1258 READING 456 0.983951
1413000802919 1259 READING 448 0.983856
1413000804227 1258 READING 456 0.983193
1413000804741 1259 READING 450 0.983455
1413000805665 1258 FUNCTION lru lambda h: 0.324464 * (h ** 0.150535)
1413000805665 1259 FUNCTION lru lambda h: 0.512157 * (h ** 0.079891)
1413000805666 1258 RECOMMEND 2164
1413000805666 1259 RECOMMEND 1148
1413000806065 1258 READING 458 0.983352
1413000806465 1259 READING 453 0.983251
1413000808686 1258 READING 460 0.987822
1413000808745 1259 READING 453 0.981859
1413000808952 1258 READING 460 0.980656
1413000809111 1258 READING 462 0.968878
1413000809208 1259 READING 456 0.977719
1413000809273 1258 READING 463 0.957747
1413000809360 1259 READING 456 0.965559
1413000809515 1259 READING 461 0.944053
1413000810149 1259 READING 462 0.961832
1413000811452 1258 READING 471 0.987642
1413000812683 1259 READING 471 0.987198
1413000814083 1258 READING 471 0.989892
1413000815005 1259 READING 472 0.990886
1413000815666 1258 FUNCTION lru lambda h: 0.312365 * (h ** 0.159677)
1413000815666 1259 FUNCTION lru lambda h: 0.493891 * (h ** 0.088546)
1413000815667 1258 RECOMMEND 2131
1413000815667 1259 RECOMMEND 1181
1413000816441 1258 READING 473 0.989549
1413000817149 1259 READING 476 0.990550
1413000818670 1258 READING 476 0.988645
1413000819125 1259 READING 478 0.989054
1413000821124 1258 READING 474 0.990194
1413000821385 1259 READING 478 0.988490
1413000823482 1259 READING 480 0.988050
1413000823643 1258 READING 477 0.988995
1413000825667 1258 FUNCTION lru lambda h: 0.303837 * (h ** 0.166279)
1413000825667 1259 FUNCTION lru lambda h: 0.485191 * (h ** 0.0927303)
1413000825668 1258 RECOMMEND 2126
1413000825668 1259 RECOMMEND 1186
1413000825864 1259 READING 480 0.986864
1413000826445 1258 READING 476 0.988402
1413000828140 1259 READING 481 0.986314
1413000829373 1258 READING 477 0.990615
1413000830126 1258 READING 478 0.986907
1413000830126 1259 READING 484 0.984937
1413000830305 1258 READING 479 0.976304
1413000830332 1259 READING 485 0.977067
1413000830503 1259 READING 485 0.965511
1413000830589 1258 READING 482 0.970854
1413000831503 1259 READING 488 0.977303
1413000832959 1258 READING 484 0.985499
1413000833982 1259 READING 496 0.987757
1413000835669 1258 FUNCTION lru lambda h: 0.297116 * (h ** 0.171593)
1413000835669 1259 FUNCTION lru lambda h: 0.473375 * (h ** 0.0984964)
1413000835670 1258 RECOMMEND 2104
1413000835670 1259 RECOMMEND 1208
1413000835692 1258 READING 488 0.989775
1413000836317 1259 READING 497 0.988791
1413000838457 1258 READING 490 0.990476
1413000838711 1259 READING 498 0.989605
1413000840983 1258 READING 489 0.988930
1413000841149 1259 READING 501 0.989093
1413000843505 1258 READING 491 0.988886
1413000843585 1259 READING 500 0.988760
1413000845670 1258 FUNCTION lru lambda h: 0.290981 * (h ** 0.176518)
1413000845670 1259 FUNCTION lru lambda h: 0.464735 * (h ** 0.102765)
1413000845672 1258 RECOMMEND 2093
1413000845672 1259 RECOMMEND 1219
1413000846144 1258 READING 492 0.988681
1413000846201 1259 READING 502 0.987645
1413000848595 1259 READING 504 0.986874
1413000848874 1258 READING 492 0.987437
1413000850645 1258 READING 494 0.984858
1413000850652 1259 READING 505 0.986529
1413000850832 1258 READING 496 0.977864
1413000850881 1259 READING 510 0.977888
1413000851039 1258 READING 499 0.970744
1413000851078 1259 READING 510 0.964009
1413000853066 1259 READING 517 0.983841
1413000854392 1258 READING 501 0.989188
1413000855672 1258 FUNCTION lru lambda h: 0.233355 * (h ** 0.216265)
1413000855672 1259 FUNCTION lru lambda h: 0.234274 * (h ** 0.221796)
1413000855673 1258 RECOMMEND 1635
1413000855673 1259 RECOMMEND 1677
1413000855817 1259 READING 519 0.989642
1413000857052 1258 READING 505 0.990147
1413000858455 1259 READING 523 0.990200
1413000859824 1258 READING 507 0.990422
1413000861408 1259 READING 525 0.990812
1413000862609 1258 READING 507 0.990068
1413000864269 1259 READING 524 0.991689
1413000865337 1258 READING 509 0.989348
1413000865674 1258 FUNCTION lru lambda h: 0.111863 * (h ** 0.343795)
1413000865674 1259 FUNCTION lru lambda h: 0.161726 * (h ** 0.285312)
1413000865675 1258 RECOMMEND 1810
1413000865675 1259 RECOMMEND 1502
1413000866987 1259 READING 527 0.989950
1413000868067 1258 READING 509 0.988521
1413000869814 1259 READING 530 0.988919
1413000871183 1258 READING 510 0.990815
1413000871478 1258 READING 512 0.984717
1413000871701 1258 READING 513 0.964109
1413000871707 1259 READING 530 0.986232
1413000871909 1259 READING 534 0.981248
1413000872267 1259 READING 536 0.976957
1413000873962 1258 READING 519 0.985455
1413000875578 1259 READING 543 0.990500
1413000875675 1258 FUNCTION lru lambda h: 0.0351586 * (h ** 0.54095)
1413000875676 1259 FUNCTION lru lambda h: 0.0877825 * (h ** 0.387733)
1413000875676 1258 RECOMMEND 1929
1413000875676 1259 RECOMMEND 1383
1413000876875 1258 READING 521 0.989863
1413000878525 1259 READING 544 0.990984
1413000879835 1258 READING 525 0.990569
1413000881394 1259 READING 545 0.990617
1413000883009 1258 READING 527 0.990810
1413000884194 1259 READING 547 0.989763
1413000885676 1258 FUNCTION lru lambda h: 0.0282242 * (h ** 0.577729)
1413000885677 1259 FUNCTION lru lambda h: 0.0779899 * (h ** 0.407292)
1413000885677 1258 RECOMMEND 1943
1413000885677 1259 RECOMMEND 1369
1413000886298 1258 READING 526 0.990091
1413000887434 1259 READING 547 0.990172
1413000889307 1258 READING 529 0.989367
1413000890183 1259 READING 548 0.988478
1413000892173 1259 READING 550 0.988465
1413000892307 1258 READING 532 0.991098
1413000892396 1259 READING 552 0.981484
1413000892554 1258 READING 533 0.985208
1413000892988 1258 READING 534 0.983212
1413000893464 1259 READING 556 0.980773
1413000895678 1258 FUNCTION lru lambda h: 0.0179143 * (h ** 0.653537)
1413000895678 1259 FUNCTION lru lambda h: 0.0522168 * (h ** 0.473204)
1413000895678 1258 RECOMMEND 1921
1413000895678 1259 RECOMMEND 1391
1413000896288 1258 READING 536 0.992509
1413000896522 1259 READING 557 0.989144
1413000899706 1259 READING 560 0.990705
1413000899706 1258 READING 538 0.988540
1413000902994 1258 READING 540 0.991409
1413000903096 1259 READING 562 0.990828
1413000905678 1258 FUNCTION lru lambda h: 0.0505105 * (h ** 0.481059)
1413000905678 1259 FUNCTION lru lambda h: 0.0742357 * (h ** 0.415015)
1413000905679 1258 RECOMMEND 1778
1413000905679 1259 RECOMMEND 1534
1413000906270 1258 READING 539 0.990900
1413000906476 1259 READING 562 0.990817
1413000909390 1259 READING 564 0.983618
1413000909405 1258 READING 541 0.983212
1413000912485 1259 READING 566 0.988353
1413000912761 1259 READING 567 0.983016
1413000913005 1258 READING 543 0.987396
1413000913006 1259 READING 567 0.974711
1413000913335 1258 READING 544 0.982942
1413000913566 1258 READING 544 0.977975
1413000915679 1258 FUNCTION lru lambda h: 0.0372184 * (h ** 0.530887)
1413000915679 1259 FUNCTION lru lambda h: 0.111313 * (h ** 0.348449)
1413000915682 1258 RECOMMEND 2000
1413000915682 1259 RECOMMEND 1312
1413000916380 1259 READING 570 0.990431
1413000916785 1258 READING 547 0.989525
1413000919947 1259 READING 575 0.993089
1413000920600 1258 READING 550 0.992068
1413000923306 1259 READING 577 0.992578
1413000924129 1258 READING 552 0.991246
1413000925682 1258 FUNCTION lru lambda h: 0.0981801 * (h ** 0.371481)
1413000925682 1259 FUNCTION lru lambda h: 0.10257 * (h ** 0.361564)
1413000925683 1258 RECOMMEND 1678
1413000925683 1259 RECOMMEND 1634
1413000926795 1259 READING 577 0.991919
1413000927570 1258 READING 552 0.991278
1413000929881 1259 READING 580 0.991695
1413000930858 1258 READING 554 0.990415
1413000932971 1259 READING 584 0.992629
1413000933257 1259 READING 585 0.985530
1413000934039 1259 READING 586 0.983843
1413000934316 1258 READING 557 0.992267
1413000934609 1258 READING 558 0.987007
1413000935269 1258 READING 556 0.982821
1413000935683 1258 FUNCTION lru lambda h: 0.0837496 * (h ** 0.396963)
1413000935683 1259 FUNCTION lru lambda h: 0.0951182 * (h ** 0.373416)
1413000935684 1258 RECOMMEND 1707
1413000935684 1259 RECOMMEND 1605
1413000937457 1259 READING 589 0.990575
1413000938684 1258 READING 559 0.990442
1413000940865 1259 READING 593 0.991812
1413000942139 1258 READING 562 0.989996
1413000944347 1259 READING 594 0.991967
1413000945621 1258 READING 564 0.990734
1413000945684 1258 FUNCTION lru lambda h: 0.0760824 * (h ** 0.41225)
1413000945684 1259 FUNCTION lru lambda h: 0.136085 * (h ** 0.315262)
1413000945685 1258 RECOMMEND 1877
1413000945685 1259 RECOMMEND 1435
1413000948376 1259 READING 595 0.992034
1413000949431 1258 READING 564 0.992029
1413000952333 1259 READING 596 0.991678
1413000952864 1258 READING 565 0.990864
1413000953369 1259 READING 599 0.988977
1413000953630 1259 READING 601 0.981897
1413000955095 1258 READING 568 0.990355
1413000955341 1258 READING 569 0.984548
1413000955685 1258 FUNCTION lru lambda h: 0.0645718 * (h ** 0.438479)
1413000955685 1259 FUNCTION lru lambda h: 0.155449 * (h ** 0.293558)
1413000955685 1258 RECOMMEND 1984
1413000955686 1259 RECOMMEND 1328
1413000956827 1259 READING 606 0.989873
1413000958041 1258 READING 573 0.988390
1413000960814 1259 READING 608 0.991690
1413000961594 1258 READING 575 0.990963
1413000964856 1259 READING 611 0.992808
1413000965340 1258 READING 577 0.992061
1413000965686 1258 FUNCTION lru lambda h: 0.0880595 * (h ** 0.387974)
1413000965686 1259 FUNCTION lru lambda h: 0.271081 * (h ** 0.204507)
1413000965687 1258 RECOMMEND 2169
1413000965687 1259 RECOMMEND 1143
1413000968830 1259 READING 613 0.993428
1413000968893 1258 READING 579 0.991589
1413000972303 1258 READING 578 0.990693
1413000972478 1259 READING 614 0.991338
1413000974524 1259 READING 615 0.990132
1413000974802 1259 READING 617 0.984186
1413000975407 1258 READING 580 0.991066
1413000975671 1258 READING 581 0.986014
1413000975688 1258 FUNCTION lru lambda h: 0.14449 * (h ** 0.307794)
1413000975688 1259 FUNCTION lru lambda h: 0.227876 * (h ** 0.232022)
1413000975689 1258 RECOMMEND 1888
1413000975689 1259 RECOMMEND 1424
1413000977667 1258 READING 583 0.989896
1413000977913 1259 READING 619 0.989766
1413000981832 1258 READING 589 0.992828
1413000981877 1259 READING 626 0.991321
1413000985689 1258 FUNCTION lru lambda h: 0.185625 * (h ** 0.267416)
1413000985689 1259 FUNCTION lru lambda h: 0.18921 * (h ** 0.2616)
1413000985690 1258 RECOMMEND 1674
1413000985690 1259 RECOMMEND 1638
1413000985939 1258 READING 590 0.992964
1413000985997 1259 READING 627 0.992158
1413000989712 1258 READING 590 0.992403
1413000990340 1259 READING 627 0.991306
1413000993768 1258 READING 592 0.991774
1413000994560 1259 READING 630 0.992929
1413000995416 1259 READING 631 0.989794
1413000995690 1258 FUNCTION lru lambda h: 0.234153 * (h ** 0.230038)
1413000995690 1259 FUNCTION lru lambda h: 0.147277 * (h ** 0.30128)
1413000995691 1258 RECOMMEND 1434
1413000995691 1259 RECOMMEND 1878
1413000996085 1259 READING 632 0.987386
1413000996974 1258 READING 595 0.991550
1413000997241 1258 READING 595 0.986668
1413000999942 1258 READING 599 0.990072
1413001000697 1259 READING 639 0.992548
1413001003962 1258 READING 601 0.992279
1413001004797 1259 READING 639 0.993252
1413001005691 1258 FUNCTION lru lambda h: 0.57899 * (h ** 0.0850066)
1413001005691 1259 FUNCTION lru lambda h: 0.315206 * (h ** 0.180364)
1413001005692 1258 RECOMMEND 1061
1413001005692 1259 RECOMMEND 2251
1413001007899 1258 READING 603 0.991624
1413001008879 1259 READING 639 0.992940
1413001012624 1258 READING 605 0.992441
1413001013199 1259 READING 641 0.992654
1413001015692 1258 FUNCTION lru lambda h: 0.577509 * (h ** 0.0853847)
1413001015692 1259 FUNCTION lru lambda h: 0.306267 * (h ** 0.184871)
1413001015693 1258 RECOMMEND 1046
1413001015693 1259 RECOMMEND 2266
1413001016202 1259 READING 643 0.992321
1413001016502 1259 READING 644 0.986070
1413001016543 1258 READING 605 0.991612
1413001016604 1259 DEATH 196
1413001018565 1258 READING 606 0.990882
1413001018830 1258 READING 609 0.988459
1413001018855 1258 DEATH 185
