economemd
    total memory: 4940 MB
    timer interval: 10 s
    timer start state: running
    utility model: root

    caches:
        lru

    force utility function validity: yes
    make recommendations: yes
    equal recommendations: yes

    reading receiver name: simple
    command receiver name: simple

    dump file: economemd.dump.log
    log file: /home/callum/economics_memory_code/dynamic_sizing/data/output/timerComparisonMany_2014_10_07_10_29_12/sub7_timerComparisonSingle/sub2_timeBenchmarkDaemonEqual/daemon_run10_log.txt
    log readings: yes
    log functions: yes

PyOptimiser: initialising...
PyOptimiser: initialised
CommandThread: starting
TimerThread: starting
ReadingThread: starting
Recommendation: no clients; no recommendation
Recommendation: no clients; no recommendation
Reading from 13311: heap size 9 MB, throughput 0.988065
Clients: 1
Client 13311 has a minimum heap size of 12 MB
Reading from 13310: heap size 9 MB, throughput 0.991377
Clients: 2
Client 13310 has a minimum heap size of 1223 MB
Reading from 13310: heap size 9 MB, throughput 0.964875
Reading from 13311: heap size 9 MB, throughput 0.991506
Reading from 13310: heap size 9 MB, throughput 0.95945
Reading from 13311: heap size 9 MB, throughput 0.944014
Reading from 13310: heap size 9 MB, throughput 0.963738
Reading from 13311: heap size 9 MB, throughput 0.982092
Reading from 13311: heap size 11 MB, throughput 0.978528
Reading from 13310: heap size 11 MB, throughput 0.984966
Reading from 13311: heap size 11 MB, throughput 0.980215
Reading from 13310: heap size 11 MB, throughput 0.983771
Reading from 13310: heap size 17 MB, throughput 0.95835
Reading from 13311: heap size 16 MB, throughput 0.991786
Reading from 13310: heap size 17 MB, throughput 0.650075
Reading from 13310: heap size 30 MB, throughput 0.972033
Reading from 13311: heap size 16 MB, throughput 0.939589
Reading from 13310: heap size 31 MB, throughput 0.936995
Reading from 13310: heap size 34 MB, throughput 0.489936
Reading from 13310: heap size 47 MB, throughput 0.865364
Reading from 13311: heap size 24 MB, throughput 0.914918
Reading from 13310: heap size 49 MB, throughput 0.810035
Reading from 13310: heap size 50 MB, throughput 0.793188
Reading from 13311: heap size 30 MB, throughput 0.98372
Reading from 13310: heap size 56 MB, throughput 0.202387
Reading from 13310: heap size 71 MB, throughput 0.74393
Reading from 13310: heap size 79 MB, throughput 0.867444
Reading from 13311: heap size 35 MB, throughput 0.99001
Reading from 13311: heap size 40 MB, throughput 0.986918
Reading from 13310: heap size 80 MB, throughput 0.160632
Reading from 13310: heap size 109 MB, throughput 0.734849
Reading from 13311: heap size 42 MB, throughput 0.975469
Reading from 13311: heap size 42 MB, throughput 0.98336
Reading from 13310: heap size 110 MB, throughput 0.286886
Reading from 13311: heap size 49 MB, throughput 0.985398
Reading from 13310: heap size 144 MB, throughput 0.704424
Reading from 13310: heap size 145 MB, throughput 0.598204
Reading from 13311: heap size 49 MB, throughput 0.971724
Reading from 13310: heap size 147 MB, throughput 0.753892
Reading from 13311: heap size 57 MB, throughput 0.950565
Reading from 13310: heap size 150 MB, throughput 0.686946
Reading from 13311: heap size 57 MB, throughput 0.980733
Reading from 13310: heap size 157 MB, throughput 0.71001
Reading from 13311: heap size 65 MB, throughput 0.760097
Reading from 13311: heap size 69 MB, throughput 0.993004
Reading from 13311: heap size 78 MB, throughput 0.993813
Reading from 13310: heap size 161 MB, throughput 0.0893722
Reading from 13310: heap size 203 MB, throughput 0.546662
Reading from 13310: heap size 206 MB, throughput 0.512571
Reading from 13310: heap size 209 MB, throughput 0.722225
Reading from 13310: heap size 215 MB, throughput 0.69459
Reading from 13310: heap size 220 MB, throughput 0.649381
Reading from 13310: heap size 230 MB, throughput 0.60544
Reading from 13311: heap size 78 MB, throughput 0.998065
Reading from 13310: heap size 235 MB, throughput 0.526967
Reading from 13310: heap size 247 MB, throughput 0.564426
Reading from 13310: heap size 253 MB, throughput 0.436202
Reading from 13311: heap size 86 MB, throughput 0.996212
Reading from 13310: heap size 262 MB, throughput 0.0922475
Reading from 13310: heap size 309 MB, throughput 0.413452
Reading from 13311: heap size 87 MB, throughput 0.988478
Reading from 13310: heap size 241 MB, throughput 0.0830159
Reading from 13310: heap size 343 MB, throughput 0.514965
Reading from 13310: heap size 349 MB, throughput 0.693588
Reading from 13310: heap size 341 MB, throughput 0.697382
Reading from 13311: heap size 96 MB, throughput 0.995831
Reading from 13310: heap size 289 MB, throughput 0.65334
Reading from 13310: heap size 340 MB, throughput 0.711122
Reading from 13310: heap size 342 MB, throughput 0.650832
Reading from 13310: heap size 344 MB, throughput 0.678381
Reading from 13310: heap size 347 MB, throughput 0.586153
Reading from 13310: heap size 350 MB, throughput 0.546915
Reading from 13311: heap size 96 MB, throughput 0.996442
Reading from 13310: heap size 357 MB, throughput 0.502422
Reading from 13310: heap size 361 MB, throughput 0.563926
Reading from 13310: heap size 367 MB, throughput 0.529941
Reading from 13310: heap size 371 MB, throughput 0.526727
Reading from 13311: heap size 101 MB, throughput 0.996932
Reading from 13310: heap size 376 MB, throughput 0.0741492
Reading from 13310: heap size 423 MB, throughput 0.431624
Reading from 13310: heap size 429 MB, throughput 0.566011
Reading from 13311: heap size 102 MB, throughput 0.996515
Reading from 13310: heap size 429 MB, throughput 0.483877
Reading from 13310: heap size 430 MB, throughput 0.498099
Reading from 13310: heap size 431 MB, throughput 0.564406
Equal recommendation: 2470 MB each
Reading from 13311: heap size 107 MB, throughput 0.995169
Reading from 13310: heap size 432 MB, throughput 0.0659198
Reading from 13311: heap size 107 MB, throughput 0.995844
Reading from 13310: heap size 479 MB, throughput 0.429546
Reading from 13310: heap size 426 MB, throughput 0.525859
Reading from 13310: heap size 475 MB, throughput 0.536891
Reading from 13310: heap size 478 MB, throughput 0.476086
Reading from 13311: heap size 111 MB, throughput 0.994771
Reading from 13310: heap size 481 MB, throughput 0.473329
Reading from 13311: heap size 112 MB, throughput 0.99483
Reading from 13310: heap size 481 MB, throughput 0.124526
Reading from 13310: heap size 538 MB, throughput 0.422966
Reading from 13310: heap size 540 MB, throughput 0.510402
Reading from 13311: heap size 117 MB, throughput 0.994523
Reading from 13310: heap size 544 MB, throughput 0.589747
Reading from 13310: heap size 545 MB, throughput 0.546792
Reading from 13310: heap size 550 MB, throughput 0.565811
Reading from 13310: heap size 558 MB, throughput 0.567091
Reading from 13310: heap size 563 MB, throughput 0.556788
Reading from 13311: heap size 117 MB, throughput 0.996532
Reading from 13311: heap size 121 MB, throughput 0.995149
Reading from 13310: heap size 572 MB, throughput 0.0964256
Reading from 13310: heap size 631 MB, throughput 0.479906
Reading from 13310: heap size 640 MB, throughput 0.558389
Reading from 13311: heap size 121 MB, throughput 0.996769
Reading from 13310: heap size 645 MB, throughput 0.765206
Reading from 13310: heap size 648 MB, throughput 0.830331
Reading from 13311: heap size 124 MB, throughput 0.997758
Reading from 13310: heap size 650 MB, throughput 0.848863
Reading from 13311: heap size 125 MB, throughput 0.997558
Reading from 13311: heap size 128 MB, throughput 0.997907
Reading from 13311: heap size 128 MB, throughput 0.997333
Reading from 13310: heap size 657 MB, throughput 0.229329
Reading from 13310: heap size 720 MB, throughput 0.397412
Reading from 13310: heap size 732 MB, throughput 0.344335
Reading from 13311: heap size 132 MB, throughput 0.997507
Reading from 13310: heap size 739 MB, throughput 0.644827
Reading from 13310: heap size 739 MB, throughput 0.355555
Equal recommendation: 2470 MB each
Reading from 13311: heap size 132 MB, throughput 0.99755
Reading from 13310: heap size 729 MB, throughput 0.0479402
Reading from 13310: heap size 807 MB, throughput 0.286048
Reading from 13310: heap size 807 MB, throughput 0.505802
Reading from 13310: heap size 807 MB, throughput 0.687994
Reading from 13311: heap size 135 MB, throughput 0.998452
Reading from 13310: heap size 811 MB, throughput 0.876894
Reading from 13310: heap size 811 MB, throughput 0.618274
Reading from 13310: heap size 810 MB, throughput 0.643014
Reading from 13311: heap size 135 MB, throughput 0.998437
Reading from 13311: heap size 137 MB, throughput 0.998334
Reading from 13310: heap size 812 MB, throughput 0.0519722
Reading from 13310: heap size 892 MB, throughput 0.720417
Reading from 13310: heap size 893 MB, throughput 0.774108
Reading from 13311: heap size 137 MB, throughput 0.998148
Reading from 13310: heap size 897 MB, throughput 0.910165
Reading from 13310: heap size 901 MB, throughput 0.926409
Reading from 13310: heap size 908 MB, throughput 0.919096
Reading from 13310: heap size 909 MB, throughput 0.895545
Reading from 13311: heap size 139 MB, throughput 0.998358
Reading from 13310: heap size 904 MB, throughput 0.923729
Reading from 13310: heap size 770 MB, throughput 0.771896
Reading from 13310: heap size 878 MB, throughput 0.778126
Reading from 13310: heap size 775 MB, throughput 0.775535
Reading from 13310: heap size 867 MB, throughput 0.784753
Reading from 13311: heap size 139 MB, throughput 0.998211
Reading from 13311: heap size 141 MB, throughput 0.998292
Reading from 13310: heap size 778 MB, throughput 0.110183
Reading from 13310: heap size 952 MB, throughput 0.559558
Reading from 13310: heap size 957 MB, throughput 0.739591
Reading from 13310: heap size 958 MB, throughput 0.695068
Reading from 13311: heap size 141 MB, throughput 0.998672
Reading from 13310: heap size 960 MB, throughput 0.75164
Reading from 13310: heap size 958 MB, throughput 0.739732
Reading from 13310: heap size 962 MB, throughput 0.922787
Reading from 13311: heap size 142 MB, throughput 0.998702
Reading from 13311: heap size 143 MB, throughput 0.998364
Reading from 13310: heap size 951 MB, throughput 0.964577
Reading from 13310: heap size 959 MB, throughput 0.761895
Equal recommendation: 2470 MB each
Reading from 13311: heap size 145 MB, throughput 0.997807
Reading from 13310: heap size 969 MB, throughput 0.66662
Reading from 13310: heap size 978 MB, throughput 0.747842
Reading from 13310: heap size 979 MB, throughput 0.813355
Reading from 13310: heap size 986 MB, throughput 0.78102
Reading from 13310: heap size 976 MB, throughput 0.819933
Reading from 13311: heap size 145 MB, throughput 0.99835
Reading from 13310: heap size 982 MB, throughput 0.783977
Reading from 13310: heap size 975 MB, throughput 0.837683
Reading from 13310: heap size 981 MB, throughput 0.873489
Reading from 13310: heap size 981 MB, throughput 0.87785
Reading from 13311: heap size 147 MB, throughput 0.998797
Reading from 13310: heap size 983 MB, throughput 0.888823
Reading from 13310: heap size 982 MB, throughput 0.79595
Reading from 13310: heap size 985 MB, throughput 0.660514
Reading from 13311: heap size 147 MB, throughput 0.997624
Reading from 13311: heap size 149 MB, throughput 0.998036
Reading from 13310: heap size 989 MB, throughput 0.0837642
Reading from 13310: heap size 1119 MB, throughput 0.550662
Reading from 13310: heap size 1128 MB, throughput 0.763691
Reading from 13311: heap size 149 MB, throughput 0.998027
Reading from 13310: heap size 1129 MB, throughput 0.776158
Reading from 13310: heap size 1137 MB, throughput 0.751056
Reading from 13310: heap size 1139 MB, throughput 0.72125
Reading from 13310: heap size 1143 MB, throughput 0.773799
Reading from 13310: heap size 1146 MB, throughput 0.716784
Reading from 13311: heap size 150 MB, throughput 0.998838
Reading from 13310: heap size 1147 MB, throughput 0.771839
Reading from 13311: heap size 150 MB, throughput 0.998487
Reading from 13310: heap size 1152 MB, throughput 0.947563
Reading from 13311: heap size 152 MB, throughput 0.998281
Reading from 13311: heap size 152 MB, throughput 0.998363
Reading from 13311: heap size 154 MB, throughput 0.998686
Equal recommendation: 2470 MB each
Reading from 13311: heap size 154 MB, throughput 0.9978
Reading from 13310: heap size 1149 MB, throughput 0.977075
Reading from 13311: heap size 156 MB, throughput 0.998673
Reading from 13311: heap size 156 MB, throughput 0.998099
Reading from 13311: heap size 158 MB, throughput 0.998797
Reading from 13310: heap size 1156 MB, throughput 0.975306
Reading from 13311: heap size 158 MB, throughput 0.998646
Reading from 13311: heap size 160 MB, throughput 0.998175
Reading from 13311: heap size 160 MB, throughput 0.998816
Reading from 13310: heap size 1160 MB, throughput 0.975731
Reading from 13311: heap size 162 MB, throughput 0.998776
Reading from 13311: heap size 162 MB, throughput 0.998204
Reading from 13311: heap size 155 MB, throughput 0.998761
Equal recommendation: 2470 MB each
Reading from 13310: heap size 1163 MB, throughput 0.972225
Reading from 13311: heap size 149 MB, throughput 0.998576
Reading from 13311: heap size 142 MB, throughput 0.998602
Reading from 13311: heap size 136 MB, throughput 0.998603
Reading from 13311: heap size 131 MB, throughput 0.998631
Reading from 13310: heap size 1168 MB, throughput 0.980139
Reading from 13311: heap size 126 MB, throughput 0.99852
Reading from 13311: heap size 121 MB, throughput 0.998525
Reading from 13311: heap size 116 MB, throughput 0.998074
Reading from 13311: heap size 112 MB, throughput 0.998334
Reading from 13311: heap size 107 MB, throughput 0.998174
Reading from 13310: heap size 1172 MB, throughput 0.97833
Reading from 13311: heap size 103 MB, throughput 0.99788
Reading from 13311: heap size 99 MB, throughput 0.997557
Reading from 13311: heap size 96 MB, throughput 0.997963
Reading from 13311: heap size 92 MB, throughput 0.997858
Reading from 13311: heap size 89 MB, throughput 0.997971
Equal recommendation: 2470 MB each
Reading from 13311: heap size 86 MB, throughput 0.996672
Reading from 13310: heap size 1166 MB, throughput 0.979733
Reading from 13311: heap size 83 MB, throughput 0.997905
Reading from 13311: heap size 80 MB, throughput 0.996804
Reading from 13311: heap size 77 MB, throughput 0.997434
Reading from 13311: heap size 75 MB, throughput 0.995767
Reading from 13311: heap size 72 MB, throughput 0.996013
Reading from 13311: heap size 70 MB, throughput 0.996471
Reading from 13311: heap size 68 MB, throughput 0.997042
Reading from 13311: heap size 66 MB, throughput 0.995326
Reading from 13311: heap size 64 MB, throughput 0.996239
Reading from 13311: heap size 62 MB, throughput 0.996633
Reading from 13310: heap size 1171 MB, throughput 0.97832
Reading from 13311: heap size 60 MB, throughput 0.995964
Reading from 13311: heap size 58 MB, throughput 0.996401
Reading from 13311: heap size 57 MB, throughput 0.991422
Reading from 13311: heap size 59 MB, throughput 0.995684
Reading from 13311: heap size 61 MB, throughput 0.996184
Reading from 13311: heap size 62 MB, throughput 0.996501
Reading from 13311: heap size 64 MB, throughput 0.99677
Reading from 13311: heap size 62 MB, throughput 0.99648
Reading from 13311: heap size 60 MB, throughput 0.996783
Reading from 13311: heap size 58 MB, throughput 0.996135
Reading from 13311: heap size 57 MB, throughput 0.996453
Reading from 13310: heap size 1174 MB, throughput 0.978941
Reading from 13311: heap size 55 MB, throughput 0.996326
Reading from 13311: heap size 54 MB, throughput 0.996407
Reading from 13311: heap size 52 MB, throughput 0.996051
Reading from 13311: heap size 51 MB, throughput 0.994688
Reading from 13311: heap size 49 MB, throughput 0.995014
Reading from 13311: heap size 51 MB, throughput 0.994078
Reading from 13311: heap size 52 MB, throughput 0.995799
Reading from 13311: heap size 54 MB, throughput 0.995835
Reading from 13311: heap size 55 MB, throughput 0.995854
Equal recommendation: 2470 MB each
Reading from 13311: heap size 57 MB, throughput 0.99647
Reading from 13311: heap size 55 MB, throughput 0.994243
Reading from 13311: heap size 57 MB, throughput 0.993014
Reading from 13311: heap size 59 MB, throughput 0.995279
Reading from 13310: heap size 1175 MB, throughput 0.975641
Reading from 13311: heap size 61 MB, throughput 0.996682
Reading from 13311: heap size 63 MB, throughput 0.995426
Reading from 13311: heap size 65 MB, throughput 0.996812
Reading from 13311: heap size 63 MB, throughput 0.996078
Reading from 13311: heap size 61 MB, throughput 0.996793
Reading from 13311: heap size 59 MB, throughput 0.996777
Reading from 13311: heap size 57 MB, throughput 0.996327
Reading from 13311: heap size 56 MB, throughput 0.996342
Reading from 13311: heap size 54 MB, throughput 0.994915
Reading from 13311: heap size 53 MB, throughput 0.995128
Reading from 13311: heap size 51 MB, throughput 0.993454
Reading from 13311: heap size 53 MB, throughput 0.99576
Reading from 13311: heap size 51 MB, throughput 0.995385
Reading from 13310: heap size 1179 MB, throughput 0.977844
Reading from 13311: heap size 50 MB, throughput 0.99464
Reading from 13311: heap size 51 MB, throughput 0.996015
Reading from 13311: heap size 50 MB, throughput 0.995634
Reading from 13311: heap size 49 MB, throughput 0.995714
Reading from 13311: heap size 48 MB, throughput 0.993111
Reading from 13311: heap size 49 MB, throughput 0.994108
Reading from 13311: heap size 51 MB, throughput 0.995674
Reading from 13311: heap size 52 MB, throughput 0.993434
Reading from 13311: heap size 54 MB, throughput 0.995043
Reading from 13311: heap size 56 MB, throughput 0.995824
Reading from 13311: heap size 57 MB, throughput 0.995801
Reading from 13311: heap size 56 MB, throughput 0.996042
Reading from 13311: heap size 54 MB, throughput 0.996329
Reading from 13311: heap size 53 MB, throughput 0.994499
Reading from 13310: heap size 1181 MB, throughput 0.976822
Reading from 13311: heap size 51 MB, throughput 0.995738
Reading from 13311: heap size 50 MB, throughput 0.994809
Reading from 13311: heap size 49 MB, throughput 0.995575
Reading from 13311: heap size 48 MB, throughput 0.995363
Reading from 13311: heap size 47 MB, throughput 0.993253
Reading from 13311: heap size 46 MB, throughput 0.995048
Equal recommendation: 2470 MB each
Reading from 13311: heap size 45 MB, throughput 0.99471
Reading from 13311: heap size 44 MB, throughput 0.995124
Reading from 13311: heap size 43 MB, throughput 0.994785
Reading from 13311: heap size 42 MB, throughput 0.994403
Reading from 13311: heap size 41 MB, throughput 0.994244
Reading from 13311: heap size 42 MB, throughput 0.993667
Reading from 13311: heap size 43 MB, throughput 0.994835
Reading from 13311: heap size 45 MB, throughput 0.995263
Reading from 13311: heap size 44 MB, throughput 0.993311
Reading from 13311: heap size 45 MB, throughput 0.993703
Reading from 13311: heap size 47 MB, throughput 0.992074
Reading from 13310: heap size 1185 MB, throughput 0.977425
Reading from 13311: heap size 48 MB, throughput 0.995368
Reading from 13311: heap size 50 MB, throughput 0.995855
Reading from 13311: heap size 51 MB, throughput 0.995451
Reading from 13311: heap size 50 MB, throughput 0.993755
Reading from 13311: heap size 51 MB, throughput 0.99628
Reading from 13311: heap size 50 MB, throughput 0.99558
Reading from 13311: heap size 49 MB, throughput 0.994238
Reading from 13311: heap size 48 MB, throughput 0.993394
Reading from 13311: heap size 49 MB, throughput 0.995194
Reading from 13311: heap size 48 MB, throughput 0.995061
Reading from 13311: heap size 47 MB, throughput 0.994502
Reading from 13311: heap size 46 MB, throughput 0.995259
Reading from 13311: heap size 45 MB, throughput 0.995194
Reading from 13311: heap size 44 MB, throughput 0.995079
Reading from 13311: heap size 43 MB, throughput 0.99384
Reading from 13311: heap size 42 MB, throughput 0.994324
Reading from 13311: heap size 41 MB, throughput 0.992997
Reading from 13310: heap size 1189 MB, throughput 0.977537
Reading from 13311: heap size 43 MB, throughput 0.994573
Reading from 13311: heap size 44 MB, throughput 0.993514
Reading from 13311: heap size 46 MB, throughput 0.994399
Reading from 13311: heap size 47 MB, throughput 0.994983
Reading from 13311: heap size 46 MB, throughput 0.995248
Reading from 13311: heap size 45 MB, throughput 0.994747
Reading from 13311: heap size 44 MB, throughput 0.993329
Reading from 13311: heap size 46 MB, throughput 0.994471
Reading from 13311: heap size 45 MB, throughput 0.993653
Reading from 13311: heap size 46 MB, throughput 0.995164
Reading from 13311: heap size 45 MB, throughput 0.995397
Reading from 13311: heap size 44 MB, throughput 0.993297
Reading from 13311: heap size 43 MB, throughput 0.993738
Reading from 13311: heap size 45 MB, throughput 0.995228
Reading from 13311: heap size 44 MB, throughput 0.992586
Reading from 13311: heap size 45 MB, throughput 0.994664
Reading from 13311: heap size 47 MB, throughput 0.994327
Reading from 13310: heap size 1192 MB, throughput 0.974016
Reading from 13311: heap size 48 MB, throughput 0.990713
Reading from 13311: heap size 50 MB, throughput 0.995721
Equal recommendation: 2470 MB each
Reading from 13311: heap size 51 MB, throughput 0.996044
Reading from 13311: heap size 50 MB, throughput 0.995647
Reading from 13311: heap size 49 MB, throughput 0.9951
Reading from 13311: heap size 48 MB, throughput 0.994109
Reading from 13311: heap size 47 MB, throughput 0.994585
Reading from 13311: heap size 46 MB, throughput 0.995139
Reading from 13311: heap size 45 MB, throughput 0.993878
Reading from 13311: heap size 44 MB, throughput 0.99411
Reading from 13311: heap size 43 MB, throughput 0.994941
Reading from 13311: heap size 42 MB, throughput 0.993852
Reading from 13311: heap size 41 MB, throughput 0.994715
Reading from 13311: heap size 40 MB, throughput 0.991878
Reading from 13311: heap size 41 MB, throughput 0.993994
Reading from 13311: heap size 43 MB, throughput 0.993259
Reading from 13311: heap size 44 MB, throughput 0.994122
Reading from 13311: heap size 46 MB, throughput 0.994913
Reading from 13310: heap size 1197 MB, throughput 0.975562
Reading from 13311: heap size 45 MB, throughput 0.995
Reading from 13311: heap size 44 MB, throughput 0.994126
Reading from 13311: heap size 43 MB, throughput 0.994013
Reading from 13311: heap size 42 MB, throughput 0.99426
Reading from 13311: heap size 41 MB, throughput 0.994314
Reading from 13311: heap size 40 MB, throughput 0.992103
Reading from 13311: heap size 41 MB, throughput 0.994461
Reading from 13311: heap size 43 MB, throughput 0.993774
Reading from 13311: heap size 44 MB, throughput 0.995041
Reading from 13311: heap size 43 MB, throughput 0.991878
Reading from 13311: heap size 45 MB, throughput 0.993535
Reading from 13311: heap size 46 MB, throughput 0.99101
Reading from 13311: heap size 48 MB, throughput 0.994212
Reading from 13311: heap size 50 MB, throughput 0.993271
Reading from 13311: heap size 52 MB, throughput 0.995536
Reading from 13311: heap size 54 MB, throughput 0.996161
Reading from 13311: heap size 52 MB, throughput 0.995714
Reading from 13310: heap size 1202 MB, throughput 0.973758
Reading from 13311: heap size 51 MB, throughput 0.996377
Reading from 13311: heap size 49 MB, throughput 0.995436
Reading from 13311: heap size 48 MB, throughput 0.994333
Reading from 13311: heap size 47 MB, throughput 0.990698
Reading from 13311: heap size 46 MB, throughput 0.994887
Reading from 13311: heap size 45 MB, throughput 0.994392
Reading from 13311: heap size 44 MB, throughput 0.991714
Reading from 13311: heap size 46 MB, throughput 0.9944
Reading from 13311: heap size 45 MB, throughput 0.994434
Reading from 13311: heap size 44 MB, throughput 0.994153
Reading from 13311: heap size 43 MB, throughput 0.992838
Reading from 13311: heap size 44 MB, throughput 0.994612
Reading from 13311: heap size 43 MB, throughput 0.994464
Reading from 13311: heap size 42 MB, throughput 0.993994
Reading from 13311: heap size 41 MB, throughput 0.99329
Reading from 13311: heap size 40 MB, throughput 0.992992
Equal recommendation: 2470 MB each
Reading from 13311: heap size 42 MB, throughput 0.99391
Reading from 13311: heap size 41 MB, throughput 0.990954
Reading from 13311: heap size 42 MB, throughput 0.991585
Reading from 13310: heap size 1206 MB, throughput 0.974274
Reading from 13311: heap size 44 MB, throughput 0.989389
Reading from 13311: heap size 46 MB, throughput 0.994402
Reading from 13311: heap size 47 MB, throughput 0.995054
Reading from 13311: heap size 49 MB, throughput 0.99429
Reading from 13311: heap size 51 MB, throughput 0.994069
Reading from 13311: heap size 53 MB, throughput 0.995691
Reading from 13311: heap size 52 MB, throughput 0.995983
Reading from 13311: heap size 50 MB, throughput 0.995295
Reading from 13311: heap size 49 MB, throughput 0.994733
Reading from 13311: heap size 48 MB, throughput 0.994002
Reading from 13311: heap size 47 MB, throughput 0.994944
Reading from 13311: heap size 46 MB, throughput 0.995007
Reading from 13311: heap size 45 MB, throughput 0.992563
Reading from 13311: heap size 44 MB, throughput 0.992551
Reading from 13311: heap size 43 MB, throughput 0.991771
Reading from 13311: heap size 45 MB, throughput 0.994599
Reading from 13311: heap size 44 MB, throughput 0.992571
Reading from 13310: heap size 1210 MB, throughput 0.977094
Reading from 13311: heap size 45 MB, throughput 0.994859
Reading from 13311: heap size 44 MB, throughput 0.993834
Reading from 13311: heap size 43 MB, throughput 0.992667
Reading from 13311: heap size 45 MB, throughput 0.991405
Reading from 13311: heap size 46 MB, throughput 0.994954
Reading from 13311: heap size 48 MB, throughput 0.99482
Reading from 13311: heap size 47 MB, throughput 0.995099
Reading from 13311: heap size 46 MB, throughput 0.995241
Reading from 13311: heap size 45 MB, throughput 0.995035
Reading from 13311: heap size 44 MB, throughput 0.993363
Reading from 13311: heap size 43 MB, throughput 0.994897
Reading from 13311: heap size 42 MB, throughput 0.989631
Reading from 13311: heap size 43 MB, throughput 0.993417
Reading from 13311: heap size 45 MB, throughput 0.992095
Reading from 13311: heap size 46 MB, throughput 0.993719
Reading from 13311: heap size 48 MB, throughput 0.993272
Reading from 13311: heap size 49 MB, throughput 0.994467
Reading from 13311: heap size 48 MB, throughput 0.995373
Reading from 13311: heap size 47 MB, throughput 0.995766
Reading from 13310: heap size 1213 MB, throughput 0.977506
Reading from 13311: heap size 46 MB, throughput 0.995526
Reading from 13311: heap size 45 MB, throughput 0.994753
Reading from 13311: heap size 44 MB, throughput 0.991347
Reading from 13311: heap size 43 MB, throughput 0.993516
Reading from 13311: heap size 42 MB, throughput 0.994845
Reading from 13311: heap size 41 MB, throughput 0.994632
Reading from 13311: heap size 40 MB, throughput 0.993874
Reading from 13311: heap size 39 MB, throughput 0.990271
Equal recommendation: 2470 MB each
Reading from 13311: heap size 41 MB, throughput 0.991629
Reading from 13311: heap size 42 MB, throughput 0.994068
Reading from 13311: heap size 44 MB, throughput 0.991899
Reading from 13311: heap size 45 MB, throughput 0.993191
Reading from 13311: heap size 47 MB, throughput 0.995327
Reading from 13311: heap size 46 MB, throughput 0.995095
Reading from 13311: heap size 45 MB, throughput 0.995418
Reading from 13311: heap size 44 MB, throughput 0.99487
Reading from 13311: heap size 43 MB, throughput 0.992518
Reading from 13311: heap size 42 MB, throughput 0.993949
Reading from 13311: heap size 41 MB, throughput 0.994276
Reading from 13311: heap size 40 MB, throughput 0.994092
Reading from 13311: heap size 39 MB, throughput 0.992898
Reading from 13311: heap size 39 MB, throughput 0.993716
Reading from 13311: heap size 38 MB, throughput 0.990655
Reading from 13311: heap size 40 MB, throughput 0.990772
Reading from 13311: heap size 41 MB, throughput 0.991115
Reading from 13311: heap size 43 MB, throughput 0.992083
Reading from 13311: heap size 44 MB, throughput 0.993124
Reading from 13311: heap size 46 MB, throughput 0.992381
Reading from 13311: heap size 48 MB, throughput 0.995391
Reading from 13310: heap size 1217 MB, throughput 0.680398
Reading from 13311: heap size 50 MB, throughput 0.994326
Reading from 13311: heap size 49 MB, throughput 0.992252
Reading from 13311: heap size 51 MB, throughput 0.992913
Reading from 13311: heap size 53 MB, throughput 0.995323
Reading from 13311: heap size 52 MB, throughput 0.995044
Reading from 13311: heap size 50 MB, throughput 0.995846
Reading from 13311: heap size 49 MB, throughput 0.995164
Reading from 13311: heap size 48 MB, throughput 0.993879
Reading from 13311: heap size 47 MB, throughput 0.994597
Reading from 13311: heap size 46 MB, throughput 0.994327
Reading from 13311: heap size 45 MB, throughput 0.992368
Reading from 13311: heap size 44 MB, throughput 0.993834
Reading from 13311: heap size 43 MB, throughput 0.994117
Reading from 13311: heap size 42 MB, throughput 0.991931
Reading from 13311: heap size 41 MB, throughput 0.993972
Reading from 13311: heap size 40 MB, throughput 0.991312
Reading from 13311: heap size 42 MB, throughput 0.993965
Reading from 13310: heap size 1281 MB, throughput 0.995902
Reading from 13311: heap size 41 MB, throughput 0.993326
Reading from 13311: heap size 40 MB, throughput 0.993317
Reading from 13311: heap size 39 MB, throughput 0.991833
Reading from 13311: heap size 41 MB, throughput 0.993221
Reading from 13311: heap size 42 MB, throughput 0.993541
Reading from 13311: heap size 41 MB, throughput 0.993707
Reading from 13311: heap size 40 MB, throughput 0.992405
Reading from 13311: heap size 39 MB, throughput 0.992599
Reading from 13311: heap size 41 MB, throughput 0.992903
Reading from 13311: heap size 42 MB, throughput 0.99213
Reading from 13311: heap size 44 MB, throughput 0.99272
Reading from 13311: heap size 45 MB, throughput 0.992041
Reading from 13311: heap size 47 MB, throughput 0.990771
Equal recommendation: 2470 MB each
Reading from 13311: heap size 49 MB, throughput 0.993943
Reading from 13311: heap size 51 MB, throughput 0.995364
Reading from 13311: heap size 49 MB, throughput 0.993902
Reading from 13311: heap size 48 MB, throughput 0.99428
Reading from 13311: heap size 47 MB, throughput 0.994027
Reading from 13310: heap size 1275 MB, throughput 0.993063
Reading from 13311: heap size 46 MB, throughput 0.994278
Reading from 13311: heap size 45 MB, throughput 0.993374
Reading from 13311: heap size 44 MB, throughput 0.994983
Reading from 13311: heap size 43 MB, throughput 0.992791
Reading from 13311: heap size 42 MB, throughput 0.994875
Reading from 13311: heap size 41 MB, throughput 0.989419
Reading from 13311: heap size 43 MB, throughput 0.992902
Reading from 13311: heap size 44 MB, throughput 0.993044
Reading from 13311: heap size 43 MB, throughput 0.994699
Reading from 13311: heap size 42 MB, throughput 0.994291
Reading from 13311: heap size 41 MB, throughput 0.993245
Reading from 13311: heap size 40 MB, throughput 0.994645
Reading from 13311: heap size 39 MB, throughput 0.992591
Reading from 13311: heap size 39 MB, throughput 0.992252
Reading from 13311: heap size 38 MB, throughput 0.992063
Reading from 13311: heap size 38 MB, throughput 0.991668
Reading from 13311: heap size 39 MB, throughput 0.992308
Reading from 13311: heap size 41 MB, throughput 0.99324
Reading from 13311: heap size 42 MB, throughput 0.990473
Reading from 13310: heap size 1285 MB, throughput 0.992163
Reading from 13311: heap size 44 MB, throughput 0.992546
Reading from 13311: heap size 46 MB, throughput 0.994959
Reading from 13311: heap size 45 MB, throughput 0.994342
Reading from 13311: heap size 44 MB, throughput 0.993917
Reading from 13311: heap size 43 MB, throughput 0.994082
Reading from 13311: heap size 42 MB, throughput 0.991899
Reading from 13311: heap size 41 MB, throughput 0.993359
Reading from 13311: heap size 40 MB, throughput 0.993009
Reading from 13311: heap size 39 MB, throughput 0.99257
Reading from 13311: heap size 39 MB, throughput 0.991866
Reading from 13311: heap size 40 MB, throughput 0.992103
Reading from 13311: heap size 42 MB, throughput 0.990676
Reading from 13311: heap size 43 MB, throughput 0.99472
Reading from 13311: heap size 45 MB, throughput 0.993928
Reading from 13311: heap size 44 MB, throughput 0.994682
Reading from 13311: heap size 43 MB, throughput 0.993231
Reading from 13311: heap size 42 MB, throughput 0.993438
Reading from 13311: heap size 41 MB, throughput 0.993921
Reading from 13311: heap size 40 MB, throughput 0.993845
Reading from 13311: heap size 39 MB, throughput 0.991499
Reading from 13310: heap size 1291 MB, throughput 0.990278
Reading from 13311: heap size 39 MB, throughput 0.994575
Reading from 13311: heap size 38 MB, throughput 0.993554
Reading from 13311: heap size 38 MB, throughput 0.991366
Reading from 13311: heap size 37 MB, throughput 0.993249
Reading from 13311: heap size 37 MB, throughput 0.992949
Reading from 13311: heap size 36 MB, throughput 0.990267
Reading from 13311: heap size 38 MB, throughput 0.992974
Reading from 13311: heap size 39 MB, throughput 0.990186
Reading from 13311: heap size 41 MB, throughput 0.993047
Reading from 13311: heap size 42 MB, throughput 0.994136
Reading from 13311: heap size 44 MB, throughput 0.991684
Equal recommendation: 2470 MB each
Reading from 13311: heap size 45 MB, throughput 0.992494
Reading from 13311: heap size 47 MB, throughput 0.994619
Reading from 13311: heap size 46 MB, throughput 0.992477
Reading from 13311: heap size 45 MB, throughput 0.993727
Reading from 13311: heap size 44 MB, throughput 0.994144
Reading from 13311: heap size 43 MB, throughput 0.991758
Reading from 13311: heap size 42 MB, throughput 0.994763
Reading from 13311: heap size 41 MB, throughput 0.993102
Reading from 13311: heap size 40 MB, throughput 0.993453
Reading from 13311: heap size 39 MB, throughput 0.99294
Reading from 13310: heap size 1293 MB, throughput 0.987777
Reading from 13311: heap size 39 MB, throughput 0.9936
Reading from 13311: heap size 38 MB, throughput 0.993378
Reading from 13311: heap size 38 MB, throughput 0.9931
Reading from 13311: heap size 37 MB, throughput 0.988596
Reading from 13311: heap size 39 MB, throughput 0.993433
Reading from 13311: heap size 40 MB, throughput 0.992101
Reading from 13311: heap size 42 MB, throughput 0.992231
Reading from 13311: heap size 43 MB, throughput 0.993952
Reading from 13311: heap size 42 MB, throughput 0.99387
Reading from 13311: heap size 41 MB, throughput 0.992515
Reading from 13311: heap size 40 MB, throughput 0.991775
Reading from 13311: heap size 39 MB, throughput 0.992658
Reading from 13311: heap size 39 MB, throughput 0.993561
Reading from 13311: heap size 38 MB, throughput 0.98846
Reading from 13311: heap size 40 MB, throughput 0.992567
Reading from 13311: heap size 41 MB, throughput 0.992193
Reading from 13311: heap size 43 MB, throughput 0.992334
Reading from 13311: heap size 44 MB, throughput 0.993536
Reading from 13311: heap size 46 MB, throughput 0.994257
Reading from 13311: heap size 45 MB, throughput 0.995012
Reading from 13311: heap size 44 MB, throughput 0.99491
Reading from 13310: heap size 1287 MB, throughput 0.988567
Reading from 13311: heap size 43 MB, throughput 0.990722
Reading from 13311: heap size 42 MB, throughput 0.993246
Reading from 13311: heap size 41 MB, throughput 0.993087
Reading from 13311: heap size 40 MB, throughput 0.992345
Reading from 13311: heap size 39 MB, throughput 0.993205
Reading from 13311: heap size 39 MB, throughput 0.993424
Reading from 13311: heap size 38 MB, throughput 0.9935
Reading from 13311: heap size 38 MB, throughput 0.993317
Reading from 13311: heap size 37 MB, throughput 0.992459
Reading from 13311: heap size 37 MB, throughput 0.991392
Reading from 13311: heap size 36 MB, throughput 0.990369
Reading from 13311: heap size 38 MB, throughput 0.989605
Reading from 13311: heap size 39 MB, throughput 0.993635
Reading from 13311: heap size 41 MB, throughput 0.992542
Reading from 13311: heap size 42 MB, throughput 0.993604
Reading from 13311: heap size 44 MB, throughput 0.992809
Reading from 13311: heap size 43 MB, throughput 0.993046
Reading from 13311: heap size 42 MB, throughput 0.991459
Reading from 13311: heap size 43 MB, throughput 0.993913
Reading from 13311: heap size 42 MB, throughput 0.992448
Reading from 13311: heap size 41 MB, throughput 0.991069
Reading from 13311: heap size 43 MB, throughput 0.994482
Reading from 13311: heap size 42 MB, throughput 0.992552
Reading from 13310: heap size 1186 MB, throughput 0.986315
Reading from 13311: heap size 41 MB, throughput 0.992679
Reading from 13311: heap size 40 MB, throughput 0.994301
Equal recommendation: 2470 MB each
Reading from 13311: heap size 39 MB, throughput 0.993979
Reading from 13311: heap size 39 MB, throughput 0.993244
Reading from 13311: heap size 38 MB, throughput 0.977063
Reading from 13311: heap size 40 MB, throughput 0.951948
Reading from 13311: heap size 43 MB, throughput 0.963038
Reading from 13311: heap size 46 MB, throughput 0.974507
Reading from 13311: heap size 49 MB, throughput 0.987258
Reading from 13311: heap size 54 MB, throughput 0.988668
Reading from 13311: heap size 57 MB, throughput 0.981223
Reading from 13311: heap size 62 MB, throughput 0.982125
Reading from 13311: heap size 66 MB, throughput 0.570876
Reading from 13311: heap size 75 MB, throughput 0.995214
Reading from 13311: heap size 80 MB, throughput 0.996243
Reading from 13311: heap size 87 MB, throughput 0.996209
Reading from 13310: heap size 1274 MB, throughput 0.985491
Reading from 13311: heap size 94 MB, throughput 0.997863
Reading from 13311: heap size 101 MB, throughput 0.996514
Reading from 13311: heap size 107 MB, throughput 0.996395
Reading from 13311: heap size 116 MB, throughput 0.996046
Reading from 13311: heap size 120 MB, throughput 0.998041
Reading from 13311: heap size 126 MB, throughput 0.997745
Reading from 13310: heap size 1203 MB, throughput 0.982833
Reading from 13311: heap size 132 MB, throughput 0.997869
Reading from 13311: heap size 139 MB, throughput 0.997904
Reading from 13311: heap size 141 MB, throughput 0.998132
Equal recommendation: 2470 MB each
Reading from 13311: heap size 146 MB, throughput 0.998179
Reading from 13310: heap size 1268 MB, throughput 0.982515
Reading from 13311: heap size 147 MB, throughput 0.997895
Reading from 13311: heap size 147 MB, throughput 0.998003
Reading from 13311: heap size 149 MB, throughput 0.997664
Reading from 13311: heap size 150 MB, throughput 0.997794
Reading from 13310: heap size 1272 MB, throughput 0.981599
Reading from 13311: heap size 153 MB, throughput 0.99876
Reading from 13311: heap size 154 MB, throughput 0.997874
Reading from 13311: heap size 157 MB, throughput 0.998653
Reading from 13311: heap size 157 MB, throughput 0.997965
Reading from 13310: heap size 1272 MB, throughput 0.982204
Reading from 13311: heap size 161 MB, throughput 0.998417
Reading from 13311: heap size 161 MB, throughput 0.998162
Equal recommendation: 2470 MB each
Reading from 13311: heap size 164 MB, throughput 0.998008
Reading from 13311: heap size 164 MB, throughput 0.998585
Reading from 13311: heap size 166 MB, throughput 0.998702
Reading from 13310: heap size 1273 MB, throughput 0.975813
Reading from 13311: heap size 167 MB, throughput 0.998522
Reading from 13311: heap size 170 MB, throughput 0.998803
Reading from 13311: heap size 170 MB, throughput 0.998634
Reading from 13310: heap size 1274 MB, throughput 0.978397
Reading from 13311: heap size 173 MB, throughput 0.998782
Reading from 13311: heap size 173 MB, throughput 0.998812
Reading from 13311: heap size 175 MB, throughput 0.998512
Equal recommendation: 2470 MB each
Reading from 13311: heap size 175 MB, throughput 0.99866
Reading from 13310: heap size 1279 MB, throughput 0.978842
Reading from 13311: heap size 177 MB, throughput 0.998701
Reading from 13311: heap size 178 MB, throughput 0.998783
Reading from 13311: heap size 179 MB, throughput 0.998697
Reading from 13310: heap size 1282 MB, throughput 0.976668
Reading from 13311: heap size 180 MB, throughput 0.998776
Reading from 13311: heap size 182 MB, throughput 0.998506
Reading from 13311: heap size 182 MB, throughput 0.998739
Reading from 13310: heap size 1289 MB, throughput 0.978185
Reading from 13311: heap size 185 MB, throughput 0.998975
Reading from 13311: heap size 185 MB, throughput 0.99848
Equal recommendation: 2470 MB each
Reading from 13311: heap size 188 MB, throughput 0.998971
Reading from 13311: heap size 188 MB, throughput 0.998493
Reading from 13310: heap size 1294 MB, throughput 0.975003
Reading from 13311: heap size 190 MB, throughput 0.998976
Reading from 13311: heap size 190 MB, throughput 0.998847
Reading from 13311: heap size 192 MB, throughput 0.998349
Reading from 13310: heap size 1298 MB, throughput 0.977298
Reading from 13311: heap size 193 MB, throughput 0.998839
Reading from 13311: heap size 196 MB, throughput 0.998469
Reading from 13311: heap size 196 MB, throughput 0.998766
Equal recommendation: 2470 MB each
Reading from 13310: heap size 1303 MB, throughput 0.977531
Reading from 13311: heap size 198 MB, throughput 0.99877
Reading from 13311: heap size 199 MB, throughput 0.998579
Reading from 13311: heap size 201 MB, throughput 0.998327
Reading from 13310: heap size 1304 MB, throughput 0.975324
Reading from 13311: heap size 201 MB, throughput 0.998599
Reading from 13311: heap size 205 MB, throughput 0.998911
Reading from 13311: heap size 205 MB, throughput 0.998946
Reading from 13311: heap size 208 MB, throughput 0.998888
Reading from 13310: heap size 1310 MB, throughput 0.977353
Reading from 13311: heap size 208 MB, throughput 0.998231
Equal recommendation: 2470 MB each
Reading from 13311: heap size 211 MB, throughput 0.998823
Reading from 13311: heap size 211 MB, throughput 0.998756
Reading from 13310: heap size 1310 MB, throughput 0.978458
Reading from 13311: heap size 214 MB, throughput 0.998588
Reading from 13311: heap size 214 MB, throughput 0.998549
Reading from 13311: heap size 217 MB, throughput 0.998989
Reading from 13310: heap size 1313 MB, throughput 0.976555
Reading from 13311: heap size 217 MB, throughput 0.999015
Reading from 13311: heap size 220 MB, throughput 0.998993
Equal recommendation: 2470 MB each
Reading from 13311: heap size 221 MB, throughput 0.998857
Reading from 13311: heap size 223 MB, throughput 0.999066
Reading from 13311: heap size 223 MB, throughput 0.999077
Reading from 13311: heap size 226 MB, throughput 0.999039
Reading from 13311: heap size 226 MB, throughput 0.998904
Reading from 13311: heap size 229 MB, throughput 0.999119
Reading from 13311: heap size 229 MB, throughput 0.99907
Equal recommendation: 2470 MB each
Reading from 13310: heap size 1314 MB, throughput 0.990577
Reading from 13311: heap size 232 MB, throughput 0.999006
Reading from 13311: heap size 232 MB, throughput 0.998772
Reading from 13311: heap size 235 MB, throughput 0.998933
Reading from 13311: heap size 235 MB, throughput 0.999052
Reading from 13311: heap size 238 MB, throughput 0.999059
Reading from 13311: heap size 238 MB, throughput 0.998908
Reading from 13311: heap size 241 MB, throughput 0.999171
Equal recommendation: 2470 MB each
Reading from 13311: heap size 241 MB, throughput 0.999132
Reading from 13311: heap size 244 MB, throughput 0.999106
Reading from 13311: heap size 244 MB, throughput 0.998843
Reading from 13310: heap size 1307 MB, throughput 0.992884
Reading from 13311: heap size 247 MB, throughput 0.999193
Reading from 13311: heap size 247 MB, throughput 0.999157
Reading from 13311: heap size 250 MB, throughput 0.999148
Reading from 13311: heap size 250 MB, throughput 0.998957
Equal recommendation: 2470 MB each
Reading from 13311: heap size 253 MB, throughput 0.999084
Reading from 13310: heap size 1317 MB, throughput 0.84253
Reading from 13311: heap size 253 MB, throughput 0.999039
Reading from 13310: heap size 1410 MB, throughput 0.994783
Reading from 13310: heap size 1457 MB, throughput 0.975912
Reading from 13310: heap size 1463 MB, throughput 0.912446
Reading from 13310: heap size 1318 MB, throughput 0.868609
Reading from 13311: heap size 256 MB, throughput 0.999202
Reading from 13310: heap size 1449 MB, throughput 0.875282
Reading from 13310: heap size 1455 MB, throughput 0.877552
Reading from 13310: heap size 1445 MB, throughput 0.882964
Reading from 13310: heap size 1452 MB, throughput 0.883739
Reading from 13310: heap size 1447 MB, throughput 0.86985
Reading from 13311: heap size 256 MB, throughput 0.998956
Reading from 13310: heap size 1453 MB, throughput 0.993684
Reading from 13311: heap size 259 MB, throughput 0.999038
Reading from 13311: heap size 259 MB, throughput 0.99895
Equal recommendation: 2470 MB each
Reading from 13310: heap size 1458 MB, throughput 0.994531
Reading from 13311: heap size 262 MB, throughput 0.998628
Reading from 13311: heap size 262 MB, throughput 0.99875
Reading from 13311: heap size 266 MB, throughput 0.99922
Reading from 13310: heap size 1465 MB, throughput 0.993943
Reading from 13311: heap size 266 MB, throughput 0.998901
Reading from 13311: heap size 269 MB, throughput 0.999203
Reading from 13310: heap size 1476 MB, throughput 0.99101
Equal recommendation: 2470 MB each
Reading from 13311: heap size 269 MB, throughput 0.999162
Reading from 13311: heap size 272 MB, throughput 0.998842
Reading from 13311: heap size 273 MB, throughput 0.999185
Reading from 13310: heap size 1479 MB, throughput 0.991093
Reading from 13311: heap size 276 MB, throughput 0.998654
Reading from 13311: heap size 276 MB, throughput 0.999071
Reading from 13310: heap size 1470 MB, throughput 0.990509
Reading from 13311: heap size 279 MB, throughput 0.99923
Equal recommendation: 2470 MB each
Reading from 13311: heap size 279 MB, throughput 0.998627
Reading from 13310: heap size 1349 MB, throughput 0.990628
Client 13311 died
Clients: 1
Reading from 13310: heap size 1459 MB, throughput 0.988506
Recommendation: one client; give it all the memory
Reading from 13310: heap size 1369 MB, throughput 0.987235
Reading from 13310: heap size 1450 MB, throughput 0.986963
Reading from 13310: heap size 1457 MB, throughput 0.985143
Recommendation: one client; give it all the memory
Reading from 13310: heap size 1458 MB, throughput 0.984284
Reading from 13310: heap size 1458 MB, throughput 0.984588
Recommendation: one client; give it all the memory
Reading from 13310: heap size 1461 MB, throughput 0.982761
Reading from 13310: heap size 1466 MB, throughput 0.981359
Recommendation: one client; give it all the memory
Reading from 13310: heap size 1469 MB, throughput 0.980904
Reading from 13310: heap size 1477 MB, throughput 0.979652
Reading from 13310: heap size 1483 MB, throughput 0.98105
Recommendation: one client; give it all the memory
Reading from 13310: heap size 1490 MB, throughput 0.979158
Reading from 13310: heap size 1496 MB, throughput 0.981109
Recommendation: one client; give it all the memory
Reading from 13310: heap size 1500 MB, throughput 0.97904
Reading from 13310: heap size 1506 MB, throughput 0.980505
Recommendation: one client; give it all the memory
Reading from 13310: heap size 1508 MB, throughput 0.980654
Reading from 13310: heap size 1514 MB, throughput 0.980299
Recommendation: one client; give it all the memory
Reading from 13310: heap size 1514 MB, throughput 0.981527
Reading from 13310: heap size 1519 MB, throughput 0.979719
Reading from 13310: heap size 1520 MB, throughput 0.979569
Recommendation: one client; give it all the memory
Reading from 13310: heap size 1523 MB, throughput 0.979536
Reading from 13310: heap size 1524 MB, throughput 0.980489
Recommendation: one client; give it all the memory
Reading from 13310: heap size 1526 MB, throughput 0.980973
Reading from 13310: heap size 1527 MB, throughput 0.979329
Recommendation: one client; give it all the memory
Reading from 13310: heap size 1529 MB, throughput 0.979615
Reading from 13310: heap size 1531 MB, throughput 0.812419
Recommendation: one client; give it all the memory
Reading from 13310: heap size 1578 MB, throughput 0.996026
Reading from 13310: heap size 1579 MB, throughput 0.994661
Recommendation: one client; give it all the memory
Reading from 13310: heap size 1592 MB, throughput 0.993365
Reading from 13310: heap size 1600 MB, throughput 0.991954
Recommendation: one client; give it all the memory
Recommendation: one client; give it all the memory
Reading from 13310: heap size 1604 MB, throughput 0.995301
Recommendation: one client; give it all the memory
Reading from 13310: heap size 1478 MB, throughput 0.995203
Recommendation: one client; give it all the memory
Reading from 13310: heap size 1593 MB, throughput 0.989476
Reading from 13310: heap size 1598 MB, throughput 0.850562
Reading from 13310: heap size 1581 MB, throughput 0.771745
Reading from 13310: heap size 1618 MB, throughput 0.754635
Reading from 13310: heap size 1646 MB, throughput 0.776255
Reading from 13310: heap size 1664 MB, throughput 0.75994
Reading from 13310: heap size 1701 MB, throughput 0.833263
Client 13310 died
Clients: 0
Recommendation: no clients; no recommendation
Recommendation: no clients; no recommendation
ReadingThread: finished
TimerThread: finished
CommandThread: finished
Main: All threads killed, cleaning up
