1413620051390 0 TOTAL_MEM 3759
1413620071412 20568 CREATION
1413620071412 20568 READING 9 0.987673
1413620071412 20568 MINHEAP 2
1413620071412 20568 MINHEAP 30
1413620071445 20567 CREATION
1413620071445 20567 READING 9 0.990691
1413620071445 20567 MINHEAP 2
1413620071445 20567 MINHEAP 1223
1413620071450 20568 READING 9 0.957721
1413620071492 20567 READING 9 0.981152
1413620071499 20568 READING 11 0.967686
1413620071504 20568 READING 11 0.776856
1413620071507 20568 READING 15 0.801376
1413620071510 20568 READING 15 0.583686
1413620071513 20568 READING 24 0.801201
1413620071516 20568 READING 24 0.832461
1413620071522 20568 READING 40 0.886700
1413620071524 20567 READING 9 0.961000
1413620071528 20568 READING 40 0.918367
1413620071538 20568 READING 60 0.936048
1413620071548 20568 READING 60 0.936582
1413620071553 20567 READING 9 0.944650
1413620071564 20568 READING 91 0.964439
1413620071577 20568 READING 91 0.932713
1413620071596 20568 READING 140 0.975695
1413620071658 20567 READING 11 0.983830
1413620071808 20567 READING 11 0.977548
1413620071888 20567 READING 17 0.950596
1413620072078 20567 READING 17 0.539987
1413620072273 20567 READING 30 0.945995
1413620072537 20567 READING 31 0.915044
1413620072724 20568 READING 140 0.940686
1413620072774 20567 READING 33 0.374702
1413620072830 20567 READING 42 0.827239
1413620072923 20567 READING 47 0.869383
1413620073282 20567 READING 48 0.283799
1413620073396 20567 READING 65 0.739348
1413620073698 20567 READING 66 0.313934
1413620073731 20568 READING 224 0.880235
1413620073818 20567 READING 89 0.873838
1413620073901 20567 READING 91 0.691409
1413620074009 20567 READING 92 0.682686
1413620074102 20567 READING 95 0.698964
1413620074525 20567 READING 98 0.115123
1413620074668 20567 READING 127 0.633529
1413620074768 20568 READING 234 0.989015
1413620074788 20567 READING 131 0.685151
1413620074891 20567 READING 133 0.673645
1413620075027 20567 READING 136 0.529857
1413620075113 20567 READING 142 0.597483
1413620075210 20567 READING 149 0.573363
1413620075784 20567 READING 153 0.106844
1413620075839 20568 READING 236 0.955180
1413620075902 20567 READING 188 0.498880
1413620075994 20567 READING 191 0.657719
1413620076477 20567 READING 193 0.156414
1413620076599 20567 READING 230 0.546006
1413620076704 20567 READING 232 0.721087
1413620076814 20567 READING 234 0.638929
1413620076993 20567 READING 237 0.602846
1413620077181 20567 READING 241 0.581727
1413620077271 20568 READING 272 0.996320
1413620077410 20567 READING 244 0.572447
1413620077629 20567 READING 252 0.580290
1413620077793 20567 READING 258 0.432339
1413620077953 20567 READING 266 0.391757
1413620078097 20567 READING 271 0.437093
1413620078279 20568 READING 277 0.870925
1413620078910 20567 READING 278 0.101178
1413620079131 20567 READING 324 0.440776
1413620079374 20568 READING 324 0.989767
1413620079873 20567 READING 327 0.073376
1413620080009 20567 READING 367 0.470813
1413620080121 20567 READING 370 0.582358
1413620080230 20567 READING 366 0.609642
1413620080344 20567 READING 317 0.620192
1413620080479 20567 READING 364 0.496897
1413620080647 20567 READING 366 0.536805
1413620080816 20567 READING 370 0.527164
1413620080845 20568 READING 328 0.995605
1413620081005 20567 READING 372 0.497967
1413620081245 20567 READING 377 0.569548
1413620081391 20568 FUNCTION lru lambda h: 0.766055 * (h ** 0.0397683)
1413620081391 20567 FUNCTION lru lambda h: 1.39201 * (h ** 0.001)
1413620081391 20568 RECOMMEND 1879
1413620081391 20567 RECOMMEND 1879
1413620081418 20567 READING 381 0.459762
1413620081983 20568 READING 356 0.868185
1413620082320 20567 READING 386 0.095883
1413620082538 20567 READING 439 0.401325
1413620082692 20567 READING 447 0.512198
1413620082879 20567 READING 451 0.464170
1413620083128 20568 READING 368 0.991139
1413620083747 20567 READING 457 0.089651
1413620083976 20567 READING 514 0.363197
1413620084158 20567 READING 507 0.531684
1413620084357 20567 READING 514 0.459337
1413620084618 20568 READING 388 0.980404
1413620085318 20567 READING 508 0.124203
1413620085551 20567 READING 570 0.505729
1413620085771 20567 READING 564 0.516024
1413620085910 20568 READING 399 0.975791
1413620085942 20567 READING 569 0.598903
1413620086155 20567 READING 572 0.556304
1413620086342 20567 READING 577 0.642219
1413620086531 20567 READING 583 0.656272
1413620086714 20567 READING 590 0.609329
1413620086888 20567 READING 592 0.588015
1413620087089 20567 READING 603 0.453331
1413620087541 20568 READING 430 0.971572
1413620087903 20567 READING 607 0.884388
1413620088460 20567 READING 622 0.773668
1413620088796 20568 READING 432 0.920875
1413620090049 20567 READING 622 0.182047
1413620090695 20567 READING 704 0.718942
1413620090746 20568 READING 472 0.997409
1413620090862 20567 READING 715 0.342654
1413620091026 20567 READING 725 0.443632
1413620091140 20567 READING 733 0.221061
1413620091391 20568 FUNCTION lru lambda h: 0.773829 * (h ** 0.0366803)
1413620091391 20567 FUNCTION lru lambda h: 1.10124 * (h ** 0.001)
1413620091391 20568 RECOMMEND 1879
1413620091391 20567 RECOMMEND 1879
1413620092109 20568 READING 474 0.989581
1413620092889 20567 READING 734 0.040970
1413620093079 20567 READING 793 0.387423
1413620093163 20567 READING 671 0.297261
1413620094064 20568 READING 509 0.989848
1413620094078 20567 READING 795 0.028484
1413620094225 20567 READING 887 0.187064
1413620094277 20567 READING 886 0.515979
1413620094335 20567 READING 891 0.468224
1413620094400 20567 READING 895 0.455544
1413620094482 20567 READING 896 0.663633
1413620094916 20567 READING 899 0.933236
1413620094988 20567 READING 691 0.713480
1413620095059 20567 READING 884 0.697210
1413620095127 20567 READING 687 0.757368
1413620095193 20567 READING 874 0.808480
1413620095266 20567 READING 690 0.735293
1413620095403 20568 READING 510 0.992724
1413620095470 20567 READING 862 0.910581
1413620095552 20567 READING 688 0.857733
1413620095704 20567 READING 853 0.889067
1413620095829 20567 READING 686 0.919161
1413620095904 20567 READING 839 0.825212
1413620096165 20567 READING 690 0.860002
1413620096263 20567 READING 826 0.839325
1413620096466 20567 READING 701 0.909139
1413620096797 20567 READING 809 0.860451
1413620097031 20568 READING 532 0.971555
1413620098625 20568 READING 541 0.988103
1413620098832 20567 READING 819 0.043086
1413620099029 20567 READING 900 0.437820
1413620099176 20567 READING 802 0.614837
1413620099330 20567 READING 886 0.614172
1413620099494 20567 READING 807 0.602300
1413620099643 20567 READING 881 0.722020
1413620099837 20567 READING 886 0.544678
1413620100015 20567 READING 878 0.654472
1413620100182 20567 READING 883 0.693149
1413620100350 20567 READING 878 0.769706
1413620100532 20568 READING 577 0.976052
1413620100544 20567 READING 882 0.648661
1413620100721 20567 READING 879 0.785747
1413620101234 20567 READING 882 0.922567
1413620101391 20568 FUNCTION lru lambda h: 0.769497 * (h ** 0.038217)
1413620101391 20567 FUNCTION lru lambda h: 0.641357 * (h ** 0.001)
1413620101391 20568 RECOMMEND 1879
1413620101391 20567 RECOMMEND 1879
1413620102325 20568 READING 580 0.989790
1413620102653 20567 READING 881 0.960087
1413620102916 20567 READING 884 0.821358
1413620103103 20567 READING 907 0.758499
1413620103285 20567 READING 909 0.781209
1413620103487 20567 READING 917 0.748050
1413620103674 20567 READING 918 0.801211
1413620103884 20567 READING 926 0.755919
1413620103885 20568 READING 619 0.990704
1413620104081 20567 READING 926 0.816201
1413620104292 20567 READING 932 0.807749
1413620104489 20567 READING 933 0.821600
1413620104874 20567 READING 938 0.840984
1413620105225 20567 READING 939 0.818446
1413620105534 20567 READING 943 0.856547
1413620105925 20568 READING 623 0.977652
1413620107417 20567 READING 945 0.094823
1413620107653 20567 READING 1034 0.441724
1413620107788 20567 READING 1057 0.821929
1413620107932 20567 READING 1067 0.814320
1413620108054 20568 READING 659 0.989016
1413620108110 20567 READING 1067 0.731607
1413620108268 20567 READING 1071 0.800653
1413620108430 20567 READING 1073 0.780019
1413620108615 20567 READING 1072 0.729150
1413620108806 20567 READING 1076 0.722215
1413620109013 20567 READING 1076 0.724602
1413620109219 20567 READING 1080 0.735403
1413620109469 20567 READING 1080 0.689252
1413620109964 20568 READING 661 0.993509
1413620111044 20567 READING 1085 0.947087
1413620111391 20568 FUNCTION lru lambda h: 0.768307 * (h ** 0.0386113)
1413620111391 20567 FUNCTION lru lambda h: 0.0494061 * (h ** 0.358739)
1413620111391 20568 RECOMMEND 1879
1413620111391 20567 RECOMMEND 1879
1413620112285 20568 READING 686 0.981376
1413620113651 20567 READING 1091 0.971542
1413620114652 20568 READING 698 0.989343
1413620116210 20567 READING 1095 0.964584
1413620116888 20568 READING 737 0.989718
1413620119172 20567 READING 1104 0.955611
1413620119411 20568 READING 738 0.991617
1413620121391 20568 FUNCTION lru lambda h: 0.768818 * (h ** 0.0384476)
1413620121391 20567 FUNCTION lru lambda h: 0.0412691 * (h ** 0.388682)
1413620121391 20568 RECOMMEND 1879
1413620121391 20567 RECOMMEND 1879
1413620121679 20568 READING 771 0.995058
1413620121937 20567 READING 1107 0.970622
1413620124133 20568 READING 775 0.989644
1413620124686 20567 READING 1105 0.969066
1413620126668 20568 READING 806 0.985635
1413620127492 20567 READING 1109 0.970780
1413620129221 20568 READING 808 0.986694
1413620130270 20567 READING 1115 0.972266
1413620131392 20568 FUNCTION lru lambda h: 0.769835 * (h ** 0.0381372)
1413620131392 20567 FUNCTION lru lambda h: 0.0216808 * (h ** 0.488652)
1413620131392 20568 RECOMMEND 1879
1413620131392 20567 RECOMMEND 1879
1413620131807 20568 READING 847 0.991738
1413620133079 20567 READING 1115 0.972971
1413620134393 20568 READING 848 0.988815
1413620135932 20567 READING 1120 0.966804
1413620137245 20568 READING 886 0.989555
1413620138866 20567 READING 1123 0.969503
1413620140034 20568 READING 888 0.990089
1413620141392 20568 FUNCTION lru lambda h: 0.771212 * (h ** 0.0377271)
1413620141392 20567 FUNCTION lru lambda h: 0.011532 * (h ** 0.584506)
1413620141392 20568 RECOMMEND 1879
1413620141392 20567 RECOMMEND 1879
1413620142022 20567 READING 1128 0.963163
1413620142995 20568 READING 930 0.991747
1413620144923 20567 READING 1131 0.970592
1413620145930 20568 READING 931 0.991458
1413620147845 20567 READING 1136 0.967315
1413620148935 20568 READING 968 0.992987
1413620150666 20567 READING 1140 0.972994
1413620151392 20568 FUNCTION lru lambda h: 0.772249 * (h ** 0.0374254)
1413620151392 20567 FUNCTION lru lambda h: 0.00331332 * (h ** 0.772615)
1413620151392 20568 RECOMMEND 1879
1413620151392 20567 RECOMMEND 1879
1413620151755 20568 READING 970 0.993957
1413620153615 20567 READING 1144 0.968737
1413620154956 20568 READING 999 0.992545
1413620156449 20567 READING 1149 0.967713
1413620158436 20568 READING 1004 0.989554
1413620159560 20567 READING 1154 0.964866
1413620161392 20568 FUNCTION lru lambda h: 0.773426 * (h ** 0.0370891)
1413620161392 20567 FUNCTION lru lambda h: 0.00285602 * (h ** 0.795985)
1413620161392 20568 RECOMMEND 1879
1413620161392 20567 RECOMMEND 1879
1413620161664 20568 READING 1039 0.990813
1413620162476 20567 READING 1158 0.967560
1413620165001 20568 READING 1040 0.992210
1413620165456 20567 READING 1163 0.970019
1413620168448 20568 READING 1078 0.994168
1413620170474 20567 READING 1165 0.610941
1413620171392 20568 FUNCTION lru lambda h: 0.774716 * (h ** 0.0367263)
1413620171392 20567 FUNCTION lru lambda h: 0.00305183 * (h ** 0.786532)
1413620171393 20568 RECOMMEND 1879
1413620171393 20567 RECOMMEND 1879
1413620172130 20568 READING 1079 0.993564
1413620173517 20567 READING 1228 0.995657
1413620175708 20568 READING 1112 0.988442
1413620176602 20567 READING 1228 0.988496
1413620179401 20568 READING 1114 0.988337
1413620179721 20567 READING 1237 0.987187
1413620181393 20568 FUNCTION lru lambda h: 0.77641 * (h ** 0.0362572)
1413620181393 20567 FUNCTION lru lambda h: 0.00155024 * (h ** 0.886708)
1413620181393 20568 RECOMMEND 1879
1413620181393 20567 RECOMMEND 1879
1413620182787 20567 READING 1240 0.988101
1413620183131 20568 READING 1157 0.991694
1413620185986 20567 READING 1240 0.985538
1413620187059 20568 READING 1161 0.987273
1413620189156 20567 READING 1137 0.984836
1413620190688 20568 READING 1204 0.994302
1413620191393 20568 FUNCTION lru lambda h: 0.778102 * (h ** 0.0357971)
1413620191393 20567 FUNCTION lru lambda h: 0.001 * (h ** 0.999)
1413620191394 20568 RECOMMEND 1879
1413620191394 20567 RECOMMEND 1879
1413620192278 20567 READING 1229 0.980485
1413620194599 20568 READING 1210 0.990274
1413620195396 20567 READING 1153 0.973426
1413620198617 20568 READING 1250 0.988151
1413620198724 20567 READING 1218 0.980752
1413620201394 20568 FUNCTION lru lambda h: 0.779466 * (h ** 0.0354317)
1413620201394 20567 FUNCTION lru lambda h: 0.001 * (h ** 0.999)
1413620201394 20568 RECOMMEND 1879
1413620201394 20567 RECOMMEND 1879
1413620201907 20567 READING 1170 0.975933
1413620202501 20568 READING 1248 0.992842
1413620205117 20567 READING 1224 0.975746
1413620206411 20568 READING 1244 0.989882
1413620208509 20567 READING 1224 0.974578
1413620210517 20568 READING 1235 0.993608
1413620211394 20568 FUNCTION lru lambda h: 0.780926 * (h ** 0.0350421)
1413620211394 20567 FUNCTION lru lambda h: 0.001 * (h ** 0.999)
1413620211394 20568 RECOMMEND 1879
1413620211394 20567 RECOMMEND 1879
1413620211818 20567 READING 1225 0.970271
1413620214643 20568 READING 1245 0.989157
1413620214956 20567 READING 1229 0.965039
1413620217986 20567 READING 1231 0.967089
1413620218472 20568 READING 1244 0.990074
1413620221249 20567 READING 1237 0.967143
1413620221394 20568 FUNCTION lru lambda h: 0.781489 * (h ** 0.0348922)
1413620221394 20567 FUNCTION lru lambda h: 0.001 * (h ** 0.999)
1413620221394 20568 RECOMMEND 1879
1413620221394 20567 RECOMMEND 1879
1413620222466 20568 READING 1243 0.992504
1413620224784 20567 READING 1243 0.967621
1413620226414 20568 READING 1225 0.987961
1413620227991 20567 READING 1249 0.963616
1413620230207 20568 READING 1238 0.996233
1413620231357 20567 READING 1255 0.968885
1413620231394 20568 FUNCTION lru lambda h: 0.782615 * (h ** 0.0345918)
1413620231394 20567 FUNCTION lru lambda h: 0.001 * (h ** 0.999)
1413620231394 20568 RECOMMEND 1879
1413620231394 20567 RECOMMEND 1879
1413620234220 20568 READING 1202 0.990500
1413620234684 20567 READING 1257 0.967245
1413620238032 20568 READING 1243 0.988690
1413620238061 20567 READING 1263 0.961619
1413620241395 20568 FUNCTION lru lambda h: 0.783046 * (h ** 0.0344761)
1413620241395 20567 FUNCTION lru lambda h: 0.001 * (h ** 0.999)
1413620241395 20568 RECOMMEND 1879
1413620241395 20567 RECOMMEND 1879
1413620241461 20567 READING 1264 0.968594
1413620242239 20568 READING 1211 0.991376
1413620244969 20567 READING 1269 0.969893
1413620246087 20568 READING 1241 0.992708
1413620248565 20567 READING 1270 0.973073
1413620249939 20568 READING 1240 0.994248
1413620251395 20568 FUNCTION lru lambda h: 0.783895 * (h ** 0.0342498)
1413620251395 20567 FUNCTION lru lambda h: 0.001 * (h ** 0.999)
1413620251395 20568 RECOMMEND 1879
1413620251395 20567 RECOMMEND 1879
1413620252197 20567 READING 1273 0.973542
1413620254134 20568 READING 1244 0.990174
1413620255810 20567 READING 1274 0.970562
1413620258081 20568 READING 1244 0.993973
1413620259490 20567 READING 1276 0.970966
1413620261395 20568 FUNCTION lru lambda h: 0.783821 * (h ** 0.0342695)
1413620261395 20567 FUNCTION lru lambda h: 0.001 * (h ** 0.999)
1413620261395 20568 RECOMMEND 1879
1413620261395 20567 RECOMMEND 1879
1413620262294 20568 READING 1246 0.991166
1413620263343 20567 READING 1277 0.968510
1413620266062 20568 READING 1246 0.992833
1413620266841 20567 READING 1278 0.967626
1413620269584 20568 READING 1247 0.993263
1413620271395 20568 FUNCTION lru lambda h: 0.784382 * (h ** 0.0341208)
1413620271395 20567 FUNCTION lru lambda h: 0.001 * (h ** 0.999)
1413620271395 20568 RECOMMEND 1879
1413620271395 20567 RECOMMEND 1879
1413620273224 20568 READING 1247 0.988900
1413620276731 20568 READING 1250 0.990748
1413620280239 20568 READING 1250 0.987933
1413620281397 20568 FUNCTION lru lambda h: 0.784439 * (h ** 0.0341057)
1413620281397 20567 FUNCTION lru lambda h: 0.001 * (h ** 0.999)
1413620281397 20568 RECOMMEND 1879
1413620281397 20567 RECOMMEND 1879
1413620283480 20567 READING 1279 0.824745
1413620284316 20568 READING 1250 0.994600
1413620288052 20568 READING 1251 0.990700
1413620291397 20568 FUNCTION lru lambda h: 0.784671 * (h ** 0.0340443)
1413620291397 20567 FUNCTION lru lambda h: 0.001 * (h ** 0.999)
1413620291397 20568 RECOMMEND 1879
1413620291397 20567 RECOMMEND 1879
1413620291493 20568 READING 1249 0.992222
1413620293678 20567 READING 1471 0.984013
1413620295260 20568 READING 1250 0.990786
1413620298724 20568 READING 1250 0.992286
1413620300724 20567 READING 1519 0.988387
1413620301322 20567 READING 1504 0.881486
1413620301397 20568 FUNCTION lru lambda h: 0.784936 * (h ** 0.0339741)
1413620301397 20567 FUNCTION lru lambda h: 0.001 * (h ** 0.999)
1413620301398 20568 RECOMMEND 1879
1413620301398 20567 RECOMMEND 1879
1413620301725 20567 READING 1512 0.783853
1413620302000 20567 READING 1493 0.664413
1413620302277 20567 READING 1513 0.662332
1413620302385 20568 READING 1252 0.993360
1413620302565 20567 READING 1533 0.647540
1413620302839 20567 READING 1544 0.641894
1413620303124 20567 READING 1570 0.718925
1413620303417 20567 READING 1575 0.714191
1413620303733 20567 READING 1604 0.750122
1413620305540 20567 READING 1605 0.957727
1413620306388 20568 READING 1253 0.991726
1413620309425 20567 READING 1622 0.989306
1413620310448 20568 READING 1255 0.994271
1413620311398 20568 FUNCTION lru lambda h: 0.78561 * (h ** 0.0337961)
1413620311398 20567 FUNCTION lru lambda h: 0.0356333 * (h ** 0.446015)
1413620311398 20568 RECOMMEND 1879
1413620311398 20567 RECOMMEND 1879
1413620313338 20567 READING 1633 0.988175
1413620314600 20568 READING 1256 0.990874
1413620317399 20567 READING 1656 0.986807
1413620318583 20568 READING 1257 0.993086
1413620321398 20568 FUNCTION lru lambda h: 0.786095 * (h ** 0.0336682)
1413620321398 20567 FUNCTION lru lambda h: 0.0294738 * (h ** 0.472833)
1413620321398 20568 RECOMMEND 1879
1413620321398 20567 RECOMMEND 1879
1413620321454 20567 READING 1659 0.985548
1413620322965 20568 READING 1258 0.991837
1413620325367 20568 DEATH 102
1413620325928 20567 READING 1657 0.989642
1413620330483 20567 READING 1665 0.990036
1413620331399 20567 FUNCTION lru lambda h: 0.0203878 * (h ** 0.524407)
1413620331399 20567 RECOMMEND 3759
1413620334905 20567 READING 1654 0.988805
1413620339427 20567 READING 1664 0.988060
1413620341399 20567 FUNCTION lru lambda h: 0.0135238 * (h ** 0.581778)
1413620341399 20567 RECOMMEND 3759
1413620344120 20567 READING 1639 0.987485
1413620348645 20567 READING 1519 0.986134
1413620351399 20567 FUNCTION lru lambda h: 0.0123772 * (h ** 0.594043)
1413620351399 20567 RECOMMEND 3759
1413620353582 20567 READING 1626 0.986281
1413620358721 20567 READING 1544 0.985962
1413620361399 20567 FUNCTION lru lambda h: 0.00885315 * (h ** 0.641422)
1413620361399 20567 RECOMMEND 3759
1413620363414 20567 READING 1631 0.983588
1413620368402 20567 READING 1634 0.983713
1413620371399 20567 FUNCTION lru lambda h: 0.00544136 * (h ** 0.70917)
1413620371399 20567 RECOMMEND 3759
1413620373393 20567 READING 1637 0.982536
1413620378294 20567 READING 1640 0.981212
1413620381400 20567 FUNCTION lru lambda h: 0.0271007 * (h ** 0.485888)
1413620381400 20567 RECOMMEND 3759
1413620383593 20567 READING 1646 0.982634
1413620388667 20567 READING 1649 0.981453
1413620391400 20567 FUNCTION lru lambda h: 0.0395108 * (h ** 0.433695)
1413620391400 20567 RECOMMEND 3759
1413620394401 20567 READING 1656 0.835540
1413620399198 20567 READING 1541 0.996243
1413620401400 20567 FUNCTION lru lambda h: 0.0462716 * (h ** 0.411676)
1413620401400 20567 RECOMMEND 3759
1413620404014 20567 READING 1540 0.994940
1413620409031 20567 READING 1548 0.993799
1413620411400 20567 FUNCTION lru lambda h: 0.057073 * (h ** 0.382891)
1413620411400 20567 RECOMMEND 3759
1413620413729 20567 READING 1552 0.991969
1413620418641 20567 READING 1385 0.991217
1413620421400 20567 FUNCTION lru lambda h: 0.0569279 * (h ** 0.383489)
1413620421400 20567 RECOMMEND 3759
1413620423908 20567 READING 1540 0.990715
1413620428970 20567 READING 1409 0.989207
1413620431401 20567 FUNCTION lru lambda h: 0.0551168 * (h ** 0.388089)
1413620431401 20567 RECOMMEND 3759
1413620433906 20567 READING 1522 0.987751
1413620438864 20567 READING 1432 0.986613
1413620441401 20567 FUNCTION lru lambda h: 0.050053 * (h ** 0.401609)
1413620441401 20567 RECOMMEND 3759
1413620443887 20567 READING 1518 0.985784
1413620449217 20567 READING 1523 0.985630
1413620451401 20567 FUNCTION lru lambda h: 0.0488649 * (h ** 0.405079)
1413620451401 20567 RECOMMEND 3759
1413620454653 20567 READING 1525 0.985344
1413620460113 20567 READING 1527 0.984486
1413620461401 20567 FUNCTION lru lambda h: 0.0476776 * (h ** 0.408608)
1413620461401 20567 RECOMMEND 3759
1413620465440 20567 READING 1531 0.982837
1413620471402 20567 FUNCTION lru lambda h: 0.0467004 * (h ** 0.411521)
1413620471402 20567 RECOMMEND 3759
1413620478020 20567 READING 1538 0.987411
1413620481402 20567 FUNCTION lru lambda h: 0.0447053 * (h ** 0.417598)
1413620481402 20567 RECOMMEND 3759
1413620489629 20567 READING 1522 0.988879
1413620491402 20567 FUNCTION lru lambda h: 0.0446959 * (h ** 0.417628)
1413620491402 20567 RECOMMEND 3759
1413620495687 20567 READING 1553 0.980582
1413620496250 20567 READING 1558 0.808030
1413620496626 20567 READING 1587 0.670298
1413620496973 20567 READING 1620 0.708300
1413620497328 20567 READING 1647 0.691620
1413620497694 20567 READING 1686 0.729510
1413620498058 20567 READING 1699 0.735785
1413620498194 20567 DEATH 246
