===== DaCapo 9.12 avrora starting warmup 1 =====
===== DaCapo 9.12 avrora completed warmup 1 in 23191 msec =====
===== DaCapo 9.12 avrora starting warmup 2 =====
===== DaCapo 9.12 avrora completed warmup 2 in 21189 msec =====
===== DaCapo 9.12 avrora starting warmup 3 =====
===== DaCapo 9.12 avrora completed warmup 3 in 21782 msec =====
===== DaCapo 9.12 avrora starting warmup 4 =====
===== DaCapo 9.12 avrora completed warmup 4 in 21536 msec =====
===== DaCapo 9.12 avrora starting warmup 5 =====
===== DaCapo 9.12 avrora completed warmup 5 in 20967 msec =====
===== DaCapo 9.12 avrora starting warmup 6 =====
===== DaCapo 9.12 avrora completed warmup 6 in 20962 msec =====
===== DaCapo 9.12 avrora starting warmup 7 =====
===== DaCapo 9.12 avrora completed warmup 7 in 21104 msec =====
===== DaCapo 9.12 avrora starting warmup 8 =====
===== DaCapo 9.12 avrora completed warmup 8 in 22042 msec =====
===== DaCapo 9.12 avrora starting warmup 9 =====
===== DaCapo 9.12 avrora completed warmup 9 in 21748 msec =====
===== DaCapo 9.12 avrora starting warmup 10 =====
===== DaCapo 9.12 avrora completed warmup 10 in 21862 msec =====
===== DaCapo 9.12 avrora starting warmup 11 =====
===== DaCapo 9.12 avrora completed warmup 11 in 21124 msec =====
===== DaCapo 9.12 avrora starting warmup 12 =====
===== DaCapo 9.12 avrora completed warmup 12 in 21683 msec =====
===== DaCapo 9.12 avrora starting warmup 13 =====
===== DaCapo 9.12 avrora completed warmup 13 in 21868 msec =====
===== DaCapo 9.12 avrora starting warmup 14 =====
===== DaCapo 9.12 avrora completed warmup 14 in 21914 msec =====
===== DaCapo 9.12 avrora starting warmup 15 =====
===== DaCapo 9.12 avrora completed warmup 15 in 21994 msec =====
===== DaCapo 9.12 avrora starting warmup 16 =====
===== DaCapo 9.12 avrora completed warmup 16 in 21176 msec =====
===== DaCapo 9.12 avrora starting warmup 17 =====
===== DaCapo 9.12 avrora completed warmup 17 in 21616 msec =====
===== DaCapo 9.12 avrora starting warmup 18 =====
===== DaCapo 9.12 avrora completed warmup 18 in 20788 msec =====
===== DaCapo 9.12 avrora starting warmup 19 =====
===== DaCapo 9.12 avrora completed warmup 19 in 21580 msec =====
===== DaCapo 9.12 avrora starting warmup 20 =====
===== DaCapo 9.12 avrora completed warmup 20 in 21723 msec =====
===== DaCapo 9.12 avrora starting warmup 21 =====
===== DaCapo 9.12 avrora completed warmup 21 in 21562 msec =====
===== DaCapo 9.12 avrora starting warmup 22 =====
===== DaCapo 9.12 avrora completed warmup 22 in 21879 msec =====
===== DaCapo 9.12 avrora starting warmup 23 =====
===== DaCapo 9.12 avrora completed warmup 23 in 21690 msec =====
===== DaCapo 9.12 avrora starting warmup 24 =====
===== DaCapo 9.12 avrora completed warmup 24 in 21677 msec =====
===== DaCapo 9.12 avrora starting warmup 25 =====
===== DaCapo 9.12 avrora completed warmup 25 in 21503 msec =====
===== DaCapo 9.12 avrora starting warmup 26 =====
===== DaCapo 9.12 avrora completed warmup 26 in 21441 msec =====
===== DaCapo 9.12 avrora starting warmup 27 =====
===== DaCapo 9.12 avrora completed warmup 27 in 21597 msec =====
===== DaCapo 9.12 avrora starting warmup 28 =====
===== DaCapo 9.12 avrora completed warmup 28 in 21551 msec =====
===== DaCapo 9.12 avrora starting warmup 29 =====
===== DaCapo 9.12 avrora completed warmup 29 in 21572 msec =====
===== DaCapo 9.12 avrora starting warmup 30 =====
===== DaCapo 9.12 avrora completed warmup 30 in 21325 msec =====
===== DaCapo 9.12 avrora starting warmup 31 =====
===== DaCapo 9.12 avrora completed warmup 31 in 21537 msec =====
===== DaCapo 9.12 avrora starting warmup 32 =====
===== DaCapo 9.12 avrora completed warmup 32 in 22209 msec =====
===== DaCapo 9.12 avrora starting warmup 33 =====
===== DaCapo 9.12 avrora completed warmup 33 in 20866 msec =====
===== DaCapo 9.12 avrora starting warmup 34 =====
===== DaCapo 9.12 avrora completed warmup 34 in 21755 msec =====
===== DaCapo 9.12 avrora starting warmup 35 =====
===== DaCapo 9.12 avrora completed warmup 35 in 21794 msec =====
===== DaCapo 9.12 avrora starting warmup 36 =====
===== DaCapo 9.12 avrora completed warmup 36 in 21656 msec =====
===== DaCapo 9.12 avrora starting warmup 37 =====
===== DaCapo 9.12 avrora completed warmup 37 in 21612 msec =====
===== DaCapo 9.12 avrora starting warmup 38 =====
===== DaCapo 9.12 avrora completed warmup 38 in 21552 msec =====
===== DaCapo 9.12 avrora starting warmup 39 =====
===== DaCapo 9.12 avrora completed warmup 39 in 21622 msec =====
===== DaCapo 9.12 avrora starting warmup 40 =====
===== DaCapo 9.12 avrora completed warmup 40 in 21619 msec =====
===== DaCapo 9.12 avrora starting warmup 41 =====
===== DaCapo 9.12 avrora completed warmup 41 in 21780 msec =====
===== DaCapo 9.12 avrora starting warmup 42 =====
===== DaCapo 9.12 avrora completed warmup 42 in 22055 msec =====
===== DaCapo 9.12 avrora starting warmup 43 =====
===== DaCapo 9.12 avrora completed warmup 43 in 21775 msec =====
===== DaCapo 9.12 avrora starting warmup 44 =====
===== DaCapo 9.12 avrora completed warmup 44 in 21699 msec =====
===== DaCapo 9.12 avrora starting warmup 45 =====
===== DaCapo 9.12 avrora completed warmup 45 in 21623 msec =====
===== DaCapo 9.12 avrora starting warmup 46 =====
===== DaCapo 9.12 avrora completed warmup 46 in 21995 msec =====
===== DaCapo 9.12 avrora starting warmup 47 =====
===== DaCapo 9.12 avrora completed warmup 47 in 21920 msec =====
===== DaCapo 9.12 avrora starting warmup 48 =====
===== DaCapo 9.12 avrora completed warmup 48 in 21777 msec =====
===== DaCapo 9.12 avrora starting warmup 49 =====
===== DaCapo 9.12 avrora completed warmup 49 in 21581 msec =====
===== DaCapo 9.12 avrora starting warmup 50 =====
===== DaCapo 9.12 avrora completed warmup 50 in 21680 msec =====
===== DaCapo 9.12 avrora starting warmup 51 =====
===== DaCapo 9.12 avrora completed warmup 51 in 21925 msec =====
===== DaCapo 9.12 avrora starting warmup 52 =====
===== DaCapo 9.12 avrora completed warmup 52 in 21626 msec =====
===== DaCapo 9.12 avrora starting warmup 53 =====
===== DaCapo 9.12 avrora completed warmup 53 in 21433 msec =====
===== DaCapo 9.12 avrora starting warmup 54 =====
===== DaCapo 9.12 avrora completed warmup 54 in 22015 msec =====
===== DaCapo 9.12 avrora starting warmup 55 =====
===== DaCapo 9.12 avrora completed warmup 55 in 21620 msec =====
===== DaCapo 9.12 avrora starting warmup 56 =====
