             total       used       free     shared    buffers     cached
Mem:       3806920    2648520    1158400          0     357620    1434496
-/+ buffers/cache:     856404    2950516
Swap:      6143992      14128    6129864
