MemTotal:       16318588 kB
MemFree:        11054248 kB
Buffers:          647932 kB
Cached:          3656088 kB
SwapCached:            0 kB
Active:          2629804 kB
Inactive:        2160428 kB
Active(anon):     487012 kB
Inactive(anon):      748 kB
Active(file):    2142792 kB
Inactive(file):  2159680 kB
Unevictable:           0 kB
Mlocked:               0 kB
SwapTotal:      16728060 kB
SwapFree:       16728060 kB
Dirty:               436 kB
Writeback:             0 kB
AnonPages:        486224 kB
Mapped:            17364 kB
Shmem:              1552 kB
Slab:             344776 kB
SReclaimable:     326100 kB
SUnreclaim:        18676 kB
KernelStack:        1592 kB
PageTables:         4020 kB
NFS_Unstable:          0 kB
Bounce:                0 kB
WritebackTmp:          0 kB
CommitLimit:    24887352 kB
Committed_AS:     643020 kB
VmallocTotal:   34359738367 kB
VmallocUsed:      370636 kB
VmallocChunk:   34359363072 kB
HardwareCorrupted:     0 kB
AnonHugePages:    460800 kB
HugePages_Total:       0
HugePages_Free:        0
HugePages_Rsvd:        0
HugePages_Surp:        0
Hugepagesize:       2048 kB
DirectMap4k:       68544 kB
DirectMap2M:    16592896 kB
