economemd
    total memory: 1000 MB
    timer interval: 10 s
    timer start state: running
    utility model: root

    caches:
        lru

    force utility function validity: yes
    make recommendations: no
    equal recommendations: no

    reading receiver name: simple
    command receiver name: simple

    dump file: economemd.dump.log
    log file: /home/callum/economics_memory_code/dynamic_sizing/data/output/gcFactor_2014_09_24_12_05_40/daemon_log_14.txt
    log readings: yes
    log functions: yes

PyOptimiser: initialising...
PyOptimiser: initialised
ReadingThread: starting
TimerThread: starting
CommandThread: starting
Reading from 6196: heap size 9 MB, throughput 0.980524
Clients: 1
Reading from 6196: heap size 9 MB, throughput 0.197547
Reading from 6196: heap size 11 MB, throughput 0.018391
Reading from 6196: heap size 19 MB, throughput 0.0224556
Reading from 6196: heap size 28 MB, throughput 0.0243216
Reading from 6196: heap size 40 MB, throughput 0.151639
Reading from 6196: heap size 47 MB, throughput 0.0898287
Reading from 6196: heap size 49 MB, throughput 0.0115398
Reading from 6196: heap size 71 MB, throughput 0.0823371
Reading from 6196: heap size 75 MB, throughput 0.0801334
Reading from 6196: heap size 75 MB, throughput 0.0669249
Reading from 6196: heap size 78 MB, throughput 0.00614964
Reading from 6196: heap size 105 MB, throughput 0.0582777
Reading from 6196: heap size 106 MB, throughput 0.0788921
Reading from 6196: heap size 107 MB, throughput 0.066306
Reading from 6196: heap size 111 MB, throughput 0.00656457
Reading from 6196: heap size 142 MB, throughput 0.0400983
Reading from 6196: heap size 145 MB, throughput 0.00657493
Reading from 6196: heap size 180 MB, throughput 0.063958
Reading from 6196: heap size 180 MB, throughput 0.102319
Reading from 6196: heap size 179 MB, throughput 0.070212
Reading from 6196: heap size 181 MB, throughput 0.0530132
Reading from 6196: heap size 185 MB, throughput 0.00565447
Reading from 6196: heap size 230 MB, throughput 0.0363191
Reading from 6196: heap size 231 MB, throughput 0.0807422
Reading from 6196: heap size 234 MB, throughput 0.0786358
Reading from 6196: heap size 235 MB, throughput 0.00598626
Reading from 6196: heap size 282 MB, throughput 0.0422924
Reading from 6196: heap size 282 MB, throughput 0.114224
Reading from 6196: heap size 284 MB, throughput 0.0647168
Reading from 6196: heap size 287 MB, throughput 0.00561721
Reading from 6196: heap size 349 MB, throughput 0.0343174
Reading from 6196: heap size 352 MB, throughput 0.121597
Reading from 6196: heap size 355 MB, throughput 0.00604384
Reading from 6196: heap size 425 MB, throughput 0.0427862
Reading from 6196: heap size 429 MB, throughput 0.0739344
Reading from 6196: heap size 426 MB, throughput 0.0550369
Reading from 6196: heap size 433 MB, throughput 0.0398011
Reading from 6196: heap size 439 MB, throughput 0.00290734
Reading from 6196: heap size 487 MB, throughput 0.0244718
Reading from 6196: heap size 526 MB, throughput 0.106175
Reading from 6196: heap size 488 MB, throughput 0.0746093
Reading from 6196: heap size 522 MB, throughput 0.0786827
Reading from 6196: heap size 524 MB, throughput 0.00357553
Reading from 6196: heap size 619 MB, throughput 0.0332479
Reading from 6196: heap size 622 MB, throughput 0.127075
Reading from 6196: heap size 624 MB, throughput 0.171249
Reading from 6196: heap size 625 MB, throughput 0.0286815
Reading from 6196: heap size 254 MB, throughput 0.245996
Reading from 6196: heap size 255 MB, throughput 0.134366
Reading from 6196: heap size 255 MB, throughput 0.0936972
Reading from 6196: heap size 259 MB, throughput 0.0123423
Reading from 6196: heap size 400 MB, throughput 0.12365
Reading from 6196: heap size 400 MB, throughput 0.103917
Reading from 6196: heap size 400 MB, throughput 0.112863
Reading from 6196: heap size 402 MB, throughput 0.00703281
Reading from 6196: heap size 553 MB, throughput 0.0888189
Reading from 6196: heap size 556 MB, throughput 0.0976243
Reading from 6196: heap size 545 MB, throughput 0.00556641
Reading from 6196: heap size 737 MB, throughput 0.0699775
Reading from 6196: heap size 734 MB, throughput 0.157069
Reading from 6196: heap size 738 MB, throughput 0.26087
Reading from 6196: heap size 746 MB, throughput 0.161701
Reading from 6196: heap size 748 MB, throughput 0.628417
Reading from 6196: heap size 756 MB, throughput 0.747207
Reading from 6196: heap size 759 MB, throughput 0.742308
Reading from 6196: heap size 765 MB, throughput 0.724071
Reading from 6196: heap size 766 MB, throughput 0.752625
Reading from 6196: heap size 766 MB, throughput 0.779905
Reading from 6196: heap size 768 MB, throughput 0.78043
Reading from 6196: heap size 764 MB, throughput 0.767851
Reading from 6196: heap size 767 MB, throughput 0.755133
Reading from 6196: heap size 762 MB, throughput 0.779779
Reading from 6196: heap size 765 MB, throughput 0.787396
Reading from 6196: heap size 759 MB, throughput 0.795632
Reading from 6196: heap size 762 MB, throughput 0.797715
Reading from 6196: heap size 755 MB, throughput 0.865547
Reading from 6196: heap size 759 MB, throughput 0.820362
Reading from 6196: heap size 752 MB, throughput 0.815886
Reading from 6196: heap size 755 MB, throughput 0.808636
Reading from 6196: heap size 749 MB, throughput 0.810327
Reading from 6196: heap size 752 MB, throughput 0.800471
Reading from 6196: heap size 747 MB, throughput 0.825613
Reading from 6196: heap size 750 MB, throughput 0.792606
Reading from 6196: heap size 745 MB, throughput 0.804487
Reading from 6196: heap size 748 MB, throughput 0.817149
Reading from 6196: heap size 743 MB, throughput 0.843221
Reading from 6196: heap size 746 MB, throughput 0.82996
Reading from 6196: heap size 743 MB, throughput 0.850751
Reading from 6196: heap size 745 MB, throughput 0.844987
Reading from 6196: heap size 742 MB, throughput 0.859382
Reading from 6196: heap size 745 MB, throughput 0.848967
Reading from 6196: heap size 744 MB, throughput 0.845968
Reading from 6196: heap size 745 MB, throughput 0.835667
Reading from 6196: heap size 744 MB, throughput 0.854077
Reading from 6196: heap size 746 MB, throughput 0.838429
Reading from 6196: heap size 746 MB, throughput 0.844348
Reading from 6196: heap size 747 MB, throughput 0.877679
Reading from 6196: heap size 748 MB, throughput 0.854739
Reading from 6196: heap size 749 MB, throughput 0.861119
Reading from 6196: heap size 750 MB, throughput 0.872212
Reading from 6196: heap size 751 MB, throughput 0.865074
Reading from 6196: heap size 752 MB, throughput 0.865855
Reading from 6196: heap size 753 MB, throughput 0.868654
Reading from 6196: heap size 755 MB, throughput 0.873997
Reading from 6196: heap size 756 MB, throughput 0.888319
Reading from 6196: heap size 758 MB, throughput 0.881343
Reading from 6196: heap size 759 MB, throughput 0.8334
Reading from 6196: heap size 762 MB, throughput 0.88557
Reading from 6196: heap size 762 MB, throughput 0.880468
Reading from 6196: heap size 766 MB, throughput 0.872147
Reading from 6196: heap size 766 MB, throughput 0.854823
Reading from 6196: heap size 770 MB, throughput 0.866459
Reading from 6196: heap size 770 MB, throughput 0.855493
Reading from 6196: heap size 774 MB, throughput 0.880874
Reading from 6196: heap size 774 MB, throughput 0.88107
Reading from 6196: heap size 778 MB, throughput 0.864122
Reading from 6196: heap size 778 MB, throughput 0.881822
Reading from 6196: heap size 782 MB, throughput 0.875554
Reading from 6196: heap size 783 MB, throughput 0.841223
Reading from 6196: heap size 788 MB, throughput 0.849862
Reading from 6196: heap size 788 MB, throughput 0.783223
Reading from 6196: heap size 792 MB, throughput 0.81794
Reading from 6196: heap size 794 MB, throughput 0.764977
Reading from 6196: heap size 800 MB, throughput 0.853125
Reading from 6196: heap size 801 MB, throughput 0.838487
Reading from 6196: heap size 808 MB, throughput 0.834141
Reading from 6196: heap size 808 MB, throughput 0.74088
Reading from 6196: heap size 814 MB, throughput 0.863763
Reading from 6196: heap size 816 MB, throughput 0.778291
Reading from 6196: heap size 822 MB, throughput 0.827391
Reading from 6196: heap size 823 MB, throughput 0.77662
Reading from 6196: heap size 830 MB, throughput 0.838566
Reading from 6196: heap size 831 MB, throughput 0.650608
Reading from 6196: heap size 836 MB, throughput 0.613879
Reading from 6196: heap size 840 MB, throughput 0.62263
Reading from 6196: heap size 854 MB, throughput 0.662628
Reading from 6196: heap size 858 MB, throughput 0.540465
Reading from 6196: heap size 870 MB, throughput 0.670706
Reading from 6196: heap size 876 MB, throughput 0.620481
Reading from 6196: heap size 893 MB, throughput 0.738673
Reading from 6196: heap size 895 MB, throughput 0.51989
Reading from 6196: heap size 901 MB, throughput 0.682149
Reading from 6196: heap size 909 MB, throughput 0.656312
Reading from 6196: heap size 928 MB, throughput 0.702464
Reading from 6196: heap size 929 MB, throughput 0.603433
Reading from 6196: heap size 947 MB, throughput 0.0516801
Reading from 6196: heap size 1095 MB, throughput 0.511354
Reading from 6196: heap size 1139 MB, throughput 0.474624
Reading from 6196: heap size 1141 MB, throughput 0.317054
Reading from 6196: heap size 1154 MB, throughput 0.527438
Reading from 6196: heap size 1180 MB, throughput 0.0394116
Reading from 6196: heap size 1307 MB, throughput 0.251912
Reading from 6196: heap size 1376 MB, throughput 0.0311939
Reading from 6196: heap size 1400 MB, throughput 0.241811
Reading from 6196: heap size 1517 MB, throughput 0.212621
Reading from 6196: heap size 1517 MB, throughput 0.192898
Reading from 6196: heap size 1517 MB, throughput 0.0967428
Reading from 6196: heap size 1477 MB, throughput 0.0702973
Reading from 6196: heap size 1550 MB, throughput 0.264377
Reading from 6196: heap size 1618 MB, throughput 0.142591
Reading from 6196: heap size 1639 MB, throughput 0.0814076
Reading from 6196: heap size 1611 MB, throughput 0.0645847
Reading from 6196: heap size 1656 MB, throughput 0.467367
Reading from 6196: heap size 1717 MB, throughput 0.213453
Reading from 6196: heap size 1304 MB, throughput 0.129869
Reading from 6196: heap size 1711 MB, throughput 0.101962
Reading from 6196: heap size 1712 MB, throughput 0.0193991
Reading from 6196: heap size 1644 MB, throughput 0.960944
Reading from 6196: heap size 1647 MB, throughput 0.952451
Reading from 6196: heap size 1671 MB, throughput 0.947597
Reading from 6196: heap size 1675 MB, throughput 0.94664
Reading from 6196: heap size 1661 MB, throughput 0.958297
Reading from 6196: heap size 1062 MB, throughput 0.963646
Reading from 6196: heap size 1633 MB, throughput 0.960305
Reading from 6196: heap size 1073 MB, throughput 0.963664
Reading from 6196: heap size 1595 MB, throughput 0.964375
Reading from 6196: heap size 1082 MB, throughput 0.966263
Reading from 6196: heap size 1554 MB, throughput 0.966797
Reading from 6196: heap size 1088 MB, throughput 0.94671
Reading from 6196: heap size 1510 MB, throughput 0.942799
Reading from 6196: heap size 1094 MB, throughput 0.940323
Reading from 6196: heap size 1468 MB, throughput 0.956263
Reading from 6196: heap size 1099 MB, throughput 0.952851
Reading from 6196: heap size 1429 MB, throughput 0.942765
Reading from 6196: heap size 1103 MB, throughput 0.959781
Reading from 6196: heap size 1392 MB, throughput 0.959426
Reading from 6196: heap size 1107 MB, throughput 0.948425
Reading from 6196: heap size 1358 MB, throughput 0.942697
Reading from 6196: heap size 1111 MB, throughput 0.949981
Reading from 6196: heap size 1329 MB, throughput 0.948846
Reading from 6196: heap size 1115 MB, throughput 0.93746
Reading from 6196: heap size 1304 MB, throughput 0.957274
Reading from 6196: heap size 1119 MB, throughput 0.953719
Reading from 6196: heap size 1282 MB, throughput 0.94363
Reading from 6196: heap size 1124 MB, throughput 0.942122
Reading from 6196: heap size 1264 MB, throughput 0.96316
Reading from 6196: heap size 1128 MB, throughput 0.957811
Reading from 6196: heap size 1247 MB, throughput 0.931861
Reading from 6196: heap size 1135 MB, throughput 0.935073
Reading from 6196: heap size 1235 MB, throughput 0.93527
Reading from 6196: heap size 1141 MB, throughput 0.963428
Reading from 6196: heap size 1225 MB, throughput 0.955231
Reading from 6196: heap size 1143 MB, throughput 0.914478
Reading from 6196: heap size 1218 MB, throughput 0.830689
Reading from 6196: heap size 1224 MB, throughput 0.754524
Reading from 6196: heap size 1229 MB, throughput 0.837302
Reading from 6196: heap size 1229 MB, throughput 0.933524
Reading from 6196: heap size 1226 MB, throughput 0.853227
Reading from 6196: heap size 1232 MB, throughput 0.858552
Reading from 6196: heap size 1236 MB, throughput 0.635468
Reading from 6196: heap size 1239 MB, throughput 0.505837
Reading from 6196: heap size 1255 MB, throughput 0.552996
Reading from 6196: heap size 1270 MB, throughput 0.740039
Reading from 6196: heap size 1302 MB, throughput 0.643013
Reading from 6196: heap size 1307 MB, throughput 0.397962
Reading from 6196: heap size 1322 MB, throughput 0.54603
Reading from 6196: heap size 1345 MB, throughput 0.0248363
Reading from 6196: heap size 1611 MB, throughput 0.0989165
Reading from 6196: heap size 1754 MB, throughput 0.0204055
Reading from 6196: heap size 1926 MB, throughput 0.260866
Reading from 6196: heap size 1693 MB, throughput 0.140251
Reading from 6196: heap size 2021 MB, throughput 0.0966227
Reading from 6196: heap size 2039 MB, throughput 0.398792
Reading from 6196: heap size 2095 MB, throughput 0.204568
Reading from 6196: heap size 2109 MB, throughput 0.112802
Reading from 6196: heap size 2069 MB, throughput 0.083436
Reading from 6196: heap size 2111 MB, throughput 0.0647467
Reading from 6196: heap size 2134 MB, throughput 0.0420259
Reading from 6196: heap size 2218 MB, throughput 0.049089
Reading from 6196: heap size 2247 MB, throughput 0.00723834
Reading from 6196: heap size 1262 MB, throughput 0.846798
Reading from 6196: heap size 1868 MB, throughput 0.873937
Reading from 6196: heap size 1873 MB, throughput 0.895132
Reading from 6196: heap size 1853 MB, throughput 0.917777
Reading from 6196: heap size 1089 MB, throughput 0.861032
Reading from 6196: heap size 1811 MB, throughput 0.903566
Reading from 6196: heap size 1096 MB, throughput 0.902557
Reading from 6196: heap size 1761 MB, throughput 0.909023
Reading from 6196: heap size 1101 MB, throughput 0.8736
Reading from 6196: heap size 1704 MB, throughput 0.839627
Reading from 6196: heap size 1106 MB, throughput 0.896404
Reading from 6196: heap size 1646 MB, throughput 0.893749
Reading from 6196: heap size 1111 MB, throughput 0.889563
Reading from 6196: heap size 1591 MB, throughput 0.909091
Reading from 6196: heap size 1115 MB, throughput 0.900683
Reading from 6196: heap size 1537 MB, throughput 0.902912
Reading from 6196: heap size 1118 MB, throughput 0.884913
Reading from 6196: heap size 1489 MB, throughput 0.881604
Reading from 6196: heap size 1122 MB, throughput 0.880947
Reading from 6196: heap size 1445 MB, throughput 0.905045
Reading from 6196: heap size 1126 MB, throughput 0.909836
Reading from 6196: heap size 1406 MB, throughput 0.900296
Reading from 6196: heap size 1129 MB, throughput 0.871697
Reading from 6196: heap size 1372 MB, throughput 0.891231
Reading from 6196: heap size 1133 MB, throughput 0.883877
Reading from 6196: heap size 1342 MB, throughput 0.919352
Reading from 6196: heap size 1137 MB, throughput 0.919168
Reading from 6196: heap size 1316 MB, throughput 0.886753
Reading from 6196: heap size 1141 MB, throughput 0.904838
Reading from 6196: heap size 1295 MB, throughput 0.916358
Reading from 6196: heap size 1145 MB, throughput 0.901879
Reading from 6196: heap size 1277 MB, throughput 0.922891
Reading from 6196: heap size 1149 MB, throughput 0.930493
Reading from 6196: heap size 1261 MB, throughput 0.940297
Reading from 6196: heap size 1153 MB, throughput 0.93428
Reading from 6196: heap size 1247 MB, throughput 0.927434
Reading from 6196: heap size 1156 MB, throughput 0.888559
Reading from 6196: heap size 1238 MB, throughput 0.90078
Reading from 6196: heap size 1161 MB, throughput 0.894923
Reading from 6196: heap size 1230 MB, throughput 0.919717
Reading from 6196: heap size 1164 MB, throughput 0.913934
Reading from 6196: heap size 1224 MB, throughput 0.920782
Reading from 6196: heap size 1169 MB, throughput 0.905289
Reading from 6196: heap size 1219 MB, throughput 0.926131
Reading from 6196: heap size 1224 MB, throughput 0.920752
Reading from 6196: heap size 1216 MB, throughput 0.926791
Reading from 6196: heap size 1220 MB, throughput 0.93899
Reading from 6196: heap size 1215 MB, throughput 0.911857
Reading from 6196: heap size 1218 MB, throughput 0.935999
Reading from 6196: heap size 1213 MB, throughput 0.942632
Reading from 6196: heap size 1216 MB, throughput 0.92496
Reading from 6196: heap size 1214 MB, throughput 0.921289
Reading from 6196: heap size 1216 MB, throughput 0.936763
Reading from 6196: heap size 1215 MB, throughput 0.89561
Reading from 6196: heap size 1217 MB, throughput 0.890604
Reading from 6196: heap size 1217 MB, throughput 0.878921
Reading from 6196: heap size 1219 MB, throughput 0.903178
Reading from 6196: heap size 1222 MB, throughput 0.910678
Reading from 6196: heap size 1223 MB, throughput 0.855162
Reading from 6196: heap size 1228 MB, throughput 0.93686
Reading from 6196: heap size 1228 MB, throughput 0.774975
Reading from 6196: heap size 1232 MB, throughput 0.919752
Reading from 6196: heap size 1234 MB, throughput 0.805891
Reading from 6196: heap size 1240 MB, throughput 0.946408
Reading from 6196: heap size 1242 MB, throughput 0.640189
Reading from 6196: heap size 1243 MB, throughput 0.777124
Reading from 6196: heap size 1249 MB, throughput 0.784859
Reading from 6196: heap size 1263 MB, throughput 0.804719
Reading from 6196: heap size 1264 MB, throughput 0.692804
Reading from 6196: heap size 1275 MB, throughput 0.91548
Reading from 6196: heap size 1278 MB, throughput 0.505189
Reading from 6196: heap size 1277 MB, throughput 0.645909
Reading from 6196: heap size 1291 MB, throughput 0.625382
Reading from 6196: heap size 1317 MB, throughput 0.727741
Reading from 6196: heap size 1318 MB, throughput 0.620675
Reading from 6196: heap size 1338 MB, throughput 0.621008
Reading from 6196: heap size 1339 MB, throughput 0.438895
Reading from 6196: heap size 1357 MB, throughput 0.465377
Reading from 6196: heap size 1371 MB, throughput 0.236631
Reading from 6196: heap size 1368 MB, throughput 0.229695
Reading from 6196: heap size 1422 MB, throughput 0.181408
Reading from 6196: heap size 1467 MB, throughput 0.0235688
Reading from 6196: heap size 1847 MB, throughput 0.175909
Reading from 6196: heap size 1984 MB, throughput 0.127084
Reading from 6196: heap size 2002 MB, throughput 0.1987
Reading from 6196: heap size 2138 MB, throughput 0.137183
Reading from 6196: heap size 2142 MB, throughput 0.176071
Reading from 6196: heap size 2285 MB, throughput 0.036054
Reading from 6196: heap size 1929 MB, throughput 0.951874
Reading from 6196: heap size 2027 MB, throughput 0.954527
Reading from 6196: heap size 2039 MB, throughput 0.954358
Reading from 6196: heap size 2042 MB, throughput 0.978401
Reading from 6196: heap size 2058 MB, throughput 0.976572
Reading from 6196: heap size 2028 MB, throughput 0.979708
Reading from 6196: heap size 2052 MB, throughput 0.978672
Reading from 6196: heap size 2000 MB, throughput 0.981381
Reading from 6196: heap size 1449 MB, throughput 0.973001
Reading from 6196: heap size 1964 MB, throughput 0.979108
Reading from 6196: heap size 1464 MB, throughput 0.974837
Reading from 6196: heap size 1924 MB, throughput 0.9731
Reading from 6196: heap size 1477 MB, throughput 0.978066
Reading from 6196: heap size 1883 MB, throughput 0.975523
Reading from 6196: heap size 1486 MB, throughput 0.968814
Reading from 6196: heap size 1843 MB, throughput 0.973161
Reading from 6196: heap size 1493 MB, throughput 0.930703
Reading from 6196: heap size 1809 MB, throughput 0.954951
Reading from 6196: heap size 1506 MB, throughput 0.944894
Reading from 6196: heap size 1776 MB, throughput 0.956559
Reading from 6196: heap size 1514 MB, throughput 0.871293
Reading from 6196: heap size 1754 MB, throughput 0.847094
Reading from 6196: heap size 1556 MB, throughput 0.950578
Reading from 6196: heap size 1734 MB, throughput 0.6919
Reading from 6196: heap size 1751 MB, throughput 0.755404
Reading from 6196: heap size 1767 MB, throughput 0.53806
Reading from 6196: heap size 1773 MB, throughput 0.580896
Reading from 6196: heap size 1844 MB, throughput 0.31357
Reading from 6196: heap size 1857 MB, throughput 0.207034
Reading from 6196: heap size 1896 MB, throughput 0.970332
Reading from 6196: heap size 2011 MB, throughput 0.0647667
Reading from 6196: heap size 1958 MB, throughput 0.981992
Reading from 6196: heap size 2075 MB, throughput 0.974935
Reading from 6196: heap size 2063 MB, throughput 0.980678
Reading from 6196: heap size 2086 MB, throughput 0.979614
Reading from 6196: heap size 2052 MB, throughput 0.983011
Reading from 6196: heap size 2080 MB, throughput 0.97935
Reading from 6196: heap size 2033 MB, throughput 0.982637
Reading from 6196: heap size 1609 MB, throughput 0.979523
Reading from 6196: heap size 2007 MB, throughput 0.981973
Reading from 6196: heap size 1627 MB, throughput 0.973087
Reading from 6196: heap size 1978 MB, throughput 0.976363
Reading from 6196: heap size 1641 MB, throughput 0.970998
Reading from 6196: heap size 1948 MB, throughput 0.967737
Reading from 6196: heap size 1654 MB, throughput 0.94973
Reading from 6196: heap size 1923 MB, throughput 0.974714
Reading from 6196: heap size 1664 MB, throughput 0.938381
Reading from 6196: heap size 1901 MB, throughput 0.913193
Reading from 6196: heap size 1692 MB, throughput 0.944214
Reading from 6196: heap size 1883 MB, throughput 0.853868
Reading from 6196: heap size 1899 MB, throughput 0.74175
Reading from 6196: heap size 1906 MB, throughput 0.65594
Reading from 6196: heap size 1907 MB, throughput 0.327172
Reading from 6196: heap size 1887 MB, throughput 0.0562782
Reading from 6196: heap size 2504 MB, throughput 0.514841
Reading from 6196: heap size 2638 MB, throughput 0.256243
Reading from 6196: heap size 2670 MB, throughput 0.25643
Reading from 6196: heap size 2830 MB, throughput 0.370211
Reading from 6196: heap size 2884 MB, throughput 0.325711
Reading from 6196: heap size 2986 MB, throughput 0.38951
Reading from 6196: heap size 3017 MB, throughput 0.346039
Reading from 6196: heap size 3126 MB, throughput 0.0992711
Reading from 6196: heap size 2711 MB, throughput 0.979805
Reading from 6196: heap size 2774 MB, throughput 0.978217
Reading from 6196: heap size 2780 MB, throughput 0.972243
Reading from 6196: heap size 2834 MB, throughput 0.965234
Reading from 6196: heap size 2857 MB, throughput 0.949099
Reading from 6196: heap size 2866 MB, throughput 0.928498
Reading from 6196: heap size 2896 MB, throughput 0.723452
Reading from 6196: heap size 2892 MB, throughput 0.49039
Reading from 6196: heap size 2918 MB, throughput 0.806421
Reading from 6196: heap size 3011 MB, throughput 0.49571
Reading from 6196: heap size 3044 MB, throughput 0.335955
Reading from 6196: heap size 3194 MB, throughput 0.464604
Reading from 6196: heap size 3267 MB, throughput 0.406218
Reading from 6196: heap size 3442 MB, throughput 0.480822
Reading from 6196: heap size 3485 MB, throughput 0.419676
Reading from 6196: heap size 3675 MB, throughput 0.469765
Reading from 6196: heap size 3700 MB, throughput 0.153484
Reading from 6196: heap size 4038 MB, throughput 0.826593
Reading from 6196: heap size 4041 MB, throughput 0.497807
Reading from 6196: heap size 4236 MB, throughput 0.553739
Reading from 6196: heap size 4240 MB, throughput 0.192607
Reading from 6196: heap size 4394 MB, throughput 0.993911
Reading from 6196: heap size 3493 MB, throughput 0.990325
Reading from 6196: heap size 4386 MB, throughput 0.985084
Reading from 6196: heap size 4374 MB, throughput 0.957982
Reading from 6196: heap size 4382 MB, throughput 0.909104
Reading from 6196: heap size 4378 MB, throughput 0.562274
Reading from 6196: heap size 4353 MB, throughput 0.578469
Reading from 6196: heap size 4093 MB, throughput 0.577002
Reading from 6196: heap size 4318 MB, throughput 0.560791
Reading from 6196: heap size 3954 MB, throughput 0.541998
Reading from 6196: heap size 4334 MB, throughput 0.149911
Reading from 6196: heap size 3720 MB, throughput 0.602192
Reading from 6196: heap size 4481 MB, throughput 0.449644
Reading from 6196: heap size 4458 MB, throughput 0.145785
Reading from 6196: heap size 4493 MB, throughput 0.995041
Reading from 6196: heap size 4545 MB, throughput 0.991247
Reading from 6196: heap size 4487 MB, throughput 0.988168
Reading from 6196: heap size 4523 MB, throughput 0.98155
Reading from 6196: heap size 4507 MB, throughput 0.907035
Reading from 6196: heap size 4548 MB, throughput 0.627705
Reading from 6196: heap size 4627 MB, throughput 0.604886
Reading from 6196: heap size 4628 MB, throughput 0.558196
Reading from 6196: heap size 4603 MB, throughput 0.54688
Reading from 6196: heap size 4177 MB, throughput 0.54739
Reading from 6196: heap size 4590 MB, throughput 0.169169
Reading from 6196: heap size 3634 MB, throughput 0.92485
Reading from 6196: heap size 4669 MB, throughput 0.892247
Reading from 6196: heap size 3757 MB, throughput 0.743101
Reading from 6196: heap size 4675 MB, throughput 0.603323
Reading from 6196: heap size 4617 MB, throughput 0.179371
Reading from 6196: heap size 4829 MB, throughput 0.991709
Reading from 6196: heap size 3919 MB, throughput 0.99328
Reading from 6196: heap size 4817 MB, throughput 0.984832
Reading from 6196: heap size 4790 MB, throughput 0.970586
Reading from 6196: heap size 4844 MB, throughput 0.77055
Reading from 6196: heap size 4821 MB, throughput 0.618637
Reading from 6196: heap size 4805 MB, throughput 0.583873
Reading from 6196: heap size 4595 MB, throughput 0.584066
Reading from 6196: heap size 4771 MB, throughput 0.564039
Reading from 6196: heap size 4433 MB, throughput 0.184128
Reading from 6196: heap size 4859 MB, throughput 0.945132
Reading from 6196: heap size 3953 MB, throughput 0.726832
Reading from 6196: heap size 4877 MB, throughput 0.609372
Reading from 6196: heap size 4814 MB, throughput 0.185686
Reading from 6196: heap size 4990 MB, throughput 0.994463
Reading from 6196: heap size 4111 MB, throughput 0.993663
Reading from 6196: heap size 4979 MB, throughput 0.971723
Reading from 6196: heap size 4954 MB, throughput 0.87575
Reading from 6196: heap size 4989 MB, throughput 0.752803
Reading from 6196: heap size 4979 MB, throughput 0.608233
Reading from 6196: heap size 4995 MB, throughput 0.591305
Reading from 6196: heap size 4808 MB, throughput 0.592031
Reading from 6196: heap size 4924 MB, throughput 0.5709
Reading from 6196: heap size 4606 MB, throughput 0.461015
Reading from 6196: heap size 4950 MB, throughput 0.921023
Reading from 6196: heap size 4087 MB, throughput 0.782989
Reading from 6196: heap size 4961 MB, throughput 0.617945
Reading from 6196: heap size 4909 MB, throughput 0.187234
Reading from 6196: heap size 5121 MB, throughput 0.994266
Reading from 6196: heap size 4252 MB, throughput 0.987611
Reading from 6196: heap size 5112 MB, throughput 0.975978
Reading from 6196: heap size 5087 MB, throughput 0.903325
Reading from 6196: heap size 5124 MB, throughput 0.680359
Reading from 6196: heap size 5110 MB, throughput 0.624129
Reading from 6196: heap size 5092 MB, throughput 0.585285
Reading from 6196: heap size 4867 MB, throughput 0.583811
Reading from 6196: heap size 5029 MB, throughput 0.451466
Reading from 6196: heap size 5068 MB, throughput 0.969385
Reading from 6196: heap size 5003 MB, throughput 0.951698
Reading from 6196: heap size 5044 MB, throughput 0.652075
Reading from 6196: heap size 5091 MB, throughput 0.623097
Reading from 6196: heap size 4795 MB, throughput 0.194342
Reading from 6196: heap size 5215 MB, throughput 0.995278
Reading from 6196: heap size 4332 MB, throughput 0.986675
Reading from 6196: heap size 5199 MB, throughput 0.981863
Reading from 6196: heap size 5170 MB, throughput 0.979004
Reading from 6196: heap size 5235 MB, throughput 0.996155
Reading from 6196: heap size 5208 MB, throughput 0.634608
Reading from 6196: heap size 5190 MB, throughput 0.586885
Reading from 6196: heap size 5004 MB, throughput 0.589854
Reading from 6196: heap size 5114 MB, throughput 0.559532
Reading from 6196: heap size 4783 MB, throughput 0.455055
Reading from 6196: heap size 5151 MB, throughput 0.885427
Reading from 6196: heap size 4277 MB, throughput 0.582477
Reading from 6196: heap size 5060 MB, throughput 0.600886
Reading from 6196: heap size 5086 MB, throughput 0.175703
Reading from 6196: heap size 5182 MB, throughput 0.993802
Reading from 6196: heap size 4240 MB, throughput 0.991832
Reading from 6196: heap size 5176 MB, throughput 0.981413
Reading from 6196: heap size 5147 MB, throughput 0.920352
Reading from 6196: heap size 5196 MB, throughput 0.823988
Reading from 6196: heap size 5177 MB, throughput 0.62196
Reading from 6196: heap size 5165 MB, throughput 0.575584
Reading from 6196: heap size 5239 MB, throughput 0.477218
Reading from 6196: heap size 5269 MB, throughput 0.990616
Reading from 6196: heap size 4403 MB, throughput 0.974658
Reading from 6196: heap size 5252 MB, throughput 0.87801
Reading from 6196: heap size 5220 MB, throughput 0.625922
Reading from 6196: heap size 5206 MB, throughput 0.629035
Reading from 6196: heap size 5248 MB, throughput 0.19931
Reading from 6196: heap size 5382 MB, throughput 0.994104
Reading from 6196: heap size 4539 MB, throughput 0.99095
Reading from 6196: heap size 5362 MB, throughput 0.972895
Reading from 6196: heap size 5331 MB, throughput 0.930082
Reading from 6196: heap size 5398 MB, throughput 0.845866
Reading from 6196: heap size 5374 MB, throughput 0.643919
Reading from 6196: heap size 5344 MB, throughput 0.601879
Reading from 6196: heap size 5235 MB, throughput 0.600404
Reading from 6196: heap size 5290 MB, throughput 0.46351
Reading from 6196: heap size 5347 MB, throughput 0.986435
Reading from 6196: heap size 5278 MB, throughput 0.940397
Reading from 6196: heap size 5322 MB, throughput 0.640352
Reading from 6196: heap size 5326 MB, throughput 0.202327
Reading from 6196: heap size 5400 MB, throughput 0.9937
Reading from 6196: heap size 5329 MB, throughput 0.991185
Reading from 6196: heap size 5374 MB, throughput 0.986893
Reading from 6196: heap size 5379 MB, throughput 0.920766
Reading from 6196: heap size 5427 MB, throughput 0.807635
Reading from 6196: heap size 5446 MB, throughput 0.65662
Reading from 6196: heap size 5485 MB, throughput 0.602338
Reading from 6196: heap size 5359 MB, throughput 0.477887
Reading from 6196: heap size 5432 MB, throughput 0.993541
Reading from 6196: heap size 5360 MB, throughput 0.984676
Reading from 6196: heap size 5407 MB, throughput 0.978681
Reading from 6196: heap size 5397 MB, throughput 0.645539
Reading from 6196: heap size 5447 MB, throughput 0.21476
Reading from 6196: heap size 5585 MB, throughput 0.994776
Reading from 6196: heap size 4813 MB, throughput 0.986708
Reading from 6196: heap size 5559 MB, throughput 0.978154
Reading from 6196: heap size 5526 MB, throughput 0.832627
Reading from 6196: heap size 5609 MB, throughput 0.857993
Reading from 6196: heap size 5581 MB, throughput 0.629152
Reading from 6196: heap size 5545 MB, throughput 0.612852
Reading from 6196: heap size 5488 MB, throughput 0.50555
Reading from 6196: heap size 5589 MB, throughput 0.966338
Reading from 6196: heap size 4850 MB, throughput 0.937971
Reading from 6196: heap size 5574 MB, throughput 0.719899
Reading from 6196: heap size 5540 MB, throughput 0.647337
Reading from 6196: heap size 5491 MB, throughput 0.208276
Reading from 6196: heap size 5601 MB, throughput 0.99231
Reading from 6196: heap size 5532 MB, throughput 0.990181
Reading from 6196: heap size 5577 MB, throughput 0.93349
Reading from 6196: heap size 5554 MB, throughput 0.839043
Reading from 6196: heap size 5608 MB, throughput 0.636756
Reading from 6196: heap size 5564 MB, throughput 0.503785
Reading from 6196: heap size 5659 MB, throughput 0.991413
Reading from 6196: heap size 5589 MB, throughput 0.990174
Reading from 6196: heap size 5634 MB, throughput 0.963633
Reading from 6196: heap size 5622 MB, throughput 0.901412
Reading from 6196: heap size 5673 MB, throughput 0.644751
Reading from 6196: heap size 5592 MB, throughput 0.616136
Reading from 6196: heap size 5560 MB, throughput 0.219341
Reading from 6196: heap size 5728 MB, throughput 0.978849
Reading from 6196: heap size 4997 MB, throughput 0.920808
Reading from 6196: heap size 5715 MB, throughput 0.744938
Reading from 6196: heap size 5679 MB, throughput 0.65158
Reading from 6196: heap size 5632 MB, throughput 0.498493
Reading from 6196: heap size 5717 MB, throughput 0.992479
Reading from 6196: heap size 5649 MB, throughput 0.985311
Reading from 6196: heap size 5693 MB, throughput 0.951283
Reading from 6196: heap size 5675 MB, throughput 0.87867
Reading from 6196: heap size 5726 MB, throughput 0.655154
Reading from 6196: heap size 5669 MB, throughput 0.206896
Reading from 6196: heap size 5870 MB, throughput 0.99496
Reading from 6196: heap size 5798 MB, throughput 0.986579
Reading from 6196: heap size 5845 MB, throughput 0.978781
Reading from 6196: heap size 5838 MB, throughput 0.769927
Reading from 6196: heap size 5887 MB, throughput 0.65271
Reading from 6196: heap size 5768 MB, throughput 0.506669
Reading from 6196: heap size 5868 MB, throughput 0.993212
Reading from 6196: heap size 5794 MB, throughput 0.990392
Reading from 6196: heap size 5843 MB, throughput 0.958899
Reading from 6196: heap size 5829 MB, throughput 0.761676
Reading from 6196: heap size 5883 MB, throughput 0.654272
Reading from 6196: heap size 5771 MB, throughput 0.499722
Reading from 6196: heap size 5872 MB, throughput 0.987034
Reading from 6196: heap size 5798 MB, throughput 0.986779
Reading from 6196: heap size 5847 MB, throughput 0.960333
Reading from 6196: heap size 5837 MB, throughput 0.750048
Reading from 6196: heap size 5889 MB, throughput 0.658803
Reading from 6196: heap size 5762 MB, throughput 0.198248
Reading from 6196: heap size 5981 MB, throughput 0.993475
Reading from 6196: heap size 5907 MB, throughput 0.991381
Reading from 6196: heap size 5956 MB, throughput 0.922807
Reading from 6196: heap size 5930 MB, throughput 0.77354
Reading from 6196: heap size 5991 MB, throughput 0.647429
Reading from 6196: heap size 5894 MB, throughput 0.506298
Reading from 6196: heap size 5994 MB, throughput 0.991641
Reading from 6196: heap size 5923 MB, throughput 0.977449
Reading from 6196: heap size 5969 MB, throughput 0.957305
Reading from 6196: heap size 5958 MB, throughput 0.761759
Reading from 6196: heap size 6008 MB, throughput 0.656046
Reading from 6196: heap size 5891 MB, throughput 0.500705
Reading from 6196: heap size 5991 MB, throughput 0.990602
Reading from 6196: heap size 5919 MB, throughput 0.966913
Reading from 6196: heap size 5966 MB, throughput 0.963752
Reading from 6196: heap size 5959 MB, throughput 0.936905
Reading from 6196: heap size 6007 MB, throughput 0.643486
Reading from 6196: heap size 5915 MB, throughput 0.226321
Reading from 6196: heap size 6028 MB, throughput 0.988491
Reading from 6196: heap size 5952 MB, throughput 0.983741
Reading from 6196: heap size 6002 MB, throughput 0.964908
Reading from 6196: heap size 5992 MB, throughput 0.67112
Reading from 6196: heap size 6030 MB, throughput 0.526594
Reading from 6196: heap size 6053 MB, throughput 0.991903
Reading from 6196: heap size 5407 MB, throughput 0.986681
Reading from 6196: heap size 6032 MB, throughput 0.98516
Reading from 6196: heap size 6003 MB, throughput 0.709798
Reading from 6196: heap size 6000 MB, throughput 0.666902
Reading from 6196: heap size 5984 MB, throughput 0.515659
Reading from 6196: heap size 6012 MB, throughput 0.989698
Reading from 6196: heap size 5322 MB, throughput 0.988921
Reading from 6196: heap size 5988 MB, throughput 0.92335
Reading from 6196: heap size 5960 MB, throughput 0.770823
Reading from 6196: heap size 6000 MB, throughput 0.663794
Reading from 6196: heap size 5999 MB, throughput 0.229319
Reading from 6196: heap size 6162 MB, throughput 0.99442
Reading from 6196: heap size 5491 MB, throughput 0.983062
Reading from 6196: heap size 6142 MB, throughput 0.932647
Reading from 6196: heap size 6114 MB, throughput 0.837912
Reading from 6196: heap size 6178 MB, throughput 0.671016
Reading from 6196: heap size 6151 MB, throughput 0.524544
Reading from 6196: heap size 6192 MB, throughput 0.988044
Reading from 6196: heap size 5556 MB, throughput 0.979428
Reading from 6196: heap size 6174 MB, throughput 0.955875
Reading from 6196: heap size 6147 MB, throughput 0.696649
Reading from 6196: heap size 6103 MB, throughput 0.536653
Reading from 6196: heap size 6184 MB, throughput 0.884106
Reading from 6196: heap size 6115 MB, throughput 0.990475
Reading from 6196: heap size 6172 MB, throughput 0.986339
Reading from 6196: heap size 6177 MB, throughput 0.762527
Reading from 6196: heap size 6225 MB, throughput 0.645425
Reading from 6196: heap size 6059 MB, throughput 0.222412
Reading from 6196: heap size 6150 MB, throughput 0.992227
Reading from 6196: heap size 6081 MB, throughput 0.995309
Reading from 6196: heap size 6126 MB, throughput 0.969454
Reading from 6196: heap size 6115 MB, throughput 0.939924
Reading from 6196: heap size 6166 MB, throughput 0.645989
Reading from 6196: heap size 6056 MB, throughput 0.519841
Reading from 6196: heap size 6171 MB, throughput 0.987229
Reading from 6196: heap size 6095 MB, throughput 0.971697
Reading from 6196: heap size 6145 MB, throughput 0.875893
Reading from 6196: heap size 6138 MB, throughput 0.687672
Reading from 6196: heap size 6163 MB, throughput 0.532467
Reading from 6196: heap size 6209 MB, throughput 0.947084
Reading from 6196: heap size 5595 MB, throughput 0.98998
Reading from 6196: heap size 6183 MB, throughput 0.980279
Reading from 6196: heap size 6160 MB, throughput 0.654134
Reading from 6196: heap size 6093 MB, throughput 0.668687
Reading from 6196: heap size 6100 MB, throughput 0.227835
Reading from 6196: heap size 6158 MB, throughput 0.99244
Reading from 6196: heap size 5465 MB, throughput 0.993279
Reading from 6196: heap size 6145 MB, throughput 0.922333
Reading from 6196: heap size 6118 MB, throughput 0.742538
Reading from 6196: heap size 6129 MB, throughput 0.6601
Reading from 6196: heap size 6063 MB, throughput 0.514332
Reading from 6196: heap size 6161 MB, throughput 0.991115
Reading from 6196: heap size 5464 MB, throughput 0.980446
Reading from 6196: heap size 6143 MB, throughput 0.92989
Reading from 6196: heap size 6114 MB, throughput 0.674652
Reading from 6196: heap size 6092 MB, throughput 0.657028
Reading from 6196: heap size 6027 MB, throughput 0.507301
Reading from 6196: heap size 6129 MB, throughput 0.988587
Reading from 6196: heap size 5398 MB, throughput 0.983252
Reading from 6196: heap size 6109 MB, throughput 0.941462
Reading from 6196: heap size 6081 MB, throughput 0.794577
Reading from 6196: heap size 6140 MB, throughput 0.663811
Reading from 6196: heap size 6118 MB, throughput 0.223722
Reading from 6196: heap size 6332 MB, throughput 0.995481
Reading from 6196: heap size 5637 MB, throughput 0.99288
Reading from 6196: heap size 6311 MB, throughput 0.905962
Reading from 6196: heap size 6284 MB, throughput 0.687902
Reading from 6196: heap size 6267 MB, throughput 0.65823
Reading from 6196: heap size 6210 MB, throughput 0.513147
Reading from 6196: heap size 6308 MB, throughput 0.990901
Reading from 6196: heap size 5592 MB, throughput 0.990534
Reading from 6196: heap size 6289 MB, throughput 0.899986
Reading from 6196: heap size 6262 MB, throughput 0.719312
Reading from 6196: heap size 6268 MB, throughput 0.661088
Reading from 6196: heap size 6290 MB, throughput 0.509628
Reading from 6196: heap size 6311 MB, throughput 0.99004
Reading from 6196: heap size 5596 MB, throughput 0.981527
Reading from 6196: heap size 6293 MB, throughput 0.917584
Reading from 6196: heap size 6266 MB, throughput 0.763553
Reading from 6196: heap size 6300 MB, throughput 0.660031
Reading from 6196: heap size 6296 MB, throughput 0.22372
Reading from 6196: heap size 6419 MB, throughput 0.995399
Reading from 6196: heap size 5725 MB, throughput 0.991954
Reading from 6196: heap size 6400 MB, throughput 0.927876
Reading from 6196: heap size 6374 MB, throughput 0.674237
Reading from 6196: heap size 6349 MB, throughput 0.657043
Reading from 6196: heap size 6285 MB, throughput 0.511221
Reading from 6196: heap size 6383 MB, throughput 0.99061
Reading from 6196: heap size 5654 MB, throughput 0.98598
Reading from 6196: heap size 6364 MB, throughput 0.860981
Reading from 6196: heap size 6336 MB, throughput 0.795698
Reading from 6196: heap size 6381 MB, throughput 0.660105
Reading from 6196: heap size 6359 MB, throughput 0.508767
Reading from 6196: heap size 6431 MB, throughput 0.990683
Reading from 6196: heap size 5751 MB, throughput 0.989414
Reading from 6196: heap size 6414 MB, throughput 0.944409
Reading from 6196: heap size 6390 MB, throughput 0.790428
Reading from 6196: heap size 6432 MB, throughput 0.665246
Reading from 6196: heap size 6420 MB, throughput 0.512418
Reading from 6196: heap size 6442 MB, throughput 0.986976
Reading from 6196: heap size 5772 MB, throughput 0.964648
Reading from 6196: heap size 6426 MB, throughput 0.916112
Reading from 6196: heap size 6398 MB, throughput 0.658112
Reading from 6196: heap size 6355 MB, throughput 0.660069
Reading from 6196: heap size 6317 MB, throughput 0.204461
Reading from 6196: heap size 6489 MB, throughput 0.991198
Reading from 6196: heap size 5771 MB, throughput 0.979292
Reading from 6196: heap size 6472 MB, throughput 0.91762
Reading from 6196: heap size 6444 MB, throughput 0.668971
Reading from 6196: heap size 6421 MB, throughput 0.656481
Reading from 6196: heap size 6333 MB, throughput 0.504647
Reading from 6196: heap size 6464 MB, throughput 0.993582
Reading from 6196: heap size 5716 MB, throughput 0.96638
Reading from 6196: heap size 6448 MB, throughput 0.875284
Reading from 6196: heap size 6417 MB, throughput 0.957344
Reading from 6196: heap size 6470 MB, throughput 0.658572
Reading from 6196: heap size 6442 MB, throughput 0.507777
Reading from 6196: heap size 6520 MB, throughput 0.991865
Reading from 6196: heap size 5828 MB, throughput 0.979078
Reading from 6196: heap size 6500 MB, throughput 0.902447
Reading from 6196: heap size 6471 MB, throughput 0.849209
Reading from 6196: heap size 6538 MB, throughput 0.668573
Reading from 6196: heap size 6504 MB, throughput 0.514582
Reading from 6196: heap size 6568 MB, throughput 0.985089
Reading from 6196: heap size 5932 MB, throughput 0.976054
Reading from 6196: heap size 6551 MB, throughput 0.974491
Reading from 6196: heap size 6525 MB, throughput 0.715546
Reading from 6196: heap size 6498 MB, throughput 0.231346
Reading from 6196: heap size 6566 MB, throughput 0.994713
Reading from 6196: heap size 6517 MB, throughput 0.993421
Reading from 6196: heap size 6561 MB, throughput 0.987705
Reading from 6196: heap size 6574 MB, throughput 0.732755
Reading from 6196: heap size 6619 MB, throughput 0.644846
Reading from 6196: heap size 6434 MB, throughput 0.507131
Reading from 6196: heap size 6539 MB, throughput 0.990751
Reading from 6196: heap size 6471 MB, throughput 0.981333
Reading from 6196: heap size 6515 MB, throughput 0.935211
Reading from 6196: heap size 6497 MB, throughput 0.948629
Reading from 6196: heap size 6549 MB, throughput 0.640905
Reading from 6196: heap size 6451 MB, throughput 0.525151
Reading from 6196: heap size 6564 MB, throughput 0.987162
Reading from 6196: heap size 6492 MB, throughput 0.967224
Reading from 6196: heap size 6539 MB, throughput 0.914715
Reading from 6196: heap size 6513 MB, throughput 0.717417
Reading from 6196: heap size 6571 MB, throughput 0.560077
Reading from 6196: heap size 6640 MB, throughput 0.843802
Reading from 6196: heap size 6063 MB, throughput 0.981297
Reading from 6196: heap size 6618 MB, throughput 0.961964
Reading from 6196: heap size 6597 MB, throughput 0.855307
Reading from 6196: heap size 6661 MB, throughput 0.660539
Reading from 6196: heap size 6639 MB, throughput 0.24001
Reading from 6196: heap size 6617 MB, throughput 0.991128
Reading from 6196: heap size 6069 MB, throughput 0.964786
Reading from 6196: heap size 6636 MB, throughput 0.918188
Reading from 6196: heap size 6191 MB, throughput 0.66133
Reading from 6196: heap size 6475 MB, throughput 0.548937
Reading from 6196: heap size 6591 MB, throughput 0.993756
Reading from 6196: heap size 6531 MB, throughput 0.990172
Reading from 6196: heap size 6570 MB, throughput 0.901893
Reading from 6196: heap size 6536 MB, throughput 0.706486
Reading from 6196: heap size 6592 MB, throughput 0.655888
Reading from 6196: heap size 6426 MB, throughput 0.507698
Reading from 6196: heap size 6527 MB, throughput 0.992293
Reading from 6196: heap size 6466 MB, throughput 0.97786
Reading from 6196: heap size 6506 MB, throughput 0.902444
Reading from 6196: heap size 6475 MB, throughput 0.977103
Reading from 6196: heap size 6528 MB, throughput 0.638288
Reading from 6196: heap size 6448 MB, throughput 0.521983
Reading from 6196: heap size 6551 MB, throughput 0.984932
Reading from 6196: heap size 6480 MB, throughput 0.971304
Reading from 6196: heap size 6527 MB, throughput 0.882467
Reading from 6196: heap size 6501 MB, throughput 0.670122
Reading from 6196: heap size 6559 MB, throughput 0.231492
Reading from 6196: heap size 6693 MB, throughput 0.993389
Reading from 6196: heap size 6069 MB, throughput 0.992625
Reading from 6196: heap size 6678 MB, throughput 0.965536
Reading from 6196: heap size 6653 MB, throughput 0.866461
Reading from 6196: heap size 6709 MB, throughput 0.669408
Reading from 6196: heap size 6685 MB, throughput 0.537628
Reading from 6196: heap size 6711 MB, throughput 0.993744
Reading from 6196: heap size 6100 MB, throughput 0.990365
Reading from 6196: heap size 6691 MB, throughput 0.897041
Reading from 6196: heap size 6667 MB, throughput 0.78663
Reading from 6196: heap size 6669 MB, throughput 0.594812
Reading from 6196: heap size 6693 MB, throughput 0.714515
Reading from 6196: heap size 6745 MB, throughput 0.98137
Reading from 6196: heap size 6759 MB, throughput 0.979991
Reading from 6196: heap size 6752 MB, throughput 0.807797
Reading from 6196: heap size 6768 MB, throughput 0.63873
Reading from 6196: heap size 6593 MB, throughput 0.544475
Reading from 6196: heap size 6708 MB, throughput 0.98866
Reading from 6196: heap size 6651 MB, throughput 0.965483
Reading from 6196: heap size 6688 MB, throughput 0.942605
Reading from 6196: heap size 6671 MB, throughput 0.670506
Reading from 6196: heap size 6714 MB, throughput 0.235519
Reading from 6196: heap size 6739 MB, throughput 0.99484
Reading from 6196: heap size 6151 MB, throughput 0.991672
Reading from 6196: heap size 6752 MB, throughput 0.977282
Reading from 6196: heap size 6727 MB, throughput 0.890687
Reading from 6196: heap size 6751 MB, throughput 0.665313
Reading from 6196: heap size 6739 MB, throughput 0.552077
Reading from 6196: heap size 6763 MB, throughput 0.994685
Reading from 6196: heap size 6167 MB, throughput 0.980824
Reading from 6196: heap size 6746 MB, throughput 0.979097
Client 6196 died
Clients: 0
ReadingThread: finished
TimerThread: finished
CommandThread: finished
Main: All threads killed, cleaning up
