1412973524833 0 TOTAL_MEM 1656
1412973544884 24569 CREATION
1412973544884 24569 READING 9 0.991733
1412973544884 24569 MINHEAP 2
1412973544884 24569 MINHEAP 276
1412973544886 24570 CREATION
1412973544886 24570 READING 9 0.993526
1412973544886 24570 MINHEAP 2
1412973544886 24570 MINHEAP 276
1412973544930 24570 READING 9 0.989328
1412973544934 24569 READING 9 0.988667
1412973544962 24570 READING 9 0.981342
1412973544963 24569 READING 9 0.980958
1412973544987 24570 READING 9 0.974459
1412973544993 24569 READING 9 0.975066
1412973545079 24569 READING 11 0.981439
1412973545108 24570 READING 11 0.982055
1412973545197 24569 READING 11 0.982644
1412973545268 24570 READING 11 0.972882
1412973545297 24569 READING 17 0.956081
1412973545362 24570 READING 17 0.965478
1412973545487 24569 READING 17 0.858383
1412973545541 24570 READING 17 0.888901
1412973545661 24569 READING 30 0.761001
1412973545749 24570 READING 30 0.828113
1412973545793 24569 READING 31 0.320988
1412973545888 24570 READING 31 0.470201
1412973545987 24569 READING 35 0.678316
1412973546097 24570 READING 34 0.708466
1412973546117 24569 READING 47 0.524227
1412973546205 24569 READING 50 0.452865
1412973546229 24570 READING 46 0.569079
1412973546508 24569 READING 52 0.501809
1412973546509 24570 READING 49 0.654026
1412973546576 24570 READING 63 0.625145
1412973546597 24569 READING 78 0.488694
1412973546644 24570 READING 69 0.542078
1412973546786 24569 READING 78 0.507562
1412973546911 24569 READING 105 0.745208
1412973547001 24570 READING 70 0.368995
1412973547019 24569 READING 106 0.606251
1412973547104 24569 READING 107 0.362748
1412973547120 24570 READING 95 0.470174
1412973547462 24570 READING 96 0.367291
1412973547496 24569 READING 111 0.454369
1412973547560 24570 READING 126 0.685163
1412973547603 24569 READING 139 0.124544
1412973547645 24570 READING 126 0.547887
1412973547702 24569 READING 143 0.186971
1412973547748 24570 READING 128 0.335655
1412973547817 24569 READING 146 0.043340
1412973547851 24570 READING 131 0.290067
1412973548304 24569 READING 149 0.375329
1412973548367 24570 READING 135 0.439141
1412973548469 24569 READING 192 0.120742
1412973548481 24570 READING 171 0.330100
1412973548596 24570 READING 176 0.184576
1412973548596 24569 READING 193 0.642612
1412973548721 24569 READING 194 0.596672
1412973548983 24570 READING 179 0.347413
1412973549129 24570 READING 226 0.322602
1412973549191 24569 READING 202 0.858329
1412973549489 24570 READING 228 0.648842
1412973550163 24570 READING 228 0.896989
1412973550184 24569 READING 204 0.574905
1412973550350 24570 READING 232 0.857383
1412973550465 24569 READING 252 0.828915
1412973550573 24570 READING 240 0.847353
1412973550756 24569 READING 257 0.851491
1412973550773 24570 READING 244 0.779021
1412973550925 24569 READING 259 0.831977
1412973550989 24570 READING 248 0.790724
1412973551153 24569 READING 263 0.857799
1412973551179 24570 READING 251 0.830460
1412973551328 24569 READING 265 0.836661
1412973551350 24570 READING 255 0.819346
1412973551439 24570 READING 257 0.779373
1412973551533 24569 READING 269 0.806838
1412973551549 24570 READING 263 0.682795
1412973551652 24570 READING 267 0.641652
1412973551655 24569 READING 270 0.764826
1412973551765 24570 READING 273 0.605182
1412973551767 24569 READING 275 0.754003
1412973551877 24570 READING 276 0.590247
1412973551878 24569 READING 279 0.752682
1412973551989 24569 READING 284 0.764169
1412973552100 24569 READING 286 0.768379
1412973552383 24570 READING 283 0.874471
1412973552482 24570 READING 284 0.826077
1412973552633 24569 READING 292 0.886994
1412973552741 24569 READING 293 0.830687
1412973553215 24570 READING 290 0.688377
1412973553341 24570 READING 334 0.704116
1412973553411 24569 READING 292 0.673842
1412973553443 24570 READING 338 0.764591
1412973553531 24569 READING 341 0.730692
1412973553633 24569 READING 345 0.777707
1412973553681 24570 READING 338 0.862400
1412973553855 24569 READING 346 0.848250
1412973553891 24570 READING 340 0.786271
1412973554009 24570 READING 342 0.720612
1412973554025 24569 READING 351 0.836782
1412973554101 24570 READING 347 0.723898
1412973554133 24569 READING 352 0.812320
1412973554198 24570 READING 347 0.725594
1412973554225 24569 READING 352 0.786841
1412973554306 24570 READING 354 0.710753
1412973554320 24569 READING 354 0.720349
1412973554431 24569 READING 359 0.662999
1412973554440 24570 READING 354 0.660389
1412973554552 24569 READING 359 0.628547
1412973554834 24569 FUNCTION lru lambda h: 0.491927 * (h ** 0.0315674)
1412973554834 24570 FUNCTION lru lambda h: 0.669337 * (h ** 0.001)
1412973554834 24569 RECOMMEND 1380
1412973554834 24570 RECOMMEND 276
1412973554965 24569 READING 368 0.869960
1412973556242 24570 READING 362 0.951380
1412973556639 24569 READING 368 0.956314
1412973557589 24570 READING 321 0.960994
1412973558019 24569 READING 370 0.971210
1412973559262 24570 READING 351 0.970542
1412973559567 24569 READING 373 0.971290
1412973560483 24570 READING 324 0.968325
1412973560847 24569 READING 374 0.973438
1412973561496 24570 READING 347 0.967775
1412973562186 24569 READING 377 0.977815
1412973562818 24570 READING 312 0.974687
1412973563722 24569 READING 375 0.977635
1412973564008 24570 READING 341 0.976427
1412973564835 24569 FUNCTION lru lambda h: 0.397128 * (h ** 0.0855469)
1412973564835 24570 FUNCTION lru lambda h: 0.542585 * (h ** 0.0347701)
1412973564835 24569 RECOMMEND 1177
1412973564835 24570 RECOMMEND 479
1412973565170 24570 READING 314 0.974035
1412973565491 24569 READING 378 0.977911
1412973566152 24570 READING 341 0.966329
1412973566853 24569 READING 376 0.973622
1412973567297 24570 READING 340 0.961853
1412973568357 24569 READING 378 0.970320
1412973568459 24570 READING 340 0.963701
1412973569484 24570 READING 340 0.964114
1412973569692 24569 READING 381 0.969753
1412973570558 24570 READING 341 0.963829
1412973571121 24569 READING 381 0.970913
1412973571699 24570 READING 342 0.970075
1412973572582 24569 READING 385 0.973258
1412973573522 24570 READING 344 0.928574
1412973574337 24569 READING 386 0.974992
1412973574836 24569 FUNCTION lru lambda h: 0.350757 * (h ** 0.116641)
1412973574836 24570 FUNCTION lru lambda h: 0.507672 * (h ** 0.0521015)
1412973574836 24569 RECOMMEND 1145
1412973574836 24570 RECOMMEND 511
1412973575134 24570 READING 386 0.968509
1412973575841 24570 READING 389 0.971087
1412973575896 24569 READING 386 0.978013
1412973575994 24570 READING 390 0.959584
1412973576106 24569 READING 390 0.951900
1412973576109 24570 READING 391 0.925023
1412973576236 24569 READING 388 0.926474
1412973576242 24570 READING 392 0.844268
1412973576349 24570 READING 399 0.838731
1412973576381 24569 READING 392 0.867791
1412973576519 24569 READING 400 0.850188
1412973576806 24570 READING 400 0.920576
1412973577833 24569 READING 402 0.961973
1412973578569 24570 READING 409 0.981934
1412973579338 24569 READING 406 0.975102
1412973579975 24570 READING 409 0.983529
1412973580997 24569 READING 408 0.979349
1412973581660 24570 READING 412 0.986342
1412973582749 24569 READING 409 0.982635
1412973582979 24570 READING 414 0.986730
1412973584789 24570 READING 413 0.986789
1412973584836 24569 FUNCTION lru lambda h: 0.309955 * (h ** 0.147104)
1412973584836 24570 FUNCTION lru lambda h: 0.416912 * (h ** 0.100388)
1412973584838 24569 RECOMMEND 984
1412973584838 24570 RECOMMEND 672
1412973584909 24569 READING 412 0.985640
1412973586225 24570 READING 416 0.984203
1412973586870 24569 READING 411 0.985437
1412973587813 24570 READING 413 0.982854
1412973588630 24569 READING 413 0.984126
1412973589309 24570 READING 416 0.979669
1412973590521 24569 READING 410 0.985793
1412973591119 24570 READING 416 0.981451
1412973592320 24569 READING 413 0.981923
1412973592790 24570 READING 417 0.981919
1412973594179 24570 READING 417 0.979298
1412973594232 24569 READING 412 0.981966
1412973594838 24569 FUNCTION lru lambda h: 0.293059 * (h ** 0.160761)
1412973594838 24570 FUNCTION lru lambda h: 0.404791 * (h ** 0.107523)
1412973594839 24569 RECOMMEND 992
1412973594839 24570 RECOMMEND 664
1412973596056 24570 READING 418 0.984209
1412973596288 24570 READING 421 0.975213
1412973596424 24570 READING 421 0.956981
1412973596560 24570 READING 426 0.931012
1412973596697 24570 READING 429 0.920545
1412973596739 24569 READING 413 0.986895
1412973596989 24569 READING 415 0.981903
1412973597129 24569 READING 416 0.970704
1412973597275 24569 READING 419 0.951927
1412973598095 24569 READING 420 0.968115
1412973598602 24570 READING 439 0.982034
1412973600069 24569 READING 427 0.985314
1412973600481 24570 READING 439 0.985292
1412973602037 24569 READING 428 0.989109
1412973602219 24570 READING 442 0.986189
1412973604125 24569 READING 429 0.988959
1412973604230 24570 READING 444 0.986979
1412973604839 24569 FUNCTION lru lambda h: 0.271865 * (h ** 0.178869)
1412973604839 24570 FUNCTION lru lambda h: 0.373953 * (h ** 0.126465)
1412973604840 24569 RECOMMEND 970
1412973604840 24570 RECOMMEND 686
1412973606189 24569 READING 431 0.980646
1412973606190 24570 READING 443 0.986400
1412973608062 24569 READING 430 0.982463
1412973608406 24570 READING 446 0.986938
1412973610258 24569 READING 431 0.984023
1412973610284 24570 READING 445 0.980065
1412973612193 24570 READING 446 0.981407
1412973612814 24569 READING 430 0.965013
1412973613965 24570 READING 450 0.981253
1412973614736 24569 READING 466 0.988956
1412973614840 24569 FUNCTION lru lambda h: 0.264491 * (h ** 0.185379)
1412973614840 24570 FUNCTION lru lambda h: 0.359566 * (h ** 0.135736)
1412973614841 24569 RECOMMEND 956
1412973614841 24570 RECOMMEND 700
1412973616165 24570 READING 450 0.986669
1412973616415 24570 READING 454 0.979282
1412973616576 24570 READING 454 0.961743
1412973616734 24570 READING 458 0.951315
1412973617209 24569 READING 465 0.990619
1412973617454 24569 READING 468 0.983677
1412973617606 24569 READING 468 0.972192
1412973617768 24569 READING 470 0.960978
1412973618535 24570 READING 460 0.980719
1412973619916 24569 READING 479 0.985628
1412973620673 24570 READING 466 0.986936
1412973622336 24569 READING 478 0.987911
1412973622688 24570 READING 467 0.989666
1412973624697 24569 READING 480 0.988668
1412973624748 24570 READING 467 0.987458
1412973624841 24569 FUNCTION lru lambda h: 0.252161 * (h ** 0.196402)
1412973624841 24570 FUNCTION lru lambda h: 0.345588 * (h ** 0.144996)
1412973624842 24569 RECOMMEND 953
1412973624842 24570 RECOMMEND 703
1412973626949 24569 READING 482 0.988068
1412973627094 24570 READING 470 0.987833
1412973629328 24570 READING 469 0.987046
1412973629499 24569 READING 480 0.988761
1412973631587 24569 READING 483 0.986616
1412973631669 24570 READING 471 0.986180
1412973633807 24570 READING 474 0.986516
1412973633889 24569 READING 486 0.986152
1412973634842 24569 FUNCTION lru lambda h: 0.24699 * (h ** 0.201149)
1412973634842 24570 FUNCTION lru lambda h: 0.335827 * (h ** 0.151638)
1412973634843 24569 RECOMMEND 944
1412973634843 24570 RECOMMEND 712
1412973635997 24570 READING 474 0.988431
1412973636222 24570 READING 475 0.981760
1412973636432 24570 READING 477 0.947220
1412973636432 24569 READING 486 0.976430
1412973637253 24570 READING 482 0.965424
1412973637806 24569 READING 486 0.978242
1412973637974 24569 READING 491 0.971607
1412973638151 24569 READING 496 0.957896
1412973639572 24570 READING 484 0.983916
1412973640140 24569 READING 498 0.982708
1412973642043 24570 READING 490 0.987811
1412973642649 24569 READING 504 0.987851
1412973644434 24570 READING 492 0.988665
1412973644843 24569 FUNCTION lru lambda h: 0.241639 * (h ** 0.206118)
1412973644843 24570 FUNCTION lru lambda h: 0.324866 * (h ** 0.159255)
1412973644844 24569 RECOMMEND 934
1412973644844 24570 RECOMMEND 722
1412973645032 24569 READING 506 0.990326
1412973647039 24570 READING 491 0.989230
1412973647347 24569 READING 506 0.990229
1412973649717 24570 READING 494 0.982632
1412973649720 24569 READING 509 0.986489
1412973652199 24569 READING 508 0.986083
1412973652266 24570 READING 497 0.985153
1412973654681 24569 READING 509 0.985655
1412973654844 24569 FUNCTION lru lambda h: 0.23774 * (h ** 0.209782)
1412973654844 24570 FUNCTION lru lambda h: 0.319898 * (h ** 0.162766)
1412973654845 24569 RECOMMEND 932
1412973654845 24570 RECOMMEND 724
1412973655234 24570 READING 497 0.989479
1412973656156 24570 READING 501 0.986272
1412973656356 24570 READING 501 0.974581
1412973657199 24570 READING 505 0.978268
1412973657465 24569 READING 513 0.989077
1412973657710 24569 READING 513 0.984108
1412973657904 24569 READING 513 0.972626
1412973659753 24569 READING 515 0.984556
1412973659835 24570 READING 507 0.988652
1412973662695 24569 READING 522 0.990080
1412973662923 24570 READING 510 0.990619
1412973664845 24569 FUNCTION lru lambda h: 0.234375 * (h ** 0.212973)
1412973664845 24570 FUNCTION lru lambda h: 0.314114 * (h ** 0.166886)
1412973664846 24569 RECOMMEND 928
1412973664846 24570 RECOMMEND 728
1412973665450 24570 READING 512 0.990095
1412973665638 24569 READING 524 0.990957
1412973667901 24570 READING 512 0.990801
1412973668307 24569 READING 524 0.990143
1412973670653 24570 READING 514 0.989866
1412973671051 24569 READING 527 0.990739
1412973673453 24570 READING 515 0.988453
1412973674042 24569 READING 527 0.989776
1412973674846 24569 FUNCTION lru lambda h: 0.232239 * (h ** 0.215011)
1412973674846 24570 FUNCTION lru lambda h: 0.310134 * (h ** 0.169749)
1412973674847 24569 RECOMMEND 925
1412973674847 24570 RECOMMEND 731
1412973676047 24570 READING 516 0.990029
1412973676317 24570 READING 517 0.979382
1412973676528 24570 READING 518 0.968956
1412973677054 24569 READING 528 0.987385
1412973678316 24569 READING 527 0.986045
1412973678525 24569 READING 532 0.975415
1412973679021 24570 READING 526 0.985423
1412973679587 24569 READING 536 0.978508
1412973681734 24570 READING 528 0.989112
1412973682509 24569 READING 536 0.987925
1412973684642 24570 READING 532 0.990114
1412973684847 24569 FUNCTION lru lambda h: 0.229602 * (h ** 0.217542)
1412973684847 24570 FUNCTION lru lambda h: 0.0843851 * (h ** 0.39288)
1412973684848 24569 RECOMMEND 590
1412973684848 24570 RECOMMEND 1066
1412973685673 24569 READING 540 0.990341
1412973687536 24570 READING 533 0.989720
1412973688512 24569 READING 542 0.989933
1412973690619 24570 READING 532 0.990051
1412973691618 24569 READING 542 0.989913
1412973693389 24570 READING 535 0.988463
1412973694849 24569 FUNCTION lru lambda h: 0.11067 * (h ** 0.343058)
1412973694849 24570 FUNCTION lru lambda h: 0.0488961 * (h ** 0.484906)
1412973694849 24569 RECOMMEND 686
1412973694849 24570 RECOMMEND 970
1412973694858 24569 READING 544 0.989562
1412973695775 24570 READING 538 0.990081
1412973696028 24570 READING 539 0.983610
1412973696656 24570 READING 540 0.981587
1412973698033 24569 READING 544 0.990650
1412973698873 24569 READING 545 0.986869
1412973699089 24569 READING 546 0.977445
1412973699745 24570 READING 542 0.990265
1412973700813 24569 READING 548 0.983890
1412973703009 24570 READING 545 0.991463
1412973704138 24569 READING 555 0.989416
1412973704849 24569 FUNCTION lru lambda h: 0.0234236 * (h ** 0.605504)
1412973704849 24570 FUNCTION lru lambda h: 0.0144977 * (h ** 0.687561)
1412973704850 24569 RECOMMEND 775
1412973704850 24570 RECOMMEND 881
1412973706419 24570 READING 547 0.991779
1412973707134 24569 READING 556 0.991303
1412973709618 24570 READING 545 0.991285
1412973710431 24569 READING 557 0.990978
1412973712715 24570 READING 547 0.989976
1412973713557 24569 READING 559 0.989949
1412973714850 24569 FUNCTION lru lambda h: 0.00809813 * (h ** 0.782562)
1412973714850 24570 FUNCTION lru lambda h: 0.0138932 * (h ** 0.694405)
1412973714851 24569 RECOMMEND 877
1412973714851 24570 RECOMMEND 779
1412973716169 24570 READING 549 0.991980
1412973716499 24570 READING 550 0.986126
1412973716700 24569 READING 560 0.989379
1412973716732 24570 READING 550 0.982438
1412973719022 24569 READING 561 0.988827
1412973719253 24569 READING 563 0.982468
1412973719526 24570 READING 553 0.989223
1412973720912 24569 READING 565 0.984789
1412973722853 24570 READING 556 0.991326
1412973724571 24569 READING 573 0.991602
1412973724851 24569 FUNCTION lru lambda h: 0.00404183 * (h ** 0.896161)
1412973724851 24570 FUNCTION lru lambda h: 0.0159731 * (h ** 0.670377)
1412973724851 24569 RECOMMEND 947
1412973724851 24570 RECOMMEND 709
1412973726233 24570 READING 557 0.991723
1412973727698 24569 READING 574 0.991604
1412973729305 24570 READING 556 0.990741
1412973730957 24569 READING 574 0.990822
1412973732386 24570 READING 558 0.989795
1412973734345 24569 READING 576 0.990252
1412973734851 24569 FUNCTION lru lambda h: 0.0300142 * (h ** 0.565722)
1412973734852 24570 FUNCTION lru lambda h: 0.0474704 * (h ** 0.49106)
1412973734852 24569 RECOMMEND 886
1412973734852 24570 RECOMMEND 770
1412973735659 24570 READING 561 0.991687
1412973735976 24570 READING 562 0.986256
1412973736536 24570 READING 561 0.983469
1412973737781 24569 READING 577 0.989164
1412973739060 24569 READING 578 0.986451
1412973739307 24569 READING 585 0.978369
1412973739815 24570 READING 564 0.991839
1412973742340 24569 READING 586 0.988666
1412973743405 24570 READING 566 0.992478
1412973744853 24569 FUNCTION lru lambda h: 0.138873 * (h ** 0.314507)
1412973744853 24570 FUNCTION lru lambda h: 0.11263 * (h ** 0.349234)
1412973744853 24569 RECOMMEND 785
1412973744853 24570 RECOMMEND 871
1412973745857 24569 READING 592 0.991339
1412973746552 24570 READING 568 0.991860
1412973749593 24569 READING 594 0.991378
1412973749673 24570 READING 567 0.989860
1412973753077 24570 READING 569 0.990126
1412973753215 24569 READING 594 0.990772
1412973754853 24569 FUNCTION lru lambda h: 0.154898 * (h ** 0.296526)
1412973754853 24570 FUNCTION lru lambda h: 0.105915 * (h ** 0.358927)
1412973754854 24569 RECOMMEND 749
1412973754854 24570 RECOMMEND 907
1412973755359 24570 READING 571 0.989835
1412973755610 24570 READING 572 0.983851
1412973756921 24569 READING 596 0.991907
1412973757651 24570 READING 575 0.986637
1412973759606 24569 READING 598 0.991372
1412973759858 24569 READING 599 0.986911
1412973761237 24570 READING 578 0.990903
1412973761856 24569 READING 603 0.988020
1412973764846 24570 READING 580 0.991724
1412973764854 24569 FUNCTION lru lambda h: 0.144322 * (h ** 0.307536)
1412973764854 24570 FUNCTION lru lambda h: 0.134928 * (h ** 0.31925)
1412973764856 24569 RECOMMEND 813
1412973764856 24570 RECOMMEND 843
1412973765602 24569 READING 604 0.990021
1412973768391 24570 READING 581 0.991739
1412973769503 24569 READING 606 0.991320
1412973771547 24570 READING 580 0.989901
1412973773179 24569 READING 608 0.991267
1412973774856 24569 FUNCTION lru lambda h: 0.153201 * (h ** 0.297592)
1412973774856 24570 FUNCTION lru lambda h: 0.174066 * (h ** 0.27803)
1412973774857 24569 RECOMMEND 856
1412973774857 24570 RECOMMEND 800
1412973774977 24570 READING 582 0.991942
1412973775310 24570 READING 583 0.986508
1412973776254 24570 READING 584 0.984226
1412973777105 24569 READING 607 0.990323
1412973779830 24569 READING 609 0.990325
1412973780089 24569 READING 612 0.986659
1412973780145 24570 READING 592 0.990397
1412973782631 24569 READING 614 0.989384
1412973783520 24570 READING 592 0.991047
1412973784857 24569 FUNCTION lru lambda h: 0.217226 * (h ** 0.241071)
1412973784857 24570 FUNCTION lru lambda h: 0.31225 * (h ** 0.183567)
1412973784858 24569 RECOMMEND 940
1412973784858 24570 RECOMMEND 716
1412973786600 24569 READING 620 0.992097
1412973787056 24570 READING 592 0.991018
1412973790425 24570 READING 594 0.990877
1412973790760 24569 READING 621 0.992533
1412973794278 24569 READING 620 0.991481
1412973794309 24570 READING 597 0.992695
1412973794679 24570 READING 597 0.987303
1412973794858 24569 FUNCTION lru lambda h: 0.249861 * (h ** 0.218475)
1412973794858 24570 FUNCTION lru lambda h: 0.413332 * (h ** 0.138561)
1412973794859 24569 RECOMMEND 1013
1412973794859 24570 RECOMMEND 643
1412973795737 24570 READING 597 0.985879
1412973798280 24569 READING 622 0.990961
1412973799546 24570 READING 600 0.991310
1412973799877 24569 READING 622 0.989473
1412973800148 24569 READING 625 0.985624
1412973803725 24570 READING 601 0.991485
1412973804418 24569 READING 630 0.991998
1412973804859 24569 FUNCTION lru lambda h: 0.344767 * (h ** 0.166936)
1412973804859 24570 FUNCTION lru lambda h: 0.504197 * (h ** 0.106776)
1412973804860 24569 RECOMMEND 1010
1412973804860 24570 RECOMMEND 646
1412973807499 24570 READING 603 0.991833
1412973808641 24569 READING 630 0.992843
1412973811332 24570 READING 603 0.992706
1412973812620 24569 READING 630 0.992091
1412973814597 24570 READING 604 0.993257
1412973814861 24569 FUNCTION lru lambda h: 0.344723 * (h ** 0.166957)
1412973814861 24570 FUNCTION lru lambda h: 0.483642 * (h ** 0.113397)
1412973814861 24569 RECOMMEND 986
1412973814861 24570 RECOMMEND 670
1412973814906 24570 READING 608 0.988450
1412973815060 24570 DEATH 187
1412973816922 24569 READING 633 0.992994
1412973820470 24569 READING 634 0.994189
1412973820774 24569 READING 635 0.990468
1412973820909 24569 DEATH 180
