MemTotal:       16318588 kB
MemFree:        13888732 kB
Buffers:          611900 kB
Cached:           662820 kB
SwapCached:          712 kB
Active:          1478820 kB
Inactive:         593804 kB
Active(anon):     797960 kB
Inactive(anon):     1476 kB
Active(file):     680860 kB
Inactive(file):   592328 kB
Unevictable:           0 kB
Mlocked:               0 kB
SwapTotal:      16728060 kB
SwapFree:       16727348 kB
Dirty:                36 kB
Writeback:             0 kB
AnonPages:        797188 kB
Mapped:            15916 kB
Shmem:              1536 kB
Slab:             229076 kB
SReclaimable:     211960 kB
SUnreclaim:        17116 kB
KernelStack:        1560 kB
PageTables:         4352 kB
NFS_Unstable:          0 kB
Bounce:                0 kB
WritebackTmp:          0 kB
CommitLimit:    24887352 kB
Committed_AS:     950984 kB
VmallocTotal:   34359738367 kB
VmallocUsed:      370636 kB
VmallocChunk:   34359363072 kB
HardwareCorrupted:     0 kB
AnonHugePages:    774144 kB
HugePages_Total:       0
HugePages_Free:        0
HugePages_Rsvd:        0
HugePages_Surp:        0
Hugepagesize:       2048 kB
DirectMap4k:       72640 kB
DirectMap2M:    16588800 kB
