MemTotal:       16318588 kB
MemFree:        14275120 kB
Buffers:          508468 kB
Cached:           619356 kB
SwapCached:            0 kB
Active:          1087768 kB
Inactive:         594900 kB
Active(anon):     555648 kB
Inactive(anon):      748 kB
Active(file):     532120 kB
Inactive(file):   594152 kB
Unevictable:           0 kB
Mlocked:               0 kB
SwapTotal:      16728060 kB
SwapFree:       16728060 kB
Dirty:               164 kB
Writeback:             0 kB
AnonPages:        554844 kB
Mapped:            17100 kB
Shmem:              1552 kB
Slab:             229780 kB
SReclaimable:     212436 kB
SUnreclaim:        17344 kB
KernelStack:        1600 kB
PageTables:         4084 kB
NFS_Unstable:          0 kB
Bounce:                0 kB
WritebackTmp:          0 kB
CommitLimit:    24887352 kB
Committed_AS:     730332 kB
VmallocTotal:   34359738367 kB
VmallocUsed:      370636 kB
VmallocChunk:   34359363072 kB
HardwareCorrupted:     0 kB
AnonHugePages:    530432 kB
HugePages_Total:       0
HugePages_Free:        0
HugePages_Rsvd:        0
HugePages_Surp:        0
Hugepagesize:       2048 kB
DirectMap4k:       62400 kB
DirectMap2M:    16599040 kB
