MemTotal:       16388228 kB
MemFree:        14508080 kB
Buffers:          542080 kB
Cached:           835712 kB
SwapCached:         1380 kB
Active:           795348 kB
Inactive:         735064 kB
Active(anon):     151500 kB
Inactive(anon):    18072 kB
Active(file):     643848 kB
Inactive(file):   716992 kB
Unevictable:           0 kB
Mlocked:               0 kB
SwapTotal:      16728060 kB
SwapFree:       16726680 kB
Dirty:                 0 kB
Writeback:             0 kB
AnonPages:        150616 kB
Mapped:            85040 kB
Shmem:             17420 kB
Slab:             212768 kB
SReclaimable:     192068 kB
SUnreclaim:        20700 kB
KernelStack:        1952 kB
PageTables:         7332 kB
NFS_Unstable:          0 kB
Bounce:                0 kB
WritebackTmp:          0 kB
CommitLimit:    24922172 kB
Committed_AS:     446860 kB
VmallocTotal:   34359738367 kB
VmallocUsed:      114348 kB
VmallocChunk:   34359568616 kB
HardwareCorrupted:     0 kB
AnonHugePages:    137216 kB
HugePages_Total:       0
HugePages_Free:        0
HugePages_Rsvd:        0
HugePages_Surp:        0
Hugepagesize:       2048 kB
DirectMap4k:       72644 kB
DirectMap2M:    16658432 kB
