1412845664585 0 TOTAL_MEM 4940
1412845684607 26714 CREATION
1412845684607 26714 READING 9 0.982704
1412845684607 26714 MINHEAP 2
1412845684607 26714 MINHEAP 12
1412845684645 26713 CREATION
1412845684645 26713 READING 9 0.987557
1412845684645 26713 MINHEAP 2
1412845684645 26713 MINHEAP 1223
1412845684693 26713 READING 9 0.973807
1412845684708 26714 READING 9 0.989780
1412845684752 26713 READING 11 0.980044
1412845684775 26714 READING 11 0.982472
1412845684850 26713 READING 11 0.982769
1412845684868 26714 READING 11 0.977370
1412845685036 26713 READING 15 0.859401
1412845685046 26714 READING 15 0.988376
1412845685120 26713 READING 18 0.973866
1412845685215 26713 READING 24 0.901524
1412845685290 26714 READING 15 0.980194
1412845685332 26713 READING 28 0.906941
1412845685511 26713 READING 32 0.318579
1412845685593 26713 READING 41 0.853965
1412845685718 26713 READING 48 0.922523
1412845685744 26714 READING 24 0.943853
1412845686022 26713 READING 50 0.342928
1412845686100 26713 READING 66 0.845545
1412845686132 26714 READING 29 0.989531
1412845686184 26713 READING 69 0.720963
1412845686428 26713 READING 73 0.241789
1412845686454 26714 READING 37 0.987485
1412845686495 26713 READING 93 0.768067
1412845686601 26713 READING 100 0.753386
1412845686715 26714 READING 44 0.967273
1412845686955 26714 READING 45 0.969771
1412845687015 26713 READING 103 0.213552
1412845687115 26713 READING 132 0.726890
1412845687116 26714 READING 45 0.980247
1412845687282 26713 READING 135 0.764643
1412845687385 26713 READING 138 0.739418
1412845687389 26714 READING 55 0.955005
1412845687534 26713 READING 143 0.569826
1412845687646 26713 READING 147 0.604694
1412845687700 26714 READING 55 0.991919
1412845687773 26713 READING 155 0.592282
1412845687875 26713 READING 162 0.556131
1412845687944 26714 READING 66 0.831424
1412845688267 26714 READING 72 0.994344
1412845688530 26714 READING 85 0.989442
1412845688752 26713 READING 171 0.077152
1412845688901 26713 READING 205 0.456205
1412845689009 26713 READING 210 0.558687
1412845689156 26714 READING 87 0.994685
1412845689632 26713 READING 212 0.125883
1412845689742 26713 READING 246 0.631089
1412845689853 26713 READING 248 0.728181
1412845689966 26713 READING 251 0.681760
1412845689986 26714 READING 96 0.997155
1412845690120 26713 READING 253 0.621428
1412845690254 26713 READING 257 0.573367
1412845690388 26713 READING 260 0.628463
1412845690504 26713 READING 267 0.595415
1412845690632 26713 READING 271 0.560071
1412845690878 26714 READING 98 0.997048
1412845691287 26713 READING 281 0.097705
1412845691425 26713 READING 322 0.489363
1412845691529 26713 READING 328 0.477288
1412845691658 26713 READING 329 0.446598
1412845691755 26714 READING 106 0.985170
1412845691784 26713 READING 332 0.545834
1412845692503 26714 READING 107 0.995817
1412845692514 26713 READING 337 0.086250
1412845692675 26713 READING 380 0.423276
1412845692817 26713 READING 367 0.489406
1412845692955 26713 READING 375 0.578921
1412845693352 26714 READING 117 0.994854
1412845693722 26713 READING 370 0.099554
1412845693890 26713 READING 416 0.495684
1412845694033 26713 READING 408 0.578699
1412845694192 26713 READING 414 0.614087
1412845694225 26714 READING 118 0.996126
1412845694346 26713 READING 415 0.632307
1412845694491 26713 READING 418 0.622258
1412845694586 26714 FUNCTION lru lambda h: 0.961963 * (h ** 0.00376409)
1412845694586 26713 FUNCTION lru lambda h: 1.50452 * (h ** 0.001)
1412845694586 26714 RECOMMEND 2470
1412845694586 26713 RECOMMEND 2470
1412845694647 26713 READING 422 0.596096
1412845694827 26713 READING 426 0.539110
1412845695173 26714 READING 127 0.993824
1412845695662 26713 READING 431 0.102217
1412845695881 26713 READING 484 0.449121
1412845696048 26714 READING 128 0.989228
1412845696061 26713 READING 492 0.563004
1412845696243 26713 READING 494 0.498901
1412845696421 26713 READING 499 0.537980
1412845696629 26713 READING 503 0.481092
1412845696823 26713 READING 508 0.511603
1412845697018 26714 READING 137 0.995068
1412845697760 26713 READING 513 0.089589
1412845697847 26714 READING 137 0.995833
1412845697956 26713 READING 562 0.495607
1412845698117 26713 READING 571 0.550183
1412845698826 26714 READING 145 0.995217
1412845699173 26713 READING 576 0.120740
1412845699390 26713 READING 632 0.486077
1412845699575 26713 READING 629 0.527747
1412845699761 26714 READING 145 0.994507
1412845699770 26713 READING 633 0.540283
1412845699977 26713 READING 638 0.555876
1412845700565 26713 READING 640 0.767443
1412845700836 26714 READING 154 0.997212
1412845701762 26714 READING 154 0.996696
1412845702515 26713 READING 642 0.254535
1412845702722 26714 READING 162 0.997343
1412845703412 26713 READING 709 0.837480
1412845703674 26713 READING 716 0.639781
1412845703888 26713 READING 725 0.587267
1412845703893 26714 READING 162 0.997909
1412845704152 26713 READING 731 0.681032
1412845704586 26714 FUNCTION lru lambda h: 0.948645 * (h ** 0.00796098)
1412845704586 26713 FUNCTION lru lambda h: 1.18334 * (h ** 0.001)
1412845704586 26714 RECOMMEND 2470
1412845704586 26713 RECOMMEND 2470
1412845704999 26714 READING 167 0.997857
1412845705933 26713 READING 732 0.031581
1412845705979 26714 READING 168 0.998204
1412845706115 26713 READING 793 0.351558
1412845706248 26713 READING 797 0.451967
1412845706738 26713 READING 797 0.852992
1412845706886 26713 READING 798 0.577295
1412845707039 26713 READING 797 0.617645
1412845707123 26714 READING 172 0.998775
1412845707374 26713 READING 799 0.859673
1412845708167 26714 READING 173 0.996843
1412845708921 26714 READING 177 0.979752
1412845709737 26714 READING 177 0.987717
1412845709843 26713 READING 805 0.056143
1412845710175 26713 READING 878 0.714545
1412845710509 26713 READING 883 0.850957
1412845710724 26713 READING 885 0.777561
1412845711039 26714 READING 189 0.998154
1412845712200 26713 READING 889 0.283690
1412845712239 26714 READING 189 0.997576
1412845712461 26713 READING 983 0.616742
1412845712666 26713 READING 985 0.771314
1412845712880 26713 READING 986 0.738602
1412845713105 26713 READING 985 0.752716
1412845713322 26713 READING 988 0.775053
1412845713551 26713 READING 982 0.786264
1412845713566 26714 READING 197 0.994591
1412845713785 26713 READING 987 0.783274
1412845714020 26713 READING 982 0.818881
1412845714257 26713 READING 986 0.810830
1412845714586 26714 FUNCTION lru lambda h: 0.943132 * (h ** 0.00963257)
1412845714586 26713 FUNCTION lru lambda h: 0.970066 * (h ** 0.001)
1412845714586 26714 RECOMMEND 2470
1412845714586 26713 RECOMMEND 2470
1412845714841 26714 READING 199 0.997801
1412845715474 26713 READING 978 0.962951
1412845716111 26714 READING 206 0.997865
1412845716486 26713 READING 890 0.949599
1412845716722 26713 READING 973 0.761355
1412845716949 26713 READING 982 0.789454
1412845717186 26713 READING 993 0.783625
1412845717421 26713 READING 995 0.791962
1412845717465 26714 READING 207 0.997860
1412845717651 26713 READING 990 0.849599
1412845717885 26713 READING 998 0.845395
1412845718130 26713 READING 987 0.855894
1412845718440 26713 READING 993 0.890730
1412845718757 26713 READING 991 0.887100
1412845718901 26714 READING 213 0.998450
1412845719125 26713 READING 993 0.913260
1412845719356 26713 READING 991 0.778936
1412845719562 26713 READING 994 0.679759
1412845719770 26713 READING 996 0.642501
1412845720327 26714 READING 214 0.996254
1412845721238 26713 READING 1009 0.086623
1412845721487 26713 READING 1135 0.595647
1412845721681 26713 READING 1136 0.731677
1412845721719 26714 READING 221 0.997662
1412845721883 26713 READING 1141 0.754395
1412845722104 26713 READING 1144 0.689853
1412845722328 26713 READING 1145 0.753434
1412845722551 26713 READING 1149 0.739215
1412845722806 26713 READING 1148 0.742028
1412845723178 26714 READING 221 0.994598
1412845724587 26714 FUNCTION lru lambda h: 0.940431 * (h ** 0.0104188)
1412845724587 26713 FUNCTION lru lambda h: 0.351956 * (h ** 0.0550392)
1412845724587 26714 RECOMMEND 2470
1412845724587 26713 RECOMMEND 2470
1412845724727 26714 READING 226 0.998021
1412845725351 26713 READING 1154 0.974182
1412845726264 26714 READING 226 0.997600
1412845727251 26714 READING 232 0.994889
1412845728149 26714 READING 232 0.995669
1412845728508 26713 READING 1146 0.975544
1412845729742 26714 READING 240 0.998257
1412845731314 26714 READING 240 0.998226
1412845731945 26713 READING 1155 0.979042
1412845732807 26714 READING 227 0.997716
1412845734225 26714 READING 217 0.998074
1412845734587 26714 FUNCTION lru lambda h: 0.939424 * (h ** 0.0107061)
1412845734587 26713 FUNCTION lru lambda h: 0.217422 * (h ** 0.134412)
1412845734587 26714 RECOMMEND 2470
1412845734587 26713 RECOMMEND 2470
1412845735194 26713 READING 1158 0.971697
1412845735565 26714 READING 207 0.997968
1412845736865 26714 READING 198 0.998022
1412845738075 26714 READING 190 0.997525
1412845738611 26713 READING 1162 0.973415
1412845739280 26714 READING 182 0.995688
1412845740394 26714 READING 174 0.997480
1412845741435 26714 READING 167 0.996349
1412845742022 26713 READING 1170 0.981740
1412845742456 26714 READING 160 0.996605
1412845743407 26714 READING 153 0.996873
1412845744302 26714 READING 147 0.996531
1412845744587 26714 FUNCTION lru lambda h: 0.938291 * (h ** 0.0110897)
1412845744587 26713 FUNCTION lru lambda h: 0.141663 * (h ** 0.204168)
1412845744587 26714 RECOMMEND 2470
1412845744587 26713 RECOMMEND 2470
1412845744829 26714 READING 141 0.994351
1412845745161 26714 READING 136 0.991245
1412845745421 26713 READING 1172 0.963403
1412845745480 26714 READING 131 0.991766
1412845746250 26714 READING 135 0.996432
1412845747065 26714 READING 130 0.996470
1412845747834 26714 READING 125 0.997500
1412845748566 26714 READING 120 0.997036
1412845749126 26713 READING 1168 0.980191
1412845749279 26714 READING 116 0.996715
1412845749940 26714 READING 111 0.994943
1412845750569 26714 READING 107 0.994427
1412845751161 26714 READING 103 0.996333
1412845751749 26714 READING 100 0.996567
1412845752308 26714 READING 96 0.995831
1412845752853 26714 READING 93 0.994685
1412845752872 26713 READING 1173 0.978290
1412845753358 26714 READING 90 0.994624
1412845753838 26714 READING 87 0.993420
1412845754303 26714 READING 83 0.994385
1412845754587 26714 FUNCTION lru lambda h: 0.939963 * (h ** 0.0110023)
1412845754587 26713 FUNCTION lru lambda h: 0.0924754 * (h ** 0.27248)
1412845754587 26714 RECOMMEND 2470
1412845754587 26713 RECOMMEND 2470
1412845754835 26714 READING 80 0.817106
1412845755262 26714 READING 81 0.996950
1412845755713 26714 READING 84 0.996012
1412845756183 26714 READING 91 0.996165
1412845756409 26713 READING 1163 0.978947
1412845756713 26714 READING 91 0.997723
1412845757247 26714 READING 98 0.997736
1412845757789 26714 READING 97 0.998156
1412845758371 26714 READING 104 0.996766
1412845758966 26714 READING 103 0.997341
1412845759571 26714 READING 110 0.996973
1412845760213 26714 READING 110 0.997988
1412845760356 26713 READING 1169 0.980028
1412845760896 26714 READING 117 0.997276
1412845761583 26714 READING 117 0.998177
1412845762295 26714 READING 123 0.996618
1412845762691 26714 READING 124 0.993949
1412845762981 26714 READING 131 0.989502
1412845763299 26714 READING 138 0.990910
1412845764032 26713 READING 1168 0.974999
1412845764096 26714 READING 147 0.997754
1412845764587 26714 FUNCTION lru lambda h: 0.931447 * (h ** 0.0125783)
1412845764587 26713 FUNCTION lru lambda h: 0.0572911 * (h ** 0.346765)
1412845764587 26714 RECOMMEND 2470
1412845764587 26713 RECOMMEND 2470
1412845765035 26714 READING 153 0.997789
1412845766013 26714 READING 160 0.997262
1412845767032 26714 READING 167 0.996723
1412845767646 26713 READING 1170 0.977887
1412845768136 26714 READING 174 0.998052
1412845769204 26714 READING 176 0.997038
1412845770264 26714 READING 176 0.997631
1412845771371 26714 READING 182 0.997146
1412845771532 26713 READING 1173 0.978366
1412845772504 26714 READING 182 0.996407
1412845773661 26714 READING 188 0.996421
1412845774588 26714 FUNCTION lru lambda h: 0.931136 * (h ** 0.0126672)
1412845774588 26713 FUNCTION lru lambda h: 0.057303 * (h ** 0.34673)
1412845774588 26714 RECOMMEND 2470
1412845774588 26713 RECOMMEND 2470
1412845774825 26714 READING 188 0.997158
1412845775324 26713 READING 1174 0.978919
1412845776054 26714 READING 195 0.996793
1412845777264 26714 READING 195 0.996439
1412845778513 26714 READING 202 0.998224
1412845779157 26713 READING 1176 0.977004
1412845779787 26714 READING 202 0.998469
1412845780445 26714 READING 207 0.993410
1412845780903 26714 READING 208 0.990824
1412845782274 26714 READING 216 0.993988
1412845783620 26714 READING 216 0.992752
1412845784556 26713 READING 1180 0.700052
1412845784588 26714 FUNCTION lru lambda h: 0.931625 * (h ** 0.0125378)
1412845784588 26713 FUNCTION lru lambda h: 0.0285282 * (h ** 0.453407)
1412845784588 26714 RECOMMEND 2470
1412845784588 26713 RECOMMEND 2470
1412845785035 26714 READING 228 0.996705
1412845786476 26714 READING 228 0.997454
1412845788004 26714 READING 237 0.998152
1412845788296 26713 READING 1257 0.995810
1412845789543 26714 READING 238 0.997389
1412845791129 26714 READING 247 0.997742
1412845792125 26713 READING 1260 0.994626
1412845792717 26714 READING 248 0.997898
1412845794328 26714 READING 255 0.997969
1412845794588 26714 FUNCTION lru lambda h: 0.931755 * (h ** 0.0125047)
1412845794588 26713 FUNCTION lru lambda h: 0.0169803 * (h ** 0.532466)
1412845794588 26714 RECOMMEND 2470
1412845794588 26713 RECOMMEND 2470
1412845795976 26714 READING 256 0.997949
1412845796014 26713 READING 1268 0.993080
1412845797566 26714 READING 263 0.997757
1412845798162 26714 READING 263 0.988093
1412845799669 26714 READING 270 0.997204
1412845799912 26713 READING 1273 0.991925
1412845801441 26714 READING 271 0.997127
1412845803253 26714 READING 281 0.997972
1412845803878 26713 READING 1274 0.990224
1412845804588 26714 FUNCTION lru lambda h: 0.932693 * (h ** 0.0122673)
1412845804588 26713 FUNCTION lru lambda h: 0.0166903 * (h ** 0.536495)
1412845804588 26714 RECOMMEND 2470
1412845804588 26713 RECOMMEND 2470
1412845805101 26714 READING 282 0.997786
1412845807013 26714 READING 292 0.996904
1412845807926 26713 READING 1168 0.988963
1412845808908 26714 READING 293 0.997318
1412845810856 26714 READING 302 0.998254
1412845811736 26713 READING 1263 0.988019
1412845812835 26714 READING 303 0.998084
1412845814589 26714 FUNCTION lru lambda h: 0.933559 * (h ** 0.0120519)
1412845814589 26713 FUNCTION lru lambda h: 0.0209022 * (h ** 0.503775)
1412845814589 26714 RECOMMEND 2470
1412845814589 26713 RECOMMEND 2470
1412845814863 26714 READING 311 0.996911
1412845815428 26713 READING 1185 0.983720
1412845815624 26714 READING 312 0.991845
1412845817425 26714 READING 321 0.997543
1412845819288 26713 READING 1251 0.984802
1412845819574 26714 READING 322 0.998310
1412845821721 26714 READING 332 0.998071
1412845823301 26713 READING 1202 0.985393
1412845823922 26714 READING 333 0.997823
1412845824589 26714 FUNCTION lru lambda h: 0.917997 * (h ** 0.0152741)
1412845824589 26713 FUNCTION lru lambda h: 0.00979423 * (h ** 0.61693)
1412845824589 26714 RECOMMEND 2470
1412845824589 26713 RECOMMEND 2470
1412845826151 26714 READING 343 0.998121
1412845827299 26713 READING 1257 0.983150
1412845828413 26714 READING 343 0.998117
1412845830720 26714 READING 352 0.998156
1412845831296 26713 READING 1257 0.981857
1412845832568 26714 READING 353 0.997823
1412845833909 26714 READING 362 0.995843
1412845834589 26714 FUNCTION lru lambda h: 0.902409 * (h ** 0.0184863)
1412845834589 26713 FUNCTION lru lambda h: 0.00980857 * (h ** 0.616692)
1412845834589 26714 RECOMMEND 2470
1412845834589 26713 RECOMMEND 2470
1412845835168 26713 READING 1257 0.980163
1412845836335 26714 READING 362 0.998184
1412845838793 26714 READING 373 0.998511
1412845839078 26713 READING 1261 0.978977
1412845841247 26714 READING 374 0.998154
1412845842820 26713 READING 1264 0.977254
1412845843793 26714 READING 383 0.998033
1412845844589 26714 FUNCTION lru lambda h: 0.904078 * (h ** 0.018064)
1412845844590 26713 FUNCTION lru lambda h: 0.0058365 * (h ** 0.693641)
1412845844590 26714 RECOMMEND 2470
1412845844590 26713 RECOMMEND 2470
1412845846327 26714 READING 383 0.997651
1412845846855 26713 READING 1270 0.977422
1412845848942 26714 READING 393 0.997618
1412845850499 26714 READING 393 0.933536
1412845850821 26713 READING 1276 0.975398
1412845852806 26714 READING 410 0.998259
1412845854590 26714 FUNCTION lru lambda h: 0.949243 * (h ** 0.00885243)
1412845854590 26713 FUNCTION lru lambda h: 0.00314441 * (h ** 0.784776)
1412845854590 26714 RECOMMEND 2470
1412845854590 26713 RECOMMEND 2470
1412845854668 26713 READING 1282 0.976464
1412845855510 26714 READING 410 0.998639
1412845858265 26714 READING 423 0.998726
1412845858618 26713 READING 1287 0.977888
1412845861042 26714 READING 425 0.998704
1412845862480 26713 READING 1290 0.976046
1412845863889 26714 READING 436 0.999038
1412845864590 26714 FUNCTION lru lambda h: 0.950177 * (h ** 0.00864186)
1412845864590 26713 FUNCTION lru lambda h: 0.00265509 * (h ** 0.810114)
1412845864590 26714 RECOMMEND 2470
1412845864590 26713 RECOMMEND 2470
1412845866561 26713 READING 1295 0.975342
1412845866751 26714 READING 437 0.998839
1412845868143 26714 READING 448 0.996291
1412845870517 26713 READING 1296 0.976613
1412845871091 26714 READING 448 0.998541
1412845874135 26714 READING 462 0.998618
1412845874590 26714 FUNCTION lru lambda h: 0.951437 * (h ** 0.00836106)
1412845874590 26713 FUNCTION lru lambda h: 0.00180063 * (h ** 0.866809)
1412845874590 26714 RECOMMEND 2470
1412845874590 26713 RECOMMEND 2470
1412845874690 26713 READING 1301 0.971154
1412845877185 26714 READING 463 0.998435
1412845879026 26713 READING 1301 0.978000
1412845880371 26714 READING 476 0.998342
1412845883530 26714 READING 476 0.994590
1412845883541 26713 READING 1302 0.974708
1412845884590 26714 FUNCTION lru lambda h: 0.952337 * (h ** 0.00815233)
1412845884590 26713 FUNCTION lru lambda h: 0.00214188 * (h ** 0.842055)
1412845884590 26714 RECOMMEND 2470
1412845884590 26713 RECOMMEND 2470
1412845885374 26714 READING 489 0.996829
1412845888009 26713 READING 1303 0.978942
1412845888491 26714 READING 489 0.998059
1412845891844 26714 READING 508 0.998443
1412845892448 26713 READING 1304 0.979666
1412845894591 26714 FUNCTION lru lambda h: 0.95309 * (h ** 0.00797012)
1412845894591 26713 FUNCTION lru lambda h: 0.00152887 * (h ** 0.890983)
1412845894591 26714 RECOMMEND 2470
1412845894591 26713 RECOMMEND 2470
1412845895247 26714 READING 509 0.998276
1412845896612 26713 READING 1305 0.977076
1412845898570 26714 READING 524 0.998685
1412845901754 26714 READING 526 0.998603
1412845903713 26714 READING 539 0.996774
1412845904591 26714 FUNCTION lru lambda h: 0.955185 * (h ** 0.0075248)
1412845904591 26713 FUNCTION lru lambda h: 0.00113732 * (h ** 0.933713)
1412845904591 26714 RECOMMEND 2470
1412845904591 26713 RECOMMEND 2470
1412845907111 26714 READING 540 0.998546
1412845910647 26714 READING 556 0.998475
1412845914141 26714 READING 558 0.998481
1412845914591 26714 FUNCTION lru lambda h: 0.956322 * (h ** 0.00727171)
1412845914591 26713 FUNCTION lru lambda h: 0.00113732 * (h ** 0.933713)
1412845914591 26714 RECOMMEND 2470
1412845914591 26713 RECOMMEND 2470
1412845917107 26713 READING 1305 0.874733
1412845917769 26714 READING 572 0.998670
1412845919816 26714 READING 573 0.996800
1412845923525 26714 READING 586 0.998695
1412845924591 26714 FUNCTION lru lambda h: 0.95758 * (h ** 0.00699577)
1412845924591 26713 FUNCTION lru lambda h: 0.00114842 * (h ** 0.932203)
1412845924591 26714 RECOMMEND 2470
1412845924591 26713 RECOMMEND 2470
1412845927223 26714 READING 587 0.998538
1412845931052 26714 READING 602 0.997811
1412845931077 26713 READING 1534 0.986957
1412845934552 26714 READING 603 0.998426
1412845934591 26714 FUNCTION lru lambda h: 0.958667 * (h ** 0.0067578)
1412845934592 26713 FUNCTION lru lambda h: 0.00190753 * (h ** 0.859011)
1412845934592 26714 RECOMMEND 2470
1412845934592 26713 RECOMMEND 2470
1412845936284 26713 READING 1584 0.985602
1412845936888 26713 READING 1584 0.853149
1412845937229 26713 READING 1575 0.751096
1412845937340 26714 READING 618 0.997765
1412845937560 26713 READING 1587 0.701623
1412845937888 26713 READING 1608 0.744234
1412845938227 26713 READING 1620 0.718146
1412845938577 26713 READING 1648 0.762128
1412845938916 26713 READING 1654 0.817624
1412845941531 26714 READING 619 0.998046
1412845943261 26713 READING 1681 0.984540
1412845944592 26714 FUNCTION lru lambda h: 0.959321 * (h ** 0.0066078)
1412845944592 26713 FUNCTION lru lambda h: 0.001 * (h ** 0.960478)
1412845944592 26714 RECOMMEND 2470
1412845944592 26713 RECOMMEND 2470
1412845945777 26714 READING 637 0.998663
1412845948378 26713 READING 1684 0.985700
1412845950014 26714 READING 637 0.998233
1412845953401 26713 READING 1693 0.987197
1412845953532 26714 DEATH 188
1412845954592 26713 FUNCTION lru lambda h: 0.001 * (h ** 0.999)
1412845954592 26713 RECOMMEND 4940
1412845958181 26713 READING 1701 0.986130
1412845963234 26713 READING 1697 0.986417
1412845964592 26713 FUNCTION lru lambda h: 0.001 * (h ** 0.999)
1412845964592 26713 RECOMMEND 4940
1412845968325 26713 READING 1707 0.986341
1412845973566 26713 READING 1698 0.985678
1412845974593 26713 FUNCTION lru lambda h: 0.001 * (h ** 0.999)
1412845974593 26713 RECOMMEND 4940
1412845979084 26713 READING 1707 0.988468
1412845984363 26713 READING 1711 0.988174
1412845984593 26713 FUNCTION lru lambda h: 0.001 * (h ** 0.990686)
1412845984593 26713 RECOMMEND 4940
1412845990020 26713 READING 1715 0.988049
1412845994593 26713 FUNCTION lru lambda h: 0.001 * (h ** 0.999)
1412845994593 26713 RECOMMEND 4940
1412845995528 26713 READING 1705 0.986410
1412846001008 26713 READING 1614 0.985531
1412846004593 26713 FUNCTION lru lambda h: 0.00116771 * (h ** 0.921146)
1412846004593 26713 RECOMMEND 4940
1412846006633 26713 READING 1697 0.984625
1412846012331 26713 READING 1704 0.983846
1412846014593 26713 FUNCTION lru lambda h: 0.00115882 * (h ** 0.921934)
1412846014593 26713 RECOMMEND 4940
1412846018304 26713 READING 1707 0.983931
1412846023764 26713 READING 1709 0.980386
1412846024594 26713 FUNCTION lru lambda h: 0.00108748 * (h ** 0.93052)
1412846024594 26713 RECOMMEND 4940
1412846029483 26713 READING 1716 0.981511
1412846034594 26713 FUNCTION lru lambda h: 0.00100076 * (h ** 0.941826)
1412846034594 26713 RECOMMEND 4940
1412846035651 26713 READING 1720 0.982355
1412846041531 26713 READING 1727 0.981766
1412846044594 26713 FUNCTION lru lambda h: 0.001 * (h ** 0.999)
1412846044594 26713 RECOMMEND 4940
1412846047435 26713 READING 1731 0.981300
1412846053948 26713 READING 1738 0.841294
1412846054594 26713 FUNCTION lru lambda h: 0.001 * (h ** 0.975818)
1412846054594 26713 RECOMMEND 4940
1412846059853 26713 READING 1654 0.996172
1412846064594 26713 FUNCTION lru lambda h: 0.001 * (h ** 0.981363)
1412846064594 26713 RECOMMEND 4940
1412846065709 26713 READING 1649 0.994999
1412846071325 26713 READING 1663 0.993317
1412846074594 26713 FUNCTION lru lambda h: 0.001 * (h ** 0.999)
1412846074595 26713 RECOMMEND 4940
1412846077145 26713 READING 1675 0.992154
1412846083048 26713 READING 1676 0.991148
1412846084595 26713 FUNCTION lru lambda h: 0.00339186 * (h ** 0.771002)
1412846084595 26713 RECOMMEND 4940
1412846089521 26713 READING 1666 0.991075
1412846094595 26713 FUNCTION lru lambda h: 0.00481776 * (h ** 0.722475)
1412846094595 26713 RECOMMEND 4940
1412846095636 26713 READING 1512 0.989452
1412846101297 26713 READING 1648 0.987340
1412846104595 26713 FUNCTION lru lambda h: 0.00466329 * (h ** 0.727339)
1412846104595 26713 RECOMMEND 4940
1412846114595 26713 FUNCTION lru lambda h: 0.00466329 * (h ** 0.727339)
1412846114595 26713 RECOMMEND 4940
1412846124595 26713 FUNCTION lru lambda h: 0.00466329 * (h ** 0.727339)
1412846124596 26713 RECOMMEND 4940
1412846129764 26713 READING 1541 0.997170
1412846134596 26713 FUNCTION lru lambda h: 0.00444894 * (h ** 0.733881)
1412846134596 26713 RECOMMEND 4940
1412846136625 26713 READING 1648 0.989061
1412846137200 26713 READING 1652 0.826545
1412846137598 26713 READING 1630 0.799581
1412846138017 26713 READING 1668 0.782744
1412846138431 26713 READING 1701 0.806252
1412846138734 26713 DEATH 209
