MemTotal:       16318588 kB
MemFree:        13851264 kB
Buffers:          623708 kB
Cached:           898464 kB
SwapCached:          484 kB
Active:          1425176 kB
Inactive:         652512 kB
Active(anon):     555568 kB
Inactive(anon):     1232 kB
Active(file):     869608 kB
Inactive(file):   651280 kB
Unevictable:           0 kB
Mlocked:               0 kB
SwapTotal:      16728060 kB
SwapFree:       16727576 kB
Dirty:                72 kB
Writeback:             0 kB
AnonPages:        554756 kB
Mapped:            17428 kB
Shmem:              1552 kB
Slab:             258380 kB
SReclaimable:     240424 kB
SUnreclaim:        17956 kB
KernelStack:        1680 kB
PageTables:         4044 kB
NFS_Unstable:          0 kB
Bounce:                0 kB
WritebackTmp:          0 kB
CommitLimit:    24887352 kB
Committed_AS:     724092 kB
VmallocTotal:   34359738367 kB
VmallocUsed:      370636 kB
VmallocChunk:   34359363072 kB
HardwareCorrupted:     0 kB
AnonHugePages:    663552 kB
HugePages_Total:       0
HugePages_Free:        0
HugePages_Rsvd:        0
HugePages_Surp:        0
Hugepagesize:       2048 kB
DirectMap4k:       62400 kB
DirectMap2M:    16599040 kB
