0.247997420827
0.303149725649
0.305623471883
0.303067038429
0.308575307804
0.307484164566
0.312685657109
0.304404736538
0.31226580065
0.315556958031
0.311129087458
0.31692707508
0.318735258494
0.313351925548
0.308470602752
0.304478884389
0.310327706058
0.31015445692
0.305315543614
0.3105686512
0.309770150548
0.30858482997
0.315766206701
0.311963812198
0.310375865173
0.312861746394
0.311817898347
0.311691550042
0.311022642448
0.312285303854
0.312246299881
0.31034696791
0.307929176289
0.305418117403
0.309894945613
0.312470705871
0.311623558741
0.311216233039
0.309818136754
0.309319805747
0.311371279113
