MemTotal:       16318588 kB
MemFree:        14472416 kB
Buffers:          543968 kB
Cached:           865396 kB
SwapCached:            0 kB
Active:           830472 kB
Inactive:         655316 kB
Active(anon):      77200 kB
Inactive(anon):      764 kB
Active(file):     753272 kB
Inactive(file):   654552 kB
Unevictable:           0 kB
Mlocked:               0 kB
SwapTotal:      16728060 kB
SwapFree:       16728060 kB
Dirty:                28 kB
Writeback:             0 kB
AnonPages:         76428 kB
Mapped:            15660 kB
Shmem:              1536 kB
Slab:             227352 kB
SReclaimable:     207124 kB
SUnreclaim:        20228 kB
KernelStack:        1552 kB
PageTables:         2896 kB
NFS_Unstable:          0 kB
Bounce:                0 kB
WritebackTmp:          0 kB
CommitLimit:    24887352 kB
Committed_AS:     201916 kB
VmallocTotal:   34359738367 kB
VmallocUsed:      370636 kB
VmallocChunk:   34359363072 kB
HardwareCorrupted:     0 kB
AnonHugePages:     45056 kB
HugePages_Total:       0
HugePages_Free:        0
HugePages_Rsvd:        0
HugePages_Surp:        0
Hugepagesize:       2048 kB
DirectMap4k:       60352 kB
DirectMap2M:    16601088 kB
