2014-11-09 11:41:06    timeBenchmarkDaemonEqual: Initialising...
2014-11-09 11:41:06    timeBenchmarkDaemonEqual: Using Java version: Hotspot8
2014-11-09 11:41:06    timeBenchmarkDaemonEqual: Initialised
2014-11-09 11:41:06    timeBenchmarkDaemonEqual: 
2014-11-09 11:41:06    timeBenchmarkDaemonEqual: Running benchmarks:
2014-11-09 11:41:06    timeBenchmarkDaemonEqual:     sunflow, large, 2, 32
2014-11-09 11:41:06    timeBenchmarkDaemonEqual:     sunflow, large, 2, 32
2014-11-09 11:41:06    timeBenchmarkDaemonEqual: With max heap: 27 MB
2014-11-09 11:41:06    timeBenchmarkDaemonEqual: Daemon-managed memory: 27 MB
2014-11-09 11:41:06    timeBenchmarkDaemonEqual: 
2014-11-09 11:41:06    timeBenchmarkDaemonEqual: Started main process runs
2014-11-09 11:41:06    timeBenchmarkDaemonEqual: 
2014-11-09 11:41:06    timeBenchmarkDaemonEqual: Run 01 of 10: started
2014-11-09 11:41:06    timeBenchmarkDaemonEqual: Starting auxiliary processes...
2014-11-09 11:41:26    timeBenchmarkDaemonEqual: Started auxiliary processes
2014-11-09 11:41:26    timeBenchmarkDaemonEqual: Running main processes...
2014-11-09 11:48:08    timeBenchmarkDaemonEqual: Main processes completed in 401.582917s
2014-11-09 11:48:08    timeBenchmarkDaemonEqual: Cleaning up auxiliary processes...
2014-11-09 11:48:28    timeBenchmarkDaemonEqual: Cleaned up auxiliary processes
2014-11-09 11:48:28    timeBenchmarkDaemonEqual: Run 01 of 10: completed with main runtime of 401.582917s
2014-11-09 11:48:28    timeBenchmarkDaemonEqual: 
2014-11-09 11:48:28    timeBenchmarkDaemonEqual: Run 02 of 10: started
2014-11-09 11:48:28    timeBenchmarkDaemonEqual: Starting auxiliary processes...
2014-11-09 11:48:48    timeBenchmarkDaemonEqual: Started auxiliary processes
2014-11-09 11:48:48    timeBenchmarkDaemonEqual: Running main processes...
2014-11-09 11:55:29    timeBenchmarkDaemonEqual: Main processes completed in 400.816742s
2014-11-09 11:55:29    timeBenchmarkDaemonEqual: Cleaning up auxiliary processes...
2014-11-09 11:55:49    timeBenchmarkDaemonEqual: Cleaned up auxiliary processes
2014-11-09 11:55:49    timeBenchmarkDaemonEqual: Run 02 of 10: completed with main runtime of 400.816742s
2014-11-09 11:55:49    timeBenchmarkDaemonEqual: 
2014-11-09 11:55:49    timeBenchmarkDaemonEqual: Run 03 of 10: started
2014-11-09 11:55:49    timeBenchmarkDaemonEqual: Starting auxiliary processes...
2014-11-09 11:56:09    timeBenchmarkDaemonEqual: Started auxiliary processes
2014-11-09 11:56:09    timeBenchmarkDaemonEqual: Running main processes...
2014-11-09 12:02:41    timeBenchmarkDaemonEqual: Main processes completed in 392.496349s
2014-11-09 12:02:41    timeBenchmarkDaemonEqual: Cleaning up auxiliary processes...
2014-11-09 12:03:01    timeBenchmarkDaemonEqual: Cleaned up auxiliary processes
2014-11-09 12:03:01    timeBenchmarkDaemonEqual: Run 03 of 10: completed with main runtime of 392.496349s
2014-11-09 12:03:01    timeBenchmarkDaemonEqual: 
2014-11-09 12:03:01    timeBenchmarkDaemonEqual: Run 04 of 10: started
2014-11-09 12:03:01    timeBenchmarkDaemonEqual: Starting auxiliary processes...
2014-11-09 12:03:21    timeBenchmarkDaemonEqual: Started auxiliary processes
2014-11-09 12:03:21    timeBenchmarkDaemonEqual: Running main processes...
2014-11-09 12:09:47    timeBenchmarkDaemonEqual: Main processes completed in 385.349235s
2014-11-09 12:09:47    timeBenchmarkDaemonEqual: Cleaning up auxiliary processes...
2014-11-09 12:10:07    timeBenchmarkDaemonEqual: Cleaned up auxiliary processes
2014-11-09 12:10:07    timeBenchmarkDaemonEqual: Run 04 of 10: completed with main runtime of 385.349235s
2014-11-09 12:10:07    timeBenchmarkDaemonEqual: 
2014-11-09 12:10:07    timeBenchmarkDaemonEqual: Run 05 of 10: started
2014-11-09 12:10:07    timeBenchmarkDaemonEqual: Starting auxiliary processes...
2014-11-09 12:10:27    timeBenchmarkDaemonEqual: Started auxiliary processes
2014-11-09 12:10:27    timeBenchmarkDaemonEqual: Running main processes...
2014-11-09 12:16:51    timeBenchmarkDaemonEqual: Main processes completed in 384.433683s
2014-11-09 12:16:51    timeBenchmarkDaemonEqual: Cleaning up auxiliary processes...
2014-11-09 12:17:11    timeBenchmarkDaemonEqual: Cleaned up auxiliary processes
2014-11-09 12:17:11    timeBenchmarkDaemonEqual: Run 05 of 10: completed with main runtime of 384.433683s
2014-11-09 12:17:11    timeBenchmarkDaemonEqual: 
2014-11-09 12:17:11    timeBenchmarkDaemonEqual: Run 06 of 10: started
2014-11-09 12:17:11    timeBenchmarkDaemonEqual: Starting auxiliary processes...
2014-11-09 12:17:31    timeBenchmarkDaemonEqual: Started auxiliary processes
2014-11-09 12:17:31    timeBenchmarkDaemonEqual: Running main processes...
2014-11-09 12:24:07    timeBenchmarkDaemonEqual: Main processes completed in 395.345434s
2014-11-09 12:24:07    timeBenchmarkDaemonEqual: Cleaning up auxiliary processes...
2014-11-09 12:24:27    timeBenchmarkDaemonEqual: Cleaned up auxiliary processes
2014-11-09 12:24:27    timeBenchmarkDaemonEqual: Run 06 of 10: completed with main runtime of 395.345434s
2014-11-09 12:24:27    timeBenchmarkDaemonEqual: 
2014-11-09 12:24:27    timeBenchmarkDaemonEqual: Run 07 of 10: started
2014-11-09 12:24:27    timeBenchmarkDaemonEqual: Starting auxiliary processes...
2014-11-09 12:24:47    timeBenchmarkDaemonEqual: Started auxiliary processes
2014-11-09 12:24:47    timeBenchmarkDaemonEqual: Running main processes...
2014-11-09 12:31:15    timeBenchmarkDaemonEqual: Main processes completed in 387.926995s
2014-11-09 12:31:15    timeBenchmarkDaemonEqual: Cleaning up auxiliary processes...
2014-11-09 12:31:35    timeBenchmarkDaemonEqual: Cleaned up auxiliary processes
2014-11-09 12:31:35    timeBenchmarkDaemonEqual: Run 07 of 10: completed with main runtime of 387.926995s
2014-11-09 12:31:35    timeBenchmarkDaemonEqual: 
2014-11-09 12:31:35    timeBenchmarkDaemonEqual: Run 08 of 10: started
2014-11-09 12:31:35    timeBenchmarkDaemonEqual: Starting auxiliary processes...
2014-11-09 12:31:55    timeBenchmarkDaemonEqual: Started auxiliary processes
2014-11-09 12:31:55    timeBenchmarkDaemonEqual: Running main processes...
2014-11-09 12:38:38    timeBenchmarkDaemonEqual: Main processes completed in 403.133274s
2014-11-09 12:38:38    timeBenchmarkDaemonEqual: Cleaning up auxiliary processes...
2014-11-09 12:38:58    timeBenchmarkDaemonEqual: Cleaned up auxiliary processes
2014-11-09 12:38:58    timeBenchmarkDaemonEqual: Run 08 of 10: completed with main runtime of 403.133274s
2014-11-09 12:38:58    timeBenchmarkDaemonEqual: 
2014-11-09 12:38:58    timeBenchmarkDaemonEqual: Run 09 of 10: started
2014-11-09 12:38:58    timeBenchmarkDaemonEqual: Starting auxiliary processes...
2014-11-09 12:39:18    timeBenchmarkDaemonEqual: Started auxiliary processes
2014-11-09 12:39:18    timeBenchmarkDaemonEqual: Running main processes...
2014-11-09 12:46:00    timeBenchmarkDaemonEqual: Main processes completed in 401.829578s
2014-11-09 12:46:00    timeBenchmarkDaemonEqual: Cleaning up auxiliary processes...
2014-11-09 12:46:20    timeBenchmarkDaemonEqual: Cleaned up auxiliary processes
2014-11-09 12:46:20    timeBenchmarkDaemonEqual: Run 09 of 10: completed with main runtime of 401.829578s
2014-11-09 12:46:20    timeBenchmarkDaemonEqual: 
2014-11-09 12:46:20    timeBenchmarkDaemonEqual: Run 10 of 10: started
2014-11-09 12:46:20    timeBenchmarkDaemonEqual: Starting auxiliary processes...
2014-11-09 12:46:40    timeBenchmarkDaemonEqual: Started auxiliary processes
2014-11-09 12:46:40    timeBenchmarkDaemonEqual: Running main processes...
2014-11-09 12:53:04    timeBenchmarkDaemonEqual: Main processes completed in 384.220667s
2014-11-09 12:53:04    timeBenchmarkDaemonEqual: Cleaning up auxiliary processes...
2014-11-09 12:53:24    timeBenchmarkDaemonEqual: Cleaned up auxiliary processes
2014-11-09 12:53:24    timeBenchmarkDaemonEqual: Run 10 of 10: completed with main runtime of 384.220667s
2014-11-09 12:53:24    timeBenchmarkDaemonEqual: 
2014-11-09 12:53:24    timeBenchmarkDaemonEqual: Completed main process runs; average runtime (393.71348739999996 +/- 7.823076627685903) s
2014-11-09 12:53:24    timeBenchmarkDaemonEqual: 
2014-11-09 12:53:24    timeBenchmarkDaemonEqual: Cleaning up...
2014-11-09 12:53:24    timeBenchmarkDaemonEqual: Cleaned up
2014-11-09 12:53:24    timeBenchmarkDaemonEqual: 
2014-11-09 12:53:24    timeBenchmarkDaemonEqual: Completed in total time 4337.812066s
