Using scaled threading model. 4 processors detected, 2 threads used to drive the workload, in a possible range of [1,512]
===== DaCapo 9.12 sunflow starting warmup 1 =====
===== DaCapo 9.12 sunflow completed warmup 1 in 11141 msec =====
===== DaCapo 9.12 sunflow starting warmup 2 =====
===== DaCapo 9.12 sunflow completed warmup 2 in 11372 msec =====
===== DaCapo 9.12 sunflow starting warmup 3 =====
===== DaCapo 9.12 sunflow completed warmup 3 in 10307 msec =====
===== DaCapo 9.12 sunflow starting warmup 4 =====
===== DaCapo 9.12 sunflow completed warmup 4 in 10310 msec =====
===== DaCapo 9.12 sunflow starting warmup 5 =====
===== DaCapo 9.12 sunflow completed warmup 5 in 10280 msec =====
===== DaCapo 9.12 sunflow starting warmup 6 =====
===== DaCapo 9.12 sunflow completed warmup 6 in 10266 msec =====
===== DaCapo 9.12 sunflow starting warmup 7 =====
===== DaCapo 9.12 sunflow completed warmup 7 in 10286 msec =====
===== DaCapo 9.12 sunflow starting warmup 8 =====
===== DaCapo 9.12 sunflow completed warmup 8 in 10289 msec =====
===== DaCapo 9.12 sunflow starting warmup 9 =====
===== DaCapo 9.12 sunflow completed warmup 9 in 10135 msec =====
===== DaCapo 9.12 sunflow starting warmup 10 =====
===== DaCapo 9.12 sunflow completed warmup 10 in 10416 msec =====
===== DaCapo 9.12 sunflow starting warmup 11 =====
===== DaCapo 9.12 sunflow completed warmup 11 in 10376 msec =====
===== DaCapo 9.12 sunflow starting warmup 12 =====
===== DaCapo 9.12 sunflow completed warmup 12 in 10160 msec =====
===== DaCapo 9.12 sunflow starting warmup 13 =====
===== DaCapo 9.12 sunflow completed warmup 13 in 10430 msec =====
===== DaCapo 9.12 sunflow starting warmup 14 =====
===== DaCapo 9.12 sunflow completed warmup 14 in 10221 msec =====
===== DaCapo 9.12 sunflow starting warmup 15 =====
===== DaCapo 9.12 sunflow completed warmup 15 in 10432 msec =====
===== DaCapo 9.12 sunflow starting warmup 16 =====
===== DaCapo 9.12 sunflow completed warmup 16 in 10047 msec =====
===== DaCapo 9.12 sunflow starting warmup 17 =====
===== DaCapo 9.12 sunflow completed warmup 17 in 10238 msec =====
===== DaCapo 9.12 sunflow starting warmup 18 =====
===== DaCapo 9.12 sunflow completed warmup 18 in 10257 msec =====
===== DaCapo 9.12 sunflow starting warmup 19 =====
===== DaCapo 9.12 sunflow completed warmup 19 in 10219 msec =====
===== DaCapo 9.12 sunflow starting warmup 20 =====
===== DaCapo 9.12 sunflow completed warmup 20 in 10127 msec =====
===== DaCapo 9.12 sunflow starting warmup 21 =====
===== DaCapo 9.12 sunflow completed warmup 21 in 10287 msec =====
===== DaCapo 9.12 sunflow starting warmup 22 =====
===== DaCapo 9.12 sunflow completed warmup 22 in 10323 msec =====
===== DaCapo 9.12 sunflow starting warmup 23 =====
===== DaCapo 9.12 sunflow completed warmup 23 in 11078 msec =====
===== DaCapo 9.12 sunflow starting warmup 24 =====
===== DaCapo 9.12 sunflow completed warmup 24 in 10303 msec =====
===== DaCapo 9.12 sunflow starting warmup 25 =====
===== DaCapo 9.12 sunflow completed warmup 25 in 10365 msec =====
===== DaCapo 9.12 sunflow starting warmup 26 =====
===== DaCapo 9.12 sunflow completed warmup 26 in 10276 msec =====
===== DaCapo 9.12 sunflow starting warmup 27 =====
===== DaCapo 9.12 sunflow completed warmup 27 in 10229 msec =====
===== DaCapo 9.12 sunflow starting warmup 28 =====
===== DaCapo 9.12 sunflow completed warmup 28 in 10526 msec =====
===== DaCapo 9.12 sunflow starting warmup 29 =====
===== DaCapo 9.12 sunflow completed warmup 29 in 10651 msec =====
===== DaCapo 9.12 sunflow starting warmup 30 =====
===== DaCapo 9.12 sunflow completed warmup 30 in 10248 msec =====
===== DaCapo 9.12 sunflow starting warmup 31 =====
===== DaCapo 9.12 sunflow completed warmup 31 in 10505 msec =====
===== DaCapo 9.12 sunflow starting =====
===== DaCapo 9.12 sunflow PASSED in 11007 msec =====
