===== DaCapo 9.12 pmd starting warmup 1 =====
===== DaCapo 9.12 pmd completed warmup 1 in 6297 msec =====
===== DaCapo 9.12 pmd starting warmup 2 =====
===== DaCapo 9.12 pmd completed warmup 2 in 4748 msec =====
===== DaCapo 9.12 pmd starting warmup 3 =====
===== DaCapo 9.12 pmd completed warmup 3 in 3769 msec =====
===== DaCapo 9.12 pmd starting warmup 4 =====
===== DaCapo 9.12 pmd completed warmup 4 in 3643 msec =====
===== DaCapo 9.12 pmd starting warmup 5 =====
===== DaCapo 9.12 pmd completed warmup 5 in 3686 msec =====
===== DaCapo 9.12 pmd starting warmup 6 =====
===== DaCapo 9.12 pmd completed warmup 6 in 3527 msec =====
===== DaCapo 9.12 pmd starting warmup 7 =====
===== DaCapo 9.12 pmd completed warmup 7 in 3447 msec =====
===== DaCapo 9.12 pmd starting warmup 8 =====
===== DaCapo 9.12 pmd completed warmup 8 in 3431 msec =====
===== DaCapo 9.12 pmd starting warmup 9 =====
===== DaCapo 9.12 pmd completed warmup 9 in 3477 msec =====
===== DaCapo 9.12 pmd starting warmup 10 =====
===== DaCapo 9.12 pmd completed warmup 10 in 3286 msec =====
===== DaCapo 9.12 pmd starting warmup 11 =====
===== DaCapo 9.12 pmd completed warmup 11 in 3264 msec =====
===== DaCapo 9.12 pmd starting warmup 12 =====
===== DaCapo 9.12 pmd completed warmup 12 in 3361 msec =====
===== DaCapo 9.12 pmd starting warmup 13 =====
===== DaCapo 9.12 pmd completed warmup 13 in 3128 msec =====
===== DaCapo 9.12 pmd starting warmup 14 =====
===== DaCapo 9.12 pmd completed warmup 14 in 3118 msec =====
===== DaCapo 9.12 pmd starting warmup 15 =====
===== DaCapo 9.12 pmd completed warmup 15 in 3121 msec =====
===== DaCapo 9.12 pmd starting warmup 16 =====
===== DaCapo 9.12 pmd completed warmup 16 in 3102 msec =====
===== DaCapo 9.12 pmd starting warmup 17 =====
===== DaCapo 9.12 pmd completed warmup 17 in 3205 msec =====
===== DaCapo 9.12 pmd starting warmup 18 =====
===== DaCapo 9.12 pmd completed warmup 18 in 3086 msec =====
===== DaCapo 9.12 pmd starting warmup 19 =====
===== DaCapo 9.12 pmd completed warmup 19 in 3211 msec =====
===== DaCapo 9.12 pmd starting warmup 20 =====
===== DaCapo 9.12 pmd completed warmup 20 in 3169 msec =====
===== DaCapo 9.12 pmd starting warmup 21 =====
===== DaCapo 9.12 pmd completed warmup 21 in 3190 msec =====
===== DaCapo 9.12 pmd starting warmup 22 =====
===== DaCapo 9.12 pmd completed warmup 22 in 3269 msec =====
===== DaCapo 9.12 pmd starting warmup 23 =====
===== DaCapo 9.12 pmd completed warmup 23 in 3185 msec =====
===== DaCapo 9.12 pmd starting warmup 24 =====
===== DaCapo 9.12 pmd completed warmup 24 in 3072 msec =====
===== DaCapo 9.12 pmd starting warmup 25 =====
===== DaCapo 9.12 pmd completed warmup 25 in 3073 msec =====
===== DaCapo 9.12 pmd starting warmup 26 =====
===== DaCapo 9.12 pmd completed warmup 26 in 3241 msec =====
===== DaCapo 9.12 pmd starting warmup 27 =====
===== DaCapo 9.12 pmd completed warmup 27 in 3282 msec =====
===== DaCapo 9.12 pmd starting warmup 28 =====
===== DaCapo 9.12 pmd completed warmup 28 in 3188 msec =====
===== DaCapo 9.12 pmd starting warmup 29 =====
===== DaCapo 9.12 pmd completed warmup 29 in 3173 msec =====
===== DaCapo 9.12 pmd starting warmup 30 =====
===== DaCapo 9.12 pmd completed warmup 30 in 3188 msec =====
===== DaCapo 9.12 pmd starting warmup 31 =====
===== DaCapo 9.12 pmd completed warmup 31 in 3327 msec =====
===== DaCapo 9.12 pmd starting warmup 32 =====
===== DaCapo 9.12 pmd completed warmup 32 in 3160 msec =====
===== DaCapo 9.12 pmd starting warmup 33 =====
===== DaCapo 9.12 pmd completed warmup 33 in 3275 msec =====
===== DaCapo 9.12 pmd starting warmup 34 =====
===== DaCapo 9.12 pmd completed warmup 34 in 3069 msec =====
===== DaCapo 9.12 pmd starting warmup 35 =====
===== DaCapo 9.12 pmd completed warmup 35 in 3191 msec =====
===== DaCapo 9.12 pmd starting warmup 36 =====
===== DaCapo 9.12 pmd completed warmup 36 in 3306 msec =====
===== DaCapo 9.12 pmd starting warmup 37 =====
===== DaCapo 9.12 pmd completed warmup 37 in 3363 msec =====
===== DaCapo 9.12 pmd starting warmup 38 =====
===== DaCapo 9.12 pmd completed warmup 38 in 3468 msec =====
===== DaCapo 9.12 pmd starting warmup 39 =====
===== DaCapo 9.12 pmd completed warmup 39 in 3198 msec =====
===== DaCapo 9.12 pmd starting warmup 40 =====
===== DaCapo 9.12 pmd completed warmup 40 in 3213 msec =====
===== DaCapo 9.12 pmd starting warmup 41 =====
===== DaCapo 9.12 pmd completed warmup 41 in 3152 msec =====
===== DaCapo 9.12 pmd starting warmup 42 =====
===== DaCapo 9.12 pmd completed warmup 42 in 3085 msec =====
===== DaCapo 9.12 pmd starting warmup 43 =====
===== DaCapo 9.12 pmd completed warmup 43 in 3224 msec =====
===== DaCapo 9.12 pmd starting warmup 44 =====
===== DaCapo 9.12 pmd completed warmup 44 in 3252 msec =====
===== DaCapo 9.12 pmd starting warmup 45 =====
===== DaCapo 9.12 pmd completed warmup 45 in 3227 msec =====
===== DaCapo 9.12 pmd starting warmup 46 =====
===== DaCapo 9.12 pmd completed warmup 46 in 3319 msec =====
===== DaCapo 9.12 pmd starting warmup 47 =====
===== DaCapo 9.12 pmd completed warmup 47 in 3042 msec =====
===== DaCapo 9.12 pmd starting warmup 48 =====
===== DaCapo 9.12 pmd completed warmup 48 in 3187 msec =====
===== DaCapo 9.12 pmd starting warmup 49 =====
===== DaCapo 9.12 pmd completed warmup 49 in 3047 msec =====
===== DaCapo 9.12 pmd starting warmup 50 =====
===== DaCapo 9.12 pmd completed warmup 50 in 3020 msec =====
===== DaCapo 9.12 pmd starting warmup 51 =====
===== DaCapo 9.12 pmd completed warmup 51 in 3148 msec =====
===== DaCapo 9.12 pmd starting warmup 52 =====
===== DaCapo 9.12 pmd completed warmup 52 in 2987 msec =====
===== DaCapo 9.12 pmd starting warmup 53 =====
===== DaCapo 9.12 pmd completed warmup 53 in 3090 msec =====
===== DaCapo 9.12 pmd starting warmup 54 =====
===== DaCapo 9.12 pmd completed warmup 54 in 3226 msec =====
===== DaCapo 9.12 pmd starting warmup 55 =====
===== DaCapo 9.12 pmd completed warmup 55 in 3253 msec =====
===== DaCapo 9.12 pmd starting warmup 56 =====
===== DaCapo 9.12 pmd completed warmup 56 in 3146 msec =====
===== DaCapo 9.12 pmd starting warmup 57 =====
===== DaCapo 9.12 pmd completed warmup 57 in 3144 msec =====
===== DaCapo 9.12 pmd starting warmup 58 =====
===== DaCapo 9.12 pmd completed warmup 58 in 3273 msec =====
===== DaCapo 9.12 pmd starting warmup 59 =====
===== DaCapo 9.12 pmd completed warmup 59 in 3157 msec =====
===== DaCapo 9.12 pmd starting warmup 60 =====
===== DaCapo 9.12 pmd completed warmup 60 in 3300 msec =====
===== DaCapo 9.12 pmd starting warmup 61 =====
===== DaCapo 9.12 pmd completed warmup 61 in 3167 msec =====
===== DaCapo 9.12 pmd starting warmup 62 =====
===== DaCapo 9.12 pmd completed warmup 62 in 3139 msec =====
===== DaCapo 9.12 pmd starting warmup 63 =====
===== DaCapo 9.12 pmd completed warmup 63 in 3304 msec =====
===== DaCapo 9.12 pmd starting warmup 64 =====
===== DaCapo 9.12 pmd completed warmup 64 in 3183 msec =====
===== DaCapo 9.12 pmd starting warmup 65 =====
===== DaCapo 9.12 pmd completed warmup 65 in 3168 msec =====
===== DaCapo 9.12 pmd starting warmup 66 =====
===== DaCapo 9.12 pmd completed warmup 66 in 3180 msec =====
===== DaCapo 9.12 pmd starting warmup 67 =====
===== DaCapo 9.12 pmd completed warmup 67 in 3076 msec =====
===== DaCapo 9.12 pmd starting warmup 68 =====
===== DaCapo 9.12 pmd completed warmup 68 in 3340 msec =====
===== DaCapo 9.12 pmd starting warmup 69 =====
===== DaCapo 9.12 pmd completed warmup 69 in 3270 msec =====
===== DaCapo 9.12 pmd starting warmup 70 =====
===== DaCapo 9.12 pmd completed warmup 70 in 3289 msec =====
===== DaCapo 9.12 pmd starting warmup 71 =====
===== DaCapo 9.12 pmd completed warmup 71 in 3293 msec =====
===== DaCapo 9.12 pmd starting warmup 72 =====
===== DaCapo 9.12 pmd completed warmup 72 in 3226 msec =====
===== DaCapo 9.12 pmd starting warmup 73 =====
===== DaCapo 9.12 pmd completed warmup 73 in 3356 msec =====
===== DaCapo 9.12 pmd starting warmup 74 =====
===== DaCapo 9.12 pmd completed warmup 74 in 3184 msec =====
===== DaCapo 9.12 pmd starting warmup 75 =====
===== DaCapo 9.12 pmd completed warmup 75 in 3199 msec =====
===== DaCapo 9.12 pmd starting warmup 76 =====
===== DaCapo 9.12 pmd completed warmup 76 in 3218 msec =====
===== DaCapo 9.12 pmd starting warmup 77 =====
===== DaCapo 9.12 pmd completed warmup 77 in 3148 msec =====
===== DaCapo 9.12 pmd starting warmup 78 =====
===== DaCapo 9.12 pmd completed warmup 78 in 3275 msec =====
===== DaCapo 9.12 pmd starting warmup 79 =====
===== DaCapo 9.12 pmd completed warmup 79 in 3255 msec =====
===== DaCapo 9.12 pmd starting warmup 80 =====
===== DaCapo 9.12 pmd completed warmup 80 in 3148 msec =====
===== DaCapo 9.12 pmd starting warmup 81 =====
===== DaCapo 9.12 pmd completed warmup 81 in 3180 msec =====
===== DaCapo 9.12 pmd starting warmup 82 =====
===== DaCapo 9.12 pmd completed warmup 82 in 3182 msec =====
===== DaCapo 9.12 pmd starting warmup 83 =====
===== DaCapo 9.12 pmd completed warmup 83 in 3069 msec =====
===== DaCapo 9.12 pmd starting warmup 84 =====
===== DaCapo 9.12 pmd completed warmup 84 in 3182 msec =====
===== DaCapo 9.12 pmd starting warmup 85 =====
===== DaCapo 9.12 pmd completed warmup 85 in 3272 msec =====
===== DaCapo 9.12 pmd starting warmup 86 =====
===== DaCapo 9.12 pmd completed warmup 86 in 3303 msec =====
===== DaCapo 9.12 pmd starting warmup 87 =====
===== DaCapo 9.12 pmd completed warmup 87 in 3276 msec =====
===== DaCapo 9.12 pmd starting warmup 88 =====
===== DaCapo 9.12 pmd completed warmup 88 in 3298 msec =====
===== DaCapo 9.12 pmd starting warmup 89 =====
===== DaCapo 9.12 pmd completed warmup 89 in 3226 msec =====
===== DaCapo 9.12 pmd starting =====
===== DaCapo 9.12 pmd PASSED in 3259 msec =====
