 14:43:25 up 1 min,  2 users,  load average: 1.08, 0.54, 0.21
USER     TTY      FROM             LOGIN@   IDLE   JCPU   PCPU WHAT
callum   tty7     :0               14:42    1:26   1.92s  0.12s cinnamon-session --session cinnamon
callum   pts/2    :0:S.0           14:42    5.00s  0.19s  0.00s w
