MemTotal:       16388228 kB
MemFree:        14300424 kB
Buffers:          584472 kB
Cached:           954300 kB
SwapCached:            0 kB
Active:           910064 kB
Inactive:         779416 kB
Active(anon):     151548 kB
Inactive(anon):      344 kB
Active(file):     758516 kB
Inactive(file):   779072 kB
Unevictable:           0 kB
Mlocked:               0 kB
SwapTotal:      16728060 kB
SwapFree:       16728060 kB
Dirty:                28 kB
Writeback:             0 kB
AnonPages:        150720 kB
Mapped:            16792 kB
Shmem:              1188 kB
Slab:             261040 kB
SReclaimable:     241464 kB
SUnreclaim:        19576 kB
KernelStack:        1600 kB
PageTables:         3236 kB
NFS_Unstable:          0 kB
Bounce:                0 kB
WritebackTmp:          0 kB
CommitLimit:    24922172 kB
Committed_AS:     310548 kB
VmallocTotal:   34359738367 kB
VmallocUsed:      114436 kB
VmallocChunk:   34359598892 kB
HardwareCorrupted:     0 kB
AnonHugePages:    129024 kB
HugePages_Total:       0
HugePages_Free:        0
HugePages_Rsvd:        0
HugePages_Surp:        0
Hugepagesize:       2048 kB
DirectMap4k:       82884 kB
DirectMap2M:    16648192 kB
