1413785765016 0 TOTAL_MEM 4940
1413785785033 18296 CREATION
1413785785033 18296 READING 9 0.989778
1413785785033 18296 MINHEAP 2
1413785785033 18296 MINHEAP 12
1413785785063 18295 CREATION
1413785785063 18295 READING 9 0.991980
1413785785063 18295 MINHEAP 2
1413785785063 18295 MINHEAP 1223
1413785785111 18295 READING 9 0.987085
1413785785130 18296 READING 9 0.986893
1413785785139 18295 READING 9 0.979807
1413785785153 18296 READING 9 0.981874
1413785785164 18295 READING 9 0.971473
1413785785200 18296 READING 9 0.971955
1413785785257 18295 READING 11 0.968024
1413785785284 18296 READING 11 0.973980
1413785785398 18295 READING 11 0.961990
1413785785402 18296 READING 11 0.983612
1413785785510 18295 READING 17 0.954633
1413785785565 18296 READING 16 0.986295
1413785785621 18295 READING 17 0.911589
1413785785755 18295 READING 30 0.820967
1413785785820 18296 READING 16 0.945916
1413785785928 18295 READING 31 0.639376
1413785786193 18295 READING 36 0.672404
1413785786273 18296 READING 24 0.951288
1413785786279 18295 READING 48 0.442338
1413785786516 18295 READING 50 0.500400
1413785786530 18296 READING 29 0.945551
1413785786613 18295 READING 66 0.460508
1413785786674 18295 READING 73 0.383848
1413785786785 18296 READING 35 0.936388
1413785786909 18295 READING 73 0.508784
1413785787016 18295 READING 103 0.574923
1413785787089 18296 READING 39 0.669730
1413785787272 18296 READING 43 0.867837
1413785787392 18296 READING 42 0.878315
1413785787455 18295 READING 104 0.443528
1413785787594 18295 READING 137 0.789143
1413785787609 18296 READING 51 0.917911
1413785787749 18295 READING 137 0.713768
1413785787853 18295 READING 138 0.483139
1413785787883 18296 READING 51 0.958894
1413785787987 18295 READING 141 0.375500
1413785788129 18296 READING 59 0.971676
1413785788369 18296 READING 60 0.977281
1413785788512 18296 READING 67 0.943988
1413785788618 18295 READING 143 0.448696
1413785788704 18296 READING 71 0.978353
1413785788756 18295 READING 182 0.354999
1413785788850 18295 READING 186 0.267054
1413785789005 18295 READING 188 0.036747
1413785789018 18296 READING 78 0.988663
1413785789131 18295 READING 194 0.681229
1413785789261 18295 READING 198 0.693168
1413785789756 18296 READING 80 0.994137
1413785789856 18295 READING 201 0.423158
1413785790011 18295 READING 251 0.625733
1413785790118 18295 READING 255 0.675305
1413785790282 18295 READING 259 0.622381
1413785790423 18295 READING 262 0.670066
1413785790545 18296 READING 85 0.993286
1413785790583 18295 READING 269 0.594281
1413785790703 18295 READING 272 0.576658
1413785790826 18295 READING 283 0.565623
1413785790953 18295 READING 289 0.522610
1413785791281 18296 READING 87 0.994631
1413785791556 18295 READING 298 0.417166
1413785791681 18295 READING 354 0.491883
1413785791779 18295 READING 290 0.548900
1413785792000 18296 READING 93 0.995535
1413785792370 18295 READING 343 0.238695
1413785792504 18295 READING 346 0.550902
1413785792624 18295 READING 397 0.619920
1413785792658 18296 READING 94 0.995852
1413785792738 18295 READING 399 0.659935
1413785792864 18295 READING 391 0.667706
1413785793000 18295 READING 395 0.652256
1413785793154 18295 READING 396 0.606886
1413785793313 18295 READING 400 0.585003
1413785793405 18296 READING 98 0.995353
1413785793473 18295 READING 402 0.539226
1413785793648 18295 READING 410 0.516524
1413785793792 18295 READING 415 0.523613
1413785793945 18295 READING 423 0.511757
1413785794098 18295 READING 426 0.469292
1413785794141 18296 READING 99 0.995698
1413785794262 18295 READING 435 0.476691
1413785794869 18296 READING 101 0.995501
1413785795016 18296 FUNCTION lru lambda h: 0.865408 * (h ** 0.0240389)
1413785795016 18295 FUNCTION lru lambda h: 0.931959 * (h ** 0.001)
1413785795017 18296 RECOMMEND 3717
1413785795017 18295 RECOMMEND 1223
1413785795366 18295 READING 441 0.370199
1413785795545 18296 READING 102 0.995061
1413785795547 18295 READING 504 0.424208
1413785795688 18295 READING 494 0.459225
1413785796274 18296 READING 106 0.993481
1413785796632 18295 READING 439 0.176893
1413785796851 18295 READING 558 0.407768
1413785796991 18295 READING 562 0.506146
1413785797011 18296 READING 106 0.994528
1413785797128 18295 READING 559 0.597455
1413785797263 18295 READING 505 0.619368
1413785797407 18295 READING 556 0.602622
1413785797554 18295 READING 559 0.628960
1413785797725 18295 READING 561 0.599294
1413785797840 18296 READING 110 0.995608
1413785797948 18295 READING 568 0.621314
1413785798086 18295 READING 571 0.597011
1413785798244 18295 READING 582 0.562413
1413785798393 18295 READING 588 0.512553
1413785798533 18295 READING 596 0.526028
1413785798626 18296 READING 110 0.995127
1413785798688 18295 READING 601 0.483359
1413785799341 18296 READING 113 0.991637
1413785799696 18295 READING 607 0.398072
1413785799879 18295 READING 675 0.426126
1413785800065 18296 READING 113 0.988305
1413785800421 18295 READING 679 0.731804
1413785800846 18295 READING 680 0.791225
1413785800849 18296 READING 116 0.992103
1413785801252 18295 READING 681 0.810203
1413785801560 18296 READING 116 0.994257
1413785801801 18295 READING 683 0.838599
1413785802015 18295 READING 686 0.776940
1413785802375 18296 READING 119 0.996082
1413785803067 18296 READING 119 0.996610
1413785803561 18295 READING 694 0.484978
1413785803796 18295 READING 764 0.540472
1413785803802 18296 READING 122 0.995952
1413785803937 18295 READING 751 0.554894
1413785804028 18295 READING 684 0.511516
1413785804119 18295 READING 751 0.490002
1413785804209 18295 READING 754 0.479942
1413785804588 18296 READING 122 0.996778
1413785805017 18296 FUNCTION lru lambda h: 0.844026 * (h ** 0.0315978)
1413785805017 18295 FUNCTION lru lambda h: 0.721444 * (h ** 0.001)
1413785805018 18296 RECOMMEND 3717
1413785805018 18295 RECOMMEND 1223
1413785805090 18295 READING 755 0.225044
1413785805388 18296 READING 123 0.997313
1413785805575 18295 READING 831 0.682994
1413785805750 18295 READING 837 0.727019
1413785805858 18295 READING 837 0.700370
1413785805978 18295 READING 836 0.669762
1413785806098 18295 READING 838 0.655150
1413785806188 18296 READING 124 0.997420
1413785806343 18295 READING 842 0.804276
1413785806949 18296 READING 126 0.997608
1413785807662 18296 READING 126 0.997482
1413785807733 18295 READING 843 0.389190
1413785808022 18295 READING 934 0.709399
1413785808278 18295 READING 937 0.828075
1413785808395 18296 READING 128 0.996813
1413785808421 18295 READING 945 0.829106
1413785808704 18295 READING 946 0.823279
1413785808798 18296 READING 128 0.983637
1413785809037 18295 READING 939 0.826085
1413785809159 18296 READING 129 0.973637
1413785809198 18295 READING 825 0.798510
1413785809372 18295 READING 921 0.781960
1413785809524 18295 READING 831 0.790097
1413785809680 18295 READING 911 0.808537
1413785809772 18296 READING 130 0.984118
1413785809836 18295 READING 833 0.822839
1413785810000 18295 READING 906 0.831431
1413785810164 18295 READING 912 0.836270
1413785810337 18295 READING 901 0.840975
1413785810509 18295 READING 906 0.841626
1413785810636 18296 READING 134 0.991585
1413785810689 18295 READING 898 0.848014
1413785811454 18296 READING 134 0.993987
1413785811866 18295 READING 903 0.964648
1413785812293 18296 READING 138 0.995189
1413785812663 18295 READING 901 0.957874
1413785812850 18295 READING 903 0.929039
1413785813052 18295 READING 909 0.878915
1413785813151 18296 READING 138 0.995581
1413785813241 18295 READING 911 0.856840
1413785813437 18295 READING 918 0.842034
1413785813642 18295 READING 919 0.816770
1413785813858 18295 READING 926 0.808490
1413785814079 18296 READING 141 0.996050
1413785814083 18295 READING 926 0.795169
1413785814307 18295 READING 934 0.807699
1413785814641 18295 READING 934 0.852814
1413785815018 18296 FUNCTION lru lambda h: 0.838121 * (h ** 0.0336335)
1413785815018 18295 FUNCTION lru lambda h: 0.462478 * (h ** 0.0358062)
1413785815019 18296 RECOMMEND 2393
1413785815019 18295 RECOMMEND 2547
1413785815024 18296 READING 141 0.990041
1413785815027 18295 READING 937 0.863796
1413785815265 18295 READING 940 0.866789
1413785815516 18295 READING 944 0.811106
1413785815986 18296 READING 144 0.991412
1413785816835 18296 READING 144 0.993037
1413785817289 18295 READING 946 0.713209
1413785817525 18295 READING 1067 0.692650
1413785817698 18295 READING 1071 0.748487
1413785817760 18296 READING 148 0.995176
1413785817883 18295 READING 1073 0.785807
1413785818072 18295 READING 1076 0.797115
1413785818276 18295 READING 1078 0.798554
1413785818482 18295 READING 1081 0.092776
1413785818705 18295 READING 1088 0.489946
1413785818738 18296 READING 148 0.996003
1413785818934 18295 READING 1089 0.643370
1413785819739 18296 READING 151 0.994061
1413785820443 18295 READING 1102 0.918735
1413785820774 18296 READING 152 0.981558
1413785821780 18296 READING 154 0.979301
1413785822841 18296 READING 155 0.979384
1413785823445 18295 READING 1103 0.975663
1413785823848 18296 READING 157 0.983361
1413785824863 18296 READING 158 0.988485
1413785825019 18296 FUNCTION lru lambda h: 0.842424 * (h ** 0.0322303)
1413785825019 18295 FUNCTION lru lambda h: 0.0824974 * (h ** 0.307771)
1413785825020 18296 RECOMMEND 468
1413785825020 18295 RECOMMEND 4472
1413785825853 18296 READING 161 0.993121
1413785826732 18295 READING 1119 0.981047
1413785826894 18296 READING 161 0.995836
1413785827327 18296 READING 162 0.993624
1413785827718 18296 READING 162 0.991862
1413785828653 18296 READING 166 0.994511
1413785829731 18296 READING 167 0.995769
1413785829927 18295 READING 1121 0.980534
1413785830813 18296 READING 170 0.996385
1413785831876 18296 READING 171 0.996244
1413785832993 18296 READING 174 0.996293
1413785833232 18295 READING 1124 0.980851
1413785834121 18296 READING 174 0.996496
1413785835021 18296 FUNCTION lru lambda h: 0.841525 * (h ** 0.0325165)
1413785835021 18295 FUNCTION lru lambda h: 0.0529167 * (h ** 0.377631)
1413785835022 18296 RECOMMEND 392
1413785835022 18295 RECOMMEND 4548
1413785835260 18296 READING 177 0.996524
1413785836372 18296 READING 177 0.996432
1413785836604 18295 READING 1127 0.946301
1413785837554 18296 READING 180 0.996850
1413785838705 18296 READING 180 0.996108
1413785839845 18296 READING 182 0.996891
1413785840012 18295 READING 1122 0.972575
1413785841032 18296 READING 183 0.996953
1413785842203 18296 READING 186 0.991651
1413785843484 18296 READING 186 0.994440
1413785843624 18295 READING 1127 0.893531
1413785844726 18296 READING 192 0.996280
1413785845023 18296 FUNCTION lru lambda h: 0.841939 * (h ** 0.0323893)
1413785845023 18295 FUNCTION lru lambda h: 0.045773 * (h ** 0.400713)
1413785845023 18296 RECOMMEND 369
1413785845023 18295 RECOMMEND 4571
1413785845317 18296 READING 192 0.995451
1413785845832 18296 READING 195 0.995081
1413785847102 18296 READING 195 0.996545
1413785847135 18295 READING 1130 0.836117
1413785848383 18296 READING 200 0.996418
1413785849653 18296 READING 201 0.996800
1413785850763 18295 READING 1131 0.762905
1413785850959 18296 READING 205 0.997474
1413785852270 18296 READING 205 0.997551
1413785853623 18296 READING 209 0.997568
1413785854474 18295 READING 1134 0.428329
1413785854977 18296 READING 209 0.997524
1413785855024 18296 FUNCTION lru lambda h: 0.84308 * (h ** 0.0320438)
1413785855024 18295 FUNCTION lru lambda h: 0.103416 * (h ** 0.276753)
1413785855024 18296 RECOMMEND 513
1413785855024 18295 RECOMMEND 4427
1413785856322 18296 READING 213 0.997629
1413785857692 18296 READING 213 0.997220
1413785858247 18295 READING 1137 0.977318
1413785859099 18296 READING 217 0.997511
1413785860453 18296 READING 217 0.997466
1413785861701 18295 READING 1140 0.976291
1413785861865 18296 READING 221 0.997001
1413785862825 18296 READING 221 0.996519
1413785863322 18296 READING 225 0.981559
1413785864632 18296 READING 225 0.987766
1413785865025 18296 FUNCTION lru lambda h: 0.845444 * (h ** 0.0313454)
1413785865025 18295 FUNCTION lru lambda h: 0.0809246 * (h ** 0.314907)
1413785865026 18296 RECOMMEND 447
1413785865026 18295 RECOMMEND 4493
1413785865092 18295 READING 1144 0.976497
1413785866133 18296 READING 232 0.993730
1413785867624 18296 READING 233 0.995524
1413785868687 18295 READING 1148 0.977079
1413785869190 18296 READING 238 0.996863
1413785870717 18296 READING 238 0.997179
1413785872303 18295 READING 1152 0.976936
1413785872309 18296 READING 244 0.997623
1413785873864 18296 READING 244 0.997702
1413785875026 18296 FUNCTION lru lambda h: 0.847611 * (h ** 0.0307146)
1413785875026 18295 FUNCTION lru lambda h: 0.0498065 * (h ** 0.389005)
1413785875027 18296 RECOMMEND 362
1413785875027 18295 RECOMMEND 4578
1413785875461 18296 READING 249 0.997834
1413785875889 18295 READING 1155 0.975668
1413785877076 18296 READING 249 0.997518
1413785878717 18296 READING 253 0.997530
1413785879665 18295 READING 1160 0.975612
1413785880241 18296 READING 253 0.997583
1413785880783 18296 READING 257 0.984978
1413785882237 18296 READING 257 0.988748
1413785883165 18295 READING 1165 0.976349
1413785884018 18296 READING 265 0.993902
1413785885027 18296 FUNCTION lru lambda h: 0.850805 * (h ** 0.0298032)
1413785885027 18295 FUNCTION lru lambda h: 0.029424 * (h ** 0.4686)
1413785885028 18296 RECOMMEND 295
1413785885028 18295 RECOMMEND 4645
1413785885760 18296 READING 265 0.994697
1413785886898 18295 READING 1168 0.977261
1413785887551 18296 READING 271 0.996388
1413785889319 18296 READING 271 0.997210
1413785890503 18295 READING 1172 0.976902
1413785891128 18296 READING 277 0.997702
1413785892913 18296 READING 277 0.997756
1413785894111 18295 READING 1173 0.976972
1413785894774 18296 READING 282 0.997831
1413785895028 18296 FUNCTION lru lambda h: 0.852656 * (h ** 0.0292831)
1413785895028 18295 FUNCTION lru lambda h: 0.0209904 * (h ** 0.519748)
1413785895030 18296 RECOMMEND 263
1413785895030 18295 RECOMMEND 4677
1413785896596 18296 READING 282 0.997730
1413785897909 18295 READING 1177 0.971029
1413785897913 18296 READING 268 0.997109
1413785898511 18296 READING 257 0.973452
1413785900251 18296 READING 262 0.982445
1413785901796 18295 READING 1177 0.974526
1413785902049 18296 READING 268 0.991404
1413785903705 18296 READING 257 0.994341
1413785905030 18296 FUNCTION lru lambda h: 0.85468 * (h ** 0.0287109)
1413785905030 18295 FUNCTION lru lambda h: 0.0196001 * (h ** 0.530176)
1413785905032 18296 RECOMMEND 254
1413785905032 18295 RECOMMEND 4686
1413785905417 18296 READING 261 0.994888
1413785905509 18295 READING 1180 0.976080
1413785907057 18296 READING 250 0.996235
1413785908698 18296 READING 254 0.997063
1413785910266 18296 READING 244 0.997648
1413785911044 18295 READING 1180 0.954932
1413785911829 18296 READING 248 0.997945
1413785913486 18296 READING 252 0.998045
1413785914865 18295 READING 1285 0.974464
1413785915032 18296 FUNCTION lru lambda h: 0.85605 * (h ** 0.0283212)
1413785915032 18295 FUNCTION lru lambda h: 0.0201779 * (h ** 0.526602)
1413785915033 18296 RECOMMEND 252
1413785915033 18295 RECOMMEND 4688
1413785915073 18296 READING 256 0.998041
1413785915654 18296 READING 245 0.996427
1413785916867 18296 READING 263 0.997509
1413785918438 18296 READING 250 0.998039
1413785918586 18295 READING 1285 0.982225
1413785920065 18296 READING 255 0.998029
1413785921584 18296 READING 245 0.997916
1413785922469 18295 READING 1294 0.986683
1413785923164 18296 READING 251 0.998439
1413785924765 18296 READING 256 0.998604
1413785925033 18296 FUNCTION lru lambda h: 0.856873 * (h ** 0.0280876)
1413785925033 18295 FUNCTION lru lambda h: 0.0177272 * (h ** 0.545861)
1413785925034 18296 RECOMMEND 242
1413785925034 18295 RECOMMEND 4698
1413785926296 18296 READING 246 0.998679
1413785926347 18295 READING 1299 0.988486
1413785927781 18296 READING 236 0.998592
1413785929280 18296 READING 244 0.998693
1413785930389 18295 READING 1301 0.988601
1413785930699 18296 READING 231 0.998602
1413785932142 18296 READING 235 0.998646
1413785932838 18296 READING 238 0.996588
1413785933565 18296 READING 246 0.993219
1413785934032 18295 READING 1192 0.987600
1413785935034 18296 FUNCTION lru lambda h: 0.857061 * (h ** 0.0280337)
1413785935034 18295 FUNCTION lru lambda h: 0.0107304 * (h ** 0.619809)
1413785935037 18296 RECOMMEND 214
1413785935037 18295 RECOMMEND 4726
1413785935041 18296 READING 236 0.994493
1413785936422 18296 READING 226 0.996544
1413785937728 18296 READING 217 0.997112
1413785937939 18295 READING 1292 0.986590
1413785939019 18296 READING 209 0.997376
1413785940320 18296 READING 214 0.997520
1413785941645 18296 READING 218 0.997705
1413785941931 18295 READING 1209 0.985313
1413785942917 18296 READING 210 0.997237
1413785944210 18296 READING 215 0.997090
1413785945037 18296 FUNCTION lru lambda h: 0.836575 * (h ** 0.0327708)
1413785945037 18295 FUNCTION lru lambda h: 0.00735066 * (h ** 0.675272)
1413785945039 18296 RECOMMEND 229
1413785945039 18295 RECOMMEND 4711
1413785945443 18296 READING 207 0.997199
1413785945992 18295 READING 1280 0.984991
1413785946743 18296 READING 212 0.997399
1413785948063 18296 READING 216 0.996873
1413785949392 18296 READING 221 0.997255
1413785950046 18295 READING 1226 0.979392
1413785950134 18296 READING 225 0.996498
1413785950578 18296 READING 225 0.992733
1413785952009 18296 READING 231 0.995564
1413785953370 18296 READING 220 0.996519
1413785954216 18295 READING 1282 0.981149
1413785954778 18296 READING 227 0.997332
1413785955039 18296 FUNCTION lru lambda h: 0.762335 * (h ** 0.0507597)
1413785955039 18295 FUNCTION lru lambda h: 0.00467932 * (h ** 0.741274)
1413785955040 18296 RECOMMEND 317
1413785955040 18295 RECOMMEND 4623
1413785956154 18296 READING 229 0.997450
1413785957615 18296 READING 235 0.997801
1413785958291 18295 READING 1284 0.980094
1413785959058 18296 READING 235 0.997814
1413785960540 18296 READING 241 0.997922
1413785962027 18296 READING 241 0.997882
1413785962503 18295 READING 1286 0.980613
1413785963544 18296 READING 246 0.997966
1413785965040 18296 FUNCTION lru lambda h: 0.890381 * (h ** 0.0210873)
1413785965040 18295 FUNCTION lru lambda h: 0.00355408 * (h ** 0.781264)
1413785965041 18296 RECOMMEND 130
1413785965041 18295 RECOMMEND 4810
1413785965076 18296 READING 246 0.996420
1413785966452 18296 READING 228 0.996929
1413785966593 18295 READING 1288 0.978466
1413785967400 18296 READING 213 0.995151
1413785967771 18296 READING 200 0.991035
1413785968493 18296 READING 190 0.987834
1413785969549 18296 READING 179 0.993106
1413785970576 18296 READING 171 0.995329
1413785970595 18295 READING 1290 0.977103
1413785971527 18296 READING 164 0.996578
1413785972419 18296 READING 157 0.996949
1413785973273 18296 READING 151 0.997039
1413785974082 18296 READING 146 0.996891
1413785974528 18295 READING 1296 0.976439
1413785974882 18296 READING 141 0.996619
1413785975042 18296 FUNCTION lru lambda h: 0.970284 * (h ** 0.00476432)
1413785975042 18295 FUNCTION lru lambda h: 0.0030795 * (h ** 0.8021)
1413785975042 18296 RECOMMEND 29
1413785975042 18295 RECOMMEND 4911
1413785975626 18296 READING 136 0.996709
1413785976259 18296 READING 117 0.996064
1413785976791 18296 READING 104 0.995444
1413785977256 18296 READING 95 0.994336
1413785977656 18296 READING 88 0.993335
1413785978038 18296 READING 83 0.986994
1413785978388 18296 READING 77 0.980468
1413785978707 18296 READING 73 0.983207
1413785978801 18295 READING 1301 0.974987
1413785979019 18296 READING 70 0.987837
1413785979303 18296 READING 67 0.991085
1413785979556 18296 READING 68 0.992155
1413785979804 18296 READING 63 0.992755
1413785980031 18296 READING 64 0.989996
1413785980254 18296 READING 59 0.991750
1413785980461 18296 READING 61 0.992263
1413785980661 18296 READING 56 0.992560
1413785980852 18296 READING 59 0.991472
1413785981039 18296 READING 54 0.992363
1413785981214 18296 READING 56 0.991297
1413785981380 18296 READING 52 0.990497
1413785981549 18296 READING 55 0.990302
1413785981713 18296 READING 51 0.990744
1413785981875 18296 READING 53 0.990872
1413785982032 18296 READING 50 0.990875
1413785982180 18296 READING 52 0.990401
1413785982331 18296 READING 49 0.990732
1413785982474 18296 READING 51 0.989357
1413785982622 18296 READING 48 0.989835
1413785982759 18296 READING 49 0.989366
1413785982908 18296 READING 47 0.989214
1413785982986 18295 READING 1307 0.975982
1413785983042 18296 READING 48 0.989137
1413785983174 18296 READING 46 0.989683
1413785983318 18296 READING 47 0.989868
1413785983443 18296 READING 45 0.990490
1413785983574 18296 READING 46 0.990646
1413785983692 18296 READING 45 0.990040
1413785983814 18296 READING 46 0.989582
1413785983934 18296 READING 45 0.988211
1413785984059 18296 READING 46 0.988626
1413785984181 18296 READING 45 0.989211
1413785984303 18296 READING 46 0.989190
1413785984427 18296 READING 45 0.987900
1413785984553 18296 READING 46 0.988095
1413785984674 18296 READING 45 0.988373
1413785984798 18296 READING 46 0.987691
1413785984830 18296 READING 46 0.978967
1413785984870 18296 READING 46 0.938052
1413785984907 18296 READING 45 0.944453
1413785984949 18296 READING 46 0.948113
1413785984980 18296 READING 46 0.942531
1413785985015 18296 READING 46 0.948283
1413785985043 18296 FUNCTION lru lambda h: 0.960365 * (h ** 0.00670112)
1413785985043 18295 FUNCTION lru lambda h: 0.0031919 * (h ** 0.796938)
1413785985043 18296 RECOMMEND 41
1413785985043 18295 RECOMMEND 4899
1413785985052 18296 READING 46 0.947752
1413785985093 18296 READING 47 0.891361
1413785985144 18296 READING 46 0.903130
1413785985183 18296 READING 47 0.894442
1413785985222 18296 READING 46 0.907631
1413785985267 18296 READING 46 0.922180
1413785985302 18296 READING 46 0.900650
1413785985343 18296 READING 45 0.916919
1413785985389 18296 READING 45 0.928528
1413785985425 18296 READING 47 0.931241
1413785985464 18296 READING 45 0.944615
1413785985500 18296 READING 47 0.947412
1413785985536 18296 READING 45 0.936148
1413785985674 18296 READING 47 0.974340
1413785985795 18296 READING 45 0.983352
1413785985916 18296 READING 47 0.984992
1413785986040 18296 READING 45 0.987302
1413785986163 18296 READING 47 0.986875
1413785986287 18296 READING 45 0.987362
1413785986411 18296 READING 47 0.988091
1413785986532 18296 READING 45 0.988051
1413785986664 18296 READING 47 0.986592
1413785986788 18296 READING 45 0.988255
1413785986909 18296 READING 46 0.988116
1413785987037 18296 READING 45 0.989452
1413785987167 18296 READING 46 0.988384
1413785987167 18295 READING 1313 0.974564
1413785987283 18296 READING 45 0.989806
1413785987405 18296 READING 46 0.987613
1413785987529 18296 READING 45 0.985952
1413785987647 18296 READING 46 0.987906
1413785987772 18296 READING 45 0.988286
1413785987896 18296 READING 46 0.986584
1413785988014 18296 READING 45 0.988425
1413785988129 18296 READING 46 0.988933
1413785988251 18296 READING 45 0.988768
1413785988375 18296 READING 46 0.988068
1413785988496 18296 READING 45 0.988480
1413785988622 18296 READING 46 0.988108
1413785988743 18296 READING 45 0.989013
1413785988865 18296 READING 46 0.989028
1413785988987 18296 READING 45 0.989856
1413785989107 18296 READING 45 0.989709
1413785989227 18296 READING 45 0.988764
1413785989342 18296 READING 45 0.989172
1413785989466 18296 READING 45 0.988743
1413785989591 18296 READING 45 0.987981
1413785989720 18296 READING 45 0.988155
1413785989837 18296 READING 45 0.989212
1413785989956 18296 READING 45 0.988643
1413785990075 18296 READING 45 0.986518
1413785990199 18296 READING 45 0.987813
1413785990322 18296 READING 45 0.984743
1413785990447 18296 READING 45 0.985078
1413785990569 18296 READING 45 0.987786
1413785990691 18296 READING 45 0.988488
1413785990813 18296 READING 45 0.988526
1413785990935 18296 READING 45 0.987727
1413785991059 18296 READING 45 0.988241
1413785991182 18296 READING 45 0.988038
1413785991306 18296 READING 45 0.988844
1413785991423 18295 READING 1315 0.975600
1413785991457 18296 READING 45 0.988087
1413785991589 18296 READING 45 0.989405
1413785991712 18296 READING 45 0.990149
1413785991837 18296 READING 45 0.988496
1413785991967 18296 READING 45 0.989169
1413785992093 18296 READING 45 0.988293
1413785992218 18296 READING 45 0.987751
1413785992350 18296 READING 45 0.988981
1413785992473 18296 READING 45 0.989422
1413785992596 18296 READING 45 0.988513
1413785992721 18296 READING 45 0.988766
1413785992844 18296 READING 45 0.988649
1413785992958 18296 READING 45 0.989229
1413785993081 18296 READING 45 0.989580
1413785993202 18296 READING 45 0.989488
1413785993317 18296 READING 45 0.989245
1413785993436 18296 READING 45 0.989224
1413785993570 18296 READING 45 0.990343
1413785993683 18296 READING 45 0.990149
1413785993798 18296 READING 45 0.989813
1413785993914 18296 READING 45 0.989621
1413785994032 18296 READING 45 0.989980
1413785994146 18296 READING 45 0.989271
1413785994260 18296 READING 45 0.988985
1413785994380 18296 READING 45 0.989852
1413785994498 18296 READING 45 0.989895
1413785994616 18296 READING 45 0.989968
1413785994729 18296 READING 45 0.990189
1413785994844 18296 READING 45 0.990098
1413785994957 18296 READING 45 0.989774
1413785995043 18296 FUNCTION lru lambda h: 0.97208 * (h ** 0.00441081)
1413785995044 18295 FUNCTION lru lambda h: 0.00580259 * (h ** 0.710799)
1413785995044 18296 RECOMMEND 30
1413785995044 18295 RECOMMEND 4910
1413785995068 18296 READING 45 0.989173
1413785995184 18296 READING 45 0.989191
1413785995299 18296 READING 45 0.989390
1413785995413 18296 READING 45 0.989513
1413785995526 18296 READING 45 0.989666
1413785995640 18296 READING 45 0.989783
1413785995751 18296 READING 45 0.989727
1413785995867 18296 READING 45 0.989216
1413785995984 18296 READING 45 0.989902
1413785996097 18296 READING 45 0.989471
1413785996211 18296 READING 45 0.989861
1413785996325 18296 READING 45 0.989139
1413785996439 18296 READING 45 0.989563
1413785996550 18296 READING 45 0.989914
1413785996666 18296 READING 45 0.990174
1413785996783 18296 READING 45 0.990112
1413785996900 18296 READING 45 0.990485
1413785997014 18296 READING 45 0.989972
1413785997128 18296 READING 45 0.990314
1413785997242 18296 READING 45 0.990047
1413785997353 18296 READING 45 0.989055
1413785997468 18296 READING 45 0.989659
1413785997585 18296 READING 45 0.989686
1413785997700 18296 READING 45 0.989775
1413785997813 18296 READING 45 0.989973
1413785997926 18296 READING 45 0.989799
1413785998038 18296 READING 45 0.989307
1413785998153 18296 READING 45 0.989561
1413785998270 18296 READING 45 0.989775
1413785998385 18296 READING 45 0.989678
1413785998499 18296 READING 45 0.989584
1413785998612 18296 READING 45 0.989452
1413785998725 18296 READING 45 0.988741
1413785998839 18296 READING 45 0.988594
1413785998955 18296 READING 45 0.989085
1413785999071 18296 READING 45 0.988902
1413785999185 18296 READING 45 0.988691
1413785999299 18296 READING 45 0.988455
1413785999412 18296 READING 45 0.988974
1413785999527 18296 READING 45 0.989308
1413785999642 18296 READING 45 0.989319
1413785999756 18296 READING 45 0.989532
1413785999871 18296 READING 45 0.989932
1413785999992 18296 READING 45 0.990012
1413786000104 18296 READING 45 0.989211
1413786000220 18296 READING 45 0.989375
1413786000335 18296 READING 45 0.989931
1413786000447 18296 READING 45 0.989609
1413786000561 18296 READING 45 0.989567
1413786000676 18296 READING 45 0.989470
1413786000790 18296 READING 45 0.989637
1413786000903 18296 READING 45 0.989284
1413786001019 18296 READING 45 0.989831
1413786001132 18296 READING 45 0.989586
1413786001244 18296 READING 45 0.989623
1413786001358 18296 READING 45 0.989139
1413786001472 18296 READING 45 0.988913
1413786001585 18296 READING 45 0.989187
1413786001700 18296 READING 45 0.989371
1413786001814 18296 READING 45 0.989381
1413786001945 18296 READING 45 0.989262
1413786001978 18296 READING 45 0.964310
1413786002015 18296 READING 45 0.933837
1413786002053 18296 READING 46 0.904996
1413786002090 18296 READING 46 0.923899
1413786002126 18296 READING 46 0.910290
1413786002160 18296 READING 46 0.921003
1413786002197 18296 READING 47 0.894285
1413786002239 18296 READING 46 0.908659
1413786002362 18296 READING 47 0.993934
1413786002402 18296 READING 41 0.937719
1413786002439 18296 READING 41 0.948815
1413786002479 18296 READING 41 0.957791
1413786002512 18296 READING 41 0.926600
1413786002542 18296 READING 40 0.923359
1413786002584 18296 READING 43 0.926705
1413786002617 18296 READING 41 0.933015
1413786002652 18296 READING 40 0.942711
1413786002690 18296 READING 40 0.932183
1413786002728 18296 READING 42 0.938425
1413786002812 18296 READING 40 0.965036
1413786002928 18296 READING 42 0.979117
1413786003042 18296 READING 40 0.984707
1413786003156 18296 READING 42 0.986660
1413786003271 18296 READING 40 0.988340
1413786003389 18296 READING 42 0.988222
1413786003503 18296 READING 40 0.989167
1413786003624 18296 READING 42 0.989772
1413786003740 18296 READING 40 0.989946
1413786003854 18296 READING 42 0.989880
1413786003970 18296 READING 40 0.990286
1413786004087 18296 READING 41 0.989920
1413786004203 18296 READING 40 0.989427
1413786004319 18296 READING 41 0.989665
1413786004432 18296 READING 40 0.989826
1413786004548 18296 READING 41 0.989744
1413786004695 18295 READING 1321 0.985798
1413786004700 18296 READING 40 0.991921
1413786004816 18296 READING 41 0.991021
1413786004932 18296 READING 40 0.991027
1413786005044 18296 FUNCTION lru lambda h: 0.942196 * (h ** 0.0103901)
1413786005044 18295 FUNCTION lru lambda h: 0.00653911 * (h ** 0.693758)
1413786005046 18296 RECOMMEND 73
1413786005046 18295 RECOMMEND 4867
1413786005048 18296 READING 41 0.990781
1413786005173 18296 READING 42 0.991108
1413786005313 18296 READING 44 0.991322
1413786005467 18296 READING 46 0.992087
1413786005630 18296 READING 48 0.992200
1413786005808 18296 READING 50 0.993155
1413786006001 18296 READING 53 0.993244
1413786006214 18296 READING 55 0.993849
1413786006441 18296 READING 58 0.994389
1413786006690 18296 READING 60 0.994987
1413786006953 18296 READING 62 0.995133
1413786007225 18296 READING 65 0.995337
1413786007530 18296 READING 67 0.995856
1413786007840 18296 READING 70 0.996297
1413786008168 18296 READING 72 0.996582
1413786008515 18296 READING 75 0.996578
1413786008848 18296 READING 73 0.996650
1413786009180 18296 READING 72 0.996403
1413786009519 18296 READING 74 0.996501
1413786009854 18296 READING 73 0.996461
1413786010201 18296 READING 75 0.996476
1413786010541 18296 READING 74 0.996429
1413786010875 18296 READING 72 0.996368
1413786011219 18296 READING 75 0.996517
1413786011551 18296 READING 73 0.996335
1413786011869 18296 READING 72 0.996241
1413786012209 18296 READING 74 0.996441
1413786012535 18296 READING 73 0.996380
1413786012881 18296 READING 75 0.996268
1413786013218 18296 READING 74 0.996442
1413786013542 18296 READING 72 0.996376
1413786013883 18296 READING 75 0.996395
1413786014219 18296 READING 73 0.996547
1413786014542 18296 READING 72 0.996535
1413786014884 18296 READING 74 0.996576
1413786015046 18296 FUNCTION lru lambda h: 0.958479 * (h ** 0.00719691)
1413786015046 18295 FUNCTION lru lambda h: 0.00653911 * (h ** 0.693758)
1413786015046 18296 RECOMMEND 51
1413786015046 18295 RECOMMEND 4889
1413786015213 18296 READING 73 0.996314
1413786015525 18296 READING 71 0.995981
1413786015830 18296 READING 69 0.996019
1413786016122 18296 READING 67 0.996082
1413786016404 18296 READING 65 0.995839
1413786016690 18296 READING 64 0.988033
1413786016957 18296 READING 62 0.991768
1413786017215 18296 READING 61 0.993632
1413786017485 18296 READING 60 0.993717
1413786017581 18295 READING 1322 0.987753
1413786017740 18296 READING 59 0.994699
1413786017982 18296 READING 58 0.994956
1413786018208 18296 READING 57 0.995046
1413786018428 18296 READING 56 0.994948
1413786018640 18296 READING 55 0.991240
1413786018697 18296 READING 54 0.969289
1413786018764 18296 READING 54 0.954485
1413786018817 18296 READING 53 0.957754
1413786018876 18296 READING 54 0.964182
1413786018946 18296 READING 53 0.968059
1413786019005 18296 READING 53 0.934054
1413786019068 18296 READING 52 0.946821
1413786019118 18296 READING 52 0.942502
1413786019179 18296 READING 52 0.934608
1413786019235 18296 READING 51 0.934843
1413786019290 18296 READING 50 0.915264
1413786019426 18296 READING 54 0.957978
1413786019626 18296 READING 53 0.976011
1413786019821 18296 READING 52 0.985406
1413786020010 18296 READING 52 0.989684
1413786020198 18296 READING 53 0.991563
1413786020382 18296 READING 51 0.992863
1413786020585 18296 READING 55 0.993682
1413786020783 18296 READING 53 0.994209
1413786020979 18296 READING 54 0.994586
1413786021172 18296 READING 52 0.994627
1413786021357 18296 READING 53 0.994133
1413786021543 18296 READING 51 0.994081
1413786021743 18296 READING 54 0.993895
1413786021935 18296 READING 52 0.993931
1413786022129 18296 READING 53 0.993951
1413786022320 18296 READING 51 0.994041
1413786022504 18296 READING 52 0.993470
1413786022681 18296 READING 50 0.993562
1413786022878 18296 READING 53 0.993642
1413786023069 18296 READING 52 0.993850
1413786023257 18296 READING 52 0.993683
1413786023442 18296 READING 51 0.993581
1413786023641 18296 READING 54 0.993480
1413786023837 18296 READING 52 0.993928
1413786024027 18296 READING 52 0.993714
1413786024215 18296 READING 51 0.993733
1413786024398 18296 READING 51 0.993701
1413786024583 18296 READING 50 0.993227
1413786024801 18296 READING 53 0.992414
1413786024859 18295 READING 1335 0.986285
1413786025001 18296 READING 52 0.993574
1413786025047 18296 FUNCTION lru lambda h: 0.960278 * (h ** 0.00685495)
1413786025047 18295 FUNCTION lru lambda h: 0.00560998 * (h ** 0.715864)
1413786025047 18296 RECOMMEND 47
1413786025047 18295 RECOMMEND 4893
1413786025188 18296 READING 52 0.993715
1413786025373 18296 READING 51 0.994085
1413786025588 18296 READING 51 0.994072
1413786025764 18296 READING 50 0.992961
1413786025936 18296 READING 50 0.992028
1413786026106 18296 READING 49 0.991384
1413786026277 18296 READING 48 0.990977
1413786026277 18295 READING 1349 0.976018
1413786026439 18296 READING 48 0.992124
1413786026603 18296 READING 47 0.992556
1413786026644 18295 READING 1376 0.970589
1413786026774 18296 READING 47 0.993283
1413786026888 18295 READING 1389 0.963644
1413786026963 18296 READING 49 0.993709
1413786027143 18295 READING 1387 0.953489
1413786027147 18296 READING 48 0.993494
1413786027313 18296 READING 48 0.993523
1413786027400 18295 READING 1390 0.940181
1413786027495 18296 READING 47 0.993764
1413786027664 18296 READING 47 0.993271
1413786027669 18295 READING 1388 0.926214
1413786027835 18296 READING 49 0.993415
1413786027942 18295 READING 1393 0.913958
1413786028022 18296 READING 48 0.993756
1413786028186 18296 READING 48 0.993750
1413786028223 18295 READING 1392 0.947759
1413786028356 18296 READING 47 0.993422
1413786028520 18296 READING 47 0.992844
1413786028695 18296 READING 49 0.993286
1413786028871 18296 READING 48 0.993142
1413786029048 18296 READING 48 0.992791
1413786029218 18296 READING 47 0.991904
1413786029384 18296 READING 47 0.992449
1413786029575 18296 READING 49 0.992800
1413786029746 18296 READING 48 0.992775
1413786029917 18296 READING 48 0.992508
1413786030086 18296 READING 47 0.992630
1413786030247 18296 READING 47 0.992381
1413786030428 18296 READING 49 0.993215
1413786030610 18296 READING 48 0.993287
1413786030782 18296 READING 48 0.992892
1413786030953 18296 READING 47 0.992582
1413786031119 18296 READING 47 0.992701
1413786031297 18296 READING 49 0.993020
1413786031462 18295 READING 1398 0.991755
1413786031490 18296 READING 48 0.993387
1413786031667 18296 READING 48 0.992772
1413786031832 18296 READING 47 0.993320
1413786032008 18296 READING 47 0.991657
1413786032192 18296 READING 49 0.993035
1413786032366 18296 READING 48 0.993119
1413786032538 18296 READING 48 0.993025
1413786032711 18296 READING 47 0.992639
1413786032877 18296 READING 47 0.992387
1413786033057 18296 READING 49 0.992208
1413786033234 18296 READING 48 0.992688
1413786033408 18296 READING 48 0.992535
1413786033584 18296 READING 47 0.992373
1413786033748 18296 READING 47 0.992643
1413786033920 18296 READING 49 0.991778
1413786034098 18296 READING 48 0.991879
1413786034277 18296 READING 48 0.992242
1413786034439 18296 READING 47 0.991970
1413786034613 18296 READING 47 0.992500
1413786034796 18296 READING 49 0.992857
1413786034970 18296 READING 48 0.993103
1413786035047 18296 FUNCTION lru lambda h: 0.964621 * (h ** 0.0060058)
1413786035048 18295 FUNCTION lru lambda h: 0.00374213 * (h ** 0.772716)
1413786035048 18296 RECOMMEND 38
1413786035048 18295 RECOMMEND 4902
1413786035142 18296 READING 48 0.992032
1413786035317 18296 READING 47 0.992234
1413786035481 18296 READING 47 0.992829
1413786035642 18296 READING 46 0.992713
1413786035710 18296 READING 46 0.969063
1413786035759 18296 READING 45 0.934902
1413786035803 18296 READING 45 0.921537
1413786035847 18296 READING 45 0.908198
1413786035892 18296 READING 44 0.906140
1413786035937 18296 READING 45 0.899435
1413786035986 18296 READING 44 0.911595
1413786036042 18296 READING 44 0.851762
1413786036087 18296 READING 43 0.859329
1413786036128 18296 READING 44 0.855038
1413786036179 18296 READING 44 0.882467
1413786036219 18295 READING 1417 0.992534
1413786036219 18296 READING 43 0.883165
1413786036272 18296 READING 43 0.906012
1413786036308 18296 READING 43 0.911313
1413786036417 18296 READING 42 0.990146
1413786036467 18296 READING 46 0.939236
1413786036520 18296 READING 44 0.931714
1413786036661 18296 READING 43 0.971938
1413786036802 18296 READING 43 0.983454
1413786036939 18296 READING 46 0.987593
1413786037075 18296 READING 43 0.988901
1413786037214 18296 READING 45 0.989815
1413786037353 18296 READING 43 0.988980
1413786037487 18296 READING 45 0.987535
1413786037629 18296 READING 43 0.989352
1413786037760 18296 READING 45 0.990062
1413786037894 18296 READING 43 0.990799
1413786038033 18296 READING 45 0.989824
1413786038162 18296 READING 43 0.990385
1413786038290 18296 READING 45 0.989872
1413786038421 18296 READING 43 0.990607
1413786038558 18296 READING 45 0.990438
1413786038692 18296 READING 43 0.991190
1413786038828 18296 READING 44 0.989268
1413786038968 18296 READING 43 0.990338
1413786039114 18296 READING 44 0.991399
1413786039252 18296 READING 43 0.991380
1413786039391 18296 READING 44 0.989341
1413786039522 18296 READING 43 0.989572
1413786039662 18296 READING 44 0.989108
1413786039801 18296 READING 43 0.989964
1413786039936 18296 READING 44 0.989971
1413786040073 18296 READING 43 0.989073
1413786040202 18296 READING 44 0.990167
1413786040329 18296 READING 43 0.990780
1413786040471 18296 READING 44 0.990977
1413786040606 18296 READING 43 0.991508
1413786040754 18296 READING 44 0.991292
1413786040762 18295 READING 1421 0.992594
1413786040886 18296 READING 43 0.991820
1413786041022 18296 READING 44 0.991130
1413786041154 18296 READING 43 0.991804
1413786041329 18296 READING 43 0.853716
1413786041456 18296 READING 43 0.916062
1413786041585 18296 READING 43 0.951601
1413786041720 18296 READING 43 0.969533
1413786041855 18296 READING 43 0.980647
1413786041985 18296 READING 43 0.985831
1413786042115 18296 READING 43 0.988482
1413786042249 18296 READING 43 0.989516
1413786042379 18296 READING 43 0.990108
1413786042515 18296 READING 43 0.990117
1413786042652 18296 READING 43 0.989613
1413786042793 18296 READING 43 0.989927
1413786042932 18296 READING 43 0.990537
1413786043064 18296 READING 43 0.990395
1413786043197 18296 READING 43 0.991246
1413786043330 18296 READING 43 0.990981
1413786043470 18296 READING 43 0.991602
1413786043605 18296 READING 43 0.988779
1413786043742 18296 READING 43 0.989994
1413786043871 18296 READING 43 0.990595
1413786044005 18296 READING 43 0.991182
1413786044139 18296 READING 43 0.991231
1413786044277 18296 READING 43 0.991197
1413786044414 18296 READING 43 0.991256
1413786044550 18296 READING 43 0.990300
1413786044682 18296 READING 43 0.990308
1413786044820 18296 READING 43 0.990315
1413786044959 18296 READING 43 0.990827
1413786045049 18296 FUNCTION lru lambda h: 0.979446 * (h ** 0.00311695)
1413786045049 18295 FUNCTION lru lambda h: 0.00617453 * (h ** 0.701595)
1413786045049 18296 RECOMMEND 22
1413786045049 18295 RECOMMEND 4918
1413786045092 18296 READING 43 0.991202
1413786045233 18296 READING 43 0.991704
1413786045233 18295 READING 1420 0.992286
1413786045362 18296 READING 42 0.991427
1413786045483 18296 READING 42 0.988885
1413786045601 18296 READING 41 0.990272
1413786045715 18296 READING 41 0.990381
1413786045825 18296 READING 40 0.989965
1413786045936 18296 READING 40 0.989088
1413786046036 18296 READING 39 0.989485
1413786046137 18296 READING 39 0.988779
1413786046242 18296 READING 39 0.987467
1413786046342 18296 READING 39 0.988582
1413786046450 18296 READING 39 0.989091
1413786046554 18296 READING 39 0.988484
1413786046658 18296 READING 39 0.986516
1413786046757 18296 READING 39 0.986130
1413786046859 18296 READING 39 0.986623
1413786046969 18296 READING 39 0.987434
1413786047068 18296 READING 39 0.986901
1413786047175 18296 READING 39 0.985397
1413786047277 18296 READING 39 0.987247
1413786047381 18296 READING 39 0.987975
1413786047483 18296 READING 39 0.989116
1413786047587 18296 READING 39 0.989318
1413786047700 18296 READING 39 0.989577
1413786047804 18296 READING 39 0.982954
1413786047910 18296 READING 39 0.986394
1413786048009 18296 READING 39 0.986164
1413786048116 18296 READING 39 0.984975
1413786048217 18296 READING 39 0.986348
1413786048317 18296 READING 39 0.984713
1413786048418 18296 READING 39 0.985305
1413786048520 18296 READING 39 0.986214
1413786048629 18296 READING 39 0.983052
1413786048734 18296 READING 39 0.984550
1413786048836 18296 READING 39 0.985826
1413786048941 18296 READING 39 0.984695
1413786049042 18296 READING 39 0.986450
1413786049146 18296 READING 39 0.987151
1413786049246 18296 READING 39 0.986453
1413786049351 18296 READING 39 0.987697
1413786049449 18296 READING 39 0.988154
1413786049552 18296 READING 39 0.987697
1413786049657 18296 READING 39 0.987727
1413786049753 18296 READING 39 0.986289
1413786049866 18296 READING 39 0.937869
1413786049897 18295 READING 1425 0.991524
1413786049975 18296 READING 39 0.964046
1413786050079 18296 READING 39 0.974873
1413786050186 18296 READING 39 0.981156
1413786050291 18296 READING 39 0.982016
1413786050402 18296 READING 39 0.985625
1413786050495 18296 READING 39 0.986619
1413786050602 18296 READING 39 0.986910
1413786050705 18296 READING 39 0.987436
1413786050809 18296 READING 39 0.986089
1413786050909 18296 READING 39 0.987229
1413786051010 18296 READING 39 0.987470
1413786051126 18296 READING 39 0.988383
1413786051235 18296 READING 39 0.989827
1413786051340 18296 READING 39 0.989040
1413786051439 18296 READING 39 0.989171
1413786051537 18296 READING 39 0.988742
1413786051643 18296 READING 39 0.988992
1413786051741 18296 READING 39 0.989069
1413786051845 18296 READING 39 0.988983
1413786051942 18296 READING 39 0.989171
1413786052045 18296 READING 39 0.988964
1413786052142 18296 READING 39 0.988157
1413786052238 18296 READING 39 0.988416
1413786052348 18296 READING 39 0.985523
1413786052448 18296 READING 39 0.986568
1413786052551 18296 READING 39 0.984650
1413786052654 18296 READING 39 0.985904
1413786052753 18296 READING 39 0.986562
1413786052856 18296 READING 39 0.987024
1413786052957 18296 READING 39 0.987583
1413786053064 18296 READING 39 0.987684
1413786053172 18296 READING 39 0.984945
1413786054769 18295 READING 1407 0.991474
1413786055049 18296 FUNCTION lru lambda h: 0.978929 * (h ** 0.00321732)
1413786055050 18295 FUNCTION lru lambda h: 0.00329121 * (h ** 0.790456)
1413786055050 18296 RECOMMEND 20
1413786055050 18295 RECOMMEND 4920
1413786055277 18296 DEATH 731
1413786058950 18295 READING 1273 0.990269
1413786063226 18295 READING 1389 0.989010
1413786065050 18295 FUNCTION lru lambda h: 0.00230617 * (h ** 0.840854)
1413786065050 18295 RECOMMEND 4940
1413786067842 18295 READING 1295 0.988302
1413786072148 18295 READING 1384 0.987234
1413786075051 18295 FUNCTION lru lambda h: 0.00193112 * (h ** 0.865946)
1413786075051 18295 RECOMMEND 4940
1413786076763 18295 READING 1390 0.986427
1413786081555 18295 READING 1392 0.985770
1413786085051 18295 FUNCTION lru lambda h: 0.00189239 * (h ** 0.8689)
1413786085051 18295 RECOMMEND 4940
1413786086038 18295 READING 1393 0.984542
1413786090474 18295 READING 1395 0.983096
1413786095051 18295 READING 1401 0.982250
1413786095051 18295 FUNCTION lru lambda h: 0.00231144 * (h ** 0.840615)
1413786095051 18295 RECOMMEND 4940
1413786099722 18295 READING 1405 0.981347
1413786104278 18295 READING 1413 0.980592
1413786105052 18295 FUNCTION lru lambda h: 0.00352824 * (h ** 0.780902)
1413786105052 18295 RECOMMEND 4940
1413786108966 18295 READING 1421 0.980563
1413786113496 18295 READING 1427 0.980045
1413786115052 18295 FUNCTION lru lambda h: 0.0105536 * (h ** 0.626654)
1413786115052 18295 RECOMMEND 4940
1413786118062 18295 READING 1433 0.979432
1413786122868 18295 READING 1436 0.979619
1413786125052 18295 FUNCTION lru lambda h: 0.0115008 * (h ** 0.614493)
1413786125052 18295 RECOMMEND 4940
1413786127446 18295 READING 1443 0.979311
1413786132228 18295 READING 1444 0.979240
1413786135052 18295 FUNCTION lru lambda h: 0.0117042 * (h ** 0.611917)
1413786135052 18295 RECOMMEND 4940
1413786137035 18295 READING 1450 0.979349
1413786141794 18295 READING 1450 0.979174
1413786145052 18295 FUNCTION lru lambda h: 0.0211733 * (h ** 0.528877)
1413786145052 18295 RECOMMEND 4940
1413786146809 18295 READING 1454 0.979513
1413786151660 18295 READING 1455 0.979284
1413786155053 18295 FUNCTION lru lambda h: 0.0203916 * (h ** 0.53402)
1413786155053 18295 RECOMMEND 4940
1413786157496 18295 READING 1457 0.975803
1413786162354 18295 READING 1592 0.987623
1413786165053 18295 FUNCTION lru lambda h: 0.0197645 * (h ** 0.538198)
1413786165053 18295 RECOMMEND 4940
1413786166922 18295 READING 1585 0.990771
1413786171657 18295 READING 1597 0.991837
1413786175053 18295 FUNCTION lru lambda h: 0.0189832 * (h ** 0.543576)
1413786175053 18295 RECOMMEND 4940
1413786176774 18295 READING 1608 0.991935
1413786181766 18295 READING 1609 0.991326
1413786185053 18295 FUNCTION lru lambda h: 0.017895 * (h ** 0.551484)
1413786185053 18295 RECOMMEND 4940
1413786186980 18295 READING 1599 0.990558
1413786191056 18295 READING 1456 0.988247
1413786195053 18295 FUNCTION lru lambda h: 0.0140991 * (h ** 0.584489)
1413786195053 18295 RECOMMEND 4940
1413786205054 18295 FUNCTION lru lambda h: 0.0140991 * (h ** 0.584489)
1413786205054 18295 RECOMMEND 4940
1413786213390 18295 READING 1583 0.995065
1413786215054 18295 FUNCTION lru lambda h: 0.0114576 * (h ** 0.613204)
1413786215054 18295 RECOMMEND 4940
1413786220150 18295 READING 1497 0.992903
1413786220838 18295 READING 1576 0.984985
1413786221226 18295 READING 1591 0.969412
1413786221589 18295 READING 1624 0.949586
1413786221959 18295 READING 1646 0.916002
1413786222339 18295 READING 1681 0.884175
1413786222638 18295 DEATH 229
