1411994335081 0 TOTAL_MEM 6095
1411994355116 6891 CREATION
1411994355116 6891 READING 9 0.982200
1411994355116 6891 MINHEAP 2
1411994355116 6891 MINHEAP 8
1411994355137 6890 CREATION
1411994355137 6890 READING 9 0.990982
1411994355137 6890 MINHEAP 2
1411994355137 6890 MINHEAP 1211
1411994355183 6890 READING 9 0.977016
1411994355192 6891 READING 9 0.968327
1411994355209 6890 READING 9 0.962321
1411994355231 6891 READING 11 0.949879
1411994355250 6891 READING 11 0.953504
1411994355253 6890 READING 9 0.968235
1411994355351 6890 READING 11 0.982552
1411994355415 6891 READING 15 0.892036
1411994355473 6890 READING 11 0.978660
1411994355527 6891 READING 20 0.983411
1411994355579 6890 READING 17 0.911716
1411994355593 6891 READING 24 0.976651
1411994355631 6891 READING 28 0.955040
1411994355685 6891 READING 32 0.979496
1411994355732 6890 READING 17 0.637294
1411994355746 6891 READING 32 0.978490
1411994355793 6891 READING 37 0.961840
1411994355846 6891 READING 37 0.965463
1411994355860 6890 READING 30 0.924700
1411994355929 6891 READING 42 0.977486
1411994355989 6890 READING 31 0.796309
1411994356031 6891 READING 43 0.982573
1411994356136 6891 READING 51 0.985440
1411994356208 6891 READING 51 0.975705
1411994356241 6890 READING 34 0.495733
1411994356291 6891 READING 60 0.978797
1411994356309 6890 READING 46 0.782856
1411994356367 6891 READING 60 0.976208
1411994356459 6891 READING 67 0.987346
1411994356560 6890 READING 49 0.369642
1411994356596 6891 READING 67 0.959093
1411994356639 6890 READING 63 0.696388
1411994356713 6890 READING 67 0.771058
1411994356721 6891 READING 75 0.989942
1411994356822 6891 READING 75 0.989676
1411994356968 6891 READING 84 0.994749
1411994356985 6890 READING 69 0.229006
1411994357111 6891 READING 84 0.992784
1411994357151 6890 READING 89 0.412297
1411994357217 6890 READING 104 0.898539
1411994357281 6891 READING 91 0.994401
1411994357309 6890 READING 110 0.813022
1411994357430 6891 READING 92 0.989212
1411994357597 6890 READING 111 0.286242
1411994357622 6891 READING 98 0.994547
1411994357705 6890 READING 146 0.865597
1411994357748 6891 READING 98 0.993207
1411994357805 6890 READING 146 0.724328
1411994357880 6891 READING 103 0.993831
1411994357917 6890 READING 150 0.768254
1411994358015 6890 READING 153 0.723862
1411994358037 6891 READING 103 0.993148
1411994358223 6891 READING 108 0.992397
1411994358407 6891 READING 108 0.990450
1411994358624 6890 READING 159 0.146727
1411994358645 6891 READING 114 0.996536
1411994358756 6890 READING 202 0.665358
1411994358811 6891 READING 114 0.994313
1411994358879 6890 READING 209 0.747992
1411994358976 6891 READING 117 0.992915
1411994359001 6890 READING 213 0.785741
1411994359146 6891 READING 118 0.994151
1411994359336 6891 READING 122 0.995065
1411994359520 6891 READING 122 0.994645
1411994359543 6890 READING 216 0.201977
1411994359655 6891 READING 126 0.989777
1411994359678 6890 READING 273 0.716451
1411994359805 6891 READING 126 0.993669
1411994359863 6890 READING 278 0.698819
1411994359987 6891 READING 131 0.994581
1411994360057 6890 READING 281 0.675029
1411994360175 6891 READING 131 0.994694
1411994360235 6890 READING 293 0.725881
1411994360362 6891 READING 135 0.994924
1411994360436 6890 READING 296 0.731542
1411994360518 6891 READING 135 0.995093
1411994360825 6891 READING 139 0.996956
1411994361090 6890 READING 301 0.184919
1411994361181 6891 READING 139 0.996646
1411994361285 6890 READING 368 0.586914
1411994361410 6891 READING 142 0.996421
1411994361477 6890 READING 375 0.740980
1411994361627 6891 READING 142 0.989641
1411994361649 6890 READING 382 0.664144
1411994361818 6890 READING 386 0.604248
1411994361843 6891 READING 146 0.996222
1411994361993 6890 READING 399 0.550866
1411994362093 6891 READING 146 0.994555
1411994362147 6890 READING 405 0.566236
1411994362329 6890 READING 422 0.496618
1411994362381 6891 READING 150 0.997464
1411994362471 6890 READING 433 0.498082
1411994362655 6891 READING 150 0.996727
1411994362943 6891 READING 153 0.989459
1411994363316 6891 READING 153 0.995299
1411994363458 6890 READING 446 0.080174
1411994363629 6891 READING 158 0.994265
1411994363690 6890 READING 523 0.345697
1411994363865 6890 READING 429 0.512309
1411994363868 6891 READING 158 0.996295
1411994364063 6891 READING 162 0.991521
1411994364332 6891 READING 162 0.995107
1411994364639 6891 READING 166 0.995886
1411994364777 6890 READING 509 0.109598
1411994364928 6891 READING 166 0.991616
1411994365009 6890 READING 585 0.386199
1411994365081 6891 FUNCTION lru lambda h: 0.910415 * (h ** 0.0181201)
1411994365082 6890 FUNCTION lru lambda h: 1.38516 * (h ** 0.001)
1411994365082 6891 RECOMMEND 3047
1411994365082 6890 RECOMMEND 3047
1411994365191 6890 READING 576 0.608139
1411994365218 6891 READING 170 0.997158
1411994365389 6890 READING 581 0.565607
1411994365461 6891 READING 170 0.995478
1411994365606 6890 READING 570 0.557806
1411994365772 6891 READING 174 0.996824
1411994365845 6890 READING 576 0.512546
1411994366051 6890 READING 581 0.573644
1411994366053 6891 READING 175 0.996311
1411994366294 6891 READING 178 0.994075
1411994366305 6890 READING 584 0.538922
1411994366520 6891 READING 178 0.993524
1411994366527 6890 READING 590 0.565144
1411994366963 6891 READING 182 0.994939
1411994367244 6891 READING 182 0.993770
1411994367622 6891 READING 188 0.995480
1411994367715 6890 READING 599 0.101650
1411994367889 6891 READING 188 0.990781
1411994368015 6890 READING 673 0.407808
1411994368254 6890 READING 683 0.519080
1411994368266 6891 READING 192 0.997330
1411994368594 6891 READING 192 0.995725
1411994368910 6891 READING 196 0.995101
1411994369121 6890 READING 690 0.836404
1411994369304 6891 READING 197 0.996808
1411994369643 6891 READING 201 0.995772
1411994369817 6890 READING 694 0.820203
1411994369970 6891 READING 201 0.996144
1411994370293 6891 READING 206 0.994697
1411994370513 6890 READING 692 0.821313
1411994370594 6891 READING 206 0.993798
1411994370801 6890 READING 709 0.515363
1411994370911 6891 READING 210 0.993693
1411994371089 6890 READING 718 0.530647
1411994371257 6890 READING 732 0.262279
1411994371293 6891 READING 210 0.996432
1411994371643 6891 READING 215 0.994101
1411994372200 6891 READING 215 0.995808
1411994372681 6891 READING 220 0.998170
1411994372765 6890 READING 741 0.028511
1411994372973 6890 READING 824 0.193117
1411994373017 6891 READING 220 0.996265
1411994373517 6891 READING 225 0.998223
1411994374081 6890 READING 808 0.039109
1411994374083 6891 READING 225 0.997951
1411994374487 6891 READING 228 0.994488
1411994374503 6890 READING 908 0.697333
1411994374701 6890 READING 909 0.704375
1411994374822 6890 READING 909 0.514806
1411994374870 6891 READING 228 0.997264
1411994374948 6890 READING 905 0.543453
1411994375079 6890 READING 909 0.529922
1411994375082 6891 FUNCTION lru lambda h: 0.917292 * (h ** 0.0160543)
1411994375082 6890 FUNCTION lru lambda h: 1.48411 * (h ** 0.001)
1411994375082 6891 RECOMMEND 3047
1411994375082 6890 RECOMMEND 3047
1411994375187 6891 READING 232 0.997509
1411994375448 6890 READING 901 0.839364
1411994375449 6891 READING 221 0.991809
1411994375686 6890 READING 906 0.773014
1411994375745 6891 READING 226 0.997329
1411994376096 6891 READING 230 0.995635
1411994376590 6891 READING 232 0.997992
1411994376996 6891 READING 220 0.996384
1411994377213 6890 READING 903 0.101874
1411994377348 6891 READING 210 0.997822
1411994377637 6890 READING 1004 0.733001
1411994377647 6891 READING 201 0.998009
1411994377801 6890 READING 1009 0.930349
1411994377919 6891 READING 192 0.968410
1411994378178 6890 READING 1010 0.929163
1411994378179 6891 READING 187 0.994474
1411994378413 6890 READING 996 0.818804
1411994378414 6891 READING 192 0.996189
1411994378618 6890 READING 841 0.771871
1411994378674 6891 READING 199 0.995862
1411994378822 6890 READING 980 0.816423
1411994378963 6891 READING 205 0.996731
1411994379026 6890 READING 846 0.817871
1411994379241 6890 READING 968 0.821771
1411994379315 6891 READING 212 0.997797
1411994379456 6890 READING 852 0.820779
1411994379595 6891 READING 218 0.996346
1411994379698 6890 READING 959 0.772350
1411994379929 6890 READING 858 0.811000
1411994379966 6891 READING 224 0.997350
1411994380172 6890 READING 951 0.813296
1411994380345 6891 READING 228 0.997259
1411994380407 6890 READING 958 0.837660
1411994380692 6891 READING 229 0.996630
1411994381018 6891 READING 235 0.996079
1411994381275 6891 READING 235 0.995117
1411994381339 6890 READING 945 0.968774
1411994381571 6891 READING 242 0.996219
1411994381905 6891 READING 242 0.996454
1411994382285 6891 READING 250 0.997194
1411994382465 6890 READING 952 0.957425
1411994382681 6890 READING 954 0.728132
1411994382749 6891 READING 250 0.997188
1411994382897 6890 READING 956 0.725620
1411994383109 6891 READING 257 0.996697
1411994383119 6890 READING 963 0.751037
1411994383347 6890 READING 963 0.727924
1411994383577 6891 READING 257 0.997028
1411994383593 6890 READING 968 0.724021
1411994383841 6890 READING 969 0.725173
1411994384036 6891 READING 265 0.997795
1411994384097 6890 READING 974 0.755351
1411994384381 6890 READING 976 0.899137
1411994384510 6891 READING 265 0.997472
1411994384792 6890 READING 977 0.801554
1411994384937 6891 READING 272 0.998185
1411994385082 6891 FUNCTION lru lambda h: 0.921394 * (h ** 0.0148781)
1411994385082 6890 FUNCTION lru lambda h: 0.723261 * (h ** 0.001)
1411994385082 6891 RECOMMEND 3047
1411994385082 6890 RECOMMEND 3047
1411994385165 6890 READING 981 0.868479
1411994385273 6891 READING 272 0.996683
1411994385448 6890 READING 980 0.664264
1411994385675 6891 READING 278 0.995174
1411994385688 6890 READING 984 0.597322
1411994385919 6890 READING 1001 0.590754
1411994386136 6891 READING 278 0.995858
1411994386149 6890 READING 1014 0.594292
1411994386385 6890 READING 1039 0.635859
1411994386581 6891 READING 286 0.995862
1411994386608 6890 READING 1040 0.671495
1411994386864 6890 READING 1046 0.630594
1411994387087 6891 READING 286 0.996536
1411994387123 6890 READING 1049 0.624585
1411994387389 6890 READING 1064 0.670664
1411994387535 6891 READING 295 0.998238
1411994387686 6890 READING 1065 0.637408
1411994388020 6891 READING 295 0.996699
1411994388543 6891 READING 303 0.998005
1411994389072 6891 READING 303 0.997651
1411994389563 6890 READING 1082 0.950063
1411994389609 6891 READING 310 0.997782
1411994390118 6891 READING 311 0.997520
1411994390662 6891 READING 318 0.997308
1411994391146 6891 READING 318 0.997313
1411994391512 6891 READING 326 0.996340
1411994391621 6890 READING 1084 0.946957
1411994391998 6891 READING 326 0.996855
1411994392477 6891 READING 335 0.997067
1411994393053 6891 READING 335 0.997974
1411994393624 6890 READING 1096 0.922349
1411994393629 6891 READING 343 0.998053
1411994394216 6891 READING 343 0.998102
1411994394787 6891 READING 350 0.997843
1411994395082 6891 FUNCTION lru lambda h: 0.925653 * (h ** 0.0137592)
1411994395082 6890 FUNCTION lru lambda h: 0.625092 * (h ** 0.001)
1411994395082 6891 RECOMMEND 3047
1411994395082 6890 RECOMMEND 3047
1411994395212 6891 READING 351 0.996926
1411994395598 6890 READING 1100 0.916238
1411994395680 6891 READING 358 0.997713
1411994396250 6891 READING 358 0.998078
1411994396820 6891 READING 365 0.997799
1411994397304 6891 READING 366 0.998283
1411994397620 6890 READING 1101 0.945367
1411994397905 6891 READING 373 0.997799
1411994398434 6891 READING 373 0.996386
1411994399054 6891 READING 382 0.998408
1411994399679 6890 READING 1106 0.941892
1411994399685 6891 READING 382 0.997228
1411994400320 6891 READING 390 0.997938
1411994400881 6891 READING 390 0.997357
1411994401371 6891 READING 399 0.997248
1411994401829 6890 READING 1099 0.937609
1411994401951 6891 READING 399 0.997391
1411994402658 6891 READING 408 0.997332
1411994403323 6891 READING 408 0.997470
1411994403998 6890 READING 1106 0.931419
1411994403998 6891 READING 418 0.995749
1411994404595 6891 READING 418 0.996904
1411994405083 6891 FUNCTION lru lambda h: 0.929773 * (h ** 0.0127211)
1411994405083 6890 FUNCTION lru lambda h: 0.347396 * (h ** 0.0748953)
1411994405083 6891 RECOMMEND 3047
1411994405083 6890 RECOMMEND 3047
1411994405153 6891 READING 430 0.997015
1411994405810 6891 READING 430 0.997150
1411994406285 6890 READING 1106 0.929985
1411994406468 6891 READING 441 0.997871
1411994407073 6891 READING 441 0.997137
1411994407688 6891 READING 452 0.997658
1411994408408 6891 READING 453 0.996167
1411994408477 6890 READING 1109 0.956612
1411994409155 6891 READING 465 0.997665
1411994409889 6891 READING 465 0.997467
1411994410470 6891 READING 476 0.996987
1411994410790 6890 READING 1117 0.938195
1411994411116 6891 READING 477 0.996607
1411994411963 6891 READING 490 0.998060
1411994412783 6891 READING 490 0.997779
1411994413118 6890 READING 1118 0.923984
1411994413580 6891 READING 501 0.997785
1411994414206 6891 READING 502 0.997187
1411994414941 6891 READING 514 0.998032
1411994415083 6891 FUNCTION lru lambda h: 0.934791 * (h ** 0.0115041)
1411994415083 6890 FUNCTION lru lambda h: 0.227331 * (h ** 0.142441)
1411994415083 6891 RECOMMEND 3047
1411994415083 6890 RECOMMEND 3047
1411994415755 6891 READING 514 0.997604
1411994416838 6891 READING 526 0.998787
1411994417748 6890 READING 1125 0.479867
1411994417812 6891 READING 526 0.998153
1411994418629 6891 READING 535 0.997828
1411994419522 6891 READING 536 0.998037
1411994420126 6890 READING 1215 0.915896
1411994420268 6891 READING 547 0.997475
1411994420967 6891 READING 547 0.997323
1411994421911 6891 READING 558 0.997922
1411994422532 6890 READING 1226 0.955678
1411994422848 6891 READING 558 0.997966
1411994423729 6891 READING 570 0.998002
1411994424431 6891 READING 570 0.997434
1411994424904 6890 READING 1227 0.958481
1411994425083 6891 FUNCTION lru lambda h: 0.959069 * (h ** 0.00677118)
1411994425083 6890 FUNCTION lru lambda h: 0.175495 * (h ** 0.183459)
1411994425083 6891 RECOMMEND 3047
1411994425083 6890 RECOMMEND 3047
1411994425333 6891 READING 582 0.998112
1411994426204 6891 READING 582 0.997932
1411994426988 6891 READING 593 0.997737
1411994427390 6890 READING 1228 0.960554
1411994427909 6891 READING 594 0.998040
1411994428922 6891 READING 606 0.998200
1411994429705 6891 READING 606 0.997453
1411994429840 6890 READING 1232 0.964153
1411994430615 6891 READING 618 0.997779
1411994431622 6891 READING 618 0.998156
1411994432376 6890 READING 1225 0.959551
1411994432683 6891 READING 630 0.998249
1411994433503 6891 READING 631 0.997928
1411994434445 6891 READING 643 0.998482
1411994435000 6890 READING 1230 0.944528
1411994435083 6891 FUNCTION lru lambda h: 0.981446 * (h ** 0.00268087)
1411994435083 6890 FUNCTION lru lambda h: 0.0954698 * (h ** 0.277422)
1411994435083 6891 RECOMMEND 3047
1411994435083 6890 RECOMMEND 3047
1411994435365 6891 READING 643 0.998281
1411994436226 6891 READING 655 0.998285
1411994437243 6891 READING 655 0.998609
1411994437645 6890 READING 1236 0.948051
1411994438324 6891 READING 666 0.998324
1411994439156 6891 READING 667 0.997963
1411994440237 6891 READING 678 0.997479
1411994440265 6890 READING 1236 0.948868
1411994441371 6891 READING 678 0.998398
1411994442353 6891 READING 690 0.998254
1411994442904 6890 READING 1243 0.942342
1411994443328 6891 READING 691 0.998197
1411994444358 6891 READING 703 0.998371
1411994445084 6891 FUNCTION lru lambda h: 0.98296 * (h ** 0.00241046)
1411994445084 6890 FUNCTION lru lambda h: 0.0510908 * (h ** 0.371362)
1411994445084 6891 RECOMMEND 3047
1411994445084 6890 RECOMMEND 3047
1411994445271 6891 READING 703 0.998239
1411994445675 6890 READING 1247 0.945347
1411994446419 6891 READING 715 0.998709
1411994447598 6891 READING 715 0.998470
1411994448395 6890 READING 1254 0.944804
1411994448529 6891 READING 727 0.998328
1411994449663 6891 READING 727 0.998347
1411994450890 6891 READING 739 0.998460
1411994451153 6890 READING 1261 0.951198
1411994451901 6891 READING 739 0.998238
1411994453072 6891 READING 751 0.998666
1411994453851 6890 READING 1269 0.951793
1411994454092 6891 READING 751 0.998369
1411994455084 6891 FUNCTION lru lambda h: 0.984027 * (h ** 0.0022276)
1411994455084 6890 FUNCTION lru lambda h: 0.0251266 * (h ** 0.477854)
1411994455084 6891 RECOMMEND 3047
1411994455084 6890 RECOMMEND 3047
1411994455209 6891 READING 763 0.998337
1411994456429 6891 READING 763 0.998593
1411994456594 6890 READING 1277 0.942032
1411994457452 6891 READING 775 0.998463
1411994458723 6891 READING 775 0.998668
1411994459444 6890 READING 1286 0.938795
1411994460051 6891 READING 787 0.998756
1411994461098 6891 READING 787 0.998377
1411994462321 6890 READING 1294 0.930361
1411994462345 6891 READING 798 0.998882
1411994463422 6891 READING 798 0.998288
1411994464687 6891 READING 810 0.998847
1411994465084 6891 FUNCTION lru lambda h: 0.98406 * (h ** 0.00222)
1411994465084 6890 FUNCTION lru lambda h: 0.0135456 * (h ** 0.569373)
1411994465084 6891 RECOMMEND 3047
1411994465084 6890 RECOMMEND 3047
1411994465253 6890 READING 1305 0.937394
1411994466052 6891 READING 810 0.998741
1411994467103 6891 READING 821 0.998316
1411994468173 6890 READING 1311 0.938523
1411994468441 6891 READING 821 0.998589
1411994469830 6891 READING 833 0.998710
1411994470938 6891 READING 833 0.998413
1411994472641 6891 READING 845 0.998620
1411994473705 6890 READING 1323 0.508025
1411994474107 6891 READING 845 0.998708
1411994475084 6891 FUNCTION lru lambda h: 0.984352 * (h ** 0.00216928)
1411994475084 6890 FUNCTION lru lambda h: 0.00432599 * (h ** 0.7351)
1411994475084 6891 RECOMMEND 3047
1411994475084 6890 RECOMMEND 3047
1411994475507 6891 READING 857 0.998916
1411994476668 6890 READING 1424 0.932901
1411994476717 6891 READING 858 0.998463
1411994478051 6891 READING 869 0.998854
1411994479499 6891 READING 869 0.998677
1411994479701 6890 READING 1437 0.962339
1411994480767 6891 READING 881 0.998520
1411994482073 6891 READING 881 0.998791
1411994482829 6890 READING 1437 0.952190
1411994483247 6891 READING 893 0.998880
1411994484705 6891 READING 893 0.998997
1411994485085 6891 FUNCTION lru lambda h: 0.984615 * (h ** 0.002124)
1411994485085 6890 FUNCTION lru lambda h: 0.0030851 * (h ** 0.784369)
1411994485085 6891 RECOMMEND 3047
1411994485085 6890 RECOMMEND 3047
1411994485959 6891 READING 904 0.998427
1411994485989 6890 READING 1439 0.961937
1411994487376 6891 READING 904 0.998890
1411994488948 6891 READING 916 0.998706
1411994489213 6890 READING 1443 0.958326
1411994490187 6891 READING 916 0.998673
1411994491531 6891 READING 928 0.998883
1411994492849 6891 READING 928 0.998691
1411994494326 6891 READING 940 0.998920
1411994495085 6891 FUNCTION lru lambda h: 0.986064 * (h ** 0.00189008)
1411994495085 6890 FUNCTION lru lambda h: 0.00136855 * (h ** 0.901812)
1411994495085 6891 RECOMMEND 3047
1411994495085 6890 RECOMMEND 3047
1411994495538 6891 READING 940 0.998612
1411994497152 6891 READING 952 0.999128
1411994498567 6891 READING 952 0.998768
1411994499989 6891 READING 963 0.999055
1411994501250 6891 READING 963 0.998755
1411994502768 6891 READING 974 0.998992
1411994504145 6891 READING 974 0.998777
1411994505085 6891 FUNCTION lru lambda h: 0.986512 * (h ** 0.00181879)
1411994505086 6890 FUNCTION lru lambda h: 0.00136855 * (h ** 0.901812)
1411994505086 6891 RECOMMEND 3047
1411994505086 6890 RECOMMEND 3047
1411994505648 6891 READING 986 0.998923
1411994507300 6891 READING 986 0.998927
1411994508655 6891 READING 997 0.998826
1411994510031 6891 READING 997 0.998762
1411994511524 6891 READING 1009 0.998867
1411994513063 6891 READING 1009 0.999060
1411994514585 6891 READING 1020 0.998880
1411994515086 6891 FUNCTION lru lambda h: 0.987035 * (h ** 0.001736)
1411994515086 6890 FUNCTION lru lambda h: 0.00136855 * (h ** 0.901812)
1411994515086 6891 RECOMMEND 3047
1411994515086 6890 RECOMMEND 3047
1411994516355 6891 READING 1021 0.999064
1411994517785 6891 READING 1032 0.999069
1411994519304 6891 READING 1032 0.998662
1411994519357 6890 READING 1438 0.994138
1411994520851 6891 READING 1043 0.999040
1411994522402 6891 READING 1043 0.998938
1411994524009 6891 READING 1054 0.999112
1411994525086 6891 FUNCTION lru lambda h: 0.986406 * (h ** 0.00183371)
1411994525086 6890 FUNCTION lru lambda h: 0.001 * (h ** 0.970511)
1411994525086 6891 RECOMMEND 3047
1411994525086 6890 RECOMMEND 3047
1411994525729 6891 READING 1054 0.999080
1411994526516 6890 READING 1443 0.975540
1411994527204 6891 READING 1065 0.998907
1411994528375 6890 READING 1440 0.331056
1411994528667 6890 READING 1539 0.992523
1411994528973 6890 READING 1590 0.982917
1411994528992 6891 READING 1066 0.998845
1411994529273 6890 READING 1599 0.992819
1411994529584 6890 READING 1616 0.993042
1411994530580 6890 READING 1617 0.986437
1411994530687 6891 READING 1077 0.998908
1411994532233 6891 READING 1077 0.999006
1411994533733 6890 READING 1614 0.983655
1411994533964 6891 READING 1089 0.999076
1411994535086 6891 FUNCTION lru lambda h: 0.988803 * (h ** 0.00145963)
1411994535086 6890 FUNCTION lru lambda h: 0.001 * (h ** 0.999)
1411994535086 6891 RECOMMEND 3047
1411994535086 6890 RECOMMEND 3047
1411994535650 6891 READING 1089 0.999024
1411994536887 6890 READING 1368 0.981387
1411994537281 6891 READING 1100 0.998967
1411994538701 6891 READING 1100 0.998827
1411994540105 6890 READING 1597 0.980136
1411994540528 6891 READING 1112 0.999131
1411994542106 6891 READING 1112 0.998569
1411994543395 6890 READING 1398 0.972447
1411994544011 6891 READING 1123 0.999233
1411994545086 6891 FUNCTION lru lambda h: 0.988302 * (h ** 0.00153683)
1411994545087 6890 FUNCTION lru lambda h: 0.001 * (h ** 0.999)
1411994545087 6891 RECOMMEND 3047
1411994545087 6890 RECOMMEND 3047
1411994545603 6891 READING 1123 0.998918
1411994546795 6890 READING 1575 0.967556
1411994547202 6891 READING 1135 0.999124
1411994548898 6891 READING 1135 0.998829
1411994550154 6890 READING 1429 0.963461
1411994550534 6891 READING 1147 0.999008
1411994552343 6891 READING 1147 0.999099
1411994553631 6890 READING 1562 0.964221
1411994554063 6891 READING 1159 0.999202
1411994555087 6891 FUNCTION lru lambda h: 0.988628 * (h ** 0.00148674)
1411994555087 6890 FUNCTION lru lambda h: 0.001 * (h ** 0.999)
1411994555087 6891 RECOMMEND 3047
1411994555087 6890 RECOMMEND 3047
1411994555893 6891 READING 1160 0.999032
1411994557053 6890 READING 1573 0.960293
1411994557554 6891 READING 1171 0.999031
1411994559370 6891 READING 1171 0.999143
1411994560626 6890 READING 1574 0.959379
1411994561126 6891 READING 1182 0.999170
1411994563048 6891 READING 1182 0.999089
1411994564193 6890 READING 1576 0.959505
1411994564818 6891 READING 1194 0.999114
1411994565087 6891 FUNCTION lru lambda h: 0.988357 * (h ** 0.00152794)
1411994565087 6890 FUNCTION lru lambda h: 0.001 * (h ** 0.999)
1411994565087 6891 RECOMMEND 3047
1411994565087 6890 RECOMMEND 3047
1411994566404 6891 READING 1194 0.998982
1411994567858 6890 READING 1585 0.960568
1411994568440 6891 READING 1205 0.999158
1411994570171 6891 READING 1205 0.999099
1411994571521 6890 READING 1590 0.952482
1411994572275 6891 READING 1217 0.999242
1411994574026 6891 READING 1217 0.998832
1411994575087 6891 FUNCTION lru lambda h: 0.988645 * (h ** 0.00148401)
1411994575087 6890 FUNCTION lru lambda h: 0.001 * (h ** 0.999)
1411994575087 6891 RECOMMEND 3047
1411994575087 6890 RECOMMEND 3047
1411994575263 6890 READING 1601 0.953451
1411994575672 6891 READING 1228 0.999102
1411994577643 6891 READING 1228 0.999166
1411994578974 6890 READING 1610 0.949754
1411994579442 6891 READING 1240 0.999105
1411994581442 6891 READING 1240 0.999121
1411994582682 6890 READING 1624 0.944483
1411994583349 6891 READING 1252 0.999174
1411994585047 6891 READING 1252 0.998996
1411994585087 6891 FUNCTION lru lambda h: 0.988546 * (h ** 0.00149852)
1411994585087 6890 FUNCTION lru lambda h: 0.001 * (h ** 0.999)
1411994585087 6891 RECOMMEND 3047
1411994585087 6890 RECOMMEND 3047
1411994586473 6890 READING 1636 0.941799
1411994587079 6891 READING 1263 0.999101
1411994588891 6891 READING 1263 0.999174
1411994590291 6890 READING 1656 0.946656
1411994590955 6891 READING 1275 0.999246
1411994592744 6891 READING 1213 0.991742
1411994594120 6890 READING 1666 0.949341
1411994594371 6891 READING 1153 0.999087
1411994595088 6891 FUNCTION lru lambda h: 0.989756 * (h ** 0.00130047)
1411994595088 6890 FUNCTION lru lambda h: 0.001 * (h ** 0.999)
1411994595088 6891 RECOMMEND 3047
1411994595088 6890 RECOMMEND 3047
1411994596205 6891 READING 1171 0.999234
1411994598018 6890 READING 1685 0.947025
1411994598040 6891 READING 1186 0.999138
1411994599973 6891 READING 1201 0.999129
1411994601696 6891 READING 1214 0.999302
1411994602092 6890 READING 1691 0.943559
1411994603356 6891 READING 1228 0.999094
1411994605088 6891 FUNCTION lru lambda h: 0.989021 * (h ** 0.00141155)
1411994605088 6890 FUNCTION lru lambda h: 0.00141041 * (h ** 0.894786)
1411994605088 6891 RECOMMEND 3047
1411994605088 6890 RECOMMEND 3047
1411994605350 6891 READING 1246 0.999207
1411994606235 6890 READING 1711 0.949811
1411994607249 6891 READING 1261 0.999160
1411994609308 6891 READING 1266 0.999326
1411994610413 6890 READING 1714 0.946396
1411994611149 6891 READING 1269 0.999161
1411994612922 6891 READING 1285 0.998725
1411994614755 6890 READING 1734 0.950724
1411994614923 6891 READING 1285 0.998946
1411994615088 6891 FUNCTION lru lambda h: 0.988253 * (h ** 0.00152605)
1411994615088 6890 FUNCTION lru lambda h: 0.0184229 * (h ** 0.537136)
1411994615088 6891 RECOMMEND 3047
1411994615088 6890 RECOMMEND 3047
1411994616952 6891 READING 1303 0.998753
1411994619031 6890 READING 1736 0.948196
1411994619067 6891 READING 1303 0.998763
1411994620986 6891 READING 1323 0.998875
1411994622869 6891 READING 1323 0.999035
1411994625088 6891 FUNCTION lru lambda h: 0.988002 * (h ** 0.00156167)
1411994625089 6890 FUNCTION lru lambda h: 0.0216871 * (h ** 0.514461)
1411994625089 6891 RECOMMEND 3047
1411994625089 6890 RECOMMEND 3047
1411994625202 6890 READING 1756 0.699528
1411994625381 6891 READING 1343 0.999197
1411994627660 6891 READING 1344 0.999086
1411994629518 6890 READING 1827 0.987905
1411994629633 6891 READING 1363 0.998987
1411994631518 6891 READING 1364 0.998819
1411994633814 6891 READING 1384 0.999326
1411994635089 6891 FUNCTION lru lambda h: 0.9887 * (h ** 0.00145825)
1411994635089 6890 FUNCTION lru lambda h: 0.0280666 * (h ** 0.477754)
1411994635089 6891 RECOMMEND 3047
1411994635089 6890 RECOMMEND 3047
1411994635902 6891 READING 1384 0.999049
1411994638095 6891 READING 1404 0.999232
1411994640140 6891 READING 1404 0.999124
1411994642210 6891 READING 1422 0.999049
1411994644236 6891 READING 1423 0.999110
1411994645089 6891 FUNCTION lru lambda h: 0.989452 * (h ** 0.00134783)
1411994645089 6890 FUNCTION lru lambda h: 0.0280666 * (h ** 0.477754)
1411994645089 6891 RECOMMEND 3047
1411994645089 6890 RECOMMEND 3047
1411994646734 6891 READING 1442 0.999428
1411994648783 6891 READING 1442 0.999195
1411994650811 6891 READING 1460 0.999267
1411994653057 6891 READING 1460 0.999292
1411994655090 6891 FUNCTION lru lambda h: 0.990267 * (h ** 0.00123023)
1411994655090 6890 FUNCTION lru lambda h: 0.0280666 * (h ** 0.477754)
1411994655090 6891 RECOMMEND 3047
1411994655090 6890 RECOMMEND 3047
1411994655556 6891 READING 1477 0.999404
1411994657816 6891 READING 1477 0.999345
1411994658753 6890 READING 1837 0.995942
1411994658851 6891 DEATH 332
1411994665090 6890 FUNCTION lru lambda h: 0.0275756 * (h ** 0.480114)
1411994665090 6890 RECOMMEND 6095
1411994666310 6890 READING 1848 0.990346
1411994666933 6890 READING 1843 0.882375
1411994667444 6890 READING 1852 0.824538
1411994667951 6890 READING 1881 0.855375
1411994668301 6890 DEATH 187
