1411993978764 0 TOTAL_MEM 6095
1411993998798 6706 CREATION
1411993998798 6706 READING 9 0.989949
1411993998798 6706 MINHEAP 2
1411993998798 6706 MINHEAP 8
1411993998820 6705 CREATION
1411993998820 6705 READING 9 0.991616
1411993998820 6705 MINHEAP 2
1411993998820 6705 MINHEAP 1211
1411993998866 6705 READING 9 0.973688
1411993998873 6706 READING 9 0.979109
1411993998894 6705 READING 9 0.953620
1411993998899 6706 READING 9 0.954817
1411993998915 6706 READING 9 0.902325
1411993998922 6705 READING 9 0.954017
1411993998932 6706 READING 11 0.950458
1411993999010 6706 READING 11 0.969808
1411993999036 6705 READING 11 0.975547
1411993999172 6705 READING 11 0.969807
1411993999237 6706 READING 16 0.991325
1411993999270 6705 READING 17 0.707875
1411993999329 6706 READING 16 0.979242
1411993999375 6706 READING 25 0.945923
1411993999432 6706 READING 25 0.731605
1411993999454 6705 READING 17 0.659143
1411993999522 6706 READING 38 0.983119
1411993999581 6706 READING 38 0.973799
1411993999646 6705 READING 29 0.955271
1411993999679 6706 READING 48 0.984540
1411993999761 6706 READING 48 0.980138
1411993999865 6705 READING 30 0.881085
1411993999870 6706 READING 61 0.985749
1411993999978 6706 READING 61 0.988693
1411994000034 6705 READING 34 0.501996
1411994000082 6706 READING 76 0.989150
1411994000117 6705 READING 46 0.875909
1411994000201 6706 READING 77 0.988871
1411994000366 6706 READING 88 0.992666
1411994000412 6705 READING 50 0.388855
1411994000499 6705 READING 63 0.809770
1411994000529 6706 READING 89 0.992922
1411994000573 6705 READING 68 0.818744
1411994000666 6706 READING 100 0.991736
1411994000819 6705 READING 70 0.258484
1411994000858 6706 READING 102 0.993102
1411994000959 6705 READING 99 0.836396
1411994001070 6706 READING 114 0.992923
1411994001242 6705 READING 99 0.330443
1411994001291 6706 READING 114 0.993847
1411994001377 6705 READING 130 0.806407
1411994001482 6705 READING 130 0.820327
1411994001483 6706 READING 127 0.994604
1411994001565 6705 READING 132 0.866483
1411994001672 6706 READING 128 0.994050
1411994001943 6706 READING 138 0.993465
1411994001959 6705 READING 136 0.203288
1411994002061 6705 READING 166 0.681169
1411994002159 6705 READING 170 0.802604
1411994002185 6706 READING 138 0.995443
1411994002262 6705 READING 173 0.670922
1411994002462 6706 READING 147 0.995553
1411994002679 6705 READING 174 0.208027
1411994002728 6706 READING 148 0.996802
1411994002799 6705 READING 213 0.652457
1411994002908 6705 READING 217 0.780984
1411994002960 6706 READING 156 0.995112
1411994003022 6705 READING 219 0.707497
1411994003153 6705 READING 225 0.662270
1411994003184 6706 READING 157 0.994337
1411994003288 6705 READING 233 0.648500
1411994003381 6706 READING 166 0.952366
1411994003409 6705 READING 238 0.608485
1411994003557 6705 READING 243 0.567038
1411994003615 6706 READING 166 0.996301
1411994003705 6705 READING 252 0.491576
1411994003889 6706 READING 182 0.995056
1411994004246 6706 READING 184 0.995627
1411994004650 6706 READING 199 0.997865
1411994004662 6705 READING 259 0.074215
1411994005047 6705 READING 299 0.167809
1411994005079 6706 READING 199 0.997002
1411994005448 6705 READING 339 0.216059
1411994005509 6706 READING 211 0.998150
1411994005519 6705 READING 382 0.874333
1411994005606 6705 READING 390 0.806849
1411994005698 6705 READING 387 0.767592
1411994005803 6705 READING 327 0.742127
1411994005833 6706 READING 213 0.996466
1411994005908 6705 READING 381 0.702831
1411994006034 6705 READING 385 0.662735
1411994006161 6705 READING 386 0.593611
1411994006255 6706 READING 223 0.997457
1411994006296 6705 READING 388 0.614914
1411994006442 6705 READING 390 0.544207
1411994006579 6705 READING 398 0.539093
1411994006633 6706 READING 223 0.997828
1411994006713 6705 READING 401 0.483656
1411994006848 6705 READING 411 0.451248
1411994006974 6705 READING 414 0.373970
1411994007029 6706 READING 231 0.997282
1411994007105 6705 READING 426 0.449197
1411994007209 6705 READING 428 0.302330
1411994007337 6705 READING 439 0.254501
1411994007449 6706 READING 232 0.996224
1411994007486 6705 READING 446 0.196630
1411994007823 6706 READING 239 0.995976
1411994008206 6706 READING 239 0.996080
1411994008373 6705 READING 451 0.042323
1411994008502 6705 READING 500 0.246067
1411994008601 6705 READING 409 0.332782
1411994008694 6706 READING 247 0.995996
1411994008765 6706 FUNCTION lru lambda h: 0.895226 * (h ** 0.0206178)
1411994008765 6705 FUNCTION lru lambda h: 1.69863 * (h ** 0.001)
1411994008765 6706 RECOMMEND 3047
1411994008765 6705 RECOMMEND 3047
1411994009158 6706 READING 247 0.996917
1411994009421 6705 READING 491 0.043533
1411994009558 6705 READING 560 0.329538
1411994009631 6705 READING 558 0.572370
1411994009631 6706 READING 256 0.997085
1411994009705 6705 READING 559 0.540708
1411994009798 6705 READING 552 0.563904
1411994009901 6705 READING 456 0.456547
1411994009999 6705 READING 541 0.512178
1411994010031 6706 READING 256 0.997005
1411994010109 6705 READING 470 0.545727
1411994010219 6705 READING 530 0.504776
1411994010341 6705 READING 476 0.509567
1411994010417 6706 READING 264 0.997953
1411994010476 6705 READING 527 0.464245
1411994010612 6705 READING 531 0.520629
1411994010744 6705 READING 532 0.433109
1411994010876 6706 READING 265 0.993470
1411994010889 6705 READING 533 0.521084
1411994011041 6705 READING 537 0.506679
1411994011193 6705 READING 542 0.502332
1411994011293 6706 READING 271 0.994651
1411994011325 6705 READING 545 0.445225
1411994011477 6705 READING 552 0.433043
1411994011751 6706 READING 272 0.996093
1411994012386 6706 READING 282 0.998257
1411994012555 6705 READING 557 0.052427
1411994012733 6705 READING 617 0.322273
1411994012869 6705 READING 624 0.509795
1411994012907 6706 READING 282 0.997385
1411994013016 6705 READING 625 0.478723
1411994013177 6705 READING 629 0.483076
1411994013458 6706 READING 291 0.997375
1411994013517 6705 READING 629 0.705529
1411994013973 6706 READING 291 0.996973
1411994014049 6705 READING 633 0.834114
1411994014401 6706 READING 299 0.997475
1411994014524 6705 READING 635 0.766154
1411994014786 6706 READING 299 0.996742
1411994014947 6705 READING 637 0.727368
1411994015213 6706 READING 307 0.997950
1411994015944 6706 READING 307 0.998304
1411994016538 6706 READING 314 0.997883
1411994017136 6706 READING 299 0.998240
1411994017795 6706 READING 285 0.998556
1411994017805 6705 READING 646 0.153082
1411994018077 6705 READING 720 0.382455
1411994018337 6705 READING 726 0.537369
1411994018376 6706 READING 272 0.998461
1411994018517 6705 READING 728 0.553024
1411994018702 6705 READING 666 0.490538
1411994018765 6706 FUNCTION lru lambda h: 0.902693 * (h ** 0.0184637)
1411994018765 6705 FUNCTION lru lambda h: 1.3821 * (h ** 0.001)
1411994018765 6706 RECOMMEND 3047
1411994018765 6705 RECOMMEND 3047
1411994018823 6706 READING 259 0.997325
1411994018837 6705 READING 718 0.260683
1411994018949 6705 READING 658 0.309511
1411994019150 6706 READING 247 0.996130
1411994019582 6706 READING 235 0.997736
1411994020067 6706 READING 224 0.995794
1411994020177 6705 READING 714 0.031212
1411994020358 6705 READING 789 0.213720
1411994020445 6705 READING 791 0.475811
1411994020482 6706 READING 214 0.997911
1411994020764 6706 READING 204 0.997295
1411994020872 6705 READING 793 0.845099
1411994020981 6705 READING 799 0.601187
1411994021079 6705 READING 800 0.554514
1411994021098 6706 READING 194 0.997726
1411994021395 6706 READING 185 0.995845
1411994021699 6706 READING 177 0.995208
1411994022064 6706 READING 169 0.941911
1411994022365 6706 READING 164 0.994290
1411994022584 6705 READING 804 0.040525
1411994022642 6706 READING 173 0.996363
1411994022765 6705 READING 886 0.339944
1411994022924 6706 READING 183 0.996718
1411994023065 6705 READING 888 0.938279
1411994023187 6705 READING 893 0.868410
1411994023221 6706 READING 193 0.996705
1411994023445 6705 READING 895 0.906192
1411994023542 6705 READING 897 0.787947
1411994023581 6706 READING 203 0.997684
1411994023861 6705 READING 890 0.930301
1411994023875 6706 READING 213 0.996497
1411994024008 6705 READING 747 0.856513
1411994024223 6705 READING 880 0.890203
1411994024260 6706 READING 223 0.998007
1411994024593 6705 READING 755 0.871347
1411994024666 6706 READING 233 0.997422
1411994024776 6705 READING 875 0.741223
1411994024969 6705 READING 879 0.697857
1411994025044 6706 READING 243 0.997329
1411994025161 6705 READING 873 0.753123
1411994025350 6705 READING 794 0.757327
1411994025405 6706 READING 254 0.997291
1411994025545 6705 READING 862 0.789615
1411994025723 6706 READING 264 0.995565
1411994025737 6705 READING 799 0.793559
1411994025941 6705 READING 857 0.795649
1411994026124 6706 READING 276 0.996467
1411994026142 6705 READING 862 0.814527
1411994026349 6705 READING 852 0.836596
1411994026560 6705 READING 858 0.816419
1411994026560 6706 READING 289 0.997998
1411994026781 6705 READING 851 0.828602
1411994027109 6706 READING 296 0.997898
1411994027316 6705 READING 855 0.962561
1411994027560 6706 READING 303 0.997891
1411994028118 6706 READING 303 0.998062
1411994028638 6706 READING 314 0.998501
1411994028730 6705 READING 854 0.960448
1411994028765 6706 FUNCTION lru lambda h: 0.903985 * (h ** 0.0179921)
1411994028765 6705 FUNCTION lru lambda h: 0.415382 * (h ** 0.019048)
1411994028765 6706 RECOMMEND 3047
1411994028765 6705 RECOMMEND 3047
1411994028994 6705 READING 857 0.796737
1411994029140 6706 READING 314 0.990813
1411994029181 6705 READING 859 0.739703
1411994029376 6705 READING 863 0.705089
1411994029552 6706 READING 325 0.995386
1411994029569 6705 READING 870 0.735998
1411994029777 6705 READING 872 0.684397
1411994029982 6705 READING 880 0.729070
1411994030018 6706 READING 325 0.997604
1411994030191 6705 READING 881 0.724746
1411994030413 6705 READING 889 0.727627
1411994030567 6706 READING 342 0.998294
1411994030631 6705 READING 889 0.745390
1411994030872 6705 READING 896 0.720419
1411994031133 6706 READING 344 0.998323
1411994031399 6705 READING 897 0.888631
1411994031702 6706 READING 358 0.998480
1411994031819 6705 READING 899 0.829864
1411994032029 6705 READING 902 0.786245
1411994032210 6706 READING 359 0.997037
1411994032826 6706 READING 372 0.997627
1411994033612 6706 READING 373 0.997008
1411994034218 6705 READING 907 0.119429
1411994034363 6706 READING 387 0.995643
1411994034525 6705 READING 998 0.387321
1411994034729 6705 READING 1023 0.616909
1411994034938 6705 READING 1026 0.600758
1411994035059 6706 READING 388 0.997145
1411994035190 6705 READING 1028 0.551914
1411994035457 6705 READING 1031 0.508058
1411994035655 6706 READING 406 0.996092
1411994035691 6705 READING 1038 0.632094
1411994035940 6705 READING 1040 0.601408
1411994036195 6706 READING 406 0.997045
1411994036216 6705 READING 1055 0.601736
1411994036509 6705 READING 1056 0.573434
1411994036845 6705 READING 1075 0.606113
1411994036934 6706 READING 425 0.995637
1411994037836 6706 READING 426 0.996792
1411994038765 6706 FUNCTION lru lambda h: 0.910899 * (h ** 0.0162502)
1411994038765 6705 FUNCTION lru lambda h: 0.0131214 * (h ** 0.554657)
1411994038765 6706 RECOMMEND 3047
1411994038765 6705 RECOMMEND 3047
1411994038778 6706 READING 448 0.998162
1411994038977 6705 READING 1076 0.926040
1411994039607 6706 READING 448 0.997479
1411994040225 6706 READING 467 0.997132
1411994040917 6706 READING 468 0.996419
1411994040985 6705 READING 1100 0.928720
1411994041715 6706 READING 489 0.998225
1411994042432 6706 READING 489 0.997711
1411994042945 6705 READING 1103 0.918084
1411994043140 6706 READING 509 0.997292
1411994043951 6706 READING 509 0.997515
1411994044925 6705 READING 1121 0.918926
1411994044944 6706 READING 531 0.998126
1411994045775 6706 READING 531 0.997965
1411994046538 6706 READING 550 0.997458
1411994047644 6706 READING 551 0.997798
1411994047998 6705 READING 1127 0.603087
1411994048748 6706 READING 572 0.998417
1411994048766 6706 FUNCTION lru lambda h: 0.917593 * (h ** 0.0146599)
1411994048766 6705 FUNCTION lru lambda h: 0.00524897 * (h ** 0.694658)
1411994048766 6706 RECOMMEND 3047
1411994048766 6705 RECOMMEND 3047
1411994049724 6706 READING 573 0.997973
1411994049963 6705 READING 1229 0.987095
1411994050503 6706 READING 593 0.997852
1411994051439 6706 READING 593 0.997756
1411994051956 6705 READING 1231 0.982086
1411994052367 6706 READING 614 0.997855
1411994053194 6706 READING 614 0.997402
1411994054039 6705 READING 1250 0.977208
1411994054178 6706 READING 636 0.998116
1411994055267 6706 READING 636 0.998364
1411994056136 6706 READING 656 0.997897
1411994056144 6705 READING 1254 0.970601
1411994057173 6706 READING 658 0.997919
1411994058307 6705 READING 1258 0.970996
1411994058373 6706 READING 680 0.998524
1411994058766 6706 FUNCTION lru lambda h: 0.92293 * (h ** 0.0134335)
1411994058766 6705 FUNCTION lru lambda h: 0.001 * (h ** 0.991405)
1411994058766 6706 RECOMMEND 3047
1411994058766 6705 RECOMMEND 3047
1411994059531 6706 READING 680 0.998531
1411994060464 6706 READING 700 0.997810
1411994060508 6705 READING 1262 0.968778
1411994061557 6706 READING 701 0.998373
1411994062540 6706 READING 721 0.998482
1411994062741 6705 READING 1254 0.962784
1411994063651 6706 READING 722 0.998496
1411994064890 6706 READING 743 0.998531
1411994065017 6705 READING 1260 0.967332
1411994065894 6706 READING 743 0.998116
1411994067126 6706 READING 764 0.998377
1411994067339 6705 READING 1251 0.955872
1411994068456 6706 READING 764 0.998426
1411994068766 6706 FUNCTION lru lambda h: 0.927104 * (h ** 0.012494)
1411994068766 6705 FUNCTION lru lambda h: 0.001 * (h ** 0.999)
1411994068766 6706 RECOMMEND 3047
1411994068766 6705 RECOMMEND 3047
1411994069620 6706 READING 786 0.998341
1411994069694 6705 READING 1256 0.952432
1411994070893 6706 READING 786 0.998636
1411994072001 6706 READING 807 0.991775
1411994072071 6705 READING 1261 0.963617
1411994073315 6706 READING 808 0.998904
1411994074515 6705 READING 1262 0.951040
1411994074761 6706 READING 843 0.998739
1411994075961 6706 READING 848 0.998588
1411994076965 6705 READING 1268 0.949957
1411994077534 6706 READING 876 0.999068
1411994078766 6706 FUNCTION lru lambda h: 0.97164 * (h ** 0.00428705)
1411994078766 6705 FUNCTION lru lambda h: 0.001 * (h ** 0.999)
1411994078766 6706 RECOMMEND 3047
1411994078766 6705 RECOMMEND 3047
1411994078884 6706 READING 876 0.998686
1411994079451 6705 READING 1274 0.940628
1411994080330 6706 READING 902 0.998707
1411994081638 6706 READING 903 0.998534
1411994081908 6705 READING 1281 0.951188
1411994083150 6706 READING 928 0.999081
1411994084372 6705 READING 1289 0.941414
1411994084660 6706 READING 928 0.999082
1411994086083 6706 READING 949 0.998850
1411994086845 6705 READING 1300 0.946442
1411994087725 6706 READING 950 0.998991
1411994088766 6706 FUNCTION lru lambda h: 0.97812 * (h ** 0.00315273)
1411994088767 6705 FUNCTION lru lambda h: 0.001 * (h ** 0.999)
1411994088767 6706 RECOMMEND 3047
1411994088767 6705 RECOMMEND 3047
1411994089157 6706 READING 971 0.998793
1411994089277 6705 READING 1308 0.948248
1411994090720 6706 READING 971 0.999032
1411994091931 6705 READING 1318 0.936330
1411994092118 6706 READING 990 0.998668
1411994093744 6706 READING 991 0.998978
1411994094483 6705 READING 1323 0.938787
1411994095120 6706 READING 1011 0.998878
1411994096956 6706 READING 1012 0.999091
1411994097221 6705 READING 1334 0.947733
1411994098552 6706 READING 1031 0.999128
1411994098767 6706 FUNCTION lru lambda h: 0.978045 * (h ** 0.00315265)
1411994098767 6705 FUNCTION lru lambda h: 0.00112847 * (h ** 0.930835)
1411994098767 6706 RECOMMEND 3047
1411994098767 6705 RECOMMEND 3047
1411994099884 6705 READING 1337 0.935324
1411994100171 6706 READING 1032 0.998980
1411994101652 6706 READING 1051 0.998704
1411994102668 6705 READING 1347 0.943581
1411994103518 6706 READING 1051 0.999121
1411994104989 6706 READING 1071 0.998782
1411994105489 6705 READING 1349 0.947133
1411994106891 6706 READING 1072 0.999065
1411994108417 6705 READING 1360 0.943760
1411994108585 6706 READING 1093 0.998881
1411994108767 6706 FUNCTION lru lambda h: 0.977117 * (h ** 0.00328899)
1411994108767 6705 FUNCTION lru lambda h: 0.001 * (h ** 0.999)
1411994108767 6706 RECOMMEND 3047
1411994108767 6705 RECOMMEND 3047
1411994110197 6706 READING 1093 0.998998
1411994111371 6705 READING 1361 0.944653
1411994111882 6706 READING 1114 0.999188
1411994113672 6706 READING 1114 0.999029
1411994114371 6705 READING 1371 0.954074
1411994115455 6706 READING 1134 0.999090
1411994117440 6706 READING 1134 0.998624
1411994118767 6706 FUNCTION lru lambda h: 0.980468 * (h ** 0.00275149)
1411994118767 6705 FUNCTION lru lambda h: 0.001 * (h ** 0.999)
1411994118767 6706 RECOMMEND 3047
1411994118767 6705 RECOMMEND 3047
1411994119950 6705 READING 1371 0.518505
1411994119989 6706 READING 1155 0.999403
1411994121574 6706 READING 1155 0.999087
1411994123144 6705 READING 1494 0.920378
1411994123582 6706 READING 1175 0.999160
1411994125373 6706 READING 1175 0.999226
1411994126160 6705 READING 1495 0.971933
1411994127389 6706 READING 1195 0.999034
1411994128767 6706 FUNCTION lru lambda h: 0.980125 * (h ** 0.0027993)
1411994128767 6705 FUNCTION lru lambda h: 0.001 * (h ** 0.999)
1411994128767 6706 RECOMMEND 3047
1411994128767 6705 RECOMMEND 3047
1411994129075 6706 READING 1195 0.998912
1411994129326 6705 READING 1512 0.970375
1411994130866 6706 READING 1215 0.999152
1411994132502 6705 READING 1515 0.972427
1411994132961 6706 READING 1215 0.999097
1411994134791 6706 READING 1236 0.999153
1411994135796 6705 READING 1516 0.963049
1411994136967 6706 READING 1236 0.999197
1411994138741 6706 READING 1175 0.999050
1411994138768 6706 FUNCTION lru lambda h: 0.979644 * (h ** 0.00286808)
1411994138768 6705 FUNCTION lru lambda h: 0.001 * (h ** 0.999)
1411994138768 6706 RECOMMEND 3047
1411994138768 6705 RECOMMEND 3047
1411994140455 6706 READING 1195 0.999356
1411994142308 6706 READING 1133 0.999377
1411994143788 6706 READING 1079 0.999292
1411994145552 6706 READING 1026 0.999257
1411994146990 6706 READING 975 0.999217
1411994148460 6706 READING 928 0.999180
1411994148768 6706 FUNCTION lru lambda h: 0.979427 * (h ** 0.00290059)
1411994148768 6705 FUNCTION lru lambda h: 0.001 * (h ** 0.999)
1411994148768 6706 RECOMMEND 3047
1411994148768 6705 RECOMMEND 3047
1411994149684 6706 READING 882 0.998249
1411994151005 6706 READING 842 0.998754
1411994152343 6706 READING 801 0.988474
1411994153320 6706 READING 761 0.999103
1411994154559 6706 READING 723 0.994924
1411994155740 6706 READING 688 0.997138
1411994156596 6706 READING 655 0.998568
1411994157541 6706 READING 623 0.998907
1411994158404 6706 READING 593 0.998895
1411994158768 6706 FUNCTION lru lambda h: 0.978596 * (h ** 0.0029938)
1411994158768 6705 FUNCTION lru lambda h: 0.001 * (h ** 0.999)
1411994158768 6706 RECOMMEND 3047
1411994158768 6705 RECOMMEND 3047
1411994159169 6706 READING 565 0.998306
1411994160011 6706 READING 540 0.998407
1411994160916 6706 READING 515 0.998543
1411994161636 6706 READING 490 0.998000
1411994162199 6706 READING 467 0.997598
1411994162879 6706 READING 445 0.997680
1411994163608 6706 READING 424 0.998164
1411994164316 6706 READING 404 0.997965
1411994164969 6706 READING 385 0.998030
1411994165556 6706 READING 367 0.994710
1411994165633 6705 READING 1521 0.996646
1411994166016 6706 READING 350 0.997047
1411994166516 6706 READING 334 0.997490
1411994167016 6706 READING 319 0.997650
1411994167495 6706 READING 304 0.997136
1411994167912 6706 READING 290 0.996987
1411994168290 6706 READING 277 0.996476
1411994168643 6706 READING 265 0.997020
1411994168768 6706 FUNCTION lru lambda h: 0.98951 * (h ** 0.00131691)
1411994168768 6705 FUNCTION lru lambda h: 0.001 * (h ** 0.999)
1411994168768 6706 RECOMMEND 3047
1411994168768 6705 RECOMMEND 3047
1411994169014 6706 READING 253 0.996479
1411994169425 6706 READING 241 0.996843
1411994169737 6706 READING 230 0.996216
1411994170116 6706 READING 220 0.996200
1411994170501 6706 READING 211 0.996661
1411994170818 6706 READING 201 0.995674
1411994171101 6706 READING 192 0.995301
1411994171348 6706 READING 183 0.994957
1411994171567 6706 READING 197 0.994880
1411994171850 6706 READING 211 0.994905
1411994172170 6706 READING 227 0.996294
1411994172515 6706 READING 243 0.995997
1411994172954 6706 READING 233 0.997229
1411994173293 6706 READING 222 0.995902
1411994173506 6705 READING 1520 0.982440
1411994173666 6706 READING 210 0.997603
1411994174037 6706 READING 200 0.997672
1411994174357 6705 READING 1523 0.800844
1411994174373 6706 READING 191 0.997184
1411994174662 6706 READING 183 0.996589
1411994174841 6705 READING 1523 0.700716
1411994174962 6706 READING 175 0.996775
1411994175215 6706 READING 167 0.992549
1411994175281 6705 READING 1557 0.672410
1411994175426 6706 READING 160 0.994778
1411994175631 6706 READING 172 0.988740
1411994175710 6705 READING 1591 0.680332
1411994175923 6706 READING 191 0.996807
1411994176157 6705 READING 1619 0.665399
1411994176257 6706 READING 203 0.996558
1411994176619 6706 READING 219 0.995669
1411994176629 6705 READING 1658 0.714543
1411994176999 6706 READING 236 0.997408
1411994177373 6706 READING 229 0.997364
1411994177668 6706 READING 215 0.996957
1411994177958 6706 READING 206 0.996379
1411994178255 6706 READING 197 0.995161
1411994178525 6706 READING 191 0.996334
1411994178760 6706 READING 181 0.994849
1411994178769 6706 FUNCTION lru lambda h: 0.986597 * (h ** 0.00176463)
1411994178769 6705 FUNCTION lru lambda h: 0.0010989 * (h ** 0.928611)
1411994178769 6706 RECOMMEND 3047
1411994178769 6705 RECOMMEND 3047
1411994179029 6706 READING 173 0.924066
1411994179113 6705 READING 1675 0.955577
1411994179423 6706 READING 198 0.996925
1411994179732 6706 READING 226 0.996506
1411994180165 6706 READING 255 0.996671
1411994180657 6706 READING 286 0.997925
1411994181124 6706 READING 318 0.997289
1411994181556 6706 READING 351 0.977231
1411994182097 6706 READING 385 0.997911
1411994182507 6705 READING 1655 0.952142
1411994182694 6706 READING 367 0.998251
1411994183242 6706 READING 350 0.998049
1411994183820 6706 READING 334 0.998182
1411994184364 6706 READING 318 0.998097
1411994184847 6706 READING 307 0.997766
1411994185202 6706 READING 290 0.997421
1411994185540 6706 READING 277 0.996571
1411994185834 6705 READING 1676 0.947725
1411994185953 6706 READING 264 0.997298
1411994186342 6706 READING 255 0.997894
1411994186710 6706 READING 241 0.997369
1411994187048 6706 READING 230 0.997334
1411994187335 6706 READING 220 0.996595
1411994187618 6706 READING 213 0.995347
1411994187895 6706 READING 204 0.994611
1411994188140 6706 READING 196 0.996055
1411994188404 6706 READING 185 0.996352
1411994188682 6706 READING 177 0.995986
1411994188769 6706 FUNCTION lru lambda h: 0.9773 * (h ** 0.00317684)
1411994188769 6705 FUNCTION lru lambda h: 0.001 * (h ** 0.999)
1411994188769 6706 RECOMMEND 3047
1411994188769 6705 RECOMMEND 3047
1411994188976 6706 READING 170 0.995993
1411994189187 6706 READING 163 0.994513
1411994189395 6705 READING 1665 0.955697
1411994189413 6706 READING 156 0.994548
1411994189674 6706 READING 149 0.995040
1411994189914 6706 READING 143 0.995069
1411994190125 6706 READING 137 0.993883
1411994190328 6706 READING 132 0.994808
1411994190513 6706 READING 127 0.993533
1411994190677 6706 READING 122 0.993308
1411994190823 6706 READING 117 0.992153
1411994190958 6706 READING 128 0.991762
1411994191122 6706 READING 141 0.993813
1411994191339 6706 READING 155 0.996293
1411994191531 6706 READING 148 0.994696
1411994191728 6706 READING 142 0.995553
1411994191903 6706 READING 136 0.994656
1411994192137 6706 READING 131 0.995622
1411994192383 6706 READING 127 0.996145
1411994192570 6706 READING 121 0.995302
1411994192739 6706 READING 116 0.993641
1411994192915 6706 READING 112 0.988361
1411994192939 6705 READING 1680 0.959491
1411994193112 6706 READING 123 0.996044
1411994193315 6706 READING 118 0.995931
1411994193525 6706 READING 113 0.996169
1411994193714 6706 READING 109 0.995226
1411994193885 6706 READING 105 0.994688
1411994194035 6706 READING 101 0.994219
1411994194186 6706 READING 98 0.993757
1411994194312 6706 READING 94 0.992735
1411994194451 6706 READING 90 0.993421
1411994194586 6706 READING 87 0.993246
1411994194718 6706 READING 95 0.992987
1411994194849 6706 READING 104 0.992889
1411994194970 6706 READING 114 0.991835
1411994195122 6706 READING 126 0.992975
1411994195294 6706 READING 139 0.994252
1411994195510 6706 READING 153 0.996352
1411994195733 6706 READING 146 0.995435
1411994195951 6706 READING 140 0.995869
1411994196166 6706 READING 135 0.995798
1411994196342 6706 READING 129 0.995081
1411994196535 6706 READING 124 0.995894
1411994196721 6705 READING 1672 0.957908
1411994196778 6706 READING 119 0.996737
1411994196932 6706 READING 115 0.993358
1411994197084 6706 READING 110 0.994390
1411994197224 6706 READING 106 0.993626
1411994197351 6706 READING 102 0.993502
1411994197474 6706 READING 98 0.993230
1411994197618 6706 READING 108 0.989959
1411994197766 6706 READING 119 0.990502
1411994197925 6706 READING 131 0.992947
1411994198105 6706 READING 147 0.994641
1411994198312 6706 READING 161 0.995938
1411994198577 6706 READING 178 0.995595
1411994198769 6706 FUNCTION lru lambda h: 0.981718 * (h ** 0.00248935)
1411994198769 6705 FUNCTION lru lambda h: 0.001 * (h ** 0.941669)
1411994198769 6706 RECOMMEND 3047
1411994198769 6705 RECOMMEND 3047
1411994198861 6706 READING 170 0.996076
1411994199076 6706 READING 163 0.995852
1411994199289 6706 READING 156 0.995776
1411994199538 6706 READING 150 0.995943
1411994199777 6706 READING 144 0.995443
1411994199985 6706 READING 139 0.995349
1411994200182 6706 READING 132 0.994506
1411994200358 6706 READING 127 0.992615
1411994200469 6705 READING 1684 0.962502
1411994200566 6706 READING 122 0.995475
1411994200713 6706 READING 117 0.993497
1411994200828 6706 READING 113 0.992689
1411994200935 6706 READING 108 0.991504
1411994201069 6706 READING 119 0.993370
1411994201233 6706 READING 130 0.994566
1411994201416 6706 READING 143 0.994846
1411994201585 6706 READING 137 0.994540
1411994201748 6706 READING 132 0.995412
1411994201966 6706 READING 127 0.993773
1411994202192 6706 READING 121 0.995435
1411994202365 6706 READING 118 0.994549
1411994202519 6706 READING 113 0.994852
1411994202656 6706 READING 108 0.993615
1411994202795 6706 READING 104 0.993528
1411994202952 6706 READING 101 0.994510
1411994203108 6706 READING 97 0.994557
1411994203266 6706 READING 93 0.994634
1411994203407 6706 READING 90 0.994056
1411994203547 6706 READING 87 0.932189
1411994203659 6706 READING 82 0.992390
1411994203789 6706 READING 80 0.992957
1411994203894 6706 READING 77 0.992369
1411994203986 6706 READING 75 0.991072
1411994204112 6706 READING 83 0.992987
1411994204283 6706 READING 93 0.989429
1411994204524 6706 READING 104 0.994539
1411994204721 6706 READING 116 0.994202
1411994204897 6706 READING 129 0.994967
1411994205118 6706 READING 124 0.995016
1411994205384 6705 READING 1677 0.753952
1411994205390 6706 READING 119 0.996944
1411994205542 6706 READING 115 0.995005
1411994205696 6706 READING 110 0.994789
1411994205852 6706 READING 106 0.994194
1411994206002 6706 READING 102 0.993484
1411994206151 6706 READING 98 0.994132
1411994206279 6706 READING 95 0.993600
1411994206391 6706 READING 91 0.992589
1411994206507 6706 READING 87 0.992817
1411994206656 6706 READING 85 0.994511
1411994206779 6706 READING 82 0.992355
1411994206875 6706 READING 79 0.992298
1411994206968 6706 READING 76 0.991271
1411994207076 6706 READING 85 0.993351
1411994207193 6706 READING 94 0.992622
1411994207320 6706 READING 105 0.994019
1411994207442 6706 READING 101 0.993802
1411994207587 6706 READING 97 0.990583
1411994207724 6706 READING 109 0.993197
1411994207872 6706 READING 121 0.993816
1411994208013 6706 READING 116 0.994198
1411994208156 6706 READING 112 0.994077
1411994208286 6706 READING 107 0.992799
1411994208417 6706 READING 103 0.993900
1411994208570 6706 READING 99 0.994673
1411994208723 6706 READING 97 0.994847
1411994208769 6706 FUNCTION lru lambda h: 0.982425 * (h ** 0.00229893)
1411994208769 6705 FUNCTION lru lambda h: 0.00110053 * (h ** 0.925425)
1411994208769 6706 RECOMMEND 3047
1411994208769 6705 RECOMMEND 3047
1411994208865 6706 READING 92 0.993034
1411994208976 6706 READING 89 0.991718
1411994209077 6706 READING 86 0.990619
1411994209178 6705 READING 1673 0.985942
1411994209198 6706 READING 95 0.993710
1411994209328 6706 READING 92 0.993448
1411994209473 6706 READING 88 0.993577
1411994209604 6706 READING 85 0.993743
1411994209731 6706 READING 83 0.992400
1411994209859 6706 READING 79 0.992918
1411994209969 6706 READING 77 0.917278
1411994210089 6706 READING 85 0.989228
1411994210228 6706 READING 97 0.992697
1411994210372 6706 READING 108 0.992441
1411994210537 6706 READING 121 0.993713
1411994210692 6706 READING 116 0.970642
1411994210830 6706 READING 134 0.992220
1411994210998 6706 READING 152 0.994991
1411994211224 6706 READING 174 0.996126
1411994211507 6706 READING 197 0.997438
1411994211731 6706 READING 189 0.996706
1411994212064 6706 READING 181 0.997450
1411994212360 6706 READING 174 0.997353
1411994212594 6706 READING 166 0.996590
1411994212818 6706 READING 159 0.996486
1411994213069 6705 READING 1673 0.981424
1411994213085 6706 READING 152 0.996427
1411994213343 6706 READING 146 0.996695
1411994213570 6706 READING 140 0.996430
1411994213779 6706 READING 134 0.996169
1411994213951 6706 READING 128 0.995233
1411994214141 6706 READING 124 0.996035
1411994214326 6706 READING 119 0.995840
1411994214465 6706 READING 114 0.994542
1411994214572 6706 READING 109 0.992416
1411994214688 6706 READING 106 0.991944
1411994214797 6706 READING 101 0.991951
1411994214906 6706 READING 98 0.992833
1411994215015 6706 READING 94 0.993109
1411994215138 6706 READING 91 0.994249
1411994215254 6706 READING 87 0.992810
1411994215369 6706 READING 85 0.991984
1411994215479 6706 READING 81 0.991653
1411994215586 6706 READING 79 0.992837
1411994215695 6706 READING 76 0.992659
1411994215784 6706 READING 74 0.990982
1411994215863 6706 READING 71 0.989436
1411994215959 6706 READING 80 0.992943
1411994216101 6706 READING 89 0.994751
1411994216242 6706 READING 87 0.994116
1411994216346 6706 READING 83 0.993129
1411994216438 6706 READING 81 0.992554
1411994216535 6706 READING 78 0.991783
1411994216621 6706 READING 76 0.990315
1411994216716 6706 READING 84 0.992182
1411994216824 6706 READING 95 0.992826
1411994216938 6706 READING 92 0.993306
1411994217057 6706 READING 88 0.985378
1411994217088 6705 READING 1689 0.985284
1411994217200 6706 READING 100 0.993481
1411994217337 6706 READING 113 0.992991
1411994217493 6706 READING 127 0.994819
1411994217650 6706 READING 122 0.994988
1411994217793 6706 READING 117 0.993931
1411994217946 6706 READING 113 0.994041
1411994218121 6706 READING 108 0.994654
1411994218283 6706 READING 104 0.995051
1411994218427 6706 READING 100 0.993737
1411994218544 6706 READING 97 0.992662
1411994218663 6706 READING 93 0.993318
1411994218769 6706 FUNCTION lru lambda h: 0.9644 * (h ** 0.00619216)
1411994218769 6705 FUNCTION lru lambda h: 0.00150151 * (h ** 0.881708)
1411994218770 6706 RECOMMEND 3047
1411994218770 6705 RECOMMEND 3047
1411994218783 6706 READING 90 0.990715
1411994218919 6706 READING 87 0.993566
1411994219051 6706 READING 84 0.992354
1411994219171 6706 READING 80 0.992288
1411994219308 6706 READING 79 0.929518
1411994219421 6706 READING 75 0.993390
1411994219524 6706 READING 74 0.974623
1411994219637 6706 READING 83 0.992643
1411994219769 6706 READING 95 0.992667
1411994219922 6706 READING 107 0.994026
1411994220088 6706 READING 123 0.994517
1411994220232 6706 READING 117 0.992699
1411994220347 6706 READING 112 0.991143
1411994220464 6706 READING 108 0.992604
1411994220590 6706 READING 104 0.993057
1411994220718 6706 READING 100 0.993131
1411994220822 6706 READING 97 0.992015
1411994220958 6706 READING 93 0.991293
1411994221067 6706 READING 89 0.990697
1411994221154 6706 READING 87 0.990741
1411994221263 6705 READING 1713 0.979180
1411994221273 6706 READING 84 0.993769
1411994221404 6706 READING 81 0.992877
1411994221534 6706 READING 78 0.993328
1411994221673 6706 READING 75 0.992869
1411994221791 6706 READING 74 0.990811
1411994221884 6706 READING 70 0.989306
1411994221994 6706 READING 80 0.992385
1411994222093 6706 READING 77 0.992206
1411994222185 6706 READING 75 0.990387
1411994222291 6706 READING 84 0.989807
1411994222434 6706 READING 96 0.993259
1411994222581 6706 READING 92 0.993704
1411994222730 6706 READING 88 0.993177
1411994222880 6706 READING 85 0.993810
1411994223007 6706 READING 82 0.992736
1411994223125 6706 READING 79 0.992557
1411994223227 6706 READING 76 0.991795
1411994223344 6706 READING 74 0.992183
1411994223443 6706 READING 71 0.989212
1411994223522 6706 READING 69 0.986815
1411994223636 6706 READING 78 0.992076
1411994223766 6706 READING 88 0.993965
1411994223894 6706 READING 85 0.991826
1411994223988 6706 READING 81 0.990817
1411994224100 6706 READING 93 0.991212
1411994224203 6706 READING 104 0.990714
1411994224350 6706 READING 120 0.941440
1411994224504 6706 READING 135 0.993478
1411994224672 6706 READING 130 0.995043
1411994224847 6706 READING 125 0.995426
1411994225023 6706 READING 120 0.994090
1411994225193 6706 READING 115 0.993611
1411994225359 6706 READING 111 0.995055
1411994225506 6706 READING 107 0.993633
1411994225521 6705 READING 1714 0.974158
1411994225640 6706 READING 103 0.992511
1411994225815 6706 READING 99 0.995106
1411994225955 6706 READING 95 0.994271
1411994226066 6706 READING 92 0.991350
1411994226178 6706 READING 88 0.991780
1411994226282 6706 READING 85 0.992300
1411994226376 6706 READING 82 0.992442
1411994226466 6706 READING 79 0.990381
1411994226551 6706 READING 76 0.990403
1411994226658 6706 READING 74 0.990976
1411994226737 6706 READING 72 0.987222
1411994226826 6706 READING 81 0.990319
1411994226935 6706 READING 93 0.993131
1411994227063 6706 READING 105 0.993113
1411994227182 6706 READING 101 0.994017
1411994227308 6706 READING 97 0.992853
1411994227420 6706 READING 94 0.992320
1411994227532 6706 READING 90 0.992184
1411994227659 6706 READING 87 0.993204
1411994227798 6706 READING 84 0.993297
1411994227917 6706 READING 81 0.991564
1411994228037 6706 READING 78 0.991593
1411994228126 6706 READING 75 0.990324
1411994228209 6706 READING 73 0.988693
1411994228312 6706 READING 83 0.990027
1411994228436 6706 READING 94 0.992880
1411994228580 6706 READING 90 0.994426
1411994228719 6706 READING 87 0.994405
1411994228770 6706 FUNCTION lru lambda h: 0.9592 * (h ** 0.00729754)
1411994228770 6705 FUNCTION lru lambda h: 0.00837534 * (h ** 0.641708)
1411994228770 6706 RECOMMEND 3047
1411994228770 6705 RECOMMEND 3047
1411994228846 6706 READING 84 0.992654
1411994228980 6706 READING 81 0.992291
1411994229090 6706 READING 78 0.989379
1411994229197 6706 READING 75 0.990433
1411994229325 6706 READING 86 0.931639
1411994229434 6706 READING 82 0.991586
1411994229543 6706 READING 80 0.990228
1411994229643 6706 READING 77 0.991540
1411994229748 6706 READING 75 0.989029
1411994229792 6705 READING 1710 0.976022
1411994229879 6706 READING 85 0.993267
1411994229965 6706 READING 83 0.990453
1411994230040 6706 READING 79 0.988572
1411994230133 6706 READING 90 0.992006
1411994230250 6706 READING 102 0.993068
1411994230388 6706 READING 99 0.993018
1411994230483 6706 READING 95 0.989241
1411994230610 6706 READING 91 0.993140
1411994230736 6706 READING 87 0.992246
1411994230818 6706 READING 85 0.985689
1411994230929 6706 READING 96 0.992073
1411994231118 6706 READING 110 0.995229
1411994231313 6706 READING 106 0.995632
1411994231496 6706 READING 102 0.995001
1411994231638 6706 READING 98 0.994405
1411994231771 6706 READING 95 0.993171
1411994231888 6706 READING 91 0.992351
1411994232001 6706 READING 88 0.991984
1411994232125 6706 READING 85 0.993181
1411994232259 6706 READING 82 0.993220
1411994232390 6706 READING 79 0.994093
1411994232517 6706 READING 76 0.993588
1411994232636 6706 READING 73 0.993033
1411994232743 6706 READING 71 0.991931
1411994232842 6706 READING 68 0.992015
1411994232930 6706 READING 67 0.989835
1411994233025 6706 READING 64 0.990784
1411994233117 6706 READING 63 0.990439
1411994233191 6706 READING 60 0.989302
1411994233271 6706 READING 69 0.988140
1411994233389 6706 READING 77 0.992725
1411994233522 6706 READING 89 0.993457
1411994233644 6706 READING 85 0.994036
1411994233739 6706 READING 83 0.992112
1411994233828 6706 READING 79 0.989243
1411994233900 6706 READING 76 0.988031
1411994233991 6706 READING 87 0.990443
1411994234104 6706 READING 99 0.987739
1411994234232 6705 READING 1718 0.965055
1411994234240 6706 READING 114 0.993607
1411994234413 6706 READING 131 0.995223
1411994234589 6706 READING 126 0.995160
1411994234771 6706 READING 121 0.950994
1411994234943 6706 READING 116 0.992774
1411994235108 6706 READING 112 0.994940
1411994235239 6706 READING 107 0.993838
1411994235379 6706 READING 103 0.982706
1411994235594 6706 READING 118 0.995823
1411994235744 6706 READING 114 0.994682
1411994235886 6706 READING 109 0.993615
1411994236016 6706 READING 105 0.994284
1411994236137 6706 READING 101 0.993139
1411994236249 6706 READING 97 0.993442
1411994236386 6706 READING 94 0.990377
1411994236488 6706 READING 90 0.991655
1411994236593 6706 READING 87 0.991285
1411994236693 6706 READING 85 0.990493
1411994236789 6706 READING 81 0.990236
1411994236882 6706 READING 78 0.988395
1411994236996 6706 READING 89 0.991546
1411994237102 6706 READING 86 0.991534
1411994237202 6706 READING 83 0.991380
1411994237305 6706 READING 81 0.991794
1411994237421 6706 READING 78 0.992959
1411994237538 6706 READING 75 0.991983
1411994237643 6706 READING 72 0.990924
1411994237749 6706 READING 71 0.990184
1411994237829 6706 READING 68 0.985581
1411994237919 6706 READING 78 0.989345
1411994238033 6706 READING 89 0.991331
1411994238171 6706 READING 101 0.993153
1411994238330 6706 READING 97 0.994370
1411994238479 6706 READING 94 0.994894
1411994238633 6706 READING 90 0.924744
1411994238741 6705 READING 1698 0.970673
1411994238770 6706 FUNCTION lru lambda h: 0.956208 * (h ** 0.00788449)
1411994238770 6705 FUNCTION lru lambda h: 0.0129646 * (h ** 0.581076)
1411994238770 6706 RECOMMEND 3047
1411994238770 6705 RECOMMEND 3047
1411994238832 6706 READING 104 0.994640
1411994239015 6706 READING 121 0.994205
1411994239217 6706 READING 142 0.994901
1411994239445 6706 READING 164 0.995465
1411994239690 6706 READING 189 0.995803
1411994239939 6706 READING 218 0.996122
1411994240211 6706 READING 209 0.997118
1411994240493 6706 READING 200 0.996257
1411994240764 6706 READING 191 0.996575
1411994241115 6706 READING 183 0.997497
1411994241387 6706 READING 176 0.996715
1411994241618 6706 READING 168 0.995935
1411994241872 6706 READING 161 0.996369
1411994242142 6706 READING 154 0.997106
1411994242400 6706 READING 148 0.996651
1411994242617 6706 READING 142 0.996466
1411994242829 6706 READING 136 0.995630
1411994243018 6706 READING 130 0.995621
1411994243229 6706 READING 125 0.990972
1411994243240 6705 READING 1710 0.962763
1411994243391 6706 READING 120 0.994769
1411994243516 6706 READING 116 0.992856
1411994243636 6706 READING 111 0.992798
1411994243756 6706 READING 107 0.991955
1411994243870 6706 READING 102 0.992783
1411994243986 6706 READING 99 0.993514
1411994244118 6706 READING 95 0.993863
1411994244242 6706 READING 92 0.993254
1411994244364 6706 READING 88 0.993082
1411994244482 6706 READING 85 0.991713
1411994244598 6706 READING 82 0.992315
1411994244710 6706 READING 79 0.993080
1411994244800 6706 READING 76 0.990963
1411994244886 6706 READING 74 0.989712
1411994244975 6706 READING 72 0.986978
1411994245110 6706 READING 81 0.994266
1411994245233 6706 READING 78 0.993950
1411994245328 6706 READING 76 0.991205
1411994245410 6706 READING 73 0.989142
1411994245496 6706 READING 71 0.990046
1411994245594 6706 READING 80 0.991395
1411994245703 6706 READING 91 0.992262
1411994245803 6706 READING 88 0.992531
1411994245909 6706 READING 85 0.914578
1411994246028 6706 READING 81 0.988670
1411994246112 6706 READING 78 0.986791
1411994246226 6706 READING 89 0.992074
1411994246360 6706 READING 104 0.993098
1411994246486 6706 READING 99 0.994031
1411994246612 6706 READING 96 0.993130
1411994246735 6706 READING 92 0.993645
1411994246846 6706 READING 89 0.993076
1411994246963 6706 READING 86 0.993418
1411994247094 6706 READING 84 0.994036
1411994247225 6706 READING 80 0.992911
1411994247340 6706 READING 77 0.993237
1411994247453 6706 READING 75 0.992024
1411994247542 6706 READING 72 0.989464
1411994247624 6706 READING 70 0.989309
1411994247710 6706 READING 68 0.989562
1411994247796 6706 READING 66 0.980325
1411994247917 6705 READING 1700 0.960776
1411994247947 6706 READING 75 0.994511
1411994248090 6706 READING 86 0.993740
1411994248227 6706 READING 83 0.993886
1411994248355 6706 READING 80 0.992799
1411994248487 6706 READING 77 0.992900
1411994248594 6706 READING 75 0.991133
1411994248702 6706 READING 73 0.989815
1411994248770 6706 FUNCTION lru lambda h: 0.951622 * (h ** 0.00891501)
1411994248770 6705 FUNCTION lru lambda h: 0.0138101 * (h ** 0.572286)
1411994248770 6706 RECOMMEND 3047
1411994248770 6705 RECOMMEND 3047
1411994248798 6706 READING 70 0.990267
1411994248894 6706 READING 69 0.989638
1411994248975 6706 READING 66 0.987853
1411994249096 6706 READING 76 0.923628
1411994249215 6706 READING 86 0.994814
1411994249322 6706 READING 84 0.991180
1411994249426 6706 READING 80 0.990461
1411994249506 6706 READING 78 0.988864
1411994249600 6706 READING 89 0.991331
1411994249718 6706 READING 102 0.993223
1411994249855 6706 READING 98 0.992902
1411994249973 6706 READING 95 0.992061
1411994250083 6706 READING 91 0.992555
1411994250222 6706 READING 88 0.993366
1411994250326 6706 READING 85 0.991000
1411994250414 6706 READING 82 0.989822
1411994250516 6706 READING 79 0.992419
1411994250642 6706 READING 77 0.992860
1411994250771 6706 READING 74 0.993731
1411994250899 6706 READING 72 0.992293
1411994251026 6706 READING 70 0.992774
1411994251125 6706 READING 67 0.990605
1411994251219 6706 READING 66 0.990599
1411994251305 6706 READING 63 0.988455
1411994251385 6706 READING 61 0.987351
1411994251475 6706 READING 70 0.990206
1411994251580 6706 READING 79 0.990708
1411994251712 6706 READING 90 0.993017
1411994251891 6706 READING 103 0.995185
1411994252069 6706 READING 99 0.995585
1411994252245 6706 READING 96 0.994636
1411994252399 6706 READING 92 0.994666
1411994252583 6705 READING 1705 0.965366
1411994252585 6706 READING 89 0.995648
1411994252711 6706 READING 86 0.993647
1411994252848 6706 READING 83 0.993729
1411994252954 6706 READING 79 0.990907
1411994253068 6706 READING 77 0.992242
1411994253181 6706 READING 75 0.992005
1411994253294 6706 READING 72 0.992010
1411994253395 6706 READING 70 0.990633
1411994253472 6706 READING 68 0.989092
1411994253557 6706 READING 66 0.989785
1411994253622 6706 READING 63 0.986177
1411994253690 6706 READING 72 0.984759
1411994253799 6706 READING 82 0.922861
1411994253913 6706 READING 94 0.992044
1411994254038 6706 READING 108 0.991438
1411994254208 6706 READING 123 0.995898
1411994254383 6706 READING 118 0.995779
1411994254561 6706 READING 114 0.994331
1411994254730 6706 READING 109 0.993952
1411994254898 6706 READING 105 0.995436
1411994255038 6706 READING 101 0.994480
1411994255166 6706 READING 98 0.994902
1411994255307 6706 READING 94 0.995249
1411994255477 6706 READING 91 0.995111
1411994255602 6706 READING 87 0.993192
1411994255710 6706 READING 85 0.990087
1411994255820 6706 READING 82 0.991672
1411994255921 6706 READING 79 0.992146
1411994256016 6706 READING 76 0.991867
1411994256105 6706 READING 75 0.987905
1411994256189 6706 READING 71 0.989482
1411994256292 6706 READING 82 0.992383
1411994256388 6706 READING 78 0.986080
1411994256489 6706 READING 90 0.989840
1411994256607 6706 READING 103 0.993169
1411994256746 6706 READING 117 0.993512
1411994256881 6706 READING 113 0.994227
1411994257014 6706 READING 109 0.993908
1411994257147 6706 READING 105 0.985691
1411994257312 6705 READING 1717 0.963537
1411994257324 6706 READING 101 0.995103
1411994257477 6706 READING 97 0.994142
1411994257616 6706 READING 94 0.993467
1411994257745 6706 READING 90 0.992534
1411994257846 6706 READING 87 0.992413
1411994257944 6706 READING 84 0.991903
1411994258041 6706 READING 81 0.991955
1411994258145 6706 READING 79 0.991699
1411994258261 6706 READING 76 0.992436
1411994258370 6706 READING 73 0.990906
1411994258468 6706 READING 72 0.989339
1411994258573 6706 READING 69 0.990069
1411994258674 6706 READING 67 0.990493
1411994258755 6706 READING 65 0.988774
1411994258770 6706 FUNCTION lru lambda h: 0.958768 * (h ** 0.00745699)
1411994258770 6705 FUNCTION lru lambda h: 0.0567114 * (h ** 0.377645)
1411994258770 6706 RECOMMEND 3047
1411994258770 6705 RECOMMEND 3047
1411994258854 6706 READING 74 0.989476
1411994258966 6706 READING 84 0.990805
1411994259088 6706 READING 95 0.992324
1411994259218 6706 READING 92 0.933186
1411994259331 6706 READING 89 0.992740
1411994259439 6706 READING 86 0.991172
1411994259528 6706 READING 84 0.988855
1411994259607 6706 READING 80 0.988508
1411994259693 6706 READING 91 0.990849
1411994259801 6706 READING 104 0.991388
1411994259965 6706 READING 120 0.994382
1411994260082 6706 READING 115 0.993734
1411994260238 6706 READING 111 0.993552
1411994260365 6706 READING 106 0.991527
1411994260473 6706 READING 103 0.990702
1411994260618 6706 READING 99 0.994275
1411994260777 6706 READING 95 0.994532
1411994260945 6706 READING 91 0.994378
1411994261078 6706 READING 89 0.993360
1411994261195 6706 READING 86 0.993459
1411994261306 6706 READING 83 0.992483
1411994261401 6706 READING 80 0.991230
1411994261495 6706 READING 78 0.989911
1411994261590 6706 READING 75 0.990504
1411994261694 6706 READING 73 0.991378
1411994261805 6706 READING 70 0.937874
1411994261968 6705 READING 1721 0.961571
1411994261977 6706 READING 81 0.994729
1411994262133 6706 READING 93 0.994325
1411994262308 6706 READING 108 0.995257
1411994262497 6706 READING 124 0.995478
1411994262721 6706 READING 143 0.995752
1411994262914 6706 READING 137 0.995553
1411994263122 6706 READING 132 0.995465
1411994263286 6706 READING 127 0.995064
1411994263417 6706 READING 122 0.992988
1411994263541 6706 READING 117 0.993134
1411994263663 6706 READING 113 0.991777
1411994263786 6706 READING 108 0.993195
1411994263915 6706 READING 105 0.994065
1411994264049 6706 READING 101 0.994642
1411994264183 6706 READING 97 0.993158
1411994264311 6706 READING 93 0.991855
1411994264439 6706 READING 90 0.991916
1411994264563 6706 READING 87 0.992933
1411994264664 6706 READING 84 0.991948
1411994264757 6706 READING 81 0.990699
1411994264852 6706 READING 79 0.991711
1411994264970 6706 READING 76 0.993207
1411994265087 6706 READING 74 0.993119
1411994265175 6706 READING 71 0.990509
1411994265251 6706 READING 69 0.988570
1411994265326 6706 READING 67 0.988236
1411994265415 6706 READING 76 0.991613
1411994265517 6706 READING 86 0.991816
1411994265610 6706 READING 84 0.990982
1411994265697 6706 READING 81 0.990297
1411994265783 6706 READING 78 0.991140
1411994265900 6706 READING 75 0.916107
1411994265997 6706 READING 88 0.989949
1411994266115 6706 READING 100 0.992757
1411994266227 6706 READING 97 0.990621
1411994266333 6706 READING 93 0.992629
1411994266438 6706 READING 90 0.992156
1411994266545 6706 READING 87 0.992476
1411994266698 6706 READING 84 0.993394
1411994266710 6705 READING 1734 0.953378
1411994266796 6706 READING 81 0.991563
1411994266901 6706 READING 80 0.992546
1411994267016 6706 READING 76 0.992930
1411994267123 6706 READING 73 0.990204
1411994267221 6706 READING 72 0.990133
1411994267315 6706 READING 70 0.990453
1411994267393 6706 READING 68 0.989748
1411994267461 6706 READING 66 0.988148
1411994267548 6706 READING 74 0.990647
1411994267631 6706 READING 72 0.990678
1411994267719 6706 READING 70 0.989647
1411994267838 6706 READING 79 0.991503
1411994267954 6706 READING 77 0.991598
1411994268057 6706 READING 74 0.990146
1411994268166 6706 READING 72 0.991319
1411994268270 6706 READING 69 0.990693
1411994268354 6706 READING 67 0.989025
1411994268459 6706 READING 77 0.989918
1411994268578 6706 READING 87 0.990954
1411994268703 6706 READING 101 0.992340
1411994268771 6706 FUNCTION lru lambda h: 0.948993 * (h ** 0.0095044)
1411994268771 6705 FUNCTION lru lambda h: 0.0491936 * (h ** 0.397148)
1411994268771 6706 RECOMMEND 3047
1411994268771 6705 RECOMMEND 3047
1411994268833 6706 READING 97 0.993612
1411994268948 6706 READING 93 0.992731
1411994269059 6706 READING 90 0.992346
1411994269152 6706 READING 88 0.989585
1411994269230 6706 READING 84 0.988164
1411994269324 6706 READING 97 0.991450
1411994269419 6706 READING 93 0.989808
1411994269539 6706 READING 89 0.991029
1411994269625 6706 READING 87 0.988207
1411994269739 6706 READING 99 0.991431
1411994269906 6706 READING 114 0.995275
1411994270010 6706 READING 110 0.989972
1411994270144 6706 READING 106 0.993542
1411994270311 6706 READING 102 0.993573
1411994270484 6706 READING 98 0.993811
1411994270643 6706 READING 95 0.992912
1411994270767 6706 READING 91 0.993762
1411994270886 6706 READING 89 0.991684
1411994270986 6706 READING 85 0.990135
1411994271084 6706 READING 83 0.989512
1411994271185 6706 READING 79 0.990323
1411994271296 6706 READING 78 0.991502
1411994271479 6706 READING 75 0.986794
1411994271487 6705 READING 1745 0.956282
1411994271620 6706 READING 85 0.992778
1411994271753 6706 READING 82 0.993282
1411994271872 6706 READING 80 0.992410
1411994271986 6706 READING 77 0.992408
1411994272085 6706 READING 74 0.989603
1411994272177 6706 READING 72 0.988080
1411994272289 6706 READING 70 0.916374
1411994272372 6706 READING 67 0.985116
1411994272461 6706 READING 78 0.987040
1411994272593 6706 READING 88 0.993033
1411994272746 6706 READING 101 0.994441
1411994272870 6706 READING 97 0.992731
1411994272980 6706 READING 94 0.992052
1411994273065 6706 READING 91 0.990453
1411994273152 6706 READING 88 0.990514
1411994273245 6706 READING 84 0.990802
1411994273320 6706 READING 82 0.988856
1411994273429 6706 READING 93 0.991866
1411994273533 6706 READING 90 0.992934
1411994273647 6706 READING 87 0.993389
1411994273757 6706 READING 84 0.991939
1411994273864 6706 READING 81 0.992694
1411994273967 6706 READING 79 0.991337
1411994274069 6706 READING 76 0.989669
1411994274172 6706 READING 73 0.989546
1411994274260 6706 READING 71 0.986345
1411994274353 6706 READING 81 0.990164
1411994274466 6706 READING 93 0.982754
1411994274641 6706 READING 107 0.995223
1411994274830 6706 READING 123 0.995585
1411994274976 6706 READING 119 0.994006
1411994275119 6706 READING 114 0.993660
1411994275248 6706 READING 110 0.992266
1411994275369 6706 READING 106 0.993314
1411994275512 6706 READING 102 0.992766
1411994275625 6706 READING 99 0.990404
1411994275736 6706 READING 95 0.991310
1411994275841 6706 READING 91 0.990914
1411994275942 6706 READING 88 0.991218
1411994276039 6706 READING 85 0.991168
1411994276141 6706 READING 83 0.990591
1411994276231 6706 READING 80 0.990451
1411994276319 6706 READING 77 0.990185
1411994276408 6706 READING 75 0.990981
1411994276508 6706 READING 72 0.992694
1411994276613 6706 READING 70 0.991632
1411994276711 6706 READING 68 0.990611
1411994276802 6706 READING 66 0.990292
1411994276891 6706 READING 64 0.988687
1411994276967 6706 READING 62 0.982646
1411994277085 6706 READING 71 0.985910
1411994277100 6705 READING 1762 0.954660
1411994277185 6706 READING 81 0.991650
1411994277303 6706 READING 92 0.992808
1411994277465 6706 READING 106 0.994866
1411994277628 6706 READING 102 0.994418
1411994277781 6706 READING 98 0.993976
1411994277934 6706 READING 95 0.993270
1411994278058 6706 READING 91 0.991226
1411994278184 6706 READING 89 0.928602
1411994278306 6706 READING 85 0.992296
1411994278418 6706 READING 83 0.990389
1411994278525 6706 READING 79 0.990404
1411994278624 6706 READING 77 0.991656
1411994278719 6706 READING 74 0.990714
1411994278771 6706 FUNCTION lru lambda h: 0.947526 * (h ** 0.00980321)
1411994278771 6705 FUNCTION lru lambda h: 0.0421346 * (h ** 0.418293)
1411994278771 6706 RECOMMEND 3047
1411994278771 6705 RECOMMEND 3047
1411994278797 6706 READING 72 0.987119
1411994278884 6706 READING 82 0.989857
1411994278980 6706 READING 94 0.991767
1411994279079 6706 READING 91 0.991419
1411994279187 6706 READING 87 0.991133
1411994279300 6706 READING 84 0.992238
1411994279378 6706 READING 82 0.988634
1411994279481 6706 READING 79 0.990949
1411994279595 6706 READING 77 0.991816
1411994279679 6706 READING 74 0.989503
1411994279747 6706 READING 72 0.987235
1411994279842 6706 READING 81 0.990201
1411994279991 6706 READING 94 0.994203
1411994280146 6706 READING 91 0.994551
1411994280309 6706 READING 87 0.993324
1411994280438 6706 READING 84 0.993453
1411994280553 6706 READING 82 0.993205
1411994280663 6706 READING 79 0.991635
1411994280758 6706 READING 76 0.990253
1411994280851 6706 READING 74 0.990616
1411994280941 6706 READING 72 0.988432
1411994281036 6706 READING 70 0.989181
1411994281162 6706 READING 79 0.993977
1411994281281 6706 READING 76 0.992781
1411994281400 6706 READING 74 0.992438
1411994281519 6706 READING 72 0.992117
1411994281625 6706 READING 70 0.992443
1411994281726 6706 READING 68 0.991760
1411994281817 6706 READING 65 0.989426
1411994281891 6706 READING 64 0.989474
1411994281983 6706 READING 62 0.990153
1411994282066 6706 READING 60 0.989305
1411994282149 6706 READING 69 0.987227
1411994282249 6706 READING 78 0.991784
1411994282382 6706 READING 89 0.994150
1411994282515 6706 READING 86 0.992637
1411994282627 6706 READING 82 0.990752
1411994282720 6706 READING 80 0.989021
1411994282800 6706 READING 78 0.989478
1411994282895 6706 READING 89 0.906721
1411994283011 6706 READING 102 0.992541
1411994283113 6706 READING 98 0.989044
1411994283248 6706 READING 114 0.993794
1411994283394 6706 READING 109 0.994560
1411994283537 6706 READING 105 0.993584
1411994283683 6706 READING 101 0.993548
1411994283822 6706 READING 97 0.992622
1411994283960 6706 READING 94 0.993619
1411994284088 6706 READING 91 0.993566
1411994284196 6706 READING 88 0.992540
1411994284300 6706 READING 85 0.993043
1411994284419 6706 READING 82 0.993899
1411994284559 6706 READING 80 0.993859
1411994284661 6706 READING 77 0.991753
1411994284749 6706 READING 75 0.990438
1411994284834 6706 READING 72 0.990678
1411994284919 6706 READING 70 0.991197
1411994284996 6706 READING 68 0.990654
1411994285070 6706 READING 66 0.988624
1411994285140 6706 READING 64 0.987408
1411994285220 6706 READING 73 0.991099
1411994285315 6706 READING 83 0.991756
1411994285449 6706 READING 95 0.990646
1411994285579 6706 READING 109 0.993369
1411994285705 6706 READING 105 0.993039
1411994285830 6706 READING 101 0.992824
1411994285947 6706 READING 98 0.992472
1411994286066 6706 READING 94 0.993711
1411994286173 6706 READING 91 0.992771
1411994286283 6706 READING 88 0.992538
1411994286401 6706 READING 85 0.992891
1411994286529 6706 READING 82 0.993304
1411994286646 6706 READING 79 0.991620
1411994286760 6706 READING 77 0.991401
1411994286851 6706 READING 74 0.988868
1411994286933 6706 READING 72 0.989216
1411994287015 6706 READING 70 0.988746
1411994287093 6706 READING 68 0.988310
1411994287192 6706 READING 78 0.990633
1411994287328 6706 READING 88 0.992861
1411994287465 6706 READING 85 0.992435
1411994287584 6706 READING 82 0.992428
1411994287715 6706 READING 80 0.992090
1411994287829 6706 READING 77 0.992175
1411994287927 6706 READING 75 0.988674
1411994288020 6706 READING 72 0.990792
1411994288120 6706 READING 70 0.990214
1411994288199 6706 READING 68 0.989157
1411994288297 6706 READING 78 0.989522
1411994288417 6706 READING 88 0.991130
1411994288541 6706 READING 101 0.991653
1411994288668 6706 READING 97 0.924299
1411994288759 6706 READING 93 0.989453
1411994288771 6706 FUNCTION lru lambda h: 0.950479 * (h ** 0.00910477)
1411994288771 6705 FUNCTION lru lambda h: 0.0421346 * (h ** 0.418293)
1411994288771 6706 RECOMMEND 3047
1411994288771 6705 RECOMMEND 3047
1411994288845 6706 READING 91 0.989310
1411994288932 6706 READING 88 0.989858
1411994289056 6706 READING 100 0.992121
1411994289162 6706 READING 97 0.990188
1411994289264 6706 READING 93 0.991816
1411994289389 6706 READING 90 0.992282
1411994289486 6706 READING 87 0.990191
1411994289564 6706 READING 85 0.987532
1411994289683 6706 READING 96 0.993672
1411994289831 6706 READING 93 0.993315
1411994289979 6706 READING 89 0.993567
1411994290129 6706 READING 87 0.993225
1411994290241 6706 READING 83 0.991727
1411994290347 6706 READING 82 0.992010
1411994290450 6706 READING 79 0.993228
1411994290538 6706 READING 76 0.989861
1411994290621 6706 READING 73 0.990582
1411994290708 6706 READING 72 0.989363
1411994290802 6706 READING 70 0.990533
1411994290900 6706 READING 68 0.991360
1411994290992 6706 READING 66 0.990941
1411994291085 6706 READING 63 0.989585
1411994291178 6706 READING 62 0.990870
1411994291265 6706 READING 61 0.990251
1411994291343 6706 READING 59 0.990077
1411994291421 6706 READING 57 0.991325
1411994291488 6706 READING 56 0.988268
1411994291564 6706 READING 64 0.987436
1411994291664 6706 READING 71 0.990966
1411994291777 6706 READING 82 0.991974
1411994291865 6706 READING 79 0.986787
1411994291996 6706 READING 91 0.993496
1411994292123 6706 READING 88 0.993490
1411994292241 6706 READING 85 0.992554
1411994292327 6706 READING 81 0.991029
1411994292416 6706 READING 80 0.989554
1411994292482 6706 READING 76 0.987771
1411994292568 6706 READING 88 0.989981
1411994292680 6706 READING 100 0.991770
1411994292801 6706 READING 115 0.991726
1411994292928 6706 READING 111 0.993939
1411994293071 6706 READING 107 0.994973
1411994293208 6706 READING 103 0.992434
1411994293342 6706 READING 99 0.994532
1411994293473 6706 READING 95 0.991725
1411994293604 6706 READING 92 0.992167
1411994293712 6706 READING 89 0.992188
1411994293808 6706 READING 86 0.991443
1411994293910 6706 READING 83 0.992602
1411994294039 6706 READING 81 0.993703
1411994294155 6706 READING 78 0.993667
1411994294244 6706 READING 76 0.991134
1411994294321 6706 READING 73 0.989251
1411994294402 6706 READING 71 0.990158
1411994294482 6706 READING 69 0.989628
1411994294554 6706 READING 67 0.989479
1411994294634 6706 READING 76 0.987954
1411994294727 6706 READING 87 0.990994
1411994294843 6706 READING 99 0.993878
1411994294978 6706 READING 95 0.928004
1411994295116 6706 READING 111 0.993379
1411994295248 6706 READING 107 0.992280
1411994295375 6706 READING 103 0.993787
1411994295498 6706 READING 99 0.993948
1411994295619 6706 READING 96 0.993127
1411994295730 6706 READING 93 0.992882
1411994295845 6706 READING 90 0.992538
1411994295971 6706 READING 88 0.993870
1411994296104 6706 READING 84 0.993427
1411994296221 6706 READING 81 0.991553
1411994296337 6706 READING 79 0.991603
1411994296424 6706 READING 76 0.990292
1411994296507 6706 READING 74 0.990101
1411994296591 6706 READING 72 0.990633
1411994296673 6706 READING 70 0.988876
1411994296759 6706 READING 68 0.989489
1411994296850 6706 READING 66 0.991839
1411994296945 6706 READING 64 0.990565
1411994297030 6706 READING 62 0.991892
1411994297109 6706 READING 61 0.983911
1411994297213 6706 READING 69 0.983361
1411994297340 6706 READING 78 0.993050
1411994297461 6706 READING 89 0.991843
1411994297607 6706 READING 103 0.993360
1411994297745 6706 READING 99 0.994198
1411994297873 6706 READING 95 0.992544
1411994297998 6706 READING 92 0.992187
1411994298103 6706 READING 90 0.990617
1411994298210 6706 READING 86 0.992156
1411994298291 6706 READING 83 0.989788
1411994298367 6706 READING 81 0.988521
1411994298446 6706 READING 78 0.988587
1411994298540 6706 READING 89 0.989539
1411994298681 6706 READING 101 0.992229
1411994298771 6706 FUNCTION lru lambda h: 0.95858 * (h ** 0.00744056)
1411994298771 6705 FUNCTION lru lambda h: 0.0421346 * (h ** 0.418293)
1411994298771 6706 RECOMMEND 3047
1411994298771 6705 RECOMMEND 3047
1411994298783 6706 READING 98 0.989626
1411994298907 6706 READING 94 0.992033
1411994299042 6706 READING 92 0.993824
1411994299127 6706 READING 88 0.988307
1411994299221 6706 READING 85 0.989865
1411994299335 6706 READING 84 0.992108
1411994299465 6706 READING 81 0.992289
1411994299594 6706 READING 78 0.992207
1411994299730 6706 READING 76 0.992042
1411994299838 6706 READING 73 0.990203
1411994299930 6706 READING 72 0.990539
1411994300020 6706 READING 70 0.989880
1411994300102 6706 READING 67 0.988083
1411994300196 6706 READING 78 0.989074
1411994300304 6706 READING 88 0.990698
1411994300443 6706 READING 100 0.992970
1411994300599 6706 READING 97 0.994214
1411994300750 6706 READING 93 0.994655
1411994300902 6706 READING 90 0.993029
1411994301037 6706 READING 87 0.993267
1411994301163 6706 READING 84 0.992847
1411994301271 6706 READING 81 0.989841
1411994301389 6706 READING 79 0.991434
1411994301503 6706 READING 77 0.916878
1411994301588 6706 READING 73 0.989402
1411994301689 6706 READING 72 0.989985
1411994301786 6706 READING 69 0.988256
1411994301907 6706 READING 80 0.991301
1411994302013 6706 READING 76 0.991524
1411994302093 6706 READING 75 0.988307
1411994302192 6706 READING 84 0.990645
1411994302270 6706 READING 81 0.988144
1411994302371 6706 READING 93 0.991211
1411994302492 6706 READING 106 0.991120
1411994302610 6706 READING 102 0.992740
1411994302729 6706 READING 100 0.993035
1411994302861 6706 READING 96 0.994462
1411994302988 6706 READING 92 0.993793
1411994303114 6706 READING 89 0.993635
1411994303234 6706 READING 86 0.992322
1411994303353 6706 READING 83 0.991307
1411994303470 6706 READING 80 0.991049
1411994303566 6706 READING 78 0.989972
1411994303653 6706 READING 76 0.989969
1411994303742 6706 READING 73 0.989404
1411994303842 6706 READING 71 0.992921
1411994303960 6706 READING 69 0.992125
1411994304057 6706 READING 67 0.990204
1411994304135 6706 READING 65 0.987000
1411994304220 6706 READING 74 0.988792
1411994304328 6706 READING 84 0.991891
1411994304428 6706 READING 82 0.990965
1411994304522 6706 READING 79 0.991289
1411994304610 6706 READING 77 0.989099
1411994304693 6706 READING 74 0.989008
1411994304798 6706 READING 85 0.991705
1411994304902 6706 READING 81 0.987646
1411994305010 6706 READING 94 0.989403
1411994305143 6706 READING 107 0.993352
1411994305271 6706 READING 103 0.992945
1411994305391 6706 READING 99 0.993570
1411994305518 6706 READING 96 0.993183
1411994305631 6706 READING 92 0.992056
1411994305744 6706 READING 89 0.991754
1411994305866 6706 READING 86 0.991407
1411994305998 6706 READING 83 0.993178
1411994306126 6706 READING 81 0.993553
1411994306245 6706 READING 78 0.991960
1411994306343 6706 READING 75 0.989847
1411994306435 6706 READING 74 0.977764
1411994306606 6705 READING 1777 0.993927
1411994306628 6706 READING 84 0.995861
1411994306754 6706 READING 96 0.992305
1411994306894 6706 READING 92 0.993130
1411994307049 6706 READING 89 0.993355
1411994307186 6706 READING 86 0.992833
1411994307332 6706 READING 84 0.937386
1411994307462 6706 READING 80 0.994616
1411994307567 6706 READING 79 0.989638
1411994307672 6706 READING 75 0.991625
1411994307771 6706 READING 74 0.990817
1411994307858 6706 READING 71 0.989528
1411994307962 6706 READING 70 0.978608
1411994308016 6705 READING 1805 0.896815
1411994308090 6706 READING 78 0.993074
1411994308209 6706 READING 90 0.992559
1411994308337 6706 READING 102 0.993440
1411994308445 6706 READING 100 0.989996
1411994308537 6706 READING 95 0.987292
1411994308652 6705 READING 1812 0.742566
1411994308701 6706 READING 110 0.993918
1411994308772 6706 FUNCTION lru lambda h: 0.954476 * (h ** 0.00830627)
1411994308772 6705 FUNCTION lru lambda h: 0.0354389 * (h ** 0.441358)
1411994308772 6706 RECOMMEND 3047
1411994308772 6705 RECOMMEND 3047
1411994308828 6706 READING 105 0.992834
1411994308946 6706 READING 102 0.993336
1411994309072 6706 READING 98 0.992775
1411994309219 6706 READING 94 0.986644
1411994309272 6705 READING 1844 0.764586
1411994309339 6706 READING 91 0.991740
1411994309435 6706 READING 89 0.989566
1411994309557 6706 READING 86 0.991447
1411994309696 6706 READING 83 0.993447
1411994309842 6706 READING 80 0.990388
1411994309896 6705 READING 1864 0.807277
1411994309945 6705 DEATH 219
1411994310007 6706 READING 78 0.994666
1411994310112 6706 READING 75 0.991735
1411994310208 6706 READING 74 0.991325
1411994310299 6706 READING 71 0.991021
1411994310378 6706 READING 69 0.987274
1411994310455 6706 READING 67 0.986544
1411994310546 6706 READING 76 0.990889
1411994310669 6706 READING 87 0.991838
1411994310806 6706 READING 85 0.994904
1411994310932 6706 READING 82 0.991320
1411994311060 6706 READING 80 0.994625
1411994311186 6706 READING 77 0.991074
1411994311294 6706 READING 74 0.987694
1411994311399 6706 READING 72 0.991594
1411994311492 6706 READING 70 0.990674
1411994311579 6706 READING 68 0.985617
1411994311697 6706 READING 78 0.992434
1411994311788 6706 READING 75 0.990739
1411994311875 6706 READING 73 0.988938
1411994311994 6706 READING 83 0.992221
1411994312111 6706 READING 81 0.990295
1411994312216 6706 READING 78 0.993274
1411994312303 6706 READING 76 0.991372
1411994312384 6706 READING 73 0.988248
1411994312447 6706 READING 71 0.985057
1411994312518 6706 READING 81 0.987614
1411994312635 6706 READING 93 0.891025
1411994312742 6706 READING 107 0.990842
1411994312887 6706 READING 123 0.993330
1411994313078 6706 READING 141 0.996199
1411994313269 6706 READING 136 0.994955
1411994313458 6706 READING 130 0.994663
1411994313643 6706 READING 126 0.995151
1411994313795 6706 READING 121 0.995122
1411994313944 6706 READING 117 0.995176
1411994314146 6706 READING 112 0.995604
1411994314287 6706 READING 109 0.992177
1411994314412 6706 READING 104 0.991770
1411994314534 6706 READING 101 0.991624
1411994314643 6706 READING 97 0.993068
1411994314745 6706 READING 94 0.990930
1411994314844 6706 READING 91 0.992493
1411994314903 6706 DEATH 1271
