1413648768406 0 TOTAL_MEM 6265
1413648788433 13899 CREATION
1413648788433 13899 READING 9 0.988405
1413648788433 13899 MINHEAP 2
1413648788433 13899 MINHEAP 30
1413648788456 13898 CREATION
1413648788456 13898 READING 9 0.986587
1413648788456 13898 MINHEAP 2
1413648788456 13898 MINHEAP 1223
1413648788470 13899 READING 9 0.984380
1413648788509 13898 READING 9 0.973956
1413648788525 13899 READING 11 0.983512
1413648788528 13899 READING 11 0.964811
1413648788531 13899 READING 15 0.946672
1413648788534 13899 READING 15 0.907487
1413648788537 13899 READING 24 0.880019
1413648788541 13899 READING 24 0.843415
1413648788547 13899 READING 40 0.884364
1413648788553 13899 READING 40 0.898671
1413648788562 13899 READING 60 0.932856
1413648788567 13898 READING 11 0.971427
1413648788572 13899 READING 60 0.943108
1413648788588 13899 READING 91 0.956341
1413648788602 13899 READING 91 0.904814
1413648788620 13899 READING 140 0.944603
1413648788684 13898 READING 11 0.976646
1413648788882 13898 READING 15 0.920228
1413648788967 13898 READING 19 0.904801
1413648789129 13898 READING 24 0.858337
1413648789334 13898 READING 29 0.768954
1413648789599 13898 READING 30 0.721432
1413648789733 13898 READING 40 0.469158
1413648789812 13898 READING 45 0.029976
1413648789823 13899 READING 140 0.948948
1413648789925 13898 READING 46 0.892767
1413648790283 13898 READING 51 0.511476
1413648790591 13898 READING 66 0.224771
1413648790699 13898 READING 89 0.413049
1413648790768 13898 READING 91 0.451151
1413648790873 13898 READING 93 0.794902
1413648790936 13899 READING 223 0.873879
1413648791000 13898 READING 95 0.748959
1413648791113 13898 READING 100 0.711081
1413648791624 13898 READING 103 0.434800
1413648791825 13898 READING 134 0.735290
1413648791940 13898 READING 136 0.685750
1413648792053 13898 READING 140 0.666011
1413648792069 13899 READING 233 0.935763
1413648792172 13898 READING 145 0.580799
1413648792289 13898 READING 150 0.558830
1413648792403 13898 READING 157 0.594915
1413648792493 13898 READING 164 0.577180
1413648793071 13899 READING 236 0.969954
1413648793397 13898 READING 169 0.348922
1413648793529 13898 READING 213 0.575017
1413648793625 13898 READING 214 0.618325
1413648793745 13898 READING 217 0.646060
1413648793846 13898 READING 218 0.637611
1413648793970 13898 READING 222 0.627645
1413648794428 13899 READING 270 0.987550
1413648794728 13898 READING 227 0.337439
1413648794990 13898 READING 268 0.647950
1413648795131 13898 READING 274 0.654594
1413648795304 13898 READING 275 0.588524
1413648795425 13898 READING 279 0.576683
1413648795468 13899 READING 274 0.946595
1413648795609 13898 READING 284 0.502334
1413648796518 13899 READING 320 0.982074
1413648796575 13898 READING 289 0.332752
1413648796779 13898 READING 334 0.568596
1413648796901 13898 READING 337 0.580237
1413648797045 13898 READING 338 0.572849
1413648797170 13898 READING 339 0.571680
1413648797301 13898 READING 345 0.596233
1413648797898 13899 READING 324 0.983651
1413648798064 13898 READING 348 0.332107
1413648798277 13898 READING 395 0.472139
1413648798406 13899 FUNCTION lru lambda h: 0.91788 * (h ** 0.00571412)
1413648798406 13898 FUNCTION lru lambda h: 0.819927 * (h ** 0.001)
1413648798407 13899 RECOMMEND 5042
1413648798407 13898 RECOMMEND 1223
1413648798446 13898 READING 398 0.496678
1413648798595 13898 READING 401 0.519092
1413648798740 13898 READING 404 0.572855
1413648798899 13898 READING 409 0.560100
1413648798991 13899 READING 356 0.899599
1413648799073 13898 READING 412 0.546604
1413648800103 13898 READING 416 0.302419
1413648800149 13899 READING 357 0.971260
1413648800284 13898 READING 466 0.502697
1413648800429 13898 READING 475 0.573069
1413648800592 13898 READING 477 0.555341
1413648800756 13898 READING 483 0.532456
1413648800989 13898 READING 487 0.455631
1413648801555 13899 READING 385 0.954396
1413648802189 13898 READING 493 0.263466
1413648802414 13898 READING 547 0.467525
1413648802633 13898 READING 555 0.471613
1413648802761 13899 READING 395 0.955397
1413648802842 13898 READING 557 0.467500
1413648803046 13898 READING 560 0.504507
1413648803261 13898 READING 567 0.498999
1413648804420 13898 READING 574 0.281892
1413648804509 13899 READING 419 0.938652
1413648804665 13898 READING 635 0.464015
1413648804861 13898 READING 646 0.517498
1413648805071 13898 READING 647 0.537850
1413648805271 13898 READING 653 0.562022
1413648805710 13899 READING 420 0.988253
1413648807351 13899 READING 449 0.988721
1413648807565 13898 READING 655 0.391393
1413648808264 13898 READING 718 0.808607
1413648808408 13899 FUNCTION lru lambda h: 0.91231 * (h ** 0.0073773)
1413648808408 13898 FUNCTION lru lambda h: 0.816336 * (h ** 0.001)
1413648808408 13899 RECOMMEND 5042
1413648808408 13898 RECOMMEND 1223
1413648808518 13899 READING 450 0.988311
1413648808991 13898 READING 726 0.824090
1413648809241 13898 READING 732 0.720935
1413648809504 13898 READING 739 0.683419
1413648809664 13898 READING 747 0.615208
1413648810461 13899 READING 478 0.987932
1413648811590 13898 READING 747 0.392171
1413648811780 13899 READING 479 0.982992
1413648811817 13898 READING 800 0.435813
1413648812390 13898 READING 808 0.733510
1413648812573 13898 READING 803 0.683243
1413648812751 13898 READING 807 0.651222
1413648813591 13899 READING 507 0.983613
1413648814428 13898 READING 810 0.369859
1413648814761 13898 READING 887 0.669381
1413648814999 13899 READING 508 0.987254
1413648815075 13898 READING 893 0.752034
1413648815441 13898 READING 895 0.817675
1413648815664 13898 READING 902 0.821294
1413648816704 13899 READING 533 0.979936
1413648817372 13898 READING 903 0.485526
1413648817681 13898 READING 990 0.762395
1413648817909 13898 READING 994 0.790917
1413648818139 13898 READING 990 0.828457
1413648818156 13899 READING 536 0.986419
1413648818382 13898 READING 994 0.832375
1413648818408 13899 FUNCTION lru lambda h: 0.896477 * (h ** 0.0121431)
1413648818409 13898 FUNCTION lru lambda h: 0.622329 * (h ** 0.001)
1413648818409 13899 RECOMMEND 5042
1413648818409 13898 RECOMMEND 1223
1413648818626 13898 READING 985 0.848275
1413648818858 13898 READING 990 0.852606
1413648819107 13898 READING 979 0.857482
1413648819365 13898 READING 985 0.857401
1413648819639 13898 READING 977 0.854559
1413648819864 13899 READING 563 0.987240
1413648821246 13898 READING 982 0.957351
1413648821566 13899 READING 569 0.991639
1413648821862 13898 READING 971 0.927039
1413648822113 13898 READING 883 0.885708
1413648822337 13898 READING 959 0.867185
1413648822567 13898 READING 967 0.846952
1413648822821 13898 READING 954 0.817450
1413648823060 13898 READING 960 0.819805
1413648823142 13899 READING 594 0.992890
1413648823307 13898 READING 951 0.831064
1413648823567 13898 READING 957 0.819927
1413648823985 13898 READING 952 0.867088
1413648824386 13898 READING 957 0.876345
1413648824636 13898 READING 962 0.834389
1413648824870 13898 READING 964 0.761978
1413648824991 13899 READING 599 0.989860
1413648825097 13898 READING 969 0.711276
1413648825323 13898 READING 985 0.672083
1413648827212 13899 READING 622 0.991313
1413648827339 13898 READING 1000 0.688774
1413648827597 13898 READING 1105 0.620051
1413648827805 13898 READING 1100 0.677749
1413648828017 13898 READING 1107 0.711786
1413648828261 13898 READING 1105 0.716116
1413648828409 13899 FUNCTION lru lambda h: 0.888816 * (h ** 0.0143366)
1413648828409 13898 FUNCTION lru lambda h: 0.229673 * (h ** 0.154083)
1413648828410 13899 RECOMMEND 533
1413648828410 13898 RECOMMEND 5732
1413648828507 13898 READING 1110 0.710882
1413648828813 13898 READING 1118 0.680175
1413648828862 13899 READING 624 0.992144
1413648830814 13898 READING 1121 0.920904
1413648830818 13899 READING 579 0.989293
1413648832498 13899 READING 564 0.989408
1413648833913 13898 READING 1134 0.949603
1413648834245 13899 READING 532 0.988644
1413648836254 13899 READING 566 0.988882
1413648837079 13898 READING 1138 0.965033
1413648837741 13899 READING 533 0.986740
1413648838410 13899 FUNCTION lru lambda h: 0.884311 * (h ** 0.0156522)
1413648838410 13898 FUNCTION lru lambda h: 0.220223 * (h ** 0.163295)
1413648838411 13899 RECOMMEND 548
1413648838411 13898 RECOMMEND 5717
1413648839500 13899 READING 555 0.986964
1413648840207 13898 READING 1153 0.971870
1413648841145 13899 READING 544 0.990162
1413648842856 13899 READING 572 0.987978
1413648844223 13898 READING 1156 0.895443
1413648844868 13899 READING 546 0.989929
1413648846357 13899 READING 567 0.991190
1413648847508 13898 READING 1244 0.984189
1413648848045 13899 READING 526 0.988843
1413648848412 13899 FUNCTION lru lambda h: 0.881127 * (h ** 0.0166059)
1413648848412 13898 FUNCTION lru lambda h: 0.230973 * (h ** 0.158018)
1413648848412 13899 RECOMMEND 596
1413648848413 13898 RECOMMEND 5669
1413648849606 13899 READING 555 0.991354
1413648850746 13898 READING 1246 0.988220
1413648851353 13899 READING 566 0.987607
1413648853296 13899 READING 566 0.988595
1413648854248 13898 READING 1261 0.988651
1413648854890 13899 READING 587 0.991521
1413648856697 13899 READING 589 0.989190
1413648857784 13898 READING 1267 0.988279
1413648858413 13899 FUNCTION lru lambda h: 0.880119 * (h ** 0.0168967)
1413648858413 13898 FUNCTION lru lambda h: 0.164846 * (h ** 0.211667)
1413648858413 13899 RECOMMEND 463
1413648858413 13898 RECOMMEND 5802
1413648858776 13899 READING 608 0.990676
1413648860292 13899 READING 562 0.992384
1413648861167 13898 READING 1271 0.987442
1413648862045 13899 READING 533 0.990173
1413648863610 13899 READING 518 0.992608
1413648864701 13898 READING 1273 0.983068
1413648865163 13899 READING 488 0.989479
1413648866601 13899 READING 480 0.992646
1413648867970 13899 READING 450 0.988239
1413648868414 13899 FUNCTION lru lambda h: 0.878114 * (h ** 0.0175291)
1413648868414 13898 FUNCTION lru lambda h: 0.135787 * (h ** 0.242342)
1413648868415 13899 RECOMMEND 423
1413648868415 13898 RECOMMEND 5842
1413648868465 13898 READING 1263 0.983819
1413648869361 13899 READING 479 0.991465
1413648870769 13899 READING 448 0.985902
1413648871877 13898 READING 1158 0.983348
1413648872036 13899 READING 443 0.990085
1413648873329 13899 READING 414 0.981606
1413648874618 13899 READING 446 0.985972
1413648875442 13898 READING 1251 0.981848
1413648876065 13899 READING 417 0.986013
1413648877256 13899 READING 441 0.988372
1413648878415 13899 FUNCTION lru lambda h: 0.877351 * (h ** 0.0178675)
1413648878415 13898 FUNCTION lru lambda h: 0.0868899 * (h ** 0.31111)
1413648878416 13899 RECOMMEND 340
1413648878416 13898 RECOMMEND 5925
1413648878616 13899 READING 404 0.987985
1413648879141 13898 READING 1178 0.981184
1413648879666 13899 READING 391 0.989970
1413648880686 13899 READING 371 0.991230
1413648881813 13899 READING 358 0.986518
1413648882834 13899 READING 357 0.988658
1413648883009 13898 READING 1246 0.978299
1413648883805 13899 READING 334 0.990171
1413648884847 13899 READING 359 0.982606
1413648885880 13899 READING 345 0.987882
1413648886737 13898 READING 1251 0.977132
1413648886860 13899 READING 327 0.990568
1413648887757 13899 READING 342 0.982734
1413648888416 13899 FUNCTION lru lambda h: 0.877971 * (h ** 0.0180804)
1413648888416 13898 FUNCTION lru lambda h: 0.0769868 * (h ** 0.329712)
1413648888417 13899 RECOMMEND 326
1413648888417 13898 RECOMMEND 5939
1413648888682 13899 READING 323 0.987005
1413648889602 13899 READING 343 0.989174
1413648890578 13898 READING 1253 0.975476
1413648890608 13899 READING 319 0.981320
1413648891486 13899 READING 331 0.983180
1413648892376 13899 READING 308 0.987445
1413648893410 13899 READING 334 0.983549
1413648894193 13899 READING 315 0.986359
1413648894337 13898 READING 1254 0.972986
1413648894949 13899 READING 325 0.988923
1413648896100 13899 READING 335 0.987349
1413648896848 13899 READING 312 0.988293
1413648897636 13899 READING 326 0.989968
1413648898137 13898 READING 1257 0.973660
1413648898417 13899 FUNCTION lru lambda h: 0.87936 * (h ** 0.0180794)
1413648898417 13898 FUNCTION lru lambda h: 0.0515057 * (h ** 0.390852)
1413648898418 13899 RECOMMEND 277
1413648898418 13898 RECOMMEND 5988
1413648898701 13899 READING 301 0.985710
1413648899358 13899 READING 293 0.983459
1413648900159 13899 READING 283 0.987219
1413648900859 13899 READING 277 0.989493
1413648901786 13899 READING 285 0.983863
1413648901918 13898 READING 1262 0.969768
1413648902357 13899 READING 268 0.986351
1413648903094 13899 READING 275 0.989051
1413648903914 13899 READING 287 0.990646
1413648904692 13899 READING 268 0.982354
1413648905419 13899 READING 275 0.981526
1413648905763 13898 READING 1269 0.971551
1413648906078 13899 READING 278 0.980868
1413648906856 13899 READING 266 0.983846
1413648907613 13899 READING 284 0.974577
1413648908342 13899 READING 277 0.977507
1413648908418 13899 FUNCTION lru lambda h: 0.881684 * (h ** 0.0178469)
1413648908418 13898 FUNCTION lru lambda h: 0.0467174 * (h ** 0.405885)
1413648908419 13899 RECOMMEND 264
1413648908419 13898 RECOMMEND 6001
1413648908979 13899 READING 282 0.975764
1413648909568 13898 READING 1274 0.970698
1413648909699 13899 READING 267 0.978299
1413648910532 13899 READING 260 0.986726
1413648911211 13899 READING 276 0.985148
1413648911801 13899 READING 248 0.985859
1413648912430 13899 READING 283 0.984205
1413648913302 13899 READING 248 0.982636
1413648913330 13898 READING 1280 0.970441
1413648913760 13899 READING 277 0.976269
1413648914395 13899 READING 257 0.976769
1413648915018 13899 READING 270 0.969195
1413648915616 13899 READING 249 0.973235
1413648916340 13899 READING 264 0.968954
1413648916824 13899 READING 253 0.968032
1413648917174 13898 READING 1283 0.965462
1413648917452 13899 READING 263 0.973188
1413648917953 13899 READING 261 0.974508
1413648918419 13899 FUNCTION lru lambda h: 0.882185 * (h ** 0.0177821)
1413648918419 13898 FUNCTION lru lambda h: 0.0289645 * (h ** 0.477115)
1413648918420 13899 RECOMMEND 225
1413648918420 13898 RECOMMEND 6040
1413648918802 13899 READING 274 0.970710
1413648919259 13899 READING 257 0.969613
1413648919939 13899 READING 254 0.974557
1413648920508 13899 READING 242 0.971286
1413648921065 13899 READING 242 0.976820
1413648921298 13898 READING 1289 0.968470
1413648921704 13899 READING 222 0.985044
1413648922107 13899 READING 243 0.978212
1413648922614 13899 READING 217 0.983076
1413648923150 13899 READING 239 0.984162
1413648923612 13899 READING 214 0.985536
1413648924141 13899 READING 234 0.982499
1413648924812 13899 READING 208 0.979775
1413648925110 13899 READING 230 0.980013
1413648925243 13898 READING 1290 0.968099
1413648925628 13899 READING 204 0.981196
1413648926051 13899 READING 225 0.983377
1413648926491 13899 READING 224 0.983656
1413648927088 13899 READING 232 0.987294
1413648927807 13899 READING 210 0.983003
1413648928136 13899 READING 228 0.980075
1413648928420 13899 FUNCTION lru lambda h: 0.925887 * (h ** 0.0103731)
1413648928420 13898 FUNCTION lru lambda h: 0.0246118 * (h ** 0.501437)
1413648928421 13899 RECOMMEND 127
1413648928421 13898 RECOMMEND 6138
1413648928694 13899 READING 208 0.985325
1413648929149 13899 READING 207 0.986014
1413648929605 13899 READING 194 0.957937
1413648929605 13898 READING 1297 0.967790
1413648930095 13899 READING 194 0.964045
1413648930648 13899 READING 184 0.964582
1413648930881 13899 READING 185 0.960498
1413648931240 13899 READING 176 0.969057
1413648931686 13899 READING 175 0.978822
1413648931981 13899 READING 166 0.978152
1413648932263 13899 READING 167 0.978365
1413648932594 13899 READING 160 0.975667
1413648932947 13899 READING 162 0.981119
1413648933402 13899 READING 155 0.971608
1413648933680 13898 READING 1298 0.968354
1413648933690 13899 READING 156 0.979140
1413648933791 13899 READING 141 0.968677
1413648934092 13899 READING 154 0.972692
1413648934395 13899 READING 147 0.976295
1413648934615 13899 READING 148 0.973378
1413648934894 13899 READING 145 0.975499
1413648935096 13899 READING 145 0.972300
1413648935318 13899 READING 138 0.972733
1413648935557 13899 READING 141 0.976058
1413648935860 13899 READING 135 0.978262
1413648936242 13899 READING 138 0.959923
1413648936465 13899 READING 135 0.971133
1413648936590 13899 READING 137 0.967700
1413648936711 13899 READING 128 0.955562
1413648936937 13899 READING 133 0.964085
1413648937114 13899 READING 129 0.965307
1413648937363 13899 READING 131 0.971682
1413648937517 13899 READING 125 0.966015
1413648937746 13899 READING 130 0.942166
1413648937790 13898 READING 1304 0.967714
1413648937904 13899 READING 125 0.953151
1413648938092 13899 READING 130 0.849210
1413648938366 13899 READING 121 0.972355
1413648938421 13899 FUNCTION lru lambda h: 0.878159 * (h ** 0.0196934)
1413648938421 13898 FUNCTION lru lambda h: 0.0148797 * (h ** 0.575315)
1413648938422 13899 RECOMMEND 207
1413648938422 13898 RECOMMEND 6058
1413648938559 13899 READING 118 0.948449
1413648938821 13899 READING 120 0.967110
1413648939168 13899 READING 126 0.981664
1413648939354 13899 READING 127 0.983296
1413648939556 13899 READING 132 0.982511
1413648939652 13899 READING 132 0.953769
1413648939923 13899 READING 136 0.960799
1413648940167 13899 READING 138 0.885005
1413648940435 13899 READING 146 0.739830
1413648940725 13899 READING 147 0.862404
1413648941024 13899 READING 154 0.865022
1413648941317 13899 READING 155 0.913488
1413648941677 13899 READING 163 0.950185
1413648941980 13898 READING 1304 0.969674
1413648942176 13899 READING 164 0.975033
1413648942445 13899 READING 168 0.975167
1413648942809 13899 READING 170 0.974527
1413648943225 13899 READING 180 0.977326
1413648943593 13899 READING 181 0.975967
1413648944007 13899 READING 191 0.959060
1413648944420 13899 READING 192 0.932175
1413648945091 13899 READING 202 0.966621
1413648945538 13899 READING 203 0.964060
1413648946064 13899 READING 236 0.937682
1413648946563 13898 READING 1308 0.971282
1413648946569 13899 READING 214 0.966900
1413648947027 13899 READING 225 0.980378
1413648947489 13899 READING 211 0.982857
1413648948156 13899 READING 216 0.984614
1413648948422 13899 FUNCTION lru lambda h: 0.787671 * (h ** 0.0390668)
1413648948422 13898 FUNCTION lru lambda h: 0.0126203 * (h ** 0.599407)
1413648948423 13899 RECOMMEND 383
1413648948423 13898 RECOMMEND 5882
1413648948505 13899 READING 209 0.977958
1413648948833 13899 READING 214 0.972804
1413648949299 13899 READING 217 0.970985
1413648949685 13899 READING 230 0.972200
1413648950128 13899 READING 232 0.972478
1413648950628 13899 READING 244 0.979073
1413648950881 13898 READING 1309 0.970731
1413648951388 13899 READING 245 0.964933
1413648951836 13899 READING 247 0.927341
1413648952430 13899 READING 248 0.942897
1413648953037 13899 READING 264 0.945881
1413648953726 13899 READING 266 0.947538
1413648954509 13899 READING 280 0.979067
1413648955219 13899 READING 281 0.938262
1413648955403 13898 READING 1312 0.971353
1413648955870 13899 READING 299 0.960383
1413648956710 13899 READING 300 0.979038
1413648957422 13899 READING 314 0.981224
1413648958214 13899 READING 317 0.981469
1413648958423 13899 FUNCTION lru lambda h: 0.810662 * (h ** 0.0332858)
1413648958423 13898 FUNCTION lru lambda h: 0.0115724 * (h ** 0.61218)
1413648958424 13899 RECOMMEND 323
1413648958424 13898 RECOMMEND 5942
1413648959074 13899 READING 337 0.984012
1413648959586 13898 READING 1313 0.972020
1413648960012 13899 READING 315 0.979284
1413648960748 13899 READING 326 0.980881
1413648961463 13899 READING 304 0.984037
1413648962491 13899 READING 319 0.981926
1413648963182 13899 READING 319 0.979979
1413648964110 13899 READING 341 0.951466
1413648965293 13899 READING 314 0.957711
1413648966122 13898 READING 1317 0.957857
1413648966321 13899 READING 331 0.968056
1413648967150 13899 READING 316 0.977628
1413648967985 13899 READING 324 0.982768
1413648968424 13899 FUNCTION lru lambda h: 0.834501 * (h ** 0.0276149)
1413648968424 13898 FUNCTION lru lambda h: 0.00875076 * (h ** 0.652698)
1413648968425 13899 RECOMMEND 254
1413648968425 13898 RECOMMEND 6011
1413648968909 13899 READING 299 0.982473
1413648969520 13899 READING 293 0.984124
1413648970263 13899 READING 279 0.987792
1413648970705 13898 READING 1439 0.967814
1413648970965 13899 READING 277 0.986508
1413648971798 13899 READING 264 0.982502
1413648972332 13899 READING 262 0.984089
1413648972971 13899 READING 249 0.986249
1413648973566 13899 READING 264 0.987688
1413648974335 13899 READING 245 0.982345
1413648974814 13899 READING 258 0.957943
1413648974829 13898 READING 1434 0.975196
1413648975428 13899 READING 240 0.972567
1413648976005 13899 READING 251 0.982080
1413648976683 13899 READING 250 0.984814
1413648977509 13899 READING 265 0.980761
1413648978087 13899 READING 258 0.983448
1413648978425 13899 FUNCTION lru lambda h: 0.827453 * (h ** 0.0293286)
1413648978425 13898 FUNCTION lru lambda h: 0.00639737 * (h ** 0.697744)
1413648978427 13899 RECOMMEND 253
1413648978427 13898 RECOMMEND 6012
1413648978701 13899 READING 245 0.984953
1413648979334 13898 READING 1444 0.981430
1413648979346 13899 READING 255 0.986605
1413648980138 13899 READING 239 0.981989
1413648980651 13899 READING 262 0.980784
1413648981290 13899 READING 247 0.985107
1413648981898 13899 READING 255 0.984053
1413648982575 13899 READING 241 0.987366
1413648983336 13899 READING 256 0.980833
1413648983846 13898 READING 1455 0.982464
1413648983888 13899 READING 256 0.982427
1413648984605 13899 READING 243 0.987059
1413648985188 13899 READING 252 0.987825
1413648986042 13899 READING 252 0.983597
1413648986550 13899 READING 267 0.985074
1413648987202 13899 READING 253 0.983406
1413648987794 13899 READING 259 0.985772
1413648988427 13899 FUNCTION lru lambda h: 0.813984 * (h ** 0.0326747)
1413648988427 13898 FUNCTION lru lambda h: 0.00558876 * (h ** 0.717011)
1413648988428 13899 RECOMMEND 273
1413648988428 13898 RECOMMEND 5992
1413648988428 13898 READING 1456 0.982814
1413648988451 13899 READING 246 0.988141
1413648989110 13899 READING 253 0.969218
1413648989632 13899 READING 253 0.972154
1413648990225 13899 READING 272 0.977952
1413648990804 13899 READING 273 0.977513
1413648991576 13899 READING 291 0.975239
1413648992095 13899 READING 283 0.976803
1413648992410 13898 READING 1452 0.979722
1413648992665 13899 READING 271 0.981531
1413648993290 13899 READING 284 0.975266
1413648994089 13899 READING 271 0.975064
1413648994595 13899 READING 291 0.975860
1413648995197 13899 READING 277 0.956601
1413648995773 13899 READING 263 0.972321
1413648996578 13899 READING 277 0.975978
1413648997005 13899 READING 260 0.976767
1413648997609 13899 READING 270 0.983699
1413648998151 13899 READING 270 0.985167
1413648998428 13899 FUNCTION lru lambda h: 0.816346 * (h ** 0.0319311)
1413648998428 13898 FUNCTION lru lambda h: 0.00489818 * (h ** 0.735676)
1413648998429 13899 RECOMMEND 261
1413648998429 13898 RECOMMEND 6004
1413648998951 13899 READING 286 0.981846
1413648999421 13899 READING 269 0.981348
1413648999985 13899 READING 263 0.984389
1413649000503 13899 READING 253 0.987380
1413649001271 13899 READING 264 0.981972
1413649001692 13899 READING 250 0.983331
1413649002262 13899 READING 257 0.985549
1413649002737 13899 READING 257 0.985323
1413649003377 13899 READING 272 0.988272
1413649004042 13899 READING 255 0.975619
1413649004572 13899 READING 262 0.976824
1413649005134 13899 READING 257 0.979183
1413649005648 13899 READING 258 0.973961
1413649006415 13899 READING 263 0.971366
1413649006843 13899 READING 256 0.973805
1413649007405 13899 READING 279 0.975219
1413649008008 13899 READING 268 0.980193
1413649008429 13899 FUNCTION lru lambda h: 0.810372 * (h ** 0.0332698)
1413649008429 13898 FUNCTION lru lambda h: 0.00489818 * (h ** 0.735676)
1413649008430 13899 RECOMMEND 271
1413649008430 13898 RECOMMEND 5994
1413649008787 13899 READING 266 0.987667
1413649009197 13899 READING 284 0.983843
1413649009766 13899 READING 263 0.986174
1413649010282 13899 READING 279 0.986858
1413649010797 13899 READING 256 0.986762
1413649011511 13899 READING 273 0.981757
1413649011869 13899 READING 254 0.980160
1413649012420 13899 READING 267 0.975251
1413649012587 13898 READING 1456 0.991419
1413649012894 13899 READING 266 0.980748
1413649013495 13899 READING 281 0.985156
1413649014192 13899 READING 264 0.980484
1413649014624 13899 READING 275 0.920045
1413649015162 13899 READING 261 0.953274
1413649015641 13899 READING 270 0.941798
1413649016397 13899 READING 269 0.930456
1413649016826 13899 READING 287 0.947822
1413649017427 13899 READING 272 0.968796
1413649017885 13899 READING 267 0.958489
1413649018430 13899 FUNCTION lru lambda h: 0.810267 * (h ** 0.0329225)
1413649018430 13898 FUNCTION lru lambda h: 0.00489321 * (h ** 0.735831)
1413649018431 13899 RECOMMEND 268
1413649018431 13898 RECOMMEND 5997
1413649018609 13899 READING 274 0.973002
1413649019323 13899 READING 258 0.976457
1413649019703 13899 READING 280 0.975607
1413649020237 13899 READING 267 0.981590
1413649020751 13899 READING 285 0.984771
1413649021518 13899 READING 269 0.979293
1413649021913 13899 READING 264 0.944323
1413649022437 13899 READING 269 0.886955
1413649022933 13899 READING 254 0.919363
1413649023398 13899 READING 269 0.906022
1413649024084 13899 READING 244 0.952431
1413649024422 13899 READING 265 0.959857
1413649024950 13899 READING 265 0.969845
1413649025601 13899 READING 281 0.966967
1413649026125 13899 READING 257 0.983647
1413649026780 13899 READING 278 0.984010
1413649027139 13899 READING 254 0.981633
1413649027722 13899 READING 273 0.954850
1413649027877 13898 READING 1443 0.988825
1413649028215 13899 READING 256 0.901788
1413649028431 13899 FUNCTION lru lambda h: 0.805529 * (h ** 0.0336616)
1413649028431 13898 FUNCTION lru lambda h: 0.00438257 * (h ** 0.751514)
1413649028432 13899 RECOMMEND 269
1413649028432 13898 RECOMMEND 5996
1413649028684 13899 READING 267 0.943192
1413649029389 13899 READING 267 0.972075
1413649029813 13899 READING 278 0.974199
1413649030348 13899 READING 270 0.952079
1413649030856 13898 READING 1456 0.983239
1413649030856 13899 READING 269 0.958832
1413649031381 13898 READING 1497 0.970071
1413649031439 13899 READING 272 0.957125
1413649031801 13898 READING 1506 0.938259
1413649032202 13899 READING 254 0.912755
1413649032222 13898 READING 1532 0.892050
1413649032638 13898 READING 1559 0.832354
1413649032647 13899 READING 277 0.936993
1413649033071 13898 READING 1594 0.771627
1413649033400 13899 READING 266 0.962230
1413649033515 13898 READING 1611 0.712754
1413649033938 13899 READING 280 0.963724
1413649034749 13899 READING 256 0.983075
1413649035185 13898 READING 1654 0.864144
1413649035241 13899 READING 274 0.982947
1413649035771 13899 READING 262 0.984216
1413649036334 13899 READING 281 0.984650
1413649036865 13899 READING 268 0.986220
1413649037678 13899 READING 276 0.982193
1413649038107 13899 READING 264 0.980459
1413649038432 13899 FUNCTION lru lambda h: 0.799606 * (h ** 0.0349612)
1413649038432 13898 FUNCTION lru lambda h: 0.003451 * (h ** 0.781554)
1413649038434 13899 RECOMMEND 268
1413649038434 13898 RECOMMEND 5997
1413649038795 13899 READING 283 0.985572
1413649039357 13899 READING 267 0.985528
1413649039999 13899 READING 279 0.987251
1413649040300 13898 READING 1659 0.952775
1413649040825 13899 READING 265 0.982254
1413649041305 13899 READING 284 0.982440
1413649041918 13899 READING 269 0.967966
1413649042482 13899 READING 265 0.977754
1413649043117 13899 READING 273 0.983694
1413649043909 13899 READING 260 0.979059
1413649044364 13899 READING 267 0.966803
1413649044899 13899 READING 267 0.973150
1413649045504 13899 READING 286 0.982634
1413649045777 13898 READING 1648 0.971687
1413649046217 13899 READING 272 0.987193
1413649046502 13899 DEATH 363
1413649048434 13898 FUNCTION lru lambda h: 0.00330118 * (h ** 0.787108)
1413649048434 13898 RECOMMEND 6265
1413649051169 13898 READING 1665 0.978146
1413649056855 13898 READING 1645 0.980914
1413649058434 13898 FUNCTION lru lambda h: 0.00516132 * (h ** 0.723358)
1413649058434 13898 RECOMMEND 6265
1413649062597 13898 READING 1664 0.981900
1413649068434 13898 FUNCTION lru lambda h: 0.00557597 * (h ** 0.712209)
1413649068434 13898 RECOMMEND 6265
1413649069350 13898 READING 1649 0.966964
1413649075322 13898 READING 1638 0.989662
1413649078434 13898 FUNCTION lru lambda h: 0.00634803 * (h ** 0.693508)
1413649078435 13898 RECOMMEND 6265
1413649081255 13898 READING 1636 0.992392
1413649087505 13898 READING 1649 0.993159
1413649088435 13898 FUNCTION lru lambda h: 0.00665517 * (h ** 0.686726)
1413649088435 13898 RECOMMEND 6265
1413649094009 13898 READING 1665 0.993079
1413649098435 13898 FUNCTION lru lambda h: 0.00663541 * (h ** 0.687161)
1413649098435 13898 RECOMMEND 6265
1413649100452 13898 READING 1668 0.992555
1413649107210 13898 READING 1655 0.991982
1413649108435 13898 FUNCTION lru lambda h: 0.012751 * (h ** 0.595244)
1413649108435 13898 RECOMMEND 6265
1413649113785 13898 READING 1463 0.990923
1413649118435 13898 FUNCTION lru lambda h: 0.0140069 * (h ** 0.582144)
1413649118435 13898 RECOMMEND 6265
1413649120467 13898 READING 1635 0.989896
1413649127148 13898 READING 1495 0.988973
1413649128435 13898 FUNCTION lru lambda h: 0.0165416 * (h ** 0.558814)
1413649128435 13898 RECOMMEND 6265
1413649134059 13898 READING 1620 0.988252
1413649138436 13898 FUNCTION lru lambda h: 0.0238739 * (h ** 0.507533)
1413649138436 13898 RECOMMEND 6265
1413649140772 13898 READING 1631 0.987333
1413649147201 13898 READING 1632 0.986033
1413649148436 13898 FUNCTION lru lambda h: 0.0187701 * (h ** 0.540828)
1413649148436 13898 RECOMMEND 6265
1413649153830 13898 READING 1632 0.985103
1413649158436 13898 FUNCTION lru lambda h: 0.0187737 * (h ** 0.5408)
1413649158436 13898 RECOMMEND 6265
1413649160829 13898 READING 1636 0.984675
1413649167644 13898 READING 1643 0.983819
1413649168436 13898 FUNCTION lru lambda h: 0.0180898 * (h ** 0.545846)
1413649168436 13898 RECOMMEND 6265
1413649174283 13898 READING 1648 0.982731
1413649178437 13898 FUNCTION lru lambda h: 0.0180464 * (h ** 0.546192)
1413649178437 13898 RECOMMEND 6265
1413649181077 13898 READING 1659 0.982021
1413649187783 13898 READING 1670 0.981720
1413649188437 13898 FUNCTION lru lambda h: 0.0180333 * (h ** 0.546199)
1413649188437 13898 RECOMMEND 6265
1413649194664 13898 READING 1677 0.981437
1413649198437 13898 FUNCTION lru lambda h: 0.0229112 * (h ** 0.51286)
1413649198437 13898 RECOMMEND 6265
1413649201098 13898 READING 1688 0.980849
1413649208437 13898 FUNCTION lru lambda h: 0.0324909 * (h ** 0.464405)
1413649208437 13898 RECOMMEND 6265
1413649218437 13898 FUNCTION lru lambda h: 0.0324909 * (h ** 0.464405)
1413649218437 13898 RECOMMEND 6265
1413649228438 13898 FUNCTION lru lambda h: 0.0324909 * (h ** 0.464405)
1413649228438 13898 RECOMMEND 6265
1413649229765 13898 READING 1691 0.993550
1413649237238 13898 READING 1676 0.991652
1413649237944 13898 READING 1689 0.983485
1413649238418 13898 READING 1679 0.971178
1413649238438 13898 FUNCTION lru lambda h: 0.0667834 * (h ** 0.364603)
1413649238438 13898 RECOMMEND 6265
1413649238900 13898 READING 1705 0.948941
1413649239398 13898 READING 1744 0.922299
1413649239620 13898 DEATH 201
