MemTotal:       16318588 kB
MemFree:        14086508 kB
Buffers:          615240 kB
Cached:           680192 kB
SwapCached:           16 kB
Active:          1221884 kB
Inactive:         628240 kB
Active(anon):     555476 kB
Inactive(anon):      764 kB
Active(file):     666408 kB
Inactive(file):   627476 kB
Unevictable:           0 kB
Mlocked:               0 kB
SwapTotal:      16728060 kB
SwapFree:       16728044 kB
Dirty:                36 kB
Writeback:             4 kB
AnonPages:        554868 kB
Mapped:            17464 kB
Shmem:              1552 kB
Slab:             249544 kB
SReclaimable:     231728 kB
SUnreclaim:        17816 kB
KernelStack:        1576 kB
PageTables:         4004 kB
NFS_Unstable:          0 kB
Bounce:                0 kB
WritebackTmp:          0 kB
CommitLimit:    24887352 kB
Committed_AS:     726324 kB
VmallocTotal:   34359738367 kB
VmallocUsed:      370636 kB
VmallocChunk:   34359363072 kB
HardwareCorrupted:     0 kB
AnonHugePages:    532480 kB
HugePages_Total:       0
HugePages_Free:        0
HugePages_Rsvd:        0
HugePages_Surp:        0
Hugepagesize:       2048 kB
DirectMap4k:       62400 kB
DirectMap2M:    16599040 kB
