economemd
    total memory: 1420 MB
    timer interval: 10 s
    timer start state: running
    utility model: root

    caches:
        lru

    force utility function validity: yes
    make recommendations: yes
    equal recommendations: yes

    reading receiver name: simple
    command receiver name: simple

    dump file: economemd.dump.log
    log file: /home/callum/economics_memory_code/dynamic_sizing/data/output/timerComparisonMany_2014_10_15_12_35_15/sub54_timerComparisonSingle/sub2_timeBenchmarkDaemonEqual/daemon_run03_log.txt
    log readings: yes
    log functions: yes

PyOptimiser: initialising...
PyOptimiser: initialised
ReadingThread: starting
TimerThread: starting
CommandThread: starting
Recommendation: no clients; no recommendation
Recommendation: no clients; no recommendation
Reading from 25451: heap size 9 MB, throughput 0.988882
Clients: 1
Client 25451 has a minimum heap size of 8 MB
Reading from 25450: heap size 9 MB, throughput 0.990661
Clients: 2
Client 25450 has a minimum heap size of 276 MB
Reading from 25450: heap size 9 MB, throughput 0.977382
Reading from 25451: heap size 9 MB, throughput 0.973019
Reading from 25450: heap size 9 MB, throughput 0.965115
Reading from 25451: heap size 11 MB, throughput 0.810649
Reading from 25450: heap size 9 MB, throughput 0.96748
Reading from 25451: heap size 14 MB, throughput 0.964151
Reading from 25450: heap size 11 MB, throughput 0.984329
Reading from 25451: heap size 16 MB, throughput 0.983744
Reading from 25451: heap size 18 MB, throughput 0.985959
Reading from 25450: heap size 11 MB, throughput 0.97616
Reading from 25451: heap size 24 MB, throughput 0.983185
Reading from 25451: heap size 23 MB, throughput 0.953405
Reading from 25450: heap size 17 MB, throughput 0.956574
Reading from 25451: heap size 27 MB, throughput 0.96794
Reading from 25451: heap size 27 MB, throughput 0.964771
Reading from 25451: heap size 29 MB, throughput 0.946232
Reading from 25451: heap size 30 MB, throughput 0.964547
Reading from 25450: heap size 17 MB, throughput 0.413345
Reading from 25451: heap size 35 MB, throughput 0.951524
Reading from 25451: heap size 35 MB, throughput 0.958629
Reading from 25450: heap size 30 MB, throughput 0.958566
Reading from 25451: heap size 41 MB, throughput 0.96901
Reading from 25451: heap size 41 MB, throughput 0.970023
Reading from 25450: heap size 31 MB, throughput 0.935565
Reading from 25451: heap size 49 MB, throughput 0.971202
Reading from 25451: heap size 49 MB, throughput 0.976221
Reading from 25451: heap size 56 MB, throughput 0.980904
Reading from 25450: heap size 33 MB, throughput 0.426536
Reading from 25451: heap size 56 MB, throughput 0.965865
Reading from 25450: heap size 47 MB, throughput 0.860206
Reading from 25451: heap size 64 MB, throughput 0.980795
Reading from 25450: heap size 49 MB, throughput 0.798824
Reading from 25451: heap size 64 MB, throughput 0.978526
Reading from 25451: heap size 72 MB, throughput 0.992727
Reading from 25451: heap size 72 MB, throughput 0.989015
Reading from 25450: heap size 50 MB, throughput 0.348651
Reading from 25450: heap size 69 MB, throughput 0.66824
Reading from 25451: heap size 80 MB, throughput 0.9916
Reading from 25450: heap size 70 MB, throughput 0.65536
Reading from 25450: heap size 73 MB, throughput 0.771249
Reading from 25451: heap size 80 MB, throughput 0.988914
Reading from 25451: heap size 86 MB, throughput 0.990709
Reading from 25450: heap size 76 MB, throughput 0.272335
Reading from 25451: heap size 86 MB, throughput 0.933697
Reading from 25450: heap size 106 MB, throughput 0.585391
Reading from 25450: heap size 106 MB, throughput 0.755465
Reading from 25451: heap size 92 MB, throughput 0.993546
Reading from 25450: heap size 109 MB, throughput 0.615316
Reading from 25451: heap size 92 MB, throughput 0.982893
Reading from 25450: heap size 113 MB, throughput 0.754794
Reading from 25450: heap size 116 MB, throughput 0.636717
Reading from 25451: heap size 99 MB, throughput 0.994113
Reading from 25451: heap size 99 MB, throughput 0.990959
Reading from 25451: heap size 104 MB, throughput 0.992029
Reading from 25450: heap size 120 MB, throughput 0.120691
Reading from 25450: heap size 160 MB, throughput 0.602827
Reading from 25451: heap size 104 MB, throughput 0.99464
Reading from 25450: heap size 162 MB, throughput 0.686484
Reading from 25451: heap size 108 MB, throughput 0.991497
Reading from 25450: heap size 165 MB, throughput 0.690138
Reading from 25451: heap size 109 MB, throughput 0.990098
Reading from 25451: heap size 114 MB, throughput 0.996404
Reading from 25450: heap size 166 MB, throughput 0.153261
Reading from 25450: heap size 204 MB, throughput 0.607121
Reading from 25451: heap size 114 MB, throughput 0.992575
Reading from 25450: heap size 209 MB, throughput 0.641702
Reading from 25451: heap size 118 MB, throughput 0.993255
Reading from 25451: heap size 118 MB, throughput 0.99413
Reading from 25451: heap size 122 MB, throughput 0.993141
Reading from 25450: heap size 212 MB, throughput 0.901414
Reading from 25451: heap size 122 MB, throughput 0.99279
Reading from 25451: heap size 126 MB, throughput 0.993055
Reading from 25450: heap size 216 MB, throughput 0.805858
Reading from 25451: heap size 126 MB, throughput 0.993526
Reading from 25450: heap size 225 MB, throughput 0.74881
Reading from 25451: heap size 129 MB, throughput 0.993818
Reading from 25450: heap size 230 MB, throughput 0.846391
Reading from 25450: heap size 234 MB, throughput 0.592672
Reading from 25451: heap size 130 MB, throughput 0.994634
Reading from 25450: heap size 237 MB, throughput 0.731473
Reading from 25451: heap size 134 MB, throughput 0.995587
Reading from 25450: heap size 242 MB, throughput 0.777203
Reading from 25451: heap size 134 MB, throughput 0.996244
Reading from 25450: heap size 244 MB, throughput 0.744343
Reading from 25450: heap size 246 MB, throughput 0.544561
Reading from 25451: heap size 137 MB, throughput 0.996176
Reading from 25451: heap size 137 MB, throughput 0.994234
Reading from 25451: heap size 140 MB, throughput 0.991384
Reading from 25451: heap size 140 MB, throughput 0.996461
Reading from 25450: heap size 251 MB, throughput 0.0864803
Reading from 25450: heap size 294 MB, throughput 0.551169
Reading from 25451: heap size 143 MB, throughput 0.996034
Reading from 25450: heap size 295 MB, throughput 0.661754
Reading from 25450: heap size 289 MB, throughput 0.682857
Reading from 25451: heap size 144 MB, throughput 0.995861
Reading from 25451: heap size 146 MB, throughput 0.996295
Reading from 25450: heap size 292 MB, throughput 0.915385
Reading from 25451: heap size 147 MB, throughput 0.995547
Reading from 25450: heap size 292 MB, throughput 0.726043
Reading from 25451: heap size 150 MB, throughput 0.996302
Reading from 25451: heap size 150 MB, throughput 0.995088
Reading from 25450: heap size 294 MB, throughput 0.189645
Reading from 25450: heap size 336 MB, throughput 0.647112
Reading from 25451: heap size 152 MB, throughput 0.995493
Reading from 25450: heap size 338 MB, throughput 0.799001
Reading from 25451: heap size 153 MB, throughput 0.994016
Reading from 25450: heap size 346 MB, throughput 0.893519
Reading from 25451: heap size 155 MB, throughput 0.986767
Reading from 25450: heap size 346 MB, throughput 0.759499
Reading from 25450: heap size 348 MB, throughput 0.679562
Reading from 25451: heap size 155 MB, throughput 0.995749
Reading from 25450: heap size 350 MB, throughput 0.655605
Reading from 25450: heap size 355 MB, throughput 0.603676
Reading from 25451: heap size 159 MB, throughput 0.996398
Reading from 25450: heap size 355 MB, throughput 0.595341
Reading from 25450: heap size 364 MB, throughput 0.69547
Reading from 25451: heap size 160 MB, throughput 0.994293
Reading from 25451: heap size 163 MB, throughput 0.995234
Equal recommendation: 710 MB each
Reading from 25451: heap size 163 MB, throughput 0.994518
Reading from 25451: heap size 167 MB, throughput 0.997219
Reading from 25451: heap size 167 MB, throughput 0.996706
Reading from 25451: heap size 171 MB, throughput 0.992783
Reading from 25451: heap size 171 MB, throughput 0.996201
Reading from 25451: heap size 174 MB, throughput 0.870333
Reading from 25450: heap size 364 MB, throughput 0.982047
Reading from 25451: heap size 178 MB, throughput 0.987797
Reading from 25451: heap size 183 MB, throughput 0.996855
Reading from 25451: heap size 183 MB, throughput 0.995654
Reading from 25451: heap size 189 MB, throughput 0.996147
Reading from 25450: heap size 369 MB, throughput 0.974021
Reading from 25451: heap size 189 MB, throughput 0.996559
Reading from 25451: heap size 195 MB, throughput 0.995893
Reading from 25451: heap size 196 MB, throughput 0.997403
Reading from 25451: heap size 201 MB, throughput 0.99651
Reading from 25451: heap size 202 MB, throughput 0.996173
Reading from 25450: heap size 372 MB, throughput 0.963816
Reading from 25451: heap size 208 MB, throughput 0.996274
Reading from 25451: heap size 208 MB, throughput 0.995094
Reading from 25451: heap size 214 MB, throughput 0.995802
Reading from 25451: heap size 214 MB, throughput 0.995072
Reading from 25451: heap size 220 MB, throughput 0.99705
Reading from 25450: heap size 373 MB, throughput 0.964624
Reading from 25451: heap size 220 MB, throughput 0.996931
Reading from 25451: heap size 226 MB, throughput 0.997202
Reading from 25451: heap size 226 MB, throughput 0.997133
Reading from 25451: heap size 232 MB, throughput 0.998543
Reading from 25450: heap size 376 MB, throughput 0.968084
Reading from 25451: heap size 232 MB, throughput 0.996388
Reading from 25451: heap size 237 MB, throughput 0.997789
Reading from 25451: heap size 237 MB, throughput 0.997932
Reading from 25451: heap size 242 MB, throughput 0.997349
Reading from 25451: heap size 242 MB, throughput 0.995783
Reading from 25450: heap size 380 MB, throughput 0.970804
Reading from 25451: heap size 247 MB, throughput 0.997839
Reading from 25451: heap size 247 MB, throughput 0.997137
Reading from 25451: heap size 252 MB, throughput 0.998481
Reading from 25451: heap size 252 MB, throughput 0.997811
Equal recommendation: 710 MB each
Reading from 25451: heap size 257 MB, throughput 0.995343
Reading from 25450: heap size 382 MB, throughput 0.961969
Reading from 25451: heap size 257 MB, throughput 0.995887
Reading from 25451: heap size 262 MB, throughput 0.997574
Reading from 25451: heap size 263 MB, throughput 0.996496
Reading from 25450: heap size 380 MB, throughput 0.957794
Reading from 25451: heap size 270 MB, throughput 0.998047
Reading from 25451: heap size 270 MB, throughput 0.996301
Reading from 25451: heap size 276 MB, throughput 0.997717
Reading from 25451: heap size 276 MB, throughput 0.997507
Reading from 25450: heap size 383 MB, throughput 0.958014
Reading from 25451: heap size 281 MB, throughput 0.996937
Reading from 25451: heap size 282 MB, throughput 0.9967
Reading from 25451: heap size 288 MB, throughput 0.997091
Reading from 25451: heap size 288 MB, throughput 0.997171
Reading from 25450: heap size 385 MB, throughput 0.965087
Reading from 25451: heap size 294 MB, throughput 0.997885
Reading from 25451: heap size 294 MB, throughput 0.996981
Reading from 25451: heap size 301 MB, throughput 0.997583
Reading from 25450: heap size 386 MB, throughput 0.967068
Reading from 25451: heap size 301 MB, throughput 0.997645
Reading from 25451: heap size 307 MB, throughput 0.998627
Reading from 25451: heap size 307 MB, throughput 0.998079
Reading from 25450: heap size 389 MB, throughput 0.961896
Reading from 25451: heap size 313 MB, throughput 0.997699
Reading from 25451: heap size 313 MB, throughput 0.997604
Reading from 25451: heap size 318 MB, throughput 0.998176
Reading from 25451: heap size 318 MB, throughput 0.998146
Reading from 25451: heap size 324 MB, throughput 0.998053
Reading from 25450: heap size 391 MB, throughput 0.978623
Equal recommendation: 710 MB each
Reading from 25450: heap size 392 MB, throughput 0.832752
Reading from 25450: heap size 394 MB, throughput 0.739301
Reading from 25451: heap size 324 MB, throughput 0.99642
Reading from 25450: heap size 401 MB, throughput 0.74693
Reading from 25451: heap size 329 MB, throughput 0.997747
Reading from 25450: heap size 405 MB, throughput 0.949841
Reading from 25451: heap size 329 MB, throughput 0.997383
Reading from 25451: heap size 336 MB, throughput 0.997337
Reading from 25451: heap size 336 MB, throughput 0.997561
Reading from 25450: heap size 414 MB, throughput 0.980521
Reading from 25451: heap size 342 MB, throughput 0.997147
Reading from 25451: heap size 343 MB, throughput 0.99672
Reading from 25451: heap size 350 MB, throughput 0.997084
Reading from 25451: heap size 350 MB, throughput 0.997374
Reading from 25450: heap size 415 MB, throughput 0.985848
Reading from 25451: heap size 357 MB, throughput 0.996766
Reading from 25451: heap size 357 MB, throughput 0.997185
Reading from 25451: heap size 365 MB, throughput 0.998121
Reading from 25451: heap size 365 MB, throughput 0.996452
Reading from 25450: heap size 418 MB, throughput 0.761198
Reading from 25451: heap size 373 MB, throughput 0.997044
Reading from 25451: heap size 373 MB, throughput 0.997077
Reading from 25451: heap size 381 MB, throughput 0.997651
Reading from 25451: heap size 381 MB, throughput 0.997744
Reading from 25450: heap size 452 MB, throughput 0.993775
Reading from 25451: heap size 389 MB, throughput 0.997986
Equal recommendation: 710 MB each
Reading from 25451: heap size 389 MB, throughput 0.996474
Reading from 25451: heap size 396 MB, throughput 0.997796
Reading from 25450: heap size 453 MB, throughput 0.986997
Reading from 25451: heap size 397 MB, throughput 0.996618
Reading from 25451: heap size 406 MB, throughput 0.997973
Reading from 25450: heap size 456 MB, throughput 0.985792
Reading from 25451: heap size 406 MB, throughput 0.997149
Reading from 25451: heap size 415 MB, throughput 0.996217
Reading from 25451: heap size 415 MB, throughput 0.996068
Reading from 25451: heap size 424 MB, throughput 0.997353
Reading from 25450: heap size 461 MB, throughput 0.985905
Reading from 25451: heap size 424 MB, throughput 0.997442
Reading from 25451: heap size 435 MB, throughput 0.997571
Reading from 25451: heap size 435 MB, throughput 0.99737
Reading from 25450: heap size 462 MB, throughput 0.984926
Reading from 25451: heap size 444 MB, throughput 0.99715
Reading from 25451: heap size 444 MB, throughput 0.997492
Reading from 25451: heap size 452 MB, throughput 0.997538
Reading from 25450: heap size 458 MB, throughput 0.982319
Reading from 25451: heap size 453 MB, throughput 0.997851
Reading from 25451: heap size 462 MB, throughput 0.996469
Equal recommendation: 710 MB each
Reading from 25451: heap size 463 MB, throughput 0.997168
Reading from 25450: heap size 461 MB, throughput 0.984445
Reading from 25450: heap size 456 MB, throughput 0.849867
Reading from 25450: heap size 459 MB, throughput 0.81613
Reading from 25451: heap size 473 MB, throughput 0.997708
Reading from 25450: heap size 466 MB, throughput 0.950796
Reading from 25451: heap size 473 MB, throughput 0.997583
Reading from 25451: heap size 480 MB, throughput 0.997266
Reading from 25451: heap size 480 MB, throughput 0.99783
Reading from 25450: heap size 470 MB, throughput 0.982947
Reading from 25451: heap size 481 MB, throughput 0.998631
Reading from 25451: heap size 481 MB, throughput 0.998306
Reading from 25450: heap size 469 MB, throughput 0.985151
Reading from 25451: heap size 480 MB, throughput 0.998277
Reading from 25451: heap size 481 MB, throughput 0.997956
Reading from 25451: heap size 482 MB, throughput 0.998181
Reading from 25451: heap size 482 MB, throughput 0.998734
Reading from 25450: heap size 473 MB, throughput 0.980965
Reading from 25451: heap size 482 MB, throughput 0.99854
Reading from 25451: heap size 482 MB, throughput 0.997932
Reading from 25451: heap size 482 MB, throughput 0.998553
Reading from 25450: heap size 472 MB, throughput 0.982078
Equal recommendation: 710 MB each
Reading from 25451: heap size 481 MB, throughput 0.99814
Reading from 25451: heap size 481 MB, throughput 0.998077
Reading from 25451: heap size 481 MB, throughput 0.99788
Reading from 25450: heap size 475 MB, throughput 0.977252
Reading from 25451: heap size 482 MB, throughput 0.998253
Reading from 25451: heap size 482 MB, throughput 0.998427
Reading from 25451: heap size 482 MB, throughput 0.998296
Reading from 25450: heap size 480 MB, throughput 0.978559
Reading from 25451: heap size 482 MB, throughput 0.998426
Reading from 25451: heap size 482 MB, throughput 0.998423
Reading from 25451: heap size 482 MB, throughput 0.998259
Reading from 25450: heap size 480 MB, throughput 0.97252
Reading from 25451: heap size 482 MB, throughput 0.99852
Reading from 25451: heap size 482 MB, throughput 0.998269
Reading from 25451: heap size 482 MB, throughput 0.99832
Reading from 25451: heap size 482 MB, throughput 0.998324
Reading from 25450: heap size 485 MB, throughput 0.981404
Reading from 25451: heap size 482 MB, throughput 0.98875
Reading from 25450: heap size 486 MB, throughput 0.943399
Reading from 25450: heap size 489 MB, throughput 0.833419
Equal recommendation: 710 MB each
Reading from 25450: heap size 491 MB, throughput 0.928375
Reading from 25451: heap size 482 MB, throughput 0.998402
Reading from 25451: heap size 482 MB, throughput 0.997844
Reading from 25451: heap size 482 MB, throughput 0.997917
Reading from 25451: heap size 482 MB, throughput 0.998222
Reading from 25450: heap size 500 MB, throughput 0.99178
Reading from 25451: heap size 482 MB, throughput 0.998475
Reading from 25451: heap size 482 MB, throughput 0.998422
Reading from 25451: heap size 482 MB, throughput 0.997925
Reading from 25450: heap size 501 MB, throughput 0.988215
Reading from 25451: heap size 482 MB, throughput 0.998103
Reading from 25451: heap size 482 MB, throughput 0.998106
Reading from 25451: heap size 483 MB, throughput 0.998164
Reading from 25451: heap size 483 MB, throughput 0.998365
Reading from 25450: heap size 503 MB, throughput 0.986891
Reading from 25451: heap size 483 MB, throughput 0.998293
Reading from 25451: heap size 483 MB, throughput 0.998556
Reading from 25451: heap size 483 MB, throughput 0.998371
Equal recommendation: 710 MB each
Reading from 25450: heap size 506 MB, throughput 0.986063
Reading from 25451: heap size 483 MB, throughput 0.998248
Reading from 25451: heap size 483 MB, throughput 0.998343
Reading from 25451: heap size 483 MB, throughput 0.998699
Reading from 25451: heap size 483 MB, throughput 0.998578
Reading from 25450: heap size 504 MB, throughput 0.982401
Reading from 25451: heap size 483 MB, throughput 0.998655
Reading from 25451: heap size 483 MB, throughput 0.997976
Reading from 25451: heap size 483 MB, throughput 0.998318
Reading from 25450: heap size 507 MB, throughput 0.981776
Reading from 25451: heap size 483 MB, throughput 0.998507
Reading from 25451: heap size 483 MB, throughput 0.998378
Reading from 25451: heap size 483 MB, throughput 0.997824
Reading from 25451: heap size 483 MB, throughput 0.998299
Reading from 25451: heap size 482 MB, throughput 0.998008
Reading from 25450: heap size 511 MB, throughput 0.983873
Reading from 25450: heap size 511 MB, throughput 0.945274
Reading from 25451: heap size 482 MB, throughput 0.998038
Reading from 25450: heap size 514 MB, throughput 0.873864
Reading from 25451: heap size 482 MB, throughput 0.99805
Reading from 25451: heap size 482 MB, throughput 0.998524
Equal recommendation: 710 MB each
Reading from 25450: heap size 516 MB, throughput 0.981622
Reading from 25451: heap size 483 MB, throughput 0.998364
Reading from 25451: heap size 483 MB, throughput 0.998154
Reading from 25451: heap size 483 MB, throughput 0.998556
Reading from 25451: heap size 483 MB, throughput 0.997651
Reading from 25450: heap size 523 MB, throughput 0.990415
Reading from 25451: heap size 483 MB, throughput 0.998231
Reading from 25451: heap size 483 MB, throughput 0.998518
Reading from 25451: heap size 483 MB, throughput 0.99851
Reading from 25451: heap size 482 MB, throughput 0.998244
Reading from 25450: heap size 525 MB, throughput 0.986956
Reading from 25451: heap size 482 MB, throughput 0.998271
Reading from 25451: heap size 482 MB, throughput 0.998305
Reading from 25451: heap size 482 MB, throughput 0.998283
Reading from 25451: heap size 482 MB, throughput 0.99796
Reading from 25450: heap size 527 MB, throughput 0.988945
Reading from 25451: heap size 482 MB, throughput 0.99821
Equal recommendation: 710 MB each
Reading from 25451: heap size 482 MB, throughput 0.99851
Reading from 25451: heap size 482 MB, throughput 0.998633
Reading from 25451: heap size 482 MB, throughput 0.998443
Reading from 25450: heap size 529 MB, throughput 0.984086
Reading from 25451: heap size 482 MB, throughput 0.997868
Reading from 25451: heap size 482 MB, throughput 0.996712
Reading from 25451: heap size 481 MB, throughput 0.998552
Reading from 25451: heap size 482 MB, throughput 0.998445
Reading from 25450: heap size 530 MB, throughput 0.986524
Reading from 25451: heap size 482 MB, throughput 0.998199
Reading from 25451: heap size 482 MB, throughput 0.998649
Reading from 25451: heap size 482 MB, throughput 0.998254
Reading from 25451: heap size 482 MB, throughput 0.998268
Reading from 25451: heap size 482 MB, throughput 0.998218
Reading from 25450: heap size 531 MB, throughput 0.994209
Reading from 25450: heap size 535 MB, throughput 0.920315
Reading from 25451: heap size 482 MB, throughput 0.998228
Reading from 25450: heap size 536 MB, throughput 0.877102
Reading from 25451: heap size 482 MB, throughput 0.99833
Equal recommendation: 710 MB each
Reading from 25451: heap size 482 MB, throughput 0.998459
Reading from 25450: heap size 543 MB, throughput 0.988601
Reading from 25451: heap size 482 MB, throughput 0.998049
Reading from 25451: heap size 482 MB, throughput 0.998163
Reading from 25451: heap size 482 MB, throughput 0.998549
Reading from 25451: heap size 482 MB, throughput 0.998471
Reading from 25451: heap size 482 MB, throughput 0.998291
Reading from 25450: heap size 545 MB, throughput 0.99014
Reading from 25451: heap size 482 MB, throughput 0.99836
Reading from 25451: heap size 483 MB, throughput 0.998569
Reading from 25451: heap size 483 MB, throughput 0.998442
Reading from 25451: heap size 483 MB, throughput 0.998237
Reading from 25451: heap size 483 MB, throughput 0.998021
Reading from 25450: heap size 549 MB, throughput 0.988692
Reading from 25451: heap size 483 MB, throughput 0.998244
Reading from 25451: heap size 483 MB, throughput 0.998465
Reading from 25451: heap size 483 MB, throughput 0.998624
Equal recommendation: 710 MB each
Reading from 25450: heap size 551 MB, throughput 0.984272
Reading from 25451: heap size 483 MB, throughput 0.997764
Reading from 25451: heap size 483 MB, throughput 0.997904
Reading from 25451: heap size 483 MB, throughput 0.998506
Reading from 25451: heap size 483 MB, throughput 0.998372
Reading from 25451: heap size 483 MB, throughput 0.998057
Reading from 25450: heap size 551 MB, throughput 0.98914
Reading from 25451: heap size 483 MB, throughput 0.998369
Reading from 25451: heap size 483 MB, throughput 0.998635
Reading from 25451: heap size 483 MB, throughput 0.998386
Reading from 25451: heap size 483 MB, throughput 0.998413
Reading from 25451: heap size 483 MB, throughput 0.998058
Reading from 25450: heap size 554 MB, throughput 0.991852
Reading from 25451: heap size 483 MB, throughput 0.998227
Reading from 25450: heap size 557 MB, throughput 0.968001
Reading from 25450: heap size 558 MB, throughput 0.884541
Reading from 25451: heap size 483 MB, throughput 0.998344
Reading from 25451: heap size 483 MB, throughput 0.998553
Reading from 25451: heap size 483 MB, throughput 0.998563
Equal recommendation: 710 MB each
Reading from 25451: heap size 483 MB, throughput 0.99815
Reading from 25450: heap size 564 MB, throughput 0.990068
Reading from 25451: heap size 483 MB, throughput 0.997978
Reading from 25451: heap size 483 MB, throughput 0.998359
Reading from 25451: heap size 483 MB, throughput 0.997697
Reading from 25451: heap size 483 MB, throughput 0.998179
Reading from 25451: heap size 483 MB, throughput 0.998304
Reading from 25450: heap size 566 MB, throughput 0.989642
Reading from 25451: heap size 483 MB, throughput 0.998464
Reading from 25451: heap size 483 MB, throughput 0.998289
Reading from 25451: heap size 483 MB, throughput 0.998051
Reading from 25451: heap size 483 MB, throughput 0.997885
Reading from 25451: heap size 483 MB, throughput 0.998168
Reading from 25450: heap size 569 MB, throughput 0.990405
Reading from 25451: heap size 483 MB, throughput 0.998489
Reading from 25451: heap size 483 MB, throughput 0.998487
Reading from 25451: heap size 483 MB, throughput 0.997968
Equal recommendation: 710 MB each
Reading from 25451: heap size 483 MB, throughput 0.998591
Reading from 25450: heap size 572 MB, throughput 0.988422
Reading from 25451: heap size 483 MB, throughput 0.998795
Reading from 25451: heap size 483 MB, throughput 0.998019
Reading from 25451: heap size 483 MB, throughput 0.997974
Reading from 25451: heap size 483 MB, throughput 0.998385
Reading from 25451: heap size 483 MB, throughput 0.998451
Reading from 25450: heap size 574 MB, throughput 0.988208
Reading from 25451: heap size 483 MB, throughput 0.998306
Reading from 25451: heap size 483 MB, throughput 0.997956
Reading from 25451: heap size 483 MB, throughput 0.998501
Reading from 25451: heap size 483 MB, throughput 0.998315
Reading from 25450: heap size 575 MB, throughput 0.990588
Reading from 25450: heap size 578 MB, throughput 0.908342
Reading from 25451: heap size 483 MB, throughput 0.998632
Reading from 25451: heap size 483 MB, throughput 0.998421
Reading from 25451: heap size 483 MB, throughput 0.997997
Reading from 25450: heap size 579 MB, throughput 0.990752
Reading from 25451: heap size 483 MB, throughput 0.998319
Equal recommendation: 710 MB each
Reading from 25451: heap size 483 MB, throughput 0.998274
Reading from 25451: heap size 483 MB, throughput 0.998466
Reading from 25451: heap size 483 MB, throughput 0.998108
Reading from 25451: heap size 483 MB, throughput 0.998294
Reading from 25450: heap size 587 MB, throughput 0.992867
Reading from 25451: heap size 460 MB, throughput 0.981252
Reading from 25451: heap size 439 MB, throughput 0.998307
Reading from 25451: heap size 451 MB, throughput 0.998076
Reading from 25451: heap size 457 MB, throughput 0.998401
Reading from 25451: heap size 466 MB, throughput 0.998767
Reading from 25450: heap size 589 MB, throughput 0.989347
Reading from 25451: heap size 478 MB, throughput 0.998558
Reading from 25451: heap size 478 MB, throughput 0.998003
Reading from 25451: heap size 485 MB, throughput 0.998293
Reading from 25451: heap size 485 MB, throughput 0.998556
Reading from 25451: heap size 484 MB, throughput 0.998785
Reading from 25450: heap size 589 MB, throughput 0.987539
Equal recommendation: 710 MB each
Reading from 25451: heap size 484 MB, throughput 0.998584
Reading from 25451: heap size 485 MB, throughput 0.997815
Reading from 25451: heap size 485 MB, throughput 0.998584
Reading from 25451: heap size 484 MB, throughput 0.998279
Reading from 25451: heap size 484 MB, throughput 0.998152
Reading from 25450: heap size 591 MB, throughput 0.986344
Reading from 25451: heap size 484 MB, throughput 0.997633
Reading from 25451: heap size 484 MB, throughput 0.997686
Reading from 25451: heap size 484 MB, throughput 0.998668
Reading from 25451: heap size 484 MB, throughput 0.998179
Reading from 25450: heap size 595 MB, throughput 0.991709
Reading from 25451: heap size 484 MB, throughput 0.998274
Reading from 25450: heap size 596 MB, throughput 0.896727
Reading from 25451: heap size 484 MB, throughput 0.997871
Reading from 25451: heap size 484 MB, throughput 0.998616
Reading from 25450: heap size 598 MB, throughput 0.985677
Reading from 25451: heap size 484 MB, throughput 0.998766
Reading from 25451: heap size 484 MB, throughput 0.9983
Reading from 25451: heap size 482 MB, throughput 0.997991
Equal recommendation: 710 MB each
Reading from 25451: heap size 484 MB, throughput 0.99849
Reading from 25451: heap size 484 MB, throughput 0.998578
Reading from 25451: heap size 485 MB, throughput 0.99813
Reading from 25450: heap size 600 MB, throughput 0.991851
Reading from 25451: heap size 485 MB, throughput 0.997761
Reading from 25451: heap size 485 MB, throughput 0.997831
Reading from 25451: heap size 485 MB, throughput 0.998723
Reading from 25451: heap size 484 MB, throughput 0.998636
Reading from 25451: heap size 484 MB, throughput 0.998697
Reading from 25450: heap size 604 MB, throughput 0.988361
Reading from 25451: heap size 485 MB, throughput 0.998067
Reading from 25451: heap size 485 MB, throughput 0.998633
Reading from 25451: heap size 485 MB, throughput 0.998536
Reading from 25451: heap size 485 MB, throughput 0.998191
Reading from 25451: heap size 485 MB, throughput 0.998018
Reading from 25451: heap size 484 MB, throughput 0.998325
Equal recommendation: 710 MB each
Reading from 25450: heap size 606 MB, throughput 0.988035
Reading from 25451: heap size 485 MB, throughput 0.998537
Reading from 25451: heap size 485 MB, throughput 0.998268
Reading from 25451: heap size 486 MB, throughput 0.997838
Reading from 25451: heap size 486 MB, throughput 0.997967
Reading from 25451: heap size 486 MB, throughput 0.998445
Reading from 25450: heap size 609 MB, throughput 0.989237
Reading from 25451: heap size 486 MB, throughput 0.998725
Reading from 25451: heap size 486 MB, throughput 0.998689
Reading from 25451: heap size 486 MB, throughput 0.997678
Reading from 25450: heap size 609 MB, throughput 0.984811
Reading from 25451: heap size 486 MB, throughput 0.99803
Reading from 25450: heap size 614 MB, throughput 0.904166
Reading from 25451: heap size 486 MB, throughput 0.99853
Reading from 25451: heap size 486 MB, throughput 0.998002
Reading from 25451: heap size 486 MB, throughput 0.998179
Reading from 25451: heap size 486 MB, throughput 0.99826
Reading from 25451: heap size 486 MB, throughput 0.993438
Reading from 25450: heap size 616 MB, throughput 0.993374
Equal recommendation: 710 MB each
Reading from 25451: heap size 486 MB, throughput 0.998406
Reading from 25451: heap size 486 MB, throughput 0.997845
Reading from 25451: heap size 486 MB, throughput 0.998134
Reading from 25451: heap size 486 MB, throughput 0.998803
Reading from 25451: heap size 486 MB, throughput 0.998568
Reading from 25450: heap size 623 MB, throughput 0.991373
Reading from 25451: heap size 486 MB, throughput 0.998616
Reading from 25451: heap size 485 MB, throughput 0.997316
Reading from 25451: heap size 486 MB, throughput 0.998073
Reading from 25451: heap size 486 MB, throughput 0.99819
Reading from 25451: heap size 486 MB, throughput 0.998052
Reading from 25451: heap size 485 MB, throughput 0.998139
Reading from 25450: heap size 625 MB, throughput 0.989195
Reading from 25451: heap size 486 MB, throughput 0.9983
Reading from 25451: heap size 485 MB, throughput 0.998355
Reading from 25451: heap size 486 MB, throughput 0.998436
Equal recommendation: 710 MB each
Reading from 25451: heap size 486 MB, throughput 0.997802
Reading from 25451: heap size 485 MB, throughput 0.998216
Reading from 25451: heap size 485 MB, throughput 0.998595
Reading from 25450: heap size 626 MB, throughput 0.986944
Reading from 25451: heap size 485 MB, throughput 0.998244
Reading from 25451: heap size 486 MB, throughput 0.998312
Reading from 25451: heap size 486 MB, throughput 0.998146
Reading from 25451: heap size 486 MB, throughput 0.997924
Reading from 25450: heap size 628 MB, throughput 0.990439
Reading from 25450: heap size 633 MB, throughput 0.918437
Reading from 25451: heap size 486 MB, throughput 0.998223
Reading from 25451: heap size 486 MB, throughput 0.998427
Reading from 25451: heap size 486 MB, throughput 0.998409
Reading from 25451: heap size 486 MB, throughput 0.998238
Reading from 25450: heap size 634 MB, throughput 0.990916
Reading from 25451: heap size 486 MB, throughput 0.998341
Reading from 25451: heap size 486 MB, throughput 0.998453
Reading from 25451: heap size 486 MB, throughput 0.99775
Equal recommendation: 710 MB each
Reading from 25451: heap size 486 MB, throughput 0.998307
Reading from 25451: heap size 486 MB, throughput 0.99854
Reading from 25451: heap size 486 MB, throughput 0.998576
Reading from 25450: heap size 642 MB, throughput 0.991293
Reading from 25451: heap size 486 MB, throughput 0.998502
Reading from 25451: heap size 486 MB, throughput 0.997787
Reading from 25451: heap size 486 MB, throughput 0.998235
Reading from 25451: heap size 486 MB, throughput 0.998394
Reading from 25451: heap size 486 MB, throughput 0.998177
Reading from 25451: heap size 486 MB, throughput 0.998421
Reading from 25450: heap size 644 MB, throughput 0.989103
Reading from 25451: heap size 486 MB, throughput 0.998277
Reading from 25451: heap size 486 MB, throughput 0.99843
Reading from 25451: heap size 486 MB, throughput 0.998425
Reading from 25451: heap size 486 MB, throughput 0.99778
Reading from 25451: heap size 486 MB, throughput 0.998143
Equal recommendation: 710 MB each
Reading from 25450: heap size 642 MB, throughput 0.987834
Reading from 25451: heap size 486 MB, throughput 0.998461
Reading from 25451: heap size 486 MB, throughput 0.99857
Reading from 25451: heap size 486 MB, throughput 0.998287
Reading from 25451: heap size 486 MB, throughput 0.997264
Reading from 25451: heap size 486 MB, throughput 0.998469
Reading from 25450: heap size 644 MB, throughput 0.991754
Reading from 25451: heap size 486 MB, throughput 0.998482
Reading from 25450: heap size 648 MB, throughput 0.917252
Reading from 25451: heap size 486 MB, throughput 0.998242
Reading from 25451: heap size 486 MB, throughput 0.997936
Reading from 25451: heap size 486 MB, throughput 0.9987
Reading from 25451: heap size 486 MB, throughput 0.998364
Reading from 25450: heap size 642 MB, throughput 0.990837
Reading from 25451: heap size 486 MB, throughput 0.998325
Reading from 25451: heap size 486 MB, throughput 0.997848
Reading from 25451: heap size 486 MB, throughput 0.997489
Reading from 25451: heap size 486 MB, throughput 0.998712
Equal recommendation: 710 MB each
Reading from 25451: heap size 486 MB, throughput 0.998544
Reading from 25451: heap size 486 MB, throughput 0.998509
Reading from 25451: heap size 486 MB, throughput 0.998167
Reading from 25450: heap size 646 MB, throughput 0.991853
Reading from 25451: heap size 486 MB, throughput 0.998616
Reading from 25451: heap size 486 MB, throughput 0.997971
Reading from 25451: heap size 486 MB, throughput 0.997753
Reading from 25451: heap size 486 MB, throughput 0.998025
Reading from 25451: heap size 486 MB, throughput 0.998457
Reading from 25451: heap size 486 MB, throughput 0.998592
Reading from 25450: heap size 623 MB, throughput 0.992945
Reading from 25451: heap size 486 MB, throughput 0.998334
Reading from 25451: heap size 486 MB, throughput 0.997843
Reading from 25451: heap size 486 MB, throughput 0.998199
Reading from 25451: heap size 486 MB, throughput 0.998051
Reading from 25451: heap size 486 MB, throughput 0.998702
Equal recommendation: 710 MB each
Reading from 25450: heap size 645 MB, throughput 0.988036
Reading from 25451: heap size 486 MB, throughput 0.998136
Reading from 25451: heap size 486 MB, throughput 0.998195
Reading from 25451: heap size 486 MB, throughput 0.998692
Reading from 25451: heap size 486 MB, throughput 0.998342
Reading from 25451: heap size 486 MB, throughput 0.99833
Reading from 25451: heap size 486 MB, throughput 0.998298
Reading from 25450: heap size 644 MB, throughput 0.992389
Reading from 25450: heap size 648 MB, throughput 0.921116
Reading from 25451: heap size 486 MB, throughput 0.998056
Reading from 25451: heap size 486 MB, throughput 0.998546
Reading from 25451: heap size 486 MB, throughput 0.998378
Reading from 25451: heap size 486 MB, throughput 0.997859
Reading from 25451: heap size 486 MB, throughput 0.998023
Reading from 25450: heap size 642 MB, throughput 0.990996
Reading from 25451: heap size 486 MB, throughput 0.998577
Reading from 25451: heap size 486 MB, throughput 0.998229
Reading from 25451: heap size 486 MB, throughput 0.998634
Equal recommendation: 710 MB each
Reading from 25451: heap size 486 MB, throughput 0.998048
Reading from 25451: heap size 486 MB, throughput 0.998445
Reading from 25451: heap size 486 MB, throughput 0.998511
Reading from 25450: heap size 646 MB, throughput 0.991613
Reading from 25451: heap size 486 MB, throughput 0.998149
Reading from 25451: heap size 486 MB, throughput 0.997956
Reading from 25451: heap size 486 MB, throughput 0.998292
Reading from 25451: heap size 486 MB, throughput 0.998495
Reading from 25451: heap size 486 MB, throughput 0.998283
Reading from 25451: heap size 486 MB, throughput 0.998233
Reading from 25450: heap size 624 MB, throughput 0.992084
Reading from 25451: heap size 486 MB, throughput 0.99842
Reading from 25451: heap size 486 MB, throughput 0.998401
Reading from 25451: heap size 486 MB, throughput 0.998759
Reading from 25451: heap size 486 MB, throughput 0.998328
Reading from 25451: heap size 486 MB, throughput 0.998042
Equal recommendation: 710 MB each
Reading from 25451: heap size 486 MB, throughput 0.998437
Reading from 25450: heap size 646 MB, throughput 0.989636
Reading from 25451: heap size 486 MB, throughput 0.998364
Reading from 25451: heap size 486 MB, throughput 0.998181
Reading from 25451: heap size 486 MB, throughput 0.998094
Reading from 25451: heap size 486 MB, throughput 0.998442
Reading from 25450: heap size 645 MB, throughput 0.989918
Reading from 25451: heap size 486 MB, throughput 0.998318
Reading from 25450: heap size 643 MB, throughput 0.894985
Client 25450 died
Clients: 1
Reading from 25451: heap size 486 MB, throughput 0.998219
Reading from 25451: heap size 486 MB, throughput 0.997493
Reading from 25451: heap size 486 MB, throughput 0.99833
Reading from 25451: heap size 486 MB, throughput 0.997851
Reading from 25451: heap size 486 MB, throughput 0.998007
Reading from 25451: heap size 486 MB, throughput 0.997991
Reading from 25451: heap size 486 MB, throughput 0.997472
Reading from 25451: heap size 486 MB, throughput 0.997922
Recommendation: one client; give it all the memory
Reading from 25451: heap size 486 MB, throughput 0.998026
Reading from 25451: heap size 486 MB, throughput 0.998072
Reading from 25451: heap size 486 MB, throughput 0.998
Reading from 25451: heap size 486 MB, throughput 0.99847
Reading from 25451: heap size 486 MB, throughput 0.998054
Reading from 25451: heap size 486 MB, throughput 0.99803
Reading from 25451: heap size 486 MB, throughput 0.997615
Reading from 25451: heap size 486 MB, throughput 0.997664
Reading from 25451: heap size 486 MB, throughput 0.997768
Reading from 25451: heap size 486 MB, throughput 0.998004
Reading from 25451: heap size 486 MB, throughput 0.998029
Reading from 25451: heap size 486 MB, throughput 0.997939
Reading from 25451: heap size 486 MB, throughput 0.997781
Reading from 25451: heap size 486 MB, throughput 0.998038
Reading from 25451: heap size 486 MB, throughput 0.997164
Recommendation: one client; give it all the memory
Reading from 25451: heap size 486 MB, throughput 0.997324
Reading from 25451: heap size 486 MB, throughput 0.997786
Reading from 25451: heap size 486 MB, throughput 0.998209
Reading from 25451: heap size 486 MB, throughput 0.998025
Reading from 25451: heap size 486 MB, throughput 0.997106
Reading from 25451: heap size 486 MB, throughput 0.997847
Reading from 25451: heap size 486 MB, throughput 0.998065
Reading from 25451: heap size 486 MB, throughput 0.998252
Reading from 25451: heap size 486 MB, throughput 0.997741
Reading from 25451: heap size 486 MB, throughput 0.997685
Reading from 25451: heap size 486 MB, throughput 0.997753
Reading from 25451: heap size 486 MB, throughput 0.997988
Reading from 25451: heap size 486 MB, throughput 0.997651
Reading from 25451: heap size 486 MB, throughput 0.997413
Recommendation: one client; give it all the memory
Reading from 25451: heap size 486 MB, throughput 0.997878
Reading from 25451: heap size 486 MB, throughput 0.998057
Reading from 25451: heap size 486 MB, throughput 0.997982
Reading from 25451: heap size 486 MB, throughput 0.997298
Reading from 25451: heap size 486 MB, throughput 0.997934
Reading from 25451: heap size 486 MB, throughput 0.997881
Reading from 25451: heap size 486 MB, throughput 0.998484
Reading from 25451: heap size 486 MB, throughput 0.997808
Reading from 25451: heap size 486 MB, throughput 0.997324
Reading from 25451: heap size 486 MB, throughput 0.998237
Reading from 25451: heap size 486 MB, throughput 0.997891
Client 25451 died
Clients: 0
Recommendation: no clients; no recommendation
Recommendation: no clients; no recommendation
ReadingThread: finished
TimerThread: finished
CommandThread: finished
Main: All threads killed, cleaning up
