MemTotal:       16388228 kB
MemFree:        13954988 kB
Buffers:          620472 kB
Cached:          1134964 kB
SwapCached:          364 kB
Active:          1222364 kB
Inactive:         743528 kB
Active(anon):     210348 kB
Inactive(anon):    25244 kB
Active(file):    1012016 kB
Inactive(file):   718284 kB
Unevictable:           0 kB
Mlocked:               0 kB
SwapTotal:      16728060 kB
SwapFree:       16727696 kB
Dirty:               196 kB
Writeback:             0 kB
AnonPages:        209408 kB
Mapped:            94856 kB
Shmem:             25532 kB
Slab:             329332 kB
SReclaimable:     306204 kB
SUnreclaim:        23128 kB
KernelStack:        2080 kB
PageTables:         8504 kB
NFS_Unstable:          0 kB
Bounce:                0 kB
WritebackTmp:          0 kB
CommitLimit:    24922172 kB
Committed_AS:     590692 kB
VmallocTotal:   34359738367 kB
VmallocUsed:      114396 kB
VmallocChunk:   34359561000 kB
HardwareCorrupted:     0 kB
AnonHugePages:     81920 kB
HugePages_Total:       0
HugePages_Free:        0
HugePages_Rsvd:        0
HugePages_Surp:        0
Hugepagesize:       2048 kB
DirectMap4k:       72644 kB
DirectMap2M:    16658432 kB
