MemTotal:       16318588 kB
MemFree:        10890408 kB
Buffers:          648068 kB
Cached:          3813808 kB
SwapCached:            0 kB
Active:          2695700 kB
Inactive:        2252436 kB
Active(anon):     487060 kB
Inactive(anon):      748 kB
Active(file):    2208640 kB
Inactive(file):  2251688 kB
Unevictable:           0 kB
Mlocked:               0 kB
SwapTotal:      16728060 kB
SwapFree:       16728060 kB
Dirty:                36 kB
Writeback:             4 kB
AnonPages:        486272 kB
Mapped:            17436 kB
Shmem:              1552 kB
Slab:             349940 kB
SReclaimable:     331076 kB
SUnreclaim:        18864 kB
KernelStack:        1568 kB
PageTables:         4020 kB
NFS_Unstable:          0 kB
Bounce:                0 kB
WritebackTmp:          0 kB
CommitLimit:    24887352 kB
Committed_AS:     640488 kB
VmallocTotal:   34359738367 kB
VmallocUsed:      370636 kB
VmallocChunk:   34359363072 kB
HardwareCorrupted:     0 kB
AnonHugePages:    460800 kB
HugePages_Total:       0
HugePages_Free:        0
HugePages_Rsvd:        0
HugePages_Surp:        0
Hugepagesize:       2048 kB
DirectMap4k:       68544 kB
DirectMap2M:    16592896 kB
