 14:11:00 up  5:06,  2 users,  load average: 2.35, 1.33, 0.78
USER     TTY      FROM             LOGIN@   IDLE   JCPU   PCPU WHAT
callum   pts/3    howland.dcs.gla. 10:27    5:00   0.19s  0.19s /bin/sh
callum   pts/4    howland:S.0      14:06    4:12   0.40s  0.00s w
