F S UID        PID  PPID  C PRI  NI ADDR SZ WCHAN    RSS PSR STIME TTY          TIME CMD
4 S root         1     0  0  80   0 -  8477 poll_s  3200   1 Oct30 ?        00:00:00 /sbin/init
1 S root         2     0  0  80   0 -     0 kthrea     0   2 Oct30 ?        00:00:00 [kthreadd]
1 S root         3     2  0  80   0 -     0 smpboo     0   0 Oct30 ?        00:00:03 [ksoftirqd/0]
1 S root         5     2  0  60 -20 -     0 worker     0   0 Oct30 ?        00:00:00 [kworker/0:0H]
1 S root         7     2  0  80   0 -     0 rcu_gp     0   1 Oct30 ?        00:09:30 [rcu_sched]
1 S root         8     2  0  80   0 -     0 rcu_no     0   1 Oct30 ?        00:04:24 [rcuos/0]
1 S root         9     2  0  80   0 -     0 rcu_no     0   2 Oct30 ?        00:04:24 [rcuos/1]
1 S root        10     2  0  80   0 -     0 rcu_no     0   3 Oct30 ?        00:04:24 [rcuos/2]
1 S root        11     2  0  80   0 -     0 rcu_no     0   1 Oct30 ?        00:08:06 [rcuos/3]
1 S root        12     2  0  80   0 -     0 rcu_gp     0   0 Oct30 ?        00:00:00 [rcu_bh]
1 S root        13     2  0  80   0 -     0 rcu_no     0   0 Oct30 ?        00:00:00 [rcuob/0]
1 S root        14     2  0  80   0 -     0 rcu_no     0   0 Oct30 ?        00:00:00 [rcuob/1]
1 S root        15     2  0  80   0 -     0 rcu_no     0   0 Oct30 ?        00:00:00 [rcuob/2]
1 S root        16     2  0  80   0 -     0 rcu_no     0   0 Oct30 ?        00:00:00 [rcuob/3]
1 S root        17     2  0 -40   - -     0 smpboo     0   0 Oct30 ?        00:00:04 [migration/0]
5 S root        18     2  0 -40   - -     0 smpboo     0   0 Oct30 ?        00:00:02 [watchdog/0]
5 S root        19     2  0 -40   - -     0 smpboo     0   1 Oct30 ?        00:00:02 [watchdog/1]
1 S root        20     2  0 -40   - -     0 smpboo     0   1 Oct30 ?        00:00:04 [migration/1]
1 S root        21     2  0  80   0 -     0 smpboo     0   1 Oct30 ?        00:00:03 [ksoftirqd/1]
1 S root        23     2  0  60 -20 -     0 worker     0   1 Oct30 ?        00:00:00 [kworker/1:0H]
5 S root        24     2  0 -40   - -     0 smpboo     0   2 Oct30 ?        00:00:02 [watchdog/2]
1 S root        25     2  0 -40   - -     0 smpboo     0   2 Oct30 ?        00:00:04 [migration/2]
1 S root        26     2  0  80   0 -     0 smpboo     0   2 Oct30 ?        00:00:03 [ksoftirqd/2]
1 S root        28     2  0  60 -20 -     0 worker     0   2 Oct30 ?        00:00:00 [kworker/2:0H]
5 S root        29     2  0 -40   - -     0 smpboo     0   3 Oct30 ?        00:00:02 [watchdog/3]
1 S root        30     2  0 -40   - -     0 smpboo     0   3 Oct30 ?        00:00:04 [migration/3]
1 S root        31     2  0  80   0 -     0 smpboo     0   3 Oct30 ?        00:00:05 [ksoftirqd/3]
1 S root        33     2  0  60 -20 -     0 worker     0   3 Oct30 ?        00:00:00 [kworker/3:0H]
1 S root        34     2  0  60 -20 -     0 rescue     0   3 Oct30 ?        00:00:00 [khelper]
5 S root        35     2  0  80   0 -     0 devtmp     0   0 Oct30 ?        00:00:00 [kdevtmpfs]
1 S root        36     2  0  60 -20 -     0 rescue     0   3 Oct30 ?        00:00:00 [netns]
1 S root        37     2  0  60 -20 -     0 rescue     0   3 Oct30 ?        00:00:00 [writeback]
1 S root        38     2  0  60 -20 -     0 rescue     0   1 Oct30 ?        00:00:00 [kintegrityd]
1 S root        39     2  0  60 -20 -     0 rescue     0   1 Oct30 ?        00:00:00 [bioset]
1 S root        40     2  0  60 -20 -     0 worker     0   1 Oct30 ?        00:00:03 [kworker/u9:0]
1 S root        41     2  0  60 -20 -     0 rescue     0   2 Oct30 ?        00:00:00 [kblockd]
1 S root        42     2  0  60 -20 -     0 rescue     0   2 Oct30 ?        00:00:00 [ata_sff]
1 S root        43     2  0  80   0 -     0 hub_th     0   3 Oct30 ?        00:00:00 [khubd]
1 S root        44     2  0  60 -20 -     0 rescue     0   2 Oct30 ?        00:00:00 [md]
1 S root        45     2  0  60 -20 -     0 rescue     0   3 Oct30 ?        00:00:00 [devfreq_wq]
1 S root        46     2  0  80   0 -     0 worker     0   0 Oct30 ?        00:09:37 [kworker/0:1]
1 S root        48     2  0  80   0 -     0 watchd     0   1 Oct30 ?        00:00:00 [khungtaskd]
1 S root        49     2  0  80   0 -     0 kswapd     0   3 Oct30 ?        00:00:00 [kswapd0]
1 S root        50     2  0  85   5 -     0 ksm_sc     0   3 Oct30 ?        00:00:00 [ksmd]
1 S root        51     2  0  99  19 -     0 khugep     0   3 Oct30 ?        00:00:47 [khugepaged]
1 S root        52     2  0  80   0 -     0 fsnoti     0   1 Oct30 ?        00:00:00 [fsnotify_mark]
1 S root        53     2  0  80   0 -     0 ecrypt     0   3 Oct30 ?        00:00:00 [ecryptfs-kthrea]
1 S root        54     2  0  60 -20 -     0 rescue     0   3 Oct30 ?        00:00:00 [crypto]
1 S root        66     2  0  60 -20 -     0 rescue     0   3 Oct30 ?        00:00:00 [kthrotld]
1 S root        86     2  0  60 -20 -     0 rescue     0   1 Oct30 ?        00:00:00 [deferwq]
1 S root        87     2  0  60 -20 -     0 rescue     0   1 Oct30 ?        00:00:00 [charger_manager]
1 S root       135     2  0  60 -20 -     0 rescue     0   1 Oct30 ?        00:00:00 [kpsmoused]
1 S root       137     2  0  80   0 -     0 scsi_e     0   0 Oct30 ?        00:00:00 [scsi_eh_0]
1 S root       138     2  0  80   0 -     0 scsi_e     0   0 Oct30 ?        00:00:00 [scsi_eh_1]
1 S root       139     2  0  80   0 -     0 scsi_e     0   1 Oct30 ?        00:00:00 [scsi_eh_2]
1 S root       140     2  0  80   0 -     0 scsi_e     0   3 Oct30 ?        00:00:00 [scsi_eh_3]
1 S root       141     2  0  80   0 -     0 scsi_e     0   3 Oct30 ?        00:00:00 [scsi_eh_4]
1 S root       142     2  0  80   0 -     0 scsi_e     0   3 Oct30 ?        00:00:00 [scsi_eh_5]
1 S root       175     2  0  80   0 -     0 worker     0   2 Oct30 ?        00:09:20 [kworker/2:1]
1 S root       188     2  0  60 -20 -     0 rescue     0   2 Oct30 ?        00:00:00 [kdmflush]
1 S root       189     2  0  60 -20 -     0 rescue     0   3 Oct30 ?        00:00:00 [bioset]
1 S root       191     2  0  60 -20 -     0 rescue     0   1 Oct30 ?        00:00:00 [kdmflush]
1 S root       192     2  0  60 -20 -     0 rescue     0   2 Oct30 ?        00:00:00 [bioset]
1 S root       286     2  0  80   0 -     0 kjourn     0   3 Oct30 ?        00:00:18 [jbd2/dm-0-8]
1 S root       287     2  0  60 -20 -     0 rescue     0   0 Oct30 ?        00:00:00 [ext4-rsv-conver]
1 S root       455     1  0  80   0 -  4935 poll_s   916   2 Oct30 ?        00:00:00 upstart-udev-bridge --daemon
5 S root       460     1  0  80   0 - 12937 ep_pol  1980   3 Oct30 ?        00:00:00 /lib/systemd/systemd-udevd --daemon
1 S root       492     2  0   9   - -     0 irq_th     0   2 Oct30 ?        00:00:00 [irq/46-mei_me]
1 S root       523     2  0  60 -20 -     0 worker     0   2 Oct30 ?        00:00:02 [kworker/u9:1]
1 S root       569     2  0  60 -20 -     0 rescue     0   0 Oct30 ?        00:00:00 [kvm-irqfd-clean]
1 S root       573     2  0  60 -20 -     0 rescue     0   2 Oct30 ?        00:00:00 [kmpathd]
1 S root       574     2  0  60 -20 -     0 rescue     0   2 Oct30 ?        00:00:00 [kmpath_handlerd]
1 S root       658     2  0  60 -20 -     0 rescue     0   2 Oct30 ?        00:00:00 [hd-audio0]
1 S root       666     1  0  80   0 -  3815 poll_s   624   2 Oct30 ?        00:00:00 upstart-socket-bridge --daemon
1 S root       779     2  0  60 -20 -     0 rescue     0   3 Oct30 ?        00:00:00 [ext4-rsv-conver]
1 S root       821     2  0  80   0 -     0 kaudit     0   3 Oct30 ?        00:00:00 [kauditd]
1 S root       957     1  0  80   0 -  3819 poll_s   632   2 Oct30 ?        00:00:00 upstart-file-bridge --daemon
5 S syslog     981     1  0  80   0 - 63961 poll_s  1588   1 Oct30 ?        00:00:00 rsyslogd
5 S message+   986     1  0  80   0 -  9891 ep_pol  1708   1 Oct30 ?        00:00:00 dbus-daemon --system --fork
4 S root      1011     1  0  80   0 - 82566 poll_s  6968   3 Oct30 ?        00:00:00 /usr/sbin/ModemManager
5 S root      1028     2  0  70 -10 -     0 rfcomm     0   3 Oct30 ?        00:00:00 [krfcommd]
4 S root      1054     1  0  80   0 - 10863 ep_pol  1868   0 Oct30 ?        00:00:00 /lib/systemd/systemd-logind
5 S root      1061     1  0  80   0 - 88100 poll_s  8792   0 Oct30 ?        00:00:10 NetworkManager
4 S root      1069     1  0  80   0 - 73631 poll_s  4216   3 Oct30 ?        00:00:00 /usr/lib/policykit-1/polkitd --no-debug
4 S root      1356     1  0  80   0 -  3955 n_tty_   960   1 Oct30 tty4     00:00:00 /sbin/getty -8 38400 tty4
4 S root      1358     1  0  80   0 -  3955 n_tty_   968   1 Oct30 tty5     00:00:00 /sbin/getty -8 38400 tty5
4 S root      1365     1  0  80   0 -  3955 n_tty_   956   1 Oct30 tty2     00:00:00 /sbin/getty -8 38400 tty2
4 S root      1366     1  0  80   0 -  3955 n_tty_   964   1 Oct30 tty3     00:00:00 /sbin/getty -8 38400 tty3
4 S root      1369     1  0  80   0 -  3955 n_tty_   956   1 Oct30 tty6     00:00:00 /sbin/getty -8 38400 tty6
4 S root      1395     1  0  80   0 - 15341 poll_s  3072   2 Oct30 ?        00:00:00 /usr/sbin/sshd -D
1 S root      1407     1  0  80   0 -  1092 poll_s   696   0 Oct30 ?        00:00:00 acpid -c /etc/acpi/events -s /var/run/acpid.socket
5 S root      1443     1  0  80   0 -  4797 hrtime   736   2 Oct30 ?        00:00:33 /usr/sbin/irqbalance
1 S kernoops  1591     1  0  80   0 -  9286 poll_s  1008   0 Oct30 ?        00:00:04 /usr/sbin/kerneloops
1 S root      1612     2  0  60 -20 -     0 rescue     0   1 Oct30 ?        00:00:00 [iprt]
4 S root      1679     1  0  80   0 -  3955 n_tty_   960   1 Oct30 tty1     00:00:00 /sbin/getty -8 38400 tty1
4 S root      1713  1061  0  80   0 -  2558 poll_s  3716   3 Oct30 ?        00:00:15 /sbin/dhclient -d -sf /usr/lib/NetworkManager/nm-dhcp-client.action -pf /run/sendsigs.omit.d/network-manager.dhclient-eth0.pid -lf /var/lib/NetworkManager/dhclient-2f1389ef-98a5-44b5-b661-ac20a94a7a8b-eth0.lease -cf /var/lib/NetworkManager/dhclient-eth0.conf eth0
4 S nobody    1722  1061  0  80   0 -  7758 poll_s  1536   0 Oct30 ?        00:00:00 /usr/sbin/dnsmasq --no-resolv --keep-in-foreground --no-hosts --bind-interfaces --pid-file=/run/sendsigs.omit.d/network-manager.dnsmasq.pid --listen-address=127.0.1.1 --conf-file=/var/run/NetworkManager/dnsmasq.conf --cache-size=0 --proxy-dnssec --enable-dbus=org.freedesktop.NetworkManager.dnsmasq --conf-dir=/etc/NetworkManager/dnsmasq.d
4 S root      1950     1  0  80   0 - 525657 poll_s 4216   1 Oct30 ?        00:00:00 /usr/sbin/console-kit-daemon --no-daemon
4 S colord    2415     1  0  80   0 - 77739 poll_s  6280   1 Oct30 ?        00:00:00 /usr/lib/colord/colord
1 S root      2623     2  0  80   0 -     0 worker     0   1 Oct30 ?        00:09:21 [kworker/1:2]
1 S callum    2963     1  0  80   0 -  6832 poll_s  1660   2 Oct30 ?        00:00:01 SCREEN
0 S callum    2964  2963  0  80   0 - 12551 sigsus  7960   2 Oct30 pts/1    00:00:00 /bin/zsh
0 S callum    3409  2964  0  80   0 - 159118 futex_ 461584 0 Oct30 pts/1    00:17:08 ../../measurement_scripts/benchmark_timer/timer_comparison_many -r 10 -m min_heaps.csv --unconstrained --staticEqual --daemonEqual --daemonVengerov many_input_new.csv
1 S root     16614     2  0  80   0 -     0 worker     0   1 Nov07 ?        00:00:00 [kworker/1:1]
1 S root     16668     2  0  80   0 -     0 worker     0   2 Nov07 ?        00:00:00 [kworker/2:2]
1 S root     16794     2  0  80   0 -     0 worker     0   3 Nov03 ?        00:06:42 [kworker/3:0]
1 S root     17316     2  0  80   0 -     0 worker     0   0 Nov07 ?        00:00:00 [kworker/0:2]
1 S root     19923     2  0  80   0 -     0 worker     0   0 Nov09 ?        00:00:00 [kworker/u8:0]
1 S root     25799     2  0  80   0 -     0 worker     0   0 02:03 ?        00:00:00 [kworker/u8:1]
0 R callum   26592  3409  0  80   0 -  4615 -       1296   2 02:24 pts/1    00:00:00 ps -elFww
1 S root     27099     2  0  80   0 -     0 worker     0   3 Nov06 ?        00:00:00 [kworker/3:2]
