===== DaCapo 9.12 lusearch starting warmup 1 =====
===== DaCapo 9.12 lusearch completed warmup 1 in 4703 msec =====
===== DaCapo 9.12 lusearch starting warmup 2 =====
===== DaCapo 9.12 lusearch completed warmup 2 in 3085 msec =====
===== DaCapo 9.12 lusearch starting warmup 3 =====
===== DaCapo 9.12 lusearch completed warmup 3 in 3081 msec =====
===== DaCapo 9.12 lusearch starting warmup 4 =====
===== DaCapo 9.12 lusearch completed warmup 4 in 3044 msec =====
===== DaCapo 9.12 lusearch starting warmup 5 =====
===== DaCapo 9.12 lusearch completed warmup 5 in 3085 msec =====
===== DaCapo 9.12 lusearch starting warmup 6 =====
===== DaCapo 9.12 lusearch completed warmup 6 in 3034 msec =====
===== DaCapo 9.12 lusearch starting warmup 7 =====
===== DaCapo 9.12 lusearch completed warmup 7 in 3022 msec =====
===== DaCapo 9.12 lusearch starting warmup 8 =====
===== DaCapo 9.12 lusearch completed warmup 8 in 3047 msec =====
===== DaCapo 9.12 lusearch starting warmup 9 =====
===== DaCapo 9.12 lusearch completed warmup 9 in 3037 msec =====
===== DaCapo 9.12 lusearch starting warmup 10 =====
===== DaCapo 9.12 lusearch completed warmup 10 in 3036 msec =====
===== DaCapo 9.12 lusearch starting warmup 11 =====
===== DaCapo 9.12 lusearch completed warmup 11 in 3027 msec =====
===== DaCapo 9.12 lusearch starting warmup 12 =====
===== DaCapo 9.12 lusearch completed warmup 12 in 3049 msec =====
===== DaCapo 9.12 lusearch starting warmup 13 =====
===== DaCapo 9.12 lusearch completed warmup 13 in 3043 msec =====
===== DaCapo 9.12 lusearch starting warmup 14 =====
===== DaCapo 9.12 lusearch completed warmup 14 in 3043 msec =====
===== DaCapo 9.12 lusearch starting warmup 15 =====
===== DaCapo 9.12 lusearch completed warmup 15 in 3064 msec =====
===== DaCapo 9.12 lusearch starting warmup 16 =====
===== DaCapo 9.12 lusearch completed warmup 16 in 3016 msec =====
===== DaCapo 9.12 lusearch starting warmup 17 =====
===== DaCapo 9.12 lusearch completed warmup 17 in 3093 msec =====
===== DaCapo 9.12 lusearch starting warmup 18 =====
===== DaCapo 9.12 lusearch completed warmup 18 in 3047 msec =====
===== DaCapo 9.12 lusearch starting warmup 19 =====
===== DaCapo 9.12 lusearch completed warmup 19 in 3034 msec =====
===== DaCapo 9.12 lusearch starting warmup 20 =====
===== DaCapo 9.12 lusearch completed warmup 20 in 3030 msec =====
===== DaCapo 9.12 lusearch starting warmup 21 =====
===== DaCapo 9.12 lusearch completed warmup 21 in 3025 msec =====
===== DaCapo 9.12 lusearch starting warmup 22 =====
===== DaCapo 9.12 lusearch completed warmup 22 in 3028 msec =====
===== DaCapo 9.12 lusearch starting warmup 23 =====
===== DaCapo 9.12 lusearch completed warmup 23 in 3022 msec =====
===== DaCapo 9.12 lusearch starting warmup 24 =====
===== DaCapo 9.12 lusearch completed warmup 24 in 3027 msec =====
===== DaCapo 9.12 lusearch starting warmup 25 =====
===== DaCapo 9.12 lusearch completed warmup 25 in 3017 msec =====
===== DaCapo 9.12 lusearch starting warmup 26 =====
===== DaCapo 9.12 lusearch completed warmup 26 in 3033 msec =====
===== DaCapo 9.12 lusearch starting warmup 27 =====
===== DaCapo 9.12 lusearch completed warmup 27 in 3025 msec =====
===== DaCapo 9.12 lusearch starting warmup 28 =====
===== DaCapo 9.12 lusearch completed warmup 28 in 3005 msec =====
===== DaCapo 9.12 lusearch starting warmup 29 =====
===== DaCapo 9.12 lusearch completed warmup 29 in 3030 msec =====
===== DaCapo 9.12 lusearch starting warmup 30 =====
===== DaCapo 9.12 lusearch completed warmup 30 in 3038 msec =====
===== DaCapo 9.12 lusearch starting warmup 31 =====
===== DaCapo 9.12 lusearch completed warmup 31 in 3009 msec =====
===== DaCapo 9.12 lusearch starting warmup 32 =====
===== DaCapo 9.12 lusearch completed warmup 32 in 3051 msec =====
===== DaCapo 9.12 lusearch starting warmup 33 =====
===== DaCapo 9.12 lusearch completed warmup 33 in 3018 msec =====
===== DaCapo 9.12 lusearch starting warmup 34 =====
===== DaCapo 9.12 lusearch completed warmup 34 in 3027 msec =====
===== DaCapo 9.12 lusearch starting warmup 35 =====
===== DaCapo 9.12 lusearch completed warmup 35 in 3016 msec =====
===== DaCapo 9.12 lusearch starting warmup 36 =====
===== DaCapo 9.12 lusearch completed warmup 36 in 3083 msec =====
===== DaCapo 9.12 lusearch starting warmup 37 =====
===== DaCapo 9.12 lusearch completed warmup 37 in 3015 msec =====
===== DaCapo 9.12 lusearch starting warmup 38 =====
===== DaCapo 9.12 lusearch completed warmup 38 in 3025 msec =====
===== DaCapo 9.12 lusearch starting warmup 39 =====
===== DaCapo 9.12 lusearch completed warmup 39 in 3022 msec =====
===== DaCapo 9.12 lusearch starting warmup 40 =====
===== DaCapo 9.12 lusearch completed warmup 40 in 3045 msec =====
===== DaCapo 9.12 lusearch starting warmup 41 =====
===== DaCapo 9.12 lusearch completed warmup 41 in 3050 msec =====
===== DaCapo 9.12 lusearch starting warmup 42 =====
===== DaCapo 9.12 lusearch completed warmup 42 in 3036 msec =====
===== DaCapo 9.12 lusearch starting warmup 43 =====
===== DaCapo 9.12 lusearch completed warmup 43 in 3014 msec =====
===== DaCapo 9.12 lusearch starting warmup 44 =====
===== DaCapo 9.12 lusearch completed warmup 44 in 3012 msec =====
===== DaCapo 9.12 lusearch starting warmup 45 =====
===== DaCapo 9.12 lusearch completed warmup 45 in 3032 msec =====
===== DaCapo 9.12 lusearch starting warmup 46 =====
===== DaCapo 9.12 lusearch completed warmup 46 in 3045 msec =====
===== DaCapo 9.12 lusearch starting warmup 47 =====
===== DaCapo 9.12 lusearch completed warmup 47 in 3052 msec =====
===== DaCapo 9.12 lusearch starting warmup 48 =====
===== DaCapo 9.12 lusearch completed warmup 48 in 3069 msec =====
===== DaCapo 9.12 lusearch starting warmup 49 =====
===== DaCapo 9.12 lusearch completed warmup 49 in 3019 msec =====
===== DaCapo 9.12 lusearch starting warmup 50 =====
===== DaCapo 9.12 lusearch completed warmup 50 in 3041 msec =====
===== DaCapo 9.12 lusearch starting warmup 51 =====
===== DaCapo 9.12 lusearch completed warmup 51 in 3013 msec =====
===== DaCapo 9.12 lusearch starting warmup 52 =====
===== DaCapo 9.12 lusearch completed warmup 52 in 3013 msec =====
===== DaCapo 9.12 lusearch starting warmup 53 =====
===== DaCapo 9.12 lusearch completed warmup 53 in 3027 msec =====
===== DaCapo 9.12 lusearch starting warmup 54 =====
===== DaCapo 9.12 lusearch completed warmup 54 in 3037 msec =====
===== DaCapo 9.12 lusearch starting warmup 55 =====
===== DaCapo 9.12 lusearch completed warmup 55 in 3043 msec =====
===== DaCapo 9.12 lusearch starting warmup 56 =====
===== DaCapo 9.12 lusearch completed warmup 56 in 3031 msec =====
===== DaCapo 9.12 lusearch starting warmup 57 =====
===== DaCapo 9.12 lusearch completed warmup 57 in 3026 msec =====
===== DaCapo 9.12 lusearch starting warmup 58 =====
===== DaCapo 9.12 lusearch completed warmup 58 in 3034 msec =====
===== DaCapo 9.12 lusearch starting warmup 59 =====
===== DaCapo 9.12 lusearch completed warmup 59 in 3029 msec =====
===== DaCapo 9.12 lusearch starting warmup 60 =====
===== DaCapo 9.12 lusearch completed warmup 60 in 3030 msec =====
===== DaCapo 9.12 lusearch starting warmup 61 =====
===== DaCapo 9.12 lusearch completed warmup 61 in 3028 msec =====
===== DaCapo 9.12 lusearch starting warmup 62 =====
===== DaCapo 9.12 lusearch completed warmup 62 in 3028 msec =====
===== DaCapo 9.12 lusearch starting warmup 63 =====
===== DaCapo 9.12 lusearch completed warmup 63 in 3032 msec =====
===== DaCapo 9.12 lusearch starting warmup 64 =====
===== DaCapo 9.12 lusearch completed warmup 64 in 3061 msec =====
===== DaCapo 9.12 lusearch starting warmup 65 =====
===== DaCapo 9.12 lusearch completed warmup 65 in 3010 msec =====
===== DaCapo 9.12 lusearch starting warmup 66 =====
===== DaCapo 9.12 lusearch completed warmup 66 in 3021 msec =====
===== DaCapo 9.12 lusearch starting warmup 67 =====
===== DaCapo 9.12 lusearch completed warmup 67 in 3037 msec =====
===== DaCapo 9.12 lusearch starting warmup 68 =====
===== DaCapo 9.12 lusearch completed warmup 68 in 3029 msec =====
===== DaCapo 9.12 lusearch starting warmup 69 =====
===== DaCapo 9.12 lusearch completed warmup 69 in 3021 msec =====
===== DaCapo 9.12 lusearch starting warmup 70 =====
===== DaCapo 9.12 lusearch completed warmup 70 in 3027 msec =====
===== DaCapo 9.12 lusearch starting warmup 71 =====
===== DaCapo 9.12 lusearch completed warmup 71 in 3034 msec =====
===== DaCapo 9.12 lusearch starting warmup 72 =====
===== DaCapo 9.12 lusearch completed warmup 72 in 2998 msec =====
===== DaCapo 9.12 lusearch starting warmup 73 =====
===== DaCapo 9.12 lusearch completed warmup 73 in 3016 msec =====
===== DaCapo 9.12 lusearch starting warmup 74 =====
===== DaCapo 9.12 lusearch completed warmup 74 in 3010 msec =====
===== DaCapo 9.12 lusearch starting warmup 75 =====
===== DaCapo 9.12 lusearch completed warmup 75 in 3040 msec =====
===== DaCapo 9.12 lusearch starting warmup 76 =====
===== DaCapo 9.12 lusearch completed warmup 76 in 3059 msec =====
===== DaCapo 9.12 lusearch starting warmup 77 =====
===== DaCapo 9.12 lusearch completed warmup 77 in 3029 msec =====
===== DaCapo 9.12 lusearch starting warmup 78 =====
===== DaCapo 9.12 lusearch completed warmup 78 in 3026 msec =====
===== DaCapo 9.12 lusearch starting warmup 79 =====
===== DaCapo 9.12 lusearch completed warmup 79 in 3019 msec =====
===== DaCapo 9.12 lusearch starting warmup 80 =====
===== DaCapo 9.12 lusearch completed warmup 80 in 3028 msec =====
===== DaCapo 9.12 lusearch starting warmup 81 =====
===== DaCapo 9.12 lusearch completed warmup 81 in 2996 msec =====
===== DaCapo 9.12 lusearch starting warmup 82 =====
===== DaCapo 9.12 lusearch completed warmup 82 in 3061 msec =====
===== DaCapo 9.12 lusearch starting warmup 83 =====
===== DaCapo 9.12 lusearch completed warmup 83 in 3023 msec =====
===== DaCapo 9.12 lusearch starting warmup 84 =====
===== DaCapo 9.12 lusearch completed warmup 84 in 3048 msec =====
===== DaCapo 9.12 lusearch starting warmup 85 =====
===== DaCapo 9.12 lusearch completed warmup 85 in 3099 msec =====
===== DaCapo 9.12 lusearch starting warmup 86 =====
===== DaCapo 9.12 lusearch completed warmup 86 in 3044 msec =====
===== DaCapo 9.12 lusearch starting warmup 87 =====
===== DaCapo 9.12 lusearch completed warmup 87 in 3018 msec =====
===== DaCapo 9.12 lusearch starting warmup 88 =====
===== DaCapo 9.12 lusearch completed warmup 88 in 3040 msec =====
===== DaCapo 9.12 lusearch starting warmup 89 =====
===== DaCapo 9.12 lusearch completed warmup 89 in 3040 msec =====
===== DaCapo 9.12 lusearch starting warmup 90 =====
===== DaCapo 9.12 lusearch completed warmup 90 in 3035 msec =====
===== DaCapo 9.12 lusearch starting warmup 91 =====
===== DaCapo 9.12 lusearch completed warmup 91 in 3032 msec =====
===== DaCapo 9.12 lusearch starting warmup 92 =====
===== DaCapo 9.12 lusearch completed warmup 92 in 3029 msec =====
===== DaCapo 9.12 lusearch starting warmup 93 =====
===== DaCapo 9.12 lusearch completed warmup 93 in 3038 msec =====
===== DaCapo 9.12 lusearch starting warmup 94 =====
===== DaCapo 9.12 lusearch completed warmup 94 in 3018 msec =====
===== DaCapo 9.12 lusearch starting warmup 95 =====
===== DaCapo 9.12 lusearch completed warmup 95 in 3047 msec =====
===== DaCapo 9.12 lusearch starting warmup 96 =====
===== DaCapo 9.12 lusearch completed warmup 96 in 3041 msec =====
===== DaCapo 9.12 lusearch starting warmup 97 =====
===== DaCapo 9.12 lusearch completed warmup 97 in 3042 msec =====
===== DaCapo 9.12 lusearch starting warmup 98 =====
===== DaCapo 9.12 lusearch completed warmup 98 in 3025 msec =====
===== DaCapo 9.12 lusearch starting warmup 99 =====
===== DaCapo 9.12 lusearch completed warmup 99 in 3016 msec =====
===== DaCapo 9.12 lusearch starting warmup 100 =====
===== DaCapo 9.12 lusearch completed warmup 100 in 3023 msec =====
===== DaCapo 9.12 lusearch starting warmup 101 =====
===== DaCapo 9.12 lusearch completed warmup 101 in 3008 msec =====
===== DaCapo 9.12 lusearch starting warmup 102 =====
===== DaCapo 9.12 lusearch completed warmup 102 in 3029 msec =====
===== DaCapo 9.12 lusearch starting warmup 103 =====
===== DaCapo 9.12 lusearch completed warmup 103 in 3015 msec =====
===== DaCapo 9.12 lusearch starting warmup 104 =====
===== DaCapo 9.12 lusearch completed warmup 104 in 3026 msec =====
===== DaCapo 9.12 lusearch starting warmup 105 =====
===== DaCapo 9.12 lusearch completed warmup 105 in 3023 msec =====
===== DaCapo 9.12 lusearch starting warmup 106 =====
===== DaCapo 9.12 lusearch completed warmup 106 in 3037 msec =====
===== DaCapo 9.12 lusearch starting warmup 107 =====
===== DaCapo 9.12 lusearch completed warmup 107 in 3020 msec =====
===== DaCapo 9.12 lusearch starting warmup 108 =====
===== DaCapo 9.12 lusearch completed warmup 108 in 3033 msec =====
===== DaCapo 9.12 lusearch starting warmup 109 =====
===== DaCapo 9.12 lusearch completed warmup 109 in 3024 msec =====
===== DaCapo 9.12 lusearch starting warmup 110 =====
===== DaCapo 9.12 lusearch completed warmup 110 in 3021 msec =====
===== DaCapo 9.12 lusearch starting warmup 111 =====
===== DaCapo 9.12 lusearch completed warmup 111 in 3026 msec =====
===== DaCapo 9.12 lusearch starting warmup 112 =====
===== DaCapo 9.12 lusearch completed warmup 112 in 3037 msec =====
===== DaCapo 9.12 lusearch starting warmup 113 =====
===== DaCapo 9.12 lusearch completed warmup 113 in 3036 msec =====
===== DaCapo 9.12 lusearch starting warmup 114 =====
===== DaCapo 9.12 lusearch completed warmup 114 in 3028 msec =====
===== DaCapo 9.12 lusearch starting warmup 115 =====
===== DaCapo 9.12 lusearch completed warmup 115 in 3051 msec =====
===== DaCapo 9.12 lusearch starting warmup 116 =====
===== DaCapo 9.12 lusearch completed warmup 116 in 3006 msec =====
===== DaCapo 9.12 lusearch starting warmup 117 =====
===== DaCapo 9.12 lusearch completed warmup 117 in 3016 msec =====
===== DaCapo 9.12 lusearch starting warmup 118 =====
===== DaCapo 9.12 lusearch completed warmup 118 in 3021 msec =====
===== DaCapo 9.12 lusearch starting warmup 119 =====
===== DaCapo 9.12 lusearch completed warmup 119 in 3011 msec =====
===== DaCapo 9.12 lusearch starting warmup 120 =====
===== DaCapo 9.12 lusearch completed warmup 120 in 3021 msec =====
===== DaCapo 9.12 lusearch starting warmup 121 =====
===== DaCapo 9.12 lusearch completed warmup 121 in 3030 msec =====
===== DaCapo 9.12 lusearch starting warmup 122 =====
===== DaCapo 9.12 lusearch completed warmup 122 in 3023 msec =====
===== DaCapo 9.12 lusearch starting warmup 123 =====
===== DaCapo 9.12 lusearch completed warmup 123 in 3023 msec =====
===== DaCapo 9.12 lusearch starting warmup 124 =====
===== DaCapo 9.12 lusearch completed warmup 124 in 3032 msec =====
===== DaCapo 9.12 lusearch starting warmup 125 =====
===== DaCapo 9.12 lusearch completed warmup 125 in 3024 msec =====
===== DaCapo 9.12 lusearch starting warmup 126 =====
===== DaCapo 9.12 lusearch completed warmup 126 in 3031 msec =====
===== DaCapo 9.12 lusearch starting warmup 127 =====
===== DaCapo 9.12 lusearch completed warmup 127 in 3021 msec =====
===== DaCapo 9.12 lusearch starting warmup 128 =====
===== DaCapo 9.12 lusearch completed warmup 128 in 3015 msec =====
===== DaCapo 9.12 lusearch starting warmup 129 =====
===== DaCapo 9.12 lusearch completed warmup 129 in 3055 msec =====
===== DaCapo 9.12 lusearch starting warmup 130 =====
===== DaCapo 9.12 lusearch completed warmup 130 in 3035 msec =====
===== DaCapo 9.12 lusearch starting warmup 131 =====
===== DaCapo 9.12 lusearch completed warmup 131 in 3053 msec =====
===== DaCapo 9.12 lusearch starting warmup 132 =====
===== DaCapo 9.12 lusearch completed warmup 132 in 3011 msec =====
===== DaCapo 9.12 lusearch starting warmup 133 =====
===== DaCapo 9.12 lusearch completed warmup 133 in 3023 msec =====
===== DaCapo 9.12 lusearch starting warmup 134 =====
===== DaCapo 9.12 lusearch completed warmup 134 in 3019 msec =====
===== DaCapo 9.12 lusearch starting warmup 135 =====
===== DaCapo 9.12 lusearch completed warmup 135 in 3041 msec =====
===== DaCapo 9.12 lusearch starting warmup 136 =====
===== DaCapo 9.12 lusearch completed warmup 136 in 3038 msec =====
===== DaCapo 9.12 lusearch starting warmup 137 =====
===== DaCapo 9.12 lusearch completed warmup 137 in 3013 msec =====
===== DaCapo 9.12 lusearch starting warmup 138 =====
===== DaCapo 9.12 lusearch completed warmup 138 in 3034 msec =====
===== DaCapo 9.12 lusearch starting warmup 139 =====
===== DaCapo 9.12 lusearch completed warmup 139 in 3024 msec =====
===== DaCapo 9.12 lusearch starting warmup 140 =====
===== DaCapo 9.12 lusearch completed warmup 140 in 3044 msec =====
===== DaCapo 9.12 lusearch starting warmup 141 =====
===== DaCapo 9.12 lusearch completed warmup 141 in 3021 msec =====
===== DaCapo 9.12 lusearch starting warmup 142 =====
===== DaCapo 9.12 lusearch completed warmup 142 in 3042 msec =====
===== DaCapo 9.12 lusearch starting warmup 143 =====
===== DaCapo 9.12 lusearch completed warmup 143 in 3026 msec =====
===== DaCapo 9.12 lusearch starting warmup 144 =====
===== DaCapo 9.12 lusearch completed warmup 144 in 3044 msec =====
===== DaCapo 9.12 lusearch starting warmup 145 =====
===== DaCapo 9.12 lusearch completed warmup 145 in 3047 msec =====
===== DaCapo 9.12 lusearch starting warmup 146 =====
===== DaCapo 9.12 lusearch completed warmup 146 in 3005 msec =====
===== DaCapo 9.12 lusearch starting warmup 147 =====
===== DaCapo 9.12 lusearch completed warmup 147 in 3031 msec =====
===== DaCapo 9.12 lusearch starting warmup 148 =====
===== DaCapo 9.12 lusearch completed warmup 148 in 3025 msec =====
===== DaCapo 9.12 lusearch starting warmup 149 =====
===== DaCapo 9.12 lusearch completed warmup 149 in 3028 msec =====
===== DaCapo 9.12 lusearch starting warmup 150 =====
===== DaCapo 9.12 lusearch completed warmup 150 in 3039 msec =====
===== DaCapo 9.12 lusearch starting warmup 151 =====
===== DaCapo 9.12 lusearch completed warmup 151 in 3050 msec =====
===== DaCapo 9.12 lusearch starting warmup 152 =====
===== DaCapo 9.12 lusearch completed warmup 152 in 3032 msec =====
===== DaCapo 9.12 lusearch starting warmup 153 =====
===== DaCapo 9.12 lusearch completed warmup 153 in 3037 msec =====
===== DaCapo 9.12 lusearch starting warmup 154 =====
===== DaCapo 9.12 lusearch completed warmup 154 in 3025 msec =====
===== DaCapo 9.12 lusearch starting warmup 155 =====
===== DaCapo 9.12 lusearch completed warmup 155 in 3032 msec =====
===== DaCapo 9.12 lusearch starting warmup 156 =====
===== DaCapo 9.12 lusearch completed warmup 156 in 3010 msec =====
===== DaCapo 9.12 lusearch starting warmup 157 =====
===== DaCapo 9.12 lusearch completed warmup 157 in 3055 msec =====
===== DaCapo 9.12 lusearch starting warmup 158 =====
===== DaCapo 9.12 lusearch completed warmup 158 in 3035 msec =====
===== DaCapo 9.12 lusearch starting warmup 159 =====
===== DaCapo 9.12 lusearch completed warmup 159 in 3026 msec =====
===== DaCapo 9.12 lusearch starting warmup 160 =====
===== DaCapo 9.12 lusearch completed warmup 160 in 3034 msec =====
===== DaCapo 9.12 lusearch starting warmup 161 =====
===== DaCapo 9.12 lusearch completed warmup 161 in 3037 msec =====
===== DaCapo 9.12 lusearch starting warmup 162 =====
===== DaCapo 9.12 lusearch completed warmup 162 in 3021 msec =====
===== DaCapo 9.12 lusearch starting warmup 163 =====
===== DaCapo 9.12 lusearch completed warmup 163 in 3030 msec =====
===== DaCapo 9.12 lusearch starting warmup 164 =====
===== DaCapo 9.12 lusearch completed warmup 164 in 3029 msec =====
===== DaCapo 9.12 lusearch starting warmup 165 =====
===== DaCapo 9.12 lusearch completed warmup 165 in 3037 msec =====
===== DaCapo 9.12 lusearch starting warmup 166 =====
===== DaCapo 9.12 lusearch completed warmup 166 in 3057 msec =====
===== DaCapo 9.12 lusearch starting warmup 167 =====
===== DaCapo 9.12 lusearch completed warmup 167 in 3038 msec =====
===== DaCapo 9.12 lusearch starting warmup 168 =====
===== DaCapo 9.12 lusearch completed warmup 168 in 3032 msec =====
===== DaCapo 9.12 lusearch starting warmup 169 =====
===== DaCapo 9.12 lusearch completed warmup 169 in 3024 msec =====
===== DaCapo 9.12 lusearch starting warmup 170 =====
===== DaCapo 9.12 lusearch completed warmup 170 in 3050 msec =====
===== DaCapo 9.12 lusearch starting warmup 171 =====
===== DaCapo 9.12 lusearch completed warmup 171 in 3042 msec =====
===== DaCapo 9.12 lusearch starting warmup 172 =====
===== DaCapo 9.12 lusearch completed warmup 172 in 3039 msec =====
===== DaCapo 9.12 lusearch starting warmup 173 =====
===== DaCapo 9.12 lusearch completed warmup 173 in 3017 msec =====
===== DaCapo 9.12 lusearch starting warmup 174 =====
===== DaCapo 9.12 lusearch completed warmup 174 in 3041 msec =====
===== DaCapo 9.12 lusearch starting warmup 175 =====
===== DaCapo 9.12 lusearch completed warmup 175 in 3045 msec =====
===== DaCapo 9.12 lusearch starting warmup 176 =====
===== DaCapo 9.12 lusearch completed warmup 176 in 3024 msec =====
===== DaCapo 9.12 lusearch starting warmup 177 =====
===== DaCapo 9.12 lusearch completed warmup 177 in 3046 msec =====
===== DaCapo 9.12 lusearch starting warmup 178 =====
===== DaCapo 9.12 lusearch completed warmup 178 in 3042 msec =====
===== DaCapo 9.12 lusearch starting warmup 179 =====
===== DaCapo 9.12 lusearch completed warmup 179 in 3046 msec =====
===== DaCapo 9.12 lusearch starting warmup 180 =====
===== DaCapo 9.12 lusearch completed warmup 180 in 3024 msec =====
===== DaCapo 9.12 lusearch starting warmup 181 =====
===== DaCapo 9.12 lusearch completed warmup 181 in 3020 msec =====
===== DaCapo 9.12 lusearch starting warmup 182 =====
===== DaCapo 9.12 lusearch completed warmup 182 in 3025 msec =====
===== DaCapo 9.12 lusearch starting warmup 183 =====
===== DaCapo 9.12 lusearch completed warmup 183 in 3051 msec =====
===== DaCapo 9.12 lusearch starting warmup 184 =====
===== DaCapo 9.12 lusearch completed warmup 184 in 3026 msec =====
===== DaCapo 9.12 lusearch starting warmup 185 =====
===== DaCapo 9.12 lusearch completed warmup 185 in 3036 msec =====
===== DaCapo 9.12 lusearch starting warmup 186 =====
===== DaCapo 9.12 lusearch completed warmup 186 in 3024 msec =====
===== DaCapo 9.12 lusearch starting warmup 187 =====
===== DaCapo 9.12 lusearch completed warmup 187 in 3025 msec =====
===== DaCapo 9.12 lusearch starting warmup 188 =====
===== DaCapo 9.12 lusearch completed warmup 188 in 3034 msec =====
===== DaCapo 9.12 lusearch starting warmup 189 =====
===== DaCapo 9.12 lusearch completed warmup 189 in 3033 msec =====
===== DaCapo 9.12 lusearch starting warmup 190 =====
===== DaCapo 9.12 lusearch completed warmup 190 in 3051 msec =====
===== DaCapo 9.12 lusearch starting warmup 191 =====
===== DaCapo 9.12 lusearch completed warmup 191 in 3066 msec =====
===== DaCapo 9.12 lusearch starting warmup 192 =====
===== DaCapo 9.12 lusearch completed warmup 192 in 3038 msec =====
===== DaCapo 9.12 lusearch starting warmup 193 =====
===== DaCapo 9.12 lusearch completed warmup 193 in 3051 msec =====
===== DaCapo 9.12 lusearch starting warmup 194 =====
===== DaCapo 9.12 lusearch completed warmup 194 in 3045 msec =====
===== DaCapo 9.12 lusearch starting warmup 195 =====
===== DaCapo 9.12 lusearch completed warmup 195 in 3020 msec =====
===== DaCapo 9.12 lusearch starting warmup 196 =====
===== DaCapo 9.12 lusearch completed warmup 196 in 3026 msec =====
===== DaCapo 9.12 lusearch starting warmup 197 =====
===== DaCapo 9.12 lusearch completed warmup 197 in 3044 msec =====
===== DaCapo 9.12 lusearch starting warmup 198 =====
===== DaCapo 9.12 lusearch completed warmup 198 in 3048 msec =====
===== DaCapo 9.12 lusearch starting warmup 199 =====
===== DaCapo 9.12 lusearch completed warmup 199 in 3030 msec =====
===== DaCapo 9.12 lusearch starting warmup 200 =====
===== DaCapo 9.12 lusearch completed warmup 200 in 3037 msec =====
===== DaCapo 9.12 lusearch starting warmup 201 =====
===== DaCapo 9.12 lusearch completed warmup 201 in 3040 msec =====
===== DaCapo 9.12 lusearch starting warmup 202 =====
===== DaCapo 9.12 lusearch completed warmup 202 in 3065 msec =====
===== DaCapo 9.12 lusearch starting warmup 203 =====
===== DaCapo 9.12 lusearch completed warmup 203 in 3055 msec =====
===== DaCapo 9.12 lusearch starting warmup 204 =====
===== DaCapo 9.12 lusearch completed warmup 204 in 3039 msec =====
===== DaCapo 9.12 lusearch starting warmup 205 =====
===== DaCapo 9.12 lusearch completed warmup 205 in 3042 msec =====
===== DaCapo 9.12 lusearch starting warmup 206 =====
===== DaCapo 9.12 lusearch completed warmup 206 in 3048 msec =====
===== DaCapo 9.12 lusearch starting warmup 207 =====
===== DaCapo 9.12 lusearch completed warmup 207 in 3041 msec =====
===== DaCapo 9.12 lusearch starting warmup 208 =====
===== DaCapo 9.12 lusearch completed warmup 208 in 3030 msec =====
===== DaCapo 9.12 lusearch starting warmup 209 =====
===== DaCapo 9.12 lusearch completed warmup 209 in 3042 msec =====
===== DaCapo 9.12 lusearch starting warmup 210 =====
===== DaCapo 9.12 lusearch completed warmup 210 in 3014 msec =====
===== DaCapo 9.12 lusearch starting warmup 211 =====
===== DaCapo 9.12 lusearch completed warmup 211 in 3055 msec =====
===== DaCapo 9.12 lusearch starting warmup 212 =====
===== DaCapo 9.12 lusearch completed warmup 212 in 3032 msec =====
===== DaCapo 9.12 lusearch starting warmup 213 =====
===== DaCapo 9.12 lusearch completed warmup 213 in 3026 msec =====
===== DaCapo 9.12 lusearch starting warmup 214 =====
===== DaCapo 9.12 lusearch completed warmup 214 in 3047 msec =====
===== DaCapo 9.12 lusearch starting warmup 215 =====
===== DaCapo 9.12 lusearch completed warmup 215 in 3039 msec =====
===== DaCapo 9.12 lusearch starting warmup 216 =====
===== DaCapo 9.12 lusearch completed warmup 216 in 3033 msec =====
===== DaCapo 9.12 lusearch starting warmup 217 =====
===== DaCapo 9.12 lusearch completed warmup 217 in 3029 msec =====
===== DaCapo 9.12 lusearch starting warmup 218 =====
===== DaCapo 9.12 lusearch completed warmup 218 in 3037 msec =====
===== DaCapo 9.12 lusearch starting warmup 219 =====
===== DaCapo 9.12 lusearch completed warmup 219 in 3047 msec =====
===== DaCapo 9.12 lusearch starting warmup 220 =====
===== DaCapo 9.12 lusearch completed warmup 220 in 3042 msec =====
===== DaCapo 9.12 lusearch starting warmup 221 =====
===== DaCapo 9.12 lusearch completed warmup 221 in 3021 msec =====
===== DaCapo 9.12 lusearch starting warmup 222 =====
===== DaCapo 9.12 lusearch completed warmup 222 in 3011 msec =====
===== DaCapo 9.12 lusearch starting warmup 223 =====
===== DaCapo 9.12 lusearch completed warmup 223 in 3033 msec =====
===== DaCapo 9.12 lusearch starting warmup 224 =====
===== DaCapo 9.12 lusearch completed warmup 224 in 3021 msec =====
===== DaCapo 9.12 lusearch starting warmup 225 =====
===== DaCapo 9.12 lusearch completed warmup 225 in 3023 msec =====
===== DaCapo 9.12 lusearch starting warmup 226 =====
===== DaCapo 9.12 lusearch completed warmup 226 in 3040 msec =====
===== DaCapo 9.12 lusearch starting warmup 227 =====
===== DaCapo 9.12 lusearch completed warmup 227 in 3023 msec =====
===== DaCapo 9.12 lusearch starting warmup 228 =====
===== DaCapo 9.12 lusearch completed warmup 228 in 3031 msec =====
===== DaCapo 9.12 lusearch starting warmup 229 =====
===== DaCapo 9.12 lusearch completed warmup 229 in 3024 msec =====
===== DaCapo 9.12 lusearch starting warmup 230 =====
===== DaCapo 9.12 lusearch completed warmup 230 in 3041 msec =====
===== DaCapo 9.12 lusearch starting warmup 231 =====
===== DaCapo 9.12 lusearch completed warmup 231 in 3041 msec =====
===== DaCapo 9.12 lusearch starting warmup 232 =====
===== DaCapo 9.12 lusearch completed warmup 232 in 3047 msec =====
===== DaCapo 9.12 lusearch starting warmup 233 =====
===== DaCapo 9.12 lusearch completed warmup 233 in 3046 msec =====
===== DaCapo 9.12 lusearch starting warmup 234 =====
===== DaCapo 9.12 lusearch completed warmup 234 in 3021 msec =====
===== DaCapo 9.12 lusearch starting warmup 235 =====
===== DaCapo 9.12 lusearch completed warmup 235 in 3037 msec =====
===== DaCapo 9.12 lusearch starting warmup 236 =====
===== DaCapo 9.12 lusearch completed warmup 236 in 3027 msec =====
===== DaCapo 9.12 lusearch starting warmup 237 =====
===== DaCapo 9.12 lusearch completed warmup 237 in 3029 msec =====
===== DaCapo 9.12 lusearch starting warmup 238 =====
===== DaCapo 9.12 lusearch completed warmup 238 in 3039 msec =====
===== DaCapo 9.12 lusearch starting warmup 239 =====
===== DaCapo 9.12 lusearch completed warmup 239 in 3043 msec =====
===== DaCapo 9.12 lusearch starting warmup 240 =====
===== DaCapo 9.12 lusearch completed warmup 240 in 3029 msec =====
===== DaCapo 9.12 lusearch starting warmup 241 =====
===== DaCapo 9.12 lusearch completed warmup 241 in 3037 msec =====
===== DaCapo 9.12 lusearch starting warmup 242 =====
===== DaCapo 9.12 lusearch completed warmup 242 in 3039 msec =====
===== DaCapo 9.12 lusearch starting warmup 243 =====
===== DaCapo 9.12 lusearch completed warmup 243 in 3035 msec =====
===== DaCapo 9.12 lusearch starting warmup 244 =====
===== DaCapo 9.12 lusearch completed warmup 244 in 3034 msec =====
===== DaCapo 9.12 lusearch starting warmup 245 =====
===== DaCapo 9.12 lusearch completed warmup 245 in 3036 msec =====
===== DaCapo 9.12 lusearch starting warmup 246 =====
===== DaCapo 9.12 lusearch completed warmup 246 in 3037 msec =====
===== DaCapo 9.12 lusearch starting warmup 247 =====
===== DaCapo 9.12 lusearch completed warmup 247 in 3050 msec =====
===== DaCapo 9.12 lusearch starting warmup 248 =====
===== DaCapo 9.12 lusearch completed warmup 248 in 3034 msec =====
===== DaCapo 9.12 lusearch starting warmup 249 =====
===== DaCapo 9.12 lusearch completed warmup 249 in 3060 msec =====
===== DaCapo 9.12 lusearch starting warmup 250 =====
===== DaCapo 9.12 lusearch completed warmup 250 in 3025 msec =====
===== DaCapo 9.12 lusearch starting warmup 251 =====
===== DaCapo 9.12 lusearch completed warmup 251 in 3042 msec =====
===== DaCapo 9.12 lusearch starting warmup 252 =====
===== DaCapo 9.12 lusearch completed warmup 252 in 3052 msec =====
===== DaCapo 9.12 lusearch starting warmup 253 =====
===== DaCapo 9.12 lusearch completed warmup 253 in 3039 msec =====
===== DaCapo 9.12 lusearch starting warmup 254 =====
===== DaCapo 9.12 lusearch completed warmup 254 in 3054 msec =====
===== DaCapo 9.12 lusearch starting warmup 255 =====
===== DaCapo 9.12 lusearch completed warmup 255 in 3030 msec =====
===== DaCapo 9.12 lusearch starting warmup 256 =====
===== DaCapo 9.12 lusearch completed warmup 256 in 3015 msec =====
===== DaCapo 9.12 lusearch starting warmup 257 =====
===== DaCapo 9.12 lusearch completed warmup 257 in 3047 msec =====
===== DaCapo 9.12 lusearch starting warmup 258 =====
===== DaCapo 9.12 lusearch completed warmup 258 in 3047 msec =====
===== DaCapo 9.12 lusearch starting warmup 259 =====
===== DaCapo 9.12 lusearch completed warmup 259 in 3030 msec =====
===== DaCapo 9.12 lusearch starting warmup 260 =====
===== DaCapo 9.12 lusearch completed warmup 260 in 3035 msec =====
===== DaCapo 9.12 lusearch starting warmup 261 =====
===== DaCapo 9.12 lusearch completed warmup 261 in 3029 msec =====
===== DaCapo 9.12 lusearch starting warmup 262 =====
===== DaCapo 9.12 lusearch completed warmup 262 in 3046 msec =====
===== DaCapo 9.12 lusearch starting warmup 263 =====
===== DaCapo 9.12 lusearch completed warmup 263 in 3046 msec =====
===== DaCapo 9.12 lusearch starting warmup 264 =====
===== DaCapo 9.12 lusearch completed warmup 264 in 3033 msec =====
===== DaCapo 9.12 lusearch starting warmup 265 =====
===== DaCapo 9.12 lusearch completed warmup 265 in 3040 msec =====
===== DaCapo 9.12 lusearch starting warmup 266 =====
===== DaCapo 9.12 lusearch completed warmup 266 in 3035 msec =====
===== DaCapo 9.12 lusearch starting warmup 267 =====
===== DaCapo 9.12 lusearch completed warmup 267 in 3034 msec =====
===== DaCapo 9.12 lusearch starting warmup 268 =====
===== DaCapo 9.12 lusearch completed warmup 268 in 3038 msec =====
===== DaCapo 9.12 lusearch starting warmup 269 =====
===== DaCapo 9.12 lusearch completed warmup 269 in 3061 msec =====
===== DaCapo 9.12 lusearch starting warmup 270 =====
===== DaCapo 9.12 lusearch completed warmup 270 in 3037 msec =====
===== DaCapo 9.12 lusearch starting warmup 271 =====
===== DaCapo 9.12 lusearch completed warmup 271 in 3048 msec =====
===== DaCapo 9.12 lusearch starting warmup 272 =====
===== DaCapo 9.12 lusearch completed warmup 272 in 3040 msec =====
===== DaCapo 9.12 lusearch starting warmup 273 =====
===== DaCapo 9.12 lusearch completed warmup 273 in 3027 msec =====
===== DaCapo 9.12 lusearch starting warmup 274 =====
===== DaCapo 9.12 lusearch completed warmup 274 in 3038 msec =====
===== DaCapo 9.12 lusearch starting warmup 275 =====
===== DaCapo 9.12 lusearch completed warmup 275 in 3054 msec =====
===== DaCapo 9.12 lusearch starting warmup 276 =====
===== DaCapo 9.12 lusearch completed warmup 276 in 3034 msec =====
===== DaCapo 9.12 lusearch starting warmup 277 =====
===== DaCapo 9.12 lusearch completed warmup 277 in 3056 msec =====
===== DaCapo 9.12 lusearch starting warmup 278 =====
===== DaCapo 9.12 lusearch completed warmup 278 in 3033 msec =====
===== DaCapo 9.12 lusearch starting warmup 279 =====
===== DaCapo 9.12 lusearch completed warmup 279 in 3036 msec =====
===== DaCapo 9.12 lusearch starting warmup 280 =====
===== DaCapo 9.12 lusearch completed warmup 280 in 3041 msec =====
===== DaCapo 9.12 lusearch starting warmup 281 =====
===== DaCapo 9.12 lusearch completed warmup 281 in 3035 msec =====
===== DaCapo 9.12 lusearch starting warmup 282 =====
===== DaCapo 9.12 lusearch completed warmup 282 in 3047 msec =====
===== DaCapo 9.12 lusearch starting warmup 283 =====
===== DaCapo 9.12 lusearch completed warmup 283 in 3050 msec =====
===== DaCapo 9.12 lusearch starting warmup 284 =====
===== DaCapo 9.12 lusearch completed warmup 284 in 3056 msec =====
===== DaCapo 9.12 lusearch starting warmup 285 =====
===== DaCapo 9.12 lusearch completed warmup 285 in 3051 msec =====
===== DaCapo 9.12 lusearch starting warmup 286 =====
===== DaCapo 9.12 lusearch completed warmup 286 in 3022 msec =====
===== DaCapo 9.12 lusearch starting warmup 287 =====
===== DaCapo 9.12 lusearch completed warmup 287 in 3037 msec =====
===== DaCapo 9.12 lusearch starting warmup 288 =====
===== DaCapo 9.12 lusearch completed warmup 288 in 3036 msec =====
===== DaCapo 9.12 lusearch starting warmup 289 =====
===== DaCapo 9.12 lusearch completed warmup 289 in 3041 msec =====
===== DaCapo 9.12 lusearch starting warmup 290 =====
===== DaCapo 9.12 lusearch completed warmup 290 in 3042 msec =====
===== DaCapo 9.12 lusearch starting warmup 291 =====
===== DaCapo 9.12 lusearch completed warmup 291 in 3067 msec =====
===== DaCapo 9.12 lusearch starting warmup 292 =====
===== DaCapo 9.12 lusearch completed warmup 292 in 3036 msec =====
===== DaCapo 9.12 lusearch starting warmup 293 =====
===== DaCapo 9.12 lusearch completed warmup 293 in 3063 msec =====
===== DaCapo 9.12 lusearch starting warmup 294 =====
===== DaCapo 9.12 lusearch completed warmup 294 in 3036 msec =====
===== DaCapo 9.12 lusearch starting warmup 295 =====
===== DaCapo 9.12 lusearch completed warmup 295 in 3045 msec =====
===== DaCapo 9.12 lusearch starting warmup 296 =====
===== DaCapo 9.12 lusearch completed warmup 296 in 3036 msec =====
===== DaCapo 9.12 lusearch starting warmup 297 =====
===== DaCapo 9.12 lusearch completed warmup 297 in 3022 msec =====
===== DaCapo 9.12 lusearch starting warmup 298 =====
===== DaCapo 9.12 lusearch completed warmup 298 in 3038 msec =====
===== DaCapo 9.12 lusearch starting warmup 299 =====
===== DaCapo 9.12 lusearch completed warmup 299 in 3034 msec =====
===== DaCapo 9.12 lusearch starting warmup 300 =====
===== DaCapo 9.12 lusearch completed warmup 300 in 3039 msec =====
===== DaCapo 9.12 lusearch starting warmup 301 =====
===== DaCapo 9.12 lusearch completed warmup 301 in 3046 msec =====
===== DaCapo 9.12 lusearch starting warmup 302 =====
===== DaCapo 9.12 lusearch completed warmup 302 in 3035 msec =====
===== DaCapo 9.12 lusearch starting warmup 303 =====
===== DaCapo 9.12 lusearch completed warmup 303 in 3036 msec =====
===== DaCapo 9.12 lusearch starting warmup 304 =====
===== DaCapo 9.12 lusearch completed warmup 304 in 3032 msec =====
===== DaCapo 9.12 lusearch starting warmup 305 =====
===== DaCapo 9.12 lusearch completed warmup 305 in 3041 msec =====
===== DaCapo 9.12 lusearch starting warmup 306 =====
===== DaCapo 9.12 lusearch completed warmup 306 in 3015 msec =====
===== DaCapo 9.12 lusearch starting warmup 307 =====
===== DaCapo 9.12 lusearch completed warmup 307 in 3033 msec =====
===== DaCapo 9.12 lusearch starting warmup 308 =====
===== DaCapo 9.12 lusearch completed warmup 308 in 3038 msec =====
===== DaCapo 9.12 lusearch starting warmup 309 =====
===== DaCapo 9.12 lusearch completed warmup 309 in 3019 msec =====
===== DaCapo 9.12 lusearch starting warmup 310 =====
===== DaCapo 9.12 lusearch completed warmup 310 in 3025 msec =====
===== DaCapo 9.12 lusearch starting warmup 311 =====
===== DaCapo 9.12 lusearch completed warmup 311 in 3031 msec =====
===== DaCapo 9.12 lusearch starting warmup 312 =====
===== DaCapo 9.12 lusearch completed warmup 312 in 3034 msec =====
===== DaCapo 9.12 lusearch starting warmup 313 =====
===== DaCapo 9.12 lusearch completed warmup 313 in 3023 msec =====
===== DaCapo 9.12 lusearch starting warmup 314 =====
===== DaCapo 9.12 lusearch completed warmup 314 in 3039 msec =====
===== DaCapo 9.12 lusearch starting warmup 315 =====
===== DaCapo 9.12 lusearch completed warmup 315 in 3034 msec =====
===== DaCapo 9.12 lusearch starting warmup 316 =====
===== DaCapo 9.12 lusearch completed warmup 316 in 3058 msec =====
===== DaCapo 9.12 lusearch starting warmup 317 =====
===== DaCapo 9.12 lusearch completed warmup 317 in 3017 msec =====
===== DaCapo 9.12 lusearch starting warmup 318 =====
===== DaCapo 9.12 lusearch completed warmup 318 in 3043 msec =====
===== DaCapo 9.12 lusearch starting warmup 319 =====
===== DaCapo 9.12 lusearch completed warmup 319 in 3040 msec =====
===== DaCapo 9.12 lusearch starting warmup 320 =====
===== DaCapo 9.12 lusearch completed warmup 320 in 3043 msec =====
===== DaCapo 9.12 lusearch starting warmup 321 =====
===== DaCapo 9.12 lusearch completed warmup 321 in 3038 msec =====
===== DaCapo 9.12 lusearch starting warmup 322 =====
===== DaCapo 9.12 lusearch completed warmup 322 in 3033 msec =====
===== DaCapo 9.12 lusearch starting warmup 323 =====
===== DaCapo 9.12 lusearch completed warmup 323 in 3029 msec =====
===== DaCapo 9.12 lusearch starting warmup 324 =====
===== DaCapo 9.12 lusearch completed warmup 324 in 3052 msec =====
===== DaCapo 9.12 lusearch starting warmup 325 =====
===== DaCapo 9.12 lusearch completed warmup 325 in 3025 msec =====
===== DaCapo 9.12 lusearch starting warmup 326 =====
===== DaCapo 9.12 lusearch completed warmup 326 in 3038 msec =====
===== DaCapo 9.12 lusearch starting warmup 327 =====
===== DaCapo 9.12 lusearch completed warmup 327 in 3035 msec =====
===== DaCapo 9.12 lusearch starting warmup 328 =====
===== DaCapo 9.12 lusearch completed warmup 328 in 3050 msec =====
===== DaCapo 9.12 lusearch starting warmup 329 =====
===== DaCapo 9.12 lusearch completed warmup 329 in 3058 msec =====
===== DaCapo 9.12 lusearch starting warmup 330 =====
===== DaCapo 9.12 lusearch completed warmup 330 in 3026 msec =====
===== DaCapo 9.12 lusearch starting warmup 331 =====
===== DaCapo 9.12 lusearch completed warmup 331 in 3045 msec =====
===== DaCapo 9.12 lusearch starting warmup 332 =====
===== DaCapo 9.12 lusearch completed warmup 332 in 3021 msec =====
===== DaCapo 9.12 lusearch starting warmup 333 =====
===== DaCapo 9.12 lusearch completed warmup 333 in 3039 msec =====
===== DaCapo 9.12 lusearch starting warmup 334 =====
===== DaCapo 9.12 lusearch completed warmup 334 in 3042 msec =====
===== DaCapo 9.12 lusearch starting warmup 335 =====
===== DaCapo 9.12 lusearch completed warmup 335 in 3031 msec =====
===== DaCapo 9.12 lusearch starting warmup 336 =====
===== DaCapo 9.12 lusearch completed warmup 336 in 3034 msec =====
===== DaCapo 9.12 lusearch starting warmup 337 =====
===== DaCapo 9.12 lusearch completed warmup 337 in 3042 msec =====
===== DaCapo 9.12 lusearch starting warmup 338 =====
===== DaCapo 9.12 lusearch completed warmup 338 in 3044 msec =====
===== DaCapo 9.12 lusearch starting warmup 339 =====
===== DaCapo 9.12 lusearch completed warmup 339 in 3061 msec =====
===== DaCapo 9.12 lusearch starting warmup 340 =====
===== DaCapo 9.12 lusearch completed warmup 340 in 3040 msec =====
===== DaCapo 9.12 lusearch starting warmup 341 =====
===== DaCapo 9.12 lusearch completed warmup 341 in 3025 msec =====
===== DaCapo 9.12 lusearch starting warmup 342 =====
===== DaCapo 9.12 lusearch completed warmup 342 in 3049 msec =====
===== DaCapo 9.12 lusearch starting warmup 343 =====
===== DaCapo 9.12 lusearch completed warmup 343 in 3038 msec =====
===== DaCapo 9.12 lusearch starting warmup 344 =====
===== DaCapo 9.12 lusearch completed warmup 344 in 3046 msec =====
===== DaCapo 9.12 lusearch starting warmup 345 =====
===== DaCapo 9.12 lusearch completed warmup 345 in 3047 msec =====
===== DaCapo 9.12 lusearch starting warmup 346 =====
===== DaCapo 9.12 lusearch completed warmup 346 in 3031 msec =====
===== DaCapo 9.12 lusearch starting warmup 347 =====
===== DaCapo 9.12 lusearch completed warmup 347 in 3023 msec =====
===== DaCapo 9.12 lusearch starting warmup 348 =====
===== DaCapo 9.12 lusearch completed warmup 348 in 3038 msec =====
===== DaCapo 9.12 lusearch starting warmup 349 =====
===== DaCapo 9.12 lusearch completed warmup 349 in 3052 msec =====
===== DaCapo 9.12 lusearch starting warmup 350 =====
===== DaCapo 9.12 lusearch completed warmup 350 in 3067 msec =====
===== DaCapo 9.12 lusearch starting warmup 351 =====
===== DaCapo 9.12 lusearch completed warmup 351 in 3043 msec =====
===== DaCapo 9.12 lusearch starting warmup 352 =====
===== DaCapo 9.12 lusearch completed warmup 352 in 3052 msec =====
===== DaCapo 9.12 lusearch starting warmup 353 =====
===== DaCapo 9.12 lusearch completed warmup 353 in 3068 msec =====
===== DaCapo 9.12 lusearch starting warmup 354 =====
===== DaCapo 9.12 lusearch completed warmup 354 in 3050 msec =====
===== DaCapo 9.12 lusearch starting warmup 355 =====
===== DaCapo 9.12 lusearch completed warmup 355 in 3041 msec =====
===== DaCapo 9.12 lusearch starting warmup 356 =====
===== DaCapo 9.12 lusearch completed warmup 356 in 3045 msec =====
===== DaCapo 9.12 lusearch starting warmup 357 =====
===== DaCapo 9.12 lusearch completed warmup 357 in 3024 msec =====
===== DaCapo 9.12 lusearch starting warmup 358 =====
===== DaCapo 9.12 lusearch completed warmup 358 in 3075 msec =====
===== DaCapo 9.12 lusearch starting warmup 359 =====
===== DaCapo 9.12 lusearch completed warmup 359 in 3054 msec =====
===== DaCapo 9.12 lusearch starting warmup 360 =====
===== DaCapo 9.12 lusearch completed warmup 360 in 3025 msec =====
===== DaCapo 9.12 lusearch starting warmup 361 =====
===== DaCapo 9.12 lusearch completed warmup 361 in 3037 msec =====
===== DaCapo 9.12 lusearch starting warmup 362 =====
===== DaCapo 9.12 lusearch completed warmup 362 in 3049 msec =====
===== DaCapo 9.12 lusearch starting warmup 363 =====
===== DaCapo 9.12 lusearch completed warmup 363 in 3051 msec =====
===== DaCapo 9.12 lusearch starting warmup 364 =====
===== DaCapo 9.12 lusearch completed warmup 364 in 3090 msec =====
===== DaCapo 9.12 lusearch starting warmup 365 =====
===== DaCapo 9.12 lusearch completed warmup 365 in 3028 msec =====
===== DaCapo 9.12 lusearch starting warmup 366 =====
===== DaCapo 9.12 lusearch completed warmup 366 in 3030 msec =====
===== DaCapo 9.12 lusearch starting warmup 367 =====
===== DaCapo 9.12 lusearch completed warmup 367 in 3032 msec =====
===== DaCapo 9.12 lusearch starting warmup 368 =====
===== DaCapo 9.12 lusearch completed warmup 368 in 3032 msec =====
===== DaCapo 9.12 lusearch starting warmup 369 =====
===== DaCapo 9.12 lusearch completed warmup 369 in 3033 msec =====
===== DaCapo 9.12 lusearch starting warmup 370 =====
===== DaCapo 9.12 lusearch completed warmup 370 in 3037 msec =====
===== DaCapo 9.12 lusearch starting warmup 371 =====
===== DaCapo 9.12 lusearch completed warmup 371 in 3040 msec =====
===== DaCapo 9.12 lusearch starting warmup 372 =====
===== DaCapo 9.12 lusearch completed warmup 372 in 3026 msec =====
===== DaCapo 9.12 lusearch starting warmup 373 =====
===== DaCapo 9.12 lusearch completed warmup 373 in 3033 msec =====
===== DaCapo 9.12 lusearch starting warmup 374 =====
===== DaCapo 9.12 lusearch completed warmup 374 in 3028 msec =====
===== DaCapo 9.12 lusearch starting warmup 375 =====
===== DaCapo 9.12 lusearch completed warmup 375 in 3020 msec =====
===== DaCapo 9.12 lusearch starting warmup 376 =====
===== DaCapo 9.12 lusearch completed warmup 376 in 3035 msec =====
===== DaCapo 9.12 lusearch starting warmup 377 =====
===== DaCapo 9.12 lusearch completed warmup 377 in 3042 msec =====
===== DaCapo 9.12 lusearch starting warmup 378 =====
===== DaCapo 9.12 lusearch completed warmup 378 in 3021 msec =====
===== DaCapo 9.12 lusearch starting warmup 379 =====
===== DaCapo 9.12 lusearch completed warmup 379 in 3039 msec =====
===== DaCapo 9.12 lusearch starting warmup 380 =====
===== DaCapo 9.12 lusearch completed warmup 380 in 3043 msec =====
===== DaCapo 9.12 lusearch starting warmup 381 =====
===== DaCapo 9.12 lusearch completed warmup 381 in 3045 msec =====
===== DaCapo 9.12 lusearch starting warmup 382 =====
