2 302 261.2 415.4 1.93907194297 1.62480768093 0.217666666667 0.346166666667 0.00161589328581 0.00135400640078 260.0 416.0 0.216666666667 0.346666666667
202 702 412.6 427.6 8.49941174435 4.07921561087 0.343833333333 0.356333333333 0.00708284312029 0.00339934634239 412.0 426.0 0.343333333333 0.355
702 2 442.4 235.0 8.7544274513 0.894427191 0.368666666667 0.195833333333 0.00729535620942 0.0007453559925 445.0 235.0 0.370524562864 0.195670274771
