MemTotal:       16318588 kB
MemFree:        12803588 kB
Buffers:          230876 kB
Cached:          2786716 kB
SwapCached:            0 kB
Active:          2760568 kB
Inactive:         485256 kB
Active(anon):     228852 kB
Inactive(anon):      748 kB
Active(file):    2531716 kB
Inactive(file):   484508 kB
Unevictable:           0 kB
Mlocked:               0 kB
SwapTotal:      16728060 kB
SwapFree:       16728060 kB
Dirty:                76 kB
Writeback:             0 kB
AnonPages:        227988 kB
Mapped:            17176 kB
Shmem:              1552 kB
Slab:             140340 kB
SReclaimable:     121808 kB
SUnreclaim:        18532 kB
KernelStack:        1712 kB
PageTables:         3424 kB
NFS_Unstable:          0 kB
Bounce:                0 kB
WritebackTmp:          0 kB
CommitLimit:    24887352 kB
Committed_AS:     401172 kB
VmallocTotal:   34359738367 kB
VmallocUsed:      375664 kB
VmallocChunk:   34359355992 kB
HardwareCorrupted:     0 kB
AnonHugePages:    258048 kB
HugePages_Total:       0
HugePages_Free:        0
HugePages_Rsvd:        0
HugePages_Surp:        0
Hugepagesize:       2048 kB
DirectMap4k:       66496 kB
DirectMap2M:    16594944 kB
