MemTotal:       16388228 kB
MemFree:        15725048 kB
Buffers:           56220 kB
Cached:           289560 kB
SwapCached:            0 kB
Active:           211044 kB
Inactive:         250732 kB
Active(anon):     116612 kB
Inactive(anon):    16572 kB
Active(file):      94432 kB
Inactive(file):   234160 kB
Unevictable:           0 kB
Mlocked:               0 kB
SwapTotal:      16728060 kB
SwapFree:       16728060 kB
Dirty:                44 kB
Writeback:             0 kB
AnonPages:        115816 kB
Mapped:            85708 kB
Shmem:             17348 kB
Slab:              49772 kB
SReclaimable:      28016 kB
SUnreclaim:        21756 kB
KernelStack:        1992 kB
PageTables:         8436 kB
NFS_Unstable:          0 kB
Bounce:                0 kB
WritebackTmp:          0 kB
CommitLimit:    24922172 kB
Committed_AS:     441212 kB
VmallocTotal:   34359738367 kB
VmallocUsed:      114452 kB
VmallocChunk:   34359524424 kB
HardwareCorrupted:     0 kB
AnonHugePages:     55296 kB
HugePages_Total:       0
HugePages_Free:        0
HugePages_Rsvd:        0
HugePages_Surp:        0
Hugepagesize:       2048 kB
DirectMap4k:       91076 kB
DirectMap2M:    16640000 kB
