economemd
    total memory: 1219 MB
    timer interval: 10 s
    timer start state: running
    utility model: root

    caches:
        lru

    force utility function validity: yes
    make recommendations: yes
    equal recommendations: no

    reading receiver name: vengerov
    command receiver name: vengerov

    dump file: economemd.dump.log
    log file: /home/callum/economics_memory_code/dynamic_sizing/data/output/timerComparisonMany_2014_09_25_14_54_37/sub7_timerComparisonSingle/sub3_timeBenchmarkDaemon/daemon_run03_log.txt
    log readings: yes
    log functions: yes

PyOptimiser: initialising...
PyOptimiser: initialised
CommandThread: starting
TimerThread: starting
ReadingThread: starting
Recommendation: no clients; no recommendation
Recommendation: no clients; no recommendation
Reading from 18136: heap size 9 MB, throughput 0.998903
Clients: 1
Client 18136 has a minimum heap size of 8 MB
Reading from 18135: heap size 9 MB, throughput 0.999027
Clients: 2
Client 18135 has a minimum heap size of 1211 MB
Reading from 18135: heap size 9 MB, throughput 0.998564
Reading from 18135: heap size 9 MB, throughput 0.99772
Reading from 18135: heap size 9 MB, throughput 0.996055
Reading from 18135: heap size 9 MB, throughput 0.996264
Reading from 18135: heap size 9 MB, throughput 0.994062
Reading from 18135: heap size 10 MB, throughput 0.988324
Reading from 18135: heap size 10 MB, throughput 0.969987
Reading from 18135: heap size 12 MB, throughput 0.959679
Reading from 18135: heap size 12 MB, throughput 0.948492
Reading from 18135: heap size 15 MB, throughput 0.981638
Reading from 18135: heap size 19 MB, throughput 0.894034
Reading from 18135: heap size 22 MB, throughput 0.735751
Reading from 18136: heap size 9 MB, throughput 0.999251
Reading from 18136: heap size 9 MB, throughput 0.998468
Reading from 18136: heap size 9 MB, throughput 0.997183
Reading from 18135: heap size 23 MB, throughput 0.692392
Reading from 18136: heap size 9 MB, throughput 0.995238
Reading from 18136: heap size 9 MB, throughput 0.98758
Reading from 18135: heap size 34 MB, throughput 0.651686
Reading from 18135: heap size 34 MB, throughput 0.523858
Reading from 18135: heap size 38 MB, throughput 0.638962
Reading from 18135: heap size 48 MB, throughput 0.521156
Reading from 18136: heap size 12 MB, throughput 0.969896
Reading from 18136: heap size 12 MB, throughput 0.969199
Reading from 18136: heap size 17 MB, throughput 0.969082
Reading from 18135: heap size 51 MB, throughput 0.356682
Reading from 18136: heap size 17 MB, throughput 0.963636
Reading from 18135: heap size 66 MB, throughput 0.422299
Reading from 18136: heap size 22 MB, throughput 0.984112
Reading from 18136: heap size 24 MB, throughput 0.833606
Reading from 18135: heap size 69 MB, throughput 0.412505
Reading from 18136: heap size 29 MB, throughput 0.896656
Reading from 18136: heap size 31 MB, throughput 0.863205
Reading from 18136: heap size 40 MB, throughput 0.902749
Reading from 18136: heap size 40 MB, throughput 0.938203
Reading from 18135: heap size 70 MB, throughput 0.439919
Reading from 18135: heap size 94 MB, throughput 0.579819
Reading from 18136: heap size 52 MB, throughput 0.946531
Reading from 18135: heap size 95 MB, throughput 0.665933
Reading from 18136: heap size 53 MB, throughput 0.960306
Reading from 18135: heap size 97 MB, throughput 0.394875
Reading from 18136: heap size 65 MB, throughput 0.942506
Reading from 18135: heap size 99 MB, throughput 0.317512
Reading from 18136: heap size 65 MB, throughput 0.953107
Reading from 18136: heap size 80 MB, throughput 0.9781
Reading from 18135: heap size 100 MB, throughput 0.481649
Reading from 18136: heap size 80 MB, throughput 0.987593
Reading from 18135: heap size 129 MB, throughput 0.409152
Reading from 18136: heap size 96 MB, throughput 0.989815
Reading from 18135: heap size 130 MB, throughput 0.477376
Reading from 18135: heap size 132 MB, throughput 0.267318
Reading from 18136: heap size 97 MB, throughput 0.991637
Reading from 18135: heap size 134 MB, throughput 0.677758
Reading from 18135: heap size 139 MB, throughput 0.643499
Reading from 18136: heap size 116 MB, throughput 0.989316
Reading from 18135: heap size 140 MB, throughput 0.657354
Reading from 18135: heap size 145 MB, throughput 0.639182
Reading from 18136: heap size 116 MB, throughput 0.992897
Reading from 18136: heap size 132 MB, throughput 0.992881
Reading from 18136: heap size 133 MB, throughput 0.992854
Reading from 18135: heap size 148 MB, throughput 0.364115
Reading from 18135: heap size 181 MB, throughput 0.544294
Reading from 18135: heap size 185 MB, throughput 0.632958
Reading from 18136: heap size 151 MB, throughput 0.994894
Reading from 18135: heap size 186 MB, throughput 0.579667
Reading from 18135: heap size 187 MB, throughput 0.589112
Reading from 18135: heap size 190 MB, throughput 0.593281
Reading from 18136: heap size 151 MB, throughput 0.994907
Reading from 18136: heap size 168 MB, throughput 0.995638
Reading from 18135: heap size 194 MB, throughput 0.368303
Reading from 18135: heap size 228 MB, throughput 0.569379
Reading from 18135: heap size 234 MB, throughput 0.631256
Reading from 18136: heap size 169 MB, throughput 0.995976
Reading from 18135: heap size 234 MB, throughput 0.621929
Reading from 18135: heap size 236 MB, throughput 0.615866
Reading from 18136: heap size 186 MB, throughput 0.99395
Reading from 18135: heap size 240 MB, throughput 0.611571
Reading from 18135: heap size 245 MB, throughput 0.564578
Reading from 18135: heap size 250 MB, throughput 0.564139
Reading from 18136: heap size 187 MB, throughput 0.995086
Reading from 18136: heap size 204 MB, throughput 0.995475
Reading from 18135: heap size 254 MB, throughput 0.38434
Reading from 18136: heap size 204 MB, throughput 0.995883
Reading from 18135: heap size 294 MB, throughput 0.49862
Reading from 18135: heap size 293 MB, throughput 0.537997
Reading from 18136: heap size 221 MB, throughput 0.996439
Reading from 18135: heap size 296 MB, throughput 0.574882
Reading from 18136: heap size 221 MB, throughput 0.995467
Reading from 18135: heap size 293 MB, throughput 0.304933
Reading from 18135: heap size 336 MB, throughput 0.531802
Reading from 18135: heap size 334 MB, throughput 0.610113
Reading from 18136: heap size 238 MB, throughput 0.997299
Reading from 18135: heap size 337 MB, throughput 0.618502
Reading from 18135: heap size 339 MB, throughput 0.617091
Reading from 18135: heap size 342 MB, throughput 0.59848
Reading from 18136: heap size 238 MB, throughput 0.997701
Reading from 18135: heap size 345 MB, throughput 0.534773
Reading from 18135: heap size 353 MB, throughput 0.53346
Reading from 18135: heap size 357 MB, throughput 0.483569
Reading from 18136: heap size 254 MB, throughput 0.997785
Reading from 18135: heap size 365 MB, throughput 0.497255
Numeric result:
Recommendation: 2 clients, utility 0.925314:
    h1: 8 MB (U(h) = 0.869226*h^0.0249209)
    h2: 1211 MB (U(h) = 1.00362*h^0.001)
Recommendation: 2 clients, utility 0.925314:
    h1: 8 MB (U(h) = 0.869226*h^0.0249209)
    h2: 1211 MB (U(h) = 1.00362*h^0.001)
Reading from 18136: heap size 255 MB, throughput 0.997978
Reading from 18135: heap size 371 MB, throughput 0.346202
Reading from 18136: heap size 267 MB, throughput 0.998015
Reading from 18135: heap size 421 MB, throughput 0.414561
Reading from 18135: heap size 421 MB, throughput 0.472402
Reading from 18136: heap size 267 MB, throughput 0.997734
Reading from 18136: heap size 414 MB, throughput 0.998002
Reading from 18135: heap size 424 MB, throughput 0.184857
Reading from 18135: heap size 470 MB, throughput 0.440945
Reading from 18135: heap size 474 MB, throughput 0.5124
Reading from 18135: heap size 468 MB, throughput 0.547282
Reading from 18136: heap size 414 MB, throughput 0.998076
Reading from 18135: heap size 472 MB, throughput 0.573614
Reading from 18135: heap size 473 MB, throughput 0.555737
Reading from 18135: heap size 475 MB, throughput 0.534258
Reading from 18135: heap size 480 MB, throughput 0.519647
Reading from 18136: heap size 414 MB, throughput 0.997846
Reading from 18135: heap size 485 MB, throughput 0.534883
Reading from 18136: heap size 414 MB, throughput 0.99787
Reading from 18135: heap size 491 MB, throughput 0.347754
Reading from 18135: heap size 550 MB, throughput 0.422607
Reading from 18135: heap size 559 MB, throughput 0.437498
Reading from 18136: heap size 414 MB, throughput 0.994531
Reading from 18135: heap size 562 MB, throughput 0.499893
Reading from 18136: heap size 414 MB, throughput 0.997585
Reading from 18135: heap size 570 MB, throughput 0.224497
Numeric result:
Recommendation: 2 clients, utility 0.995654:
    h1: 8 MB (U(h) = 0.871626*h^0.0241904)
    h2: 1211 MB (U(h) = 1.07857*h^0.001)
Recommendation: 2 clients, utility 0.995654:
    h1: 8 MB (U(h) = 0.871626*h^0.0241904)
    h2: 1211 MB (U(h) = 1.07857*h^0.001)
Numeric result:
Recommendation: 2 clients, utility 0.995654:
    h1: 8 MB (U(h) = 0.871626*h^0.0241904)
    h2: 1211 MB (U(h) = 1.07857*h^0.001)
Recommendation: 2 clients, utility 0.995654:
    h1: 8 MB (U(h) = 0.871626*h^0.0241904)
    h2: 1211 MB (U(h) = 1.07857*h^0.001)
Reading from 18136: heap size 412 MB, throughput 0.861289
Reading from 18135: heap size 634 MB, throughput 0.00896368
Numeric result:
Recommendation: 2 clients, utility 1.32266:
    h1: 8 MB (U(h) = 0.896254*h^0.0168337)
    h2: 1211 MB (U(h) = 1.41492*h^0.001)
Recommendation: 2 clients, utility 1.32266:
    h1: 8 MB (U(h) = 0.896254*h^0.0168337)
    h2: 1211 MB (U(h) = 1.41492*h^0.001)
Reading from 18136: heap size 413 MB, throughput 0.956454
Reading from 18136: heap size 413 MB, throughput 0.957378
Reading from 18136: heap size 413 MB, throughput 0.960331
Numeric result:
Recommendation: 2 clients, utility 1.32593:
    h1: 8 MB (U(h) = 0.901173*h^0.0153891)
    h2: 1211 MB (U(h) = 1.41492*h^0.001)
Recommendation: 2 clients, utility 1.32593:
    h1: 8 MB (U(h) = 0.901173*h^0.0153891)
    h2: 1211 MB (U(h) = 1.41492*h^0.001)
Reading from 18136: heap size 413 MB, throughput 0.96345
Reading from 18136: heap size 412 MB, throughput 0.955892
Reading from 18136: heap size 413 MB, throughput 0.969437
Reading from 18136: heap size 413 MB, throughput 0.980775
Reading from 18136: heap size 414 MB, throughput 0.988352
Reading from 18136: heap size 414 MB, throughput 0.992345
Reading from 18136: heap size 414 MB, throughput 0.995626
Reading from 18136: heap size 414 MB, throughput 0.997266
Reading from 18136: heap size 414 MB, throughput 0.998026
Reading from 18135: heap size 640 MB, throughput 0.337333
Reading from 18135: heap size 640 MB, throughput 0.344451
Reading from 18136: heap size 414 MB, throughput 0.95528
Reading from 18136: heap size 414 MB, throughput 0.965193
Numeric result:
Recommendation: 2 clients, utility 1.33:
    h1: 8 MB (U(h) = 0.895196*h^0.0171467)
    h2: 1211 MB (U(h) = 1.42352*h^0.001)
Recommendation: 2 clients, utility 1.33:
    h1: 8 MB (U(h) = 0.895196*h^0.0171467)
    h2: 1211 MB (U(h) = 1.42352*h^0.001)
Reading from 18136: heap size 414 MB, throughput 0.931605
Reading from 18136: heap size 414 MB, throughput 0.903879
Reading from 18136: heap size 414 MB, throughput 0.94234
Reading from 18136: heap size 414 MB, throughput 0.964758
Reading from 18136: heap size 414 MB, throughput 0.980498
Reading from 18136: heap size 414 MB, throughput 0.990282
Reading from 18136: heap size 414 MB, throughput 0.994479
Reading from 18136: heap size 414 MB, throughput 0.996021
Reading from 18136: heap size 414 MB, throughput 0.994286
Reading from 18136: heap size 414 MB, throughput 0.99613
Reading from 18136: heap size 414 MB, throughput 0.997689
Reading from 18135: heap size 641 MB, throughput 0.213161
Reading from 18136: heap size 414 MB, throughput 0.998178
Reading from 18135: heap size 720 MB, throughput 0.297042
Reading from 18136: heap size 414 MB, throughput 0.998467
Reading from 18136: heap size 414 MB, throughput 0.739934
Numeric result:
Recommendation: 2 clients, utility 1.40836:
    h1: 8 MB (U(h) = 0.911273*h^0.0124499)
    h2: 1211 MB (U(h) = 1.49534*h^0.001)
Recommendation: 2 clients, utility 1.40836:
    h1: 8 MB (U(h) = 0.911273*h^0.0124499)
    h2: 1211 MB (U(h) = 1.49534*h^0.001)
Reading from 18136: heap size 414 MB, throughput 0.785229
Reading from 18136: heap size 412 MB, throughput 0.812663
Reading from 18136: heap size 413 MB, throughput 0.842738
Reading from 18136: heap size 412 MB, throughput 0.88691
Reading from 18136: heap size 412 MB, throughput 0.931831
Reading from 18136: heap size 412 MB, throughput 0.96283
Reading from 18136: heap size 412 MB, throughput 0.899039
Numeric result:
Recommendation: 2 clients, utility 1.41969:
    h1: 8 MB (U(h) = 0.927596*h^0.00776494)
    h2: 1211 MB (U(h) = 1.49534*h^0.001)
Recommendation: 2 clients, utility 1.41969:
    h1: 8 MB (U(h) = 0.927596*h^0.00776494)
    h2: 1211 MB (U(h) = 1.49534*h^0.001)
Numeric result:
Recommendation: 2 clients, utility 1.41969:
    h1: 8 MB (U(h) = 0.927596*h^0.00776494)
    h2: 1211 MB (U(h) = 1.49534*h^0.001)
Recommendation: 2 clients, utility 1.41969:
    h1: 8 MB (U(h) = 0.927596*h^0.00776494)
    h2: 1211 MB (U(h) = 1.49534*h^0.001)
Reading from 18136: heap size 412 MB, throughput 0.382565
Reading from 18135: heap size 718 MB, throughput 0.0565516
Numeric result:
Recommendation: 2 clients, utility 1.67468:
    h1: 8 MB (U(h) = 0.980129*h^0.001)
    h2: 1211 MB (U(h) = 1.69303*h^0.001)
Recommendation: 2 clients, utility 1.67468:
    h1: 8 MB (U(h) = 0.980129*h^0.001)
    h2: 1211 MB (U(h) = 1.69303*h^0.001)
Numeric result:
Recommendation: 2 clients, utility 1.67468:
    h1: 8 MB (U(h) = 0.980129*h^0.001)
    h2: 1211 MB (U(h) = 1.69303*h^0.001)
Recommendation: 2 clients, utility 1.67468:
    h1: 8 MB (U(h) = 0.980129*h^0.001)
    h2: 1211 MB (U(h) = 1.69303*h^0.001)
Reading from 18136: heap size 412 MB, throughput 0.9735
Reading from 18136: heap size 412 MB, throughput 0.974495
Reading from 18136: heap size 412 MB, throughput 0.97662
Reading from 18136: heap size 412 MB, throughput 0.504613
Reading from 18136: heap size 412 MB, throughput 0.583238
Reading from 18136: heap size 412 MB, throughput 0.675352
Reading from 18136: heap size 412 MB, throughput 0.259087
Reading from 18136: heap size 411 MB, throughput 0.228822
Numeric result:
Recommendation: 2 clients, utility 2.16429:
    h1: 8 MB (U(h) = 1.26668*h^0.001)
    h2: 1211 MB (U(h) = 1.69303*h^0.001)
Recommendation: 2 clients, utility 2.16429:
    h1: 8 MB (U(h) = 1.26668*h^0.001)
    h2: 1211 MB (U(h) = 1.69303*h^0.001)
Reading from 18136: heap size 412 MB, throughput 0.975159
Reading from 18136: heap size 411 MB, throughput 0.929509
Reading from 18136: heap size 412 MB, throughput 0.917861
Reading from 18136: heap size 411 MB, throughput 0.95614
Reading from 18136: heap size 411 MB, throughput 0.975825
Reading from 18136: heap size 412 MB, throughput 0.988844
Reading from 18136: heap size 412 MB, throughput 0.993888
Reading from 18136: heap size 411 MB, throughput 0.996601
Reading from 18136: heap size 412 MB, throughput 0.997582
Reading from 18136: heap size 413 MB, throughput 0.998002
Reading from 18136: heap size 413 MB, throughput 0.998454
Reading from 18136: heap size 412 MB, throughput 0.998557
Reading from 18136: heap size 412 MB, throughput 0.998612
Reading from 18136: heap size 413 MB, throughput 0.962449
Reading from 18136: heap size 413 MB, throughput 0.980275
Reading from 18136: heap size 412 MB, throughput 0.987052
Numeric result:
Recommendation: 2 clients, utility 1.59586:
    h1: 8 MB (U(h) = 0.912925*h^0.0119724)
    h2: 1211 MB (U(h) = 1.69303*h^0.001)
Recommendation: 2 clients, utility 1.59586:
    h1: 8 MB (U(h) = 0.912925*h^0.0119724)
    h2: 1211 MB (U(h) = 1.69303*h^0.001)
Reading from 18136: heap size 412 MB, throughput 0.990974
Reading from 18136: heap size 412 MB, throughput 0.994468
Reading from 18136: heap size 412 MB, throughput 0.995718
Reading from 18136: heap size 411 MB, throughput 0.995794
Reading from 18136: heap size 412 MB, throughput 0.997389
Reading from 18136: heap size 412 MB, throughput 0.997915
Reading from 18136: heap size 412 MB, throughput 0.998274
Reading from 18136: heap size 412 MB, throughput 0.998313
Reading from 18136: heap size 412 MB, throughput 0.998191
Reading from 18136: heap size 412 MB, throughput 0.998052
Reading from 18136: heap size 412 MB, throughput 0.997985
Reading from 18136: heap size 412 MB, throughput 0.997627
Reading from 18136: heap size 412 MB, throughput 0.972816
Reading from 18136: heap size 412 MB, throughput 0.984789
Reading from 18136: heap size 411 MB, throughput 0.990645
Reading from 18136: heap size 411 MB, throughput 0.994652
Reading from 18136: heap size 411 MB, throughput 0.996346
Reading from 18136: heap size 410 MB, throughput 0.997146
Numeric result:
Recommendation: 2 clients, utility 1.58902:
    h1: 8 MB (U(h) = 0.904266*h^0.0144898)
    h2: 1211 MB (U(h) = 1.69303*h^0.001)
Recommendation: 2 clients, utility 1.58902:
    h1: 8 MB (U(h) = 0.904266*h^0.0144898)
    h2: 1211 MB (U(h) = 1.69303*h^0.001)
Reading from 18136: heap size 411 MB, throughput 0.997399
Reading from 18136: heap size 411 MB, throughput 0.998007
Reading from 18136: heap size 411 MB, throughput 0.997695
Reading from 18136: heap size 411 MB, throughput 0.998054
Reading from 18136: heap size 411 MB, throughput 0.998111
Reading from 18136: heap size 411 MB, throughput 0.99788
Reading from 18136: heap size 411 MB, throughput 0.997803
Reading from 18136: heap size 411 MB, throughput 0.998045
Reading from 18136: heap size 411 MB, throughput 0.998042
Reading from 18136: heap size 411 MB, throughput 0.997884
Reading from 18136: heap size 409 MB, throughput 0.993948
Reading from 18136: heap size 410 MB, throughput 0.996203
Reading from 18136: heap size 410 MB, throughput 0.99713
Reading from 18136: heap size 411 MB, throughput 0.997613
Reading from 18136: heap size 411 MB, throughput 0.997526
Reading from 18136: heap size 411 MB, throughput 0.997214
Reading from 18136: heap size 411 MB, throughput 0.997453
Numeric result:
Recommendation: 2 clients, utility 1.58783:
    h1: 8 MB (U(h) = 0.902764*h^0.014929)
    h2: 1211 MB (U(h) = 1.69303*h^0.001)
Recommendation: 2 clients, utility 1.58783:
    h1: 8 MB (U(h) = 0.902764*h^0.014929)
    h2: 1211 MB (U(h) = 1.69303*h^0.001)
Reading from 18136: heap size 411 MB, throughput 0.997742
Reading from 18136: heap size 411 MB, throughput 0.998106
Reading from 18136: heap size 411 MB, throughput 0.99812
Reading from 18136: heap size 411 MB, throughput 0.997795
Reading from 18136: heap size 410 MB, throughput 0.997587
Reading from 18136: heap size 411 MB, throughput 0.997742
Reading from 18136: heap size 412 MB, throughput 0.997569
Reading from 18136: heap size 412 MB, throughput 0.996002
Reading from 18136: heap size 412 MB, throughput 0.99687
Reading from 18136: heap size 412 MB, throughput 0.997613
Reading from 18136: heap size 412 MB, throughput 0.997833
Reading from 18136: heap size 412 MB, throughput 0.998029
Reading from 18136: heap size 412 MB, throughput 0.997755
Reading from 18136: heap size 412 MB, throughput 0.997315
Reading from 18136: heap size 412 MB, throughput 0.997798
Numeric result:
Recommendation: 2 clients, utility 1.58663:
    h1: 8 MB (U(h) = 0.901252*h^0.0153715)
    h2: 1211 MB (U(h) = 1.69303*h^0.001)
Recommendation: 2 clients, utility 1.58663:
    h1: 8 MB (U(h) = 0.901252*h^0.0153715)
    h2: 1211 MB (U(h) = 1.69303*h^0.001)
Numeric result:
Recommendation: 2 clients, utility 1.58663:
    h1: 8 MB (U(h) = 0.901252*h^0.0153715)
    h2: 1211 MB (U(h) = 1.69303*h^0.001)
Recommendation: 2 clients, utility 1.58663:
    h1: 8 MB (U(h) = 0.901252*h^0.0153715)
    h2: 1211 MB (U(h) = 1.69303*h^0.001)
Numeric result:
Recommendation: 2 clients, utility 1.58663:
    h1: 8 MB (U(h) = 0.901252*h^0.0153715)
    h2: 1211 MB (U(h) = 1.69303*h^0.001)
Recommendation: 2 clients, utility 1.58663:
    h1: 8 MB (U(h) = 0.901252*h^0.0153715)
    h2: 1211 MB (U(h) = 1.69303*h^0.001)
Reading from 18136: heap size 412 MB, throughput 0.467298
Numeric result:
Recommendation: 2 clients, utility 1.6145:
    h1: 8 MB (U(h) = 0.936722*h^0.00518158)
    h2: 1211 MB (U(h) = 1.69303*h^0.001)
Recommendation: 2 clients, utility 1.6145:
    h1: 8 MB (U(h) = 0.936722*h^0.00518158)
    h2: 1211 MB (U(h) = 1.69303*h^0.001)
Numeric result:
Recommendation: 2 clients, utility 1.6145:
    h1: 8 MB (U(h) = 0.936722*h^0.00518158)
    h2: 1211 MB (U(h) = 1.69303*h^0.001)
Recommendation: 2 clients, utility 1.6145:
    h1: 8 MB (U(h) = 0.936722*h^0.00518158)
    h2: 1211 MB (U(h) = 1.69303*h^0.001)
Numeric result:
Recommendation: 2 clients, utility 1.6145:
    h1: 8 MB (U(h) = 0.936722*h^0.00518158)
    h2: 1211 MB (U(h) = 1.69303*h^0.001)
Recommendation: 2 clients, utility 1.6145:
    h1: 8 MB (U(h) = 0.936722*h^0.00518158)
    h2: 1211 MB (U(h) = 1.69303*h^0.001)
Reading from 18136: heap size 412 MB, throughput 0.808884
Reading from 18136: heap size 412 MB, throughput 0.814099
Numeric result:
Recommendation: 2 clients, utility 1.60736:
    h1: 8 MB (U(h) = 0.927565*h^0.00777469)
    h2: 1211 MB (U(h) = 1.69303*h^0.001)
Recommendation: 2 clients, utility 1.60736:
    h1: 8 MB (U(h) = 0.927565*h^0.00777469)
    h2: 1211 MB (U(h) = 1.69303*h^0.001)
Reading from 18136: heap size 412 MB, throughput 0.823022
Reading from 18136: heap size 412 MB, throughput 0.784699
Reading from 18136: heap size 410 MB, throughput 0.762607
Reading from 18136: heap size 410 MB, throughput 0.815081
Reading from 18136: heap size 410 MB, throughput 0.896534
Reading from 18136: heap size 410 MB, throughput 0.926712
Reading from 18136: heap size 410 MB, throughput 0.957011
Numeric result:
Recommendation: 2 clients, utility 1.6134:
    h1: 8 MB (U(h) = 0.93532*h^0.00557495)
    h2: 1211 MB (U(h) = 1.69303*h^0.001)
Recommendation: 2 clients, utility 1.6134:
    h1: 8 MB (U(h) = 0.93532*h^0.00557495)
    h2: 1211 MB (U(h) = 1.69303*h^0.001)
Reading from 18136: heap size 410 MB, throughput 0.974021
Reading from 18136: heap size 410 MB, throughput 0.986711
Reading from 18136: heap size 410 MB, throughput 0.990177
Reading from 18136: heap size 410 MB, throughput 0.993211
Reading from 18136: heap size 410 MB, throughput 0.995022
Reading from 18136: heap size 410 MB, throughput 0.996707
Reading from 18136: heap size 410 MB, throughput 0.997156
Reading from 18136: heap size 410 MB, throughput 0.995105
Reading from 18136: heap size 410 MB, throughput 0.99623
Reading from 18136: heap size 410 MB, throughput 0.996971
Reading from 18136: heap size 410 MB, throughput 0.973839
Reading from 18136: heap size 409 MB, throughput 0.985167
Reading from 18135: heap size 721 MB, throughput 0.165065
Reading from 18136: heap size 409 MB, throughput 0.88123
Reading from 18136: heap size 410 MB, throughput 0.933582
Reading from 18136: heap size 410 MB, throughput 0.966976
Numeric result:
Recommendation: 2 clients, utility 1.691:
    h1: 8 MB (U(h) = 0.938069*h^0.00479868)
    h2: 1211 MB (U(h) = 1.77211*h^0.001)
Recommendation: 2 clients, utility 1.691:
    h1: 8 MB (U(h) = 0.938069*h^0.00479868)
    h2: 1211 MB (U(h) = 1.77211*h^0.001)
Reading from 18136: heap size 410 MB, throughput 0.982156
Reading from 18136: heap size 410 MB, throughput 0.990717
Reading from 18136: heap size 410 MB, throughput 0.994226
Reading from 18136: heap size 409 MB, throughput 0.995426
Reading from 18136: heap size 410 MB, throughput 0.996724
Reading from 18136: heap size 410 MB, throughput 0.997513
Reading from 18136: heap size 411 MB, throughput 0.99792
Reading from 18135: heap size 809 MB, throughput 0.502882
Reading from 18135: heap size 813 MB, throughput 0.50479
Reading from 18135: heap size 823 MB, throughput 0.499283
Reading from 18136: heap size 411 MB, throughput 0.998122
Reading from 18136: heap size 411 MB, throughput 0.998004
Reading from 18136: heap size 411 MB, throughput 0.997922
Numeric result:
Recommendation: 2 clients, utility 1.53554:
    h1: 8 MB (U(h) = 0.930619*h^0.0069058)
    h2: 1211 MB (U(h) = 1.61499*h^0.001)
Recommendation: 2 clients, utility 1.53554:
    h1: 8 MB (U(h) = 0.930619*h^0.0069058)
    h2: 1211 MB (U(h) = 1.61499*h^0.001)
Reading from 18136: heap size 411 MB, throughput 0.968776
Reading from 18136: heap size 411 MB, throughput 0.962161
Reading from 18136: heap size 411 MB, throughput 0.973351
Reading from 18135: heap size 824 MB, throughput 0.25001
Reading from 18136: heap size 411 MB, throughput 0.97561
Reading from 18136: heap size 411 MB, throughput 0.960245
Reading from 18136: heap size 411 MB, throughput 0.972469
Reading from 18135: heap size 922 MB, throughput 0.441645
Reading from 18135: heap size 925 MB, throughput 0.473411
Reading from 18136: heap size 411 MB, throughput 0.982882
Reading from 18135: heap size 936 MB, throughput 0.543663
Reading from 18136: heap size 411 MB, throughput 0.988927
Reading from 18135: heap size 937 MB, throughput 0.613258
Reading from 18136: heap size 410 MB, throughput 0.992233
Numeric result:
Recommendation: 2 clients, utility 1.38717:
    h1: 8 MB (U(h) = 0.932571*h^0.00635243)
    h2: 1211 MB (U(h) = 1.45756*h^0.001)
Recommendation: 2 clients, utility 1.38717:
    h1: 8 MB (U(h) = 0.932571*h^0.00635243)
    h2: 1211 MB (U(h) = 1.45756*h^0.001)
Reading from 18135: heap size 945 MB, throughput 0.721152
Reading from 18136: heap size 410 MB, throughput 0.94791
Reading from 18135: heap size 945 MB, throughput 0.797578
Reading from 18136: heap size 410 MB, throughput 0.975098
Reading from 18136: heap size 410 MB, throughput 0.986433
Reading from 18135: heap size 944 MB, throughput 0.190591
Reading from 18136: heap size 410 MB, throughput 0.951794
Reading from 18136: heap size 409 MB, throughput 0.973382
Reading from 18136: heap size 410 MB, throughput 0.977315
Numeric result:
Recommendation: 2 clients, utility 1.36799:
    h1: 8 MB (U(h) = 0.9347*h^0.00574994)
    h2: 1211 MB (U(h) = 1.43593*h^0.001)
Recommendation: 2 clients, utility 1.36799:
    h1: 8 MB (U(h) = 0.9347*h^0.00574994)
    h2: 1211 MB (U(h) = 1.43593*h^0.001)
Reading from 18136: heap size 410 MB, throughput 0.983056
Reading from 18135: heap size 948 MB, throughput 0.113337
Reading from 18136: heap size 410 MB, throughput 0.98852
Reading from 18135: heap size 950 MB, throughput 0.158932
Reading from 18136: heap size 410 MB, throughput 0.991663
Reading from 18135: heap size 952 MB, throughput 0.236027
Reading from 18136: heap size 410 MB, throughput 0.995336
Reading from 18135: heap size 946 MB, throughput 0.45322
Reading from 18136: heap size 410 MB, throughput 0.996177
Reading from 18135: heap size 953 MB, throughput 0.596318
Reading from 18136: heap size 411 MB, throughput 0.997093
Reading from 18135: heap size 948 MB, throughput 0.64446
Reading from 18136: heap size 411 MB, throughput 0.99755
Reading from 18135: heap size 954 MB, throughput 0.200851
Reading from 18136: heap size 411 MB, throughput 0.997751
Reading from 18136: heap size 411 MB, throughput 0.997473
Reading from 18136: heap size 411 MB, throughput 0.99751
Reading from 18136: heap size 411 MB, throughput 0.997869
Reading from 18136: heap size 411 MB, throughput 0.99741
Numeric result:
Recommendation: 2 clients, utility 1.40897:
    h1: 8 MB (U(h) = 0.930342*h^0.00698453)
    h2: 1211 MB (U(h) = 1.48207*h^0.001)
Recommendation: 2 clients, utility 1.40897:
    h1: 8 MB (U(h) = 0.930342*h^0.00698453)
    h2: 1211 MB (U(h) = 1.48207*h^0.001)
Reading from 18136: heap size 411 MB, throughput 0.999512
Reading from 18136: heap size 411 MB, throughput 0.999477
Reading from 18136: heap size 411 MB, throughput 0.999163
Reading from 18136: heap size 411 MB, throughput 0.998806
Reading from 18135: heap size 950 MB, throughput 0.230466
Reading from 18136: heap size 411 MB, throughput 0.998534
Reading from 18136: heap size 411 MB, throughput 0.993427
Numeric result:
Recommendation: 2 clients, utility 1.39504:
    h1: 8 MB (U(h) = 0.930499*h^0.00693979)
    h2: 1211 MB (U(h) = 1.4673*h^0.001)
Recommendation: 2 clients, utility 1.39504:
    h1: 8 MB (U(h) = 0.930499*h^0.00693979)
    h2: 1211 MB (U(h) = 1.4673*h^0.001)
Reading from 18136: heap size 411 MB, throughput 0.99813
Reading from 18136: heap size 411 MB, throughput 0.99813
Reading from 18135: heap size 956 MB, throughput 0.25393
Reading from 18136: heap size 411 MB, throughput 0.998124
Reading from 18136: heap size 411 MB, throughput 0.997994
Reading from 18136: heap size 411 MB, throughput 0.997888
Reading from 18136: heap size 411 MB, throughput 0.99775
Reading from 18135: heap size 974 MB, throughput 0.414371
Reading from 18136: heap size 410 MB, throughput 0.997458
Reading from 18136: heap size 410 MB, throughput 0.997806
Reading from 18136: heap size 410 MB, throughput 0.997782
Reading from 18136: heap size 411 MB, throughput 0.997928
Reading from 18136: heap size 411 MB, throughput 0.997858
Reading from 18136: heap size 411 MB, throughput 0.997609
Reading from 18135: heap size 979 MB, throughput 0.643777
Reading from 18136: heap size 411 MB, throughput 0.997638
Numeric result:
Recommendation: 2 clients, utility 1.35435:
    h1: 8 MB (U(h) = 0.929906*h^0.00710836)
    h2: 1211 MB (U(h) = 1.42492*h^0.001)
Recommendation: 2 clients, utility 1.35435:
    h1: 8 MB (U(h) = 0.929906*h^0.00710836)
    h2: 1211 MB (U(h) = 1.42492*h^0.001)
Reading from 18136: heap size 411 MB, throughput 0.997794
Reading from 18136: heap size 411 MB, throughput 0.997732
Reading from 18136: heap size 411 MB, throughput 0.983911
Reading from 18136: heap size 411 MB, throughput 0.989817
Reading from 18135: heap size 987 MB, throughput 0.786013
Reading from 18136: heap size 411 MB, throughput 0.994247
Reading from 18135: heap size 957 MB, throughput 0.812426
Reading from 18136: heap size 411 MB, throughput 0.995959
Reading from 18135: heap size 985 MB, throughput 0.822503
Reading from 18136: heap size 411 MB, throughput 0.997147
Reading from 18136: heap size 411 MB, throughput 0.99737
Reading from 18136: heap size 411 MB, throughput 0.997765
Reading from 18136: heap size 411 MB, throughput 0.997656
Reading from 18136: heap size 411 MB, throughput 0.9978
Reading from 18136: heap size 411 MB, throughput 0.998059
Reading from 18136: heap size 411 MB, throughput 0.997862
Reading from 18136: heap size 411 MB, throughput 0.9975
Reading from 18136: heap size 411 MB, throughput 0.997624
Reading from 18136: heap size 411 MB, throughput 0.997694
Reading from 18136: heap size 411 MB, throughput 0.997871
Numeric result:
Recommendation: 2 clients, utility 1.20777:
    h1: 8 MB (U(h) = 0.929896*h^0.00711109)
    h2: 1211 MB (U(h) = 1.2707*h^0.001)
Recommendation: 2 clients, utility 1.20777:
    h1: 8 MB (U(h) = 0.929896*h^0.00711109)
    h2: 1211 MB (U(h) = 1.2707*h^0.001)
Reading from 18136: heap size 411 MB, throughput 0.989075
Reading from 18135: heap size 950 MB, throughput 0.967705
Reading from 18136: heap size 411 MB, throughput 0.992298
Reading from 18136: heap size 411 MB, throughput 0.995151
Reading from 18135: heap size 991 MB, throughput 0.963859
Reading from 18136: heap size 411 MB, throughput 0.9934
Reading from 18136: heap size 411 MB, throughput 0.996759
Reading from 18136: heap size 411 MB, throughput 0.945031
Reading from 18136: heap size 411 MB, throughput 0.61534
Reading from 18136: heap size 411 MB, throughput 0.744463
Reading from 18136: heap size 411 MB, throughput 0.834765
Reading from 18136: heap size 411 MB, throughput 0.822091
Numeric result:
Recommendation: 2 clients, utility 1.11999:
    h1: 8 MB (U(h) = 0.954103*h^0.001)
    h2: 1211 MB (U(h) = 1.16314*h^0.001)
Recommendation: 2 clients, utility 1.11999:
    h1: 8 MB (U(h) = 0.954103*h^0.001)
    h2: 1211 MB (U(h) = 1.16314*h^0.001)
Reading from 18136: heap size 411 MB, throughput 0.886943
Reading from 18135: heap size 930 MB, throughput 0.181577
Numeric result:
Recommendation: 2 clients, utility 1.1485:
    h1: 8 MB (U(h) = 0.948744*h^0.00181173)
    h2: 1211 MB (U(h) = 1.19746*h^0.001)
Recommendation: 2 clients, utility 1.1485:
    h1: 8 MB (U(h) = 0.948744*h^0.00181173)
    h2: 1211 MB (U(h) = 1.19746*h^0.001)
Reading from 18136: heap size 411 MB, throughput 0.815278
Reading from 18136: heap size 409 MB, throughput 0.911447
Reading from 18136: heap size 410 MB, throughput 0.913944
Reading from 18136: heap size 411 MB, throughput 0.909866
Reading from 18136: heap size 411 MB, throughput 0.919274
Reading from 18136: heap size 410 MB, throughput 0.937365
Reading from 18136: heap size 410 MB, throughput 0.950353
Reading from 18136: heap size 410 MB, throughput 0.936669
Numeric result:
Recommendation: 2 clients, utility 1.15143:
    h1: 8 MB (U(h) = 0.952775*h^0.001)
    h2: 1211 MB (U(h) = 1.19746*h^0.001)
Recommendation: 2 clients, utility 1.15143:
    h1: 8 MB (U(h) = 0.952775*h^0.001)
    h2: 1211 MB (U(h) = 1.19746*h^0.001)
Reading from 18136: heap size 411 MB, throughput 0.971321
Reading from 18136: heap size 411 MB, throughput 0.983145
Reading from 18136: heap size 411 MB, throughput 0.98992
Reading from 18136: heap size 411 MB, throughput 0.994148
Reading from 18136: heap size 411 MB, throughput 0.996536
Reading from 18136: heap size 411 MB, throughput 0.997896
Reading from 18136: heap size 411 MB, throughput 0.998334
Reading from 18136: heap size 411 MB, throughput 0.998191
Reading from 18136: heap size 410 MB, throughput 0.997713
Reading from 18136: heap size 410 MB, throughput 0.998387
Reading from 18136: heap size 411 MB, throughput 0.998571
Reading from 18136: heap size 408 MB, throughput 0.998287
Reading from 18136: heap size 410 MB, throughput 0.997736
Reading from 18136: heap size 411 MB, throughput 0.997935
Reading from 18136: heap size 410 MB, throughput 0.997954
Reading from 18136: heap size 410 MB, throughput 0.998235
Reading from 18136: heap size 410 MB, throughput 0.997994
Numeric result:
Recommendation: 2 clients, utility 1.13828:
    h1: 8 MB (U(h) = 0.930124*h^0.00704676)
    h2: 1211 MB (U(h) = 1.19746*h^0.001)
Recommendation: 2 clients, utility 1.13828:
    h1: 8 MB (U(h) = 0.930124*h^0.00704676)
    h2: 1211 MB (U(h) = 1.19746*h^0.001)
Reading from 18136: heap size 408 MB, throughput 0.997791
Reading from 18136: heap size 410 MB, throughput 0.997799
Reading from 18136: heap size 410 MB, throughput 0.998031
Reading from 18136: heap size 410 MB, throughput 0.998187
Reading from 18136: heap size 410 MB, throughput 0.998116
Reading from 18136: heap size 410 MB, throughput 0.997963
Reading from 18136: heap size 410 MB, throughput 0.997768
Reading from 18136: heap size 409 MB, throughput 0.997834
Reading from 18136: heap size 409 MB, throughput 0.997983
Reading from 18136: heap size 410 MB, throughput 0.997854
Reading from 18136: heap size 410 MB, throughput 0.99781
Reading from 18136: heap size 410 MB, throughput 0.997927
Reading from 18136: heap size 410 MB, throughput 0.998082
Reading from 18136: heap size 410 MB, throughput 0.99827
Reading from 18136: heap size 410 MB, throughput 0.998204
Reading from 18136: heap size 410 MB, throughput 0.997817
Reading from 18136: heap size 410 MB, throughput 0.997869
Numeric result:
Recommendation: 2 clients, utility 1.13559:
    h1: 8 MB (U(h) = 0.925257*h^0.00843333)
    h2: 1211 MB (U(h) = 1.19746*h^0.001)
Recommendation: 2 clients, utility 1.13559:
    h1: 8 MB (U(h) = 0.925257*h^0.00843333)
    h2: 1211 MB (U(h) = 1.19746*h^0.001)
Reading from 18136: heap size 409 MB, throughput 0.998302
Reading from 18136: heap size 410 MB, throughput 0.998117
Reading from 18136: heap size 411 MB, throughput 0.998133
Reading from 18136: heap size 411 MB, throughput 0.998142
Reading from 18136: heap size 411 MB, throughput 0.997823
Reading from 18136: heap size 409 MB, throughput 0.997763
Reading from 18136: heap size 410 MB, throughput 0.99791
Reading from 18136: heap size 410 MB, throughput 0.986304
Reading from 18136: heap size 411 MB, throughput 0.985312
Reading from 18136: heap size 411 MB, throughput 0.991335
Reading from 18136: heap size 411 MB, throughput 0.994814
Reading from 18136: heap size 411 MB, throughput 0.996413
Reading from 18136: heap size 411 MB, throughput 0.996976
Reading from 18136: heap size 411 MB, throughput 0.99719
Reading from 18136: heap size 411 MB, throughput 0.997424
Reading from 18136: heap size 410 MB, throughput 0.997903
Reading from 18136: heap size 411 MB, throughput 0.997888
Numeric result:
Recommendation: 2 clients, utility 1.13515:
    h1: 8 MB (U(h) = 0.924455*h^0.00866272)
    h2: 1211 MB (U(h) = 1.19746*h^0.001)
Recommendation: 2 clients, utility 1.13515:
    h1: 8 MB (U(h) = 0.924455*h^0.00866272)
    h2: 1211 MB (U(h) = 1.19746*h^0.001)
Reading from 18136: heap size 411 MB, throughput 0.99805
Reading from 18136: heap size 412 MB, throughput 0.997949
Reading from 18136: heap size 412 MB, throughput 0.997802
Reading from 18136: heap size 412 MB, throughput 0.997656
Reading from 18136: heap size 412 MB, throughput 0.997863
Reading from 18136: heap size 412 MB, throughput 0.997878
Reading from 18136: heap size 412 MB, throughput 0.997565
Reading from 18136: heap size 412 MB, throughput 0.997777
Reading from 18136: heap size 412 MB, throughput 0.998023
Reading from 18136: heap size 412 MB, throughput 0.998173
Reading from 18136: heap size 412 MB, throughput 0.998144
Reading from 18136: heap size 412 MB, throughput 0.998074
Reading from 18136: heap size 412 MB, throughput 0.997763
Reading from 18135: heap size 954 MB, throughput 0.298403
Reading from 18136: heap size 412 MB, throughput 0.997984
Reading from 18136: heap size 412 MB, throughput 0.997903
Reading from 18136: heap size 412 MB, throughput 0.998216
Reading from 18135: heap size 963 MB, throughput 0.324325
Reading from 18136: heap size 412 MB, throughput 0.998208
Numeric result:
Recommendation: 2 clients, utility 1.11786:
    h1: 8 MB (U(h) = 0.900402*h^0.0156212)
    h2: 1211 MB (U(h) = 1.19333*h^0.001)
Recommendation: 2 clients, utility 1.11786:
    h1: 8 MB (U(h) = 0.900402*h^0.0156212)
    h2: 1211 MB (U(h) = 1.19333*h^0.001)
Reading from 18136: heap size 412 MB, throughput 0.997627
Reading from 18136: heap size 412 MB, throughput 0.997618
Reading from 18136: heap size 412 MB, throughput 0.997942
Reading from 18136: heap size 412 MB, throughput 0.99804
Reading from 18136: heap size 412 MB, throughput 0.997354
Reading from 18136: heap size 411 MB, throughput 0.99764
Reading from 18136: heap size 411 MB, throughput 0.997872
Reading from 18136: heap size 411 MB, throughput 0.997766
Reading from 18136: heap size 412 MB, throughput 0.99798
Reading from 18136: heap size 412 MB, throughput 0.997887
Reading from 18136: heap size 412 MB, throughput 0.997604
Reading from 18136: heap size 412 MB, throughput 0.997959
Reading from 18136: heap size 412 MB, throughput 0.998029
Reading from 18136: heap size 412 MB, throughput 0.998135
Reading from 18136: heap size 412 MB, throughput 0.998099
Reading from 18136: heap size 412 MB, throughput 0.997924
Reading from 18136: heap size 412 MB, throughput 0.997779
Numeric result:
Recommendation: 2 clients, utility 1.11788:
    h1: 8 MB (U(h) = 0.900425*h^0.0156145)
    h2: 1211 MB (U(h) = 1.19333*h^0.001)
Recommendation: 2 clients, utility 1.11788:
    h1: 8 MB (U(h) = 0.900425*h^0.0156145)
    h2: 1211 MB (U(h) = 1.19333*h^0.001)
Reading from 18136: heap size 412 MB, throughput 0.997873
Reading from 18136: heap size 412 MB, throughput 0.998116
Reading from 18136: heap size 412 MB, throughput 0.997711
Reading from 18136: heap size 412 MB, throughput 0.997843
Reading from 18136: heap size 412 MB, throughput 0.997988
Reading from 18136: heap size 412 MB, throughput 0.997937
Reading from 18136: heap size 412 MB, throughput 0.99807
Reading from 18136: heap size 412 MB, throughput 0.997749
Reading from 18136: heap size 412 MB, throughput 0.9976
Reading from 18136: heap size 412 MB, throughput 0.997666
Reading from 18136: heap size 412 MB, throughput 0.997724
Reading from 18136: heap size 412 MB, throughput 0.99802
Reading from 18136: heap size 412 MB, throughput 0.998067
Reading from 18136: heap size 412 MB, throughput 0.998014
Reading from 18136: heap size 412 MB, throughput 0.99903
Numeric result:
Recommendation: 2 clients, utility 1.11784:
    h1: 8 MB (U(h) = 0.900359*h^0.0156337)
    h2: 1211 MB (U(h) = 1.19333*h^0.001)
Recommendation: 2 clients, utility 1.11784:
    h1: 8 MB (U(h) = 0.900359*h^0.0156337)
    h2: 1211 MB (U(h) = 1.19333*h^0.001)
Reading from 18136: heap size 412 MB, throughput 0.999
Reading from 18136: heap size 412 MB, throughput 0.998638
Numeric result:
Recommendation: 2 clients, utility 1.11783:
    h1: 8 MB (U(h) = 0.90034*h^0.0156394)
    h2: 1211 MB (U(h) = 1.19333*h^0.001)
Recommendation: 2 clients, utility 1.11783:
    h1: 8 MB (U(h) = 0.90034*h^0.0156394)
    h2: 1211 MB (U(h) = 1.19333*h^0.001)
Reading from 18136: heap size 412 MB, throughput 0.997723
Reading from 18136: heap size 412 MB, throughput 0.99762
Numeric result:
Recommendation: 2 clients, utility 1.11787:
    h1: 8 MB (U(h) = 0.900422*h^0.0156154)
    h2: 1211 MB (U(h) = 1.19333*h^0.001)
Recommendation: 2 clients, utility 1.11787:
    h1: 8 MB (U(h) = 0.900422*h^0.0156154)
    h2: 1211 MB (U(h) = 1.19333*h^0.001)
Reading from 18136: heap size 412 MB, throughput 0.997633
Reading from 18136: heap size 412 MB, throughput 0.997691
Reading from 18136: heap size 412 MB, throughput 0.995412
Reading from 18136: heap size 412 MB, throughput 0.953549
Reading from 18136: heap size 412 MB, throughput 0.966953
Reading from 18136: heap size 412 MB, throughput 0.969248
Reading from 18136: heap size 412 MB, throughput 0.983344
Reading from 18136: heap size 412 MB, throughput 0.990787
Reading from 18136: heap size 412 MB, throughput 0.9942
Reading from 18136: heap size 412 MB, throughput 0.995592
Reading from 18136: heap size 412 MB, throughput 0.996501
Reading from 18136: heap size 412 MB, throughput 0.99715
Reading from 18136: heap size 412 MB, throughput 0.997644
Reading from 18136: heap size 412 MB, throughput 0.997695
Reading from 18136: heap size 412 MB, throughput 0.997644
Numeric result:
Recommendation: 2 clients, utility 1.1179:
    h1: 8 MB (U(h) = 0.900473*h^0.0156002)
    h2: 1211 MB (U(h) = 1.19333*h^0.001)
Recommendation: 2 clients, utility 1.1179:
    h1: 8 MB (U(h) = 0.900473*h^0.0156002)
    h2: 1211 MB (U(h) = 1.19333*h^0.001)
Reading from 18136: heap size 412 MB, throughput 0.997469
Reading from 18136: heap size 412 MB, throughput 0.997493
Reading from 18136: heap size 412 MB, throughput 0.997899
Reading from 18136: heap size 412 MB, throughput 0.997611
Reading from 18136: heap size 412 MB, throughput 0.997328
Reading from 18136: heap size 412 MB, throughput 0.991724
Reading from 18136: heap size 412 MB, throughput 0.995133
Reading from 18136: heap size 412 MB, throughput 0.987297
Reading from 18136: heap size 412 MB, throughput 0.992461
Reading from 18136: heap size 412 MB, throughput 0.995016
Reading from 18136: heap size 412 MB, throughput 0.996223
Reading from 18136: heap size 412 MB, throughput 0.997205
Reading from 18136: heap size 412 MB, throughput 0.997275
Numeric result:
Recommendation: 2 clients, utility 1.11795:
    h1: 8 MB (U(h) = 0.900556*h^0.0155761)
    h2: 1211 MB (U(h) = 1.19333*h^0.001)
Recommendation: 2 clients, utility 1.11795:
    h1: 8 MB (U(h) = 0.900556*h^0.0155761)
    h2: 1211 MB (U(h) = 1.19333*h^0.001)
Reading from 18136: heap size 412 MB, throughput 0.944145
Reading from 18135: heap size 965 MB, throughput 0.258319
Reading from 18136: heap size 411 MB, throughput 0.648308
Reading from 18136: heap size 413 MB, throughput 0.722869
Reading from 18136: heap size 413 MB, throughput 0.790958
Reading from 18136: heap size 413 MB, throughput 0.867427
Reading from 18136: heap size 413 MB, throughput 0.91828
Reading from 18136: heap size 413 MB, throughput 0.949838
Reading from 18136: heap size 413 MB, throughput 0.97173
Reading from 18136: heap size 413 MB, throughput 0.986189
Numeric result:
Recommendation: 2 clients, utility 1.14764:
    h1: 8 MB (U(h) = 0.924887*h^0.00853688)
    h2: 1211 MB (U(h) = 1.21039*h^0.001)
Recommendation: 2 clients, utility 1.14764:
    h1: 8 MB (U(h) = 0.924887*h^0.00853688)
    h2: 1211 MB (U(h) = 1.21039*h^0.001)
Reading from 18136: heap size 413 MB, throughput 0.992349
Reading from 18136: heap size 413 MB, throughput 0.995174
Reading from 18136: heap size 413 MB, throughput 0.996499
Reading from 18136: heap size 413 MB, throughput 0.996838
Reading from 18136: heap size 413 MB, throughput 0.997269
Reading from 18136: heap size 413 MB, throughput 0.997635
Reading from 18135: heap size 1068 MB, throughput 0.391756
Reading from 18136: heap size 413 MB, throughput 0.997605
Reading from 18135: heap size 1068 MB, throughput 0.374489
Reading from 18135: heap size 1068 MB, throughput 0.333101
Reading from 18135: heap size 1066 MB, throughput 0.305099
Numeric result:
Recommendation: 2 clients, utility 1.08183:
    h1: 8 MB (U(h) = 0.921341*h^0.00955031)
    h2: 1211 MB (U(h) = 1.14296*h^0.001)
Recommendation: 2 clients, utility 1.08183:
    h1: 8 MB (U(h) = 0.921341*h^0.00955031)
    h2: 1211 MB (U(h) = 1.14296*h^0.001)
Numeric result:
Recommendation: 2 clients, utility 1.08183:
    h1: 8 MB (U(h) = 0.921341*h^0.00955031)
    h2: 1211 MB (U(h) = 1.14296*h^0.001)
Recommendation: 2 clients, utility 1.08183:
    h1: 8 MB (U(h) = 0.921341*h^0.00955031)
    h2: 1211 MB (U(h) = 1.14296*h^0.001)
Reading from 18136: heap size 413 MB, throughput 0.85585
Reading from 18136: heap size 411 MB, throughput 0.764836
Reading from 18135: heap size 989 MB, throughput 0.0423197
Reading from 18136: heap size 410 MB, throughput 0.987271
Reading from 18136: heap size 411 MB, throughput 0.903289
Reading from 18136: heap size 411 MB, throughput 0.939665
Reading from 18136: heap size 407 MB, throughput 0.93768
Reading from 18136: heap size 410 MB, throughput 0.873173
Reading from 18136: heap size 410 MB, throughput 0.939133
Reading from 18136: heap size 410 MB, throughput 0.967021
Reading from 18136: heap size 410 MB, throughput 0.983321
Reading from 18136: heap size 409 MB, throughput 0.990674
Numeric result:
Recommendation: 2 clients, utility 1.1558:
    h1: 8 MB (U(h) = 0.927419*h^0.00781359)
    h2: 1211 MB (U(h) = 1.21749*h^0.001)
Recommendation: 2 clients, utility 1.1558:
    h1: 8 MB (U(h) = 0.927419*h^0.00781359)
    h2: 1211 MB (U(h) = 1.21749*h^0.001)
Reading from 18136: heap size 410 MB, throughput 0.988394
Reading from 18136: heap size 411 MB, throughput 0.993528
Reading from 18136: heap size 411 MB, throughput 0.996007
Reading from 18136: heap size 410 MB, throughput 0.99696
Reading from 18136: heap size 410 MB, throughput 0.977421
Reading from 18136: heap size 410 MB, throughput 0.967305
Reading from 18136: heap size 410 MB, throughput 0.981473
Reading from 18136: heap size 410 MB, throughput 0.989763
Reading from 18136: heap size 409 MB, throughput 0.993608
Reading from 18136: heap size 410 MB, throughput 0.995136
Reading from 18136: heap size 410 MB, throughput 0.996408
Reading from 18136: heap size 410 MB, throughput 0.997532
Reading from 18136: heap size 410 MB, throughput 0.997733
Reading from 18136: heap size 410 MB, throughput 0.997941
Reading from 18136: heap size 410 MB, throughput 0.99799
Reading from 18136: heap size 410 MB, throughput 0.997733
Numeric result:
Recommendation: 2 clients, utility 1.14942:
    h1: 8 MB (U(h) = 0.91611*h^0.0110535)
    h2: 1211 MB (U(h) = 1.21749*h^0.001)
Recommendation: 2 clients, utility 1.14942:
    h1: 8 MB (U(h) = 0.91611*h^0.0110535)
    h2: 1211 MB (U(h) = 1.21749*h^0.001)
Reading from 18136: heap size 410 MB, throughput 0.997682
Reading from 18136: heap size 410 MB, throughput 0.997842
Reading from 18136: heap size 410 MB, throughput 0.998023
Reading from 18136: heap size 410 MB, throughput 0.997834
Reading from 18136: heap size 410 MB, throughput 0.99775
Reading from 18136: heap size 410 MB, throughput 0.997885
Reading from 18136: heap size 408 MB, throughput 0.998009
Reading from 18136: heap size 409 MB, throughput 0.998003
Reading from 18135: heap size 1062 MB, throughput 0.0831713
Reading from 18136: heap size 409 MB, throughput 0.997805
Reading from 18136: heap size 410 MB, throughput 0.99758
Reading from 18136: heap size 410 MB, throughput 0.997645
Reading from 18135: heap size 1066 MB, throughput 0.161999
Reading from 18136: heap size 409 MB, throughput 0.997877
Reading from 18136: heap size 410 MB, throughput 0.998143
Reading from 18136: heap size 411 MB, throughput 0.998231
Reading from 18136: heap size 411 MB, throughput 0.997546
Reading from 18135: heap size 1068 MB, throughput 0.324777
Reading from 18136: heap size 411 MB, throughput 0.997423
Reading from 18135: heap size 1068 MB, throughput 0.419657
Reading from 18136: heap size 411 MB, throughput 0.997742
Numeric result:
Recommendation: 2 clients, utility 1.19434:
    h1: 8 MB (U(h) = 0.913033*h^0.0119418)
    h2: 1211 MB (U(h) = 1.26699*h^0.001)
Recommendation: 2 clients, utility 1.19434:
    h1: 8 MB (U(h) = 0.913033*h^0.0119418)
    h2: 1211 MB (U(h) = 1.26699*h^0.001)
Reading from 18136: heap size 411 MB, throughput 0.99797
Reading from 18136: heap size 411 MB, throughput 0.997892
Reading from 18136: heap size 410 MB, throughput 0.715327
Reading from 18136: heap size 410 MB, throughput 0.84166
Reading from 18136: heap size 411 MB, throughput 0.912986
Reading from 18136: heap size 411 MB, throughput 0.955499
Reading from 18136: heap size 411 MB, throughput 0.974278
Reading from 18136: heap size 411 MB, throughput 0.984363
Reading from 18136: heap size 411 MB, throughput 0.991159
Reading from 18136: heap size 411 MB, throughput 0.994863
Reading from 18136: heap size 411 MB, throughput 0.996478
Reading from 18135: heap size 1065 MB, throughput 0.813656
Reading from 18136: heap size 411 MB, throughput 0.997358
Reading from 18136: heap size 411 MB, throughput 0.997458
Reading from 18136: heap size 411 MB, throughput 0.997327
Reading from 18136: heap size 411 MB, throughput 0.997548
Reading from 18136: heap size 411 MB, throughput 0.997751
Reading from 18136: heap size 411 MB, throughput 0.571336
Numeric result:
Recommendation: 2 clients, utility 1.1133:
    h1: 8 MB (U(h) = 0.953647*h^0.001)
    h2: 1211 MB (U(h) = 1.15675*h^0.001)
Recommendation: 2 clients, utility 1.1133:
    h1: 8 MB (U(h) = 0.953647*h^0.001)
    h2: 1211 MB (U(h) = 1.15675*h^0.001)
Reading from 18136: heap size 411 MB, throughput 0.717053
Reading from 18136: heap size 411 MB, throughput 0.839379
Reading from 18136: heap size 411 MB, throughput 0.912945
Reading from 18136: heap size 411 MB, throughput 0.956286
Reading from 18136: heap size 411 MB, throughput 0.975107
Reading from 18136: heap size 411 MB, throughput 0.984797
Reading from 18136: heap size 411 MB, throughput 0.991316
Reading from 18136: heap size 411 MB, throughput 0.995109
Reading from 18136: heap size 411 MB, throughput 0.99668
Reading from 18136: heap size 411 MB, throughput 0.997138
Reading from 18136: heap size 411 MB, throughput 0.997724
Reading from 18136: heap size 411 MB, throughput 0.997556
Reading from 18136: heap size 411 MB, throughput 0.997882
Reading from 18136: heap size 411 MB, throughput 0.997586
Reading from 18136: heap size 411 MB, throughput 0.00494222
Reading from 18136: heap size 411 MB, throughput 0.00961518
Reading from 18136: heap size 411 MB, throughput 0.0196182
Numeric result:
Recommendation: 2 clients, utility 1.34564:
    h1: 8 MB (U(h) = 1.15266*h^0.001)
    h2: 1211 MB (U(h) = 1.15675*h^0.001)
Recommendation: 2 clients, utility 1.34564:
    h1: 8 MB (U(h) = 1.15266*h^0.001)
    h2: 1211 MB (U(h) = 1.15675*h^0.001)
Reading from 18136: heap size 411 MB, throughput 0.0388605
Reading from 18136: heap size 411 MB, throughput 0.0815738
Reading from 18136: heap size 411 MB, throughput 0.144427
Reading from 18136: heap size 411 MB, throughput 0.232638
Reading from 18136: heap size 411 MB, throughput 0.372734
Reading from 18136: heap size 411 MB, throughput 0.576651
Reading from 18136: heap size 411 MB, throughput 0.734068
Reading from 18136: heap size 411 MB, throughput 0.850179
Reading from 18136: heap size 411 MB, throughput 0.977429
Reading from 18136: heap size 411 MB, throughput 0.986233
Reading from 18136: heap size 412 MB, throughput 0.992393
Reading from 18136: heap size 412 MB, throughput 0.995521
Reading from 18136: heap size 412 MB, throughput 0.0403491
Client 18136 died
Clients: 1
Recommendation: one client; give it all the memory
Recommendation: one client; give it all the memory
Reading from 18135: heap size 1066 MB, throughput 0.973605
Reading from 18135: heap size 1065 MB, throughput 0.975353
Reading from 18135: heap size 1066 MB, throughput 0.968557
Reading from 18135: heap size 1055 MB, throughput 0.969794
Reading from 18135: heap size 973 MB, throughput 0.930873
Reading from 18135: heap size 1050 MB, throughput 0.311198
Recommendation: one client; give it all the memory
Reading from 18135: heap size 1056 MB, throughput 0.786776
Reading from 18135: heap size 1051 MB, throughput 0.662011
Reading from 18135: heap size 1054 MB, throughput 0.770977
Reading from 18135: heap size 1061 MB, throughput 0.680684
Reading from 18135: heap size 1062 MB, throughput 0.17949
Recommendation: one client; give it all the memory
Reading from 18135: heap size 1074 MB, throughput 0.12272
Reading from 18135: heap size 1076 MB, throughput 0.0900035
Reading from 18135: heap size 1090 MB, throughput 0.0595571
Reading from 18135: heap size 1092 MB, throughput 0.0455541
Reading from 18135: heap size 1097 MB, throughput 0.882554
Recommendation: one client; give it all the memory
Reading from 18135: heap size 1070 MB, throughput 0.915284
Reading from 18135: heap size 1092 MB, throughput 0.928155
Reading from 18135: heap size 1059 MB, throughput 0.944116
Reading from 18135: heap size 1089 MB, throughput 0.951819
Recommendation: one client; give it all the memory
Reading from 18135: heap size 1054 MB, throughput 0.611995
Reading from 18135: heap size 1105 MB, throughput 0.970044
Reading from 18135: heap size 998 MB, throughput 0.978715
Reading from 18135: heap size 1099 MB, throughput 0.981464
Reading from 18135: heap size 1100 MB, throughput 0.981573
Reading from 18135: heap size 1095 MB, throughput 0.980354
Reading from 18135: heap size 1007 MB, throughput 0.979194
Recommendation: one client; give it all the memory
Reading from 18135: heap size 1087 MB, throughput 0.977268
Reading from 18135: heap size 1020 MB, throughput 0.975122
Reading from 18135: heap size 1078 MB, throughput 0.973845
Reading from 18135: heap size 1033 MB, throughput 0.971516
Reading from 18135: heap size 1079 MB, throughput 0.970419
Reading from 18135: heap size 1081 MB, throughput 0.968559
Reading from 18135: heap size 1082 MB, throughput 0.966181
Recommendation: one client; give it all the memory
Reading from 18135: heap size 1083 MB, throughput 0.964386
Reading from 18135: heap size 1085 MB, throughput 0.962779
Reading from 18135: heap size 1089 MB, throughput 0.960895
Reading from 18135: heap size 1094 MB, throughput 0.959065
Reading from 18135: heap size 1097 MB, throughput 0.958429
Reading from 18135: heap size 1102 MB, throughput 0.959844
Reading from 18135: heap size 1103 MB, throughput 0.960109
Recommendation: one client; give it all the memory
Reading from 18135: heap size 1107 MB, throughput 0.959988
Reading from 18135: heap size 1108 MB, throughput 0.961197
Reading from 18135: heap size 1110 MB, throughput 0.961141
Reading from 18135: heap size 1110 MB, throughput 0.960517
Reading from 18135: heap size 1110 MB, throughput 0.960315
Reading from 18135: heap size 1076 MB, throughput 0.960081
Recommendation: one client; give it all the memory
Reading from 18135: heap size 1110 MB, throughput 0.960403
Reading from 18135: heap size 1109 MB, throughput 0.960291
Reading from 18135: heap size 1110 MB, throughput 0.925967
Recommendation: one client; give it all the memory
Recommendation: one client; give it all the memory
Recommendation: one client; give it all the memory
Recommendation: one client; give it all the memory
Recommendation: one client; give it all the memory
Recommendation: one client; give it all the memory
Recommendation: one client; give it all the memory
Recommendation: one client; give it all the memory
Recommendation: one client; give it all the memory
Recommendation: one client; give it all the memory
Recommendation: one client; give it all the memory
Recommendation: one client; give it all the memory
Reading from 18135: heap size 1110 MB, throughput 0.0127685
Reading from 18135: heap size 1110 MB, throughput 0.45619
Recommendation: one client; give it all the memory
Reading from 18135: heap size 1110 MB, throughput 0.331916
Reading from 18135: heap size 1110 MB, throughput 0.319868
Recommendation: one client; give it all the memory
Reading from 18135: heap size 1110 MB, throughput 0.321317
Reading from 18135: heap size 1110 MB, throughput 0.311037
Reading from 18135: heap size 1110 MB, throughput 0.305798
Recommendation: one client; give it all the memory
Reading from 18135: heap size 1110 MB, throughput 0.301199
Reading from 18135: heap size 1110 MB, throughput 0.301769
Recommendation: one client; give it all the memory
Reading from 18135: heap size 1110 MB, throughput 0.286093
Reading from 18135: heap size 1110 MB, throughput 0.278377
Recommendation: one client; give it all the memory
Reading from 18135: heap size 1110 MB, throughput 0.284967
Reading from 18135: heap size 1110 MB, throughput 0.282861
Recommendation: one client; give it all the memory
Reading from 18135: heap size 1110 MB, throughput 0.274418
Reading from 18135: heap size 1110 MB, throughput 0.270687
Reading from 18135: heap size 1110 MB, throughput 0.266682
Recommendation: one client; give it all the memory
Reading from 18135: heap size 1110 MB, throughput 0.258749
Reading from 18135: heap size 1110 MB, throughput 0.252929
Recommendation: one client; give it all the memory
Reading from 18135: heap size 1110 MB, throughput 0.245799
Reading from 18135: heap size 1110 MB, throughput 0.253858
Recommendation: one client; give it all the memory
Reading from 18135: heap size 1110 MB, throughput 0.236657
Recommendation: one client; give it all the memory
Reading from 18135: heap size 1110 MB, throughput 0.80976
Recommendation: one client; give it all the memory
Reading from 18135: heap size 1110 MB, throughput 0.577363
Reading from 18135: heap size 1110 MB, throughput 0.39727
Reading from 18135: heap size 1110 MB, throughput 0.348858
Reading from 18135: heap size 1110 MB, throughput 0.623975
Recommendation: one client; give it all the memory
Recommendation: one client; give it all the memory
Reading from 18135: heap size 1110 MB, throughput 0.946284
Reading from 18135: heap size 1110 MB, throughput 0.831551
Recommendation: one client; give it all the memory
Reading from 18135: heap size 1103 MB, throughput 0.863791
Reading from 18135: heap size 1108 MB, throughput 0.862142
Reading from 18135: heap size 1102 MB, throughput 0.80368
Recommendation: one client; give it all the memory
Recommendation: one client; give it all the memory
Recommendation: one client; give it all the memory
Recommendation: one client; give it all the memory
Recommendation: one client; give it all the memory
Recommendation: one client; give it all the memory
Recommendation: one client; give it all the memory
Recommendation: one client; give it all the memory
Recommendation: one client; give it all the memory
Recommendation: one client; give it all the memory
Recommendation: one client; give it all the memory
Recommendation: one client; give it all the memory
Recommendation: one client; give it all the memory
Reading from 18135: heap size 1088 MB, throughput 0.056448
Reading from 18135: heap size 1067 MB, throughput 0.47061
Reading from 18135: heap size 1067 MB, throughput 0.177164
Reading from 18135: heap size 1067 MB, throughput 0.181158
Reading from 18135: heap size 1067 MB, throughput 0.186674
Reading from 18135: heap size 1067 MB, throughput 0.183774
Reading from 18135: heap size 1067 MB, throughput 0.179018
Reading from 18135: heap size 1067 MB, throughput 0.185022
Reading from 18135: heap size 1067 MB, throughput 0.183874
Reading from 18135: heap size 1067 MB, throughput 0.182151
Reading from 18135: heap size 1067 MB, throughput 0.18203
Reading from 18135: heap size 1067 MB, throughput 0.186483
Reading from 18135: heap size 1067 MB, throughput 0.283905
Recommendation: one client; give it all the memory
Reading from 18135: heap size 1067 MB, throughput 0.759125
Reading from 18135: heap size 1084 MB, throughput 0.879974
Reading from 18135: heap size 1084 MB, throughput 0.905929
Reading from 18135: heap size 1084 MB, throughput 0.871511
Reading from 18135: heap size 1084 MB, throughput 0.904737
Recommendation: one client; give it all the memory
Recommendation: one client; give it all the memory
Recommendation: one client; give it all the memory
Recommendation: one client; give it all the memory
Reading from 18135: heap size 1084 MB, throughput 0.0520837
Recommendation: one client; give it all the memory
Recommendation: one client; give it all the memory
Recommendation: one client; give it all the memory
Recommendation: one client; give it all the memory
Reading from 18135: heap size 1084 MB, throughput 0.672345
Reading from 18135: heap size 1084 MB, throughput 0.677418
Recommendation: one client; give it all the memory
Reading from 18135: heap size 1084 MB, throughput 0.691207
Reading from 18135: heap size 973 MB, throughput 0.711066
Reading from 18135: heap size 1081 MB, throughput 0.742363
Reading from 18135: heap size 986 MB, throughput 0.760671
Reading from 18135: heap size 1067 MB, throughput 0.545315
Recommendation: one client; give it all the memory
Reading from 18135: heap size 1074 MB, throughput 0.587345
Reading from 18135: heap size 1066 MB, throughput 0.556679
Reading from 18135: heap size 1071 MB, throughput 0.5984
Reading from 18135: heap size 1075 MB, throughput 0.598124
Recommendation: one client; give it all the memory
Reading from 18135: heap size 1077 MB, throughput 0.59562
Reading from 18135: heap size 1088 MB, throughput 0.616197
Reading from 18135: heap size 1089 MB, throughput 0.623943
Reading from 18135: heap size 1103 MB, throughput 0.69301
Reading from 18135: heap size 1104 MB, throughput 0.757115
Recommendation: one client; give it all the memory
Reading from 18135: heap size 1116 MB, throughput 0.799186
Reading from 18135: heap size 1117 MB, throughput 0.866446
Reading from 18135: heap size 1117 MB, throughput 0.910254
Reading from 18135: heap size 1088 MB, throughput 0.927797
Reading from 18135: heap size 1114 MB, throughput 0.937316
Recommendation: one client; give it all the memory
Reading from 18135: heap size 1086 MB, throughput 0.932991
Reading from 18135: heap size 1111 MB, throughput 0.934485
Reading from 18135: heap size 1083 MB, throughput 0.939855
Reading from 18135: heap size 1109 MB, throughput 0.950074
Reading from 18135: heap size 1080 MB, throughput 0.612718
Recommendation: one client; give it all the memory
Reading from 18135: heap size 1108 MB, throughput 0.654519
Reading from 18135: heap size 1108 MB, throughput 0.659914
Reading from 18135: heap size 1108 MB, throughput 0.660299
Recommendation: one client; give it all the memory
Recommendation: one client; give it all the memory
Reading from 18135: heap size 1108 MB, throughput 0.0736722
Recommendation: one client; give it all the memory
Recommendation: one client; give it all the memory
Reading from 18135: heap size 1108 MB, throughput 0.920467
Reading from 18135: heap size 1108 MB, throughput 0.644477
Recommendation: one client; give it all the memory
Reading from 18135: heap size 1108 MB, throughput 0.64481
Reading from 18135: heap size 1108 MB, throughput 0.633839
Reading from 18135: heap size 1108 MB, throughput 0.641267
Reading from 18135: heap size 1108 MB, throughput 0.630207
Recommendation: one client; give it all the memory
Reading from 18135: heap size 1108 MB, throughput 0.616274
Reading from 18135: heap size 1108 MB, throughput 0.62621
Reading from 18135: heap size 1108 MB, throughput 0.61653
Reading from 18135: heap size 1108 MB, throughput 0.604481
Recommendation: one client; give it all the memory
Reading from 18135: heap size 1108 MB, throughput 0.595517
Reading from 18135: heap size 1108 MB, throughput 0.599377
Reading from 18135: heap size 1108 MB, throughput 0.58813
Reading from 18135: heap size 1108 MB, throughput 0.572485
Reading from 18135: heap size 1108 MB, throughput 0.577773
Recommendation: one client; give it all the memory
Reading from 18135: heap size 1108 MB, throughput 0.589685
Reading from 18135: heap size 1108 MB, throughput 0.569655
Reading from 18135: heap size 1108 MB, throughput 0.57392
Reading from 18135: heap size 1108 MB, throughput 0.564189
Recommendation: one client; give it all the memory
Reading from 18135: heap size 1108 MB, throughput 0.557924
Reading from 18135: heap size 1108 MB, throughput 0.552271
Reading from 18135: heap size 1108 MB, throughput 0.544118
Reading from 18135: heap size 1108 MB, throughput 0.549448
Recommendation: one client; give it all the memory
Reading from 18135: heap size 1108 MB, throughput 0.54025
Reading from 18135: heap size 1108 MB, throughput 0.528516
Reading from 18135: heap size 1108 MB, throughput 0.51596
Reading from 18135: heap size 1108 MB, throughput 0.523374
Recommendation: one client; give it all the memory
Reading from 18135: heap size 1108 MB, throughput 0.510423
Reading from 18135: heap size 1108 MB, throughput 0.499147
Reading from 18135: heap size 1108 MB, throughput 0.492901
Reading from 18135: heap size 1108 MB, throughput 0.497608
Reading from 18135: heap size 1108 MB, throughput 0.488053
Recommendation: one client; give it all the memory
Reading from 18135: heap size 1108 MB, throughput 0.482954
Reading from 18135: heap size 1108 MB, throughput 0.475891
Reading from 18135: heap size 1108 MB, throughput 0.475321
Reading from 18135: heap size 1108 MB, throughput 0.480229
Recommendation: one client; give it all the memory
Reading from 18135: heap size 1108 MB, throughput 0.453312
Reading from 18135: heap size 1108 MB, throughput 0.447807
Reading from 18135: heap size 1108 MB, throughput 0.428236
Reading from 18135: heap size 1108 MB, throughput 0.451129
Recommendation: one client; give it all the memory
Reading from 18135: heap size 1108 MB, throughput 0.435069
Reading from 18135: heap size 1108 MB, throughput 0.430723
Recommendation: one client; give it all the memory
Reading from 18135: heap size 1108 MB, throughput 0.918323
Recommendation: one client; give it all the memory
Reading from 18135: heap size 1108 MB, throughput 0.622304
Reading from 18135: heap size 1108 MB, throughput 0.480549
Reading from 18135: heap size 1108 MB, throughput 0.278607
Reading from 18135: heap size 1108 MB, throughput 0.336465
Reading from 18135: heap size 1108 MB, throughput 0.535297
Recommendation: one client; give it all the memory
Recommendation: one client; give it all the memory
Reading from 18135: heap size 1108 MB, throughput 0.948893
Reading from 18135: heap size 1108 MB, throughput 0.982321
Reading from 18135: heap size 1081 MB, throughput 0.985438
Reading from 18135: heap size 1108 MB, throughput 0.978354
Recommendation: one client; give it all the memory
Recommendation: one client; give it all the memory
Recommendation: one client; give it all the memory
Recommendation: one client; give it all the memory
Recommendation: one client; give it all the memory
Recommendation: one client; give it all the memory
Recommendation: one client; give it all the memory
Reading from 18135: heap size 1090 MB, throughput 0.0428533
Recommendation: one client; give it all the memory
Recommendation: one client; give it all the memory
Recommendation: one client; give it all the memory
Recommendation: one client; give it all the memory
Recommendation: one client; give it all the memory
Recommendation: one client; give it all the memory
Reading from 18135: heap size 1101 MB, throughput 0.345292
Reading from 18135: heap size 1102 MB, throughput 0.162493
Reading from 18135: heap size 1102 MB, throughput 0.212057
Reading from 18135: heap size 1102 MB, throughput 0.210959
Reading from 18135: heap size 1102 MB, throughput 0.217317
Reading from 18135: heap size 1102 MB, throughput 0.214508
Reading from 18135: heap size 1102 MB, throughput 0.219119
Reading from 18135: heap size 1102 MB, throughput 0.219323
Reading from 18135: heap size 1102 MB, throughput 0.210602
Recommendation: one client; give it all the memory
Reading from 18135: heap size 1102 MB, throughput 0.222415
Reading from 18135: heap size 1102 MB, throughput 0.280913
Client 18135 died
Clients: 0
Recommendation: no clients; no recommendation
Recommendation: no clients; no recommendation
ReadingThread: finished
TimerThread: finished
CommandThread: finished
Main: All threads killed, cleaning up
