MemTotal:       16318588 kB
MemFree:        13716580 kB
Buffers:          643892 kB
Cached:           815392 kB
SwapCached:            0 kB
Active:          1419800 kB
Inactive:         690784 kB
Active(anon):     652100 kB
Inactive(anon):      748 kB
Active(file):     767700 kB
Inactive(file):   690036 kB
Unevictable:           0 kB
Mlocked:               0 kB
SwapTotal:      16728060 kB
SwapFree:       16728060 kB
Dirty:               180 kB
Writeback:             0 kB
AnonPages:        651128 kB
Mapped:            17444 kB
Shmem:              1552 kB
Slab:             363180 kB
SReclaimable:     344212 kB
SUnreclaim:        18968 kB
KernelStack:        1584 kB
PageTables:         4256 kB
NFS_Unstable:          0 kB
Bounce:                0 kB
WritebackTmp:          0 kB
CommitLimit:    24887352 kB
Committed_AS:     834400 kB
VmallocTotal:   34359738367 kB
VmallocUsed:      370636 kB
VmallocChunk:   34359363072 kB
HardwareCorrupted:     0 kB
AnonHugePages:    628736 kB
HugePages_Total:       0
HugePages_Free:        0
HugePages_Rsvd:        0
HugePages_Surp:        0
Hugepagesize:       2048 kB
DirectMap4k:       70592 kB
DirectMap2M:    16590848 kB
