1414084945275 0 TOTAL_MEM 1728
1414084965298 21092 CREATION
1414084965298 21092 READING 9 0.982619
1414084965298 21092 MINHEAP 2
1414084965298 21092 MINHEAP 12
1414084965326 21091 CREATION
1414084965326 21091 READING 9 0.993439
1414084965326 21091 MINHEAP 2
1414084965326 21091 MINHEAP 276
1414084965372 21091 READING 9 0.988205
1414084965401 21091 READING 9 0.981020
1414084965414 21092 READING 9 0.986740
1414084965432 21091 READING 9 0.972967
1414084965482 21092 READING 11 0.984094
1414084965527 21091 READING 11 0.973010
1414084965566 21092 READING 11 0.972226
1414084965685 21091 READING 11 0.975184
1414084965772 21091 READING 17 0.922209
1414084965785 21092 READING 15 0.985587
1414084965906 21091 READING 17 0.909699
1414084965979 21092 READING 15 0.985816
1414084966079 21091 READING 30 0.812405
1414084966232 21091 READING 31 0.061607
1414084966481 21092 READING 25 0.959889
1414084966499 21091 READING 35 0.730038
1414084966583 21091 READING 48 0.524598
1414084966660 21091 READING 49 0.373424
1414084966735 21092 READING 30 0.964476
1414084966923 21091 READING 52 0.439543
1414084966995 21091 READING 75 0.348294
1414084967030 21092 READING 37 0.929948
1414084967296 21092 READING 42 0.948137
1414084967326 21091 READING 75 0.300323
1414084967406 21091 READING 100 0.567405
1414084967489 21091 READING 100 0.376797
1414084967638 21092 READING 43 0.926852
1414084967793 21091 READING 101 0.408983
1414084967882 21091 READING 129 0.543517
1414084967892 21092 READING 50 0.944054
1414084967981 21091 READING 132 0.547594
1414084968142 21092 READING 52 0.959801
1414084968154 21091 READING 133 0.428837
1414084968339 21092 READING 54 0.969625
1414084968691 21092 READING 61 0.975529
1414084968879 21092 READING 61 0.976793
1414084968902 21091 READING 136 0.387360
1414084969005 21091 READING 172 0.401536
1414084969065 21092 READING 68 0.973557
1414084969101 21091 READING 176 0.524353
1414084969227 21091 READING 176 0.217065
1414084969245 21092 READING 68 0.971349
1414084969350 21091 READING 178 0.615099
1414084969471 21091 READING 183 0.597352
1414084969783 21092 READING 74 0.986645
1414084970361 21092 READING 75 0.978628
1414084970496 21091 READING 186 0.379254
1414084971013 21091 READING 229 0.870666
1414084971185 21092 READING 81 0.989194
1414084971237 21091 READING 232 0.854922
1414084971375 21091 READING 236 0.831050
1414084971529 21091 READING 241 0.831484
1414084971684 21091 READING 244 0.770042
1414084971810 21091 READING 246 0.715013
1414084971870 21092 READING 82 0.991484
1414084971952 21091 READING 249 0.756656
1414084972061 21091 READING 253 0.756039
1414084972209 21091 READING 254 0.761877
1414084972299 21091 READING 256 0.731281
1414084972377 21091 READING 260 0.695898
1414084972466 21091 READING 265 0.634805
1414084972547 21091 READING 268 0.635906
1414084972600 21092 READING 87 0.993837
1414084972637 21091 READING 268 0.643614
1414084972712 21091 READING 270 0.693468
1414084973217 21092 READING 88 0.994197
1414084973790 21092 READING 93 0.992832
1414084973810 21091 READING 267 0.625349
1414084974006 21091 READING 313 0.854271
1414084974085 21091 READING 315 0.839976
1414084974160 21091 READING 317 0.840246
1414084974244 21091 READING 317 0.834718
1414084974321 21091 READING 318 0.856253
1414084974468 21092 READING 94 0.992119
1414084974496 21091 READING 318 0.859294
1414084974647 21091 READING 319 0.875163
1414084974765 21091 READING 317 0.830258
1414084974841 21091 READING 319 0.785218
1414084974925 21091 READING 324 0.729836
1414084975017 21091 READING 326 0.678199
1414084975118 21091 READING 332 0.631885
1414084975238 21091 READING 334 0.561458
1414084975259 21092 READING 97 0.986344
1414084975276 21092 FUNCTION lru lambda h: 0.944846 * (h ** 0.00751392)
1414084975276 21091 FUNCTION lru lambda h: 0.375389 * (h ** 0.0959893)
1414084975277 21092 RECOMMEND 125
1414084975277 21091 RECOMMEND 1603
1414084975362 21091 READING 341 0.576786
1414084975967 21092 READING 98 0.986822
1414084976614 21091 READING 342 0.915906
1414084976718 21092 READING 101 0.989138
1414084977432 21092 READING 101 0.988101
1414084978059 21091 READING 345 0.956972
1414084978209 21092 READING 104 0.988524
1414084978918 21092 READING 105 0.989279
1414084979260 21091 READING 347 0.971231
1414084979608 21092 READING 108 0.987906
1414084980291 21092 READING 108 0.988968
1414084980572 21091 READING 350 0.978060
1414084980985 21092 READING 111 0.991881
1414084981672 21092 READING 111 0.993347
1414084981975 21091 READING 352 0.981075
1414084982367 21092 READING 113 0.995368
1414084983039 21092 READING 113 0.996325
1414084983227 21091 READING 348 0.980649
1414084983748 21092 READING 115 0.996542
1414084984456 21092 READING 115 0.997273
1414084984808 21091 READING 352 0.981744
1414084985178 21092 READING 116 0.997575
1414084985277 21092 FUNCTION lru lambda h: 0.930015 * (h ** 0.0122948)
1414084985277 21091 FUNCTION lru lambda h: 0.324818 * (h ** 0.132616)
1414084985278 21092 RECOMMEND 147
1414084985278 21091 RECOMMEND 1581
1414084985884 21092 READING 116 0.997441
1414084986134 21091 READING 347 0.979572
1414084986588 21092 READING 118 0.997004
1414084987314 21092 READING 118 0.997243
1414084987533 21091 READING 350 0.981178
1414084988069 21092 READING 119 0.997219
1414084988799 21092 READING 119 0.997182
1414084989109 21091 READING 345 0.974278
1414084989289 21092 READING 120 0.995782
1414084989637 21092 READING 120 0.992923
1414084990046 21092 READING 122 0.992068
1414084990462 21091 READING 347 0.967808
1414084990609 21092 READING 123 0.992734
1414084991399 21092 READING 126 0.995350
1414084991849 21091 READING 347 0.973037
1414084992193 21092 READING 126 0.994640
1414084992996 21092 READING 129 0.996055
1414084993306 21091 READING 348 0.977347
1414084993793 21092 READING 129 0.996122
1414084994616 21092 READING 130 0.996440
1414084994755 21091 READING 349 0.980091
1414084995278 21092 FUNCTION lru lambda h: 0.923169 * (h ** 0.0144401)
1414084995278 21091 FUNCTION lru lambda h: 0.317732 * (h ** 0.138194)
1414084995280 21092 RECOMMEND 163
1414084995280 21091 RECOMMEND 1565
1414084995442 21092 READING 131 0.996594
1414084996100 21091 READING 349 0.980206
1414084996257 21092 READING 133 0.997180
1414084997052 21092 READING 133 0.997058
1414084997446 21091 READING 351 0.980083
1414084997864 21092 READING 135 0.996783
1414084998668 21092 READING 135 0.996700
1414084999287 21091 READING 352 0.980669
1414084999522 21092 READING 136 0.996634
1414084999666 21091 READING 353 0.977147
1414084999808 21091 READING 333 0.958509
1414084999920 21091 READING 349 0.925479
1414085000362 21092 READING 136 0.986180
1414085000531 21091 READING 354 0.942894
1414085000662 21091 READING 398 0.803592
1414085000889 21091 READING 400 0.881828
1414085001199 21092 READING 138 0.983051
1414085002040 21092 READING 138 0.983048
1414085002484 21091 READING 407 0.977787
1414085002903 21092 READING 140 0.986591
1414085003762 21092 READING 140 0.991896
1414085003803 21091 READING 409 0.980722
1414085004649 21092 READING 141 0.995091
1414085005280 21092 FUNCTION lru lambda h: 0.922191 * (h ** 0.0147426)
1414085005280 21091 FUNCTION lru lambda h: 0.282747 * (h ** 0.167092)
1414085005281 21092 RECOMMEND 140
1414085005281 21091 RECOMMEND 1588
1414085005403 21091 READING 410 0.984884
1414085005519 21092 READING 142 0.996491
1414085006322 21092 READING 133 0.997130
1414085006732 21091 READING 412 0.985202
1414085007173 21092 READING 138 0.997553
1414085007664 21092 READING 139 0.996379
1414085008073 21092 READING 139 0.994732
1414085008421 21091 READING 407 0.980086
1414085008497 21092 READING 141 0.993133
1414085009332 21092 READING 135 0.992081
1414085010188 21092 READING 136 0.992000
1414085010270 21091 READING 410 0.983016
1414085011064 21092 READING 139 0.995028
1414085011928 21092 READING 140 0.995744
1414085012024 21091 READING 404 0.983626
1414085012746 21092 READING 133 0.996294
1414085013467 21091 READING 407 0.982209
1414085013597 21092 READING 136 0.996786
1414085014423 21092 READING 137 0.996627
1414085015124 21091 READING 408 0.982488
1414085015275 21092 READING 138 0.996798
1414085015281 21092 FUNCTION lru lambda h: 0.919979 * (h ** 0.015411)
1414085015281 21091 FUNCTION lru lambda h: 0.266866 * (h ** 0.180934)
1414085015282 21092 RECOMMEND 136
1414085015282 21091 RECOMMEND 1592
1414085016121 21092 READING 139 0.996661
1414085016825 21091 READING 408 0.980778
1414085016951 21092 READING 132 0.996801
1414085017752 21092 READING 134 0.996252
1414085018340 21091 READING 410 0.978547
1414085018590 21092 READING 136 0.996140
1414085019432 21092 READING 137 0.989024
1414085019936 21091 READING 411 0.981091
1414085020321 21092 READING 130 0.993970
1414085021118 21092 READING 136 0.994648
1414085021769 21091 READING 412 0.978623
1414085021916 21092 READING 140 0.996402
1414085022667 21092 READING 132 0.997245
1414085022959 21091 READING 412 0.981140
1414085023138 21091 READING 416 0.968035
1414085023266 21091 READING 417 0.946538
1414085023389 21091 READING 423 0.925836
1414085023485 21092 READING 137 0.997812
1414085023517 21091 READING 425 0.894000
1414085024245 21092 READING 129 0.998040
1414085024740 21091 READING 433 0.972848
1414085025038 21092 READING 133 0.998296
1414085025282 21092 FUNCTION lru lambda h: 0.919107 * (h ** 0.0156792)
1414085025282 21091 FUNCTION lru lambda h: 0.252448 * (h ** 0.194111)
1414085025283 21092 RECOMMEND 129
1414085025283 21091 RECOMMEND 1599
1414085025479 21092 READING 133 0.996544
1414085025769 21092 READING 127 0.994010
1414085026033 21092 READING 132 0.991793
1414085026574 21091 READING 434 0.986002
1414085026589 21092 READING 127 0.994411
1414085027342 21092 READING 131 0.995423
1414085028071 21092 READING 125 0.996002
1414085028419 21091 READING 435 0.988561
1414085028830 21092 READING 130 0.996366
1414085029535 21092 READING 124 0.996345
1414085030133 21091 READING 437 0.986111
1414085030271 21092 READING 128 0.996126
1414085031002 21092 READING 129 0.996391
1414085031742 21092 READING 129 0.996640
1414085032191 21091 READING 436 0.987164
1414085032502 21092 READING 131 0.996668
1414085033223 21092 READING 125 0.996469
1414085033975 21092 READING 128 0.996629
1414085034207 21091 READING 438 0.988196
1414085034728 21092 READING 129 0.996204
1414085035283 21092 FUNCTION lru lambda h: 0.918373 * (h ** 0.0159157)
1414085035283 21091 FUNCTION lru lambda h: 0.240903 * (h ** 0.205077)
1414085035284 21092 RECOMMEND 124
1414085035284 21091 RECOMMEND 1604
1414085035427 21092 READING 124 0.989263
1414085035839 21091 READING 435 0.987199
1414085036178 21092 READING 126 0.986595
1414085036865 21092 READING 121 0.987717
1414085037572 21092 READING 125 0.990543
1414085037780 21091 READING 437 0.986845
1414085038250 21092 READING 118 0.993991
1414085038939 21092 READING 123 0.996039
1414085039647 21092 READING 123 0.995906
1414085039652 21091 READING 432 0.986336
1414085040332 21092 READING 123 0.997015
1414085041051 21092 READING 125 0.996834
1414085041619 21091 READING 435 0.986593
1414085041753 21092 READING 118 0.996973
1414085042438 21092 READING 122 0.997503
1414085042871 21092 READING 122 0.996643
1414085043097 21092 READING 123 0.994691
1414085043328 21092 READING 123 0.991393
1414085043385 21091 READING 433 0.983415
1414085043703 21092 READING 126 0.992874
1414085044370 21092 READING 121 0.995755
1414085045039 21092 READING 123 0.996070
1414085045194 21091 READING 435 0.987386
1414085045285 21092 FUNCTION lru lambda h: 0.918522 * (h ** 0.0158691)
1414085045285 21091 FUNCTION lru lambda h: 0.238908 * (h ** 0.207032)
1414085045285 21092 RECOMMEND 123
1414085045285 21091 RECOMMEND 1605
1414085045375 21091 READING 436 0.980676
1414085045519 21091 READING 436 0.969032
1414085045663 21091 READING 440 0.952471
1414085045760 21092 READING 125 0.995691
1414085046434 21092 READING 119 0.996037
1414085046632 21091 READING 441 0.977985
1414085047177 21092 READING 122 0.995851
1414085047874 21092 READING 124 0.995979
1414085048542 21092 READING 118 0.996375
1414085048762 21091 READING 447 0.987598
1414085049230 21092 READING 120 0.996583
1414085049934 21092 READING 122 0.996266
1414085050633 21092 READING 125 0.996401
1414085051199 21091 READING 448 0.991109
1414085051331 21092 READING 119 0.996542
1414085052028 21092 READING 121 0.989945
1414085052717 21092 READING 123 0.987901
1414085053394 21091 READING 449 0.990886
1414085053453 21092 READING 125 0.988223
1414085054121 21092 READING 118 0.990255
1414085054800 21092 READING 122 0.993618
1414085055285 21092 FUNCTION lru lambda h: 0.918963 * (h ** 0.0157241)
1414085055286 21091 FUNCTION lru lambda h: 0.230857 * (h ** 0.215)
1414085055286 21092 RECOMMEND 118
1414085055286 21091 RECOMMEND 1610
1414085055374 21091 READING 451 0.988914
1414085055501 21092 READING 122 0.995937
1414085056171 21092 READING 115 0.996823
1414085056843 21092 READING 120 0.997320
1414085057473 21092 READING 113 0.996908
1414085057542 21091 READING 450 0.988222
1414085058133 21092 READING 117 0.997640
1414085058793 21092 READING 118 0.997725
1414085059450 21092 READING 118 0.997636
1414085059596 21091 READING 451 0.988611
1414085060092 21092 READING 119 0.997474
1414085060293 21092 READING 113 0.995521
1414085060515 21092 READING 115 0.991461
1414085060730 21092 READING 117 0.988811
1414085061206 21092 READING 121 0.992380
1414085061703 21091 READING 449 0.988043
1414085061865 21092 READING 116 0.994628
1414085062533 21092 READING 118 0.994942
1414085063170 21092 READING 114 0.995846
1414085063822 21092 READING 116 0.996237
1414085063853 21091 READING 451 0.986657
1414085064459 21092 READING 117 0.996057
1414085065096 21092 READING 120 0.996088
1414085065286 21092 FUNCTION lru lambda h: 0.918525 * (h ** 0.0158743)
1414085065286 21091 FUNCTION lru lambda h: 0.227921 * (h ** 0.217962)
1414085065287 21092 RECOMMEND 117
1414085065287 21091 RECOMMEND 1611
1414085065713 21092 READING 114 0.996172
1414085066246 21091 READING 452 0.989985
1414085066356 21092 READING 116 0.996433
1414085066991 21092 READING 118 0.996167
1414085067139 21091 READING 452 0.987286
1414085067303 21091 READING 454 0.978984
1414085067462 21091 READING 454 0.964973
1414085067647 21092 READING 112 0.995799
1414085067981 21091 READING 459 0.970319
1414085068301 21092 READING 115 0.992784
1414085068949 21092 READING 117 0.989786
1414085069600 21092 READING 117 0.987367
1414085070131 21091 READING 460 0.987116
1414085070275 21092 READING 118 0.988160
1414085070900 21092 READING 112 0.990254
1414085071546 21092 READING 116 0.993882
1414085072190 21092 READING 116 0.995966
1414085072431 21091 READING 463 0.990610
1414085072836 21092 READING 117 0.996881
1414085073500 21092 READING 117 0.997479
1414085074129 21092 READING 110 0.997454
1414085074768 21092 READING 115 0.997563
1414085074936 21091 READING 465 0.990329
1414085075287 21092 FUNCTION lru lambda h: 0.918308 * (h ** 0.0159601)
1414085075288 21091 FUNCTION lru lambda h: 0.220711 * (h ** 0.225351)
1414085075289 21092 RECOMMEND 114
1414085075289 21091 RECOMMEND 1614
1414085075438 21092 READING 116 0.997796
1414085076075 21092 READING 109 0.997442
1414085076709 21092 READING 112 0.997066
1414085077357 21092 READING 112 0.997278
1414085077553 21092 READING 113 0.995308
1414085077763 21091 READING 464 0.989511
1414085077791 21092 READING 113 0.992044
1414085078000 21092 READING 116 0.990438
1414085078387 21092 READING 112 0.986665
1414085079037 21092 READING 113 0.992773
1414085079665 21092 READING 115 0.994345
1414085079976 21091 READING 466 0.989730
1414085080295 21092 READING 110 0.995598
1414085080914 21092 READING 113 0.995879
1414085081545 21092 READING 115 0.995966
1414085082142 21092 READING 109 0.994735
1414085082243 21091 READING 463 0.989049
1414085082770 21092 READING 111 0.995430
1414085083382 21092 READING 113 0.995552
1414085084027 21092 READING 115 0.995422
1414085084647 21092 READING 110 0.995799
1414085084679 21091 READING 465 0.989255
1414085085289 21092 FUNCTION lru lambda h: 0.918294 * (h ** 0.0159709)
1414085085289 21091 FUNCTION lru lambda h: 0.218568 * (h ** 0.227582)
1414085085290 21092 RECOMMEND 113
1414085085290 21091 RECOMMEND 1615
1414085085300 21092 READING 112 0.992594
1414085085928 21092 READING 113 0.989182
1414085086525 21092 READING 107 0.986504
1414085087146 21092 READING 109 0.986429
1414085087419 21091 READING 466 0.990060
1414085087774 21092 READING 112 0.989107
1414085088368 21092 READING 112 0.993023
1414085088971 21092 READING 114 0.995150
1414085089550 21092 READING 107 0.996226
1414085089708 21091 READING 467 0.991514
1414085089924 21091 READING 469 0.985833
1414085090100 21091 READING 469 0.975315
1414085090164 21092 READING 110 0.997149
1414085090484 21091 READING 473 0.973649
1414085090771 21092 READING 110 0.997489
1414085091389 21092 READING 112 0.997301
1414085091998 21092 READING 112 0.997505
1414085092623 21092 READING 113 0.997630
1414085093039 21091 READING 475 0.990275
1414085093252 21092 READING 113 0.997747
1414085093884 21092 READING 114 0.997816
1414085094482 21092 READING 108 0.997636
1414085094778 21092 READING 112 0.995753
1414085094997 21092 READING 112 0.992266
1414085095201 21092 READING 114 0.990290
1414085095290 21092 FUNCTION lru lambda h: 0.918207 * (h ** 0.0160066)
1414085095290 21091 FUNCTION lru lambda h: 0.21493 * (h ** 0.2314)
1414085095291 21092 RECOMMEND 112
1414085095291 21091 RECOMMEND 1616
1414085095464 21092 READING 110 0.965039
1414085095615 21091 READING 478 0.992398
1414085096089 21092 READING 113 0.986212
1414085096676 21092 READING 110 0.992486
1414085097305 21092 READING 113 0.994459
1414085097885 21092 READING 108 0.994802
1414085098116 21091 READING 479 0.991982
1414085098482 21092 READING 110 0.995288
1414085099083 21092 READING 111 0.996162
1414085099690 21092 READING 113 0.996330
1414085100275 21092 READING 109 0.996433
1414085100581 21091 READING 478 0.991757
1414085100891 21092 READING 110 0.996591
1414085101509 21092 READING 112 0.996041
1414085102114 21092 READING 113 0.995528
1414085102784 21092 READING 109 0.995547
1414085103126 21091 READING 480 0.991448
1414085103402 21092 READING 115 0.996289
1414085103989 21092 READING 111 0.996419
1414085104571 21092 READING 114 0.997029
1414085105149 21092 READING 108 0.997040
1414085105291 21092 FUNCTION lru lambda h: 0.918041 * (h ** 0.0160698)
1414085105292 21091 FUNCTION lru lambda h: 0.212349 * (h ** 0.23413)
1414085105292 21092 RECOMMEND 111
1414085105292 21091 RECOMMEND 1617
1414085105722 21091 READING 479 0.990929
1414085105745 21092 READING 111 0.997572
1414085106282 21092 READING 106 0.997724
1414085106826 21092 READING 109 0.997676
1414085107405 21092 READING 109 0.997247
1414085107964 21092 READING 111 0.997382
1414085108317 21091 READING 480 0.990144
1414085108539 21092 READING 111 0.997365
1414085109097 21092 READING 112 0.997538
1414085109642 21092 READING 107 0.997640
1414085110194 21092 READING 111 0.997819
1414085110741 21092 READING 111 0.997866
1414085111042 21091 READING 481 0.990071
1414085111311 21092 READING 112 0.998004
1414085111484 21091 READING 482 0.985901
1414085111664 21091 READING 481 0.978559
1414085111812 21092 READING 107 0.997088
1414085111857 21091 READING 484 0.964525
1414085112006 21092 READING 111 0.994554
1414085112224 21092 READING 111 0.990342
1414085112423 21092 READING 109 0.988772
1414085112731 21092 READING 114 0.990895
1414085113296 21092 READING 111 0.994278
1414085113881 21092 READING 113 0.994918
1414085114439 21092 READING 108 0.995491
1414085114655 21091 READING 489 0.989947
1414085115036 21092 READING 112 0.994682
1414085115293 21092 FUNCTION lru lambda h: 0.91794 * (h ** 0.0161206)
1414085115293 21091 FUNCTION lru lambda h: 0.058986 * (h ** 0.455908)
1414085115293 21092 RECOMMEND 59
1414085115293 21091 RECOMMEND 1669
1414085115604 21092 READING 109 0.995363
1414085116141 21092 READING 104 0.995772
1414085116632 21092 READING 99 0.995060
1414085117113 21092 READING 95 0.995310
1414085117429 21091 READING 490 0.992379
1414085117568 21092 READING 92 0.995523
1414085117992 21092 READING 89 0.993784
1414085118397 21092 READING 86 0.990854
1414085118782 21092 READING 83 0.988791
1414085119143 21092 READING 80 0.984999
1414085119515 21092 READING 77 0.986838
1414085119873 21092 READING 75 0.988547
1414085120195 21092 READING 77 0.991651
1414085120447 21091 READING 491 0.993143
1414085120525 21092 READING 72 0.993308
1414085120825 21092 READING 74 0.994095
1414085121124 21092 READING 69 0.995208
1414085121408 21092 READING 71 0.995442
1414085121681 21092 READING 66 0.995662
1414085121958 21092 READING 68 0.995303
1414085122222 21092 READING 64 0.994777
1414085122478 21092 READING 66 0.994601
1414085122726 21092 READING 62 0.994624
1414085122979 21092 READING 64 0.992911
1414085123224 21091 READING 493 0.992723
1414085123231 21092 READING 60 0.994065
1414085123459 21092 READING 62 0.993990
1414085123688 21092 READING 59 0.994515
1414085123910 21092 READING 61 0.992388
1414085124137 21092 READING 58 0.993457
1414085124366 21092 READING 62 0.992470
1414085124597 21092 READING 59 0.993484
1414085124818 21092 READING 60 0.993443
1414085125042 21092 READING 58 0.994176
1414085125273 21092 READING 61 0.994178
1414085125293 21092 FUNCTION lru lambda h: 0.926467 * (h ** 0.014586)
1414085125293 21091 FUNCTION lru lambda h: 0.0478005 * (h ** 0.491706)
1414085125294 21092 RECOMMEND 50
1414085125294 21091 RECOMMEND 1678
1414085125498 21092 READING 59 0.994202
1414085125733 21092 READING 60 0.994357
1414085125839 21091 READING 491 0.991602
1414085125957 21092 READING 57 0.994777
1414085126173 21092 READING 58 0.992701
1414085126387 21092 READING 56 0.992743
1414085126591 21092 READING 57 0.993109
1414085126788 21092 READING 55 0.993303
1414085126991 21092 READING 56 0.991636
1414085127198 21092 READING 54 0.992670
1414085127387 21092 READING 54 0.993186
1414085127575 21092 READING 53 0.993264
1414085127760 21092 READING 53 0.992859
1414085127940 21092 READING 52 0.993237
1414085128111 21092 READING 52 0.992841
1414085128285 21092 READING 51 0.993018
1414085128458 21092 READING 51 0.992797
1414085128588 21091 READING 493 0.991205
1414085128638 21092 READING 50 0.993291
1414085128815 21092 READING 50 0.992814
1414085128970 21092 READING 49 0.992627
1414085129174 21092 READING 51 0.992111
1414085129235 21092 READING 50 0.978740
1414085129294 21092 READING 50 0.960489
1414085129359 21092 READING 52 0.963607
1414085129409 21092 READING 53 0.964946
1414085129467 21092 READING 52 0.967253
1414085129544 21092 READING 52 0.969082
1414085129597 21092 READING 51 0.966143
1414085129649 21092 READING 51 0.968100
1414085129703 21092 READING 51 0.965169
1414085129749 21092 READING 51 0.955431
1414085129814 21092 READING 50 0.944618
1414085129878 21092 READING 54 0.898828
1414085129934 21092 READING 52 0.912238
1414085130030 21092 READING 51 0.943195
1414085130168 21092 READING 51 0.961881
1414085130335 21092 READING 49 0.974195
1414085130500 21092 READING 51 0.979292
1414085130657 21092 READING 48 0.985171
1414085130803 21092 READING 51 0.988709
1414085130964 21092 READING 51 0.990794
1414085131110 21092 READING 51 0.990656
1414085131258 21092 READING 48 0.991055
1414085131411 21092 READING 50 0.991852
1414085131510 21091 READING 495 0.991191
1414085131573 21092 READING 50 0.991976
1414085131725 21092 READING 50 0.992130
1414085131880 21092 READING 50 0.991984
1414085132032 21092 READING 50 0.992209
1414085132183 21092 READING 48 0.992266
1414085132327 21092 READING 50 0.992140
1414085132479 21092 READING 50 0.992762
1414085132635 21092 READING 51 0.992802
1414085132791 21092 READING 49 0.992281
1414085132946 21092 READING 51 0.992708
1414085133108 21092 READING 49 0.992654
1414085133263 21092 READING 50 0.992586
1414085133413 21092 READING 49 0.992792
1414085133564 21092 READING 50 0.992609
1414085133714 21092 READING 50 0.992302
1414085133872 21092 READING 51 0.992139
1414085134017 21091 READING 495 0.992289
1414085134048 21092 READING 50 0.993005
1414085134209 21092 READING 51 0.993316
1414085134249 21091 READING 496 0.987329
1414085134386 21092 READING 50 0.993191
1414085134446 21091 READING 497 0.977106
1414085134561 21092 READING 50 0.991968
1414085134734 21092 READING 49 0.990827
1414085134893 21092 READING 50 0.991895
1414085135061 21092 READING 50 0.992319
1414085135230 21092 READING 51 0.992831
1414085135294 21092 FUNCTION lru lambda h: 0.932198 * (h ** 0.0133525)
1414085135294 21091 FUNCTION lru lambda h: 0.0259377 * (h ** 0.595107)
1414085135295 21092 RECOMMEND 38
1414085135295 21091 RECOMMEND 1690
1414085135399 21092 READING 50 0.992209
1414085135581 21092 READING 50 0.991398
1414085135740 21092 READING 50 0.991357
1414085135899 21092 READING 49 0.991926
1414085136049 21092 READING 48 0.991007
1414085136209 21092 READING 48 0.991705
1414085136263 21091 READING 502 0.988003
1414085136362 21092 READING 47 0.991904
1414085136503 21092 READING 47 0.991777
1414085136641 21092 READING 46 0.990236
1414085136774 21092 READING 46 0.989536
1414085136909 21092 READING 45 0.990169
1414085137044 21092 READING 45 0.991009
1414085137181 21092 READING 45 0.990499
1414085137321 21092 READING 45 0.989079
1414085137461 21092 READING 45 0.990857
1414085137590 21092 READING 45 0.990138
1414085137720 21092 READING 45 0.990321
1414085137856 21092 READING 45 0.991245
1414085137990 21092 READING 45 0.989013
1414085138132 21092 READING 45 0.989113
1414085138269 21092 READING 45 0.990703
1414085138404 21092 READING 45 0.989236
1414085138543 21092 READING 45 0.986065
1414085138673 21092 READING 45 0.986778
1414085138816 21092 READING 45 0.989267
1414085138947 21092 READING 45 0.990182
1414085139077 21092 READING 45 0.990036
1414085139210 21092 READING 45 0.990047
1414085139341 21092 READING 45 0.988423
1414085139360 21091 READING 504 0.992439
1414085139488 21092 READING 45 0.989536
1414085139623 21092 READING 45 0.989479
1414085139754 21092 READING 45 0.989561
1414085139898 21092 READING 45 0.988258
1414085140046 21092 READING 45 0.987741
1414085140179 21092 READING 45 0.989177
1414085140311 21092 READING 45 0.990208
1414085140440 21092 READING 45 0.990593
1414085140570 21092 READING 45 0.990629
1414085140700 21092 READING 45 0.990663
1414085140835 21092 READING 45 0.990652
1414085140979 21092 READING 45 0.989504
1414085141113 21092 READING 45 0.990267
1414085141244 21092 READING 45 0.989764
1414085141375 21092 READING 45 0.989898
1414085141505 21092 READING 45 0.990412
1414085141642 21092 READING 45 0.990857
1414085141771 21092 READING 45 0.990434
1414085141906 21092 READING 45 0.990249
1414085142038 21092 READING 45 0.990170
1414085142167 21092 READING 45 0.987670
1414085142298 21092 READING 45 0.989529
1414085142363 21091 READING 506 0.992709
1414085142451 21092 READING 45 0.990398
1414085142581 21092 READING 45 0.989832
1414085142713 21092 READING 45 0.989878
1414085142850 21092 READING 45 0.989274
1414085142984 21092 READING 45 0.989395
1414085143119 21092 READING 45 0.987772
1414085143261 21092 READING 45 0.989409
1414085143390 21092 READING 45 0.989601
1414085143520 21092 READING 45 0.990381
1414085143653 21092 READING 45 0.990361
1414085143796 21092 READING 45 0.988584
1414085143940 21092 READING 45 0.987944
1414085144076 21092 READING 45 0.989563
1414085144205 21092 READING 45 0.990245
1414085144347 21092 READING 45 0.990209
1414085144482 21092 READING 45 0.990524
1414085144623 21092 READING 45 0.991138
1414085144753 21092 READING 45 0.991234
1414085144885 21092 READING 45 0.989558
1414085145019 21092 READING 45 0.988345
1414085145148 21092 READING 45 0.989463
1414085145285 21092 READING 45 0.988093
1414085145295 21092 FUNCTION lru lambda h: 0.93492 * (h ** 0.0127589)
1414085145295 21091 FUNCTION lru lambda h: 0.0247558 * (h ** 0.602528)
1414085145297 21092 RECOMMEND 36
1414085145297 21091 RECOMMEND 1692
1414085145423 21092 READING 45 0.989726
1414085145550 21092 READING 45 0.989307
1414085145680 21092 READING 45 0.990054
1414085145723 21091 READING 508 0.993266
1414085145823 21092 READING 45 0.990947
1414085145952 21092 READING 45 0.990613
1414085146087 21092 READING 45 0.990644
1414085146220 21092 READING 45 0.990248
1414085146349 21092 READING 45 0.987902
1414085146486 21092 READING 45 0.989520
1414085146616 21092 READING 45 0.989874
1414085146654 21092 READING 45 0.965093
1414085146701 21092 READING 45 0.941044
1414085146749 21092 READING 45 0.947220
1414085146790 21092 READING 45 0.951422
1414085146828 21092 READING 45 0.953805
1414085146863 21092 READING 45 0.954763
1414085146913 21092 READING 46 0.959409
1414085146975 21092 READING 46 0.951402
1414085147024 21092 READING 46 0.932395
1414085147067 21092 READING 46 0.932631
1414085147124 21092 READING 46 0.942212
1414085147161 21092 READING 46 0.935201
1414085147196 21092 READING 46 0.931487
1414085147247 21092 READING 46 0.939661
1414085147286 21092 READING 46 0.945864
1414085147329 21092 READING 46 0.951859
1414085147369 21092 READING 46 0.950153
1414085147415 21092 READING 45 0.953194
1414085147544 21092 READING 46 0.978347
1414085147678 21092 READING 46 0.983467
1414085147812 21092 READING 46 0.987547
1414085147942 21092 READING 46 0.989144
1414085148069 21092 READING 46 0.990207
1414085148199 21092 READING 46 0.990542
1414085148325 21092 READING 46 0.990862
1414085148455 21092 READING 46 0.989178
1414085148586 21092 READING 46 0.989245
1414085148712 21091 READING 505 0.992846
1414085148732 21092 READING 46 0.990612
1414085148861 21092 READING 46 0.990947
1414085148987 21092 READING 46 0.990673
1414085149115 21092 READING 45 0.990691
1414085149239 21092 READING 45 0.990779
1414085149369 21092 READING 45 0.991092
1414085149500 21092 READING 45 0.990702
1414085149625 21092 READING 45 0.989534
1414085149751 21092 READING 45 0.989482
1414085149878 21092 READING 45 0.989137
1414085150007 21092 READING 45 0.989612
1414085150142 21092 READING 45 0.990294
1414085150273 21092 READING 45 0.990814
1414085150399 21092 READING 45 0.990133
1414085150532 21092 READING 45 0.990441
1414085150663 21092 READING 45 0.989934
1414085150804 21092 READING 45 0.988187
1414085150940 21092 READING 45 0.989651
1414085151076 21092 READING 45 0.988904
1414085151206 21092 READING 45 0.989841
1414085151328 21092 READING 45 0.990024
1414085151454 21092 READING 45 0.989918
1414085151587 21092 READING 45 0.990575
1414085151654 21091 READING 508 0.991960
1414085151732 21092 READING 45 0.989868
1414085151865 21092 READING 45 0.990425
1414085151993 21092 READING 45 0.990436
1414085152118 21092 READING 45 0.990408
1414085152245 21092 READING 45 0.990725
1414085152375 21092 READING 45 0.988979
1414085152515 21092 READING 45 0.990282
1414085152643 21092 READING 45 0.990299
1414085152768 21092 READING 45 0.988790
1414085152895 21092 READING 45 0.989704
1414085153024 21092 READING 45 0.987584
1414085153151 21092 READING 45 0.988618
1414085153278 21092 READING 45 0.988307
1414085153405 21092 READING 45 0.989088
1414085153540 21092 READING 45 0.989750
1414085153666 21092 READING 45 0.990266
1414085153791 21092 READING 45 0.990344
1414085153915 21092 READING 45 0.990358
1414085154042 21092 READING 45 0.990620
1414085154166 21092 READING 45 0.990259
1414085154292 21092 READING 45 0.990162
1414085154343 21091 READING 510 0.991183
1414085154430 21092 READING 45 0.991138
1414085154558 21092 READING 45 0.991371
1414085154682 21092 READING 45 0.991549
1414085154807 21092 READING 45 0.991219
1414085154938 21092 READING 45 0.991696
1414085155063 21092 READING 45 0.991033
1414085155188 21092 READING 45 0.990701
1414085155297 21092 FUNCTION lru lambda h: 0.935214 * (h ** 0.0126947)
1414085155297 21091 FUNCTION lru lambda h: 0.0220308 * (h ** 0.621573)
1414085155297 21092 RECOMMEND 35
1414085155297 21091 RECOMMEND 1693
1414085155312 21092 READING 45 0.990751
1414085155440 21092 READING 45 0.990536
1414085155561 21092 READING 45 0.990742
1414085155694 21092 READING 45 0.990937
1414085155817 21092 READING 45 0.991060
1414085155941 21092 READING 45 0.990508
1414085156066 21092 READING 45 0.990381
1414085156192 21092 READING 45 0.990552
1414085156314 21092 READING 45 0.990833
1414085156439 21092 READING 45 0.991008
1414085156562 21092 READING 45 0.990827
1414085156687 21092 READING 45 0.991045
1414085156770 21091 READING 510 0.992394
1414085156825 21092 READING 45 0.991382
1414085156948 21092 READING 45 0.991210
1414085157007 21091 READING 512 0.987649
1414085157085 21092 READING 45 0.991690
1414085157223 21092 READING 45 0.991974
1414085157346 21092 READING 45 0.991160
1414085157436 21091 READING 513 0.985695
1414085157475 21092 READING 45 0.991132
1414085157609 21092 READING 45 0.990979
1414085157735 21092 READING 45 0.988898
1414085157862 21092 READING 45 0.989373
1414085157992 21092 READING 45 0.988446
1414085158124 21092 READING 45 0.989676
1414085158249 21092 READING 45 0.989519
1414085158380 21092 READING 45 0.990205
1414085158509 21092 READING 45 0.991048
1414085158635 21092 READING 45 0.991429
1414085158761 21092 READING 45 0.990095
1414085158888 21092 READING 45 0.990243
1414085159014 21092 READING 45 0.990207
1414085159144 21092 READING 45 0.990451
1414085159272 21092 READING 45 0.990685
1414085159410 21092 READING 45 0.988202
1414085159549 21092 READING 45 0.986650
1414085159686 21092 READING 45 0.989147
1414085159733 21091 READING 531 0.991031
1414085159839 21092 READING 45 0.988568
1414085159974 21092 READING 45 0.989495
1414085160101 21092 READING 45 0.988889
1414085160225 21092 READING 45 0.989774
1414085160354 21092 READING 45 0.988479
1414085160483 21092 READING 45 0.989733
1414085160608 21092 READING 45 0.990196
1414085160734 21092 READING 45 0.990132
1414085160862 21092 READING 45 0.990459
1414085160987 21092 READING 45 0.990353
1414085161116 21092 READING 45 0.990577
1414085161242 21092 READING 45 0.990459
1414085161371 21092 READING 45 0.987900
1414085161502 21092 READING 45 0.987217
1414085161629 21092 READING 45 0.988955
1414085161762 21092 READING 45 0.989037
1414085161888 21092 READING 45 0.989774
1414085162014 21092 READING 45 0.989971
1414085162139 21092 READING 45 0.990105
1414085162265 21092 READING 45 0.989833
1414085162407 21092 READING 45 0.988634
1414085162545 21092 READING 45 0.990031
1414085162679 21092 READING 45 0.989479
1414085162743 21091 READING 532 0.994623
1414085162817 21092 READING 45 0.990788
1414085162943 21092 READING 45 0.990415
1414085163084 21092 READING 45 0.989318
1414085163219 21092 READING 45 0.988172
1414085163354 21092 READING 45 0.989831
1414085163481 21092 READING 45 0.988707
1414085163613 21092 READING 45 0.986201
1414085163748 21092 READING 45 0.987381
1414085163881 21092 READING 45 0.989561
1414085163951 21092 READING 45 0.974534
1414085163989 21092 READING 45 0.947032
1414085164040 21092 READING 45 0.940088
1414085164094 21092 READING 45 0.903931
1414085164134 21092 READING 45 0.905005
1414085164169 21092 READING 45 0.902613
1414085164208 21092 READING 45 0.923080
1414085164251 21092 READING 45 0.933481
1414085164304 21092 READING 46 0.917798
1414085164340 21092 READING 45 0.866103
1414085164379 21092 READING 46 0.882357
1414085164418 21092 READING 45 0.903431
1414085164453 21092 READING 45 0.904804
1414085164490 21092 READING 45 0.920184
1414085164531 21092 READING 45 0.928869
1414085164566 21092 READING 45 0.934117
1414085164599 21092 READING 43 0.939363
1414085164638 21092 READING 45 0.947350
1414085164681 21092 READING 45 0.951828
1414085164739 21092 READING 45 0.960309
1414085164860 21092 READING 45 0.978604
1414085164981 21092 READING 45 0.982222
1414085165107 21092 READING 45 0.986129
1414085165221 21092 READING 44 0.987240
1414085165298 21092 FUNCTION lru lambda h: 0.928318 * (h ** 0.0141998)
1414085165298 21091 FUNCTION lru lambda h: 0.0440302 * (h ** 0.506008)
1414085165298 21092 RECOMMEND 47
1414085165298 21091 RECOMMEND 1681
1414085165332 21092 READING 44 0.987349
1414085165452 21092 READING 44 0.988472
1414085165567 21092 READING 44 0.988125
1414085165689 21092 READING 46 0.989015
1414085165814 21092 READING 46 0.989751
1414085165953 21092 READING 47 0.990499
1414085166044 21091 READING 540 0.995181
1414085166104 21092 READING 46 0.988953
1414085166236 21092 READING 47 0.990114
1414085166374 21092 READING 47 0.989398
1414085166524 21092 READING 48 0.990078
1414085166688 21092 READING 48 0.990295
1414085166836 21092 READING 48 0.991186
1414085166977 21092 READING 48 0.990167
1414085167123 21092 READING 47 0.990654
1414085167267 21092 READING 48 0.990545
1414085167405 21092 READING 48 0.991404
1414085167552 21092 READING 48 0.992065
1414085167696 21092 READING 48 0.990986
1414085167845 21092 READING 48 0.991720
1414085167989 21092 READING 48 0.991730
1414085168134 21092 READING 48 0.991257
1414085168294 21092 READING 48 0.991265
1414085168452 21092 READING 48 0.988970
1414085168601 21092 READING 48 0.990495
1414085168747 21092 READING 48 0.990835
1414085168897 21092 READING 47 0.989332
1414085169052 21092 READING 47 0.990693
1414085169196 21092 READING 47 0.991339
1414085169358 21092 READING 47 0.991700
1414085169501 21091 READING 541 0.994606
1414085169515 21092 READING 47 0.992157
1414085169658 21092 READING 47 0.991975
1414085169803 21092 READING 47 0.992027
1414085169945 21092 READING 47 0.990032
1414085170098 21092 READING 47 0.989896
1414085170245 21092 READING 47 0.990977
1414085170387 21092 READING 47 0.990939
1414085170527 21092 READING 47 0.990600
1414085170671 21092 READING 47 0.991047
1414085170819 21092 READING 47 0.991185
1414085170982 21092 READING 47 0.989581
1414085171132 21092 READING 47 0.991001
1414085171279 21092 READING 47 0.991624
1414085171426 21092 READING 47 0.991755
1414085171577 21092 READING 47 0.991020
1414085171730 21092 READING 47 0.991405
1414085171876 21092 READING 47 0.991193
1414085172018 21092 READING 47 0.991417
1414085172163 21092 READING 47 0.991766
1414085172308 21092 READING 47 0.992035
1414085172452 21092 READING 47 0.991304
1414085172598 21092 READING 47 0.990609
1414085172738 21092 READING 47 0.991123
1414085172767 21091 READING 539 0.993995
1414085172902 21092 READING 47 0.991863
1414085173050 21092 READING 47 0.992297
1414085173193 21092 READING 47 0.992021
1414085173334 21092 READING 47 0.991324
1414085173486 21092 READING 47 0.991707
1414085173631 21092 READING 47 0.992113
1414085173772 21092 READING 47 0.991571
1414085173915 21092 READING 47 0.990419
1414085174062 21092 READING 47 0.988623
1414085174207 21092 READING 47 0.989972
1414085174353 21092 READING 47 0.989326
1414085174495 21092 READING 47 0.990510
1414085174642 21092 READING 47 0.990986
1414085174786 21092 READING 47 0.990515
1414085174944 21092 READING 47 0.991056
1414085175089 21092 READING 47 0.991614
1414085175229 21092 READING 47 0.991678
1414085175299 21092 FUNCTION lru lambda h: 0.934456 * (h ** 0.0128575)
1414085175299 21091 FUNCTION lru lambda h: 0.0629881 * (h ** 0.446322)
1414085175299 21092 RECOMMEND 48
1414085175299 21091 RECOMMEND 1680
1414085175386 21092 READING 47 0.991757
1414085175535 21092 READING 48 0.989479
1414085175689 21092 READING 49 0.991041
1414085175832 21091 READING 542 0.992084
1414085175853 21092 READING 48 0.990604
1414085176002 21092 READING 48 0.991257
1414085176150 21092 READING 49 0.991529
1414085176300 21092 READING 48 0.991795
1414085176446 21092 READING 48 0.990387
1414085176603 21092 READING 49 0.990817
1414085176773 21092 READING 49 0.991955
1414085176925 21092 READING 48 0.991978
1414085177072 21092 READING 48 0.991751
1414085177223 21092 READING 49 0.991503
1414085177375 21092 READING 49 0.991707
1414085177522 21092 READING 48 0.991884
1414085177667 21092 READING 48 0.991684
1414085177822 21092 READING 49 0.991979
1414085177971 21092 READING 49 0.992079
1414085178119 21092 READING 48 0.992533
1414085178261 21092 READING 48 0.992359
1414085178416 21092 READING 49 0.992629
1414085178567 21092 READING 49 0.992601
1414085178711 21092 READING 48 0.991819
1414085178857 21092 READING 48 0.991634
1414085179008 21092 READING 49 0.991718
1414085179160 21092 READING 49 0.992048
1414085179310 21091 READING 543 0.992781
1414085179324 21092 READING 48 0.992391
1414085179464 21092 READING 48 0.992498
1414085179621 21092 READING 49 0.992273
1414085179663 21091 READING 543 0.987239
1414085179788 21092 READING 49 0.992743
1414085179886 21091 READING 538 0.976477
1414085179958 21092 READING 48 0.993158
1414085180108 21092 READING 48 0.990892
1414085180271 21092 READING 49 0.991137
1414085180420 21092 READING 49 0.990999
1414085180578 21092 READING 48 0.991799
1414085180728 21092 READING 48 0.991935
1414085180883 21092 READING 49 0.989958
1414085181045 21092 READING 49 0.990968
1414085181158 21092 READING 48 0.976780
1414085181276 21092 READING 48 0.990250
1414085181338 21092 READING 47 0.966930
1414085181395 21092 READING 48 0.966339
1414085181449 21092 READING 50 0.952841
1414085181513 21092 READING 50 0.953560
1414085181567 21092 READING 49 0.954195
1414085181581 21091 READING 544 0.979645
1414085181630 21092 READING 49 0.964219
1414085181675 21092 READING 48 0.963438
1414085181741 21092 READING 48 0.939690
1414085181792 21092 READING 49 0.937332
1414085181850 21092 READING 49 0.940951
1414085181900 21092 READING 49 0.942452
1414085181965 21092 READING 49 0.949556
1414085182012 21092 READING 49 0.948173
1414085182110 21092 READING 47 0.968195
1414085182262 21092 READING 48 0.982131
1414085182411 21092 READING 48 0.987741
1414085182573 21092 READING 48 0.990144
1414085182722 21092 READING 48 0.991519
1414085182871 21092 READING 48 0.992171
1414085183037 21092 READING 48 0.991938
1414085183183 21092 READING 48 0.991981
1414085183327 21092 READING 48 0.992090
1414085183482 21092 READING 48 0.992484
1414085183638 21092 READING 48 0.990371
1414085183793 21092 READING 47 0.991398
1414085183948 21092 READING 48 0.992143
1414085184114 21092 READING 49 0.991926
1414085184274 21092 READING 48 0.992169
1414085184429 21092 READING 49 0.992320
1414085184589 21092 READING 47 0.992576
1414085184742 21092 READING 48 0.992836
1414085184890 21092 READING 47 0.991689
1414085185053 21092 READING 48 0.992065
1414085185203 21092 READING 47 0.991872
1414085185300 21092 FUNCTION lru lambda h: 0.931249 * (h ** 0.013545)
1414085185300 21091 FUNCTION lru lambda h: 0.0478278 * (h ** 0.490845)
1414085185300 21092 RECOMMEND 46
1414085185300 21091 RECOMMEND 1682
1414085185360 21091 READING 551 0.990413
1414085185368 21092 READING 47 0.992595
1414085185525 21092 READING 46 0.990383
1414085185688 21092 READING 47 0.991264
1414085185833 21092 READING 47 0.991525
1414085185979 21092 READING 47 0.990487
1414085186124 21092 READING 47 0.991317
1414085186283 21092 READING 47 0.990078
1414085186428 21092 READING 47 0.991113
1414085186580 21092 READING 47 0.989425
1414085186738 21092 READING 47 0.990246
1414085186885 21092 READING 46 0.989721
1414085187031 21092 READING 46 0.991017
1414085187176 21092 READING 46 0.991819
1414085187330 21092 READING 46 0.990073
1414085187477 21092 READING 46 0.991253
1414085187626 21092 READING 46 0.991409
1414085187774 21092 READING 46 0.991511
1414085187929 21092 READING 46 0.990712
1414085188077 21092 READING 46 0.990947
1414085188221 21092 READING 46 0.991452
1414085188369 21092 READING 46 0.991748
1414085188530 21092 READING 46 0.991798
1414085188675 21092 READING 46 0.991339
1414085188828 21092 READING 46 0.992119
1414085188972 21092 READING 46 0.992013
1414085189131 21092 READING 46 0.992437
1414085189199 21091 READING 555 0.992087
1414085189287 21092 READING 46 0.992708
1414085189434 21092 READING 46 0.992641
1414085189582 21092 READING 46 0.992674
1414085189721 21092 READING 46 0.991704
1414085189867 21092 READING 46 0.992016
1414085190014 21092 READING 46 0.991097
1414085190156 21092 READING 46 0.989807
1414085190297 21092 READING 46 0.990791
1414085190453 21092 READING 46 0.991460
1414085190597 21092 READING 46 0.990063
1414085190747 21092 READING 46 0.990682
1414085190892 21092 READING 46 0.991041
1414085191047 21092 READING 46 0.989729
1414085191200 21092 READING 46 0.990546
1414085191341 21092 READING 46 0.990768
1414085191489 21092 READING 46 0.991450
1414085191640 21092 READING 46 0.991149
1414085191790 21092 READING 46 0.989936
1414085191931 21092 READING 46 0.990701
1414085192080 21092 READING 46 0.989919
1414085192224 21092 READING 46 0.989112
1414085192373 21092 READING 46 0.988707
1414085192496 21091 READING 556 0.992031
1414085192539 21092 READING 46 0.991423
1414085192697 21092 READING 46 0.991596
1414085192842 21092 READING 46 0.991432
1414085192984 21092 READING 46 0.991156
1414085193133 21092 READING 46 0.991792
1414085193280 21092 READING 46 0.990383
1414085193425 21092 READING 46 0.991388
1414085193571 21092 READING 46 0.991683
1414085193713 21092 READING 46 0.991566
1414085193856 21092 READING 46 0.991880
1414085194002 21092 READING 46 0.992059
1414085194147 21092 READING 46 0.991748
1414085194295 21092 READING 46 0.989511
1414085194450 21092 READING 46 0.991237
1414085194602 21092 READING 46 0.989632
1414085194757 21092 READING 46 0.991193
1414085194898 21092 READING 46 0.991736
1414085195044 21092 READING 46 0.990210
1414085195198 21092 READING 46 0.991468
1414085195300 21092 FUNCTION lru lambda h: 0.932226 * (h ** 0.0133314)
1414085195301 21091 FUNCTION lru lambda h: 0.0480607 * (h ** 0.489532)
1414085195301 21092 RECOMMEND 46
1414085195301 21091 RECOMMEND 1682
1414085195349 21092 READING 46 0.992020
1414085195490 21092 READING 46 0.992123
1414085195636 21092 READING 46 0.989941
1414085195791 21092 READING 46 0.990941
1414085195947 21092 READING 46 0.991389
1414085196037 21091 READING 558 0.991353
1414085196112 21092 READING 46 0.991290
1414085196255 21092 READING 46 0.990097
1414085196404 21092 READING 46 0.991045
1414085196545 21092 READING 46 0.991475
1414085196692 21092 READING 46 0.991349
1414085196837 21092 READING 46 0.991696
1414085196978 21092 READING 46 0.991830
1414085197140 21092 READING 46 0.990084
1414085197295 21092 READING 46 0.991474
1414085197444 21092 READING 46 0.988513
1414085197586 21092 READING 46 0.990076
1414085197731 21092 READING 46 0.991295
1414085197875 21092 READING 46 0.991424
1414085198018 21092 READING 46 0.991427
1414085198170 21092 READING 46 0.991077
1414085198316 21092 READING 46 0.991799
1414085198468 21092 READING 46 0.992323
1414085198617 21092 READING 46 0.992181
1414085198792 21092 READING 46 0.992141
1414085198834 21092 READING 46 0.967314
1414085198884 21092 READING 46 0.953853
1414085198929 21092 READING 47 0.954721
1414085198975 21092 READING 47 0.953913
1414085199023 21092 READING 47 0.952706
1414085199076 21092 READING 48 0.956769
1414085199140 21092 READING 48 0.956412
1414085199194 21092 READING 48 0.950833
1414085199246 21092 READING 48 0.935021
1414085199296 21092 READING 48 0.937719
1414085199339 21092 READING 48 0.936024
1414085199390 21092 READING 48 0.937744
1414085199440 21092 READING 48 0.922507
1414085199460 21091 READING 561 0.988703
1414085199496 21092 READING 48 0.936914
1414085199542 21092 READING 48 0.944574
1414085199606 21092 READING 48 0.955702
1414085199759 21092 READING 48 0.979593
1414085199907 21092 READING 48 0.986505
1414085200052 21092 READING 46 0.988362
1414085200209 21092 READING 48 0.990597
1414085200353 21092 READING 48 0.990999
1414085200500 21092 READING 48 0.991728
1414085200637 21092 READING 48 0.991757
1414085200787 21092 READING 48 0.991179
1414085200929 21092 READING 48 0.991647
1414085201067 21092 READING 48 0.991836
1414085201208 21092 READING 48 0.992184
1414085201350 21092 READING 47 0.992293
1414085201490 21092 READING 47 0.991934
1414085201626 21092 READING 47 0.991996
1414085201769 21092 READING 47 0.992592
1414085201911 21092 READING 47 0.992527
1414085202051 21092 READING 47 0.992474
1414085202190 21092 READING 47 0.992623
1414085202329 21092 READING 47 0.992476
1414085202469 21092 READING 46 0.991958
1414085202612 21092 READING 47 0.991748
1414085202757 21092 READING 47 0.991612
1414085202809 21091 READING 563 0.991448
1414085202916 21092 READING 47 0.992787
1414085203054 21092 READING 47 0.992730
1414085203132 21091 READING 565 0.986777
1414085203214 21092 READING 47 0.993214
1414085203367 21092 READING 47 0.989420
1414085203375 21091 READING 567 0.977065
1414085203517 21092 READING 47 0.991091
1414085203661 21092 READING 47 0.991163
1414085203811 21092 READING 47 0.989796
1414085203966 21092 READING 47 0.988360
1414085204109 21092 READING 47 0.990136
1414085204247 21092 READING 46 0.990722
1414085204406 21092 READING 46 0.989868
1414085204552 21092 READING 46 0.991144
1414085204691 21092 READING 46 0.991361
1414085204840 21092 READING 46 0.990946
1414085204985 21092 READING 46 0.991471
1414085205129 21092 READING 46 0.991388
1414085205267 21092 READING 46 0.991370
1414085205301 21092 FUNCTION lru lambda h: 0.932177 * (h ** 0.0133421)
1414085205301 21091 FUNCTION lru lambda h: 0.0747954 * (h ** 0.41662)
1414085205302 21092 RECOMMEND 54
1414085205302 21091 RECOMMEND 1674
1414085205418 21092 READING 46 0.989325
1414085205585 21092 READING 47 0.988890
1414085205744 21092 READING 48 0.989726
1414085205908 21092 READING 48 0.991475
1414085206096 21092 READING 50 0.992201
1414085206265 21092 READING 50 0.991888
1414085206462 21092 READING 52 0.991095
1414085206503 21091 READING 575 0.988148
1414085206662 21092 READING 52 0.990376
1414085206876 21092 READING 54 0.991224
1414085207075 21092 READING 54 0.992030
1414085207280 21092 READING 54 0.991924
1414085207477 21092 READING 54 0.992153
1414085207681 21092 READING 54 0.993151
1414085207886 21092 READING 54 0.993628
1414085208083 21092 READING 54 0.993477
1414085208287 21092 READING 54 0.992341
1414085208510 21092 READING 54 0.992686
1414085208700 21092 READING 54 0.993501
1414085208909 21092 READING 54 0.993574
1414085209107 21092 READING 54 0.992757
1414085209305 21092 READING 54 0.993633
1414085209501 21092 READING 54 0.992754
1414085209705 21092 READING 54 0.993339
1414085209897 21092 READING 54 0.992694
1414085210074 21091 READING 576 0.991879
1414085210110 21092 READING 54 0.993039
1414085210305 21092 READING 54 0.992868
1414085210509 21092 READING 54 0.993395
1414085210718 21092 READING 54 0.993910
1414085210923 21092 READING 54 0.993772
1414085211124 21092 READING 54 0.992747
1414085211335 21092 READING 54 0.993766
1414085211525 21092 READING 54 0.993543
1414085211723 21092 READING 54 0.993864
1414085211922 21092 READING 54 0.993653
1414085212118 21092 READING 54 0.993745
1414085212316 21092 READING 54 0.992973
1414085212518 21092 READING 54 0.993389
1414085212711 21092 READING 54 0.993887
1414085212909 21092 READING 54 0.993964
1414085213104 21092 READING 54 0.993906
1414085213299 21092 READING 54 0.992762
1414085213490 21092 READING 54 0.993576
1414085213661 21091 READING 578 0.992886
1414085213709 21092 READING 54 0.994352
1414085213918 21092 READING 54 0.994270
1414085214122 21092 READING 54 0.994370
1414085214316 21092 READING 54 0.994193
1414085214529 21092 READING 54 0.993785
1414085214730 21092 READING 54 0.993921
1414085214926 21092 READING 54 0.992045
1414085215142 21092 READING 54 0.991597
1414085215302 21092 FUNCTION lru lambda h: 0.940293 * (h ** 0.0116369)
1414085215302 21091 FUNCTION lru lambda h: 0.112528 * (h ** 0.349801)
1414085215303 21092 RECOMMEND 56
1414085215303 21091 RECOMMEND 1672
1414085215345 21092 READING 54 0.992669
1414085215546 21092 READING 54 0.992685
1414085215755 21092 READING 56 0.993389
1414085215966 21092 READING 56 0.992307
1414085216087 21092 READING 56 0.983368
1414085216151 21092 READING 56 0.961818
1414085216224 21092 READING 56 0.959641
1414085216287 21092 READING 56 0.963956
1414085216368 21092 READING 56 0.957074
1414085216442 21092 READING 56 0.904390
1414085216518 21092 READING 58 0.929774
1414085216585 21092 READING 60 0.945538
1414085216655 21092 READING 59 0.950393
1414085216725 21092 READING 58 0.955293
1414085216801 21092 READING 58 0.958736
1414085217011 21092 READING 57 0.970102
1414085217219 21092 READING 57 0.979129
1414085217323 21091 READING 581 0.993091
1414085217442 21092 READING 55 0.984635
1414085217643 21092 READING 57 0.988493
1414085217842 21092 READING 54 0.990858
1414085218055 21092 READING 57 0.990570
1414085218262 21092 READING 54 0.992108
1414085218469 21092 READING 56 0.993045
1414085218664 21092 READING 54 0.993565
1414085218862 21092 READING 56 0.993522
1414085219076 21092 READING 56 0.993543
1414085219282 21092 READING 57 0.993864
1414085219490 21092 READING 55 0.994040
1414085219702 21092 READING 57 0.994325
1414085219909 21092 READING 55 0.994251
1414085220114 21092 READING 56 0.992264
1414085220312 21092 READING 54 0.992970
1414085220512 21092 READING 56 0.992434
1414085220729 21092 READING 54 0.993573
1414085220940 21092 READING 55 0.993653
1414085221068 21091 READING 579 0.993201
1414085221160 21092 READING 55 0.993356
1414085221367 21092 READING 57 0.993670
1414085221576 21092 READING 56 0.993959
1414085221783 21092 READING 57 0.993820
1414085221993 21092 READING 56 0.993123
1414085222203 21092 READING 56 0.993737
1414085222408 21092 READING 55 0.993098
1414085222623 21092 READING 56 0.993746
1414085222827 21092 READING 56 0.993205
1414085223060 21092 READING 58 0.992378
1414085223276 21092 READING 57 0.992913
1414085223486 21092 READING 56 0.993256
1414085223693 21092 READING 56 0.993707
1414085223891 21092 READING 55 0.993610
1414085224098 21092 READING 56 0.994000
1414085224297 21092 READING 55 0.994318
1414085224508 21092 READING 57 0.994668
1414085224718 21092 READING 57 0.994538
1414085224780 21091 READING 582 0.994291
1414085224943 21092 READING 56 0.994448
1414085225140 21092 READING 56 0.994179
1414085225303 21092 FUNCTION lru lambda h: 0.936895 * (h ** 0.0123105)
1414085225303 21091 FUNCTION lru lambda h: 0.121548 * (h ** 0.336962)
1414085225304 21092 RECOMMEND 61
1414085225304 21091 RECOMMEND 1667
1414085225362 21092 READING 58 0.994405
1414085225575 21092 READING 58 0.994602
1414085225640 21091 READING 581 0.991433
1414085225809 21092 READING 58 0.994835
1414085225892 21091 READING 583 0.984054
1414085226055 21092 READING 60 0.995076
1414085226300 21092 READING 60 0.994294
1414085226557 21092 READING 62 0.994683
1414085226812 21092 READING 61 0.994463
1414085227064 21092 READING 62 0.994522
1414085227309 21092 READING 61 0.994684
1414085227571 21092 READING 62 0.995019
1414085227826 21092 READING 61 0.994987
1414085228075 21092 READING 62 0.994903
1414085228315 21092 READING 61 0.994456
1414085228567 21092 READING 62 0.994625
1414085228806 21092 READING 61 0.992474
1414085228871 21091 READING 587 0.991531
1414085229080 21092 READING 62 0.993950
1414085229333 21092 READING 61 0.994497
1414085229581 21092 READING 62 0.994778
1414085229829 21092 READING 61 0.994768
1414085230084 21092 READING 62 0.995103
1414085230330 21092 READING 61 0.994891
1414085230579 21092 READING 62 0.995139
1414085230830 21092 READING 61 0.994982
1414085231083 21092 READING 62 0.995003
1414085231327 21092 READING 61 0.995049
1414085231571 21092 READING 62 0.994973
1414085231814 21092 READING 61 0.994962
1414085232071 21092 READING 62 0.994149
1414085232333 21092 READING 61 0.993895
1414085232581 21092 READING 62 0.994334
1414085232673 21091 READING 588 0.993409
1414085232838 21092 READING 61 0.994799
1414085233094 21092 READING 62 0.994814
1414085235157 21092 DEATH 1023
1414085235304 21091 FUNCTION lru lambda h: 0.189239 * (h ** 0.265246)
1414085235304 21091 RECOMMEND 1728
1414085236391 21091 READING 590 0.994022
1414085239783 21091 READING 592 0.993705
1414085243178 21091 READING 590 0.993051
1414085245304 21091 FUNCTION lru lambda h: 0.394602 * (h ** 0.146906)
1414085245305 21091 RECOMMEND 1728
1414085246240 21091 READING 592 0.993887
1414085246555 21091 READING 592 0.990011
1414085247007 21091 READING 594 0.986927
1414085250833 21091 READING 601 0.993395
1414085254374 21091 READING 601 0.994034
1414085255305 21091 FUNCTION lru lambda h: 0.625147 * (h ** 0.0729489)
1414085255305 21091 RECOMMEND 1728
1414085257870 21091 READING 602 0.993785
1414085261441 21091 READING 604 0.993321
1414085265305 21091 FUNCTION lru lambda h: 0.61132 * (h ** 0.076512)
1414085265305 21091 RECOMMEND 1728
1414085265356 21091 READING 604 0.992799
1414085266529 21091 READING 605 0.990370
1414085266785 21091 READING 611 0.985621
1414085266843 21091 DEATH 213
