MemTotal:       16318588 kB
MemFree:        13300644 kB
Buffers:          661044 kB
Cached:          1192268 kB
SwapCached:            0 kB
Active:          1719144 kB
Inactive:         785788 kB
Active(anon):     652064 kB
Inactive(anon):      748 kB
Active(file):    1067080 kB
Inactive(file):   785040 kB
Unevictable:           0 kB
Mlocked:               0 kB
SwapTotal:      16728060 kB
SwapFree:       16728060 kB
Dirty:                40 kB
Writeback:             0 kB
AnonPages:        651260 kB
Mapped:            17324 kB
Shmem:              1552 kB
Slab:             386152 kB
SReclaimable:     366168 kB
SUnreclaim:        19984 kB
KernelStack:        1680 kB
PageTables:         4060 kB
NFS_Unstable:          0 kB
Bounce:                0 kB
WritebackTmp:          0 kB
CommitLimit:    24887352 kB
Committed_AS:     841212 kB
VmallocTotal:   34359738367 kB
VmallocUsed:      370636 kB
VmallocChunk:   34359363072 kB
HardwareCorrupted:     0 kB
AnonHugePages:    694272 kB
HugePages_Total:       0
HugePages_Free:        0
HugePages_Rsvd:        0
HugePages_Surp:        0
Hugepagesize:       2048 kB
DirectMap4k:       70592 kB
DirectMap2M:    16590848 kB
