MemTotal:       16318588 kB
MemFree:        12875304 kB
Buffers:          643128 kB
Cached:          1903972 kB
SwapCached:            0 kB
Active:          1880240 kB
Inactive:        1153588 kB
Active(anon):     487120 kB
Inactive(anon):      748 kB
Active(file):    1393120 kB
Inactive(file):  1152840 kB
Unevictable:           0 kB
Mlocked:               0 kB
SwapTotal:      16728060 kB
SwapFree:       16728060 kB
Dirty:                72 kB
Writeback:             0 kB
AnonPages:        486300 kB
Mapped:            17172 kB
Shmem:              1552 kB
Slab:             281708 kB
SReclaimable:     263632 kB
SUnreclaim:        18076 kB
KernelStack:        1696 kB
PageTables:         3948 kB
NFS_Unstable:          0 kB
Bounce:                0 kB
WritebackTmp:          0 kB
CommitLimit:    24887352 kB
Committed_AS:     639788 kB
VmallocTotal:   34359738367 kB
VmallocUsed:      370636 kB
VmallocChunk:   34359363072 kB
HardwareCorrupted:     0 kB
AnonHugePages:    514048 kB
HugePages_Total:       0
HugePages_Free:        0
HugePages_Rsvd:        0
HugePages_Surp:        0
Hugepagesize:       2048 kB
DirectMap4k:       68544 kB
DirectMap2M:    16592896 kB
