             total       used       free     shared    buffers     cached
Mem:       3806920    3105244     701676          0     376308    1988812
-/+ buffers/cache:     740124    3066796
Swap:      6143992       1256    6142736
