economemd
    total memory: 1000 MB
    timer interval: 10 s
    timer start state: running
    utility model: root

    caches:
        lru

    force utility function validity: yes
    make recommendations: no
    equal recommendations: no

    reading receiver name: simple
    command receiver name: simple

    dump file: economemd.dump.log
    log file: /home/callum/economics_memory_code/dynamic_sizing/data/output/gcFactor_2014_09_24_12_05_40/daemon_log_47.txt
    log readings: yes
    log functions: yes

PyOptimiser: initialising...
PyOptimiser: initialised
ReadingThread: starting
TimerThread: starting
CommandThread: starting
Reading from 14734: heap size 9 MB, throughput 0.990732
Clients: 1
Reading from 14734: heap size 9 MB, throughput 0.977329
Reading from 14734: heap size 9 MB, throughput 0.949503
Reading from 14734: heap size 9 MB, throughput 0.952647
Reading from 14734: heap size 11 MB, throughput 0.746473
Reading from 14734: heap size 11 MB, throughput 0.366276
Reading from 14734: heap size 16 MB, throughput 0.648762
Reading from 14734: heap size 16 MB, throughput 0.669752
Reading from 14734: heap size 24 MB, throughput 0.883885
Reading from 14734: heap size 24 MB, throughput 0.846217
Reading from 14734: heap size 34 MB, throughput 0.931189
Reading from 14734: heap size 34 MB, throughput 0.891387
Reading from 14734: heap size 50 MB, throughput 0.882803
Reading from 14734: heap size 50 MB, throughput 0.897113
Reading from 14734: heap size 75 MB, throughput 0.936251
Reading from 14734: heap size 75 MB, throughput 0.908977
Reading from 14734: heap size 75 MB, throughput 0.928892
Reading from 14734: heap size 75 MB, throughput 0.936161
Reading from 14734: heap size 76 MB, throughput 0.990443
Reading from 14734: heap size 78 MB, throughput 0.865085
Reading from 14734: heap size 81 MB, throughput 0.693826
Reading from 14734: heap size 92 MB, throughput 0.987786
Reading from 14734: heap size 84 MB, throughput 0.972472
Reading from 14734: heap size 88 MB, throughput 0.974675
Reading from 14734: heap size 88 MB, throughput 0.975466
Reading from 14734: heap size 88 MB, throughput 0.937692
Reading from 14734: heap size 85 MB, throughput 0.946889
Reading from 14734: heap size 84 MB, throughput 0.949778
Reading from 14734: heap size 83 MB, throughput 0.952782
Reading from 14734: heap size 80 MB, throughput 0.955245
Reading from 14734: heap size 82 MB, throughput 0.952737
Reading from 14734: heap size 76 MB, throughput 0.959287
Reading from 14734: heap size 81 MB, throughput 0.947465
Reading from 14734: heap size 75 MB, throughput 0.964011
Reading from 14734: heap size 81 MB, throughput 0.950342
Reading from 14734: heap size 81 MB, throughput 0.982027
Reading from 14734: heap size 80 MB, throughput 0.938636
Reading from 14734: heap size 74 MB, throughput 0.913923
Reading from 14734: heap size 80 MB, throughput 0.954566
Reading from 14734: heap size 71 MB, throughput 0.869914
Reading from 14734: heap size 78 MB, throughput 0.867922
Reading from 14734: heap size 79 MB, throughput 0.885722
Reading from 14734: heap size 79 MB, throughput 0.955105
Reading from 14734: heap size 79 MB, throughput 0.957909
Reading from 14734: heap size 79 MB, throughput 0.90579
Reading from 14734: heap size 74 MB, throughput 0.951503
Reading from 14734: heap size 79 MB, throughput 0.962569
Reading from 14734: heap size 72 MB, throughput 0.960749
Reading from 14734: heap size 79 MB, throughput 0.904224
Reading from 14734: heap size 78 MB, throughput 0.944071
Reading from 14734: heap size 78 MB, throughput 0.676229
Reading from 14734: heap size 86 MB, throughput 0.987877
Reading from 14734: heap size 83 MB, throughput 0.989146
Reading from 14734: heap size 66 MB, throughput 0.98886
Reading from 14734: heap size 83 MB, throughput 0.989699
Reading from 14734: heap size 84 MB, throughput 0.99362
Reading from 14734: heap size 84 MB, throughput 0.991992
Reading from 14734: heap size 63 MB, throughput 0.973587
Reading from 14734: heap size 84 MB, throughput 0.957671
Reading from 14734: heap size 83 MB, throughput 0.979676
Reading from 14734: heap size 84 MB, throughput 0.969942
Reading from 14734: heap size 84 MB, throughput 0.982525
Reading from 14734: heap size 82 MB, throughput 0.978864
Reading from 14734: heap size 83 MB, throughput 0.97529
Reading from 14734: heap size 81 MB, throughput 0.976005
Reading from 14734: heap size 82 MB, throughput 0.974166
Reading from 14734: heap size 81 MB, throughput 0.905888
Reading from 14734: heap size 82 MB, throughput 0.883776
Reading from 14734: heap size 83 MB, throughput 0.866538
Reading from 14734: heap size 85 MB, throughput 0.955223
Reading from 14734: heap size 85 MB, throughput 0.956105
Reading from 14734: heap size 80 MB, throughput 0.961475
Reading from 14734: heap size 84 MB, throughput 0.959393
Reading from 14734: heap size 84 MB, throughput 0.967882
Reading from 14734: heap size 84 MB, throughput 0.940623
Reading from 14734: heap size 84 MB, throughput 0.953963
Reading from 14734: heap size 83 MB, throughput 0.818475
Reading from 14734: heap size 79 MB, throughput 0.96464
Reading from 14734: heap size 83 MB, throughput 0.962656
Reading from 14734: heap size 72 MB, throughput 0.955292
Reading from 14734: heap size 82 MB, throughput 0.964443
Reading from 14734: heap size 82 MB, throughput 0.958432
Reading from 14734: heap size 82 MB, throughput 0.731059
Reading from 14734: heap size 77 MB, throughput 0.986176
Reading from 14734: heap size 79 MB, throughput 0.962545
Reading from 14734: heap size 80 MB, throughput 0.975708
Reading from 14734: heap size 80 MB, throughput 0.984646
Reading from 14734: heap size 80 MB, throughput 0.983152
Reading from 14734: heap size 79 MB, throughput 0.981188
Reading from 14734: heap size 79 MB, throughput 0.989301
Reading from 14734: heap size 78 MB, throughput 0.965805
Reading from 14734: heap size 79 MB, throughput 0.977193
Reading from 14734: heap size 78 MB, throughput 0.983336
Reading from 14734: heap size 79 MB, throughput 0.89953
Reading from 14734: heap size 79 MB, throughput 0.836972
Reading from 14734: heap size 80 MB, throughput 0.902115
Reading from 14734: heap size 77 MB, throughput 0.959342
Reading from 14734: heap size 74 MB, throughput 0.961672
Reading from 14734: heap size 76 MB, throughput 0.893844
Reading from 14734: heap size 77 MB, throughput 0.933573
Reading from 14734: heap size 77 MB, throughput 0.956966
Reading from 14734: heap size 77 MB, throughput 0.960543
Reading from 14734: heap size 77 MB, throughput 0.964217
Reading from 14734: heap size 62 MB, throughput 0.959956
Reading from 14734: heap size 77 MB, throughput 0.999949
Reading from 14734: heap size 77 MB, throughput 1
Reading from 14734: heap size 77 MB, throughput 0.0467219
Reading from 14734: heap size 76 MB, throughput 0.756903
Reading from 14734: heap size 86 MB, throughput 0.990174
Reading from 14734: heap size 85 MB, throughput 0.993077
Reading from 14734: heap size 87 MB, throughput 0.992065
Reading from 14734: heap size 87 MB, throughput 0.989074
Reading from 14734: heap size 86 MB, throughput 0.9835
Reading from 14734: heap size 87 MB, throughput 0.948312
Reading from 14734: heap size 87 MB, throughput 0.956185
Reading from 14734: heap size 87 MB, throughput 0.976418
Reading from 14734: heap size 87 MB, throughput 0.97919
Reading from 14734: heap size 88 MB, throughput 0.972549
Reading from 14734: heap size 88 MB, throughput 0.980974
Reading from 14734: heap size 89 MB, throughput 0.98436
Reading from 14734: heap size 88 MB, throughput 0.977845
Reading from 14734: heap size 89 MB, throughput 0.978884
Reading from 14734: heap size 89 MB, throughput 0.986975
Reading from 14734: heap size 90 MB, throughput 0.852149
Reading from 14734: heap size 90 MB, throughput 0.88496
Reading from 14734: heap size 92 MB, throughput 0.974739
Reading from 14734: heap size 86 MB, throughput 0.97351
Reading from 14734: heap size 83 MB, throughput 0.940218
Reading from 14734: heap size 86 MB, throughput 0.95009
Reading from 14734: heap size 80 MB, throughput 0.960816
Reading from 14734: heap size 86 MB, throughput 0.968609
Reading from 14734: heap size 86 MB, throughput 0.966985
Reading from 14734: heap size 85 MB, throughput 0.960033
Reading from 14734: heap size 86 MB, throughput 0.827986
Reading from 14734: heap size 85 MB, throughput 0.969284
Reading from 14734: heap size 86 MB, throughput 0.963208
Reading from 14734: heap size 84 MB, throughput 0.957626
Reading from 14734: heap size 85 MB, throughput 0.974068
Reading from 14734: heap size 86 MB, throughput 0.986604
Reading from 14734: heap size 86 MB, throughput 0.985248
Reading from 14734: heap size 86 MB, throughput 0.934351
Reading from 14734: heap size 66 MB, throughput 0.933883
Reading from 14734: heap size 86 MB, throughput 0.970626
Reading from 14734: heap size 86 MB, throughput 0.973586
Reading from 14734: heap size 87 MB, throughput 0.977974
Reading from 14734: heap size 86 MB, throughput 0.96042
Reading from 14734: heap size 87 MB, throughput 0.984715
Reading from 14734: heap size 87 MB, throughput 0.979812
Reading from 14734: heap size 86 MB, throughput 0.97488
Reading from 14734: heap size 87 MB, throughput 0.969573
Reading from 14734: heap size 87 MB, throughput 0.984178
Reading from 14734: heap size 88 MB, throughput 0.865352
Reading from 14734: heap size 88 MB, throughput 0.863835
Reading from 14734: heap size 90 MB, throughput 0.969996
Reading from 14734: heap size 88 MB, throughput 0.968229
Reading from 14734: heap size 83 MB, throughput 0.961731
Reading from 14734: heap size 85 MB, throughput 0.948212
Reading from 14734: heap size 79 MB, throughput 0.9579
Reading from 14734: heap size 86 MB, throughput 0.964712
Reading from 14734: heap size 86 MB, throughput 0.96707
Reading from 14734: heap size 85 MB, throughput 0.958961
Reading from 14734: heap size 86 MB, throughput 0.820896
Reading from 14734: heap size 85 MB, throughput 0.952191
Reading from 14734: heap size 86 MB, throughput 0.948766
Reading from 14734: heap size 85 MB, throughput 0.733562
Reading from 14734: heap size 85 MB, throughput 0.989611
Reading from 14734: heap size 84 MB, throughput 0.987422
Reading from 14734: heap size 85 MB, throughput 0.988242
Reading from 14734: heap size 85 MB, throughput 0.981956
Reading from 14734: heap size 64 MB, throughput 0.942634
Reading from 14734: heap size 85 MB, throughput 0.950886
Reading from 14734: heap size 84 MB, throughput 0.973969
Reading from 14734: heap size 85 MB, throughput 0.981594
Reading from 14734: heap size 85 MB, throughput 0.975664
Reading from 14734: heap size 85 MB, throughput 0.970147
Reading from 14734: heap size 85 MB, throughput 0.990973
Reading from 14734: heap size 85 MB, throughput 0.960019
Reading from 14734: heap size 86 MB, throughput 0.983296
Reading from 14734: heap size 85 MB, throughput 0.981485
Reading from 14734: heap size 87 MB, throughput 0.973581
Reading from 14734: heap size 89 MB, throughput 0.837374
Reading from 14734: heap size 89 MB, throughput 0.892353
Reading from 14734: heap size 86 MB, throughput 0.976633
Reading from 14734: heap size 82 MB, throughput 0.974696
Reading from 14734: heap size 85 MB, throughput 0.950763
Reading from 14734: heap size 80 MB, throughput 0.950963
Reading from 14734: heap size 85 MB, throughput 0.961154
Reading from 14734: heap size 73 MB, throughput 0.969477
Reading from 14734: heap size 85 MB, throughput 0.967319
Reading from 14734: heap size 84 MB, throughput 0.97669
Reading from 14734: heap size 86 MB, throughput 0.919025
Reading from 14734: heap size 86 MB, throughput 0.983531
Reading from 14734: heap size 87 MB, throughput 0.985529
Reading from 14734: heap size 86 MB, throughput 0.983861
Reading from 14734: heap size 87 MB, throughput 0.980618
Reading from 14734: heap size 87 MB, throughput 0.968157
Reading from 14734: heap size 89 MB, throughput 0.901697
Reading from 14734: heap size 89 MB, throughput 0.96685
Reading from 14734: heap size 91 MB, throughput 0.969419
Reading from 14734: heap size 91 MB, throughput 0.970549
Reading from 14734: heap size 91 MB, throughput 0.984864
Reading from 14734: heap size 92 MB, throughput 0.967196
Reading from 14734: heap size 94 MB, throughput 0.974386
Reading from 14734: heap size 94 MB, throughput 0.978328
Reading from 14734: heap size 93 MB, throughput 0.811085
Reading from 14734: heap size 94 MB, throughput 0.592937
Reading from 14734: heap size 90 MB, throughput 0.989739
Reading from 14734: heap size 94 MB, throughput 0.993255
Reading from 14734: heap size 94 MB, throughput 0.975853
Reading from 14734: heap size 81 MB, throughput 0.986345
Reading from 14734: heap size 94 MB, throughput 0.991505
Reading from 14734: heap size 94 MB, throughput 0.992368
Reading from 14734: heap size 95 MB, throughput 0.983684
Reading from 14734: heap size 95 MB, throughput 0.985496
Reading from 14734: heap size 95 MB, throughput 0.986654
Reading from 14734: heap size 95 MB, throughput 0.982533
Reading from 14734: heap size 96 MB, throughput 0.977304
Reading from 14734: heap size 96 MB, throughput 0.905355
Reading from 14734: heap size 98 MB, throughput 0.95907
Reading from 14734: heap size 97 MB, throughput 0.970946
Reading from 14734: heap size 100 MB, throughput 0.967188
Reading from 14734: heap size 99 MB, throughput 0.973739
Reading from 14734: heap size 99 MB, throughput 0.963498
Reading from 14734: heap size 100 MB, throughput 0.978161
Reading from 14734: heap size 99 MB, throughput 0.836712
Reading from 14734: heap size 100 MB, throughput 0.906564
Reading from 14734: heap size 92 MB, throughput 0.968569
Reading from 14734: heap size 91 MB, throughput 0.976826
Reading from 14734: heap size 94 MB, throughput 0.955338
Reading from 14734: heap size 91 MB, throughput 0.969223
Reading from 14734: heap size 95 MB, throughput 0.969595
Reading from 14734: heap size 85 MB, throughput 0.824525
Reading from 14734: heap size 91 MB, throughput 0.943285
Reading from 14734: heap size 92 MB, throughput 0.989157
Reading from 14734: heap size 92 MB, throughput 0.981302
Reading from 14734: heap size 93 MB, throughput 0.960756
Reading from 14734: heap size 94 MB, throughput 0.980577
Reading from 14734: heap size 94 MB, throughput 0.988468
Reading from 14734: heap size 93 MB, throughput 0.980288
Reading from 14734: heap size 94 MB, throughput 0.97671
Reading from 14734: heap size 94 MB, throughput 0.980587
Reading from 14734: heap size 94 MB, throughput 0.98654
Reading from 14734: heap size 94 MB, throughput 0.973369
Reading from 14734: heap size 95 MB, throughput 0.982053
Reading from 14734: heap size 95 MB, throughput 0.984407
Reading from 14734: heap size 96 MB, throughput 0.89202
Reading from 14734: heap size 94 MB, throughput 0.891481
Reading from 14734: heap size 96 MB, throughput 0.97369
Reading from 14734: heap size 88 MB, throughput 0.974566
Reading from 14734: heap size 92 MB, throughput 0.952507
Reading from 14734: heap size 92 MB, throughput 0.960542
Reading from 14734: heap size 80 MB, throughput 0.974555
Reading from 14734: heap size 92 MB, throughput 0.989035
Reading from 14734: heap size 91 MB, throughput 0.990103
Reading from 14734: heap size 92 MB, throughput 0.970499
Reading from 14734: heap size 92 MB, throughput 0.98125
Reading from 14734: heap size 93 MB, throughput 0.810334
Reading from 14734: heap size 94 MB, throughput 0.990784
Reading from 14734: heap size 96 MB, throughput 0.991288
Reading from 14734: heap size 96 MB, throughput 0.962038
Reading from 14734: heap size 96 MB, throughput 0.97629
Reading from 14734: heap size 97 MB, throughput 0.986423
Reading from 14734: heap size 97 MB, throughput 0.975539
Reading from 14734: heap size 97 MB, throughput 0.978262
Reading from 14734: heap size 99 MB, throughput 0.982683
Reading from 14734: heap size 99 MB, throughput 0.981078
Reading from 14734: heap size 100 MB, throughput 0.928518
Reading from 14734: heap size 99 MB, throughput 0.887783
Reading from 14734: heap size 93 MB, throughput 0.965018
Reading from 14734: heap size 91 MB, throughput 0.968278
Reading from 14734: heap size 96 MB, throughput 0.967108
Reading from 14734: heap size 90 MB, throughput 0.95788
Reading from 14734: heap size 95 MB, throughput 0.987525
Reading from 14734: heap size 80 MB, throughput 0.993827
Reading from 14734: heap size 95 MB, throughput 0.991225
Reading from 14734: heap size 95 MB, throughput 0.974084
Reading from 14734: heap size 94 MB, throughput 0.982395
Reading from 14734: heap size 95 MB, throughput 0.989697
Reading from 14734: heap size 96 MB, throughput 0.989095
Reading from 14734: heap size 97 MB, throughput 0.956643
Reading from 14734: heap size 96 MB, throughput 0.999971
Reading from 14734: heap size 96 MB, throughput 0.956522
Reading from 14734: heap size 96 MB, throughput 0.140182
Reading from 14734: heap size 97 MB, throughput 0.986143
Reading from 14734: heap size 98 MB, throughput 0.98511
Reading from 14734: heap size 99 MB, throughput 0.989998
Reading from 14734: heap size 99 MB, throughput 0.984679
Reading from 14734: heap size 100 MB, throughput 0.978108
Reading from 14734: heap size 102 MB, throughput 0.963
Reading from 14734: heap size 102 MB, throughput 0.906122
Reading from 14734: heap size 92 MB, throughput 0.975955
Reading from 14734: heap size 91 MB, throughput 0.827771
Reading from 14734: heap size 102 MB, throughput 0.981643
Reading from 14734: heap size 89 MB, throughput 0.991965
Reading from 14734: heap size 101 MB, throughput 0.994373
Reading from 14734: heap size 101 MB, throughput 0.994469
Reading from 14734: heap size 102 MB, throughput 0.966954
Reading from 14734: heap size 102 MB, throughput 0.986909
Reading from 14734: heap size 102 MB, throughput 0.985323
Reading from 14734: heap size 102 MB, throughput 0.984342
Reading from 14734: heap size 103 MB, throughput 0.977417
Reading from 14734: heap size 103 MB, throughput 0.939756
Reading from 14734: heap size 105 MB, throughput 0.985576
Reading from 14734: heap size 105 MB, throughput 0.980844
Reading from 14734: heap size 106 MB, throughput 0.988824
Reading from 14734: heap size 106 MB, throughput 0.986999
Reading from 14734: heap size 107 MB, throughput 0.9888
Reading from 14734: heap size 107 MB, throughput 0.872416
Reading from 14734: heap size 103 MB, throughput 0.931291
Reading from 14734: heap size 105 MB, throughput 0.958518
Reading from 14734: heap size 105 MB, throughput 0.979626
Reading from 14734: heap size 95 MB, throughput 0.987619
Reading from 14734: heap size 104 MB, throughput 0.995078
Reading from 14734: heap size 104 MB, throughput 0.978109
Reading from 14734: heap size 104 MB, throughput 0.8664
Reading from 14734: heap size 107 MB, throughput 0.993971
Reading from 14734: heap size 107 MB, throughput 0.992607
Reading from 14734: heap size 108 MB, throughput 0.991237
Reading from 14734: heap size 108 MB, throughput 0.975038
Reading from 14734: heap size 108 MB, throughput 0.981443
Reading from 14734: heap size 109 MB, throughput 0.983033
Reading from 14734: heap size 109 MB, throughput 0.988435
Reading from 14734: heap size 110 MB, throughput 0.986636
Reading from 14734: heap size 110 MB, throughput 0.987308
Reading from 14734: heap size 110 MB, throughput 0.894441
Reading from 14734: heap size 110 MB, throughput 0.945573
Reading from 14734: heap size 103 MB, throughput 0.981264
Reading from 14734: heap size 107 MB, throughput 0.975961
Reading from 14734: heap size 107 MB, throughput 0.976255
Reading from 14734: heap size 97 MB, throughput 0.989691
Reading from 14734: heap size 107 MB, throughput 0.992877
Reading from 14734: heap size 106 MB, throughput 0.974267
Reading from 14734: heap size 107 MB, throughput 0.986286
Reading from 14734: heap size 107 MB, throughput 0.993628
Reading from 14734: heap size 108 MB, throughput 0.986561
Reading from 14734: heap size 108 MB, throughput 0.977184
Reading from 14734: heap size 108 MB, throughput 0.983235
Reading from 14734: heap size 108 MB, throughput 0.986284
Reading from 14734: heap size 109 MB, throughput 0.990095
Reading from 14734: heap size 109 MB, throughput 0.982233
Reading from 14734: heap size 110 MB, throughput 0.989414
Reading from 14734: heap size 110 MB, throughput 0.930424
Reading from 14734: heap size 105 MB, throughput 0.893266
Reading from 14734: heap size 108 MB, throughput 0.974288
Reading from 14734: heap size 101 MB, throughput 0.769509
Reading from 14734: heap size 110 MB, throughput 0.991992
Reading from 14734: heap size 110 MB, throughput 0.993178
Reading from 14734: heap size 110 MB, throughput 0.993792
Reading from 14734: heap size 110 MB, throughput 0.9742
Reading from 14734: heap size 110 MB, throughput 0.986948
Reading from 14734: heap size 111 MB, throughput 0.992914
Reading from 14734: heap size 111 MB, throughput 0.990655
Reading from 14734: heap size 112 MB, throughput 0.990035
Reading from 14734: heap size 112 MB, throughput 0.950042
Reading from 14734: heap size 112 MB, throughput 0.981967
Reading from 14734: heap size 113 MB, throughput 0.985636
Reading from 14734: heap size 112 MB, throughput 0.987779
Reading from 14734: heap size 113 MB, throughput 0.977244
Reading from 14734: heap size 115 MB, throughput 0.999988
Reading from 14734: heap size 115 MB, throughput 1
Reading from 14734: heap size 115 MB, throughput 0.0699599
Reading from 14734: heap size 116 MB, throughput 0.980347
Reading from 14734: heap size 116 MB, throughput 0.861186
Reading from 14734: heap size 116 MB, throughput 0.841932
Reading from 14734: heap size 109 MB, throughput 0.994555
Reading from 14734: heap size 113 MB, throughput 0.985177
Reading from 14734: heap size 112 MB, throughput 0.990182
Reading from 14734: heap size 113 MB, throughput 0.99333
Reading from 14734: heap size 114 MB, throughput 0.986688
Reading from 14734: heap size 114 MB, throughput 0.984691
Reading from 14734: heap size 115 MB, throughput 0.990404
Reading from 14734: heap size 114 MB, throughput 0.992121
Reading from 14734: heap size 116 MB, throughput 0.97283
Reading from 14734: heap size 116 MB, throughput 0.984691
Reading from 14734: heap size 117 MB, throughput 0.984326
Reading from 14734: heap size 117 MB, throughput 0.987867
Reading from 14734: heap size 118 MB, throughput 0.983936
Reading from 14734: heap size 118 MB, throughput 0.986741
Reading from 14734: heap size 118 MB, throughput 0.957485
Reading from 14734: heap size 119 MB, throughput 0.922628
Reading from 14734: heap size 117 MB, throughput 0.980929
Reading from 14734: heap size 118 MB, throughput 0.989623
Reading from 14734: heap size 116 MB, throughput 0.989782
Reading from 14734: heap size 117 MB, throughput 0.994932
Reading from 14734: heap size 118 MB, throughput 0.985917
Reading from 14734: heap size 118 MB, throughput 0.875689
Reading from 14734: heap size 121 MB, throughput 0.99425
Reading from 14734: heap size 114 MB, throughput 0.999982
Reading from 14734: heap size 114 MB, throughput 1
Reading from 14734: heap size 114 MB, throughput 0.734128
Reading from 14734: heap size 121 MB, throughput 0.980702
Reading from 14734: heap size 121 MB, throughput 0.986511
Reading from 14734: heap size 121 MB, throughput 0.984763
Reading from 14734: heap size 121 MB, throughput 0.985198
Reading from 14734: heap size 123 MB, throughput 0.989801
Reading from 14734: heap size 123 MB, throughput 0.973547
Reading from 14734: heap size 120 MB, throughput 0.915754
Reading from 14734: heap size 119 MB, throughput 0.98098
Reading from 14734: heap size 121 MB, throughput 0.992309
Reading from 14734: heap size 121 MB, throughput 0.994253
Reading from 14734: heap size 121 MB, throughput 0.996343
Reading from 14734: heap size 121 MB, throughput 0.974482
Reading from 14734: heap size 121 MB, throughput 0.988343
Reading from 14734: heap size 121 MB, throughput 0.992582
Reading from 14734: heap size 120 MB, throughput 0.976473
Reading from 14734: heap size 121 MB, throughput 0.981856
Reading from 14734: heap size 122 MB, throughput 0.983784
Reading from 14734: heap size 122 MB, throughput 0.992463
Reading from 14734: heap size 122 MB, throughput 0.982528
Reading from 14734: heap size 122 MB, throughput 0.987548
Reading from 14734: heap size 123 MB, throughput 0.941395
Reading from 14734: heap size 123 MB, throughput 0.760142
Reading from 14734: heap size 124 MB, throughput 0.994256
Reading from 14734: heap size 126 MB, throughput 0.990396
Reading from 14734: heap size 125 MB, throughput 0.992455
Reading from 14734: heap size 126 MB, throughput 0.995595
Reading from 14734: heap size 127 MB, throughput 0.986582
Reading from 14734: heap size 127 MB, throughput 0.987234
Reading from 14734: heap size 127 MB, throughput 0.994228
Reading from 14734: heap size 127 MB, throughput 0.970657
Reading from 14734: heap size 126 MB, throughput 0.98489
Reading from 14734: heap size 127 MB, throughput 0.982113
Reading from 14734: heap size 127 MB, throughput 0.988896
Reading from 14734: heap size 127 MB, throughput 0.985903
Reading from 14734: heap size 127 MB, throughput 0.99055
Reading from 14734: heap size 128 MB, throughput 0.906948
Reading from 14734: heap size 122 MB, throughput 0.976083
Reading from 14734: heap size 125 MB, throughput 0.992164
Reading from 14734: heap size 124 MB, throughput 0.991853
Reading from 14734: heap size 125 MB, throughput 0.994705
Reading from 14734: heap size 125 MB, throughput 0.99392
Reading from 14734: heap size 126 MB, throughput 0.983644
Reading from 14734: heap size 127 MB, throughput 0.985669
Reading from 14734: heap size 120 MB, throughput 0.99034
Reading from 14734: heap size 126 MB, throughput 0.973874
Reading from 14734: heap size 126 MB, throughput 0.987344
Reading from 14734: heap size 127 MB, throughput 0.983159
Reading from 14734: heap size 127 MB, throughput 0.99081
Reading from 14734: heap size 127 MB, throughput 0.988157
Reading from 14734: heap size 127 MB, throughput 0.988892
Reading from 14734: heap size 128 MB, throughput 0.516556
Reading from 14734: heap size 132 MB, throughput 0.991165
Reading from 14734: heap size 126 MB, throughput 0.986887
Reading from 14734: heap size 129 MB, throughput 0.995429
Reading from 14734: heap size 127 MB, throughput 0.995149
Reading from 14734: heap size 128 MB, throughput 0.988317
Reading from 14734: heap size 129 MB, throughput 0.986081
Reading from 14734: heap size 129 MB, throughput 0.990637
Reading from 14734: heap size 130 MB, throughput 0.991853
Reading from 14734: heap size 124 MB, throughput 0.960057
Reading from 14734: heap size 130 MB, throughput 0.986212
Reading from 14734: heap size 130 MB, throughput 0.98011
Reading from 14734: heap size 131 MB, throughput 0.987477
Reading from 14734: heap size 131 MB, throughput 0.985944
Reading from 14734: heap size 130 MB, throughput 0.987508
Reading from 14734: heap size 131 MB, throughput 0.906751
Reading from 14734: heap size 125 MB, throughput 0.979484
Reading from 14734: heap size 128 MB, throughput 0.992628
Reading from 14734: heap size 128 MB, throughput 0.994157
Reading from 14734: heap size 128 MB, throughput 0.995216
Reading from 14734: heap size 129 MB, throughput 0.991579
Reading from 14734: heap size 129 MB, throughput 0.985309
Reading from 14734: heap size 129 MB, throughput 0.989124
Reading from 14734: heap size 129 MB, throughput 0.988969
Reading from 14734: heap size 129 MB, throughput 0.965671
Reading from 14734: heap size 130 MB, throughput 0.986561
Reading from 14734: heap size 131 MB, throughput 0.986185
Reading from 14734: heap size 131 MB, throughput 0.988801
Reading from 14734: heap size 130 MB, throughput 0.987668
Reading from 14734: heap size 131 MB, throughput 0.989261
Reading from 14734: heap size 130 MB, throughput 0.519855
Reading from 14734: heap size 133 MB, throughput 0.990787
Reading from 14734: heap size 130 MB, throughput 0.987482
Reading from 14734: heap size 131 MB, throughput 0.994084
Reading from 14734: heap size 131 MB, throughput 0.995944
Reading from 14734: heap size 131 MB, throughput 0.987616
Reading from 14734: heap size 132 MB, throughput 0.988942
Reading from 14734: heap size 132 MB, throughput 0.992444
Reading from 14734: heap size 131 MB, throughput 0.993139
Reading from 14734: heap size 132 MB, throughput 0.974764
Reading from 14734: heap size 132 MB, throughput 0.987619
Reading from 14734: heap size 132 MB, throughput 0.983536
Reading from 14734: heap size 132 MB, throughput 0.989291
Reading from 14734: heap size 133 MB, throughput 0.987364
Reading from 14734: heap size 133 MB, throughput 0.988901
Reading from 14734: heap size 133 MB, throughput 0.90695
Reading from 14734: heap size 127 MB, throughput 0.976217
Reading from 14734: heap size 130 MB, throughput 0.992872
Reading from 14734: heap size 130 MB, throughput 0.98882
Reading from 14734: heap size 130 MB, throughput 0.993153
Reading from 14734: heap size 131 MB, throughput 0.992894
Reading from 14734: heap size 131 MB, throughput 0.985041
Reading from 14734: heap size 131 MB, throughput 0.987583
Reading from 14734: heap size 131 MB, throughput 0.992311
Reading from 14734: heap size 131 MB, throughput 0.975177
Reading from 14734: heap size 132 MB, throughput 0.988054
Reading from 14734: heap size 132 MB, throughput 0.98604
Reading from 14734: heap size 132 MB, throughput 0.988651
Reading from 14734: heap size 133 MB, throughput 0.987377
Reading from 14734: heap size 133 MB, throughput 0.991741
Reading from 14734: heap size 133 MB, throughput 0.490603
Reading from 14734: heap size 135 MB, throughput 0.990525
Reading from 14734: heap size 131 MB, throughput 0.993783
Reading from 14734: heap size 133 MB, throughput 0.984099
Reading from 14734: heap size 132 MB, throughput 0.994112
Reading from 14734: heap size 133 MB, throughput 0.992741
Reading from 14734: heap size 134 MB, throughput 0.986126
Reading from 14734: heap size 134 MB, throughput 0.986232
Reading from 14734: heap size 134 MB, throughput 0.98721
Reading from 14734: heap size 134 MB, throughput 0.975046
Reading from 14734: heap size 134 MB, throughput 0.989651
Reading from 14734: heap size 134 MB, throughput 0.986146
Reading from 14734: heap size 135 MB, throughput 0.988245
Reading from 14734: heap size 135 MB, throughput 0.987711
Reading from 14734: heap size 135 MB, throughput 0.986975
Reading from 14734: heap size 135 MB, throughput 0.908032
Reading from 14734: heap size 129 MB, throughput 0.977609
Reading from 14734: heap size 132 MB, throughput 0.99298
Reading from 14734: heap size 131 MB, throughput 0.988989
Reading from 14734: heap size 132 MB, throughput 0.992537
Reading from 14734: heap size 132 MB, throughput 0.992058
Reading from 14734: heap size 133 MB, throughput 0.987305
Reading from 14734: heap size 133 MB, throughput 0.987806
Reading from 14734: heap size 133 MB, throughput 0.987892
Reading from 14734: heap size 133 MB, throughput 0.970561
Reading from 14734: heap size 134 MB, throughput 0.988383
Reading from 14734: heap size 135 MB, throughput 0.982577
Reading from 14734: heap size 135 MB, throughput 0.986647
Reading from 14734: heap size 135 MB, throughput 0.989136
Reading from 14734: heap size 130 MB, throughput 0.986918
Reading from 14734: heap size 135 MB, throughput 0.510545
Reading from 14734: heap size 137 MB, throughput 0.991647
Reading from 14734: heap size 133 MB, throughput 0.993808
Reading from 14734: heap size 135 MB, throughput 0.987798
Reading from 14734: heap size 134 MB, throughput 0.995603
Reading from 14734: heap size 135 MB, throughput 0.985821
Reading from 14734: heap size 136 MB, throughput 0.987547
Reading from 14734: heap size 129 MB, throughput 0.989049
Reading from 14734: heap size 136 MB, throughput 0.991106
Reading from 14734: heap size 136 MB, throughput 0.970811
Reading from 14734: heap size 136 MB, throughput 0.981736
Reading from 14734: heap size 136 MB, throughput 0.986594
Reading from 14734: heap size 137 MB, throughput 0.989629
Reading from 14734: heap size 137 MB, throughput 0.985836
Reading from 14734: heap size 138 MB, throughput 0.98569
Reading from 14734: heap size 138 MB, throughput 0.907754
Reading from 14734: heap size 131 MB, throughput 0.980344
Reading from 14734: heap size 135 MB, throughput 0.990953
Reading from 14734: heap size 133 MB, throughput 0.985246
Reading from 14734: heap size 134 MB, throughput 0.993603
Reading from 14734: heap size 135 MB, throughput 0.990281
Reading from 14734: heap size 135 MB, throughput 0.988345
Reading from 14734: heap size 135 MB, throughput 0.989461
Reading from 14734: heap size 136 MB, throughput 0.993894
Reading from 14734: heap size 136 MB, throughput 0.966411
Reading from 14734: heap size 137 MB, throughput 0.983548
Reading from 14734: heap size 137 MB, throughput 0.982023
Reading from 14734: heap size 137 MB, throughput 0.98866
Reading from 14734: heap size 138 MB, throughput 0.985469
Reading from 14734: heap size 134 MB, throughput 0.990022
Reading from 14734: heap size 137 MB, throughput 0.529931
Reading from 14734: heap size 139 MB, throughput 0.989535
Reading from 14734: heap size 135 MB, throughput 0.99278
Reading from 14734: heap size 137 MB, throughput 0.992887
Reading from 14734: heap size 136 MB, throughput 0.996059
Reading from 14734: heap size 137 MB, throughput 0.986433
Reading from 14734: heap size 138 MB, throughput 0.986828
Reading from 14734: heap size 131 MB, throughput 0.991862
Reading from 14734: heap size 137 MB, throughput 0.992896
Reading from 14734: heap size 137 MB, throughput 0.966907
Reading from 14734: heap size 138 MB, throughput 0.984264
Reading from 14734: heap size 138 MB, throughput 0.982665
Reading from 14734: heap size 138 MB, throughput 0.984526
Reading from 14734: heap size 138 MB, throughput 0.987679
Reading from 14734: heap size 140 MB, throughput 0.988348
Reading from 14734: heap size 140 MB, throughput 0.912025
Reading from 14734: heap size 134 MB, throughput 0.977438
Reading from 14734: heap size 137 MB, throughput 0.991852
Reading from 14734: heap size 136 MB, throughput 0.990574
Reading from 14734: heap size 136 MB, throughput 0.995741
Reading from 14734: heap size 137 MB, throughput 0.985119
Reading from 14734: heap size 137 MB, throughput 0.986932
Reading from 14734: heap size 137 MB, throughput 0.991521
Reading from 14734: heap size 137 MB, throughput 0.991288
Reading from 14734: heap size 138 MB, throughput 0.976425
Reading from 14734: heap size 132 MB, throughput 0.980531
Reading from 14734: heap size 138 MB, throughput 0.984638
Reading from 14734: heap size 138 MB, throughput 0.986911
Reading from 14734: heap size 138 MB, throughput 0.990204
Reading from 14734: heap size 138 MB, throughput 0.988996
Reading from 14734: heap size 139 MB, throughput 0.897375
Reading from 14734: heap size 139 MB, throughput 0.813106
Reading from 14734: heap size 137 MB, throughput 0.994293
Reading from 14734: heap size 139 MB, throughput 0.987824
Reading from 14734: heap size 138 MB, throughput 0.995754
Reading from 14734: heap size 138 MB, throughput 0.991144
Reading from 14734: heap size 138 MB, throughput 0.989566
Reading from 14734: heap size 139 MB, throughput 0.989768
Reading from 14734: heap size 139 MB, throughput 0.992759
Reading from 14734: heap size 139 MB, throughput 0.974375
Reading from 14734: heap size 141 MB, throughput 0.986821
Reading from 14734: heap size 135 MB, throughput 0.983748
Reading from 14734: heap size 141 MB, throughput 0.986059
Reading from 14734: heap size 140 MB, throughput 0.987667
Reading from 14734: heap size 141 MB, throughput 0.980414
Reading from 14734: heap size 141 MB, throughput 0.908606
Reading from 14734: heap size 133 MB, throughput 0.981584
Reading from 14734: heap size 137 MB, throughput 0.992409
Reading from 14734: heap size 136 MB, throughput 0.992965
Reading from 14734: heap size 137 MB, throughput 0.993256
Reading from 14734: heap size 138 MB, throughput 0.989443
Reading from 14734: heap size 138 MB, throughput 0.986197
Reading from 14734: heap size 138 MB, throughput 0.985241
Reading from 14734: heap size 138 MB, throughput 0.993722
Reading from 14734: heap size 139 MB, throughput 0.957504
Reading from 14734: heap size 139 MB, throughput 0.98516
Reading from 14734: heap size 139 MB, throughput 0.984644
Reading from 14734: heap size 139 MB, throughput 0.988763
Reading from 14734: heap size 140 MB, throughput 0.983502
Reading from 14734: heap size 140 MB, throughput 0.989525
Reading from 14734: heap size 140 MB, throughput 0.901031
Reading from 14734: heap size 140 MB, throughput 0.806606
Reading from 14734: heap size 139 MB, throughput 0.993738
Reading from 14734: heap size 140 MB, throughput 0.984882
Reading from 14734: heap size 139 MB, throughput 0.991035
Reading from 14734: heap size 140 MB, throughput 0.990606
Reading from 14734: heap size 140 MB, throughput 0.987756
Reading from 14734: heap size 140 MB, throughput 0.991221
Reading from 14734: heap size 142 MB, throughput 0.994431
Reading from 14734: heap size 142 MB, throughput 0.969972
Reading from 14734: heap size 141 MB, throughput 0.986587
Reading from 14734: heap size 142 MB, throughput 0.98423
Reading from 14734: heap size 143 MB, throughput 0.98854
Reading from 14734: heap size 143 MB, throughput 0.988756
Reading from 14734: heap size 143 MB, throughput 0.987566
Reading from 14734: heap size 141 MB, throughput 0.916194
Reading from 14734: heap size 136 MB, throughput 0.974415
Reading from 14734: heap size 139 MB, throughput 0.989919
Reading from 14734: heap size 138 MB, throughput 0.989096
Reading from 14734: heap size 139 MB, throughput 0.996609
Reading from 14734: heap size 140 MB, throughput 0.990335
Reading from 14734: heap size 140 MB, throughput 0.986687
Reading from 14734: heap size 140 MB, throughput 0.987544
Reading from 14734: heap size 140 MB, throughput 0.993343
Reading from 14734: heap size 141 MB, throughput 0.972954
Reading from 14734: heap size 141 MB, throughput 0.985715
Reading from 14734: heap size 141 MB, throughput 0.982182
Reading from 14734: heap size 141 MB, throughput 0.986781
Reading from 14734: heap size 141 MB, throughput 0.989511
Reading from 14734: heap size 142 MB, throughput 0.990635
Reading from 14734: heap size 141 MB, throughput 0.905711
Reading from 14734: heap size 142 MB, throughput 0.784229
Reading from 14734: heap size 141 MB, throughput 0.993796
Reading from 14734: heap size 143 MB, throughput 0.9885
Reading from 14734: heap size 141 MB, throughput 0.995126
Reading from 14734: heap size 142 MB, throughput 0.985298
Reading from 14734: heap size 144 MB, throughput 0.990879
Reading from 14734: heap size 144 MB, throughput 0.992622
Reading from 14734: heap size 143 MB, throughput 0.992221
Reading from 14734: heap size 143 MB, throughput 0.965864
Reading from 14734: heap size 143 MB, throughput 0.981763
Reading from 14734: heap size 144 MB, throughput 0.98525
Reading from 14734: heap size 144 MB, throughput 0.988699
Reading from 14734: heap size 144 MB, throughput 0.987816
Reading from 14734: heap size 145 MB, throughput 0.990353
Reading from 14734: heap size 145 MB, throughput 0.913014
Reading from 14734: heap size 139 MB, throughput 0.977952
Reading from 14734: heap size 143 MB, throughput 0.991654
Reading from 14734: heap size 141 MB, throughput 0.985992
Reading from 14734: heap size 142 MB, throughput 0.991945
Reading from 14734: heap size 143 MB, throughput 0.99115
Reading from 14734: heap size 143 MB, throughput 0.98695
Reading from 14734: heap size 144 MB, throughput 0.989089
Reading from 14734: heap size 144 MB, throughput 0.992098
Reading from 14734: heap size 144 MB, throughput 0.973379
Reading from 14734: heap size 144 MB, throughput 0.988569
Reading from 14734: heap size 144 MB, throughput 0.984434
Reading from 14734: heap size 145 MB, throughput 0.988316
Reading from 14734: heap size 145 MB, throughput 0.986896
Reading from 14734: heap size 146 MB, throughput 0.987521
Reading from 14734: heap size 145 MB, throughput 0.999971
Reading from 14734: heap size 145 MB, throughput 1
Reading from 14734: heap size 145 MB, throughput 0.0251263
Reading from 14734: heap size 146 MB, throughput 0.979795
Reading from 14734: heap size 140 MB, throughput 0.988751
Reading from 14734: heap size 143 MB, throughput 0.993341
Reading from 14734: heap size 142 MB, throughput 0.994384
Reading from 14734: heap size 143 MB, throughput 0.987682
Reading from 14734: heap size 143 MB, throughput 0.841427
Reading from 14734: heap size 150 MB, throughput 0.993817
Reading from 14734: heap size 150 MB, throughput 0.989712
Reading from 14734: heap size 150 MB, throughput 0.972594
Reading from 14734: heap size 151 MB, throughput 0.987786
Reading from 14734: heap size 151 MB, throughput 0.986492
Reading from 14734: heap size 151 MB, throughput 0.985595
Reading from 14734: heap size 151 MB, throughput 0.988191
Reading from 14734: heap size 152 MB, throughput 0.986523
Reading from 14734: heap size 152 MB, throughput 0.907627
Reading from 14734: heap size 146 MB, throughput 0.979
Reading from 14734: heap size 149 MB, throughput 0.993224
Reading from 14734: heap size 148 MB, throughput 0.985626
Reading from 14734: heap size 149 MB, throughput 0.992429
Reading from 14734: heap size 149 MB, throughput 0.992638
Reading from 14734: heap size 149 MB, throughput 0.98862
Reading from 14734: heap size 150 MB, throughput 0.987995
Reading from 14734: heap size 150 MB, throughput 0.991804
Reading from 14734: heap size 152 MB, throughput 0.973092
Reading from 14734: heap size 146 MB, throughput 0.985458
Reading from 14734: heap size 151 MB, throughput 0.975059
Reading from 14734: heap size 151 MB, throughput 0.986236
Reading from 14734: heap size 151 MB, throughput 0.989115
Reading from 14734: heap size 152 MB, throughput 0.9879
Reading from 14734: heap size 152 MB, throughput 0.910552
Reading from 14734: heap size 152 MB, throughput 0.976477
Reading from 14734: heap size 147 MB, throughput 0.993881
Reading from 14734: heap size 150 MB, throughput 0.989399
Reading from 14734: heap size 148 MB, throughput 0.995298
Reading from 14734: heap size 149 MB, throughput 0.99242
Reading from 14734: heap size 150 MB, throughput 0.987784
Reading from 14734: heap size 150 MB, throughput 0.981814
Reading from 14734: heap size 150 MB, throughput 0.990578
Reading from 14734: heap size 151 MB, throughput 0.971708
Reading from 14734: heap size 151 MB, throughput 0.988757
Reading from 14734: heap size 151 MB, throughput 0.984403
Reading from 14734: heap size 151 MB, throughput 0.985852
Reading from 14734: heap size 152 MB, throughput 0.854529
Reading from 14734: heap size 147 MB, throughput 0.986673
Reading from 14734: heap size 146 MB, throughput 0.912165
Reading from 14734: heap size 141 MB, throughput 0.976572
Reading from 14734: heap size 144 MB, throughput 0.992381
Reading from 14734: heap size 143 MB, throughput 0.989144
Reading from 14734: heap size 144 MB, throughput 0.99525
Reading from 14734: heap size 144 MB, throughput 0.991546
Reading from 14734: heap size 144 MB, throughput 0.986656
Reading from 14734: heap size 144 MB, throughput 0.988769
Reading from 14734: heap size 144 MB, throughput 0.990776
Reading from 14734: heap size 145 MB, throughput 0.974683
Reading from 14734: heap size 145 MB, throughput 0.987435
Reading from 14734: heap size 146 MB, throughput 0.999992
Reading from 14734: heap size 146 MB, throughput 0.954545
Reading from 14734: heap size 146 MB, throughput 0.140985
Reading from 14734: heap size 146 MB, throughput 0.661857
Reading from 14734: heap size 146 MB, throughput 0.986265
Reading from 14734: heap size 146 MB, throughput 0.987339
Reading from 14734: heap size 147 MB, throughput 0.986878
Reading from 14734: heap size 147 MB, throughput 0.902441
Reading from 14734: heap size 141 MB, throughput 0.980208
Reading from 14734: heap size 144 MB, throughput 0.993208
Reading from 14734: heap size 143 MB, throughput 0.985534
Reading from 14734: heap size 144 MB, throughput 0.993033
Reading from 14734: heap size 144 MB, throughput 0.989785
Reading from 14734: heap size 144 MB, throughput 0.985988
Reading from 14734: heap size 144 MB, throughput 0.988714
Reading from 14734: heap size 145 MB, throughput 0.991221
Reading from 14734: heap size 145 MB, throughput 0.968455
Reading from 14734: heap size 146 MB, throughput 0.984887
Reading from 14734: heap size 146 MB, throughput 0.981836
Reading from 14734: heap size 146 MB, throughput 0.988055
Reading from 14734: heap size 147 MB, throughput 0.988262
Reading from 14734: heap size 143 MB, throughput 0.985921
Reading from 14734: heap size 146 MB, throughput 0.913676
Reading from 14734: heap size 147 MB, throughput 0.847807
Reading from 14734: heap size 152 MB, throughput 0.991376
Reading from 14734: heap size 154 MB, throughput 0.989144
Reading from 14734: heap size 153 MB, throughput 0.995097
Reading from 14734: heap size 153 MB, throughput 0.989297
Reading from 14734: heap size 154 MB, throughput 0.989302
Reading from 14734: heap size 148 MB, throughput 0.991358
Reading from 14734: heap size 154 MB, throughput 0.989922
Reading from 14734: heap size 154 MB, throughput 0.97625
Reading from 14734: heap size 154 MB, throughput 0.985366
Reading from 14734: heap size 154 MB, throughput 0.984329
Reading from 14734: heap size 155 MB, throughput 0.987366
Reading from 14734: heap size 155 MB, throughput 0.990952
Reading from 14734: heap size 156 MB, throughput 0.986304
Reading from 14734: heap size 154 MB, throughput 0.912831
Reading from 14734: heap size 150 MB, throughput 0.979074
Reading from 14734: heap size 153 MB, throughput 0.993461
Reading from 14734: heap size 152 MB, throughput 0.993412
Reading from 14734: heap size 152 MB, throughput 0.993694
Reading from 14734: heap size 152 MB, throughput 0.992065
Reading from 14734: heap size 153 MB, throughput 0.979585
Reading from 14734: heap size 153 MB, throughput 0.988305
Reading from 14734: heap size 153 MB, throughput 0.991012
Reading from 14734: heap size 154 MB, throughput 0.974408
Reading from 14734: heap size 154 MB, throughput 0.9828
Reading from 14734: heap size 154 MB, throughput 0.985655
Reading from 14734: heap size 155 MB, throughput 0.988959
Reading from 14734: heap size 155 MB, throughput 0.98511
Reading from 14734: heap size 156 MB, throughput 0.986758
Reading from 14734: heap size 156 MB, throughput 0.906871
Reading from 14734: heap size 156 MB, throughput 0.971623
Reading from 14734: heap size 152 MB, throughput 0.991264
Reading from 14734: heap size 154 MB, throughput 0.993081
Reading from 14734: heap size 153 MB, throughput 0.995339
Reading from 14734: heap size 154 MB, throughput 0.987372
Reading from 14734: heap size 153 MB, throughput 0.987613
Reading from 14734: heap size 154 MB, throughput 0.989185
Reading from 14734: heap size 154 MB, throughput 0.991604
Reading from 14734: heap size 155 MB, throughput 0.973584
Reading from 14734: heap size 156 MB, throughput 0.987875
Reading from 14734: heap size 150 MB, throughput 0.984646
Reading from 14734: heap size 156 MB, throughput 0.986977
Reading from 14734: heap size 155 MB, throughput 0.988307
Reading from 14734: heap size 156 MB, throughput 0.980325
Reading from 14734: heap size 156 MB, throughput 0.501933
Reading from 14734: heap size 156 MB, throughput 0.992279
Reading from 14734: heap size 160 MB, throughput 0.991377
Reading from 14734: heap size 158 MB, throughput 0.988553
Reading from 14734: heap size 159 MB, throughput 0.994865
Reading from 14734: heap size 160 MB, throughput 0.992533
Reading from 14734: heap size 160 MB, throughput 0.985017
Reading from 14734: heap size 160 MB, throughput 0.989179
Reading from 14734: heap size 161 MB, throughput 0.990729
Reading from 14734: heap size 161 MB, throughput 0.973909
Reading from 14734: heap size 162 MB, throughput 0.986629
Reading from 14734: heap size 162 MB, throughput 0.986422
Reading from 14734: heap size 162 MB, throughput 0.985255
Reading from 14734: heap size 163 MB, throughput 0.987625
Reading from 14734: heap size 163 MB, throughput 0.98647
Reading from 14734: heap size 163 MB, throughput 0.904615
Reading from 14734: heap size 163 MB, throughput 0.974436
Reading from 14734: heap size 158 MB, throughput 0.989516
Reading from 14734: heap size 161 MB, throughput 0.990277
Reading from 14734: heap size 159 MB, throughput 0.99371
Reading from 14734: heap size 160 MB, throughput 0.985171
Reading from 14734: heap size 162 MB, throughput 0.988504
Reading from 14734: heap size 155 MB, throughput 0.988875
Reading from 14734: heap size 161 MB, throughput 0.990005
Reading from 14734: heap size 161 MB, throughput 0.970452
Reading from 14734: heap size 162 MB, throughput 0.9881
Reading from 14734: heap size 162 MB, throughput 0.999981
Reading from 14734: heap size 162 MB, throughput 0.961538
Reading from 14734: heap size 162 MB, throughput 0.0593979
Reading from 14734: heap size 162 MB, throughput 0.986682
Reading from 14734: heap size 162 MB, throughput 0.990703
Reading from 14734: heap size 162 MB, throughput 0.988761
Reading from 14734: heap size 163 MB, throughput 0.897247
Reading from 14734: heap size 157 MB, throughput 0.971795
Reading from 14734: heap size 160 MB, throughput 0.99228
Reading from 14734: heap size 160 MB, throughput 0.985014
Reading from 14734: heap size 160 MB, throughput 0.99049
Reading from 14734: heap size 160 MB, throughput 0.99371
Reading from 14734: heap size 160 MB, throughput 0.983951
Reading from 14734: heap size 161 MB, throughput 0.987689
Reading from 14734: heap size 161 MB, throughput 0.99359
Reading from 14734: heap size 161 MB, throughput 0.954004
Reading from 14734: heap size 162 MB, throughput 0.981665
Reading from 14734: heap size 162 MB, throughput 0.983479
Reading from 14734: heap size 162 MB, throughput 0.987503
Reading from 14734: heap size 163 MB, throughput 0.984926
Reading from 14734: heap size 163 MB, throughput 0.87226
Reading from 14734: heap size 155 MB, throughput 0.819249
Reading from 14734: heap size 156 MB, throughput 0.976854
Reading from 14734: heap size 148 MB, throughput 0.993062
Reading from 14734: heap size 152 MB, throughput 0.988097
Reading from 14734: heap size 151 MB, throughput 0.993792
Reading from 14734: heap size 151 MB, throughput 0.993648
Reading from 14734: heap size 151 MB, throughput 0.977889
Reading from 14734: heap size 152 MB, throughput 0.989049
Reading from 14734: heap size 153 MB, throughput 0.993265
Reading from 14734: heap size 144 MB, throughput 0.990475
Reading from 14734: heap size 153 MB, throughput 0.999972
Reading from 14734: heap size 153 MB, throughput 1
Reading from 14734: heap size 153 MB, throughput 0.498957
Reading from 14734: heap size 153 MB, throughput 0.985578
Reading from 14734: heap size 154 MB, throughput 0.980968
Reading from 14734: heap size 153 MB, throughput 0.981833
Reading from 14734: heap size 155 MB, throughput 0.989694
Reading from 14734: heap size 155 MB, throughput 0.990874
Reading from 14734: heap size 155 MB, throughput 0.90114
Reading from 14734: heap size 155 MB, throughput 0.975357
Reading from 14734: heap size 153 MB, throughput 0.991246
Reading from 14734: heap size 154 MB, throughput 0.992368
Reading from 14734: heap size 153 MB, throughput 0.995222
Reading from 14734: heap size 154 MB, throughput 0.989177
Reading from 14734: heap size 153 MB, throughput 0.987095
Reading from 14734: heap size 154 MB, throughput 0.990796
Reading from 14734: heap size 155 MB, throughput 0.993964
Reading from 14734: heap size 155 MB, throughput 0.954576
Reading from 14734: heap size 155 MB, throughput 0.98329
Reading from 14734: heap size 155 MB, throughput 0.983131
Reading from 14734: heap size 156 MB, throughput 0.988058
Reading from 14734: heap size 156 MB, throughput 0.985045
Reading from 14734: heap size 156 MB, throughput 0.989675
Reading from 14734: heap size 156 MB, throughput 0.908436
Reading from 14734: heap size 151 MB, throughput 0.795899
Reading from 14734: heap size 163 MB, throughput 0.993721
Reading from 14734: heap size 162 MB, throughput 0.991049
Reading from 14734: heap size 162 MB, throughput 0.994738
Reading from 14734: heap size 162 MB, throughput 0.992088
Reading from 14734: heap size 163 MB, throughput 0.986361
Reading from 14734: heap size 163 MB, throughput 0.990787
Reading from 14734: heap size 163 MB, throughput 0.991865
Reading from 14734: heap size 164 MB, throughput 0.976427
Reading from 14734: heap size 164 MB, throughput 0.988761
Reading from 14734: heap size 164 MB, throughput 0.983652
Reading from 14734: heap size 164 MB, throughput 0.988422
Reading from 14734: heap size 164 MB, throughput 0.990345
Reading from 14734: heap size 165 MB, throughput 0.984955
Reading from 14734: heap size 164 MB, throughput 0.912491
Reading from 14734: heap size 165 MB, throughput 0.981983
Reading from 14734: heap size 159 MB, throughput 0.989441
Reading from 14734: heap size 162 MB, throughput 0.993627
Reading from 14734: heap size 160 MB, throughput 0.995689
Reading from 14734: heap size 161 MB, throughput 0.984676
Reading from 14734: heap size 162 MB, throughput 0.988175
Reading from 14734: heap size 162 MB, throughput 0.989604
Reading from 14734: heap size 162 MB, throughput 0.990738
Reading from 14734: heap size 163 MB, throughput 0.96821
Reading from 14734: heap size 163 MB, throughput 0.984858
Reading from 14734: heap size 163 MB, throughput 0.983996
Reading from 14734: heap size 163 MB, throughput 0.985461
Reading from 14734: heap size 164 MB, throughput 0.988561
Reading from 14734: heap size 165 MB, throughput 0.986674
Reading from 14734: heap size 165 MB, throughput 0.907632
Reading from 14734: heap size 158 MB, throughput 0.972411
Reading from 14734: heap size 161 MB, throughput 0.992941
Reading from 14734: heap size 160 MB, throughput 0.984563
Reading from 14734: heap size 161 MB, throughput 0.992553
Reading from 14734: heap size 161 MB, throughput 0.99538
Reading from 14734: heap size 162 MB, throughput 0.984047
Reading from 14734: heap size 162 MB, throughput 0.987052
Reading from 14734: heap size 163 MB, throughput 0.991151
Reading from 14734: heap size 163 MB, throughput 0.959612
Reading from 14734: heap size 163 MB, throughput 0.999989
Reading from 14734: heap size 163 MB, throughput 0.95
Reading from 14734: heap size 163 MB, throughput 0.0755253
Reading from 14734: heap size 163 MB, throughput 0.981906
Reading from 14734: heap size 163 MB, throughput 0.992878
Reading from 14734: heap size 164 MB, throughput 0.98259
Reading from 14734: heap size 164 MB, throughput 0.989429
Reading from 14734: heap size 164 MB, throughput 0.933636
Reading from 14734: heap size 164 MB, throughput 0.95102
Reading from 14734: heap size 162 MB, throughput 0.859137
Reading from 14734: heap size 169 MB, throughput 0.984872
Reading from 14734: heap size 168 MB, throughput 0.994211
Reading from 14734: heap size 169 MB, throughput 0.994901
Reading from 14734: heap size 170 MB, throughput 0.987751
Reading from 14734: heap size 170 MB, throughput 0.987332
Reading from 14734: heap size 170 MB, throughput 0.993214
Reading from 14734: heap size 170 MB, throughput 0.971663
Reading from 14734: heap size 170 MB, throughput 0.985473
Reading from 14734: heap size 170 MB, throughput 0.98477
Reading from 14734: heap size 171 MB, throughput 0.986314
Reading from 14734: heap size 171 MB, throughput 0.988018
Reading from 14734: heap size 171 MB, throughput 0.99067
Reading from 14734: heap size 171 MB, throughput 0.902998
Reading from 14734: heap size 165 MB, throughput 0.975995
Reading from 14734: heap size 168 MB, throughput 0.991582
Reading from 14734: heap size 167 MB, throughput 0.995171
Reading from 14734: heap size 168 MB, throughput 0.993728
Reading from 14734: heap size 169 MB, throughput 0.99066
Reading from 14734: heap size 169 MB, throughput 0.983893
Reading from 14734: heap size 169 MB, throughput 0.987373
Reading from 14734: heap size 169 MB, throughput 0.991379
Reading from 14734: heap size 169 MB, throughput 0.973277
Reading from 14734: heap size 170 MB, throughput 0.984734
Reading from 14734: heap size 170 MB, throughput 0.999975
Reading from 14734: heap size 170 MB, throughput 1
Reading from 14734: heap size 170 MB, throughput 0.716793
Reading from 14734: heap size 170 MB, throughput 0.984041
Reading from 14734: heap size 171 MB, throughput 0.985409
Reading from 14734: heap size 167 MB, throughput 0.987191
Reading from 14734: heap size 170 MB, throughput 0.909252
Reading from 14734: heap size 171 MB, throughput 0.975425
Reading from 14734: heap size 166 MB, throughput 0.98367
Reading from 14734: heap size 168 MB, throughput 0.992511
Reading from 14734: heap size 167 MB, throughput 0.995119
Reading from 14734: heap size 168 MB, throughput 0.980756
Reading from 14734: heap size 169 MB, throughput 0.991017
Reading from 14734: heap size 169 MB, throughput 0.99157
Reading from 14734: heap size 169 MB, throughput 0.988607
Reading from 14734: heap size 162 MB, throughput 0.97114
Reading from 14734: heap size 169 MB, throughput 0.986807
Reading from 14734: heap size 169 MB, throughput 0.977566
Reading from 14734: heap size 169 MB, throughput 0.986078
Reading from 14734: heap size 169 MB, throughput 0.988299
Reading from 14734: heap size 171 MB, throughput 0.986503
Reading from 14734: heap size 171 MB, throughput 0.894409
Reading from 14734: heap size 164 MB, throughput 0.977798
Reading from 14734: heap size 167 MB, throughput 0.992998
Reading from 14734: heap size 166 MB, throughput 0.990817
Reading from 14734: heap size 167 MB, throughput 0.993718
Reading from 14734: heap size 167 MB, throughput 0.988587
Reading from 14734: heap size 168 MB, throughput 0.797295
Reading from 14734: heap size 176 MB, throughput 0.994102
Reading from 14734: heap size 176 MB, throughput 0.993884
Reading from 14734: heap size 177 MB, throughput 0.968
Reading from 14734: heap size 177 MB, throughput 0.980539
Reading from 14734: heap size 177 MB, throughput 0.988092
Reading from 14734: heap size 178 MB, throughput 0.991237
Reading from 14734: heap size 179 MB, throughput 0.988064
Reading from 14734: heap size 179 MB, throughput 0.992061
Reading from 14734: heap size 179 MB, throughput 0.897905
Reading from 14734: heap size 179 MB, throughput 0.972937
Reading from 14734: heap size 176 MB, throughput 0.991692
Reading from 14734: heap size 177 MB, throughput 0.990274
Reading from 14734: heap size 176 MB, throughput 0.994461
Reading from 14734: heap size 177 MB, throughput 0.990075
Reading from 14734: heap size 177 MB, throughput 0.987749
Reading from 14734: heap size 177 MB, throughput 0.989542
Reading from 14734: heap size 178 MB, throughput 0.991714
Reading from 14734: heap size 178 MB, throughput 0.971604
Reading from 14734: heap size 178 MB, throughput 0.985649
Reading from 14734: heap size 178 MB, throughput 0.981131
Reading from 14734: heap size 179 MB, throughput 0.985138
Reading from 14734: heap size 179 MB, throughput 0.98754
Reading from 14734: heap size 179 MB, throughput 0.976901
Reading from 14734: heap size 179 MB, throughput 0.910384
Reading from 14734: heap size 175 MB, throughput 0.980126
Reading from 14734: heap size 177 MB, throughput 0.987477
Reading from 14734: heap size 176 MB, throughput 0.986402
Reading from 14734: heap size 177 MB, throughput 0.994521
Reading from 14734: heap size 178 MB, throughput 0.980937
Reading from 14734: heap size 178 MB, throughput 0.980814
Reading from 14734: heap size 178 MB, throughput 0.992676
Reading from 14734: heap size 178 MB, throughput 0.988006
Reading from 14734: heap size 177 MB, throughput 0.980736
Reading from 14734: heap size 178 MB, throughput 0.980185
Reading from 14734: heap size 178 MB, throughput 0.989786
Reading from 14734: heap size 178 MB, throughput 0.9845
Reading from 14734: heap size 179 MB, throughput 0.987383
Reading from 14734: heap size 179 MB, throughput 0.932931
Reading from 14734: heap size 174 MB, throughput 0.943572
Reading from 14734: heap size 177 MB, throughput 0.990999
Reading from 14734: heap size 176 MB, throughput 0.984523
Reading from 14734: heap size 177 MB, throughput 0.990153
Reading from 14734: heap size 177 MB, throughput 0.994709
Reading from 14734: heap size 178 MB, throughput 0.982649
Reading from 14734: heap size 178 MB, throughput 0.981878
Reading from 14734: heap size 178 MB, throughput 0.992592
Reading from 14734: heap size 177 MB, throughput 0.954043
Reading from 14734: heap size 178 MB, throughput 0.981975
Reading from 14734: heap size 178 MB, throughput 0.986247
Reading from 14734: heap size 178 MB, throughput 0.986822
Reading from 14734: heap size 179 MB, throughput 0.815294
Reading from 14734: heap size 174 MB, throughput 0.991395
Reading from 14734: heap size 174 MB, throughput 0.903299
Reading from 14734: heap size 174 MB, throughput 0.974864
Reading from 14734: heap size 169 MB, throughput 0.993138
Reading from 14734: heap size 172 MB, throughput 0.990936
Reading from 14734: heap size 171 MB, throughput 0.995196
Reading from 14734: heap size 172 MB, throughput 0.991726
Reading from 14734: heap size 171 MB, throughput 0.987302
Reading from 14734: heap size 172 MB, throughput 0.988409
Reading from 14734: heap size 173 MB, throughput 0.988034
Reading from 14734: heap size 173 MB, throughput 0.978105
Reading from 14734: heap size 173 MB, throughput 0.986116
Reading from 14734: heap size 173 MB, throughput 0.982787
Reading from 14734: heap size 173 MB, throughput 0.986127
Reading from 14734: heap size 174 MB, throughput 0.986267
Reading from 14734: heap size 174 MB, throughput 0.975355
Reading from 14734: heap size 174 MB, throughput 0.908996
Reading from 14734: heap size 170 MB, throughput 0.980959
Reading from 14734: heap size 172 MB, throughput 0.988822
Reading from 14734: heap size 171 MB, throughput 0.989002
Reading from 14734: heap size 172 MB, throughput 0.995356
Reading from 14734: heap size 173 MB, throughput 0.979584
Reading from 14734: heap size 173 MB, throughput 0.988924
Reading from 14734: heap size 173 MB, throughput 0.990384
Reading from 14734: heap size 167 MB, throughput 0.983463
Reading from 14734: heap size 173 MB, throughput 0.980464
Reading from 14734: heap size 172 MB, throughput 0.986051
Reading from 14734: heap size 173 MB, throughput 0.991683
Reading from 14734: heap size 173 MB, throughput 0.986496
Reading from 14734: heap size 173 MB, throughput 0.989139
Reading from 14734: heap size 174 MB, throughput 0.93595
Reading from 14734: heap size 169 MB, throughput 0.950879
Reading from 14734: heap size 172 MB, throughput 0.987385
Reading from 14734: heap size 170 MB, throughput 0.988691
Reading from 14734: heap size 171 MB, throughput 0.993363
Reading from 14734: heap size 172 MB, throughput 0.995433
Reading from 14734: heap size 173 MB, throughput 0.979441
Reading from 14734: heap size 173 MB, throughput 0.989552
Reading from 14734: heap size 173 MB, throughput 0.992314
Reading from 14734: heap size 173 MB, throughput 0.962448
Reading from 14734: heap size 167 MB, throughput 0.981039
Reading from 14734: heap size 173 MB, throughput 0.983444
Reading from 14734: heap size 173 MB, throughput 0.985297
Reading from 14734: heap size 174 MB, throughput 0.987569
Reading from 14734: heap size 174 MB, throughput 0.999989
Reading from 14734: heap size 174 MB, throughput 1
Reading from 14734: heap size 174 MB, throughput 0.0495173
Reading from 14734: heap size 174 MB, throughput 0.902654
Reading from 14734: heap size 174 MB, throughput 0.789546
Reading from 14734: heap size 180 MB, throughput 0.993967
Reading from 14734: heap size 181 MB, throughput 0.985962
Reading from 14734: heap size 181 MB, throughput 0.994286
Reading from 14734: heap size 181 MB, throughput 0.991473
Reading from 14734: heap size 181 MB, throughput 0.984431
Reading from 14734: heap size 181 MB, throughput 0.987484
Reading from 14734: heap size 182 MB, throughput 0.990434
Reading from 14734: heap size 182 MB, throughput 0.975127
Reading from 14734: heap size 182 MB, throughput 0.987573
Reading from 14734: heap size 182 MB, throughput 0.98174
Reading from 14734: heap size 183 MB, throughput 0.9881
Reading from 14734: heap size 183 MB, throughput 0.985447
Reading from 14734: heap size 183 MB, throughput 0.975434
Reading from 14734: heap size 183 MB, throughput 0.91142
Reading from 14734: heap size 179 MB, throughput 0.982116
Reading from 14734: heap size 181 MB, throughput 0.988798
Reading from 14734: heap size 180 MB, throughput 0.991755
Reading from 14734: heap size 181 MB, throughput 0.994105
Reading from 14734: heap size 182 MB, throughput 0.984818
Reading from 14734: heap size 182 MB, throughput 0.984655
Reading from 14734: heap size 182 MB, throughput 0.993097
Reading from 14734: heap size 182 MB, throughput 0.98183
Reading from 14734: heap size 181 MB, throughput 0.978617
Reading from 14734: heap size 182 MB, throughput 0.982784
Reading from 14734: heap size 182 MB, throughput 0.994235
Reading from 14734: heap size 182 MB, throughput 0.982842
Reading from 14734: heap size 183 MB, throughput 0.989856
Reading from 14734: heap size 183 MB, throughput 0.907815
Reading from 14734: heap size 178 MB, throughput 0.943046
Reading from 14734: heap size 181 MB, throughput 0.991965
Reading from 14734: heap size 180 MB, throughput 0.986868
Reading from 14734: heap size 181 MB, throughput 0.994741
Reading from 14734: heap size 180 MB, throughput 0.993472
Reading from 14734: heap size 181 MB, throughput 0.986271
Reading from 14734: heap size 182 MB, throughput 0.983405
Reading from 14734: heap size 182 MB, throughput 0.993369
Reading from 14734: heap size 181 MB, throughput 0.964425
Reading from 14734: heap size 182 MB, throughput 0.999964
Reading from 14734: heap size 182 MB, throughput 1
Reading from 14734: heap size 182 MB, throughput 0.23033
Reading from 14734: heap size 182 MB, throughput 0.984295
Reading from 14734: heap size 182 MB, throughput 0.988642
Reading from 14734: heap size 183 MB, throughput 0.981014
Reading from 14734: heap size 183 MB, throughput 0.987666
Reading from 14734: heap size 182 MB, throughput 0.910351
Reading from 14734: heap size 183 MB, throughput 0.973788
Reading from 14734: heap size 179 MB, throughput 0.989999
Reading from 14734: heap size 181 MB, throughput 0.991795
Reading from 14734: heap size 180 MB, throughput 0.994019
Reading from 14734: heap size 181 MB, throughput 0.980002
Reading from 14734: heap size 181 MB, throughput 0.987932
Reading from 14734: heap size 181 MB, throughput 0.99255
Reading from 14734: heap size 180 MB, throughput 0.991527
Reading from 14734: heap size 181 MB, throughput 0.954793
Reading from 14734: heap size 181 MB, throughput 0.981876
Reading from 14734: heap size 181 MB, throughput 0.981592
Reading from 14734: heap size 182 MB, throughput 0.984957
Reading from 14734: heap size 182 MB, throughput 0.988311
Reading from 14734: heap size 182 MB, throughput 0.986939
Reading from 14734: heap size 182 MB, throughput 0.449452
Reading from 14734: heap size 184 MB, throughput 0.991545
Reading from 14734: heap size 187 MB, throughput 0.992552
Reading from 14734: heap size 186 MB, throughput 0.988416
Reading from 14734: heap size 187 MB, throughput 0.993345
Reading from 14734: heap size 186 MB, throughput 0.992516
Reading from 14734: heap size 187 MB, throughput 0.986119
Reading from 14734: heap size 187 MB, throughput 0.988335
Reading from 14734: heap size 188 MB, throughput 0.993021
Reading from 14734: heap size 189 MB, throughput 0.976068
Reading from 14734: heap size 183 MB, throughput 0.988314
Reading from 14734: heap size 189 MB, throughput 0.981511
Reading from 14734: heap size 189 MB, throughput 0.98828
Reading from 14734: heap size 189 MB, throughput 0.986367
Reading from 14734: heap size 189 MB, throughput 0.988862
Reading from 14734: heap size 190 MB, throughput 0.907815
Reading from 14734: heap size 190 MB, throughput 0.974946
Reading from 14734: heap size 185 MB, throughput 0.99338
Reading from 14734: heap size 188 MB, throughput 0.987869
Reading from 14734: heap size 187 MB, throughput 0.993761
Reading from 14734: heap size 187 MB, throughput 0.989035
Reading from 14734: heap size 187 MB, throughput 0.982855
Reading from 14734: heap size 188 MB, throughput 0.987206
Reading from 14734: heap size 188 MB, throughput 0.991699
Reading from 14734: heap size 188 MB, throughput 0.972103
Reading from 14734: heap size 190 MB, throughput 0.98428
Reading from 14734: heap size 184 MB, throughput 0.982921
Reading from 14734: heap size 189 MB, throughput 0.988073
Reading from 14734: heap size 189 MB, throughput 0.999993
Reading from 14734: heap size 189 MB, throughput 0.956522
Reading from 14734: heap size 189 MB, throughput 0.0309746
Reading from 14734: heap size 190 MB, throughput 0.980271
Reading from 14734: heap size 190 MB, throughput 0.861037
Reading from 14734: heap size 179 MB, throughput 0.972472
Reading from 14734: heap size 184 MB, throughput 0.992562
Reading from 14734: heap size 183 MB, throughput 0.979505
Reading from 14734: heap size 184 MB, throughput 0.991676
Reading from 14734: heap size 184 MB, throughput 0.994743
Reading from 14734: heap size 184 MB, throughput 0.972492
Reading from 14734: heap size 186 MB, throughput 0.987053
Reading from 14734: heap size 186 MB, throughput 0.992401
Reading from 14734: heap size 185 MB, throughput 0.979302
Reading from 14734: heap size 186 MB, throughput 0.975353
Reading from 14734: heap size 186 MB, throughput 0.982196
Reading from 14734: heap size 186 MB, throughput 0.981124
Reading from 14734: heap size 188 MB, throughput 0.98715
Reading from 14734: heap size 188 MB, throughput 0.984414
Reading from 14734: heap size 188 MB, throughput 0.991975
Reading from 14734: heap size 188 MB, throughput 0.91397
Reading from 14734: heap size 184 MB, throughput 0.951543
Reading from 14734: heap size 187 MB, throughput 0.99082
Reading from 14734: heap size 185 MB, throughput 0.981034
Reading from 14734: heap size 186 MB, throughput 0.989134
Reading from 14734: heap size 187 MB, throughput 0.992608
Reading from 14734: heap size 188 MB, throughput 0.801655
Reading from 14734: heap size 191 MB, throughput 0.994231
Reading from 14734: heap size 191 MB, throughput 0.993151
Reading from 14734: heap size 190 MB, throughput 0.979318
Reading from 14734: heap size 191 MB, throughput 0.984876
Reading from 14734: heap size 191 MB, throughput 0.985509
Reading from 14734: heap size 191 MB, throughput 0.992112
Reading from 14734: heap size 192 MB, throughput 0.983937
Reading from 14734: heap size 192 MB, throughput 0.99096
Reading from 14734: heap size 192 MB, throughput 0.89942
Reading from 14734: heap size 192 MB, throughput 0.967011
Reading from 14734: heap size 188 MB, throughput 0.990284
Reading from 14734: heap size 190 MB, throughput 0.982525
Reading from 14734: heap size 189 MB, throughput 0.991487
Reading from 14734: heap size 190 MB, throughput 0.987531
Reading from 14734: heap size 190 MB, throughput 0.987938
Reading from 14734: heap size 190 MB, throughput 0.989874
Reading from 14734: heap size 192 MB, throughput 0.99221
Reading from 14734: heap size 192 MB, throughput 0.966727
Reading from 14734: heap size 191 MB, throughput 0.982965
Reading from 14734: heap size 192 MB, throughput 0.985295
Reading from 14734: heap size 192 MB, throughput 0.990228
Reading from 14734: heap size 192 MB, throughput 0.988317
Reading from 14734: heap size 193 MB, throughput 0.987876
Reading from 14734: heap size 193 MB, throughput 0.908968
Reading from 14734: heap size 187 MB, throughput 0.975019
Reading from 14734: heap size 190 MB, throughput 0.99164
Reading from 14734: heap size 188 MB, throughput 0.988685
Reading from 14734: heap size 189 MB, throughput 0.995878
Reading from 14734: heap size 190 MB, throughput 0.982088
Reading from 14734: heap size 190 MB, throughput 0.988859
Reading from 14734: heap size 191 MB, throughput 0.990812
Reading from 14734: heap size 183 MB, throughput 0.988392
Reading from 14734: heap size 190 MB, throughput 0.957812
Reading from 14734: heap size 190 MB, throughput 0.98067
Reading from 14734: heap size 191 MB, throughput 0.981769
Reading from 14734: heap size 191 MB, throughput 0.987537
Reading from 14734: heap size 192 MB, throughput 0.990104
Reading from 14734: heap size 187 MB, throughput 0.989875
Reading from 14734: heap size 192 MB, throughput 0.897844
Reading from 14734: heap size 192 MB, throughput 0.975254
Reading from 14734: heap size 188 MB, throughput 0.992611
Reading from 14734: heap size 190 MB, throughput 0.984314
Reading from 14734: heap size 188 MB, throughput 0.99293
Reading from 14734: heap size 189 MB, throughput 0.983806
Reading from 14734: heap size 191 MB, throughput 0.983798
Reading from 14734: heap size 191 MB, throughput 0.991445
Reading from 14734: heap size 190 MB, throughput 0.987845
Reading from 14734: heap size 190 MB, throughput 0.960576
Reading from 14734: heap size 191 MB, throughput 0.983802
Reading from 14734: heap size 191 MB, throughput 0.980339
Reading from 14734: heap size 191 MB, throughput 0.984832
Reading from 14734: heap size 191 MB, throughput 0.987285
Reading from 14734: heap size 191 MB, throughput 0.985801
Reading from 14734: heap size 192 MB, throughput 0.895782
Reading from 14734: heap size 187 MB, throughput 0.751088
Reading from 14734: heap size 193 MB, throughput 0.992298
Reading from 14734: heap size 192 MB, throughput 0.991366
Reading from 14734: heap size 193 MB, throughput 0.995784
Reading from 14734: heap size 194 MB, throughput 0.999992
Reading from 14734: heap size 194 MB, throughput 0.962963
Reading from 14734: heap size 194 MB, throughput 0.0923006
Reading from 14734: heap size 194 MB, throughput 0.978963
Reading from 14734: heap size 193 MB, throughput 0.978135
Reading from 14734: heap size 194 MB, throughput 0.991545
Reading from 14734: heap size 193 MB, throughput 0.967803
Reading from 14734: heap size 193 MB, throughput 0.983785
Reading from 14734: heap size 193 MB, throughput 0.983371
Reading from 14734: heap size 194 MB, throughput 0.989642
Reading from 14734: heap size 195 MB, throughput 0.984195
Reading from 14734: heap size 195 MB, throughput 0.991395
Reading from 14734: heap size 195 MB, throughput 0.906567
Reading from 14734: heap size 195 MB, throughput 0.954735
Reading from 14734: heap size 193 MB, throughput 0.991426
Reading from 14734: heap size 194 MB, throughput 0.987248
Reading from 14734: heap size 193 MB, throughput 0.994236
Reading from 14734: heap size 193 MB, throughput 0.992723
Reading from 14734: heap size 193 MB, throughput 0.982057
Reading from 14734: heap size 194 MB, throughput 0.987285
Reading from 14734: heap size 195 MB, throughput 0.992354
Reading from 14734: heap size 189 MB, throughput 0.981324
Reading from 14734: heap size 195 MB, throughput 0.981597
Reading from 14734: heap size 195 MB, throughput 0.987385
Reading from 14734: heap size 195 MB, throughput 0.985028
Reading from 14734: heap size 195 MB, throughput 0.999992
Reading from 14734: heap size 195 MB, throughput 0.962963
Reading from 14734: heap size 195 MB, throughput 0.0807565
Reading from 14734: heap size 195 MB, throughput 0.988839
Reading from 14734: heap size 196 MB, throughput 0.824337
Reading from 14734: heap size 185 MB, throughput 0.962156
Reading from 14734: heap size 191 MB, throughput 0.990627
Reading from 14734: heap size 190 MB, throughput 0.98453
Reading from 14734: heap size 190 MB, throughput 0.993538
Reading from 14734: heap size 190 MB, throughput 0.99371
Reading from 14734: heap size 191 MB, throughput 0.976112
Reading from 14734: heap size 192 MB, throughput 0.989595
Reading from 14734: heap size 192 MB, throughput 0.991801
Reading from 14734: heap size 192 MB, throughput 0.990099
Reading from 14734: heap size 192 MB, throughput 0.96623
Reading from 14734: heap size 192 MB, throughput 0.983854
Reading from 14734: heap size 193 MB, throughput 0.999982
Reading from 14734: heap size 193 MB, throughput 1
Reading from 14734: heap size 193 MB, throughput 0.645924
Reading from 14734: heap size 193 MB, throughput 0.985829
Reading from 14734: heap size 194 MB, throughput 0.980006
Reading from 14734: heap size 194 MB, throughput 0.991834
Reading from 14734: heap size 194 MB, throughput 0.892032
Reading from 14734: heap size 190 MB, throughput 0.945441
Reading from 14734: heap size 193 MB, throughput 0.989083
Reading from 14734: heap size 191 MB, throughput 0.985519
Reading from 14734: heap size 192 MB, throughput 0.98946
Reading from 14734: heap size 193 MB, throughput 0.993683
Reading from 14734: heap size 194 MB, throughput 0.983872
Reading from 14734: heap size 194 MB, throughput 0.988238
Reading from 14734: heap size 194 MB, throughput 0.991836
Reading from 14734: heap size 194 MB, throughput 0.982056
Reading from 14734: heap size 194 MB, throughput 0.974558
Reading from 14734: heap size 194 MB, throughput 0.980799
Reading from 14734: heap size 194 MB, throughput 0.990265
Reading from 14734: heap size 195 MB, throughput 0.982945
Reading from 14734: heap size 195 MB, throughput 0.841924
Reading from 14734: heap size 192 MB, throughput 0.938437
Reading from 14734: heap size 192 MB, throughput 0.959081
Reading from 14734: heap size 188 MB, throughput 0.988779
Reading from 14734: heap size 190 MB, throughput 0.988309
Reading from 14734: heap size 189 MB, throughput 0.994491
Reading from 14734: heap size 189 MB, throughput 0.995689
Reading from 14734: heap size 190 MB, throughput 0.982473
Reading from 14734: heap size 190 MB, throughput 0.989597
Reading from 14734: heap size 190 MB, throughput 0.992238
Reading from 14734: heap size 190 MB, throughput 0.962149
Reading from 14734: heap size 190 MB, throughput 0.985416
Reading from 14734: heap size 190 MB, throughput 0.9886
Reading from 14734: heap size 190 MB, throughput 0.988082
Reading from 14734: heap size 191 MB, throughput 0.985818
Reading from 14734: heap size 191 MB, throughput 0.989724
Reading from 14734: heap size 191 MB, throughput 0.904918
Reading from 14734: heap size 186 MB, throughput 0.965816
Reading from 14734: heap size 189 MB, throughput 0.993584
Reading from 14734: heap size 188 MB, throughput 0.979855
Reading from 14734: heap size 189 MB, throughput 0.990261
Reading from 14734: heap size 190 MB, throughput 0.993437
Reading from 14734: heap size 190 MB, throughput 0.986214
Reading from 14734: heap size 190 MB, throughput 0.989021
Reading from 14734: heap size 190 MB, throughput 0.992553
Reading from 14734: heap size 191 MB, throughput 0.973911
Reading from 14734: heap size 185 MB, throughput 0.984663
Reading from 14734: heap size 191 MB, throughput 0.9851
Reading from 14734: heap size 191 MB, throughput 0.986424
Reading from 14734: heap size 191 MB, throughput 0.986501
Reading from 14734: heap size 191 MB, throughput 0.983333
Reading from 14734: heap size 191 MB, throughput 0.9157
Reading from 14734: heap size 192 MB, throughput 0.973398
Reading from 14734: heap size 186 MB, throughput 0.989945
Reading from 14734: heap size 189 MB, throughput 0.990632
Reading from 14734: heap size 188 MB, throughput 0.994873
Reading from 14734: heap size 189 MB, throughput 0.977562
Reading from 14734: heap size 189 MB, throughput 0.999994
Reading from 14734: heap size 189 MB, throughput 1
Reading from 14734: heap size 189 MB, throughput 0.590452
Reading from 14734: heap size 189 MB, throughput 0.991535
Reading from 14734: heap size 188 MB, throughput 0.991767
Reading from 14734: heap size 189 MB, throughput 0.971628
Reading from 14734: heap size 190 MB, throughput 0.9825
Reading from 14734: heap size 190 MB, throughput 0.981341
Reading from 14734: heap size 190 MB, throughput 0.988331
Reading from 14734: heap size 190 MB, throughput 0.989222
Reading from 14734: heap size 190 MB, throughput 0.985402
Reading from 14734: heap size 191 MB, throughput 0.889089
Reading from 14734: heap size 185 MB, throughput 0.976532
Reading from 14734: heap size 188 MB, throughput 0.991432
Reading from 14734: heap size 187 MB, throughput 0.9839
Reading from 14734: heap size 188 MB, throughput 0.992125
Reading from 14734: heap size 189 MB, throughput 0.988906
Reading from 14734: heap size 189 MB, throughput 0.987724
Reading from 14734: heap size 189 MB, throughput 0.988579
Reading from 14734: heap size 189 MB, throughput 0.991564
Reading from 14734: heap size 190 MB, throughput 0.981907
Reading from 14734: heap size 190 MB, throughput 0.978299
Reading from 14734: heap size 190 MB, throughput 0.985561
Reading from 14734: heap size 190 MB, throughput 0.987066
Reading from 14734: heap size 190 MB, throughput 0.83245
Reading from 14734: heap size 196 MB, throughput 0.991431
Reading from 14734: heap size 195 MB, throughput 0.999965
Reading from 14734: heap size 195 MB, throughput 1
Reading from 14734: heap size 195 MB, throughput 0.343415
Reading from 14734: heap size 196 MB, throughput 0.971968
Reading from 14734: heap size 192 MB, throughput 0.992743
Reading from 14734: heap size 194 MB, throughput 0.979392
Reading from 14734: heap size 192 MB, throughput 0.988568
Reading from 14734: heap size 193 MB, throughput 0.994622
Reading from 14734: heap size 194 MB, throughput 0.980764
Reading from 14734: heap size 195 MB, throughput 0.990277
Reading from 14734: heap size 195 MB, throughput 0.989982
Reading from 14734: heap size 189 MB, throughput 0.977491
Reading from 14734: heap size 195 MB, throughput 0.985322
Reading from 14734: heap size 195 MB, throughput 0.984865
Reading from 14734: heap size 195 MB, throughput 0.988896
Reading from 14734: heap size 195 MB, throughput 0.985594
Reading from 14734: heap size 196 MB, throughput 0.989428
Reading from 14734: heap size 196 MB, throughput 0.898821
Reading from 14734: heap size 191 MB, throughput 0.975314
Reading from 14734: heap size 194 MB, throughput 0.990916
Reading from 14734: heap size 193 MB, throughput 0.982234
Reading from 14734: heap size 193 MB, throughput 0.991318
Reading from 14734: heap size 194 MB, throughput 0.991526
Reading from 14734: heap size 194 MB, throughput 0.986494
Reading from 14734: heap size 194 MB, throughput 0.982799
Reading from 14734: heap size 194 MB, throughput 0.992539
Reading from 14734: heap size 196 MB, throughput 0.963971
Reading from 14734: heap size 189 MB, throughput 0.98571
Reading from 14734: heap size 195 MB, throughput 0.988721
Reading from 14734: heap size 195 MB, throughput 0.986818
Reading from 14734: heap size 195 MB, throughput 0.987308
Reading from 14734: heap size 196 MB, throughput 0.992637
Reading from 14734: heap size 195 MB, throughput 0.897356
Reading from 14734: heap size 196 MB, throughput 0.978983
Reading from 14734: heap size 193 MB, throughput 0.992068
Reading from 14734: heap size 194 MB, throughput 0.983906
Reading from 14734: heap size 194 MB, throughput 0.991737
Reading from 14734: heap size 194 MB, throughput 0.99165
Reading from 14734: heap size 194 MB, throughput 0.986737
Reading from 14734: heap size 194 MB, throughput 0.989049
Reading from 14734: heap size 196 MB, throughput 0.990852
Reading from 14734: heap size 196 MB, throughput 0.96725
Reading from 14734: heap size 195 MB, throughput 0.983198
Reading from 14734: heap size 196 MB, throughput 0.979959
Reading from 14734: heap size 196 MB, throughput 0.986722
Reading from 14734: heap size 196 MB, throughput 0.989579
Reading from 14734: heap size 197 MB, throughput 0.979556
Reading from 14734: heap size 197 MB, throughput 0.908422
Reading from 14734: heap size 190 MB, throughput 0.968969
Reading from 14734: heap size 193 MB, throughput 0.98633
Reading from 14734: heap size 192 MB, throughput 0.991067
Reading from 14734: heap size 193 MB, throughput 0.994459
Reading from 14734: heap size 194 MB, throughput 0.984101
Reading from 14734: heap size 194 MB, throughput 0.983286
Reading from 14734: heap size 193 MB, throughput 0.987791
Reading from 14734: heap size 194 MB, throughput 0.991928
Reading from 14734: heap size 194 MB, throughput 0.963108
Reading from 14734: heap size 194 MB, throughput 0.982436
Reading from 14734: heap size 194 MB, throughput 0.980338
Reading from 14734: heap size 195 MB, throughput 0.986868
Reading from 14734: heap size 196 MB, throughput 0.986046
Reading from 14734: heap size 196 MB, throughput 0.988791
Reading from 14734: heap size 195 MB, throughput 0.464457
Reading from 14734: heap size 202 MB, throughput 0.989747
Reading from 14734: heap size 199 MB, throughput 0.992555
Reading from 14734: heap size 200 MB, throughput 0.99056
Reading from 14734: heap size 199 MB, throughput 0.995339
Reading from 14734: heap size 200 MB, throughput 0.983556
Reading from 14734: heap size 201 MB, throughput 0.985945
Reading from 14734: heap size 201 MB, throughput 0.991943
Reading from 14734: heap size 200 MB, throughput 0.991743
Reading from 14734: heap size 200 MB, throughput 0.968783
Reading from 14734: heap size 200 MB, throughput 0.985625
Reading from 14734: heap size 201 MB, throughput 0.981374
Reading from 14734: heap size 202 MB, throughput 0.987221
Reading from 14734: heap size 202 MB, throughput 0.988881
Reading from 14734: heap size 201 MB, throughput 0.990613
Reading from 14734: heap size 202 MB, throughput 0.895017
Reading from 14734: heap size 197 MB, throughput 0.970666
Reading from 14734: heap size 200 MB, throughput 0.991367
Reading from 14734: heap size 199 MB, throughput 0.985545
Reading from 14734: heap size 199 MB, throughput 0.994285
Reading from 14734: heap size 199 MB, throughput 0.992208
Reading from 14734: heap size 200 MB, throughput 0.986798
Reading from 14734: heap size 200 MB, throughput 0.987325
Reading from 14734: heap size 200 MB, throughput 0.992652
Reading from 14734: heap size 201 MB, throughput 0.974382
Reading from 14734: heap size 201 MB, throughput 0.982259
Reading from 14734: heap size 201 MB, throughput 0.981242
Reading from 14734: heap size 202 MB, throughput 0.988823
Reading from 14734: heap size 203 MB, throughput 0.986835
Reading from 14734: heap size 199 MB, throughput 0.987358
Reading from 14734: heap size 202 MB, throughput 0.897679
Reading from 14734: heap size 202 MB, throughput 0.973652
Reading from 14734: heap size 197 MB, throughput 0.989807
Reading from 14734: heap size 200 MB, throughput 0.99182
Reading from 14734: heap size 198 MB, throughput 0.993962
Reading from 14734: heap size 199 MB, throughput 0.990137
Reading from 14734: heap size 200 MB, throughput 0.988379
Reading from 14734: heap size 200 MB, throughput 0.988435
Reading from 14734: heap size 201 MB, throughput 0.989592
Reading from 14734: heap size 201 MB, throughput 0.975285
Reading from 14734: heap size 201 MB, throughput 0.985333
Reading from 14734: heap size 201 MB, throughput 0.981198
Reading from 14734: heap size 202 MB, throughput 0.986615
Reading from 14734: heap size 202 MB, throughput 0.988623
Reading from 14734: heap size 202 MB, throughput 0.983558
Reading from 14734: heap size 202 MB, throughput 0.904465
Reading from 14734: heap size 195 MB, throughput 0.976623
Reading from 14734: heap size 199 MB, throughput 0.991654
Reading from 14734: heap size 197 MB, throughput 0.987312
Reading from 14734: heap size 198 MB, throughput 0.994462
Reading from 14734: heap size 199 MB, throughput 0.986531
Reading from 14734: heap size 199 MB, throughput 0.987633
Reading from 14734: heap size 200 MB, throughput 0.988759
Reading from 14734: heap size 200 MB, throughput 0.992501
Reading from 14734: heap size 200 MB, throughput 0.975183
Reading from 14734: heap size 200 MB, throughput 0.975191
Reading from 14734: heap size 201 MB, throughput 0.985268
Reading from 14734: heap size 201 MB, throughput 0.986607
Reading from 14734: heap size 202 MB, throughput 0.984376
Reading from 14734: heap size 197 MB, throughput 0.990521
Reading from 14734: heap size 202 MB, throughput 0.892825
Reading from 14734: heap size 202 MB, throughput 0.771083
Reading from 14734: heap size 199 MB, throughput 0.991802
Reading from 14734: heap size 200 MB, throughput 0.984957
Reading from 14734: heap size 200 MB, throughput 0.992657
Reading from 14734: heap size 200 MB, throughput 0.990822
Reading from 14734: heap size 200 MB, throughput 0.983738
Reading from 14734: heap size 200 MB, throughput 0.989525
Reading from 14734: heap size 202 MB, throughput 0.991581
Reading from 14734: heap size 202 MB, throughput 0.971345
Reading from 14734: heap size 201 MB, throughput 0.984717
Reading from 14734: heap size 202 MB, throughput 0.980317
Client 14734 died
Clients: 0
ReadingThread: finished
TimerThread: finished
CommandThread: finished
Main: All threads killed, cleaning up
