===== DaCapo 9.12 pmd starting warmup 1 =====
===== DaCapo 9.12 pmd completed warmup 1 in 11992 msec =====
===== DaCapo 9.12 pmd starting warmup 2 =====
===== DaCapo 9.12 pmd completed warmup 2 in 4638 msec =====
===== DaCapo 9.12 pmd starting warmup 3 =====
===== DaCapo 9.12 pmd completed warmup 3 in 3704 msec =====
===== DaCapo 9.12 pmd starting warmup 4 =====
===== DaCapo 9.12 pmd completed warmup 4 in 3704 msec =====
===== DaCapo 9.12 pmd starting warmup 5 =====
===== DaCapo 9.12 pmd completed warmup 5 in 3893 msec =====
===== DaCapo 9.12 pmd starting warmup 6 =====
===== DaCapo 9.12 pmd completed warmup 6 in 4010 msec =====
===== DaCapo 9.12 pmd starting warmup 7 =====
===== DaCapo 9.12 pmd completed warmup 7 in 3753 msec =====
===== DaCapo 9.12 pmd starting warmup 8 =====
===== DaCapo 9.12 pmd completed warmup 8 in 3841 msec =====
===== DaCapo 9.12 pmd starting warmup 9 =====
===== DaCapo 9.12 pmd completed warmup 9 in 3587 msec =====
===== DaCapo 9.12 pmd starting warmup 10 =====
===== DaCapo 9.12 pmd completed warmup 10 in 3657 msec =====
===== DaCapo 9.12 pmd starting warmup 11 =====
===== DaCapo 9.12 pmd completed warmup 11 in 3561 msec =====
===== DaCapo 9.12 pmd starting warmup 12 =====
===== DaCapo 9.12 pmd completed warmup 12 in 3538 msec =====
===== DaCapo 9.12 pmd starting warmup 13 =====
===== DaCapo 9.12 pmd completed warmup 13 in 3425 msec =====
===== DaCapo 9.12 pmd starting warmup 14 =====
===== DaCapo 9.12 pmd completed warmup 14 in 3738 msec =====
===== DaCapo 9.12 pmd starting warmup 15 =====
===== DaCapo 9.12 pmd completed warmup 15 in 3504 msec =====
===== DaCapo 9.12 pmd starting warmup 16 =====
===== DaCapo 9.12 pmd completed warmup 16 in 3621 msec =====
===== DaCapo 9.12 pmd starting warmup 17 =====
===== DaCapo 9.12 pmd completed warmup 17 in 3815 msec =====
===== DaCapo 9.12 pmd starting warmup 18 =====
===== DaCapo 9.12 pmd completed warmup 18 in 3539 msec =====
===== DaCapo 9.12 pmd starting warmup 19 =====
===== DaCapo 9.12 pmd completed warmup 19 in 3591 msec =====
===== DaCapo 9.12 pmd starting warmup 20 =====
===== DaCapo 9.12 pmd completed warmup 20 in 3614 msec =====
===== DaCapo 9.12 pmd starting warmup 21 =====
===== DaCapo 9.12 pmd completed warmup 21 in 3601 msec =====
===== DaCapo 9.12 pmd starting warmup 22 =====
===== DaCapo 9.12 pmd completed warmup 22 in 3644 msec =====
===== DaCapo 9.12 pmd starting warmup 23 =====
===== DaCapo 9.12 pmd completed warmup 23 in 3366 msec =====
===== DaCapo 9.12 pmd starting warmup 24 =====
===== DaCapo 9.12 pmd completed warmup 24 in 3533 msec =====
===== DaCapo 9.12 pmd starting warmup 25 =====
===== DaCapo 9.12 pmd completed warmup 25 in 3571 msec =====
===== DaCapo 9.12 pmd starting warmup 26 =====
===== DaCapo 9.12 pmd completed warmup 26 in 3660 msec =====
===== DaCapo 9.12 pmd starting warmup 27 =====
===== DaCapo 9.12 pmd completed warmup 27 in 3588 msec =====
===== DaCapo 9.12 pmd starting warmup 28 =====
===== DaCapo 9.12 pmd completed warmup 28 in 3389 msec =====
===== DaCapo 9.12 pmd starting warmup 29 =====
===== DaCapo 9.12 pmd completed warmup 29 in 3457 msec =====
===== DaCapo 9.12 pmd starting warmup 30 =====
===== DaCapo 9.12 pmd completed warmup 30 in 3554 msec =====
===== DaCapo 9.12 pmd starting warmup 31 =====
===== DaCapo 9.12 pmd completed warmup 31 in 3634 msec =====
===== DaCapo 9.12 pmd starting warmup 32 =====
===== DaCapo 9.12 pmd completed warmup 32 in 3536 msec =====
===== DaCapo 9.12 pmd starting warmup 33 =====
===== DaCapo 9.12 pmd completed warmup 33 in 3454 msec =====
===== DaCapo 9.12 pmd starting warmup 34 =====
===== DaCapo 9.12 pmd completed warmup 34 in 3342 msec =====
===== DaCapo 9.12 pmd starting warmup 35 =====
===== DaCapo 9.12 pmd completed warmup 35 in 3318 msec =====
===== DaCapo 9.12 pmd starting warmup 36 =====
===== DaCapo 9.12 pmd completed warmup 36 in 3515 msec =====
===== DaCapo 9.12 pmd starting warmup 37 =====
===== DaCapo 9.12 pmd completed warmup 37 in 3270 msec =====
===== DaCapo 9.12 pmd starting warmup 38 =====
===== DaCapo 9.12 pmd completed warmup 38 in 3541 msec =====
===== DaCapo 9.12 pmd starting warmup 39 =====
===== DaCapo 9.12 pmd completed warmup 39 in 3382 msec =====
===== DaCapo 9.12 pmd starting warmup 40 =====
===== DaCapo 9.12 pmd completed warmup 40 in 2918 msec =====
===== DaCapo 9.12 pmd starting warmup 41 =====
===== DaCapo 9.12 pmd completed warmup 41 in 2904 msec =====
===== DaCapo 9.12 pmd starting warmup 42 =====
===== DaCapo 9.12 pmd completed warmup 42 in 2926 msec =====
===== DaCapo 9.12 pmd starting warmup 43 =====
===== DaCapo 9.12 pmd completed warmup 43 in 2936 msec =====
===== DaCapo 9.12 pmd starting warmup 44 =====
===== DaCapo 9.12 pmd completed warmup 44 in 2857 msec =====
===== DaCapo 9.12 pmd starting warmup 45 =====
===== DaCapo 9.12 pmd completed warmup 45 in 2906 msec =====
===== DaCapo 9.12 pmd starting warmup 46 =====
===== DaCapo 9.12 pmd completed warmup 46 in 2898 msec =====
===== DaCapo 9.12 pmd starting warmup 47 =====
===== DaCapo 9.12 pmd completed warmup 47 in 2905 msec =====
===== DaCapo 9.12 pmd starting warmup 48 =====
===== DaCapo 9.12 pmd completed warmup 48 in 2787 msec =====
===== DaCapo 9.12 pmd starting warmup 49 =====
===== DaCapo 9.12 pmd completed warmup 49 in 2905 msec =====
===== DaCapo 9.12 pmd starting warmup 50 =====
===== DaCapo 9.12 pmd completed warmup 50 in 2864 msec =====
===== DaCapo 9.12 pmd starting warmup 51 =====
===== DaCapo 9.12 pmd completed warmup 51 in 2825 msec =====
===== DaCapo 9.12 pmd starting warmup 52 =====
===== DaCapo 9.12 pmd completed warmup 52 in 2915 msec =====
===== DaCapo 9.12 pmd starting warmup 53 =====
===== DaCapo 9.12 pmd completed warmup 53 in 2931 msec =====
===== DaCapo 9.12 pmd starting warmup 54 =====
===== DaCapo 9.12 pmd completed warmup 54 in 2924 msec =====
===== DaCapo 9.12 pmd starting warmup 55 =====
===== DaCapo 9.12 pmd completed warmup 55 in 3001 msec =====
===== DaCapo 9.12 pmd starting warmup 56 =====
===== DaCapo 9.12 pmd completed warmup 56 in 2804 msec =====
===== DaCapo 9.12 pmd starting warmup 57 =====
===== DaCapo 9.12 pmd completed warmup 57 in 2841 msec =====
===== DaCapo 9.12 pmd starting warmup 58 =====
===== DaCapo 9.12 pmd completed warmup 58 in 2876 msec =====
===== DaCapo 9.12 pmd starting warmup 59 =====
===== DaCapo 9.12 pmd completed warmup 59 in 2865 msec =====
===== DaCapo 9.12 pmd starting warmup 60 =====
===== DaCapo 9.12 pmd completed warmup 60 in 3026 msec =====
===== DaCapo 9.12 pmd starting warmup 61 =====
===== DaCapo 9.12 pmd completed warmup 61 in 2896 msec =====
===== DaCapo 9.12 pmd starting warmup 62 =====
===== DaCapo 9.12 pmd completed warmup 62 in 2853 msec =====
===== DaCapo 9.12 pmd starting warmup 63 =====
===== DaCapo 9.12 pmd completed warmup 63 in 2924 msec =====
===== DaCapo 9.12 pmd starting warmup 64 =====
===== DaCapo 9.12 pmd completed warmup 64 in 2826 msec =====
===== DaCapo 9.12 pmd starting warmup 65 =====
===== DaCapo 9.12 pmd completed warmup 65 in 2861 msec =====
===== DaCapo 9.12 pmd starting warmup 66 =====
===== DaCapo 9.12 pmd completed warmup 66 in 2900 msec =====
===== DaCapo 9.12 pmd starting warmup 67 =====
===== DaCapo 9.12 pmd completed warmup 67 in 2884 msec =====
===== DaCapo 9.12 pmd starting warmup 68 =====
===== DaCapo 9.12 pmd completed warmup 68 in 2885 msec =====
===== DaCapo 9.12 pmd starting warmup 69 =====
===== DaCapo 9.12 pmd completed warmup 69 in 2953 msec =====
===== DaCapo 9.12 pmd starting warmup 70 =====
===== DaCapo 9.12 pmd completed warmup 70 in 2926 msec =====
===== DaCapo 9.12 pmd starting warmup 71 =====
===== DaCapo 9.12 pmd completed warmup 71 in 2823 msec =====
===== DaCapo 9.12 pmd starting warmup 72 =====
===== DaCapo 9.12 pmd completed warmup 72 in 2822 msec =====
===== DaCapo 9.12 pmd starting warmup 73 =====
===== DaCapo 9.12 pmd completed warmup 73 in 2872 msec =====
===== DaCapo 9.12 pmd starting warmup 74 =====
===== DaCapo 9.12 pmd completed warmup 74 in 2879 msec =====
===== DaCapo 9.12 pmd starting warmup 75 =====
===== DaCapo 9.12 pmd completed warmup 75 in 2804 msec =====
===== DaCapo 9.12 pmd starting warmup 76 =====
===== DaCapo 9.12 pmd completed warmup 76 in 2870 msec =====
===== DaCapo 9.12 pmd starting warmup 77 =====
===== DaCapo 9.12 pmd completed warmup 77 in 2955 msec =====
===== DaCapo 9.12 pmd starting warmup 78 =====
===== DaCapo 9.12 pmd completed warmup 78 in 2933 msec =====
===== DaCapo 9.12 pmd starting warmup 79 =====
===== DaCapo 9.12 pmd completed warmup 79 in 2857 msec =====
===== DaCapo 9.12 pmd starting warmup 80 =====
===== DaCapo 9.12 pmd completed warmup 80 in 3019 msec =====
===== DaCapo 9.12 pmd starting warmup 81 =====
===== DaCapo 9.12 pmd completed warmup 81 in 2871 msec =====
===== DaCapo 9.12 pmd starting warmup 82 =====
===== DaCapo 9.12 pmd completed warmup 82 in 2914 msec =====
===== DaCapo 9.12 pmd starting warmup 83 =====
===== DaCapo 9.12 pmd completed warmup 83 in 2793 msec =====
===== DaCapo 9.12 pmd starting warmup 84 =====
===== DaCapo 9.12 pmd completed warmup 84 in 2925 msec =====
===== DaCapo 9.12 pmd starting warmup 85 =====
===== DaCapo 9.12 pmd completed warmup 85 in 2886 msec =====
===== DaCapo 9.12 pmd starting warmup 86 =====
===== DaCapo 9.12 pmd completed warmup 86 in 2858 msec =====
===== DaCapo 9.12 pmd starting warmup 87 =====
===== DaCapo 9.12 pmd completed warmup 87 in 2981 msec =====
===== DaCapo 9.12 pmd starting warmup 88 =====
===== DaCapo 9.12 pmd completed warmup 88 in 2925 msec =====
===== DaCapo 9.12 pmd starting warmup 89 =====
===== DaCapo 9.12 pmd completed warmup 89 in 2821 msec =====
===== DaCapo 9.12 pmd starting warmup 90 =====
===== DaCapo 9.12 pmd completed warmup 90 in 2798 msec =====
===== DaCapo 9.12 pmd starting warmup 91 =====
===== DaCapo 9.12 pmd completed warmup 91 in 2865 msec =====
===== DaCapo 9.12 pmd starting warmup 92 =====
===== DaCapo 9.12 pmd completed warmup 92 in 2808 msec =====
===== DaCapo 9.12 pmd starting warmup 93 =====
===== DaCapo 9.12 pmd completed warmup 93 in 3036 msec =====
===== DaCapo 9.12 pmd starting warmup 94 =====
===== DaCapo 9.12 pmd completed warmup 94 in 2818 msec =====
===== DaCapo 9.12 pmd starting warmup 95 =====
===== DaCapo 9.12 pmd completed warmup 95 in 2863 msec =====
===== DaCapo 9.12 pmd starting warmup 96 =====
===== DaCapo 9.12 pmd completed warmup 96 in 2962 msec =====
===== DaCapo 9.12 pmd starting warmup 97 =====
===== DaCapo 9.12 pmd completed warmup 97 in 2877 msec =====
===== DaCapo 9.12 pmd starting warmup 98 =====
===== DaCapo 9.12 pmd completed warmup 98 in 2938 msec =====
===== DaCapo 9.12 pmd starting warmup 99 =====
===== DaCapo 9.12 pmd completed warmup 99 in 2875 msec =====
===== DaCapo 9.12 pmd starting warmup 100 =====
===== DaCapo 9.12 pmd completed warmup 100 in 2886 msec =====
===== DaCapo 9.12 pmd starting warmup 101 =====
===== DaCapo 9.12 pmd completed warmup 101 in 2932 msec =====
===== DaCapo 9.12 pmd starting warmup 102 =====
===== DaCapo 9.12 pmd completed warmup 102 in 2789 msec =====
===== DaCapo 9.12 pmd starting warmup 103 =====
===== DaCapo 9.12 pmd completed warmup 103 in 2721 msec =====
===== DaCapo 9.12 pmd starting warmup 104 =====
===== DaCapo 9.12 pmd completed warmup 104 in 2966 msec =====
===== DaCapo 9.12 pmd starting warmup 105 =====
===== DaCapo 9.12 pmd completed warmup 105 in 2807 msec =====
===== DaCapo 9.12 pmd starting warmup 106 =====
===== DaCapo 9.12 pmd completed warmup 106 in 2963 msec =====
===== DaCapo 9.12 pmd starting warmup 107 =====
===== DaCapo 9.12 pmd completed warmup 107 in 2734 msec =====
===== DaCapo 9.12 pmd starting warmup 108 =====
===== DaCapo 9.12 pmd completed warmup 108 in 2810 msec =====
===== DaCapo 9.12 pmd starting warmup 109 =====
===== DaCapo 9.12 pmd completed warmup 109 in 2844 msec =====
===== DaCapo 9.12 pmd starting warmup 110 =====
===== DaCapo 9.12 pmd completed warmup 110 in 2941 msec =====
===== DaCapo 9.12 pmd starting warmup 111 =====
===== DaCapo 9.12 pmd completed warmup 111 in 2775 msec =====
===== DaCapo 9.12 pmd starting warmup 112 =====
===== DaCapo 9.12 pmd completed warmup 112 in 2837 msec =====
===== DaCapo 9.12 pmd starting warmup 113 =====
===== DaCapo 9.12 pmd completed warmup 113 in 2892 msec =====
===== DaCapo 9.12 pmd starting warmup 114 =====
===== DaCapo 9.12 pmd completed warmup 114 in 2857 msec =====
===== DaCapo 9.12 pmd starting warmup 115 =====
===== DaCapo 9.12 pmd completed warmup 115 in 2772 msec =====
===== DaCapo 9.12 pmd starting warmup 116 =====
===== DaCapo 9.12 pmd completed warmup 116 in 2737 msec =====
===== DaCapo 9.12 pmd starting warmup 117 =====
===== DaCapo 9.12 pmd completed warmup 117 in 2826 msec =====
===== DaCapo 9.12 pmd starting warmup 118 =====
===== DaCapo 9.12 pmd completed warmup 118 in 2780 msec =====
===== DaCapo 9.12 pmd starting warmup 119 =====
===== DaCapo 9.12 pmd completed warmup 119 in 2788 msec =====
===== DaCapo 9.12 pmd starting warmup 120 =====
===== DaCapo 9.12 pmd completed warmup 120 in 2669 msec =====
===== DaCapo 9.12 pmd starting warmup 121 =====
===== DaCapo 9.12 pmd completed warmup 121 in 2740 msec =====
===== DaCapo 9.12 pmd starting warmup 122 =====
===== DaCapo 9.12 pmd completed warmup 122 in 2775 msec =====
===== DaCapo 9.12 pmd starting warmup 123 =====
===== DaCapo 9.12 pmd completed warmup 123 in 2759 msec =====
===== DaCapo 9.12 pmd starting warmup 124 =====
===== DaCapo 9.12 pmd completed warmup 124 in 2857 msec =====
===== DaCapo 9.12 pmd starting warmup 125 =====
===== DaCapo 9.12 pmd completed warmup 125 in 2755 msec =====
===== DaCapo 9.12 pmd starting warmup 126 =====
===== DaCapo 9.12 pmd completed warmup 126 in 2641 msec =====
===== DaCapo 9.12 pmd starting warmup 127 =====
===== DaCapo 9.12 pmd completed warmup 127 in 2928 msec =====
===== DaCapo 9.12 pmd starting warmup 128 =====
===== DaCapo 9.12 pmd completed warmup 128 in 2733 msec =====
===== DaCapo 9.12 pmd starting warmup 129 =====
===== DaCapo 9.12 pmd completed warmup 129 in 2769 msec =====
===== DaCapo 9.12 pmd starting warmup 130 =====
===== DaCapo 9.12 pmd completed warmup 130 in 2793 msec =====
===== DaCapo 9.12 pmd starting warmup 131 =====
===== DaCapo 9.12 pmd completed warmup 131 in 2955 msec =====
===== DaCapo 9.12 pmd starting warmup 132 =====
===== DaCapo 9.12 pmd completed warmup 132 in 2812 msec =====
===== DaCapo 9.12 pmd starting warmup 133 =====
===== DaCapo 9.12 pmd completed warmup 133 in 2787 msec =====
===== DaCapo 9.12 pmd starting warmup 134 =====
===== DaCapo 9.12 pmd completed warmup 134 in 2879 msec =====
===== DaCapo 9.12 pmd starting warmup 135 =====
===== DaCapo 9.12 pmd completed warmup 135 in 2714 msec =====
===== DaCapo 9.12 pmd starting warmup 136 =====
===== DaCapo 9.12 pmd completed warmup 136 in 2798 msec =====
===== DaCapo 9.12 pmd starting warmup 137 =====
===== DaCapo 9.12 pmd completed warmup 137 in 2814 msec =====
===== DaCapo 9.12 pmd starting warmup 138 =====
===== DaCapo 9.12 pmd completed warmup 138 in 2952 msec =====
===== DaCapo 9.12 pmd starting warmup 139 =====
===== DaCapo 9.12 pmd completed warmup 139 in 2960 msec =====
===== DaCapo 9.12 pmd starting warmup 140 =====
===== DaCapo 9.12 pmd completed warmup 140 in 2860 msec =====
===== DaCapo 9.12 pmd starting warmup 141 =====
===== DaCapo 9.12 pmd completed warmup 141 in 2830 msec =====
===== DaCapo 9.12 pmd starting warmup 142 =====
===== DaCapo 9.12 pmd completed warmup 142 in 2876 msec =====
===== DaCapo 9.12 pmd starting warmup 143 =====
===== DaCapo 9.12 pmd completed warmup 143 in 2877 msec =====
===== DaCapo 9.12 pmd starting warmup 144 =====
===== DaCapo 9.12 pmd completed warmup 144 in 2869 msec =====
===== DaCapo 9.12 pmd starting warmup 145 =====
===== DaCapo 9.12 pmd completed warmup 145 in 2723 msec =====
===== DaCapo 9.12 pmd starting warmup 146 =====
===== DaCapo 9.12 pmd completed warmup 146 in 2727 msec =====
===== DaCapo 9.12 pmd starting warmup 147 =====
===== DaCapo 9.12 pmd completed warmup 147 in 2711 msec =====
===== DaCapo 9.12 pmd starting warmup 148 =====
===== DaCapo 9.12 pmd completed warmup 148 in 2747 msec =====
===== DaCapo 9.12 pmd starting warmup 149 =====
===== DaCapo 9.12 pmd completed warmup 149 in 2918 msec =====
===== DaCapo 9.12 pmd starting warmup 150 =====
===== DaCapo 9.12 pmd completed warmup 150 in 2893 msec =====
===== DaCapo 9.12 pmd starting warmup 151 =====
===== DaCapo 9.12 pmd completed warmup 151 in 2877 msec =====
===== DaCapo 9.12 pmd starting warmup 152 =====
===== DaCapo 9.12 pmd completed warmup 152 in 2780 msec =====
===== DaCapo 9.12 pmd starting warmup 153 =====
===== DaCapo 9.12 pmd completed warmup 153 in 2826 msec =====
===== DaCapo 9.12 pmd starting warmup 154 =====
===== DaCapo 9.12 pmd completed warmup 154 in 2784 msec =====
===== DaCapo 9.12 pmd starting warmup 155 =====
===== DaCapo 9.12 pmd completed warmup 155 in 2715 msec =====
===== DaCapo 9.12 pmd starting warmup 156 =====
===== DaCapo 9.12 pmd completed warmup 156 in 2793 msec =====
===== DaCapo 9.12 pmd starting warmup 157 =====
===== DaCapo 9.12 pmd completed warmup 157 in 2858 msec =====
===== DaCapo 9.12 pmd starting warmup 158 =====
===== DaCapo 9.12 pmd completed warmup 158 in 2881 msec =====
===== DaCapo 9.12 pmd starting warmup 159 =====
===== DaCapo 9.12 pmd completed warmup 159 in 2828 msec =====
===== DaCapo 9.12 pmd starting warmup 160 =====
===== DaCapo 9.12 pmd completed warmup 160 in 2782 msec =====
===== DaCapo 9.12 pmd starting warmup 161 =====
===== DaCapo 9.12 pmd completed warmup 161 in 2741 msec =====
===== DaCapo 9.12 pmd starting warmup 162 =====
===== DaCapo 9.12 pmd completed warmup 162 in 2870 msec =====
===== DaCapo 9.12 pmd starting warmup 163 =====
===== DaCapo 9.12 pmd completed warmup 163 in 2942 msec =====
===== DaCapo 9.12 pmd starting warmup 164 =====
===== DaCapo 9.12 pmd completed warmup 164 in 2863 msec =====
===== DaCapo 9.12 pmd starting warmup 165 =====
===== DaCapo 9.12 pmd completed warmup 165 in 2710 msec =====
===== DaCapo 9.12 pmd starting warmup 166 =====
===== DaCapo 9.12 pmd completed warmup 166 in 2764 msec =====
===== DaCapo 9.12 pmd starting warmup 167 =====
===== DaCapo 9.12 pmd completed warmup 167 in 2779 msec =====
===== DaCapo 9.12 pmd starting warmup 168 =====
===== DaCapo 9.12 pmd completed warmup 168 in 2726 msec =====
===== DaCapo 9.12 pmd starting warmup 169 =====
===== DaCapo 9.12 pmd completed warmup 169 in 2891 msec =====
===== DaCapo 9.12 pmd starting warmup 170 =====
===== DaCapo 9.12 pmd completed warmup 170 in 2878 msec =====
===== DaCapo 9.12 pmd starting warmup 171 =====
===== DaCapo 9.12 pmd completed warmup 171 in 2743 msec =====
===== DaCapo 9.12 pmd starting warmup 172 =====
===== DaCapo 9.12 pmd completed warmup 172 in 2776 msec =====
===== DaCapo 9.12 pmd starting warmup 173 =====
===== DaCapo 9.12 pmd completed warmup 173 in 2890 msec =====
===== DaCapo 9.12 pmd starting warmup 174 =====
===== DaCapo 9.12 pmd completed warmup 174 in 2852 msec =====
===== DaCapo 9.12 pmd starting warmup 175 =====
===== DaCapo 9.12 pmd completed warmup 175 in 2703 msec =====
===== DaCapo 9.12 pmd starting warmup 176 =====
===== DaCapo 9.12 pmd completed warmup 176 in 2744 msec =====
===== DaCapo 9.12 pmd starting warmup 177 =====
===== DaCapo 9.12 pmd completed warmup 177 in 2813 msec =====
===== DaCapo 9.12 pmd starting warmup 178 =====
===== DaCapo 9.12 pmd completed warmup 178 in 2788 msec =====
===== DaCapo 9.12 pmd starting warmup 179 =====
===== DaCapo 9.12 pmd completed warmup 179 in 2872 msec =====
===== DaCapo 9.12 pmd starting warmup 180 =====
===== DaCapo 9.12 pmd completed warmup 180 in 2823 msec =====
===== DaCapo 9.12 pmd starting warmup 181 =====
===== DaCapo 9.12 pmd completed warmup 181 in 2781 msec =====
===== DaCapo 9.12 pmd starting warmup 182 =====
===== DaCapo 9.12 pmd completed warmup 182 in 2783 msec =====
===== DaCapo 9.12 pmd starting warmup 183 =====
===== DaCapo 9.12 pmd completed warmup 183 in 2870 msec =====
===== DaCapo 9.12 pmd starting warmup 184 =====
===== DaCapo 9.12 pmd completed warmup 184 in 2860 msec =====
===== DaCapo 9.12 pmd starting warmup 185 =====
===== DaCapo 9.12 pmd completed warmup 185 in 2897 msec =====
===== DaCapo 9.12 pmd starting warmup 186 =====
===== DaCapo 9.12 pmd completed warmup 186 in 2848 msec =====
===== DaCapo 9.12 pmd starting warmup 187 =====
===== DaCapo 9.12 pmd completed warmup 187 in 2772 msec =====
===== DaCapo 9.12 pmd starting warmup 188 =====
===== DaCapo 9.12 pmd completed warmup 188 in 2848 msec =====
===== DaCapo 9.12 pmd starting warmup 189 =====
===== DaCapo 9.12 pmd completed warmup 189 in 2920 msec =====
===== DaCapo 9.12 pmd starting warmup 190 =====
===== DaCapo 9.12 pmd completed warmup 190 in 2760 msec =====
===== DaCapo 9.12 pmd starting warmup 191 =====
===== DaCapo 9.12 pmd completed warmup 191 in 2719 msec =====
===== DaCapo 9.12 pmd starting warmup 192 =====
===== DaCapo 9.12 pmd completed warmup 192 in 2828 msec =====
===== DaCapo 9.12 pmd starting warmup 193 =====
===== DaCapo 9.12 pmd completed warmup 193 in 2745 msec =====
===== DaCapo 9.12 pmd starting warmup 194 =====
===== DaCapo 9.12 pmd completed warmup 194 in 2897 msec =====
===== DaCapo 9.12 pmd starting warmup 195 =====
===== DaCapo 9.12 pmd completed warmup 195 in 2789 msec =====
===== DaCapo 9.12 pmd starting warmup 196 =====
===== DaCapo 9.12 pmd completed warmup 196 in 2886 msec =====
===== DaCapo 9.12 pmd starting warmup 197 =====
===== DaCapo 9.12 pmd completed warmup 197 in 2810 msec =====
===== DaCapo 9.12 pmd starting warmup 198 =====
===== DaCapo 9.12 pmd completed warmup 198 in 2780 msec =====
===== DaCapo 9.12 pmd starting warmup 199 =====
===== DaCapo 9.12 pmd completed warmup 199 in 2887 msec =====
===== DaCapo 9.12 pmd starting warmup 200 =====
===== DaCapo 9.12 pmd completed warmup 200 in 2748 msec =====
===== DaCapo 9.12 pmd starting warmup 201 =====
===== DaCapo 9.12 pmd completed warmup 201 in 2925 msec =====
===== DaCapo 9.12 pmd starting warmup 202 =====
===== DaCapo 9.12 pmd completed warmup 202 in 2946 msec =====
===== DaCapo 9.12 pmd starting warmup 203 =====
===== DaCapo 9.12 pmd completed warmup 203 in 2802 msec =====
===== DaCapo 9.12 pmd starting warmup 204 =====
===== DaCapo 9.12 pmd completed warmup 204 in 2813 msec =====
===== DaCapo 9.12 pmd starting warmup 205 =====
===== DaCapo 9.12 pmd completed warmup 205 in 2754 msec =====
===== DaCapo 9.12 pmd starting warmup 206 =====
===== DaCapo 9.12 pmd completed warmup 206 in 2785 msec =====
===== DaCapo 9.12 pmd starting warmup 207 =====
===== DaCapo 9.12 pmd completed warmup 207 in 2818 msec =====
===== DaCapo 9.12 pmd starting warmup 208 =====
===== DaCapo 9.12 pmd completed warmup 208 in 2889 msec =====
===== DaCapo 9.12 pmd starting warmup 209 =====
===== DaCapo 9.12 pmd completed warmup 209 in 2872 msec =====
===== DaCapo 9.12 pmd starting warmup 210 =====
===== DaCapo 9.12 pmd completed warmup 210 in 2929 msec =====
===== DaCapo 9.12 pmd starting warmup 211 =====
===== DaCapo 9.12 pmd completed warmup 211 in 2845 msec =====
===== DaCapo 9.12 pmd starting warmup 212 =====
===== DaCapo 9.12 pmd completed warmup 212 in 2827 msec =====
===== DaCapo 9.12 pmd starting warmup 213 =====
===== DaCapo 9.12 pmd completed warmup 213 in 2713 msec =====
===== DaCapo 9.12 pmd starting warmup 214 =====
===== DaCapo 9.12 pmd completed warmup 214 in 2805 msec =====
===== DaCapo 9.12 pmd starting warmup 215 =====
===== DaCapo 9.12 pmd completed warmup 215 in 2880 msec =====
===== DaCapo 9.12 pmd starting warmup 216 =====
===== DaCapo 9.12 pmd completed warmup 216 in 2787 msec =====
===== DaCapo 9.12 pmd starting warmup 217 =====
===== DaCapo 9.12 pmd completed warmup 217 in 2864 msec =====
===== DaCapo 9.12 pmd starting warmup 218 =====
===== DaCapo 9.12 pmd completed warmup 218 in 2765 msec =====
===== DaCapo 9.12 pmd starting warmup 219 =====
===== DaCapo 9.12 pmd completed warmup 219 in 2708 msec =====
===== DaCapo 9.12 pmd starting warmup 220 =====
===== DaCapo 9.12 pmd completed warmup 220 in 2731 msec =====
===== DaCapo 9.12 pmd starting warmup 221 =====
===== DaCapo 9.12 pmd completed warmup 221 in 2875 msec =====
===== DaCapo 9.12 pmd starting warmup 222 =====
===== DaCapo 9.12 pmd completed warmup 222 in 2773 msec =====
===== DaCapo 9.12 pmd starting warmup 223 =====
===== DaCapo 9.12 pmd completed warmup 223 in 2795 msec =====
===== DaCapo 9.12 pmd starting warmup 224 =====
===== DaCapo 9.12 pmd completed warmup 224 in 2758 msec =====
===== DaCapo 9.12 pmd starting warmup 225 =====
===== DaCapo 9.12 pmd completed warmup 225 in 2796 msec =====
===== DaCapo 9.12 pmd starting warmup 226 =====
===== DaCapo 9.12 pmd completed warmup 226 in 2875 msec =====
===== DaCapo 9.12 pmd starting warmup 227 =====
===== DaCapo 9.12 pmd completed warmup 227 in 2913 msec =====
===== DaCapo 9.12 pmd starting warmup 228 =====
===== DaCapo 9.12 pmd completed warmup 228 in 2948 msec =====
===== DaCapo 9.12 pmd starting warmup 229 =====
===== DaCapo 9.12 pmd completed warmup 229 in 2679 msec =====
===== DaCapo 9.12 pmd starting warmup 230 =====
===== DaCapo 9.12 pmd completed warmup 230 in 2780 msec =====
===== DaCapo 9.12 pmd starting warmup 231 =====
===== DaCapo 9.12 pmd completed warmup 231 in 2731 msec =====
===== DaCapo 9.12 pmd starting warmup 232 =====
===== DaCapo 9.12 pmd completed warmup 232 in 2766 msec =====
===== DaCapo 9.12 pmd starting warmup 233 =====
===== DaCapo 9.12 pmd completed warmup 233 in 2799 msec =====
===== DaCapo 9.12 pmd starting warmup 234 =====
===== DaCapo 9.12 pmd completed warmup 234 in 2913 msec =====
===== DaCapo 9.12 pmd starting warmup 235 =====
===== DaCapo 9.12 pmd completed warmup 235 in 2800 msec =====
===== DaCapo 9.12 pmd starting warmup 236 =====
===== DaCapo 9.12 pmd completed warmup 236 in 2804 msec =====
===== DaCapo 9.12 pmd starting warmup 237 =====
===== DaCapo 9.12 pmd completed warmup 237 in 2757 msec =====
===== DaCapo 9.12 pmd starting warmup 238 =====
===== DaCapo 9.12 pmd completed warmup 238 in 2718 msec =====
===== DaCapo 9.12 pmd starting warmup 239 =====
===== DaCapo 9.12 pmd completed warmup 239 in 2756 msec =====
===== DaCapo 9.12 pmd starting warmup 240 =====
===== DaCapo 9.12 pmd completed warmup 240 in 2743 msec =====
===== DaCapo 9.12 pmd starting warmup 241 =====
===== DaCapo 9.12 pmd completed warmup 241 in 2756 msec =====
===== DaCapo 9.12 pmd starting warmup 242 =====
===== DaCapo 9.12 pmd completed warmup 242 in 2726 msec =====
===== DaCapo 9.12 pmd starting warmup 243 =====
===== DaCapo 9.12 pmd completed warmup 243 in 2823 msec =====
===== DaCapo 9.12 pmd starting warmup 244 =====
===== DaCapo 9.12 pmd completed warmup 244 in 2838 msec =====
===== DaCapo 9.12 pmd starting warmup 245 =====
===== DaCapo 9.12 pmd completed warmup 245 in 2725 msec =====
===== DaCapo 9.12 pmd starting warmup 246 =====
===== DaCapo 9.12 pmd completed warmup 246 in 2741 msec =====
===== DaCapo 9.12 pmd starting warmup 247 =====
===== DaCapo 9.12 pmd completed warmup 247 in 2782 msec =====
===== DaCapo 9.12 pmd starting warmup 248 =====
===== DaCapo 9.12 pmd completed warmup 248 in 2759 msec =====
===== DaCapo 9.12 pmd starting warmup 249 =====
===== DaCapo 9.12 pmd completed warmup 249 in 2772 msec =====
===== DaCapo 9.12 pmd starting warmup 250 =====
===== DaCapo 9.12 pmd completed warmup 250 in 2711 msec =====
===== DaCapo 9.12 pmd starting warmup 251 =====
===== DaCapo 9.12 pmd completed warmup 251 in 2796 msec =====
===== DaCapo 9.12 pmd starting warmup 252 =====
===== DaCapo 9.12 pmd completed warmup 252 in 2743 msec =====
===== DaCapo 9.12 pmd starting warmup 253 =====
===== DaCapo 9.12 pmd completed warmup 253 in 2850 msec =====
===== DaCapo 9.12 pmd starting warmup 254 =====
===== DaCapo 9.12 pmd completed warmup 254 in 2732 msec =====
===== DaCapo 9.12 pmd starting warmup 255 =====
===== DaCapo 9.12 pmd completed warmup 255 in 2676 msec =====
===== DaCapo 9.12 pmd starting warmup 256 =====
===== DaCapo 9.12 pmd completed warmup 256 in 2775 msec =====
===== DaCapo 9.12 pmd starting warmup 257 =====
===== DaCapo 9.12 pmd completed warmup 257 in 2803 msec =====
===== DaCapo 9.12 pmd starting warmup 258 =====
===== DaCapo 9.12 pmd completed warmup 258 in 2771 msec =====
===== DaCapo 9.12 pmd starting warmup 259 =====
===== DaCapo 9.12 pmd completed warmup 259 in 2736 msec =====
===== DaCapo 9.12 pmd starting warmup 260 =====
===== DaCapo 9.12 pmd completed warmup 260 in 2892 msec =====
===== DaCapo 9.12 pmd starting warmup 261 =====
===== DaCapo 9.12 pmd completed warmup 261 in 2768 msec =====
===== DaCapo 9.12 pmd starting warmup 262 =====
===== DaCapo 9.12 pmd completed warmup 262 in 2708 msec =====
===== DaCapo 9.12 pmd starting warmup 263 =====
===== DaCapo 9.12 pmd completed warmup 263 in 2863 msec =====
===== DaCapo 9.12 pmd starting warmup 264 =====
===== DaCapo 9.12 pmd completed warmup 264 in 2826 msec =====
===== DaCapo 9.12 pmd starting warmup 265 =====
===== DaCapo 9.12 pmd completed warmup 265 in 2713 msec =====
===== DaCapo 9.12 pmd starting warmup 266 =====
===== DaCapo 9.12 pmd completed warmup 266 in 2768 msec =====
===== DaCapo 9.12 pmd starting warmup 267 =====
===== DaCapo 9.12 pmd completed warmup 267 in 2617 msec =====
===== DaCapo 9.12 pmd starting warmup 268 =====
===== DaCapo 9.12 pmd completed warmup 268 in 2691 msec =====
===== DaCapo 9.12 pmd starting warmup 269 =====
===== DaCapo 9.12 pmd completed warmup 269 in 2755 msec =====
===== DaCapo 9.12 pmd starting warmup 270 =====
===== DaCapo 9.12 pmd completed warmup 270 in 2888 msec =====
===== DaCapo 9.12 pmd starting warmup 271 =====
===== DaCapo 9.12 pmd completed warmup 271 in 2815 msec =====
===== DaCapo 9.12 pmd starting warmup 272 =====
===== DaCapo 9.12 pmd completed warmup 272 in 2845 msec =====
===== DaCapo 9.12 pmd starting warmup 273 =====
===== DaCapo 9.12 pmd completed warmup 273 in 2758 msec =====
===== DaCapo 9.12 pmd starting warmup 274 =====
===== DaCapo 9.12 pmd completed warmup 274 in 2998 msec =====
===== DaCapo 9.12 pmd starting warmup 275 =====
===== DaCapo 9.12 pmd completed warmup 275 in 2769 msec =====
===== DaCapo 9.12 pmd starting warmup 276 =====
===== DaCapo 9.12 pmd completed warmup 276 in 2819 msec =====
===== DaCapo 9.12 pmd starting warmup 277 =====
===== DaCapo 9.12 pmd completed warmup 277 in 2743 msec =====
===== DaCapo 9.12 pmd starting warmup 278 =====
===== DaCapo 9.12 pmd completed warmup 278 in 2699 msec =====
===== DaCapo 9.12 pmd starting warmup 279 =====
===== DaCapo 9.12 pmd completed warmup 279 in 2726 msec =====
===== DaCapo 9.12 pmd starting warmup 280 =====
===== DaCapo 9.12 pmd completed warmup 280 in 2733 msec =====
===== DaCapo 9.12 pmd starting warmup 281 =====
===== DaCapo 9.12 pmd completed warmup 281 in 2763 msec =====
===== DaCapo 9.12 pmd starting warmup 282 =====
===== DaCapo 9.12 pmd completed warmup 282 in 2762 msec =====
===== DaCapo 9.12 pmd starting warmup 283 =====
===== DaCapo 9.12 pmd completed warmup 283 in 2918 msec =====
===== DaCapo 9.12 pmd starting warmup 284 =====
===== DaCapo 9.12 pmd completed warmup 284 in 2727 msec =====
===== DaCapo 9.12 pmd starting warmup 285 =====
===== DaCapo 9.12 pmd completed warmup 285 in 2860 msec =====
===== DaCapo 9.12 pmd starting warmup 286 =====
===== DaCapo 9.12 pmd completed warmup 286 in 2847 msec =====
===== DaCapo 9.12 pmd starting warmup 287 =====
===== DaCapo 9.12 pmd completed warmup 287 in 2788 msec =====
===== DaCapo 9.12 pmd starting warmup 288 =====
===== DaCapo 9.12 pmd completed warmup 288 in 2803 msec =====
===== DaCapo 9.12 pmd starting warmup 289 =====
===== DaCapo 9.12 pmd completed warmup 289 in 2765 msec =====
===== DaCapo 9.12 pmd starting warmup 290 =====
===== DaCapo 9.12 pmd completed warmup 290 in 2785 msec =====
===== DaCapo 9.12 pmd starting warmup 291 =====
===== DaCapo 9.12 pmd completed warmup 291 in 2785 msec =====
===== DaCapo 9.12 pmd starting warmup 292 =====
===== DaCapo 9.12 pmd completed warmup 292 in 2674 msec =====
===== DaCapo 9.12 pmd starting warmup 293 =====
===== DaCapo 9.12 pmd completed warmup 293 in 2855 msec =====
===== DaCapo 9.12 pmd starting warmup 294 =====
===== DaCapo 9.12 pmd completed warmup 294 in 2614 msec =====
===== DaCapo 9.12 pmd starting warmup 295 =====
===== DaCapo 9.12 pmd completed warmup 295 in 2772 msec =====
===== DaCapo 9.12 pmd starting warmup 296 =====
===== DaCapo 9.12 pmd completed warmup 296 in 2724 msec =====
===== DaCapo 9.12 pmd starting warmup 297 =====
===== DaCapo 9.12 pmd completed warmup 297 in 2669 msec =====
===== DaCapo 9.12 pmd starting warmup 298 =====
===== DaCapo 9.12 pmd completed warmup 298 in 2832 msec =====
===== DaCapo 9.12 pmd starting warmup 299 =====
===== DaCapo 9.12 pmd completed warmup 299 in 2877 msec =====
===== DaCapo 9.12 pmd starting warmup 300 =====
===== DaCapo 9.12 pmd completed warmup 300 in 2933 msec =====
===== DaCapo 9.12 pmd starting warmup 301 =====
===== DaCapo 9.12 pmd completed warmup 301 in 2895 msec =====
===== DaCapo 9.12 pmd starting warmup 302 =====
===== DaCapo 9.12 pmd completed warmup 302 in 2839 msec =====
===== DaCapo 9.12 pmd starting warmup 303 =====
===== DaCapo 9.12 pmd completed warmup 303 in 2783 msec =====
===== DaCapo 9.12 pmd starting warmup 304 =====
===== DaCapo 9.12 pmd completed warmup 304 in 2680 msec =====
===== DaCapo 9.12 pmd starting warmup 305 =====
===== DaCapo 9.12 pmd completed warmup 305 in 2867 msec =====
===== DaCapo 9.12 pmd starting warmup 306 =====
===== DaCapo 9.12 pmd completed warmup 306 in 2837 msec =====
===== DaCapo 9.12 pmd starting warmup 307 =====
===== DaCapo 9.12 pmd completed warmup 307 in 2803 msec =====
===== DaCapo 9.12 pmd starting warmup 308 =====
===== DaCapo 9.12 pmd completed warmup 308 in 2709 msec =====
===== DaCapo 9.12 pmd starting warmup 309 =====
===== DaCapo 9.12 pmd completed warmup 309 in 2680 msec =====
===== DaCapo 9.12 pmd starting warmup 310 =====
===== DaCapo 9.12 pmd completed warmup 310 in 2898 msec =====
===== DaCapo 9.12 pmd starting warmup 311 =====
===== DaCapo 9.12 pmd completed warmup 311 in 2904 msec =====
===== DaCapo 9.12 pmd starting warmup 312 =====
===== DaCapo 9.12 pmd completed warmup 312 in 2709 msec =====
===== DaCapo 9.12 pmd starting warmup 313 =====
===== DaCapo 9.12 pmd completed warmup 313 in 2820 msec =====
===== DaCapo 9.12 pmd starting warmup 314 =====
===== DaCapo 9.12 pmd completed warmup 314 in 2802 msec =====
===== DaCapo 9.12 pmd starting warmup 315 =====
===== DaCapo 9.12 pmd completed warmup 315 in 2787 msec =====
===== DaCapo 9.12 pmd starting warmup 316 =====
===== DaCapo 9.12 pmd completed warmup 316 in 2710 msec =====
===== DaCapo 9.12 pmd starting warmup 317 =====
===== DaCapo 9.12 pmd completed warmup 317 in 2800 msec =====
===== DaCapo 9.12 pmd starting warmup 318 =====
===== DaCapo 9.12 pmd completed warmup 318 in 2931 msec =====
===== DaCapo 9.12 pmd starting warmup 319 =====
===== DaCapo 9.12 pmd completed warmup 319 in 2819 msec =====
===== DaCapo 9.12 pmd starting warmup 320 =====
===== DaCapo 9.12 pmd completed warmup 320 in 2873 msec =====
===== DaCapo 9.12 pmd starting warmup 321 =====
===== DaCapo 9.12 pmd completed warmup 321 in 2772 msec =====
===== DaCapo 9.12 pmd starting warmup 322 =====
===== DaCapo 9.12 pmd completed warmup 322 in 2813 msec =====
===== DaCapo 9.12 pmd starting warmup 323 =====
===== DaCapo 9.12 pmd completed warmup 323 in 2976 msec =====
===== DaCapo 9.12 pmd starting warmup 324 =====
===== DaCapo 9.12 pmd completed warmup 324 in 2876 msec =====
===== DaCapo 9.12 pmd starting warmup 325 =====
===== DaCapo 9.12 pmd completed warmup 325 in 2896 msec =====
===== DaCapo 9.12 pmd starting warmup 326 =====
===== DaCapo 9.12 pmd completed warmup 326 in 2785 msec =====
===== DaCapo 9.12 pmd starting warmup 327 =====
===== DaCapo 9.12 pmd completed warmup 327 in 2720 msec =====
===== DaCapo 9.12 pmd starting warmup 328 =====
===== DaCapo 9.12 pmd completed warmup 328 in 2775 msec =====
===== DaCapo 9.12 pmd starting warmup 329 =====
===== DaCapo 9.12 pmd completed warmup 329 in 2812 msec =====
===== DaCapo 9.12 pmd starting warmup 330 =====
===== DaCapo 9.12 pmd completed warmup 330 in 2787 msec =====
===== DaCapo 9.12 pmd starting warmup 331 =====
===== DaCapo 9.12 pmd completed warmup 331 in 2718 msec =====
===== DaCapo 9.12 pmd starting warmup 332 =====
===== DaCapo 9.12 pmd completed warmup 332 in 2688 msec =====
===== DaCapo 9.12 pmd starting warmup 333 =====
===== DaCapo 9.12 pmd completed warmup 333 in 2779 msec =====
===== DaCapo 9.12 pmd starting warmup 334 =====
===== DaCapo 9.12 pmd completed warmup 334 in 2741 msec =====
===== DaCapo 9.12 pmd starting warmup 335 =====
===== DaCapo 9.12 pmd completed warmup 335 in 2730 msec =====
===== DaCapo 9.12 pmd starting warmup 336 =====
===== DaCapo 9.12 pmd completed warmup 336 in 2743 msec =====
===== DaCapo 9.12 pmd starting warmup 337 =====
===== DaCapo 9.12 pmd completed warmup 337 in 2756 msec =====
===== DaCapo 9.12 pmd starting warmup 338 =====
===== DaCapo 9.12 pmd completed warmup 338 in 2785 msec =====
===== DaCapo 9.12 pmd starting warmup 339 =====
===== DaCapo 9.12 pmd completed warmup 339 in 2813 msec =====
===== DaCapo 9.12 pmd starting warmup 340 =====
===== DaCapo 9.12 pmd completed warmup 340 in 2900 msec =====
===== DaCapo 9.12 pmd starting warmup 341 =====
===== DaCapo 9.12 pmd completed warmup 341 in 2768 msec =====
===== DaCapo 9.12 pmd starting warmup 342 =====
===== DaCapo 9.12 pmd completed warmup 342 in 2792 msec =====
===== DaCapo 9.12 pmd starting warmup 343 =====
===== DaCapo 9.12 pmd completed warmup 343 in 2743 msec =====
===== DaCapo 9.12 pmd starting warmup 344 =====
===== DaCapo 9.12 pmd completed warmup 344 in 2765 msec =====
===== DaCapo 9.12 pmd starting warmup 345 =====
===== DaCapo 9.12 pmd completed warmup 345 in 2715 msec =====
===== DaCapo 9.12 pmd starting warmup 346 =====
===== DaCapo 9.12 pmd completed warmup 346 in 2751 msec =====
===== DaCapo 9.12 pmd starting warmup 347 =====
===== DaCapo 9.12 pmd completed warmup 347 in 2778 msec =====
===== DaCapo 9.12 pmd starting warmup 348 =====
===== DaCapo 9.12 pmd completed warmup 348 in 2797 msec =====
===== DaCapo 9.12 pmd starting warmup 349 =====
===== DaCapo 9.12 pmd completed warmup 349 in 2805 msec =====
===== DaCapo 9.12 pmd starting warmup 350 =====
===== DaCapo 9.12 pmd completed warmup 350 in 2858 msec =====
===== DaCapo 9.12 pmd starting warmup 351 =====
===== DaCapo 9.12 pmd completed warmup 351 in 2912 msec =====
===== DaCapo 9.12 pmd starting warmup 352 =====
===== DaCapo 9.12 pmd completed warmup 352 in 2903 msec =====
===== DaCapo 9.12 pmd starting warmup 353 =====
===== DaCapo 9.12 pmd completed warmup 353 in 2723 msec =====
===== DaCapo 9.12 pmd starting warmup 354 =====
===== DaCapo 9.12 pmd completed warmup 354 in 2713 msec =====
===== DaCapo 9.12 pmd starting warmup 355 =====
===== DaCapo 9.12 pmd completed warmup 355 in 2796 msec =====
===== DaCapo 9.12 pmd starting warmup 356 =====
===== DaCapo 9.12 pmd completed warmup 356 in 2739 msec =====
===== DaCapo 9.12 pmd starting warmup 357 =====
===== DaCapo 9.12 pmd completed warmup 357 in 2751 msec =====
===== DaCapo 9.12 pmd starting warmup 358 =====
===== DaCapo 9.12 pmd completed warmup 358 in 2842 msec =====
===== DaCapo 9.12 pmd starting warmup 359 =====
===== DaCapo 9.12 pmd completed warmup 359 in 2906 msec =====
===== DaCapo 9.12 pmd starting warmup 360 =====
===== DaCapo 9.12 pmd completed warmup 360 in 2725 msec =====
===== DaCapo 9.12 pmd starting warmup 361 =====
===== DaCapo 9.12 pmd completed warmup 361 in 2695 msec =====
===== DaCapo 9.12 pmd starting warmup 362 =====
===== DaCapo 9.12 pmd completed warmup 362 in 2770 msec =====
===== DaCapo 9.12 pmd starting warmup 363 =====
===== DaCapo 9.12 pmd completed warmup 363 in 2863 msec =====
===== DaCapo 9.12 pmd starting warmup 364 =====
===== DaCapo 9.12 pmd completed warmup 364 in 2747 msec =====
===== DaCapo 9.12 pmd starting warmup 365 =====
===== DaCapo 9.12 pmd completed warmup 365 in 2778 msec =====
===== DaCapo 9.12 pmd starting warmup 366 =====
===== DaCapo 9.12 pmd completed warmup 366 in 2831 msec =====
===== DaCapo 9.12 pmd starting warmup 367 =====
===== DaCapo 9.12 pmd completed warmup 367 in 2726 msec =====
===== DaCapo 9.12 pmd starting warmup 368 =====
===== DaCapo 9.12 pmd completed warmup 368 in 2708 msec =====
===== DaCapo 9.12 pmd starting warmup 369 =====
===== DaCapo 9.12 pmd completed warmup 369 in 2753 msec =====
===== DaCapo 9.12 pmd starting warmup 370 =====
===== DaCapo 9.12 pmd completed warmup 370 in 2731 msec =====
===== DaCapo 9.12 pmd starting warmup 371 =====
===== DaCapo 9.12 pmd completed warmup 371 in 2827 msec =====
===== DaCapo 9.12 pmd starting warmup 372 =====
===== DaCapo 9.12 pmd completed warmup 372 in 2738 msec =====
===== DaCapo 9.12 pmd starting warmup 373 =====
===== DaCapo 9.12 pmd completed warmup 373 in 2707 msec =====
===== DaCapo 9.12 pmd starting warmup 374 =====
===== DaCapo 9.12 pmd completed warmup 374 in 2747 msec =====
===== DaCapo 9.12 pmd starting warmup 375 =====
===== DaCapo 9.12 pmd completed warmup 375 in 2865 msec =====
===== DaCapo 9.12 pmd starting warmup 376 =====
===== DaCapo 9.12 pmd completed warmup 376 in 2765 msec =====
===== DaCapo 9.12 pmd starting warmup 377 =====
===== DaCapo 9.12 pmd completed warmup 377 in 2720 msec =====
===== DaCapo 9.12 pmd starting warmup 378 =====
===== DaCapo 9.12 pmd completed warmup 378 in 2836 msec =====
===== DaCapo 9.12 pmd starting warmup 379 =====
===== DaCapo 9.12 pmd completed warmup 379 in 2808 msec =====
===== DaCapo 9.12 pmd starting warmup 380 =====
===== DaCapo 9.12 pmd completed warmup 380 in 2860 msec =====
===== DaCapo 9.12 pmd starting warmup 381 =====
===== DaCapo 9.12 pmd completed warmup 381 in 2833 msec =====
===== DaCapo 9.12 pmd starting warmup 382 =====
===== DaCapo 9.12 pmd completed warmup 382 in 2863 msec =====
===== DaCapo 9.12 pmd starting warmup 383 =====
===== DaCapo 9.12 pmd completed warmup 383 in 2823 msec =====
===== DaCapo 9.12 pmd starting warmup 384 =====
===== DaCapo 9.12 pmd completed warmup 384 in 2781 msec =====
===== DaCapo 9.12 pmd starting warmup 385 =====
===== DaCapo 9.12 pmd completed warmup 385 in 2783 msec =====
===== DaCapo 9.12 pmd starting warmup 386 =====
===== DaCapo 9.12 pmd completed warmup 386 in 2770 msec =====
===== DaCapo 9.12 pmd starting warmup 387 =====
===== DaCapo 9.12 pmd completed warmup 387 in 2681 msec =====
===== DaCapo 9.12 pmd starting warmup 388 =====
===== DaCapo 9.12 pmd completed warmup 388 in 2923 msec =====
===== DaCapo 9.12 pmd starting warmup 389 =====
===== DaCapo 9.12 pmd completed warmup 389 in 2806 msec =====
===== DaCapo 9.12 pmd starting warmup 390 =====
===== DaCapo 9.12 pmd completed warmup 390 in 2832 msec =====
===== DaCapo 9.12 pmd starting warmup 391 =====
===== DaCapo 9.12 pmd completed warmup 391 in 2700 msec =====
===== DaCapo 9.12 pmd starting warmup 392 =====
===== DaCapo 9.12 pmd completed warmup 392 in 2768 msec =====
===== DaCapo 9.12 pmd starting warmup 393 =====
===== DaCapo 9.12 pmd completed warmup 393 in 2857 msec =====
===== DaCapo 9.12 pmd starting warmup 394 =====
===== DaCapo 9.12 pmd completed warmup 394 in 2817 msec =====
===== DaCapo 9.12 pmd starting warmup 395 =====
===== DaCapo 9.12 pmd completed warmup 395 in 2662 msec =====
===== DaCapo 9.12 pmd starting warmup 396 =====
===== DaCapo 9.12 pmd completed warmup 396 in 2701 msec =====
===== DaCapo 9.12 pmd starting warmup 397 =====
===== DaCapo 9.12 pmd completed warmup 397 in 2806 msec =====
===== DaCapo 9.12 pmd starting warmup 398 =====
===== DaCapo 9.12 pmd completed warmup 398 in 2713 msec =====
===== DaCapo 9.12 pmd starting warmup 399 =====
===== DaCapo 9.12 pmd completed warmup 399 in 2844 msec =====
===== DaCapo 9.12 pmd starting warmup 400 =====
===== DaCapo 9.12 pmd completed warmup 400 in 2784 msec =====
===== DaCapo 9.12 pmd starting warmup 401 =====
===== DaCapo 9.12 pmd completed warmup 401 in 2837 msec =====
===== DaCapo 9.12 pmd starting warmup 402 =====
===== DaCapo 9.12 pmd completed warmup 402 in 2817 msec =====
===== DaCapo 9.12 pmd starting warmup 403 =====
===== DaCapo 9.12 pmd completed warmup 403 in 2723 msec =====
===== DaCapo 9.12 pmd starting warmup 404 =====
===== DaCapo 9.12 pmd completed warmup 404 in 2777 msec =====
===== DaCapo 9.12 pmd starting warmup 405 =====
===== DaCapo 9.12 pmd completed warmup 405 in 2821 msec =====
===== DaCapo 9.12 pmd starting warmup 406 =====
===== DaCapo 9.12 pmd completed warmup 406 in 2735 msec =====
===== DaCapo 9.12 pmd starting warmup 407 =====
