===== DaCapo 9.12 avrora starting warmup 1 =====
===== DaCapo 9.12 avrora completed warmup 1 in 20015 msec =====
===== DaCapo 9.12 avrora starting warmup 2 =====
===== DaCapo 9.12 avrora completed warmup 2 in 16288 msec =====
===== DaCapo 9.12 avrora starting warmup 3 =====
===== DaCapo 9.12 avrora completed warmup 3 in 16179 msec =====
===== DaCapo 9.12 avrora starting warmup 4 =====
===== DaCapo 9.12 avrora completed warmup 4 in 16074 msec =====
===== DaCapo 9.12 avrora starting warmup 5 =====
===== DaCapo 9.12 avrora completed warmup 5 in 15973 msec =====
===== DaCapo 9.12 avrora starting warmup 6 =====
===== DaCapo 9.12 avrora completed warmup 6 in 15984 msec =====
===== DaCapo 9.12 avrora starting warmup 7 =====
===== DaCapo 9.12 avrora completed warmup 7 in 15924 msec =====
===== DaCapo 9.12 avrora starting warmup 8 =====
===== DaCapo 9.12 avrora completed warmup 8 in 15960 msec =====
===== DaCapo 9.12 avrora starting warmup 9 =====
===== DaCapo 9.12 avrora completed warmup 9 in 16079 msec =====
===== DaCapo 9.12 avrora starting warmup 10 =====
===== DaCapo 9.12 avrora completed warmup 10 in 16132 msec =====
===== DaCapo 9.12 avrora starting warmup 11 =====
===== DaCapo 9.12 avrora completed warmup 11 in 15915 msec =====
===== DaCapo 9.12 avrora starting warmup 12 =====
===== DaCapo 9.12 avrora completed warmup 12 in 15919 msec =====
===== DaCapo 9.12 avrora starting warmup 13 =====
===== DaCapo 9.12 avrora completed warmup 13 in 15871 msec =====
===== DaCapo 9.12 avrora starting warmup 14 =====
===== DaCapo 9.12 avrora completed warmup 14 in 15970 msec =====
===== DaCapo 9.12 avrora starting warmup 15 =====
===== DaCapo 9.12 avrora completed warmup 15 in 15898 msec =====
===== DaCapo 9.12 avrora starting warmup 16 =====
===== DaCapo 9.12 avrora completed warmup 16 in 15973 msec =====
===== DaCapo 9.12 avrora starting warmup 17 =====
===== DaCapo 9.12 avrora completed warmup 17 in 16104 msec =====
===== DaCapo 9.12 avrora starting warmup 18 =====
===== DaCapo 9.12 avrora completed warmup 18 in 15779 msec =====
===== DaCapo 9.12 avrora starting warmup 19 =====
===== DaCapo 9.12 avrora completed warmup 19 in 15782 msec =====
===== DaCapo 9.12 avrora starting warmup 20 =====
===== DaCapo 9.12 avrora completed warmup 20 in 15965 msec =====
===== DaCapo 9.12 avrora starting warmup 21 =====
===== DaCapo 9.12 avrora completed warmup 21 in 15857 msec =====
===== DaCapo 9.12 avrora starting warmup 22 =====
===== DaCapo 9.12 avrora completed warmup 22 in 15883 msec =====
===== DaCapo 9.12 avrora starting warmup 23 =====
===== DaCapo 9.12 avrora completed warmup 23 in 15834 msec =====
===== DaCapo 9.12 avrora starting warmup 24 =====
===== DaCapo 9.12 avrora completed warmup 24 in 15724 msec =====
===== DaCapo 9.12 avrora starting warmup 25 =====
===== DaCapo 9.12 avrora completed warmup 25 in 15816 msec =====
===== DaCapo 9.12 avrora starting warmup 26 =====
===== DaCapo 9.12 avrora completed warmup 26 in 15978 msec =====
===== DaCapo 9.12 avrora starting warmup 27 =====
===== DaCapo 9.12 avrora completed warmup 27 in 15943 msec =====
===== DaCapo 9.12 avrora starting warmup 28 =====
===== DaCapo 9.12 avrora completed warmup 28 in 15978 msec =====
===== DaCapo 9.12 avrora starting warmup 29 =====
===== DaCapo 9.12 avrora completed warmup 29 in 16046 msec =====
===== DaCapo 9.12 avrora starting warmup 30 =====
===== DaCapo 9.12 avrora completed warmup 30 in 15947 msec =====
===== DaCapo 9.12 avrora starting warmup 31 =====
===== DaCapo 9.12 avrora completed warmup 31 in 15862 msec =====
===== DaCapo 9.12 avrora starting warmup 32 =====
===== DaCapo 9.12 avrora completed warmup 32 in 15764 msec =====
===== DaCapo 9.12 avrora starting warmup 33 =====
===== DaCapo 9.12 avrora completed warmup 33 in 15901 msec =====
===== DaCapo 9.12 avrora starting warmup 34 =====
===== DaCapo 9.12 avrora completed warmup 34 in 15805 msec =====
===== DaCapo 9.12 avrora starting warmup 35 =====
===== DaCapo 9.12 avrora completed warmup 35 in 15786 msec =====
===== DaCapo 9.12 avrora starting warmup 36 =====
===== DaCapo 9.12 avrora completed warmup 36 in 15780 msec =====
===== DaCapo 9.12 avrora starting warmup 37 =====
===== DaCapo 9.12 avrora completed warmup 37 in 16014 msec =====
===== DaCapo 9.12 avrora starting warmup 38 =====
===== DaCapo 9.12 avrora completed warmup 38 in 15867 msec =====
===== DaCapo 9.12 avrora starting warmup 39 =====
===== DaCapo 9.12 avrora completed warmup 39 in 15868 msec =====
===== DaCapo 9.12 avrora starting warmup 40 =====
===== DaCapo 9.12 avrora completed warmup 40 in 15825 msec =====
===== DaCapo 9.12 avrora starting warmup 41 =====
===== DaCapo 9.12 avrora completed warmup 41 in 15848 msec =====
===== DaCapo 9.12 avrora starting warmup 42 =====
===== DaCapo 9.12 avrora completed warmup 42 in 15860 msec =====
===== DaCapo 9.12 avrora starting warmup 43 =====
===== DaCapo 9.12 avrora completed warmup 43 in 15914 msec =====
===== DaCapo 9.12 avrora starting warmup 44 =====
===== DaCapo 9.12 avrora completed warmup 44 in 15773 msec =====
===== DaCapo 9.12 avrora starting warmup 45 =====
===== DaCapo 9.12 avrora completed warmup 45 in 15790 msec =====
===== DaCapo 9.12 avrora starting warmup 46 =====
===== DaCapo 9.12 avrora completed warmup 46 in 15913 msec =====
===== DaCapo 9.12 avrora starting warmup 47 =====
===== DaCapo 9.12 avrora completed warmup 47 in 15892 msec =====
===== DaCapo 9.12 avrora starting warmup 48 =====
===== DaCapo 9.12 avrora completed warmup 48 in 15867 msec =====
===== DaCapo 9.12 avrora starting warmup 49 =====
===== DaCapo 9.12 avrora completed warmup 49 in 15784 msec =====
===== DaCapo 9.12 avrora starting warmup 50 =====
===== DaCapo 9.12 avrora completed warmup 50 in 16064 msec =====
===== DaCapo 9.12 avrora starting warmup 51 =====
===== DaCapo 9.12 avrora completed warmup 51 in 15927 msec =====
===== DaCapo 9.12 avrora starting warmup 52 =====
===== DaCapo 9.12 avrora completed warmup 52 in 16040 msec =====
===== DaCapo 9.12 avrora starting warmup 53 =====
===== DaCapo 9.12 avrora completed warmup 53 in 15851 msec =====
===== DaCapo 9.12 avrora starting warmup 54 =====
===== DaCapo 9.12 avrora completed warmup 54 in 15871 msec =====
===== DaCapo 9.12 avrora starting warmup 55 =====
===== DaCapo 9.12 avrora completed warmup 55 in 15870 msec =====
===== DaCapo 9.12 avrora starting warmup 56 =====
===== DaCapo 9.12 avrora completed warmup 56 in 15961 msec =====
===== DaCapo 9.12 avrora starting warmup 57 =====
===== DaCapo 9.12 avrora completed warmup 57 in 15804 msec =====
===== DaCapo 9.12 avrora starting warmup 58 =====
===== DaCapo 9.12 avrora completed warmup 58 in 15938 msec =====
===== DaCapo 9.12 avrora starting warmup 59 =====
===== DaCapo 9.12 avrora completed warmup 59 in 15827 msec =====
===== DaCapo 9.12 avrora starting warmup 60 =====
===== DaCapo 9.12 avrora completed warmup 60 in 15681 msec =====
===== DaCapo 9.12 avrora starting warmup 61 =====
===== DaCapo 9.12 avrora completed warmup 61 in 15857 msec =====
===== DaCapo 9.12 avrora starting warmup 62 =====
===== DaCapo 9.12 avrora completed warmup 62 in 15846 msec =====
===== DaCapo 9.12 avrora starting warmup 63 =====
===== DaCapo 9.12 avrora completed warmup 63 in 15803 msec =====
===== DaCapo 9.12 avrora starting warmup 64 =====
===== DaCapo 9.12 avrora completed warmup 64 in 15866 msec =====
===== DaCapo 9.12 avrora starting warmup 65 =====
===== DaCapo 9.12 avrora completed warmup 65 in 15887 msec =====
===== DaCapo 9.12 avrora starting warmup 66 =====
===== DaCapo 9.12 avrora completed warmup 66 in 15979 msec =====
===== DaCapo 9.12 avrora starting warmup 67 =====
===== DaCapo 9.12 avrora completed warmup 67 in 15948 msec =====
===== DaCapo 9.12 avrora starting warmup 68 =====
===== DaCapo 9.12 avrora completed warmup 68 in 15920 msec =====
===== DaCapo 9.12 avrora starting warmup 69 =====
===== DaCapo 9.12 avrora completed warmup 69 in 15843 msec =====
===== DaCapo 9.12 avrora starting warmup 70 =====
===== DaCapo 9.12 avrora completed warmup 70 in 15754 msec =====
===== DaCapo 9.12 avrora starting warmup 71 =====
===== DaCapo 9.12 avrora completed warmup 71 in 15837 msec =====
===== DaCapo 9.12 avrora starting warmup 72 =====
===== DaCapo 9.12 avrora completed warmup 72 in 15849 msec =====
===== DaCapo 9.12 avrora starting warmup 73 =====
===== DaCapo 9.12 avrora completed warmup 73 in 15698 msec =====
===== DaCapo 9.12 avrora starting warmup 74 =====
===== DaCapo 9.12 avrora completed warmup 74 in 15847 msec =====
===== DaCapo 9.12 avrora starting warmup 75 =====
===== DaCapo 9.12 avrora completed warmup 75 in 15815 msec =====
===== DaCapo 9.12 avrora starting warmup 76 =====
