1413452738051 0 TOTAL_MEM 4876
1413452758074 20550 CREATION
1413452758074 20550 READING 9 0.990190
1413452758074 20550 MINHEAP 2
1413452758074 20550 MINHEAP 8
1413452758106 20549 CREATION
1413452758106 20549 READING 9 0.991087
1413452758106 20549 MINHEAP 2
1413452758106 20549 MINHEAP 1211
1413452758148 20550 READING 9 0.984933
1413452758151 20549 READING 9 0.979642
1413452758178 20550 READING 9 0.955672
1413452758180 20549 READING 9 0.937153
1413452758191 20550 READING 9 0.917874
1413452758206 20550 READING 11 0.943176
1413452758210 20549 READING 9 0.941592
1413452758286 20550 READING 11 0.975875
1413452758337 20549 READING 11 0.985118
1413452758400 20550 READING 17 0.962888
1413452758480 20550 READING 17 0.955516
1413452758500 20549 READING 11 0.978077
1413452758571 20550 READING 25 0.844375
1413452758604 20549 READING 17 0.944798
1413452758632 20550 READING 28 0.978619
1413452758676 20550 READING 30 0.978954
1413452758715 20550 READING 34 0.964655
1413452758768 20549 READING 17 0.456232
1413452758788 20550 READING 40 0.969665
1413452758886 20550 READING 40 0.980472
1413452758937 20549 READING 30 0.963483
1413452758971 20550 READING 49 0.979161
1413452759095 20550 READING 50 0.985953
1413452759126 20549 READING 31 0.971528
1413452759188 20550 READING 60 0.988655
1413452759267 20550 READING 61 0.986393
1413452759349 20549 READING 33 0.515223
1413452759390 20550 READING 69 0.990282
1413452759411 20549 READING 47 0.898296
1413452759477 20549 READING 48 0.832475
1413452759503 20550 READING 70 0.978175
1413452759566 20549 READING 49 0.843122
1413452759632 20550 READING 79 0.983646
1413452759759 20550 READING 79 0.990670
1413452759879 20550 READING 90 0.988810
1413452759990 20549 READING 53 0.179191
1413452760030 20550 READING 91 0.991824
1413452760062 20549 READING 75 0.696021
1413452760133 20549 READING 75 0.815499
1413452760223 20550 READING 101 0.993218
1413452760395 20549 READING 78 0.244714
1413452760436 20550 READING 102 0.992725
1413452760469 20549 READING 106 0.694836
1413452760561 20549 READING 106 0.747132
1413452760597 20550 READING 111 0.992417
1413452760633 20549 READING 108 0.698685
1413452760725 20549 READING 111 0.722470
1413452760754 20550 READING 111 0.991089
1413452760955 20550 READING 121 0.992970
1413452761201 20550 READING 121 0.990249
1413452761238 20549 READING 114 0.108726
1413452761324 20549 READING 147 0.657449
1413452761420 20549 READING 151 0.741591
1413452761440 20550 READING 130 0.995741
1413452761505 20549 READING 153 0.676918
1413452761637 20549 READING 160 0.738941
1413452761689 20550 READING 130 0.993638
1413452761737 20549 READING 161 0.623860
1413452761935 20550 READING 139 0.991595
1413452762181 20550 READING 140 0.996155
1413452762186 20549 READING 164 0.158907
1413452762290 20549 READING 206 0.585957
1413452762390 20549 READING 210 0.713123
1413452762400 20550 READING 147 0.988009
1413452762489 20549 READING 213 0.639260
1413452762587 20550 READING 148 0.988661
1413452762591 20549 READING 217 0.662887
1413452762707 20549 READING 224 0.550070
1413452762771 20550 READING 157 0.990961
1413452762794 20549 READING 227 0.597774
1413452762907 20549 READING 237 0.522036
1413452763017 20549 READING 242 0.427074
1413452763017 20550 READING 157 0.996361
1413452763314 20550 READING 167 0.994199
1413452763617 20550 READING 168 0.993934
1413452763641 20549 READING 248 0.092772
1413452763802 20549 READING 297 0.413481
1413452763897 20549 READING 246 0.531555
1413452763903 20550 READING 177 0.997434
1413452764284 20550 READING 177 0.995170
1413452764591 20549 READING 288 0.098568
1413452764663 20550 READING 185 0.972560
1413452764697 20549 READING 342 0.566390
1413452764817 20549 READING 339 0.735366
1413452764950 20549 READING 341 0.769141
1413452764951 20550 READING 185 0.996803
1413452765069 20549 READING 337 0.649010
1413452765177 20549 READING 339 0.646824
1413452765301 20549 READING 341 0.622565
1413452765318 20550 READING 197 0.997110
1413452765431 20549 READING 345 0.552015
1413452765555 20549 READING 347 0.535278
1413452765683 20549 READING 355 0.462702
1413452765688 20550 READING 198 0.997174
1413452765825 20549 READING 358 0.433704
1413452765952 20549 READING 368 0.415174
1413452766044 20550 READING 208 0.995192
1413452766065 20549 READING 373 0.405691
1413452766451 20550 READING 208 0.993439
1413452766817 20549 READING 380 0.076496
1413452766890 20550 READING 218 0.995939
1413452766984 20549 READING 441 0.328032
1413452767187 20550 READING 218 0.993618
1413452767556 20550 READING 227 0.994740
1413452767762 20549 READING 376 0.078343
1413452767933 20549 READING 499 0.349590
1413452767953 20550 READING 227 0.997552
1413452768051 20550 FUNCTION lru lambda h: 0.899594 * (h ** 0.0198397)
1413452768051 20549 FUNCTION lru lambda h: 1.77638 * (h ** 0.001)
1413452768052 20550 RECOMMEND 2438
1413452768052 20549 RECOMMEND 2438
1413452768054 20549 READING 502 0.577893
1413452768165 20549 READING 502 0.588546
1413452768311 20549 READING 504 0.506064
1413452768357 20550 READING 236 0.997145
1413452768462 20549 READING 494 0.536528
1413452768621 20549 READING 499 0.504817
1413452768715 20550 READING 237 0.995354
1413452768792 20549 READING 498 0.509853
1413452768969 20549 READING 499 0.453153
1413452769146 20549 READING 503 0.528053
1413452769147 20550 READING 244 0.997914
1413452769345 20549 READING 506 0.447379
1413452769511 20550 READING 244 0.994289
1413452769533 20549 READING 510 0.456227
1413452770110 20550 READING 252 0.944764
1413452770517 20549 READING 516 0.079945
1413452770564 20550 READING 254 0.996955
1413452770721 20549 READING 585 0.372711
1413452770890 20549 READING 589 0.574294
1413452770997 20550 READING 263 0.997958
1413452771057 20549 READING 589 0.663823
1413452771576 20550 READING 263 0.997278
1413452772094 20549 READING 590 0.098869
1413452772139 20550 READING 274 0.997990
1413452772353 20549 READING 662 0.397040
1413452772561 20549 READING 662 0.542616
1413452772628 20550 READING 274 0.997377
1413452772770 20549 READING 661 0.574653
1413452773160 20550 READING 285 0.993155
1413452773441 20549 READING 663 0.835535
1413452773642 20550 READING 285 0.996874
1413452774017 20550 READING 297 0.996515
1413452774129 20549 READING 661 0.825022
1413452774426 20550 READING 298 0.997191
1413452774895 20549 READING 673 0.867504
1413452774981 20550 READING 311 0.996609
1413452775045 20549 READING 685 0.495079
1413452775257 20549 READING 697 0.550782
1413452775419 20549 READING 701 0.262382
1413452775558 20549 READING 710 0.297777
1413452775658 20550 READING 311 0.996713
1413452776294 20550 READING 324 0.998109
1413452777086 20550 READING 324 0.997410
1413452777670 20549 READING 718 0.020184
1413452777717 20550 READING 337 0.996255
1413452777858 20549 READING 793 0.227512
1413452778052 20550 FUNCTION lru lambda h: 0.912509 * (h ** 0.0160842)
1413452778052 20549 FUNCTION lru lambda h: 1.62534 * (h ** 0.001)
1413452778052 20550 RECOMMEND 2438
1413452778052 20549 RECOMMEND 2438
1413452778305 20549 READING 786 0.795041
1413452778344 20550 READING 337 0.997695
1413452778529 20549 READING 719 0.554534
1413452778689 20549 READING 782 0.422694
1413452778799 20550 READING 349 0.997455
1413452778816 20549 READING 787 0.537787
1413452779396 20550 READING 350 0.996419
1413452780188 20550 READING 363 0.997964
1413452780890 20550 READING 363 0.997406
1413452781055 20549 READING 783 0.099743
1413452781355 20549 READING 865 0.536336
1413452781535 20550 READING 375 0.997701
1413452781633 20549 READING 867 0.858888
1413452781745 20549 READING 873 0.639731
1413452782065 20549 READING 878 0.900095
1413452782066 20550 READING 376 0.997219
1413452782226 20549 READING 881 0.895656
1413452782654 20549 READING 889 0.891107
1413452782677 20550 READING 390 0.997253
1413452782839 20549 READING 770 0.749170
1413452783033 20549 READING 872 0.750207
1413452783228 20549 READING 776 0.751412
1413452783285 20550 READING 390 0.997901
1413452783434 20549 READING 864 0.764850
1413452783638 20549 READING 871 0.762392
1413452783849 20549 READING 860 0.787751
1413452784022 20550 READING 403 0.997009
1413452784049 20549 READING 865 0.834628
1413452784276 20549 READING 856 0.791326
1413452784502 20549 READING 861 0.787581
1413452784664 20550 READING 404 0.997371
1413452784732 20549 READING 855 0.820073
1413452785207 20550 READING 418 0.997202
1413452785466 20549 READING 859 0.946723
1413452785771 20550 READING 418 0.997537
1413452786559 20550 READING 432 0.998008
1413452786760 20549 READING 860 0.956470
1413452786969 20549 READING 863 0.713747
1413452787180 20549 READING 870 0.744822
1413452787282 20550 READING 432 0.998121
1413452787401 20549 READING 870 0.713633
1413452787617 20549 READING 877 0.777551
1413452787845 20549 READING 877 0.736992
1413452788052 20550 FUNCTION lru lambda h: 0.917395 * (h ** 0.0147695)
1413452788052 20549 FUNCTION lru lambda h: 0.739526 * (h ** 0.001)
1413452788052 20550 RECOMMEND 2438
1413452788052 20549 RECOMMEND 2438
1413452788080 20549 READING 882 0.769652
1413452788115 20550 READING 445 0.998208
1413452788325 20549 READING 883 0.747224
1413452788575 20549 READING 888 0.783762
1413452788795 20550 READING 446 0.997789
1413452789089 20549 READING 890 0.839029
1413452789440 20550 READING 459 0.998141
1413452789552 20549 READING 894 0.910144
1413452789783 20549 READING 896 0.698472
1413452790222 20550 READING 459 0.998317
1413452791299 20550 READING 471 0.998177
1413452792176 20550 READING 472 0.989603
1413452792587 20549 READING 902 0.059528
1413452793048 20550 READING 484 0.995063
1413452793623 20549 READING 985 0.133258
1413452793994 20550 READING 485 0.997998
1413452794703 20549 READING 1071 0.127204
1413452794854 20549 READING 1119 0.917357
1413452794979 20550 READING 507 0.997921
1413452795013 20549 READING 1122 0.878144
1413452795180 20549 READING 1134 0.840937
1413452795357 20549 READING 1138 0.805213
1413452795547 20549 READING 1149 0.779093
1413452795700 20550 READING 510 0.996873
1413452795750 20549 READING 1149 0.744774
1413452795956 20549 READING 1152 0.780665
1413452796191 20549 READING 1154 0.741563
1413452796533 20550 READING 529 0.996604
1413452797494 20550 READING 529 0.997367
1413452798052 20550 FUNCTION lru lambda h: 0.922583 * (h ** 0.0134311)
1413452798052 20549 FUNCTION lru lambda h: 0.186345 * (h ** 0.151031)
1413452798052 20550 RECOMMEND 2438
1413452798052 20549 RECOMMEND 2438
1413452798547 20550 READING 550 0.997721
1413452798630 20549 READING 1152 0.969633
1413452799489 20550 READING 551 0.997505
1413452800215 20550 READING 571 0.996787
1413452800215 20549 READING 1156 0.953344
1413452801083 20550 READING 571 0.995733
1413452801854 20549 READING 1145 0.945573
1413452801983 20550 READING 593 0.997969
1413452802819 20550 READING 593 0.996872
1413452803441 20549 READING 1153 0.947220
1413452803825 20550 READING 616 0.997691
1413452804854 20550 READING 616 0.997658
1413452805096 20549 READING 1149 0.942785
1413452805794 20550 READING 639 0.982398
1413452806750 20549 READING 1152 0.948326
1413452806780 20550 READING 643 0.998228
1413452807919 20550 READING 666 0.999157
1413452808052 20550 FUNCTION lru lambda h: 0.927246 * (h ** 0.0122795)
1413452808053 20549 FUNCTION lru lambda h: 0.169404 * (h ** 0.169848)
1413452808053 20550 RECOMMEND 2438
1413452808053 20549 RECOMMEND 2438
1413452808431 20549 READING 1156 0.938786
1413452809026 20550 READING 629 0.998561
1413452809820 20550 READING 599 0.998835
1413452810186 20549 READING 1158 0.931025
1413452810714 20550 READING 570 0.998961
1413452811553 20550 READING 543 0.998927
1413452811888 20549 READING 1163 0.939287
1413452812251 20550 READING 518 0.998009
1413452812959 20550 READING 496 0.998110
1413452813629 20549 READING 1167 0.925253
1413452813685 20550 READING 473 0.997922
1413452814485 20550 READING 451 0.998200
1413452815097 20550 READING 430 0.997668
1413452815356 20549 READING 1172 0.931019
1413452815606 20550 READING 410 0.997094
1413452816180 20550 READING 391 0.997671
1413452816834 20550 READING 373 0.997738
1413452817072 20549 READING 1176 0.930005
1413452817390 20550 READING 356 0.997553
1413452817987 20550 READING 340 0.997456
1413452818053 20550 FUNCTION lru lambda h: 0.928321 * (h ** 0.0120145)
1413452818053 20549 FUNCTION lru lambda h: 0.0868173 * (h ** 0.276923)
1413452818053 20550 RECOMMEND 2438
1413452818053 20549 RECOMMEND 2438
1413452818525 20550 READING 324 0.997601
1413452818846 20549 READING 1181 0.925530
1413452818962 20550 READING 310 0.996580
1413452819355 20550 READING 323 0.996763
1413452819846 20550 READING 338 0.997064
1413452820400 20550 READING 353 0.997741
1413452820582 20549 READING 1186 0.926305
1413452820987 20550 READING 369 0.998034
1413452821511 20550 READING 349 0.997059
1413452822001 20550 READING 367 0.997173
1413452822301 20549 READING 1190 0.932029
1413452822576 20550 READING 383 0.997738
1413452823127 20550 READING 365 0.997684
1413452823708 20550 READING 349 0.997554
1413452824046 20549 READING 1195 0.941532
1413452824290 20550 READING 333 0.997849
1413452824729 20550 READING 318 0.997198
1413452825151 20550 READING 331 0.996570
1413452825612 20550 READING 346 0.997186
1413452825818 20549 READING 1201 0.921272
1413452826240 20550 READING 362 0.997908
1413452826835 20550 READING 378 0.997716
1413452827558 20550 READING 393 0.997777
1413452827624 20549 READING 1205 0.933612
1413452828053 20550 FUNCTION lru lambda h: 0.960017 * (h ** 0.00626314)
1413452828053 20549 FUNCTION lru lambda h: 0.0268037 * (h ** 0.458306)
1413452828053 20550 RECOMMEND 2438
1413452828053 20549 RECOMMEND 2438
1413452828182 20550 READING 375 0.997914
1413452828666 20550 READING 358 0.997498
1413452829111 20550 READING 342 0.997644
1413452829425 20549 READING 1211 0.938920
1413452829664 20550 READING 326 0.997860
1413452830128 20550 READING 310 0.998115
1413452830611 20550 READING 296 0.998322
1413452830998 20550 READING 282 0.997266
1413452831278 20549 READING 1212 0.933714
1413452831418 20550 READING 270 0.997250
1413452831773 20550 READING 260 0.996389
1413452832162 20550 READING 271 0.996707
1413452832637 20550 READING 283 0.997111
1413452833038 20550 READING 296 0.996238
1413452833213 20549 READING 1217 0.935986
1413452833600 20550 READING 310 0.997770
1413452834095 20550 READING 325 0.997267
1413452834556 20550 READING 340 0.997098
1413452835019 20550 READING 355 0.995833
1413452835109 20549 READING 1218 0.939000
1413452835575 20550 READING 373 0.997294
1413452836277 20550 READING 392 0.997563
1413452836963 20550 READING 411 0.998224
1413452837110 20549 READING 1222 0.932781
1413452837711 20550 READING 429 0.998098
1413452838053 20550 FUNCTION lru lambda h: 0.973416 * (h ** 0.00394008)
1413452838053 20549 FUNCTION lru lambda h: 0.00581675 * (h ** 0.687806)
1413452838053 20550 RECOMMEND 2438
1413452838053 20549 RECOMMEND 2438
1413452838339 20550 READING 409 0.998112
1413452838810 20550 READING 390 0.997229
1413452839125 20549 READING 1222 0.934217
1413452839381 20550 READING 372 0.997699
1413452839937 20550 READING 352 0.998364
1413452840498 20550 READING 336 0.998254
1413452840967 20550 READING 321 0.998039
1413452841242 20549 READING 1225 0.935132
1413452841366 20550 READING 308 0.996022
1413452841799 20550 READING 295 0.997189
1413452842324 20550 READING 307 0.997466
1413452842772 20550 READING 320 0.997222
1413452843328 20549 READING 1226 0.937594
1413452843402 20550 READING 334 0.997987
1413452843885 20550 READING 319 0.996963
1413452844340 20550 READING 333 0.997235
1413452844771 20550 READING 348 0.996815
1413452845296 20550 READING 364 0.997587
1413452846304 20550 READING 380 0.998064
1413452847293 20550 READING 396 0.997898
1413452847451 20549 READING 1229 0.481074
1413452847992 20550 READING 378 0.998163
1413452848053 20550 FUNCTION lru lambda h: 0.976922 * (h ** 0.00337362)
1413452848054 20549 FUNCTION lru lambda h: 0.00528785 * (h ** 0.701706)
1413452848054 20550 RECOMMEND 2438
1413452848054 20549 RECOMMEND 2438
1413452848574 20550 READING 360 0.997676
1413452848997 20550 READING 344 0.996913
1413452849408 20549 READING 1287 0.986051
1413452849483 20550 READING 358 0.980681
1413452850057 20550 READING 371 0.998350
1413452850603 20550 READING 354 0.998250
1413452851043 20550 READING 338 0.997915
1413452851345 20549 READING 1283 0.981819
1413452851473 20550 READING 322 0.996557
1413452851876 20550 READING 311 0.996308
1413452852304 20550 READING 296 0.996909
1413452852751 20550 READING 283 0.997104
1413452853165 20550 READING 271 0.996586
1413452853432 20549 READING 1292 0.977907
1413452853632 20550 READING 259 0.997032
1413452853996 20550 READING 247 0.996407
1413452854322 20550 READING 236 0.995074
1413452854595 20550 READING 226 0.995117
1413452854863 20550 READING 217 0.995022
1413452855134 20550 READING 207 0.993614
1413452855429 20550 READING 224 0.909634
1413452855448 20549 READING 1299 0.976103
1413452855905 20550 READING 257 0.997033
1413452856365 20550 READING 294 0.996822
1413452856982 20550 READING 332 0.998655
1413452857574 20549 READING 1300 0.968227
1413452857718 20550 READING 374 0.998767
1413452858054 20550 FUNCTION lru lambda h: 0.95222 * (h ** 0.00761727)
1413452858054 20549 FUNCTION lru lambda h: 0.00242055 * (h ** 0.817848)
1413452858054 20550 RECOMMEND 2438
1413452858054 20549 RECOMMEND 2438
1413452858442 20550 READING 418 0.998947
1413452859064 20550 READING 467 0.998586
1413452859692 20549 READING 1294 0.964522
1413452859881 20550 READING 467 0.998518
1413452860755 20550 READING 502 0.998711
1413452861455 20550 READING 478 0.997429
1413452861794 20549 READING 1198 0.964551
1413452862093 20550 READING 458 0.998369
1413452862781 20550 READING 437 0.997932
1413452863489 20550 READING 416 0.997847
1413452863951 20549 READING 1283 0.959918
1413452864152 20550 READING 397 0.997901
1413452864636 20550 READING 379 0.997268
1413452865092 20550 READING 361 0.997354
1413452865581 20550 READING 345 0.997376
1413452866133 20549 READING 1216 0.956060
1413452866191 20550 READING 329 0.998053
1413452866655 20550 READING 314 0.997524
1413452867217 20550 READING 300 0.997206
1413452867692 20550 READING 287 0.997605
1413452868054 20550 FUNCTION lru lambda h: 0.949104 * (h ** 0.00823406)
1413452868054 20549 FUNCTION lru lambda h: 0.001 * (h ** 0.995726)
1413452868054 20550 RECOMMEND 2438
1413452868054 20549 RECOMMEND 2438
1413452868132 20550 READING 274 0.996807
1413452868404 20549 READING 1279 0.956698
1413452868455 20550 READING 262 0.996615
1413452868753 20550 READING 250 0.995899
1413452869086 20550 READING 239 0.996336
1413452869435 20550 READING 226 0.997148
1413452869748 20550 READING 216 0.997255
1413452870099 20550 READING 207 0.997034
1413452870374 20550 READING 198 0.996831
1413452870614 20549 READING 1283 0.954265
1413452870638 20550 READING 189 0.996142
1413452870888 20550 READING 181 0.996196
1413452871100 20550 READING 176 0.993427
1413452871324 20550 READING 169 0.994330
1413452871538 20550 READING 162 0.994548
1413452871732 20550 READING 156 0.993389
1413452871999 20550 READING 168 0.995245
1413452872295 20550 READING 181 0.996234
1413452872550 20550 READING 194 0.995512
1413452872853 20550 READING 186 0.991971
1413452872913 20549 READING 1284 0.949577
1413452873248 20550 READING 202 0.996415
1413452873587 20550 READING 218 0.996436
1413452873941 20550 READING 234 0.996262
1413452874226 20550 READING 224 0.995508
1413452874455 20550 READING 215 0.994072
1413452874750 20550 READING 232 0.995387
1413452875101 20550 READING 250 0.995178
1413452875158 20549 READING 1286 0.950104
1413452875580 20550 READING 267 0.998081
1413452875989 20550 READING 255 0.997950
1413452876346 20550 READING 243 0.997540
1413452876769 20550 READING 233 0.997792
1413452877130 20550 READING 223 0.997979
1413452877425 20549 READING 1289 0.949192
1413452877479 20550 READING 213 0.997893
1413452877810 20550 READING 204 0.997835
1413452878044 20550 READING 200 0.996275
1413452878054 20550 FUNCTION lru lambda h: 0.970365 * (h ** 0.00467564)
1413452878054 20549 FUNCTION lru lambda h: 0.001 * (h ** 0.999)
1413452878054 20550 RECOMMEND 2438
1413452878054 20549 RECOMMEND 2438
1413452878259 20550 READING 187 0.995741
1413452878470 20550 READING 179 0.995123
1413452878714 20550 READING 171 0.996719
1413452878957 20550 READING 164 0.996543
1413452879199 20550 READING 157 0.996638
1413452879390 20550 READING 154 0.995306
1413452879625 20550 READING 145 0.996328
1413452879706 20549 READING 1294 0.944867
1413452879855 20550 READING 139 0.995741
1413452880024 20550 READING 133 0.994832
1413452880183 20550 READING 128 0.995062
1413452880326 20550 READING 123 0.995023
1413452880490 20550 READING 121 0.996006
1413452880623 20550 READING 115 0.990441
1413452880793 20550 READING 125 0.944858
1413452880960 20550 READING 134 0.991093
1413452881151 20550 READING 148 0.993996
1413452881362 20550 READING 163 0.994738
1413452881604 20550 READING 156 0.995755
1413452881855 20550 READING 150 0.991008
1413452881946 20549 READING 1297 0.951792
1413452882119 20550 READING 165 0.996600
1413452882336 20550 READING 158 0.995274
1413452882591 20550 READING 154 0.995417
1413452882834 20550 READING 146 0.995739
1413452883050 20550 READING 140 0.995273
1413452883246 20550 READING 134 0.995176
1413452883422 20550 READING 129 0.994251
1413452883584 20550 READING 124 0.994562
1413452883732 20550 READING 119 0.993339
1413452883851 20550 READING 114 0.993505
1413452883960 20550 READING 110 0.992677
1413452884078 20550 READING 106 0.990709
1413452884180 20549 READING 1305 0.947582
1413452884264 20550 READING 116 0.995498
1413452884382 20550 READING 112 0.992182
1413452884567 20550 READING 123 0.995205
1413452884682 20550 READING 118 0.993018
1413452884831 20550 READING 114 0.994766
1413452885015 20550 READING 109 0.994712
1413452885207 20550 READING 105 0.994045
1413452885358 20550 READING 101 0.993978
1413452885496 20550 READING 98 0.993806
1413452885615 20550 READING 94 0.993272
1413452885727 20550 READING 91 0.992301
1413452885858 20550 READING 99 0.993815
1413452886030 20550 READING 109 0.994104
1413452886202 20550 READING 105 0.993219
1413452886408 20550 READING 115 0.991795
1413452886483 20549 READING 1312 0.949877
1413452886646 20550 READING 127 0.996491
1413452886824 20550 READING 121 0.994883
1413452886997 20550 READING 117 0.995643
1413452887152 20550 READING 113 0.994493
1413452887317 20550 READING 109 0.995200
1413452887467 20550 READING 105 0.993528
1413452887585 20550 READING 101 0.993269
1413452887680 20550 READING 98 0.990766
1413452887793 20550 READING 107 0.990953
1413452887922 20550 READING 117 0.992868
1413452888054 20550 FUNCTION lru lambda h: 0.972247 * (h ** 0.00434169)
1413452888054 20549 FUNCTION lru lambda h: 0.001 * (h ** 0.999)
1413452888054 20550 RECOMMEND 2438
1413452888055 20549 RECOMMEND 2438
1413452888071 20550 READING 130 0.993962
1413452888267 20550 READING 144 0.994925
1413452888496 20550 READING 158 0.995855
1413452888725 20550 READING 152 0.995038
1413452888818 20549 READING 1316 0.948046
1413452888990 20550 READING 146 0.996853
1413452889170 20550 READING 140 0.995827
1413452889405 20550 READING 134 0.996505
1413452889572 20550 READING 129 0.995130
1413452889730 20550 READING 124 0.994530
1413452889873 20550 READING 119 0.993883
1413452890006 20550 READING 114 0.994373
1413452890159 20550 READING 110 0.995796
1413452890278 20550 READING 106 0.990642
1413452890404 20550 READING 102 0.992728
1413452890554 20550 READING 112 0.995306
1413452890699 20550 READING 108 0.994628
1413452890844 20550 READING 104 0.993438
1413452890977 20550 READING 100 0.991966
1413452891137 20550 READING 110 0.990639
1413452891181 20549 READING 1323 0.949413
1413452891366 20550 READING 122 0.996598
1413452891594 20550 READING 134 0.995871
1413452891785 20550 READING 128 0.995432
1413452891953 20550 READING 123 0.995776
1413452892130 20550 READING 118 0.994819
1413452892332 20550 READING 114 0.995504
1413452892512 20550 READING 110 0.995861
1413452892703 20550 READING 106 0.995613
1413452892860 20550 READING 101 0.993699
1413452893007 20550 READING 98 0.992989
1413452893146 20550 READING 95 0.992572
1413452893274 20550 READING 91 0.993598
1413452893390 20550 READING 88 0.992381
1413452893541 20549 READING 1325 0.939535
1413452893557 20550 READING 96 0.996528
1413452893664 20550 READING 94 0.991363
1413452893765 20550 READING 90 0.991573
1413452893872 20550 READING 100 0.991234
1413452894006 20550 READING 110 0.992906
1413452894182 20550 READING 121 0.993262
1413452894354 20550 READING 134 0.994778
1413452894574 20550 READING 148 0.996311
1413452894756 20550 READING 142 0.995746
1413452895007 20550 READING 137 0.996065
1413452895270 20550 READING 131 0.996374
1413452895472 20550 READING 126 0.995666
1413452895647 20550 READING 121 0.995501
1413452895813 20550 READING 117 0.994555
1413452895984 20550 READING 112 0.995506
1413452896174 20550 READING 108 0.994592
1413452896360 20550 READING 104 0.995161
1413452896538 20550 READING 100 0.995366
1413452896697 20550 READING 96 0.995131
1413452896833 20550 READING 93 0.993414
1413452896981 20550 READING 90 0.993894
1413452897104 20550 READING 87 0.993833
1413452897219 20550 READING 84 0.993531
1413452897354 20550 READING 81 0.933056
1413452897494 20550 READING 89 0.993369
1413452897616 20550 READING 86 0.993572
1413452897718 20550 READING 82 0.991953
1413452897804 20550 READING 80 0.990633
1413452897894 20550 READING 89 0.991883
1413452898017 20550 READING 99 0.990706
1413452898055 20550 FUNCTION lru lambda h: 0.965408 * (h ** 0.00573855)
1413452898055 20549 FUNCTION lru lambda h: 0.001 * (h ** 0.999)
1413452898055 20550 RECOMMEND 2438
1413452898055 20549 RECOMMEND 2438
1413452898126 20549 READING 1331 0.970826
1413452898170 20550 READING 111 0.993264
1413452898336 20550 READING 125 0.994097
1413452898545 20550 READING 139 0.995051
1413452898752 20550 READING 134 0.995150
1413452898952 20550 READING 128 0.995151
1413452899150 20550 READING 124 0.994974
1413452899312 20550 READING 118 0.995266
1413452899481 20550 READING 114 0.995906
1413452899686 20550 READING 109 0.995825
1413452899835 20550 READING 105 0.994409
1413452899974 20550 READING 101 0.994180
1413452900109 20550 READING 98 0.994845
1413452900232 20550 READING 94 0.994623
1413452900347 20550 READING 90 0.993543
1413452900459 20550 READING 88 0.993178
1413452900573 20550 READING 85 0.988705
1413452900688 20550 READING 94 0.993213
1413452900795 20550 READING 92 0.992292
1413452900898 20550 READING 88 0.990838
1413452901013 20550 READING 97 0.992043
1413452901151 20550 READING 109 0.993247
1413452901304 20550 READING 121 0.991821
1413452901491 20550 READING 136 0.995813
1413452901710 20550 READING 131 0.996305
1413452901910 20550 READING 125 0.994896
1413452902059 20550 READING 120 0.994637
1413452902209 20550 READING 116 0.993305
1413452902368 20550 READING 111 0.995368
1413452902549 20550 READING 107 0.994269
1413452902709 20550 READING 103 0.993723
1413452902877 20550 READING 99 0.994553
1413452903012 20550 READING 95 0.992451
1413452903140 20550 READING 92 0.992471
1413452903267 20550 READING 89 0.992732
1413452903374 20550 READING 86 0.991434
1413452903486 20550 READING 84 0.989411
1413452903604 20550 READING 92 0.992388
1413452903729 20550 READING 104 0.991949
1413452903847 20550 READING 115 0.991621
1413452903985 20550 READING 130 0.993480
1413452904175 20550 READING 145 0.995141
1413452904330 20550 READING 139 0.994723
1413452904542 20550 READING 134 0.957348
1413452904672 20550 READING 128 0.993727
1413452904853 20550 READING 123 0.994433
1413452905063 20550 READING 118 0.995841
1413452905273 20550 READING 114 0.995685
1413452905431 20550 READING 109 0.994881
1413452905576 20550 READING 105 0.994767
1413452905709 20550 READING 101 0.994213
1413452905840 20550 READING 97 0.993035
1413452905989 20550 READING 94 0.994135
1413452906135 20550 READING 91 0.993762
1413452906281 20550 READING 88 0.994683
1413452906423 20550 READING 85 0.994044
1413452906552 20550 READING 82 0.994217
1413452906669 20550 READING 79 0.991994
1413452906770 20550 READING 77 0.991921
1413452906886 20550 READING 74 0.992187
1413452906978 20550 READING 71 0.991470
1413452907056 20550 READING 70 0.988538
1413452907171 20550 READING 78 0.992773
1413452907301 20550 READING 86 0.993681
1413452907423 20550 READING 84 0.993167
1413452907512 20550 READING 80 0.991373
1413452907605 20550 READING 78 0.989069
1413452907687 20550 READING 87 0.989268
1413452907793 20550 READING 99 0.991652
1413452907917 20550 READING 111 0.993020
1413452908055 20550 FUNCTION lru lambda h: 0.970606 * (h ** 0.00471515)
1413452908055 20549 FUNCTION lru lambda h: 0.001 * (h ** 0.999)
1413452908055 20550 RECOMMEND 2438
1413452908055 20549 RECOMMEND 2438
1413452908062 20550 READING 126 0.993962
1413452908224 20550 READING 121 0.994378
1413452908386 20550 READING 116 0.993624
1413452908547 20550 READING 111 0.994502
1413452908703 20550 READING 107 0.992917
1413452908857 20550 READING 104 0.993842
1413452908978 20550 READING 100 0.993653
1413452909097 20550 READING 96 0.993282
1413452909243 20550 READING 93 0.994879
1413452909392 20550 READING 90 0.994110
1413452909500 20550 READING 86 0.993188
1413452909599 20550 READING 84 0.991919
1413452909700 20550 READING 81 0.992125
1413452909791 20550 READING 78 0.991308
1413452909874 20550 READING 76 0.991475
1413452909954 20550 READING 73 0.990018
1413452910047 20550 READING 82 0.990754
1413452910185 20550 READING 92 0.990367
1413452910318 20550 READING 104 0.939110
1413452910470 20550 READING 117 0.992939
1413452910618 20550 READING 114 0.992482
1413452910761 20550 READING 109 0.995534
1413452910902 20550 READING 105 0.995011
1413452911030 20550 READING 101 0.993452
1413452911165 20550 READING 97 0.994160
1413452911318 20550 READING 94 0.993703
1413452911465 20550 READING 90 0.994857
1413452911605 20550 READING 87 0.993380
1413452911716 20550 READING 84 0.991927
1413452911813 20550 READING 81 0.990992
1413452911912 20550 READING 79 0.991920
1413452912010 20550 READING 76 0.991250
1413452912115 20550 READING 74 0.993245
1413452912231 20550 READING 71 0.992170
1413452912340 20550 READING 69 0.992535
1413452912436 20550 READING 67 0.991570
1413452912540 20550 READING 66 0.990699
1413452912641 20550 READING 63 0.992355
1413452912724 20550 READING 62 0.989108
1413452912819 20550 READING 69 0.988698
1413452912927 20550 READING 77 0.990018
1413452913058 20550 READING 87 0.991910
1413452913191 20550 READING 98 0.992167
1413452913354 20550 READING 112 0.993658
1413452913495 20550 READING 108 0.992887
1413452913622 20550 READING 104 0.993088
1413452913720 20550 READING 100 0.989037
1413452913829 20550 READING 96 0.992550
1413452913938 20550 READING 93 0.991959
1413452914064 20550 READING 89 0.992387
1413452914148 20550 READING 87 0.987045
1413452914283 20550 READING 98 0.992952
1413452914445 20550 READING 112 0.994892
1413452914558 20550 READING 107 0.993401
1413452914708 20550 READING 103 0.994856
1413452914886 20550 READING 100 0.994555
1413452915069 20550 READING 96 0.993954
1413452915224 20550 READING 93 0.994011
1413452915356 20550 READING 90 0.994157
1413452915474 20550 READING 87 0.992750
1413452915583 20550 READING 83 0.991610
1413452915686 20550 READING 81 0.990594
1413452915793 20550 READING 78 0.990528
1413452915915 20550 READING 76 0.992624
1413452916028 20550 READING 73 0.992092
1413452916143 20550 READING 70 0.992328
1413452916256 20550 READING 69 0.991941
1413452916366 20550 READING 67 0.992476
1413452916462 20550 READING 65 0.987144
1413452916573 20550 READING 72 0.992487
1413452916690 20550 READING 82 0.992026
1413452916811 20550 READING 79 0.992306
1413452916924 20550 READING 77 0.991626
1413452917014 20550 READING 74 0.987795
1413452917142 20550 READING 84 0.992854
1413452917291 20550 READING 95 0.994690
1413452917433 20550 READING 91 0.994946
1413452917539 20550 READING 88 0.991818
1413452917638 20550 READING 85 0.991007
1413452917717 20550 READING 82 0.988485
1413452917827 20550 READING 93 0.925787
1413452917944 20550 READING 104 0.992933
1413452918055 20550 FUNCTION lru lambda h: 0.965323 * (h ** 0.00597848)
1413452918055 20549 FUNCTION lru lambda h: 0.001 * (h ** 0.999)
1413452918055 20550 RECOMMEND 2438
1413452918055 20549 RECOMMEND 2438
1413452918060 20550 READING 100 0.993002
1413452918179 20550 READING 97 0.994068
1413452918309 20550 READING 93 0.993494
1413452918435 20550 READING 89 0.993562
1413452918560 20550 READING 87 0.992984
1413452918679 20550 READING 83 0.992284
1413452918796 20550 READING 81 0.991801
1413452918913 20550 READING 78 0.992775
1413452919007 20550 READING 76 0.992243
1413452919093 20550 READING 73 0.990553
1413452919178 20550 READING 71 0.991268
1413452919273 20550 READING 69 0.990264
1413452919392 20550 READING 67 0.990884
1413452919491 20550 READING 64 0.991686
1413452919567 20550 READING 63 0.989294
1413452919649 20550 READING 71 0.988734
1413452919751 20550 READING 80 0.992367
1413452919868 20550 READING 91 0.992692
1413452919974 20550 READING 88 0.991857
1413452920074 20550 READING 85 0.991875
1413452920169 20550 READING 82 0.992313
1413452920290 20550 READING 79 0.990875
1413452920377 20550 READING 77 0.986448
1413452920481 20550 READING 87 0.991197
1413452920602 20550 READING 100 0.991840
1413452920744 20550 READING 113 0.993440
1413452920883 20550 READING 109 0.993891
1413452921019 20550 READING 105 0.993944
1413452921146 20550 READING 101 0.992485
1413452921283 20550 READING 97 0.993474
1413452921438 20550 READING 94 0.994151
1413452921578 20550 READING 90 0.993495
1413452921712 20550 READING 87 0.993375
1413452921818 20550 READING 84 0.990835
1413452921912 20550 READING 82 0.989688
1413452922009 20550 READING 79 0.992141
1413452922109 20550 READING 76 0.990897
1413452922222 20550 READING 74 0.992680
1413452922338 20550 READING 71 0.991613
1413452922499 20550 READING 69 0.990322
1413452922501 20549 READING 1332 0.994447
1413452922600 20550 READING 68 0.990669
1413452922705 20550 READING 65 0.992478
1413452922800 20550 READING 64 0.990853
1413452922879 20550 READING 61 0.988199
1413452922975 20550 READING 70 0.988600
1413452923081 20550 READING 78 0.990949
1413452923209 20550 READING 89 0.931307
1413452923341 20550 READING 101 0.991255
1413452923496 20550 READING 117 0.993418
1413452923628 20550 READING 111 0.985152
1413452923764 20550 READING 129 0.993821
1413452923924 20550 READING 147 0.994506
1413452924111 20550 READING 141 0.996253
1413452924264 20550 READING 135 0.994609
1413452924448 20550 READING 130 0.996063
1413452924577 20550 READING 125 0.992889
1413452924756 20550 READING 120 0.995516
1413452924957 20550 READING 115 0.995932
1413452925155 20550 READING 111 0.996017
1413452925305 20550 READING 106 0.994207
1413452925443 20550 READING 103 0.993846
1413452925568 20550 READING 99 0.992309
1413452925689 20550 READING 96 0.993928
1413452925828 20550 READING 92 0.993835
1413452925964 20550 READING 89 0.994552
1413452926103 20550 READING 86 0.994032
1413452926242 20550 READING 83 0.994323
1413452926362 20550 READING 81 0.993708
1413452926475 20550 READING 78 0.992848
1413452926570 20550 READING 75 0.992106
1413452926679 20550 READING 73 0.991290
1413452926775 20550 READING 71 0.990433
1413452926882 20550 READING 69 0.990981
1413452927023 20550 READING 67 0.988850
1413452927115 20550 READING 65 0.988288
1413452927221 20550 READING 73 0.990832
1413452927350 20550 READING 84 0.987826
1413452927564 20550 READING 95 0.992675
1413452927720 20550 READING 109 0.989422
1413452927901 20550 READING 125 0.989712
1413452928055 20550 FUNCTION lru lambda h: 0.964102 * (h ** 0.00628576)
1413452928055 20549 FUNCTION lru lambda h: 0.001 * (h ** 0.999)
1413452928056 20550 RECOMMEND 2438
1413452928056 20549 RECOMMEND 2438
1413452928197 20550 READING 144 0.997167
1413452928281 20549 READING 1328 0.744508
1413452928366 20550 READING 138 0.995652
1413452928552 20550 READING 133 0.995589
1413452928736 20550 READING 127 0.995135
1413452928913 20550 READING 123 0.994294
1413452929091 20550 READING 118 0.995333
1413452929231 20550 READING 114 0.994816
1413452929371 20550 READING 109 0.995039
1413452929552 20550 READING 106 0.995145
1413452929694 20550 READING 102 0.993657
1413452929809 20550 READING 98 0.992723
1413452929926 20550 READING 94 0.993670
1413452930034 20550 READING 91 0.991912
1413452930132 20550 READING 88 0.990862
1413452930225 20550 READING 85 0.991316
1413452930325 20550 READING 82 0.992660
1413452930425 20550 READING 80 0.987644
1413452930517 20550 READING 77 0.987960
1413452930618 20550 READING 88 0.990887
1413452930738 20550 READING 100 0.993799
1413452930850 20550 READING 96 0.991490
1413452930960 20550 READING 93 0.992433
1413452931068 20550 READING 90 0.992638
1413452931167 20550 READING 87 0.991085
1413452931270 20550 READING 85 0.991362
1413452931387 20550 READING 81 0.993536
1413452931511 20550 READING 78 0.992462
1413452931618 20550 READING 75 0.991541
1413452931723 20550 READING 74 0.990839
1413452931807 20550 READING 71 0.988752
1413452931863 20549 READING 1460 0.989653
1413452931885 20550 READING 70 0.989096
1413452931985 20550 READING 78 0.908476
1413452932099 20550 READING 89 0.986640
1413452932250 20550 READING 102 0.994609
1413452932314 20549 READING 1514 0.922908
1413452932415 20550 READING 99 0.993998
1413452932560 20550 READING 95 0.993715
1413452932622 20549 READING 1516 0.811856
1413452932717 20550 READING 92 0.994150
1413452932845 20550 READING 88 0.992181
1413452932893 20549 READING 1504 0.819919
1413452932972 20550 READING 86 0.991476
1413452933084 20550 READING 83 0.990689
1413452933175 20549 READING 1510 0.806169
1413452933185 20550 READING 80 0.990565
1413452933286 20550 READING 77 0.990348
1413452933376 20550 READING 76 0.988178
1413452933460 20549 READING 1499 0.834592
1413452933492 20550 READING 85 0.993185
1413452933587 20550 READING 83 0.990462
1413452933667 20550 READING 80 0.988934
1413452933747 20549 READING 1506 0.835769
1413452933758 20550 READING 90 0.987484
1413452933866 20550 READING 104 0.991726
1413452934006 20550 READING 119 0.993418
1413452934046 20549 READING 1501 0.867721
1413452934158 20550 READING 114 0.993467
1413452934301 20550 READING 111 0.991686
1413452934468 20550 READING 106 0.994627
1413452934570 20550 READING 102 0.989704
1413452934689 20550 READING 99 0.992486
1413452934844 20550 READING 95 0.994460
1413452934999 20550 READING 91 0.994937
1413452935074 20549 READING 1508 0.977184
1413452935163 20550 READING 89 0.994465
1413452935286 20550 READING 85 0.992625
1413452935403 20550 READING 83 0.986451
1413452935525 20550 READING 80 0.992281
1413452935624 20550 READING 78 0.990093
1413452935719 20550 READING 75 0.990298
1413452935815 20550 READING 73 0.988797
1413452935943 20550 READING 83 0.993507
1413452936067 20550 READING 80 0.993298
1413452936191 20550 READING 77 0.993189
1413452936314 20550 READING 75 0.993411
1413452936427 20550 READING 73 0.992585
1413452936531 20550 READING 71 0.992491
1413452936627 20550 READING 68 0.992033
1413452936710 20550 READING 67 0.988406
1413452936801 20550 READING 65 0.990178
1413452936889 20550 READING 63 0.989420
1413452936962 20550 READING 61 0.990057
1413452937039 20550 READING 70 0.989030
1413452937155 20550 READING 79 0.991234
1413452937289 20550 READING 89 0.994104
1413452937413 20550 READING 86 0.993012
1413452937509 20550 READING 83 0.991380
1413452937590 20549 READING 1511 0.987011
1413452937612 20550 READING 81 0.991854
1413452937681 20550 READING 78 0.987130
1413452937772 20550 READING 89 0.990016
1413452937886 20550 READING 101 0.991024
1413452938017 20550 READING 115 0.992186
1413452938056 20550 FUNCTION lru lambda h: 0.963908 * (h ** 0.00634873)
1413452938056 20549 FUNCTION lru lambda h: 0.001 * (h ** 0.999)
1413452938056 20550 RECOMMEND 2438
1413452938056 20549 RECOMMEND 2438
1413452938150 20550 READING 111 0.994268
1413452938298 20550 READING 107 0.994412
1413452938449 20550 READING 103 0.945336
1413452938587 20550 READING 99 0.994707
1413452938726 20550 READING 96 0.992645
1413452938862 20550 READING 93 0.993289
1413452938972 20550 READING 90 0.993519
1413452939074 20550 READING 86 0.991089
1413452939182 20550 READING 84 0.992791
1413452939322 20550 READING 81 0.993897
1413452939437 20550 READING 79 0.992952
1413452939528 20550 READING 76 0.991124
1413452939610 20550 READING 74 0.991213
1413452939697 20550 READING 72 0.989571
1413452939776 20550 READING 70 0.990783
1413452939853 20550 READING 67 0.990297
1413452939922 20550 READING 66 0.988587
1413452940002 20550 READING 74 0.990170
1413452940102 20550 READING 85 0.988545
1413452940125 20549 READING 1519 0.982911
1413452940251 20550 READING 96 0.992177
1413452940379 20550 READING 111 0.992533
1413452940514 20550 READING 107 0.993833
1413452940643 20550 READING 103 0.992034
1413452940770 20550 READING 100 0.991252
1413452940897 20550 READING 96 0.993030
1413452941010 20550 READING 93 0.993043
1413452941125 20550 READING 90 0.991437
1413452941251 20550 READING 87 0.993121
1413452941385 20550 READING 84 0.993184
1413452941504 20550 READING 81 0.992475
1413452941623 20550 READING 79 0.990165
1413452941712 20550 READING 76 0.991938
1413452941799 20550 READING 74 0.989409
1413452941886 20550 READING 72 0.989517
1413452941970 20550 READING 70 0.989781
1413452942059 20550 READING 68 0.989586
1413452942153 20550 READING 66 0.991698
1413452942250 20550 READING 64 0.990944
1413452942338 20550 READING 62 0.988643
1413452942420 20550 READING 60 0.989171
1413452942524 20550 READING 69 0.992149
1413452942626 20550 READING 66 0.991599
1413452942713 20550 READING 65 0.979962
1413452942754 20549 READING 1529 0.975649
1413452942823 20550 READING 73 0.991203
1413452942939 20550 READING 84 0.991964
1413452943069 20550 READING 95 0.992827
1413452943216 20550 READING 110 0.993095
1413452943360 20550 READING 106 0.993091
1413452943488 20550 READING 101 0.991556
1413452943595 20550 READING 98 0.991848
1413452943694 20550 READING 94 0.991387
1413452943792 20550 READING 91 0.990674
1413452943897 20550 READING 88 0.990520
1413452944011 20550 READING 85 0.992688
1413452944108 20550 READING 83 0.900302
1413452944201 20550 READING 79 0.990723
1413452944309 20550 READING 78 0.990558
1413452944398 20550 READING 74 0.990314
1413452944463 20550 READING 73 0.986330
1413452944554 20550 READING 82 0.992381
1413452944694 20550 READING 94 0.993812
1413452944845 20550 READING 91 0.993669
1413452945003 20550 READING 87 0.993514
1413452945141 20550 READING 85 0.970619
1413452945282 20550 READING 97 0.994548
1413452945439 20549 READING 1532 0.973026
1413452945441 20550 READING 112 0.980773
1413452945615 20550 READING 129 0.994155
1413452945857 20550 READING 149 0.979539
1413452946178 20550 READING 175 0.997656
1413452946494 20550 READING 184 0.997214
1413452946778 20550 READING 176 0.997141
1413452947029 20550 READING 169 0.996614
1413452947288 20550 READING 162 0.997133
1413452947483 20550 READING 155 0.995323
1413452947646 20550 READING 149 0.994883
1413452947807 20550 READING 143 0.994757
1413452947978 20550 READING 137 0.994203
1413452948056 20550 FUNCTION lru lambda h: 0.955262 * (h ** 0.00811946)
1413452948056 20549 FUNCTION lru lambda h: 0.001 * (h ** 0.999)
1413452948056 20550 RECOMMEND 2438
1413452948056 20549 RECOMMEND 2438
1413452948165 20550 READING 132 0.994677
1413452948204 20549 READING 1524 0.969340
1413452948357 20550 READING 127 0.994966
1413452948536 20550 READING 121 0.994861
1413452948715 20550 READING 118 0.994566
1413452948859 20550 READING 113 0.994796
1413452949001 20550 READING 109 0.994621
1413452949177 20550 READING 105 0.995261
1413452949330 20550 READING 101 0.994840
1413452949450 20550 READING 97 0.992124
1413452949571 20550 READING 94 0.992449
1413452949682 20550 READING 91 0.993203
1413452949785 20550 READING 88 0.992649
1413452949882 20550 READING 85 0.991579
1413452949976 20550 READING 82 0.992479
1413452950090 20550 READING 80 0.987596
1413452950173 20550 READING 77 0.988252
1413452950276 20550 READING 88 0.990607
1413452950393 20550 READING 102 0.992649
1413452950507 20550 READING 97 0.992672
1413452950617 20550 READING 93 0.991270
1413452950730 20550 READING 91 0.991361
1413452950830 20550 READING 88 0.990788
1413452950941 20549 READING 1531 0.968840
1413452950942 20550 READING 85 0.991709
1413452951050 20550 READING 83 0.991691
1413452951170 20550 READING 79 0.993252
1413452951283 20550 READING 77 0.991537
1413452951387 20550 READING 74 0.991270
1413452951481 20550 READING 73 0.991051
1413452951560 20550 READING 70 0.989630
1413452951633 20550 READING 68 0.987363
1413452951709 20550 READING 66 0.987417
1413452951801 20550 READING 76 0.990244
1413452951919 20550 READING 86 0.993534
1413452952051 20550 READING 83 0.992520
1413452952168 20550 READING 80 0.991953
1413452952282 20550 READING 78 0.990953
1413452952401 20550 READING 75 0.992380
1413452952506 20550 READING 73 0.911447
1413452952604 20550 READING 70 0.992233
1413452952691 20550 READING 69 0.988642
1413452952778 20550 READING 66 0.990261
1413452952855 20550 READING 65 0.986460
1413452952948 20550 READING 73 0.991261
1413452953051 20550 READING 84 0.990095
1413452953182 20550 READING 95 0.993021
1413452953285 20550 READING 93 0.990163
1413452953378 20550 READING 89 0.991555
1413452953458 20550 READING 87 0.988857
1413452953565 20550 READING 99 0.991636
1413452953679 20550 READING 95 0.984326
1413452953739 20549 READING 1512 0.970628
1413452953836 20550 READING 109 0.994460
1413452953991 20550 READING 127 0.994124
1413452954162 20550 READING 121 0.994736
1413452954288 20550 READING 117 0.993825
1413452954455 20550 READING 112 0.994944
1413452954641 20550 READING 108 0.996268
1413452954834 20550 READING 104 0.995615
1413452954979 20550 READING 100 0.993213
1413452955115 20550 READING 97 0.993655
1413452955234 20550 READING 94 0.994241
1413452955348 20550 READING 91 0.992048
1413452955465 20550 READING 87 0.992546
1413452955598 20550 READING 85 0.992882
1413452955722 20550 READING 82 0.992509
1413452955848 20550 READING 79 0.993553
1413452955974 20550 READING 77 0.992987
1413452956083 20550 READING 74 0.992549
1413452956191 20550 READING 72 0.992217
1413452956287 20550 READING 70 0.990613
1413452956370 20550 READING 68 0.990497
1413452956470 20550 READING 66 0.988314
1413452956568 20549 READING 1434 0.965248
1413452956579 20550 READING 64 0.991425
1413452956646 20550 READING 62 0.984283
1413452956739 20550 READING 71 0.991539
1413452956855 20550 READING 81 0.992613
1413452956971 20550 READING 78 0.991327
1413452957072 20550 READING 75 0.990280
1413452957152 20550 READING 74 0.988926
1413452957246 20550 READING 83 0.990355
1413452957337 20550 READING 95 0.989860
1413452957463 20550 READING 109 0.992410
1413452957574 20550 READING 105 0.989587
1413452957695 20550 READING 101 0.992907
1413452957817 20550 READING 98 0.993531
1413452957942 20550 READING 94 0.993177
1413452958056 20550 FUNCTION lru lambda h: 0.957158 * (h ** 0.00778047)
1413452958056 20549 FUNCTION lru lambda h: 0.00279022 * (h ** 0.803595)
1413452958056 20550 RECOMMEND 2438
1413452958056 20549 RECOMMEND 2438
1413452958066 20550 READING 91 0.993063
1413452958189 20550 READING 88 0.993308
1413452958307 20550 READING 85 0.991072
1413452958424 20550 READING 82 0.992325
1413452958530 20550 READING 80 0.993399
1413452958618 20550 READING 77 0.991204
1413452958703 20550 READING 75 0.988791
1413452958792 20550 READING 72 0.991190
1413452958902 20550 READING 70 0.992837
1413452959010 20550 READING 68 0.992236
1413452959092 20550 READING 66 0.988520
1413452959164 20550 READING 64 0.986607
1413452959247 20550 READING 73 0.990559
1413452959368 20550 READING 83 0.987594
1413452959419 20549 READING 1511 0.969394
1413452959496 20550 READING 95 0.993198
1413452959601 20550 READING 92 0.989547
1413452959702 20550 READING 89 0.991960
1413452959815 20550 READING 86 0.991694
1413452959919 20550 READING 83 0.910733
1413452960027 20550 READING 96 0.990973
1413452960131 20550 READING 93 0.991915
1413452960234 20550 READING 90 0.992114
1413452960332 20550 READING 87 0.990636
1413452960428 20550 READING 84 0.991803
1413452960523 20550 READING 81 0.990593
1413452960610 20550 READING 79 0.990092
1413452960698 20550 READING 76 0.990099
1413452960787 20550 READING 74 0.990729
1413452960886 20550 READING 73 0.992118
1413452960987 20550 READING 70 0.991239
1413452961078 20550 READING 67 0.989694
1413452961167 20550 READING 66 0.990031
1413452961250 20550 READING 63 0.989602
1413452961315 20550 READING 62 0.987345
1413452961388 20550 READING 70 0.988793
1413452961482 20550 READING 80 0.990525
1413452961596 20550 READING 92 0.993306
1413452961724 20550 READING 89 0.993974
1413452961857 20550 READING 86 0.992639
1413452961976 20550 READING 83 0.991822
1413452962099 20550 READING 81 0.992174
1413452962216 20550 READING 78 0.992479
1413452962314 20550 READING 76 0.983135
1413452962332 20549 READING 1516 0.961337
1413452962444 20550 READING 86 0.992710
1413452962554 20550 READING 84 0.992172
1413452962649 20550 READING 81 0.989565
1413452962748 20550 READING 78 0.989823
1413452962834 20550 READING 76 0.990510
1413452962925 20550 READING 73 0.990685
1413452963005 20550 READING 71 0.988079
1413452963084 20550 READING 82 0.987699
1413452963173 20550 READING 93 0.990561
1413452963281 20550 READING 108 0.992260
1413452963394 20550 READING 103 0.992641
1413452963524 20550 READING 99 0.992027
1413452963613 20550 READING 96 0.988410
1413452963735 20550 READING 93 0.992162
1413452963856 20550 READING 89 0.993549
1413452963932 20550 READING 87 0.986260
1413452964020 20550 READING 83 0.988767
1413452964159 20550 READING 96 0.993390
1413452964311 20550 READING 93 0.993531
1413452964468 20550 READING 89 0.993001
1413452964601 20550 READING 87 0.993264
1413452964711 20550 READING 84 0.991888
1413452964814 20550 READING 81 0.991533
1413452964905 20550 READING 79 0.990343
1413452964993 20550 READING 76 0.990701
1413452965079 20550 READING 73 0.990200
1413452965175 20550 READING 72 0.987214
1413452965277 20549 READING 1520 0.961854
1413452965343 20550 READING 70 0.994248
1413452965435 20550 READING 67 0.989594
1413452965532 20550 READING 66 0.990783
1413452965624 20550 READING 64 0.990922
1413452965718 20550 READING 62 0.989602
1413452965798 20550 READING 61 0.987815
1413452965895 20550 READING 69 0.991585
1413452965982 20550 READING 66 0.990410
1413452966058 20550 READING 65 0.986261
1413452966161 20550 READING 73 0.990831
1413452966285 20550 READING 84 0.927588
1413452966402 20550 READING 96 0.988511
1413452966560 20550 READING 108 0.994218
1413452966716 20550 READING 103 0.993981
1413452966832 20550 READING 99 0.991645
1413452966943 20550 READING 96 0.990766
1413452967027 20550 READING 93 0.986681
1413452967120 20550 READING 90 0.990997
1413452967211 20550 READING 87 0.987514
1413452967313 20550 READING 99 0.990713
1413452967434 20550 READING 107 0.991760
1413452967569 20550 READING 103 0.992496
1413452967702 20550 READING 100 0.993114
1413452967830 20550 READING 96 0.993442
1413452967954 20550 READING 93 0.991721
1413452968057 20550 FUNCTION lru lambda h: 0.955414 * (h ** 0.00813576)
1413452968057 20549 FUNCTION lru lambda h: 0.00230828 * (h ** 0.830175)
1413452968057 20550 RECOMMEND 2438
1413452968057 20549 RECOMMEND 2438
1413452968078 20550 READING 90 0.991522
1413452968204 20550 READING 87 0.986488
1413452968254 20549 READING 1521 0.951663
1413452968310 20550 READING 84 0.992387
1413452968401 20550 READING 82 0.991178
1413452968499 20550 READING 79 0.990970
1413452968626 20550 READING 77 0.993398
1413452968729 20550 READING 74 0.992427
1413452968810 20550 READING 73 0.990231
1413452968884 20550 READING 70 0.987232
1413452968960 20550 READING 68 0.989937
1413452969032 20550 READING 66 0.988459
1413452969114 20550 READING 75 0.991764
1413452969206 20550 READING 86 0.991686
1413452969295 20550 READING 83 0.991528
1413452969381 20550 READING 80 0.989131
1413452969502 20550 READING 78 0.990198
1413452969598 20550 READING 89 0.990148
1413452969719 20550 READING 102 0.990675
1413452969844 20550 READING 107 0.991474
1413452969963 20550 READING 102 0.993110
1413452970081 20550 READING 99 0.993380
1413452970195 20550 READING 95 0.992832
1413452970302 20550 READING 92 0.992619
1413452970413 20550 READING 90 0.993061
1413452970539 20550 READING 86 0.993561
1413452970665 20550 READING 84 0.993072
1413452970777 20550 READING 81 0.992754
1413452970886 20550 READING 79 0.992955
1413452970972 20550 READING 76 0.988217
1413452971053 20550 READING 74 0.988694
1413452971137 20550 READING 72 0.988701
1413452971241 20549 READING 1526 0.956717
1413452971260 20550 READING 71 0.992905
1413452971347 20550 READING 68 0.990230
1413452971439 20550 READING 66 0.990693
1413452971533 20550 READING 64 0.990577
1413452971616 20550 READING 64 0.987517
1413452971717 20550 READING 72 0.990894
1413452971823 20550 READING 69 0.991837
1413452971920 20550 READING 67 0.991776
1413452971997 20550 READING 66 0.987172
1413452972098 20550 READING 74 0.990376
1413452972212 20550 READING 86 0.990786
1413452972312 20550 READING 82 0.991454
1413452972413 20550 READING 81 0.989955
1413452972509 20550 READING 77 0.991411
1413452972605 20550 READING 76 0.908183
1413452972701 20550 READING 72 0.992295
1413452972780 20550 READING 71 0.988468
1413452972852 20550 READING 68 0.989890
1413452972914 20550 READING 67 0.986055
1413452972993 20550 READING 76 0.989528
1413452973089 20550 READING 87 0.991384
1413452973209 20550 READING 90 0.992070
1413452973322 20550 READING 87 0.992122
1413452973410 20550 READING 85 0.989474
1413452973526 20550 READING 82 0.991512
1413452973647 20550 READING 79 0.993094
1413452973723 20550 READING 77 0.988193
1413452973802 20550 READING 75 0.989516
1413452973890 20550 READING 73 0.991579
1413452973998 20550 READING 71 0.992209
1413452974110 20550 READING 68 0.990031
1413452974217 20549 READING 1533 0.949312
1413452974243 20550 READING 66 0.993675
1413452974356 20550 READING 65 0.990753
1413452974455 20550 READING 63 0.992163
1413452974535 20550 READING 62 0.988627
1413452974616 20550 READING 60 0.987453
1413452974706 20550 READING 68 0.988374
1413452974809 20550 READING 78 0.991686
1413452974907 20550 READING 75 0.991434
1413452974999 20550 READING 73 0.991358
1413452975092 20550 READING 72 0.989613
1413452975192 20550 READING 69 0.990662
1413452975294 20550 READING 67 0.991482
1413452975396 20550 READING 65 0.991505
1413452975495 20550 READING 63 0.990614
1413452975593 20550 READING 62 0.991209
1413452975685 20550 READING 61 0.990752
1413452975767 20550 READING 59 0.990601
1413452975849 20550 READING 57 0.989872
1413452975922 20550 READING 56 0.989915
1413452975992 20550 READING 55 0.986037
1413452976069 20550 READING 61 0.989170
1413452976178 20550 READING 70 0.992384
1413452976280 20550 READING 77 0.990499
1413452976369 20550 READING 74 0.990265
1413452976474 20550 READING 71 0.991569
1413452976571 20550 READING 70 0.992777
1413452976672 20550 READING 68 0.991070
1413452976762 20550 READING 65 0.989707
1413452976827 20550 READING 64 0.984016
1413452976919 20550 READING 72 0.990323
1413452976993 20550 READING 74 0.988566
1413452977065 20550 READING 74 0.968974
1413452977160 20549 READING 1539 0.955212
1413452977191 20550 READING 84 0.991988
1413452977284 20550 READING 84 0.987263
1413452977395 20550 READING 97 0.991485
1413452977513 20550 READING 97 0.990943
1413452977672 20550 READING 111 0.994766
1413452977836 20550 READING 111 0.993136
1413452978005 20550 READING 107 0.945334
1413452978057 20550 FUNCTION lru lambda h: 0.958068 * (h ** 0.00752225)
1413452978057 20549 FUNCTION lru lambda h: 0.0115826 * (h ** 0.604496)
1413452978057 20550 RECOMMEND 2438
1413452978057 20549 RECOMMEND 2438
1413452978159 20550 READING 102 0.993669
1413452978315 20550 READING 99 0.994272
1413452978443 20550 READING 96 0.993705
1413452978562 20550 READING 93 0.992039
1413452978689 20550 READING 90 0.993689
1413452978847 20550 READING 87 0.994362
1413452978970 20550 READING 84 0.992269
1413452979074 20550 READING 81 0.991072
1413452979175 20550 READING 79 0.992745
1413452979273 20550 READING 76 0.992490
1413452979366 20550 READING 74 0.991519
1413452979451 20550 READING 72 0.990101
1413452979533 20550 READING 70 0.990492
1413452979611 20550 READING 67 0.988795
1413452979686 20550 READING 66 0.988045
1413452979790 20550 READING 75 0.988138
1413452979887 20550 READING 85 0.991159
1413452980003 20550 READING 97 0.987603
1413452980143 20550 READING 114 0.993345
1413452980229 20549 READING 1549 0.940442
1413452980297 20550 READING 121 0.992940
1413452980445 20550 READING 115 0.993888
1413452980579 20550 READING 111 0.993970
1413452980718 20550 READING 107 0.993973
1413452980880 20550 READING 103 0.995093
1413452981032 20550 READING 100 0.994506
1413452981176 20550 READING 96 0.994438
1413452981286 20550 READING 93 0.991243
1413452981392 20550 READING 90 0.991276
1413452981497 20550 READING 87 0.991935
1413452981611 20550 READING 84 0.992334
1413452981736 20550 READING 82 0.993171
1413452981854 20550 READING 79 0.994185
1413452981961 20550 READING 77 0.990239
1413452982077 20550 READING 74 0.993068
1413452982182 20550 READING 73 0.991635
1413452982268 20550 READING 70 0.988994
1413452982358 20550 READING 69 0.988222
1413452982440 20550 READING 66 0.989306
1413452982518 20550 READING 65 0.987687
1413452982603 20550 READING 72 0.989031
1413452982711 20550 READING 84 0.990141
1413452982829 20550 READING 95 0.992363
1413452982947 20550 READING 93 0.991662
1413452983037 20550 READING 89 0.989283
1413452983128 20550 READING 86 0.989450
1413452983216 20549 READING 1559 0.948717
1413452983250 20550 READING 99 0.993420
1413452983353 20550 READING 95 0.991312
1413452983467 20550 READING 92 0.991324
1413452983562 20550 READING 89 0.989178
1413452983656 20550 READING 86 0.990947
1413452983783 20550 READING 84 0.924432
1413452983875 20550 READING 81 0.991547
1413452983944 20550 READING 79 0.985022
1413452984040 20550 READING 89 0.988716
1413452984197 20550 READING 103 0.993806
1413452984360 20550 READING 99 0.995572
1413452984527 20550 READING 96 0.994682
1413452984653 20550 READING 92 0.993146
1413452984774 20550 READING 90 0.992211
1413452984879 20550 READING 87 0.992781
1413452984978 20550 READING 84 0.990580
1413452985074 20550 READING 81 0.989642
1413452985176 20550 READING 79 0.990716
1413452985289 20550 READING 76 0.993199
1413452985394 20550 READING 74 0.991422
1413452985501 20550 READING 71 0.991978
1413452985608 20550 READING 70 0.991406
1413452985704 20550 READING 68 0.991384
1413452985793 20550 READING 66 0.991060
1413452985877 20550 READING 64 0.991708
1413452985954 20550 READING 63 0.986763
1413452986024 20550 READING 61 0.987189
1413452986125 20550 READING 69 0.988484
1413452986232 20550 READING 78 0.990497
1413452986241 20549 READING 1567 0.942337
1413452986349 20550 READING 90 0.993406
1413452986471 20550 READING 87 0.992929
1413452986590 20550 READING 84 0.993267
1413452986693 20550 READING 81 0.991627
1413452986778 20550 READING 79 0.989565
1413452986859 20550 READING 76 0.988651
1413452986921 20550 READING 73 0.985987
1413452987002 20550 READING 84 0.989844
1413452987101 20550 READING 93 0.987991
1413452987193 20550 READING 96 0.990275
1413452987303 20550 READING 96 0.991071
1413452987444 20550 READING 110 0.994572
1413452987580 20550 READING 106 0.994468
1413452987719 20550 READING 103 0.993090
1413452987852 20550 READING 99 0.992667
1413452987986 20550 READING 96 0.993207
1413452988057 20550 FUNCTION lru lambda h: 0.960322 * (h ** 0.00708482)
1413452988057 20549 FUNCTION lru lambda h: 0.00993334 * (h ** 0.625454)
1413452988057 20550 RECOMMEND 2438
1413452988057 20549 RECOMMEND 2438
1413452988110 20550 READING 93 0.993775
1413452988211 20550 READING 90 0.992223
1413452988310 20550 READING 87 0.991676
1413452988430 20550 READING 84 0.993134
1413452988560 20550 READING 82 0.993638
1413452988655 20550 READING 78 0.991070
1413452988737 20550 READING 76 0.988486
1413452988819 20550 READING 74 0.990044
1413452988898 20550 READING 72 0.988899
1413452988971 20550 READING 70 0.989212
1413452989039 20550 READING 68 0.988699
1413452989134 20550 READING 77 0.988006
1413452989253 20549 READING 1578 0.953681
1413452989264 20550 READING 87 0.993018
1413452989384 20550 READING 85 0.991545
1413452989474 20550 READING 82 0.989465
1413452989558 20550 READING 79 0.991107
1413452989641 20550 READING 78 0.990310
1413452989722 20550 READING 75 0.989170
1413452989823 20550 READING 84 0.912744
1413452989933 20550 READING 97 0.992121
1413452990046 20550 READING 95 0.991623
1413452990146 20550 READING 91 0.991391
1413452990248 20550 READING 88 0.992329
1413452990358 20550 READING 85 0.992178
1413452990480 20550 READING 83 0.993164
1413452990594 20550 READING 80 0.992376
1413452990701 20550 READING 78 0.990827
1413452990790 20550 READING 75 0.989542
1413452990867 20550 READING 74 0.989533
1413452990942 20550 READING 71 0.987347
1413452991034 20550 READING 81 0.990457
1413452991130 20550 READING 79 0.990038
1413452991235 20550 READING 76 0.992825
1413452991344 20550 READING 74 0.991425
1413452991443 20550 READING 72 0.990785
1413452991536 20550 READING 70 0.990206
1413452991636 20550 READING 68 0.991644
1413452991726 20550 READING 66 0.991453
1413452991798 20550 READING 65 0.985696
1413452991894 20550 READING 73 0.989830
1413452992002 20550 READING 84 0.989852
1413452992111 20550 READING 92 0.991549
1413452992225 20550 READING 89 0.992628
1413452992328 20550 READING 86 0.991524
1413452992406 20549 READING 1583 0.945738
1413452992452 20550 READING 84 0.992654
1413452992534 20550 READING 81 0.987475
1413452992623 20550 READING 91 0.989997
1413452992704 20550 READING 93 0.989868
1413452992797 20550 READING 93 0.990738
1413452992919 20550 READING 106 0.991866
1413452993037 20550 READING 103 0.991681
1413452993140 20550 READING 99 0.991843
1413452993273 20550 READING 96 0.992533
1413452993370 20550 READING 92 0.989867
1413452993454 20550 READING 90 0.990380
1413452993559 20550 READING 87 0.993051
1413452993686 20550 READING 84 0.992217
1413452993812 20550 READING 81 0.992831
1413452993948 20550 READING 80 0.991774
1413452994057 20550 READING 76 0.990833
1413452994149 20550 READING 75 0.988235
1413452994239 20550 READING 73 0.989267
1413452994322 20550 READING 71 0.990711
1413452994397 20550 READING 69 0.983262
1413452994486 20550 READING 78 0.989957
1413452994598 20550 READING 89 0.992120
1413452994746 20550 READING 99 0.992839
1413452994889 20550 READING 95 0.993410
1413452995035 20550 READING 92 0.994758
1413452995173 20550 READING 89 0.993420
1413452995300 20550 READING 86 0.993229
1413452995411 20550 READING 83 0.991129
1413452995519 20550 READING 82 0.988414
1413452995639 20550 READING 79 0.983723
1413452995649 20549 READING 1594 0.944978
1413452995743 20550 READING 89 0.990336
1413452995886 20550 READING 99 0.992519
1413452996029 20550 READING 99 0.993431
1413452996154 20550 READING 95 0.992793
1413452996258 20550 READING 92 0.990776
1413452996342 20550 READING 89 0.989723
1413452996417 20550 READING 86 0.990506
1413452996510 20550 READING 83 0.907120
1413452996590 20550 READING 80 0.989800
1413452996661 20550 READING 78 0.983172
1413452996759 20550 READING 90 0.991191
1413452996888 20550 READING 103 0.993901
1413452997011 20550 READING 100 0.994368
1413452997138 20550 READING 96 0.992487
1413452997258 20550 READING 92 0.992634
1413452997378 20550 READING 89 0.989334
1413452997497 20550 READING 87 0.992680
1413452997594 20550 READING 84 0.991011
1413452997681 20550 READING 82 0.991532
1413452997771 20550 READING 79 0.991559
1413452997878 20550 READING 77 0.993436
1413452997996 20550 READING 75 0.993230
1413452998057 20550 FUNCTION lru lambda h: 0.955554 * (h ** 0.00807422)
1413452998057 20549 FUNCTION lru lambda h: 0.00692023 * (h ** 0.675201)
1413452998057 20550 RECOMMEND 2438
1413452998057 20549 RECOMMEND 2438
1413452998084 20550 READING 72 0.990228
1413452998158 20550 READING 71 0.988393
1413452998228 20550 READING 69 0.990146
1413452998301 20550 READING 67 0.987568
1413452998382 20550 READING 76 0.991409
1413452998458 20550 READING 73 0.990480
1413452998530 20550 READING 72 0.988694
1413452998614 20550 READING 82 0.990813
1413452998724 20550 READING 93 0.992795
1413452998800 20549 READING 1596 0.953337
1413452998864 20550 READING 90 0.991345
1413452998964 20550 READING 87 0.990535
1413452999066 20550 READING 84 0.988237
1413452999186 20550 READING 96 0.992037
1413452999303 20550 READING 93 0.992629
1413452999416 20550 READING 91 0.990847
1413452999529 20550 READING 87 0.993458
1413452999631 20550 READING 84 0.990498
1413452999733 20550 READING 82 0.991229
1413452999839 20550 READING 80 0.992023
1413452999956 20550 READING 77 0.992380
1413453000067 20550 READING 75 0.992424
1413453000168 20550 READING 73 0.992340
1413453000271 20550 READING 71 0.990110
1413453000346 20550 READING 68 0.987141
1413453000421 20550 READING 67 0.988332
1413453000513 20550 READING 76 0.990997
1413453000601 20550 READING 74 0.990353
1413453000694 20550 READING 72 0.990817
1413453000795 20550 READING 70 0.992143
1413453000899 20550 READING 68 0.991284
1413453000993 20550 READING 65 0.989512
1413453001078 20550 READING 64 0.987925
1413453001192 20550 READING 73 0.992862
1413453001300 20550 READING 70 0.992072
1413453001387 20550 READING 69 0.988558
1413453001478 20550 READING 66 0.986954
1413453001578 20550 READING 76 0.990010
1413453001699 20550 READING 86 0.991550
1413453001819 20550 READING 91 0.990091
1413453001953 20550 READING 99 0.990391
1413453002089 20549 READING 1606 0.945083
1413453002132 20550 READING 99 0.994965
1413453002259 20550 READING 95 0.927378
1413453002355 20550 READING 93 0.990042
1413453002444 20550 READING 90 0.989760
1413453002558 20550 READING 103 0.992889
1413453002688 20550 READING 99 0.993564
1413453002798 20550 READING 96 0.991691
1413453002906 20550 READING 92 0.989964
1413453003041 20550 READING 90 0.992816
1413453003140 20550 READING 86 0.990928
1413453003226 20550 READING 85 0.989705
1413453003322 20550 READING 82 0.989632
1413453003444 20550 READING 79 0.992803
1413453003567 20550 READING 76 0.993486
1413453003689 20550 READING 75 0.991784
1413453003813 20550 READING 73 0.990782
1413453003910 20550 READING 70 0.991082
1413453004001 20550 READING 69 0.990497
1413453004087 20550 READING 66 0.988531
1413453004166 20550 READING 64 0.987536
1413453004254 20550 READING 74 0.990068
1413453004358 20550 READING 84 0.990751
1413453004490 20550 READING 96 0.992856
1413453004638 20550 READING 93 0.994092
1413453004783 20550 READING 90 0.993868
1413453004926 20550 READING 87 0.991232
1413453005062 20550 READING 84 0.994401
1413453005186 20550 READING 82 0.993471
1413453005303 20550 READING 79 0.989290
1413453005402 20549 READING 1608 0.955655
1413453005448 20550 READING 77 0.994419
1413453005563 20550 READING 75 0.992622
1413453005656 20550 READING 72 0.990837
1413453005737 20550 READING 71 0.988825
1413453005833 20550 READING 69 0.991163
1413453005923 20550 READING 66 0.989284
1413453006014 20550 READING 64 0.989632
1413453006096 20550 READING 64 0.988994
1413453006183 20550 READING 71 0.988217
1413453006280 20550 READING 82 0.990764
1413453006376 20550 READING 93 0.990665
1413453006479 20550 READING 98 0.989314
1413453006602 20550 READING 107 0.993078
1413453006719 20550 READING 103 0.991451
1413453006840 20550 READING 100 0.991839
1413453006969 20550 READING 96 0.993605
1413453007095 20550 READING 93 0.993728
1413453007220 20550 READING 90 0.992149
1413453007340 20550 READING 87 0.992903
1413453007459 20550 READING 85 0.990956
1413453007578 20550 READING 81 0.991859
1413453007679 20550 READING 80 0.991363
1413453007768 20550 READING 77 0.991320
1413453007857 20550 READING 75 0.990895
1413453007950 20550 READING 73 0.991177
1413453008057 20550 FUNCTION lru lambda h: 0.955697 * (h ** 0.00800331)
1413453008058 20549 FUNCTION lru lambda h: 0.00531594 * (h ** 0.711366)
1413453008058 20550 RECOMMEND 2438
1413453008058 20549 RECOMMEND 2438
1413453008065 20550 READING 71 0.991945
1413453008171 20550 READING 69 0.991646
1413453008254 20550 READING 67 0.989666
1413453008327 20550 READING 65 0.987584
1413453008397 20550 READING 64 0.990416
1413453008471 20550 READING 62 0.988104
1413453008553 20550 READING 70 0.990707
1413453008657 20550 READING 79 0.992754
1413453008768 20549 READING 1618 0.948798
1413453008776 20550 READING 77 0.992832
1413453008859 20550 READING 75 0.989923
1413453008940 20550 READING 73 0.990836
1413453009049 20550 READING 70 0.925649
1413453009116 20550 READING 68 0.988196
1413453009197 20550 READING 78 0.990650
1413453009281 20550 READING 76 0.990874
1413453009360 20550 READING 73 0.989831
1413453009437 20550 READING 71 0.990526
1413453009512 20550 READING 69 0.989629
1413453009600 20550 READING 79 0.990371
1413453009711 20550 READING 90 0.992295
1413453009810 20550 READING 87 0.992372
1413453009909 20550 READING 83 0.992124
1413453010012 20550 READING 81 0.992917
1413453010128 20550 READING 79 0.992491
1413453010241 20550 READING 76 0.993170
1413453010342 20550 READING 74 0.992546
1413453010443 20550 READING 72 0.991728
1413453010521 20550 READING 70 0.990230
1413453010594 20550 READING 68 0.988931
1413453010669 20550 READING 66 0.988326
1413453010739 20550 READING 64 0.987389
1413453010827 20550 READING 73 0.990317
1413453010948 20550 READING 83 0.994083
1413453011073 20550 READING 80 0.993000
1413453011184 20550 READING 78 0.991610
1413453011295 20550 READING 76 0.991188
1413453011408 20550 READING 73 0.991968
1413453011499 20550 READING 71 0.989945
1413453011591 20550 READING 70 0.988981
1413453011672 20550 READING 67 0.989050
1413453011776 20550 READING 77 0.990533
1413453011861 20550 READING 74 0.988969
1413453011973 20550 READING 85 0.990831
1413453012089 20550 READING 92 0.990562
1413453012221 20549 READING 1618 0.946952
1413453012236 20550 READING 92 0.993634
1413453012336 20550 READING 89 0.988530
1413453012433 20550 READING 102 0.989453
1413453012540 20550 READING 105 0.992356
1413453012652 20550 READING 102 0.992933
1413453012782 20550 READING 98 0.993173
1413453012870 20550 READING 95 0.989543
1413453012990 20550 READING 91 0.991933
1413453013114 20550 READING 89 0.992513
1413453013190 20550 READING 86 0.987362
1413453013276 20550 READING 83 0.989188
1413453013411 20550 READING 95 0.993435
1413453013562 20550 READING 92 0.993165
1413453013717 20550 READING 89 0.993356
1413453013856 20550 READING 87 0.992600
1413453013967 20550 READING 83 0.991155
1413453014072 20550 READING 82 0.991113
1413453014167 20550 READING 79 0.991608
1413453014258 20550 READING 76 0.989736
1413453014344 20550 READING 74 0.985810
1413453014457 20550 READING 85 0.991751
1413453014584 20550 READING 82 0.993821
1413453014704 20550 READING 80 0.991923
1413453014823 20550 READING 77 0.991839
1413453014942 20550 READING 75 0.991781
1413453015045 20550 READING 73 0.991573
1413453015147 20550 READING 71 0.990415
1413453015237 20550 READING 68 0.989776
1413453015314 20550 READING 67 0.989426
1413453015420 20550 READING 65 0.874150
1413453015514 20550 READING 63 0.839631
1413453015626 20549 READING 1627 0.957404
1413453015651 20550 READING 73 0.993369
1413453015768 20550 READING 85 0.992807
1413453015900 20550 READING 93 0.994425
1413453016037 20550 READING 93 0.993011
1413453016166 20550 READING 107 0.990654
1413453016281 20550 READING 107 0.991890
1413453016411 20550 READING 124 0.993750
1413453016549 20550 READING 124 0.992168
1413453016715 20550 READING 142 0.994836
1413453016911 20550 READING 143 0.994917
1413453017110 20550 READING 137 0.994388
1413453017301 20550 READING 131 0.994710
1413453017492 20550 READING 127 0.995831
1413453017643 20550 READING 122 0.994656
1413453017797 20550 READING 118 0.994693
1413453017998 20550 READING 113 0.995688
1413453018058 20550 FUNCTION lru lambda h: 0.928144 * (h ** 0.0141733)
1413453018058 20549 FUNCTION lru lambda h: 0.00493119 * (h ** 0.721426)
1413453018058 20550 RECOMMEND 2438
1413453018058 20549 RECOMMEND 2438
1413453018141 20550 READING 109 0.992394
1413453018270 20550 READING 105 0.994007
1413453018394 20550 READING 102 0.992978
1413453018509 20550 READING 98 0.993077
1413453018616 20550 READING 94 0.990587
1413453018719 20550 READING 92 0.992979
1413453018842 20550 READING 89 0.990490
1413453018942 20550 READING 86 0.990442
1413453019085 20550 READING 83 0.988400
1413453019107 20549 READING 1627 0.955744
1413453019183 20550 READING 82 0.991226
1413453019267 20550 READING 78 0.989606
1413453019348 20550 READING 76 0.989609
1413453019428 20550 READING 74 0.988111
1413453019528 20550 READING 84 0.991616
1413453019616 20550 READING 81 0.991137
1413453019705 20550 READING 79 0.988737
1413453019797 20550 READING 76 0.989954
1413453019899 20550 READING 74 0.992530
1413453020004 20550 READING 72 0.991726
1413453020099 20550 READING 70 0.990544
1413453020192 20550 READING 68 0.987490
1413453020287 20550 READING 77 0.989753
1413453020384 20550 READING 88 0.991164
1413453020485 20550 READING 85 0.991915
1413453020583 20550 READING 83 0.990122
1413453020686 20550 READING 80 0.993286
1413453020803 20550 READING 78 0.992287
1413453020910 20550 READING 75 0.991972
1413453021007 20550 READING 73 0.988460
1413453021115 20550 READING 72 0.991174
1413453021213 20550 READING 69 0.991502
1413453021290 20550 READING 68 0.986950
1413453021391 20550 READING 76 0.989909
1413453021504 20550 READING 87 0.990937
1413453021625 20550 READING 99 0.992628
1413453021751 20550 READING 96 0.992157
1413453021861 20550 READING 92 0.993147
1413453021965 20550 READING 90 0.990138
1413453022054 20550 READING 86 0.988990
1413453022130 20550 READING 84 0.986616
1413453022220 20550 READING 96 0.990055
1413453022331 20550 READING 110 0.993226
1413453022493 20550 READING 106 0.873722
1413453022600 20549 READING 1635 0.961518
1413453022678 20550 READING 124 0.995396
1413453022889 20550 READING 143 0.995684
1413453023036 20550 READING 143 0.993756
1413453023304 20550 READING 167 0.996312
1413453023612 20550 READING 168 0.996678
1413453023901 20550 READING 194 0.996703
1413453024168 20550 READING 195 0.997037
1413453024484 20550 READING 186 0.997412
1413453024799 20550 READING 179 0.997470
1413453025063 20550 READING 171 0.997092
1413453025309 20550 READING 164 0.996330
1413453025548 20550 READING 158 0.996700
1413453025770 20550 READING 152 0.996464
1413453025935 20550 READING 145 0.994704
1413453026085 20550 READING 140 0.992336
1413453026189 20549 READING 1636 0.952269
1413453026284 20550 READING 135 0.995646
1413453026440 20550 READING 130 0.994933
1413453026608 20550 READING 124 0.994119
1413453026782 20550 READING 120 0.947765
1413453026947 20550 READING 115 0.989065
1413453027111 20550 READING 111 0.994772
1413453027253 20550 READING 107 0.994476
1413453027375 20550 READING 103 0.993168
1413453027506 20550 READING 99 0.994191
1413453027675 20550 READING 96 0.995266
1413453027798 20550 READING 93 0.993322
1413453027902 20550 READING 90 0.992970
1413453028009 20550 READING 87 0.992664
1413453028058 20550 FUNCTION lru lambda h: 0.931077 * (h ** 0.0133037)
1413453028058 20549 FUNCTION lru lambda h: 0.00380612 * (h ** 0.756909)
1413453028058 20550 RECOMMEND 2438
1413453028058 20549 RECOMMEND 2438
1413453028105 20550 READING 84 0.991815
1413453028196 20550 READING 82 0.990291
1413453028284 20550 READING 79 0.989980
1413453028365 20550 READING 76 0.987613
1413453028467 20550 READING 74 0.990145
1413453028542 20550 READING 72 0.982508
1413453028634 20550 READING 82 0.989533
1413453028744 20550 READING 94 0.990837
1413453028874 20550 READING 109 0.993615
1413453028998 20550 READING 104 0.993733
1413453029124 20550 READING 102 0.993360
1413453029239 20550 READING 97 0.991978
1413453029353 20550 READING 94 0.992764
1413453029474 20550 READING 91 0.991092
1413453029612 20550 READING 88 0.993735
1413453029742 20550 READING 85 0.993482
1413453029906 20550 READING 82 0.992677
1413453030087 20550 READING 79 0.989504
1413453030223 20550 READING 78 0.987538
1413453030343 20550 READING 75 0.985447
1413453030500 20550 READING 85 0.990471
1413453030659 20550 READING 98 0.986950
1413453030916 20550 READING 113 0.993759
1413453031243 20550 READING 130 0.994722
1413453031466 20549 READING 1643 0.665956
1413453031522 20550 READING 126 0.995929
1413453031698 20550 READING 120 0.992788
1413453031856 20550 READING 117 0.992410
1413453031995 20550 READING 112 0.993754
1413453032146 20550 READING 108 0.993106
1413453032262 20550 READING 104 0.989721
1413453032367 20550 READING 101 0.990990
1413453032462 20550 READING 97 0.988341
1413453032558 20550 READING 94 0.990032
1413453032673 20550 READING 90 0.991515
1413453032771 20550 READING 88 0.990220
1413453032853 20550 READING 85 0.990650
1413453032971 20550 READING 82 0.917366
1413453033085 20550 READING 80 0.991484
1413453033152 20550 READING 78 0.985333
1413453033244 20550 READING 88 0.978863
1413453033390 20550 READING 103 0.994038
1413453033595 20550 READING 118 0.987205
1413453033839 20550 READING 135 0.995584
1413453034071 20550 READING 157 0.996193
1413453034271 20550 READING 151 0.995671
1413453034487 20550 READING 145 0.995786
1413453034724 20550 READING 140 0.996069
1413453034958 20550 READING 134 0.997222
1413453034965 20549 READING 1698 0.988121
1413453035162 20550 READING 129 0.995686
1413453035346 20550 READING 124 0.994127
1413453035515 20550 READING 120 0.995050
1413453035677 20550 READING 115 0.995375
1413453035846 20550 READING 111 0.994809
1413453035988 20550 READING 107 0.993308
1413453036107 20550 READING 104 0.992904
1413453036202 20550 READING 100 0.986843
1413453036302 20550 READING 97 0.991026
1413453036401 20550 READING 93 0.990216
1413453036494 20550 READING 91 0.988145
1413453036592 20550 READING 88 0.990478
1413453036694 20550 READING 85 0.991151
1413453036796 20550 READING 82 0.992413
1413453036898 20550 READING 80 0.991625
1413453036997 20550 READING 77 0.992485
1413453037091 20550 READING 75 0.989048
1413453037184 20550 READING 72 0.990178
1413453037277 20550 READING 71 0.991092
1413453037369 20550 READING 69 0.989096
1413453037441 20550 READING 67 0.990465
1413453037508 20550 READING 64 0.989464
1413453037589 20550 READING 73 0.989451
1413453037698 20550 READING 84 0.992712
1413453037838 20550 READING 81 0.994265
1413453037944 20550 READING 78 0.991346
1413453038029 20550 READING 76 0.991136
1413453038058 20550 FUNCTION lru lambda h: 0.926212 * (h ** 0.0144049)
1413453038058 20549 FUNCTION lru lambda h: 0.00275859 * (h ** 0.800236)
1413453038058 20550 RECOMMEND 2438
1413453038058 20549 RECOMMEND 2438
1413453038110 20550 READING 74 0.990834
1413453038195 20550 READING 72 0.990549
1413453038271 20550 READING 70 0.989455
1413453038343 20550 READING 68 0.989249
1413453038426 20550 READING 78 0.988736
1413453038523 20550 READING 89 0.991763
1413453038626 20550 READING 85 0.993180
1413453038727 20550 READING 83 0.987168
1413453038839 20550 READING 95 0.991456
1413453038944 20550 READING 92 0.992408
1413453039047 20550 READING 89 0.993375
1413453039145 20550 READING 87 0.991648
1413453039242 20550 READING 84 0.991237
1413453039342 20550 READING 81 0.991296
1413453039430 20550 READING 79 0.989110
1413453039516 20550 READING 77 0.989711
1413453039604 20550 READING 74 0.990856
1413453039703 20550 READING 72 0.992353
1413453039805 20550 READING 70 0.991652
1413453039899 20550 READING 68 0.990393
1413453039987 20550 READING 66 0.989565
1413453040072 20550 READING 64 0.988356
1413453040138 20550 READING 63 0.979205
1413453040217 20550 READING 73 0.987859
1413453040314 20550 READING 82 0.991102
1413453040433 20550 READING 94 0.992031
1413453040597 20550 READING 108 0.994965
1413453040763 20550 READING 104 0.994350
1413453040918 20550 READING 100 0.993826
1413453041075 20550 READING 98 0.993427
1413453041210 20550 READING 94 0.931441
1413453041333 20550 READING 92 0.992923
1413453041451 20550 READING 88 0.988069
1413453041557 20550 READING 85 0.990670
1413453041664 20550 READING 82 0.976697
1413453041783 20550 READING 95 0.992575
1413453041911 20550 READING 109 0.992935
1413453042039 20550 READING 126 0.992642
1413453042166 20550 READING 121 0.992682
1413453042310 20550 READING 116 0.993354
1413453042441 20550 READING 112 0.992642
1413453042568 20550 READING 109 0.992712
1413453042722 20550 READING 104 0.994371
1413453042818 20550 READING 100 0.990056
1413453042926 20550 READING 97 0.992503
1413453043072 20550 READING 95 0.993138
1413453043223 20550 READING 91 0.995270
1413453043380 20550 READING 88 0.993776
1413453043502 20550 READING 85 0.992715
1413453043611 20550 READING 83 0.993193
1413453043717 20550 READING 80 0.990288
1413453043806 20550 READING 78 0.987586
1413453043895 20550 READING 75 0.987521
1413453043999 20550 READING 85 0.992152
1413453044116 20550 READING 83 0.992007
1413453044236 20550 READING 81 0.993060
1413453044354 20550 READING 78 0.993784
1413453044471 20550 READING 76 0.993062
1413453044585 20550 READING 74 0.990782
1413453044685 20550 READING 72 0.991389
1413453044783 20550 READING 69 0.992834
1413453044869 20550 READING 68 0.988790
1413453044947 20550 READING 66 0.987371
1413453045038 20550 READING 64 0.991116
1413453045114 20550 READING 62 0.988465
1413453045190 20550 READING 71 0.987329
1413453045299 20550 READING 81 0.991702
1413453045428 20550 READING 92 0.994197
1413453045558 20550 READING 89 0.993244
1413453045652 20550 READING 86 0.988860
1413453045751 20550 READING 84 0.988595
1413453045839 20550 READING 95 0.989873
1413453045955 20550 READING 110 0.991437
1413453046068 20550 READING 106 0.990594
1413453046178 20550 READING 103 0.991423
1413453046290 20550 READING 99 0.993174
1413453046416 20550 READING 95 0.993620
1413453046537 20550 READING 93 0.992370
1413453046656 20550 READING 89 0.992817
1413453046771 20550 READING 87 0.991563
1413453046884 20550 READING 84 0.991703
1413453046997 20550 READING 82 0.992046
1413453047087 20550 READING 79 0.989908
1413453047171 20550 READING 77 0.989790
1413453047257 20550 READING 75 0.990156
1413453047356 20550 READING 73 0.991834
1413453047471 20550 READING 71 0.991562
1413453047561 20550 READING 68 0.987764
1413453047635 20550 READING 67 0.987048
1413453047716 20550 READING 76 0.990511
1413453047822 20550 READING 87 0.990794
1413453047918 20550 READING 84 0.991446
1413453048007 20550 READING 82 0.990383
1413453048058 20550 FUNCTION lru lambda h: 0.936311 * (h ** 0.0122375)
1413453048059 20549 FUNCTION lru lambda h: 0.00275859 * (h ** 0.800236)
1413453048059 20550 RECOMMEND 2438
1413453048059 20549 RECOMMEND 2438
1413453048092 20550 READING 79 0.987809
1413453048193 20550 READING 90 0.990547
1413453048336 20550 READING 105 0.991807
1413453048455 20550 READING 103 0.920931
1413453048608 20550 READING 116 0.994033
1413453048754 20550 READING 112 0.993582
1413453048896 20550 READING 108 0.993691
1413453049037 20550 READING 104 0.994494
1413453049164 20550 READING 101 0.993642
1413453049294 20550 READING 97 0.994606
1413453049443 20550 READING 94 0.994616
1413453049590 20550 READING 91 0.994278
1413453049722 20550 READING 88 0.993601
1413453049839 20550 READING 85 0.992437
1413453049936 20550 READING 83 0.992071
1413453050036 20550 READING 80 0.992201
1413453050132 20550 READING 78 0.991398
1413453050234 20550 READING 75 0.990749
1413453050342 20550 READING 73 0.993244
1413453050453 20550 READING 71 0.991666
1413453050554 20550 READING 69 0.990702
1413453050649 20550 READING 67 0.990063
1413453050749 20550 READING 65 0.991823
1413453050842 20550 READING 63 0.991504
1413453050920 20550 READING 63 0.987370
1413453050997 20550 READING 60 0.988990
1413453051067 20550 READING 60 0.985501
1413453051160 20550 READING 67 0.990064
1413453051257 20550 READING 76 0.991069
1413453051375 20550 READING 87 0.991311
1413453051493 20550 READING 84 0.991908
1413453051592 20550 READING 82 0.990947
1413453051691 20550 READING 80 0.990114
1413453051778 20550 READING 77 0.988860
1413453051866 20550 READING 89 0.988131
1413453051972 20550 READING 101 0.991616
1413453052083 20550 READING 97 0.990781
1413453052212 20550 READING 94 0.993312
1413453052313 20550 READING 92 0.990633
1413453052417 20550 READING 88 0.991643
1413453052541 20550 READING 86 0.991173
1413453052643 20550 READING 82 0.990926
1413453052722 20550 READING 81 0.986034
1413453052831 20550 READING 91 0.991850
1413453052972 20550 READING 89 0.993173
1413453053117 20550 READING 85 0.995075
1413453053267 20550 READING 84 0.993217
1413453053399 20550 READING 80 0.992234
1413453053505 20550 READING 79 0.990236
1413453053608 20550 READING 76 0.991732
1413453053704 20550 READING 74 0.990699
1413453053792 20550 READING 71 0.990524
1413453053874 20550 READING 70 0.988510
1413453053956 20550 READING 67 0.989353
1413453054042 20550 READING 66 0.988707
1413453054157 20550 READING 74 0.991993
1413453054262 20550 READING 72 0.992085
1413453054373 20550 READING 70 0.992501
1413453054478 20550 READING 68 0.992107
1413453054582 20550 READING 66 0.991195
1413453054673 20550 READING 65 0.990386
1413453054764 20550 READING 63 0.991600
1413453054845 20550 READING 62 0.988822
1413453054917 20550 READING 60 0.985762
1413453055012 20550 READING 68 0.989536
1413453055123 20550 READING 77 0.991960
1413453055216 20550 READING 75 0.989615
1413453055313 20550 READING 73 0.991039
1413453055415 20550 READING 71 0.990661
1413453055512 20550 READING 69 0.990741
1413453055614 20550 READING 68 0.915299
1413453055697 20550 READING 64 0.989226
1413453055761 20550 READING 64 0.986232
1413453055845 20550 READING 72 0.989840
1413453055924 20550 READING 81 0.986578
1413453056026 20550 READING 93 0.991254
1413453056159 20550 READING 108 0.993027
1413453056270 20550 READING 103 0.992075
1413453056394 20550 READING 101 0.993352
1413453056526 20550 READING 97 0.994367
1413453056658 20550 READING 94 0.993858
1413453056788 20550 READING 91 0.992799
1413453056912 20550 READING 87 0.992397
1413453057035 20550 READING 84 0.993069
1413453057158 20550 READING 83 0.992831
1413453057259 20550 READING 80 0.991877
1413453057351 20550 READING 77 0.991334
1413453057443 20550 READING 75 0.989962
1413453057539 20550 READING 73 0.991599
1413453057661 20550 READING 71 0.993058
1413453057765 20550 READING 69 0.991659
1413453057848 20550 READING 66 0.989375
1413453057922 20550 READING 65 0.987799
1413453057994 20550 READING 63 0.989716
1413453058059 20550 FUNCTION lru lambda h: 0.950975 * (h ** 0.00906196)
1413453058059 20549 FUNCTION lru lambda h: 0.00275859 * (h ** 0.800236)
1413453058059 20550 RECOMMEND 2438
1413453058059 20549 RECOMMEND 2438
1413453058069 20550 READING 62 0.987325
1413453058156 20550 READING 69 0.991775
1413453058236 20550 READING 68 0.988633
1413453058325 20550 READING 77 0.990220
1413453058430 20550 READING 88 0.992162
1413453058532 20550 READING 85 0.991703
1413453058636 20550 READING 83 0.988025
1413453058720 20550 READING 80 0.987799
1413453058828 20550 READING 91 0.991974
1413453058931 20550 READING 88 0.991850
1413453059030 20550 READING 85 0.991141
1413453059126 20550 READING 82 0.990670
1413453059225 20550 READING 81 0.989969
1413453059316 20550 READING 78 0.991428
1413453059400 20550 READING 75 0.991155
1413453059486 20550 READING 73 0.990250
1413453059575 20550 READING 72 0.990027
1413453059676 20550 READING 69 0.991691
1413453059774 20550 READING 67 0.990234
1413453059863 20550 READING 65 0.990294
1413453059949 20550 READING 64 0.989687
1413453060028 20550 READING 62 0.988516
1413453060108 20550 READING 71 0.986365
1413453060198 20550 READING 80 0.990370
1413453060311 20550 READING 91 0.993209
1413453060425 20550 READING 88 0.992179
1413453060553 20550 READING 85 0.993545
1413453060682 20550 READING 83 0.992043
1413453060794 20550 READING 80 0.990097
1413453060917 20550 READING 78 0.991978
1413453061031 20550 READING 75 0.992014
1413453061122 20550 READING 73 0.989385
1413453061217 20550 READING 72 0.990128
1413453061304 20550 READING 69 0.989994
1413453061392 20550 READING 67 0.989131
1413453061463 20550 READING 65 0.986651
1413453061566 20550 READING 74 0.909265
1413453061680 20550 READING 84 0.994147
1413453061774 20550 READING 83 0.990114
1413453061871 20550 READING 80 0.990273
1413453061955 20550 READING 77 0.970602
1413453062040 20550 READING 89 0.989140
1413453062138 20550 READING 93 0.991036
1413453062254 20550 READING 103 0.969344
1413453062396 20550 READING 103 0.990710
1413453062530 20550 READING 119 0.981028
1413453062709 20550 READING 119 0.994263
1413453062870 20550 READING 137 0.993478
1413453063066 20550 READING 137 0.995211
1413453063366 20550 READING 158 0.997110
1413453063632 20550 READING 152 0.996709
1413453063851 20550 READING 146 0.995798
1413453064047 20550 READING 141 0.994954
1413453064263 20550 READING 135 0.995813
1413453064491 20550 READING 130 0.996262
1413453064717 20550 READING 125 0.996256
1413453064917 20550 READING 121 0.995337
1413453065088 20550 READING 116 0.995142
1413453065269 20550 READING 113 0.994421
1413453065414 20550 READING 108 0.993510
1413453065575 20550 READING 105 0.995188
1413453065733 20550 READING 101 0.993526
1413453065854 20550 READING 97 0.991806
1413453065970 20550 READING 95 0.991210
1413453066058 20550 READING 91 0.988520
1413453066157 20550 READING 89 0.990494
1413453066254 20550 READING 85 0.989702
1413453066333 20550 READING 83 0.989178
1413453066430 20550 READING 81 0.990383
1413453066517 20550 READING 78 0.990936
1413453066617 20550 READING 76 0.990817
1413453066718 20550 READING 73 0.992280
1413453066765 20549 READING 1693 0.997231
1413453066822 20550 READING 72 0.989754
1413453066914 20550 READING 69 0.992365
1413453066999 20550 READING 68 0.990401
1413453067087 20550 READING 65 0.989635
1413453067171 20550 READING 65 0.988497
1413453067275 20550 READING 72 0.990798
1413453067379 20550 READING 83 0.992557
1413453067474 20550 READING 80 0.991439
1413453067570 20550 READING 78 0.991516
1413453067679 20550 READING 76 0.993133
1413453067805 20550 READING 74 0.992124
1413453067906 20550 READING 71 0.990793
1413453067989 20550 READING 70 0.988747
1413453068059 20550 FUNCTION lru lambda h: 0.952674 * (h ** 0.00869553)
1413453068059 20549 FUNCTION lru lambda h: 0.00206381 * (h ** 0.840166)
1413453068059 20550 RECOMMEND 2438
1413453068059 20549 RECOMMEND 2438
1413453068067 20550 READING 68 0.988916
1413453068146 20550 READING 66 0.989751
1413453068222 20550 READING 64 0.988664
1413453068309 20550 READING 73 0.990763
1413453068391 20550 READING 71 0.989992
1413453068468 20550 READING 69 0.987442
1413453068558 20550 READING 78 0.989503
1413453068681 20550 READING 90 0.993556
1413453068781 20550 READING 86 0.905176
1413453068896 20550 READING 100 0.992873
1413453069032 20550 READING 115 0.992794
1413453069163 20550 READING 111 0.993131
1413453069290 20550 READING 107 0.994402
1413453069416 20550 READING 103 0.993718
1413453069532 20550 READING 100 0.993312
1413453069654 20550 READING 96 0.992883
1413453069796 20550 READING 93 0.993714
1413453069931 20550 READING 90 0.993475
1413453070054 20550 READING 87 0.993055
1413453070159 20550 READING 85 0.991475
1413453070249 20550 READING 82 0.991382
1413453070341 20550 READING 80 0.991386
1413453070427 20550 READING 77 0.991682
1413453070521 20550 READING 76 0.989674
1413453070622 20550 READING 73 0.991971
1413453070726 20550 READING 71 0.990768
1413453070818 20550 READING 69 0.989165
1413453070905 20550 READING 68 0.989315
1413453070999 20550 READING 65 0.992605
1413453071087 20550 READING 65 0.990933
1413453071159 20550 READING 62 0.987932
1413453071231 20550 READING 62 0.987391
1413453071317 20550 READING 69 0.988717
1413453071417 20550 READING 79 0.989605
1413453071524 20550 READING 89 0.992176
1413453071657 20550 READING 102 0.993238
1413453071777 20550 READING 98 0.993964
1413453071893 20550 READING 96 0.992164
1413453071984 20550 READING 92 0.990709
1413453072067 20550 READING 89 0.988004
1413453072147 20550 READING 87 0.990625
1413453072233 20550 READING 84 0.989463
1413453072324 20550 READING 81 0.990523
1413453072418 20550 READING 80 0.988630
1413453072483 20550 READING 77 0.986553
1413453072588 20550 READING 89 0.991302
1413453072731 20550 READING 100 0.993451
1413453072823 20550 READING 97 0.988013
1413453072947 20550 READING 111 0.993537
1413453073117 20550 READING 108 0.994231
1413453073292 20550 READING 104 0.995108
1413453073467 20550 READING 101 0.994491
1413453073598 20550 READING 97 0.992450
1413453073722 20550 READING 94 0.992798
1413453073833 20550 READING 91 0.991266
1413453073939 20550 READING 88 0.988235
1413453074046 20550 READING 85 0.992149
1413453074177 20550 READING 84 0.919917
1413453074265 20549 READING 1707 0.986322
1413453074347 20550 READING 96 0.994297
1413453074529 20550 READING 111 0.994753
1413453074717 20550 READING 114 0.995409
1413453074892 20550 READING 114 0.995170
1413453075026 20549 READING 1700 0.848200
1413453075104 20550 READING 131 0.995148
1413453075276 20550 READING 131 0.993159
1413453075480 20550 READING 126 0.993144
1413453075497 20549 READING 1707 0.717260
1413453075667 20550 READING 122 0.994176
1413453075811 20550 READING 117 0.989878
1413453075926 20550 READING 114 0.989907
1413453075957 20549 READING 1727 0.740372
1413453076047 20550 READING 109 0.992640
1413453076161 20550 READING 105 0.990032
1413453076265 20550 READING 102 0.990089
1413453076385 20550 READING 99 0.992366
1413453076421 20549 READING 1745 0.729627
1413453076516 20550 READING 96 0.993266
1413453076636 20550 READING 92 0.992319
1413453076755 20550 READING 90 0.988323
1413453076871 20550 READING 86 0.989943
1413453076889 20549 READING 1779 0.790390
1413453076985 20550 READING 84 0.988056
1413453077019 20549 DEATH 228
1413453077121 20550 READING 97 0.993013
1413453077229 20550 READING 93 0.991483
1413453077330 20550 READING 90 0.988736
1413453077435 20550 READING 87 0.991555
1413453077568 20550 READING 85 0.993142
1413453077684 20550 READING 82 0.991475
1413453077775 20550 READING 80 0.990990
1413453077857 20550 READING 77 0.986122
1413453077942 20550 READING 75 0.989654
1413453078021 20550 READING 73 0.988639
1413453078059 20550 FUNCTION lru lambda h: 0.950479 * (h ** 0.00912039)
1413453078059 20550 RECOMMEND 4876
1413453078112 20550 READING 83 0.985205
1413453078216 20550 READING 95 0.992146
1413453078337 20550 READING 109 0.992965
1413453078403 20550 DEATH 1920
