economemd
    total memory: 607 MB
    timer interval: 10 s
    timer start state: running
    utility model: root

    caches:
        lru

    force utility function validity: yes
    make recommendations: yes
    equal recommendations: yes

    reading receiver name: simple
    command receiver name: simple

    dump file: economemd.dump.log
    log file: /home/callum/economics_memory_code/dynamic_sizing/data/output/timerComparisonMany_2014_10_30_14_13_41/sub1_timerComparisonSingle/sub3_timeBenchmarkDaemonEqual/daemon_run05_log.txt
    log readings: yes
    log functions: yes

PyOptimiser: initialising...
PyOptimiser: initialised
ReadingThread: starting
TimerThread: starting
CommandThread: starting
Recommendation: no clients; no recommendation
Recommendation: no clients; no recommendation
Reading from 23992: heap size 9 MB, throughput 0.991274
Clients: 1
Client 23992 has a minimum heap size of 276 MB
Reading from 23991: heap size 9 MB, throughput 0.986189
Clients: 2
Client 23991 has a minimum heap size of 276 MB
Reading from 23991: heap size 9 MB, throughput 0.958151
Reading from 23992: heap size 9 MB, throughput 0.965598
Reading from 23992: heap size 9 MB, throughput 0.962377
Reading from 23991: heap size 11 MB, throughput 0.974186
Reading from 23992: heap size 9 MB, throughput 0.922608
Reading from 23992: heap size 11 MB, throughput 0.984766
Reading from 23991: heap size 11 MB, throughput 0.981699
Reading from 23992: heap size 11 MB, throughput 0.975701
Reading from 23991: heap size 15 MB, throughput 0.685796
Reading from 23992: heap size 17 MB, throughput 0.952079
Reading from 23991: heap size 20 MB, throughput 0.978406
Reading from 23992: heap size 17 MB, throughput 0.661266
Reading from 23991: heap size 23 MB, throughput 0.943251
Reading from 23992: heap size 30 MB, throughput 0.937139
Reading from 23991: heap size 26 MB, throughput 0.476289
Reading from 23991: heap size 37 MB, throughput 0.961351
Reading from 23992: heap size 31 MB, throughput 0.788281
Reading from 23991: heap size 40 MB, throughput 0.940271
Reading from 23991: heap size 41 MB, throughput 0.790648
Reading from 23991: heap size 41 MB, throughput 0.626915
Reading from 23992: heap size 33 MB, throughput 0.464471
Reading from 23992: heap size 47 MB, throughput 0.915164
Reading from 23991: heap size 44 MB, throughput 0.853257
Reading from 23991: heap size 46 MB, throughput 0.778216
Reading from 23992: heap size 48 MB, throughput 0.932999
Reading from 23991: heap size 51 MB, throughput 0.328524
Reading from 23991: heap size 66 MB, throughput 0.829935
Reading from 23992: heap size 50 MB, throughput 0.216068
Reading from 23992: heap size 73 MB, throughput 0.774445
Reading from 23991: heap size 72 MB, throughput 0.676165
Reading from 23991: heap size 73 MB, throughput 0.738036
Reading from 23992: heap size 73 MB, throughput 0.260048
Reading from 23992: heap size 98 MB, throughput 0.810165
Reading from 23992: heap size 98 MB, throughput 0.874717
Reading from 23991: heap size 78 MB, throughput 0.17355
Reading from 23991: heap size 101 MB, throughput 0.547784
Reading from 23992: heap size 100 MB, throughput 0.837323
Reading from 23991: heap size 104 MB, throughput 0.696325
Reading from 23992: heap size 103 MB, throughput 0.617532
Reading from 23991: heap size 106 MB, throughput 0.6771
Reading from 23991: heap size 109 MB, throughput 0.211158
Reading from 23992: heap size 105 MB, throughput 0.126013
Reading from 23991: heap size 137 MB, throughput 0.773225
Reading from 23991: heap size 145 MB, throughput 0.693618
Reading from 23992: heap size 130 MB, throughput 0.316066
Reading from 23991: heap size 147 MB, throughput 0.684701
Reading from 23992: heap size 153 MB, throughput 0.89417
Reading from 23991: heap size 149 MB, throughput 0.680434
Reading from 23992: heap size 157 MB, throughput 0.866356
Reading from 23991: heap size 155 MB, throughput 0.665722
Reading from 23992: heap size 158 MB, throughput 0.793662
Reading from 23992: heap size 160 MB, throughput 0.664272
Reading from 23992: heap size 164 MB, throughput 0.698031
Reading from 23991: heap size 159 MB, throughput 0.129354
Reading from 23991: heap size 195 MB, throughput 0.489402
Reading from 23991: heap size 202 MB, throughput 0.627197
Reading from 23992: heap size 167 MB, throughput 0.140093
Reading from 23992: heap size 209 MB, throughput 0.641213
Reading from 23992: heap size 211 MB, throughput 0.75198
Reading from 23991: heap size 205 MB, throughput 0.752198
Reading from 23992: heap size 213 MB, throughput 0.924176
Reading from 23992: heap size 217 MB, throughput 0.815548
Reading from 23992: heap size 226 MB, throughput 0.678726
Reading from 23992: heap size 229 MB, throughput 0.808546
Reading from 23991: heap size 209 MB, throughput 0.381982
Reading from 23992: heap size 233 MB, throughput 0.722241
Reading from 23992: heap size 236 MB, throughput 0.770751
Reading from 23991: heap size 252 MB, throughput 0.815721
Reading from 23992: heap size 241 MB, throughput 0.6626
Reading from 23991: heap size 255 MB, throughput 0.773431
Reading from 23991: heap size 255 MB, throughput 0.925781
Reading from 23992: heap size 242 MB, throughput 0.867435
Reading from 23991: heap size 253 MB, throughput 0.811746
Reading from 23992: heap size 247 MB, throughput 0.841317
Reading from 23991: heap size 256 MB, throughput 0.910252
Reading from 23992: heap size 248 MB, throughput 0.665688
Reading from 23991: heap size 251 MB, throughput 0.878261
Reading from 23992: heap size 253 MB, throughput 0.70221
Reading from 23992: heap size 256 MB, throughput 0.771446
Reading from 23991: heap size 254 MB, throughput 0.871867
Reading from 23992: heap size 257 MB, throughput 0.74223
Reading from 23992: heap size 259 MB, throughput 0.810841
Reading from 23991: heap size 255 MB, throughput 0.727633
Reading from 23991: heap size 256 MB, throughput 0.818941
Reading from 23991: heap size 260 MB, throughput 0.824363
Reading from 23991: heap size 260 MB, throughput 0.826284
Reading from 23991: heap size 265 MB, throughput 0.846421
Reading from 23991: heap size 265 MB, throughput 0.928947
Reading from 23992: heap size 259 MB, throughput 0.439667
Reading from 23992: heap size 303 MB, throughput 0.449617
Reading from 23992: heap size 305 MB, throughput 0.732391
Reading from 23992: heap size 305 MB, throughput 0.735406
Reading from 23992: heap size 307 MB, throughput 0.773855
Reading from 23991: heap size 267 MB, throughput 0.12435
Reading from 23992: heap size 308 MB, throughput 0.781
Reading from 23991: heap size 310 MB, throughput 0.633932
Reading from 23991: heap size 312 MB, throughput 0.821049
Reading from 23992: heap size 309 MB, throughput 0.868154
Reading from 23992: heap size 311 MB, throughput 0.72673
Reading from 23991: heap size 313 MB, throughput 0.92407
Reading from 23992: heap size 312 MB, throughput 0.571387
Reading from 23992: heap size 315 MB, throughput 0.566002
Reading from 23991: heap size 316 MB, throughput 0.925154
Reading from 23992: heap size 323 MB, throughput 0.558748
Reading from 23991: heap size 317 MB, throughput 0.719617
Reading from 23992: heap size 310 MB, throughput 0.504266
Reading from 23991: heap size 319 MB, throughput 0.671269
Reading from 23992: heap size 319 MB, throughput 0.596078
Reading from 23991: heap size 321 MB, throughput 0.573179
Reading from 23991: heap size 327 MB, throughput 0.621089
Reading from 23991: heap size 328 MB, throughput 0.596579
Reading from 23991: heap size 333 MB, throughput 0.597877
Equal recommendation: 303 MB each
Reading from 23992: heap size 303 MB, throughput 0.531325
Reading from 23991: heap size 319 MB, throughput 0.896633
Reading from 23992: heap size 360 MB, throughput 0.994079
Reading from 23991: heap size 334 MB, throughput 0.977655
Reading from 23992: heap size 294 MB, throughput 0.97857
Reading from 23991: heap size 299 MB, throughput 0.946128
Reading from 23992: heap size 359 MB, throughput 0.992663
Reading from 23992: heap size 298 MB, throughput 0.991631
Reading from 23991: heap size 332 MB, throughput 0.944069
Reading from 23992: heap size 359 MB, throughput 0.976874
Reading from 23991: heap size 290 MB, throughput 0.96672
Reading from 23992: heap size 301 MB, throughput 0.982023
Reading from 23991: heap size 330 MB, throughput 0.970515
Reading from 23992: heap size 360 MB, throughput 0.984292
Reading from 23991: heap size 294 MB, throughput 0.976117
Reading from 23992: heap size 306 MB, throughput 0.975604
Reading from 23992: heap size 348 MB, throughput 0.984586
Reading from 23991: heap size 328 MB, throughput 0.977314
Reading from 23992: heap size 308 MB, throughput 0.978723
Reading from 23991: heap size 298 MB, throughput 0.961393
Reading from 23992: heap size 339 MB, throughput 0.973868
Equal recommendation: 303 MB each
Reading from 23992: heap size 311 MB, throughput 0.949639
Reading from 23991: heap size 325 MB, throughput 0.948989
Reading from 23992: heap size 335 MB, throughput 0.970321
Reading from 23991: heap size 302 MB, throughput 0.972658
Reading from 23992: heap size 313 MB, throughput 0.9631
Reading from 23991: heap size 322 MB, throughput 0.967905
Reading from 23992: heap size 333 MB, throughput 0.968278
Reading from 23991: heap size 303 MB, throughput 0.964396
Reading from 23992: heap size 316 MB, throughput 0.972207
Reading from 23991: heap size 314 MB, throughput 0.964479
Reading from 23992: heap size 332 MB, throughput 0.96559
Reading from 23992: heap size 314 MB, throughput 0.969371
Reading from 23991: heap size 303 MB, throughput 0.967982
Reading from 23992: heap size 329 MB, throughput 0.978841
Reading from 23991: heap size 312 MB, throughput 0.969691
Reading from 23992: heap size 313 MB, throughput 0.965335
Reading from 23992: heap size 327 MB, throughput 0.918045
Reading from 23991: heap size 303 MB, throughput 0.608623
Reading from 23992: heap size 311 MB, throughput 0.952993
Reading from 23991: heap size 355 MB, throughput 0.952738
Reading from 23992: heap size 323 MB, throughput 0.96108
Reading from 23991: heap size 354 MB, throughput 0.9852
Equal recommendation: 303 MB each
Reading from 23992: heap size 310 MB, throughput 0.97836
Reading from 23991: heap size 355 MB, throughput 0.974534
Reading from 23992: heap size 321 MB, throughput 0.970216
Reading from 23992: heap size 323 MB, throughput 0.834463
Reading from 23992: heap size 323 MB, throughput 0.791435
Reading from 23992: heap size 326 MB, throughput 0.698566
Reading from 23992: heap size 321 MB, throughput 0.607718
Reading from 23992: heap size 328 MB, throughput 0.633142
Reading from 23992: heap size 328 MB, throughput 0.603845
Reading from 23992: heap size 331 MB, throughput 0.575592
Reading from 23992: heap size 332 MB, throughput 0.599265
Reading from 23992: heap size 333 MB, throughput 0.622463
Reading from 23991: heap size 327 MB, throughput 0.97206
Reading from 23992: heap size 330 MB, throughput 0.512096
Reading from 23991: heap size 353 MB, throughput 0.939282
Reading from 23991: heap size 333 MB, throughput 0.670401
Reading from 23991: heap size 346 MB, throughput 0.82667
Reading from 23992: heap size 307 MB, throughput 0.0556569
Reading from 23992: heap size 355 MB, throughput 0.956236
Reading from 23991: heap size 351 MB, throughput 0.718244
Reading from 23991: heap size 352 MB, throughput 0.673868
Reading from 23991: heap size 354 MB, throughput 0.719916
Reading from 23991: heap size 355 MB, throughput 0.65396
Reading from 23992: heap size 355 MB, throughput 0.989478
Reading from 23991: heap size 356 MB, throughput 0.718223
Reading from 23991: heap size 357 MB, throughput 0.946955
Reading from 23992: heap size 357 MB, throughput 0.99115
Reading from 23991: heap size 317 MB, throughput 0.971329
Reading from 23992: heap size 359 MB, throughput 0.984534
Reading from 23992: heap size 359 MB, throughput 0.986361
Reading from 23992: heap size 359 MB, throughput 0.979946
Reading from 23991: heap size 354 MB, throughput 0.981552
Reading from 23992: heap size 355 MB, throughput 0.968349
Reading from 23991: heap size 317 MB, throughput 0.965699
Reading from 23992: heap size 298 MB, throughput 0.973657
Reading from 23991: heap size 350 MB, throughput 0.980806
Reading from 23992: heap size 354 MB, throughput 0.981714
Reading from 23992: heap size 303 MB, throughput 0.982554
Reading from 23991: heap size 317 MB, throughput 0.977226
Reading from 23992: heap size 349 MB, throughput 0.979838
Reading from 23992: heap size 306 MB, throughput 0.979581
Reading from 23991: heap size 347 MB, throughput 0.978297
Reading from 23992: heap size 341 MB, throughput 0.975794
Reading from 23991: heap size 348 MB, throughput 0.976852
Reading from 23992: heap size 309 MB, throughput 0.974835
Reading from 23991: heap size 346 MB, throughput 0.97958
Reading from 23992: heap size 335 MB, throughput 0.975141
Equal recommendation: 303 MB each
Reading from 23991: heap size 305 MB, throughput 0.971608
Reading from 23992: heap size 311 MB, throughput 0.944058
Reading from 23992: heap size 332 MB, throughput 0.964923
Reading from 23991: heap size 342 MB, throughput 0.97655
Reading from 23992: heap size 313 MB, throughput 0.962322
Reading from 23991: heap size 307 MB, throughput 0.966939
Reading from 23992: heap size 329 MB, throughput 0.967254
Reading from 23991: heap size 337 MB, throughput 0.975321
Reading from 23992: heap size 313 MB, throughput 0.956424
Reading from 23991: heap size 309 MB, throughput 0.960417
Reading from 23992: heap size 327 MB, throughput 0.961104
Reading from 23991: heap size 332 MB, throughput 0.953398
Reading from 23992: heap size 313 MB, throughput 0.954243
Reading from 23992: heap size 325 MB, throughput 0.941868
Reading from 23991: heap size 311 MB, throughput 0.962982
Reading from 23992: heap size 313 MB, throughput 0.961741
Reading from 23991: heap size 329 MB, throughput 0.973196
Reading from 23992: heap size 324 MB, throughput 0.958804
Reading from 23991: heap size 312 MB, throughput 0.96539
Reading from 23992: heap size 313 MB, throughput 0.964663
Reading from 23991: heap size 326 MB, throughput 0.963798
Reading from 23992: heap size 323 MB, throughput 0.963164
Reading from 23991: heap size 312 MB, throughput 0.967896
Reading from 23992: heap size 314 MB, throughput 0.970872
Reading from 23991: heap size 324 MB, throughput 0.975585
Reading from 23992: heap size 322 MB, throughput 0.967328
Reading from 23991: heap size 312 MB, throughput 0.976669
Reading from 23992: heap size 314 MB, throughput 0.971955
Reading from 23991: heap size 322 MB, throughput 0.962408
Reading from 23992: heap size 321 MB, throughput 0.955168
Reading from 23991: heap size 312 MB, throughput 0.960505
Equal recommendation: 303 MB each
Reading from 23992: heap size 314 MB, throughput 0.975141
Reading from 23991: heap size 320 MB, throughput 0.966624
Reading from 23992: heap size 320 MB, throughput 0.966456
Reading from 23991: heap size 312 MB, throughput 0.959681
Reading from 23992: heap size 314 MB, throughput 0.967549
Reading from 23991: heap size 319 MB, throughput 0.960354
Reading from 23992: heap size 319 MB, throughput 0.958813
Reading from 23992: heap size 314 MB, throughput 0.964385
Reading from 23991: heap size 312 MB, throughput 0.98122
Reading from 23992: heap size 318 MB, throughput 0.97242
Reading from 23991: heap size 318 MB, throughput 0.972476
Reading from 23991: heap size 318 MB, throughput 0.875182
Reading from 23992: heap size 318 MB, throughput 0.917024
Reading from 23991: heap size 317 MB, throughput 0.210131
Reading from 23991: heap size 324 MB, throughput 0.926626
Reading from 23991: heap size 327 MB, throughput 0.893869
Reading from 23991: heap size 328 MB, throughput 0.905547
Reading from 23991: heap size 329 MB, throughput 0.897712
Reading from 23991: heap size 329 MB, throughput 0.727163
Reading from 23992: heap size 317 MB, throughput 0.956254
Reading from 23991: heap size 329 MB, throughput 0.865283
Reading from 23991: heap size 298 MB, throughput 0.862808
Reading from 23992: heap size 312 MB, throughput 0.821648
Reading from 23991: heap size 329 MB, throughput 0.918512
Reading from 23992: heap size 320 MB, throughput 0.73464
Reading from 23991: heap size 299 MB, throughput 0.909694
Reading from 23992: heap size 312 MB, throughput 0.20604
Reading from 23992: heap size 311 MB, throughput 0.971507
Reading from 23992: heap size 318 MB, throughput 0.971448
Reading from 23992: heap size 319 MB, throughput 0.970529
Reading from 23992: heap size 320 MB, throughput 0.973811
Reading from 23992: heap size 321 MB, throughput 0.971815
Reading from 23992: heap size 321 MB, throughput 0.970772
Reading from 23992: heap size 320 MB, throughput 0.973962
Reading from 23992: heap size 280 MB, throughput 0.973731
Reading from 23992: heap size 320 MB, throughput 0.974892
Reading from 23992: heap size 281 MB, throughput 0.960026
Reading from 23992: heap size 319 MB, throughput 0.976881
Reading from 23992: heap size 282 MB, throughput 0.970573
Reading from 23992: heap size 317 MB, throughput 0.951543
Reading from 23991: heap size 329 MB, throughput 0.991721
Reading from 23992: heap size 285 MB, throughput 0.990528
Reading from 23992: heap size 313 MB, throughput 0.991763
Reading from 23991: heap size 302 MB, throughput 0.988114
Reading from 23992: heap size 286 MB, throughput 0.991515
Reading from 23991: heap size 328 MB, throughput 0.98225
Reading from 23992: heap size 311 MB, throughput 0.98788
Reading from 23991: heap size 306 MB, throughput 0.982981
Reading from 23992: heap size 290 MB, throughput 0.974744
Reading from 23992: heap size 308 MB, throughput 0.972498
Reading from 23991: heap size 321 MB, throughput 0.985541
Reading from 23992: heap size 293 MB, throughput 0.989059
Reading from 23991: heap size 309 MB, throughput 0.982087
Reading from 23992: heap size 308 MB, throughput 0.97651
Reading from 23991: heap size 321 MB, throughput 0.95897
Reading from 23992: heap size 296 MB, throughput 0.954302
Reading from 23992: heap size 307 MB, throughput 0.973803
Equal recommendation: 303 MB each
Reading from 23991: heap size 304 MB, throughput 0.980142
Reading from 23992: heap size 307 MB, throughput 0.961629
Reading from 23991: heap size 319 MB, throughput 0.977502
Reading from 23992: heap size 307 MB, throughput 0.966749
Reading from 23992: heap size 308 MB, throughput 0.981075
Reading from 23991: heap size 306 MB, throughput 0.982183
Reading from 23992: heap size 307 MB, throughput 0.966369
Reading from 23992: heap size 308 MB, throughput 0.960906
Reading from 23991: heap size 318 MB, throughput 0.979717
Reading from 23992: heap size 308 MB, throughput 0.961655
Reading from 23991: heap size 309 MB, throughput 0.980274
Reading from 23992: heap size 309 MB, throughput 0.964555
Reading from 23992: heap size 310 MB, throughput 0.958777
Reading from 23991: heap size 317 MB, throughput 0.97362
Reading from 23992: heap size 310 MB, throughput 0.940455
Reading from 23991: heap size 318 MB, throughput 0.96011
Reading from 23992: heap size 311 MB, throughput 0.953016
Reading from 23991: heap size 317 MB, throughput 0.965571
Reading from 23992: heap size 311 MB, throughput 0.963724
Reading from 23991: heap size 318 MB, throughput 0.962416
Reading from 23992: heap size 311 MB, throughput 0.962563
Reading from 23992: heap size 311 MB, throughput 0.96064
Reading from 23991: heap size 318 MB, throughput 0.95816
Reading from 23992: heap size 310 MB, throughput 0.962506
Reading from 23991: heap size 319 MB, throughput 0.965242
Reading from 23992: heap size 310 MB, throughput 0.95458
Reading from 23991: heap size 320 MB, throughput 0.96701
Reading from 23992: heap size 309 MB, throughput 0.965551
Reading from 23991: heap size 320 MB, throughput 0.975977
Reading from 23992: heap size 300 MB, throughput 0.968908
Reading from 23992: heap size 310 MB, throughput 0.926803
Reading from 23991: heap size 320 MB, throughput 0.944521
Reading from 23992: heap size 309 MB, throughput 0.966411
Reading from 23991: heap size 320 MB, throughput 0.962678
Reading from 23992: heap size 308 MB, throughput 0.973539
Reading from 23991: heap size 320 MB, throughput 0.966415
Reading from 23992: heap size 301 MB, throughput 0.96539
Equal recommendation: 303 MB each
Reading from 23991: heap size 320 MB, throughput 0.96707
Reading from 23992: heap size 309 MB, throughput 0.969242
Reading from 23991: heap size 320 MB, throughput 0.962541
Reading from 23992: heap size 301 MB, throughput 0.967329
Reading from 23991: heap size 312 MB, throughput 0.966771
Reading from 23992: heap size 308 MB, throughput 0.952715
Reading from 23992: heap size 308 MB, throughput 0.953677
Reading from 23991: heap size 320 MB, throughput 0.950501
Reading from 23992: heap size 307 MB, throughput 0.958935
Reading from 23991: heap size 312 MB, throughput 0.960858
Reading from 23992: heap size 302 MB, throughput 0.978063
Reading from 23991: heap size 318 MB, throughput 0.963283
Reading from 23992: heap size 307 MB, throughput 0.965279
Reading from 23992: heap size 302 MB, throughput 0.956083
Reading from 23991: heap size 311 MB, throughput 0.985069
Reading from 23992: heap size 306 MB, throughput 0.974147
Reading from 23992: heap size 302 MB, throughput 0.942454
Reading from 23991: heap size 317 MB, throughput 0.964536
Reading from 23991: heap size 318 MB, throughput 0.863294
Reading from 23991: heap size 316 MB, throughput 0.766959
Reading from 23991: heap size 319 MB, throughput 0.172391
Reading from 23991: heap size 324 MB, throughput 0.975906
Reading from 23991: heap size 330 MB, throughput 0.974526
Reading from 23991: heap size 331 MB, throughput 0.976781
Reading from 23991: heap size 333 MB, throughput 0.973164
Reading from 23991: heap size 333 MB, throughput 0.973446
Reading from 23991: heap size 287 MB, throughput 0.972751
Reading from 23991: heap size 334 MB, throughput 0.973778
Reading from 23991: heap size 288 MB, throughput 0.974089
Reading from 23991: heap size 333 MB, throughput 0.975144
Reading from 23992: heap size 306 MB, throughput 0.985164
Reading from 23991: heap size 289 MB, throughput 0.965102
Reading from 23991: heap size 331 MB, throughput 0.989139
Reading from 23992: heap size 306 MB, throughput 0.943895
Reading from 23992: heap size 301 MB, throughput 0.958768
Reading from 23992: heap size 306 MB, throughput 0.781178
Reading from 23991: heap size 292 MB, throughput 0.991249
Reading from 23992: heap size 306 MB, throughput 0.803096
Reading from 23992: heap size 300 MB, throughput 0.157997
Reading from 23992: heap size 296 MB, throughput 0.884671
Reading from 23992: heap size 299 MB, throughput 0.832376
Reading from 23992: heap size 303 MB, throughput 0.851036
Reading from 23992: heap size 303 MB, throughput 0.817125
Reading from 23992: heap size 306 MB, throughput 0.859572
Reading from 23992: heap size 285 MB, throughput 0.825697
Reading from 23991: heap size 328 MB, throughput 0.986793
Reading from 23992: heap size 306 MB, throughput 0.863551
Reading from 23992: heap size 285 MB, throughput 0.857456
Reading from 23992: heap size 305 MB, throughput 0.854821
Reading from 23992: heap size 286 MB, throughput 0.848985
Reading from 23992: heap size 303 MB, throughput 0.924965
Reading from 23992: heap size 304 MB, throughput 0.964556
Reading from 23992: heap size 301 MB, throughput 0.956397
Reading from 23992: heap size 304 MB, throughput 0.990795
Reading from 23991: heap size 296 MB, throughput 0.984045
Reading from 23992: heap size 300 MB, throughput 0.991781
Reading from 23991: heap size 325 MB, throughput 0.981632
Reading from 23992: heap size 303 MB, throughput 0.990061
Reading from 23991: heap size 300 MB, throughput 0.983873
Reading from 23992: heap size 298 MB, throughput 0.991192
Reading from 23991: heap size 322 MB, throughput 0.985506
Reading from 23992: heap size 301 MB, throughput 0.988324
Reading from 23991: heap size 304 MB, throughput 0.978906
Reading from 23992: heap size 298 MB, throughput 0.984782
Equal recommendation: 303 MB each
Reading from 23992: heap size 300 MB, throughput 0.976063
Reading from 23991: heap size 320 MB, throughput 0.981232
Reading from 23992: heap size 297 MB, throughput 0.983459
Reading from 23991: heap size 307 MB, throughput 0.97436
Reading from 23992: heap size 298 MB, throughput 0.973428
Reading from 23991: heap size 320 MB, throughput 0.974242
Reading from 23992: heap size 298 MB, throughput 0.973575
Reading from 23992: heap size 298 MB, throughput 0.972028
Reading from 23991: heap size 320 MB, throughput 0.972638
Reading from 23992: heap size 299 MB, throughput 0.953758
Reading from 23991: heap size 320 MB, throughput 0.977935
Reading from 23992: heap size 300 MB, throughput 0.975439
Reading from 23991: heap size 321 MB, throughput 0.97402
Reading from 23992: heap size 302 MB, throughput 0.980761
Reading from 23991: heap size 321 MB, throughput 0.972968
Reading from 23992: heap size 302 MB, throughput 0.963163
Reading from 23991: heap size 322 MB, throughput 0.964602
Reading from 23992: heap size 304 MB, throughput 0.965464
Reading from 23991: heap size 322 MB, throughput 0.953748
Reading from 23992: heap size 305 MB, throughput 0.965702
Reading from 23991: heap size 323 MB, throughput 0.971295
Reading from 23992: heap size 305 MB, throughput 0.97213
Reading from 23992: heap size 306 MB, throughput 0.96242
Reading from 23991: heap size 324 MB, throughput 0.962598
Reading from 23992: heap size 306 MB, throughput 0.957764
Reading from 23991: heap size 324 MB, throughput 0.962684
Reading from 23992: heap size 306 MB, throughput 0.97406
Reading from 23991: heap size 324 MB, throughput 0.971618
Reading from 23992: heap size 306 MB, throughput 0.961136
Reading from 23991: heap size 324 MB, throughput 0.961737
Reading from 23992: heap size 307 MB, throughput 0.967667
Reading from 23992: heap size 307 MB, throughput 0.925929
Reading from 23991: heap size 324 MB, throughput 0.95612
Reading from 23992: heap size 307 MB, throughput 0.960599
Reading from 23991: heap size 324 MB, throughput 0.962804
Reading from 23992: heap size 307 MB, throughput 0.973234
Equal recommendation: 303 MB each
Reading from 23991: heap size 323 MB, throughput 0.966883
Reading from 23992: heap size 307 MB, throughput 0.965662
Reading from 23991: heap size 312 MB, throughput 0.964272
Reading from 23992: heap size 307 MB, throughput 0.956372
Reading from 23991: heap size 322 MB, throughput 0.967161
Reading from 23992: heap size 307 MB, throughput 0.961075
Reading from 23991: heap size 312 MB, throughput 0.961058
Reading from 23992: heap size 306 MB, throughput 0.972044
Reading from 23991: heap size 321 MB, throughput 0.961032
Reading from 23992: heap size 306 MB, throughput 0.964376
Reading from 23991: heap size 312 MB, throughput 0.965364
Reading from 23992: heap size 305 MB, throughput 0.962023
Reading from 23991: heap size 320 MB, throughput 0.959259
Reading from 23992: heap size 298 MB, throughput 0.967293
Reading from 23992: heap size 306 MB, throughput 0.969689
Reading from 23991: heap size 311 MB, throughput 0.96881
Reading from 23992: heap size 305 MB, throughput 0.968739
Reading from 23991: heap size 319 MB, throughput 0.947763
Reading from 23992: heap size 304 MB, throughput 0.959049
Reading from 23991: heap size 311 MB, throughput 0.964707
Reading from 23992: heap size 298 MB, throughput 0.960958
Reading from 23992: heap size 305 MB, throughput 0.962009
Reading from 23991: heap size 315 MB, throughput 0.963717
Reading from 23991: heap size 319 MB, throughput 0.947276
Reading from 23991: heap size 319 MB, throughput 0.773601
Reading from 23992: heap size 304 MB, throughput 0.963182
Reading from 23991: heap size 322 MB, throughput 0.747962
Reading from 23991: heap size 326 MB, throughput 0.190869
Reading from 23991: heap size 326 MB, throughput 0.893535
Reading from 23991: heap size 331 MB, throughput 0.803447
Reading from 23991: heap size 334 MB, throughput 0.876113
Reading from 23991: heap size 335 MB, throughput 0.972633
Reading from 23991: heap size 283 MB, throughput 0.968862
Reading from 23991: heap size 335 MB, throughput 0.972426
Reading from 23991: heap size 284 MB, throughput 0.933043
Reading from 23991: heap size 335 MB, throughput 0.973543
Reading from 23991: heap size 285 MB, throughput 0.974233
Reading from 23991: heap size 333 MB, throughput 0.936678
Reading from 23991: heap size 287 MB, throughput 0.880896
Reading from 23992: heap size 301 MB, throughput 0.967283
Reading from 23991: heap size 332 MB, throughput 0.963764
Reading from 23991: heap size 290 MB, throughput 0.989237
Reading from 23992: heap size 304 MB, throughput 0.702482
Reading from 23992: heap size 294 MB, throughput 0.96135
Reading from 23991: heap size 329 MB, throughput 0.991448
Reading from 23992: heap size 298 MB, throughput 0.979935
Reading from 23992: heap size 299 MB, throughput 0.902014
Reading from 23992: heap size 301 MB, throughput 0.841967
Reading from 23992: heap size 302 MB, throughput 0.820024
Reading from 23992: heap size 302 MB, throughput 0.818676
Reading from 23992: heap size 306 MB, throughput 0.84216
Reading from 23992: heap size 306 MB, throughput 0.842621
Reading from 23992: heap size 306 MB, throughput 0.815622
Reading from 23992: heap size 295 MB, throughput 0.81036
Reading from 23992: heap size 305 MB, throughput 0.80318
Reading from 23992: heap size 295 MB, throughput 0.784509
Reading from 23992: heap size 304 MB, throughput 0.907366
Reading from 23992: heap size 305 MB, throughput 0.98841
Reading from 23991: heap size 292 MB, throughput 0.990602
Reading from 23992: heap size 305 MB, throughput 0.991463
Reading from 23991: heap size 324 MB, throughput 0.985113
Equal recommendation: 303 MB each
Reading from 23992: heap size 306 MB, throughput 0.985031
Reading from 23991: heap size 297 MB, throughput 0.984579
Reading from 23992: heap size 306 MB, throughput 0.985712
Reading from 23991: heap size 322 MB, throughput 0.986319
Reading from 23991: heap size 301 MB, throughput 0.972459
Reading from 23992: heap size 276 MB, throughput 0.989761
Reading from 23992: heap size 306 MB, throughput 0.983883
Reading from 23991: heap size 321 MB, throughput 0.983907
Reading from 23992: heap size 279 MB, throughput 0.983257
Reading from 23991: heap size 305 MB, throughput 0.979862
Reading from 23992: heap size 305 MB, throughput 0.981603
Reading from 23991: heap size 319 MB, throughput 0.966786
Reading from 23992: heap size 283 MB, throughput 0.964478
Reading from 23991: heap size 319 MB, throughput 0.980259
Reading from 23992: heap size 303 MB, throughput 0.979436
Reading from 23991: heap size 319 MB, throughput 0.972139
Reading from 23992: heap size 302 MB, throughput 0.976334
Reading from 23991: heap size 319 MB, throughput 0.974572
Reading from 23992: heap size 301 MB, throughput 0.975803
Reading from 23991: heap size 319 MB, throughput 0.968104
Reading from 23992: heap size 302 MB, throughput 0.975644
Reading from 23991: heap size 320 MB, throughput 0.975142
Reading from 23992: heap size 305 MB, throughput 0.981511
Reading from 23991: heap size 320 MB, throughput 0.971949
Reading from 23991: heap size 321 MB, throughput 0.974537
Reading from 23992: heap size 305 MB, throughput 0.975451
Reading from 23991: heap size 321 MB, throughput 0.957324
Reading from 23992: heap size 305 MB, throughput 0.96753
Reading from 23991: heap size 322 MB, throughput 0.961524
Reading from 23992: heap size 306 MB, throughput 0.964219
Reading from 23991: heap size 323 MB, throughput 0.961115
Reading from 23992: heap size 306 MB, throughput 0.971098
Reading from 23991: heap size 323 MB, throughput 0.959649
Reading from 23991: heap size 322 MB, throughput 0.958618
Reading from 23992: heap size 307 MB, throughput 0.970774
Equal recommendation: 303 MB each
Reading from 23991: heap size 323 MB, throughput 0.963636
Reading from 23992: heap size 307 MB, throughput 0.970073
Reading from 23991: heap size 323 MB, throughput 0.963087
Reading from 23992: heap size 308 MB, throughput 0.958678
Reading from 23991: heap size 310 MB, throughput 0.970016
Reading from 23992: heap size 307 MB, throughput 0.964937
Reading from 23991: heap size 321 MB, throughput 0.975329
Reading from 23991: heap size 310 MB, throughput 0.96049
Reading from 23992: heap size 308 MB, throughput 0.969784
Reading from 23991: heap size 320 MB, throughput 0.955482
Reading from 23992: heap size 307 MB, throughput 0.97874
Reading from 23991: heap size 310 MB, throughput 0.972354
Reading from 23992: heap size 308 MB, throughput 0.965799
Reading from 23991: heap size 319 MB, throughput 0.962457
Reading from 23992: heap size 308 MB, throughput 0.963727
Reading from 23991: heap size 310 MB, throughput 0.966975
Reading from 23991: heap size 318 MB, throughput 0.967695
Reading from 23992: heap size 308 MB, throughput 0.964838
Reading from 23991: heap size 310 MB, throughput 0.960672
Reading from 23992: heap size 308 MB, throughput 0.969924
Reading from 23991: heap size 316 MB, throughput 0.960876
Reading from 23992: heap size 298 MB, throughput 0.958781
Reading from 23991: heap size 310 MB, throughput 0.965357
Reading from 23992: heap size 307 MB, throughput 0.958196
Reading from 23991: heap size 315 MB, throughput 0.975199
Reading from 23992: heap size 298 MB, throughput 0.698722
Reading from 23991: heap size 308 MB, throughput 0.970566
Reading from 23991: heap size 315 MB, throughput 0.869194
Reading from 23991: heap size 316 MB, throughput 0.844632
Reading from 23991: heap size 319 MB, throughput 0.1907
Reading from 23992: heap size 328 MB, throughput 0.993403
Reading from 23991: heap size 319 MB, throughput 0.975321
Reading from 23991: heap size 324 MB, throughput 0.974332
Reading from 23991: heap size 326 MB, throughput 0.974041
Reading from 23991: heap size 327 MB, throughput 0.967535
Reading from 23991: heap size 328 MB, throughput 0.970915
Reading from 23991: heap size 328 MB, throughput 0.973047
Reading from 23991: heap size 285 MB, throughput 0.97373
Reading from 23991: heap size 327 MB, throughput 0.975198
Reading from 23991: heap size 286 MB, throughput 0.97632
Reading from 23991: heap size 326 MB, throughput 0.97479
Reading from 23991: heap size 287 MB, throughput 0.971741
Reading from 23991: heap size 325 MB, throughput 0.962225
Reading from 23992: heap size 327 MB, throughput 0.989645
Reading from 23991: heap size 290 MB, throughput 0.992975
Reading from 23991: heap size 322 MB, throughput 0.99175
Equal recommendation: 303 MB each
Reading from 23992: heap size 329 MB, throughput 0.984287
Reading from 23991: heap size 293 MB, throughput 0.985781
Reading from 23992: heap size 313 MB, throughput 0.970344
Reading from 23992: heap size 327 MB, throughput 0.887027
Reading from 23992: heap size 328 MB, throughput 0.785865
Reading from 23992: heap size 326 MB, throughput 0.739146
Reading from 23992: heap size 329 MB, throughput 0.630499
Reading from 23991: heap size 320 MB, throughput 0.984951
Reading from 23992: heap size 332 MB, throughput 0.646465
Reading from 23992: heap size 335 MB, throughput 0.721901
Reading from 23992: heap size 336 MB, throughput 0.705106
Reading from 23992: heap size 338 MB, throughput 0.705384
Reading from 23992: heap size 335 MB, throughput 0.807096
Reading from 23992: heap size 308 MB, throughput 0.102545
Reading from 23992: heap size 347 MB, throughput 0.97411
Reading from 23992: heap size 349 MB, throughput 0.975756
Reading from 23992: heap size 351 MB, throughput 0.839553
Reading from 23992: heap size 351 MB, throughput 0.977221
Reading from 23991: heap size 297 MB, throughput 0.989826
Reading from 23992: heap size 350 MB, throughput 0.989884
Reading from 23991: heap size 317 MB, throughput 0.984287
Reading from 23992: heap size 301 MB, throughput 0.990025
Reading from 23991: heap size 301 MB, throughput 0.979812
Reading from 23992: heap size 350 MB, throughput 0.990907
Reading from 23991: heap size 317 MB, throughput 0.977042
Reading from 23992: heap size 303 MB, throughput 0.989208
Reading from 23992: heap size 349 MB, throughput 0.988672
Reading from 23991: heap size 304 MB, throughput 0.9778
Reading from 23992: heap size 307 MB, throughput 0.983977
Reading from 23991: heap size 315 MB, throughput 0.971491
Reading from 23992: heap size 341 MB, throughput 0.982603
Reading from 23991: heap size 316 MB, throughput 0.970666
Reading from 23991: heap size 316 MB, throughput 0.94932
Reading from 23992: heap size 309 MB, throughput 0.973016
Reading from 23991: heap size 316 MB, throughput 0.962502
Reading from 23992: heap size 335 MB, throughput 0.965802
Reading from 23992: heap size 312 MB, throughput 0.980792
Reading from 23991: heap size 316 MB, throughput 0.97454
Reading from 23992: heap size 331 MB, throughput 0.980033
Reading from 23991: heap size 317 MB, throughput 0.972124
Reading from 23992: heap size 314 MB, throughput 0.977473
Reading from 23991: heap size 317 MB, throughput 0.976906
Reading from 23992: heap size 329 MB, throughput 0.984402
Reading from 23991: heap size 319 MB, throughput 0.967122
Reading from 23992: heap size 316 MB, throughput 0.979133
Reading from 23991: heap size 319 MB, throughput 0.963291
Reading from 23992: heap size 330 MB, throughput 0.970656
Reading from 23991: heap size 320 MB, throughput 0.970357
Reading from 23992: heap size 330 MB, throughput 0.968226
Equal recommendation: 303 MB each
Reading from 23992: heap size 329 MB, throughput 0.912845
Reading from 23991: heap size 320 MB, throughput 0.954803
Reading from 23992: heap size 330 MB, throughput 0.95648
Reading from 23991: heap size 320 MB, throughput 0.936733
Reading from 23991: heap size 320 MB, throughput 0.954957
Reading from 23992: heap size 330 MB, throughput 0.968922
Reading from 23991: heap size 320 MB, throughput 0.96151
Reading from 23992: heap size 330 MB, throughput 0.974662
Reading from 23992: heap size 330 MB, throughput 0.940671
Reading from 23991: heap size 319 MB, throughput 0.947687
Reading from 23991: heap size 308 MB, throughput 0.965971
Reading from 23992: heap size 330 MB, throughput 0.971883
Reading from 23991: heap size 318 MB, throughput 0.958377
Reading from 23992: heap size 330 MB, throughput 0.957298
Reading from 23992: heap size 319 MB, throughput 0.967333
Reading from 23991: heap size 319 MB, throughput 0.964532
Reading from 23992: heap size 330 MB, throughput 0.962712
Reading from 23991: heap size 318 MB, throughput 0.976756
Reading from 23992: heap size 319 MB, throughput 0.975695
Reading from 23991: heap size 308 MB, throughput 0.968896
Reading from 23992: heap size 328 MB, throughput 0.952749
Reading from 23991: heap size 317 MB, throughput 0.946938
Reading from 23992: heap size 329 MB, throughput 0.950909
Reading from 23991: heap size 308 MB, throughput 0.965853
Reading from 23992: heap size 328 MB, throughput 0.96954
Reading from 23991: heap size 315 MB, throughput 0.960181
Reading from 23992: heap size 319 MB, throughput 0.967337
Reading from 23991: heap size 308 MB, throughput 0.960947
Reading from 23992: heap size 327 MB, throughput 0.965928
Reading from 23991: heap size 314 MB, throughput 0.96322
Reading from 23992: heap size 319 MB, throughput 0.957934
Reading from 23991: heap size 308 MB, throughput 0.957987
Reading from 23992: heap size 327 MB, throughput 0.961536
Reading from 23991: heap size 313 MB, throughput 0.955678
Reading from 23992: heap size 319 MB, throughput 0.974072
Reading from 23992: heap size 325 MB, throughput 0.961219
Reading from 23991: heap size 314 MB, throughput 0.948705
Reading from 23992: heap size 319 MB, throughput 0.960748
Equal recommendation: 303 MB each
Reading from 23991: heap size 314 MB, throughput 0.65241
Reading from 23991: heap size 300 MB, throughput 0.965952
Reading from 23991: heap size 300 MB, throughput 0.878211
Reading from 23991: heap size 301 MB, throughput 0.879653
Reading from 23991: heap size 306 MB, throughput 0.80217
Reading from 23991: heap size 292 MB, throughput 0.797957
Reading from 23992: heap size 324 MB, throughput 0.959642
Reading from 23991: heap size 306 MB, throughput 0.82273
Reading from 23991: heap size 293 MB, throughput 0.802647
Reading from 23991: heap size 306 MB, throughput 0.795471
Reading from 23991: heap size 293 MB, throughput 0.76938
Reading from 23991: heap size 305 MB, throughput 0.810763
Reading from 23991: heap size 294 MB, throughput 0.753855
Reading from 23991: heap size 302 MB, throughput 0.976404
Reading from 23991: heap size 304 MB, throughput 0.974635
Reading from 23991: heap size 301 MB, throughput 0.963351
Reading from 23992: heap size 319 MB, throughput 0.944704
Reading from 23991: heap size 306 MB, throughput 0.991851
Reading from 23992: heap size 324 MB, throughput 0.960558
Reading from 23991: heap size 301 MB, throughput 0.99032
Reading from 23992: heap size 324 MB, throughput 0.956207
Reading from 23991: heap size 306 MB, throughput 0.988902
Reading from 23992: heap size 326 MB, throughput 0.951095
Reading from 23992: heap size 329 MB, throughput 0.790724
Reading from 23992: heap size 329 MB, throughput 0.725858
Reading from 23991: heap size 299 MB, throughput 0.985965
Reading from 23992: heap size 331 MB, throughput 0.690534
Reading from 23992: heap size 328 MB, throughput 0.614265
Reading from 23992: heap size 331 MB, throughput 0.555597
Reading from 23992: heap size 335 MB, throughput 0.572083
Reading from 23992: heap size 337 MB, throughput 0.0866727
Reading from 23992: heap size 331 MB, throughput 0.767441
Reading from 23991: heap size 304 MB, throughput 0.986221
Reading from 23992: heap size 333 MB, throughput 0.967355
Reading from 23992: heap size 334 MB, throughput 0.962444
Reading from 23992: heap size 335 MB, throughput 0.762897
Reading from 23992: heap size 336 MB, throughput 0.962526
Reading from 23992: heap size 285 MB, throughput 0.963447
Reading from 23992: heap size 336 MB, throughput 0.966527
Reading from 23992: heap size 286 MB, throughput 0.967035
Reading from 23992: heap size 336 MB, throughput 0.950468
Reading from 23992: heap size 288 MB, throughput 0.962999
Reading from 23992: heap size 334 MB, throughput 0.971779
Reading from 23992: heap size 290 MB, throughput 0.958487
Reading from 23992: heap size 332 MB, throughput 0.985808
Reading from 23991: heap size 296 MB, throughput 0.983167
Reading from 23992: heap size 292 MB, throughput 0.991426
Reading from 23991: heap size 301 MB, throughput 0.985962
Reading from 23992: heap size 329 MB, throughput 0.989614
Reading from 23991: heap size 298 MB, throughput 0.978525
Reading from 23992: heap size 296 MB, throughput 0.987805
Reading from 23991: heap size 300 MB, throughput 0.979875
Reading from 23992: heap size 325 MB, throughput 0.98232
Reading from 23992: heap size 300 MB, throughput 0.981727
Reading from 23991: heap size 298 MB, throughput 0.971101
Reading from 23992: heap size 323 MB, throughput 0.986586
Reading from 23991: heap size 300 MB, throughput 0.977517
Reading from 23992: heap size 304 MB, throughput 0.980704
Reading from 23991: heap size 301 MB, throughput 0.982562
Reading from 23992: heap size 320 MB, throughput 0.977701
Reading from 23991: heap size 301 MB, throughput 0.974944
Reading from 23992: heap size 307 MB, throughput 0.976766
Reading from 23992: heap size 319 MB, throughput 0.971635
Reading from 23991: heap size 304 MB, throughput 0.973651
Reading from 23992: heap size 320 MB, throughput 0.969845
Reading from 23991: heap size 304 MB, throughput 0.981158
Reading from 23992: heap size 319 MB, throughput 0.978013
Reading from 23991: heap size 304 MB, throughput 0.975925
Reading from 23992: heap size 320 MB, throughput 0.971802
Equal recommendation: 303 MB each
Reading from 23992: heap size 320 MB, throughput 0.971766
Reading from 23991: heap size 305 MB, throughput 0.966617
Reading from 23992: heap size 320 MB, throughput 0.981302
Reading from 23991: heap size 305 MB, throughput 0.974476
Reading from 23992: heap size 321 MB, throughput 0.961557
Reading from 23991: heap size 306 MB, throughput 0.965086
Reading from 23992: heap size 321 MB, throughput 0.974108
Reading from 23991: heap size 306 MB, throughput 0.948183
Reading from 23992: heap size 322 MB, throughput 0.953956
Reading from 23992: heap size 322 MB, throughput 0.976186
Reading from 23991: heap size 307 MB, throughput 0.972425
Reading from 23992: heap size 323 MB, throughput 0.964568
Reading from 23991: heap size 307 MB, throughput 0.962099
Reading from 23992: heap size 323 MB, throughput 0.957267
Reading from 23992: heap size 322 MB, throughput 0.95788
Reading from 23991: heap size 307 MB, throughput 0.973908
Reading from 23991: heap size 308 MB, throughput 0.97247
Reading from 23992: heap size 322 MB, throughput 0.973717
Reading from 23992: heap size 321 MB, throughput 0.954231
Reading from 23991: heap size 308 MB, throughput 0.974087
Reading from 23992: heap size 322 MB, throughput 0.961999
Reading from 23991: heap size 308 MB, throughput 0.967262
Reading from 23992: heap size 321 MB, throughput 0.970909
Reading from 23991: heap size 308 MB, throughput 0.963808
Reading from 23992: heap size 312 MB, throughput 0.966832
Reading from 23991: heap size 308 MB, throughput 0.97241
Reading from 23992: heap size 321 MB, throughput 0.964791
Reading from 23991: heap size 298 MB, throughput 0.965294
Reading from 23992: heap size 312 MB, throughput 0.964276
Reading from 23992: heap size 319 MB, throughput 0.947279
Reading from 23991: heap size 308 MB, throughput 0.647623
Reading from 23992: heap size 312 MB, throughput 0.975629
Reading from 23991: heap size 310 MB, throughput 0.992069
Reading from 23992: heap size 318 MB, throughput 0.959894
Reading from 23991: heap size 318 MB, throughput 0.987096
Equal recommendation: 303 MB each
Reading from 23992: heap size 319 MB, throughput 0.970976
Reading from 23992: heap size 318 MB, throughput 0.95137
Reading from 23991: heap size 320 MB, throughput 0.989811
Reading from 23992: heap size 312 MB, throughput 0.967144
Reading from 23991: heap size 320 MB, throughput 0.988136
Reading from 23992: heap size 317 MB, throughput 0.954293
Reading from 23992: heap size 317 MB, throughput 0.954313
Reading from 23991: heap size 301 MB, throughput 0.973798
Reading from 23991: heap size 318 MB, throughput 0.857958
Reading from 23991: heap size 319 MB, throughput 0.809962
Reading from 23991: heap size 322 MB, throughput 0.774304
Reading from 23991: heap size 322 MB, throughput 0.665012
Reading from 23991: heap size 325 MB, throughput 0.619752
Reading from 23991: heap size 329 MB, throughput 0.590523
Reading from 23992: heap size 316 MB, throughput 0.928122
Reading from 23991: heap size 330 MB, throughput 0.647649
Reading from 23991: heap size 332 MB, throughput 0.717869
Reading from 23991: heap size 328 MB, throughput 0.727503
Reading from 23991: heap size 299 MB, throughput 0.113497
Reading from 23992: heap size 312 MB, throughput 0.959999
Reading from 23991: heap size 343 MB, throughput 0.896812
Reading from 23991: heap size 345 MB, throughput 0.976302
Reading from 23991: heap size 346 MB, throughput 0.971626
Reading from 23991: heap size 297 MB, throughput 0.980444
Reading from 23992: heap size 316 MB, throughput 0.956727
Reading from 23991: heap size 346 MB, throughput 0.992732
Reading from 23991: heap size 298 MB, throughput 0.989303
Reading from 23992: heap size 312 MB, throughput 0.964774
Reading from 23991: heap size 345 MB, throughput 0.952713
Reading from 23992: heap size 311 MB, throughput 0.926309
Reading from 23991: heap size 299 MB, throughput 0.987745
Reading from 23992: heap size 316 MB, throughput 0.969744
Reading from 23992: heap size 316 MB, throughput 0.755005
Reading from 23992: heap size 319 MB, throughput 0.750215
Reading from 23992: heap size 318 MB, throughput 0.603008
Reading from 23992: heap size 308 MB, throughput 0.70863
Reading from 23992: heap size 315 MB, throughput 0.545597
Reading from 23991: heap size 343 MB, throughput 0.989076
Reading from 23992: heap size 320 MB, throughput 0.0740103
Reading from 23992: heap size 319 MB, throughput 0.94627
Reading from 23992: heap size 321 MB, throughput 0.766153
Reading from 23992: heap size 322 MB, throughput 0.833402
Reading from 23992: heap size 324 MB, throughput 0.940813
Reading from 23992: heap size 325 MB, throughput 0.958422
Reading from 23992: heap size 280 MB, throughput 0.922105
Reading from 23992: heap size 325 MB, throughput 0.951571
Reading from 23992: heap size 281 MB, throughput 0.96005
Reading from 23992: heap size 324 MB, throughput 0.967627
Reading from 23992: heap size 282 MB, throughput 0.970965
Reading from 23992: heap size 323 MB, throughput 0.968604
Reading from 23992: heap size 283 MB, throughput 0.960485
Reading from 23992: heap size 321 MB, throughput 0.957633
Reading from 23992: heap size 285 MB, throughput 0.960033
Reading from 23992: heap size 319 MB, throughput 0.968149
Reading from 23992: heap size 286 MB, throughput 0.960458
Reading from 23991: heap size 301 MB, throughput 0.988915
Reading from 23992: heap size 317 MB, throughput 0.948236
Reading from 23992: heap size 290 MB, throughput 0.989392
Reading from 23991: heap size 341 MB, throughput 0.986388
Reading from 23992: heap size 315 MB, throughput 0.987156
Reading from 23991: heap size 305 MB, throughput 0.987474
Reading from 23992: heap size 291 MB, throughput 0.990212
Reading from 23992: heap size 313 MB, throughput 0.983969
Reading from 23991: heap size 333 MB, throughput 0.983694
Reading from 23992: heap size 295 MB, throughput 0.982779
Reading from 23991: heap size 308 MB, throughput 0.974314
Reading from 23992: heap size 311 MB, throughput 0.975813
Reading from 23991: heap size 328 MB, throughput 0.984701
Reading from 23992: heap size 298 MB, throughput 0.980746
Reading from 23992: heap size 310 MB, throughput 0.966045
Reading from 23991: heap size 310 MB, throughput 0.982643
Reading from 23992: heap size 310 MB, throughput 0.98154
Equal recommendation: 303 MB each
Reading from 23992: heap size 310 MB, throughput 0.981532
Reading from 23991: heap size 326 MB, throughput 0.983287
Reading from 23992: heap size 310 MB, throughput 0.973999
Reading from 23991: heap size 312 MB, throughput 0.9657
Reading from 23992: heap size 310 MB, throughput 0.972813
Reading from 23991: heap size 327 MB, throughput 0.959687
Reading from 23992: heap size 310 MB, throughput 0.962977
Reading from 23992: heap size 311 MB, throughput 0.963666
Reading from 23991: heap size 327 MB, throughput 0.974113
Reading from 23992: heap size 311 MB, throughput 0.964931
Reading from 23991: heap size 326 MB, throughput 0.970604
Reading from 23992: heap size 311 MB, throughput 0.964259
Reading from 23992: heap size 312 MB, throughput 0.97827
Reading from 23991: heap size 327 MB, throughput 0.972352
Reading from 23992: heap size 313 MB, throughput 0.961493
Reading from 23992: heap size 313 MB, throughput 0.966749
Reading from 23991: heap size 326 MB, throughput 0.952533
Reading from 23992: heap size 313 MB, throughput 0.963024
Reading from 23991: heap size 327 MB, throughput 0.955091
Reading from 23992: heap size 313 MB, throughput 0.960583
Reading from 23991: heap size 328 MB, throughput 0.969334
Reading from 23992: heap size 313 MB, throughput 0.95675
Reading from 23992: heap size 313 MB, throughput 0.960842
Reading from 23991: heap size 328 MB, throughput 0.96489
Reading from 23992: heap size 312 MB, throughput 0.953366
Reading from 23991: heap size 328 MB, throughput 0.967775
Reading from 23992: heap size 313 MB, throughput 0.966993
Reading from 23992: heap size 312 MB, throughput 0.97386
Reading from 23991: heap size 329 MB, throughput 0.976605
Reading from 23992: heap size 304 MB, throughput 0.965129
Reading from 23991: heap size 329 MB, throughput 0.950392
Reading from 23992: heap size 312 MB, throughput 0.9578
Reading from 23991: heap size 329 MB, throughput 0.973547
Reading from 23992: heap size 304 MB, throughput 0.963267
Reading from 23991: heap size 328 MB, throughput 0.961581
Reading from 23992: heap size 310 MB, throughput 0.957808
Reading from 23992: heap size 304 MB, throughput 0.960777
Reading from 23991: heap size 328 MB, throughput 0.957663
Reading from 23992: heap size 310 MB, throughput 0.959239
Reading from 23991: heap size 327 MB, throughput 0.960513
Reading from 23992: heap size 304 MB, throughput 0.962893
Reading from 23991: heap size 317 MB, throughput 0.958383
Reading from 23992: heap size 309 MB, throughput 0.973836
Equal recommendation: 303 MB each
Reading from 23991: heap size 326 MB, throughput 0.977211
Reading from 23992: heap size 304 MB, throughput 0.96641
Reading from 23991: heap size 317 MB, throughput 0.969596
Reading from 23992: heap size 309 MB, throughput 0.964923
Reading from 23991: heap size 325 MB, throughput 0.960855
Reading from 23992: heap size 304 MB, throughput 0.962592
Reading from 23991: heap size 316 MB, throughput 0.967381
Reading from 23992: heap size 308 MB, throughput 0.969449
Reading from 23992: heap size 304 MB, throughput 0.949858
Reading from 23991: heap size 324 MB, throughput 0.921316
Reading from 23992: heap size 307 MB, throughput 0.951777
Reading from 23991: heap size 316 MB, throughput 0.954896
Reading from 23992: heap size 307 MB, throughput 0.956354
Reading from 23992: heap size 306 MB, throughput 0.968877
Reading from 23991: heap size 323 MB, throughput 0.983525
Reading from 23992: heap size 307 MB, throughput 0.955519
Reading from 23991: heap size 315 MB, throughput 0.9256
Reading from 23992: heap size 307 MB, throughput 0.972749
Reading from 23991: heap size 317 MB, throughput 0.926694
Reading from 23991: heap size 323 MB, throughput 0.816559
Reading from 23991: heap size 323 MB, throughput 0.588626
Reading from 23992: heap size 304 MB, throughput 0.949881
Reading from 23992: heap size 306 MB, throughput 0.957772
Reading from 23991: heap size 323 MB, throughput 0.170607
Reading from 23991: heap size 311 MB, throughput 0.961459
Reading from 23991: heap size 318 MB, throughput 0.967386
Reading from 23991: heap size 318 MB, throughput 0.963494
Reading from 23991: heap size 320 MB, throughput 0.822003
Reading from 23991: heap size 320 MB, throughput 0.904538
Reading from 23991: heap size 320 MB, throughput 0.963792
Reading from 23991: heap size 318 MB, throughput 0.963029
Reading from 23991: heap size 280 MB, throughput 0.889466
Reading from 23991: heap size 320 MB, throughput 0.95184
Reading from 23991: heap size 281 MB, throughput 0.96892
Reading from 23992: heap size 304 MB, throughput 0.908396
Reading from 23991: heap size 319 MB, throughput 0.845751
Reading from 23991: heap size 283 MB, throughput 0.932623
Reading from 23991: heap size 318 MB, throughput 0.95975
Reading from 23991: heap size 284 MB, throughput 0.814773
Reading from 23991: heap size 317 MB, throughput 0.951433
Reading from 23991: heap size 288 MB, throughput 0.991835
Reading from 23992: heap size 306 MB, throughput 0.957732
Reading from 23991: heap size 315 MB, throughput 0.991726
Reading from 23992: heap size 306 MB, throughput 0.969477
Reading from 23991: heap size 289 MB, throughput 0.986496
Reading from 23992: heap size 310 MB, throughput 0.600089
Reading from 23991: heap size 313 MB, throughput 0.988852
Reading from 23992: heap size 301 MB, throughput 0.979293
Reading from 23992: heap size 304 MB, throughput 0.95883
Reading from 23992: heap size 306 MB, throughput 0.961038
Reading from 23992: heap size 305 MB, throughput 0.887284
Reading from 23992: heap size 293 MB, throughput 0.752665
Reading from 23992: heap size 303 MB, throughput 0.764555
Reading from 23992: heap size 305 MB, throughput 0.726746
Reading from 23992: heap size 305 MB, throughput 0.724452
Reading from 23992: heap size 306 MB, throughput 0.611621
Reading from 23992: heap size 307 MB, throughput 0.620312
Reading from 23992: heap size 307 MB, throughput 0.828845
Reading from 23992: heap size 306 MB, throughput 0.956271
Reading from 23992: heap size 307 MB, throughput 0.952942
Reading from 23992: heap size 308 MB, throughput 0.947563
Reading from 23991: heap size 291 MB, throughput 0.989731
Reading from 23992: heap size 274 MB, throughput 0.965836
Reading from 23992: heap size 308 MB, throughput 0.952832
Reading from 23992: heap size 274 MB, throughput 0.947989
Reading from 23992: heap size 308 MB, throughput 0.953786
Reading from 23992: heap size 275 MB, throughput 0.967175
Reading from 23992: heap size 307 MB, throughput 0.963904
Reading from 23992: heap size 277 MB, throughput 0.946474
Reading from 23992: heap size 306 MB, throughput 0.981998
Reading from 23991: heap size 312 MB, throughput 0.988652
Reading from 23992: heap size 279 MB, throughput 0.991839
Reading from 23991: heap size 294 MB, throughput 0.982423
Reading from 23992: heap size 305 MB, throughput 0.989943
Reading from 23991: heap size 310 MB, throughput 0.982358
Reading from 23992: heap size 281 MB, throughput 0.987546
Reading from 23992: heap size 304 MB, throughput 0.98901
Reading from 23991: heap size 298 MB, throughput 0.987076
Reading from 23992: heap size 285 MB, throughput 0.971788
Equal recommendation: 303 MB each
Reading from 23991: heap size 308 MB, throughput 0.983971
Reading from 23992: heap size 302 MB, throughput 0.983467
Reading from 23991: heap size 308 MB, throughput 0.981571
Reading from 23992: heap size 301 MB, throughput 0.98644
Reading from 23991: heap size 308 MB, throughput 0.969957
Reading from 23992: heap size 301 MB, throughput 0.974442
Reading from 23991: heap size 308 MB, throughput 0.969008
Reading from 23992: heap size 302 MB, throughput 0.975506
Reading from 23991: heap size 308 MB, throughput 0.983176
Reading from 23992: heap size 305 MB, throughput 0.983
Reading from 23991: heap size 309 MB, throughput 0.974371
Reading from 23992: heap size 305 MB, throughput 0.978642
Reading from 23991: heap size 309 MB, throughput 0.956287
Reading from 23992: heap size 305 MB, throughput 0.970685
Reading from 23991: heap size 310 MB, throughput 0.960959
Reading from 23992: heap size 305 MB, throughput 0.968705
Reading from 23992: heap size 305 MB, throughput 0.969358
Reading from 23991: heap size 309 MB, throughput 0.98113
Reading from 23991: heap size 311 MB, throughput 0.962124
Reading from 23992: heap size 306 MB, throughput 0.963311
Reading from 23991: heap size 311 MB, throughput 0.960812
Reading from 23992: heap size 306 MB, throughput 0.963355
Reading from 23991: heap size 312 MB, throughput 0.947507
Reading from 23992: heap size 307 MB, throughput 0.963798
Reading from 23991: heap size 312 MB, throughput 0.959624
Reading from 23992: heap size 308 MB, throughput 0.965332
Reading from 23991: heap size 313 MB, throughput 0.955176
Reading from 23992: heap size 309 MB, throughput 0.959261
Reading from 23991: heap size 313 MB, throughput 0.946833
Reading from 23992: heap size 309 MB, throughput 0.961203
Reading from 23992: heap size 309 MB, throughput 0.948986
Reading from 23991: heap size 313 MB, throughput 0.965328
Reading from 23992: heap size 309 MB, throughput 0.95734
Reading from 23991: heap size 312 MB, throughput 0.959625
Reading from 23992: heap size 310 MB, throughput 0.955203
Reading from 23991: heap size 312 MB, throughput 0.954242
Reading from 23992: heap size 310 MB, throughput 0.964118
Reading from 23991: heap size 311 MB, throughput 0.966017
Reading from 23992: heap size 310 MB, throughput 0.954312
Reading from 23991: heap size 302 MB, throughput 0.94629
Reading from 23992: heap size 309 MB, throughput 0.96875
Reading from 23991: heap size 312 MB, throughput 0.962549
Reading from 23992: heap size 309 MB, throughput 0.960797
Reading from 23991: heap size 302 MB, throughput 0.965607
Equal recommendation: 303 MB each
Reading from 23992: heap size 308 MB, throughput 0.951766
Reading from 23991: heap size 311 MB, throughput 0.945707
Reading from 23992: heap size 299 MB, throughput 0.949037
Reading from 23991: heap size 302 MB, throughput 0.966226
Reading from 23992: heap size 309 MB, throughput 0.970668
Reading from 23991: heap size 311 MB, throughput 0.961269
Reading from 23992: heap size 299 MB, throughput 0.947273
Reading from 23991: heap size 303 MB, throughput 0.96683
Reading from 23991: heap size 310 MB, throughput 0.958316
Reading from 23992: heap size 309 MB, throughput 0.981053
Reading from 23991: heap size 303 MB, throughput 0.959438
Reading from 23991: heap size 309 MB, throughput 0.940706
Reading from 23992: heap size 299 MB, throughput 0.970091
Reading from 23991: heap size 304 MB, throughput 0.945275
Reading from 23992: heap size 308 MB, throughput 0.969649
Reading from 23991: heap size 308 MB, throughput 0.940324
Reading from 23991: heap size 303 MB, throughput 0.940495
Reading from 23992: heap size 300 MB, throughput 0.961544
Reading from 23991: heap size 308 MB, throughput 0.94904
Reading from 23992: heap size 307 MB, throughput 0.964854
Reading from 23991: heap size 301 MB, throughput 0.983942
Reading from 23992: heap size 307 MB, throughput 0.96992
Reading from 23991: heap size 307 MB, throughput 0.933129
Reading from 23992: heap size 306 MB, throughput 0.968882
Reading from 23991: heap size 307 MB, throughput 0.626471
Reading from 23991: heap size 291 MB, throughput 0.97443
Reading from 23991: heap size 291 MB, throughput 0.951753
Reading from 23991: heap size 294 MB, throughput 0.822544
Reading from 23992: heap size 306 MB, throughput 0.958674
Reading from 23991: heap size 296 MB, throughput 0.641848
Reading from 23991: heap size 301 MB, throughput 0.835949
Reading from 23991: heap size 303 MB, throughput 0.786691
Reading from 23991: heap size 310 MB, throughput 0.797746
Reading from 23991: heap size 311 MB, throughput 0.978323
Reading from 23991: heap size 312 MB, throughput 0.854649
Reading from 23991: heap size 312 MB, throughput 0.920983
Reading from 23991: heap size 313 MB, throughput 0.98008
Reading from 23991: heap size 280 MB, throughput 0.97914
Reading from 23992: heap size 306 MB, throughput 0.96035
Reading from 23991: heap size 313 MB, throughput 0.992038
Reading from 23992: heap size 306 MB, throughput 0.941116
Reading from 23991: heap size 281 MB, throughput 0.99105
Reading from 23991: heap size 313 MB, throughput 0.979414
Reading from 23992: heap size 306 MB, throughput 0.698516
Reading from 23991: heap size 283 MB, throughput 0.987853
Reading from 23992: heap size 318 MB, throughput 0.979129
Reading from 23991: heap size 311 MB, throughput 0.989776
Reading from 23992: heap size 321 MB, throughput 0.974176
Reading from 23992: heap size 315 MB, throughput 0.856076
Reading from 23992: heap size 320 MB, throughput 0.831352
Reading from 23992: heap size 312 MB, throughput 0.770132
Reading from 23992: heap size 317 MB, throughput 0.680838
Reading from 23991: heap size 284 MB, throughput 0.990024
Reading from 23992: heap size 320 MB, throughput 0.61168
Reading from 23992: heap size 323 MB, throughput 0.645919
Reading from 23992: heap size 325 MB, throughput 0.643803
Reading from 23992: heap size 325 MB, throughput 0.804395
Reading from 23992: heap size 306 MB, throughput 0.765471
Reading from 23992: heap size 323 MB, throughput 0.95433
Reading from 23992: heap size 325 MB, throughput 0.836003
Reading from 23992: heap size 325 MB, throughput 0.954594
Reading from 23992: heap size 326 MB, throughput 0.949377
Reading from 23992: heap size 325 MB, throughput 0.95032
Reading from 23992: heap size 289 MB, throughput 0.954608
Reading from 23992: heap size 326 MB, throughput 0.952966
Reading from 23992: heap size 290 MB, throughput 0.958611
Reading from 23992: heap size 325 MB, throughput 0.949088
Reading from 23992: heap size 292 MB, throughput 0.987131
Reading from 23991: heap size 310 MB, throughput 0.989022
Equal recommendation: 303 MB each
Reading from 23992: heap size 323 MB, throughput 0.993294
Reading from 23991: heap size 289 MB, throughput 0.990784
Reading from 23992: heap size 293 MB, throughput 0.991459
Reading from 23992: heap size 322 MB, throughput 0.987946
Reading from 23991: heap size 308 MB, throughput 0.985616
Reading from 23992: heap size 294 MB, throughput 0.98627
Reading from 23991: heap size 293 MB, throughput 0.981489
Reading from 23992: heap size 320 MB, throughput 0.989242
Reading from 23992: heap size 298 MB, throughput 0.986639
Reading from 23991: heap size 306 MB, throughput 0.981944
Reading from 23992: heap size 319 MB, throughput 0.984363
Reading from 23991: heap size 306 MB, throughput 0.98147
Reading from 23992: heap size 302 MB, throughput 0.980153
Reading from 23992: heap size 317 MB, throughput 0.981764
Reading from 23991: heap size 306 MB, throughput 0.986815
Reading from 23992: heap size 305 MB, throughput 0.981552
Reading from 23991: heap size 306 MB, throughput 0.977882
Reading from 23992: heap size 315 MB, throughput 0.979192
Reading from 23992: heap size 315 MB, throughput 0.976567
Reading from 23991: heap size 306 MB, throughput 0.971524
Reading from 23992: heap size 315 MB, throughput 0.968588
Reading from 23992: heap size 315 MB, throughput 0.964128
Reading from 23991: heap size 307 MB, throughput 0.95899
Reading from 23992: heap size 315 MB, throughput 0.970282
Reading from 23991: heap size 307 MB, throughput 0.97249
Reading from 23992: heap size 316 MB, throughput 0.965525
Reading from 23991: heap size 309 MB, throughput 0.966545
Reading from 23992: heap size 316 MB, throughput 0.966185
Reading from 23991: heap size 308 MB, throughput 0.967105
Reading from 23992: heap size 317 MB, throughput 0.972471
Reading from 23992: heap size 317 MB, throughput 0.956085
Reading from 23991: heap size 310 MB, throughput 0.963431
Reading from 23992: heap size 318 MB, throughput 0.957862
Reading from 23991: heap size 311 MB, throughput 0.976838
Reading from 23992: heap size 319 MB, throughput 0.976367
Equal recommendation: 303 MB each
Reading from 23991: heap size 312 MB, throughput 0.957223
Reading from 23992: heap size 319 MB, throughput 0.954595
Reading from 23991: heap size 313 MB, throughput 0.935529
Reading from 23992: heap size 319 MB, throughput 0.609278
Reading from 23991: heap size 313 MB, throughput 0.958414
Reading from 23992: heap size 291 MB, throughput 0.985182
Reading from 23992: heap size 301 MB, throughput 0.988224
Reading from 23992: heap size 302 MB, throughput 0.958756
Reading from 23991: heap size 313 MB, throughput 0.720201
Reading from 23992: heap size 305 MB, throughput 0.984027
Reading from 23991: heap size 311 MB, throughput 0.990044
Reading from 23992: heap size 286 MB, throughput 0.983877
Reading from 23991: heap size 325 MB, throughput 0.987985
Reading from 23992: heap size 305 MB, throughput 0.980143
Reading from 23991: heap size 326 MB, throughput 0.987194
Reading from 23992: heap size 289 MB, throughput 0.976405
Reading from 23992: heap size 304 MB, throughput 0.979577
Reading from 23991: heap size 325 MB, throughput 0.986848
Reading from 23991: heap size 297 MB, throughput 0.980732
Reading from 23992: heap size 292 MB, throughput 0.986375
Reading from 23992: heap size 303 MB, throughput 0.971624
Reading from 23991: heap size 325 MB, throughput 0.976094
Reading from 23992: heap size 302 MB, throughput 0.970645
Reading from 23992: heap size 305 MB, throughput 0.972694
Reading from 23991: heap size 307 MB, throughput 0.983253
Reading from 23992: heap size 306 MB, throughput 0.970537
Reading from 23991: heap size 323 MB, throughput 0.972261
Reading from 23991: heap size 323 MB, throughput 0.879175
Reading from 23991: heap size 322 MB, throughput 0.776968
Reading from 23991: heap size 325 MB, throughput 0.732639
Reading from 23991: heap size 321 MB, throughput 0.620202
Reading from 23991: heap size 328 MB, throughput 0.584731
Reading from 23992: heap size 305 MB, throughput 0.932423
Reading from 23991: heap size 329 MB, throughput 0.617349
Reading from 23991: heap size 333 MB, throughput 0.590674
Reading from 23991: heap size 335 MB, throughput 0.685543
Reading from 23991: heap size 297 MB, throughput 0.784108
Reading from 23991: heap size 334 MB, throughput 0.0928454
Reading from 23991: heap size 346 MB, throughput 0.805498
Reading from 23991: heap size 347 MB, throughput 0.968861
Reading from 23991: heap size 292 MB, throughput 0.884554
Reading from 23991: heap size 348 MB, throughput 0.887771
Reading from 23991: heap size 293 MB, throughput 0.836091
Reading from 23992: heap size 306 MB, throughput 0.971695
Reading from 23991: heap size 348 MB, throughput 0.987465
Reading from 23992: heap size 306 MB, throughput 0.967406
Reading from 23991: heap size 296 MB, throughput 0.990511
Reading from 23992: heap size 307 MB, throughput 0.961281
Reading from 23991: heap size 346 MB, throughput 0.987523
Reading from 23992: heap size 307 MB, throughput 0.948739
Reading from 23991: heap size 298 MB, throughput 0.990101
Equal recommendation: 303 MB each
Reading from 23991: heap size 345 MB, throughput 0.986472
Reading from 23992: heap size 298 MB, throughput 0.986125
Reading from 23991: heap size 301 MB, throughput 0.988122
Reading from 23992: heap size 307 MB, throughput 0.937599
Reading from 23992: heap size 307 MB, throughput 0.945135
Reading from 23991: heap size 342 MB, throughput 0.987924
Reading from 23992: heap size 312 MB, throughput 0.828986
Reading from 23992: heap size 313 MB, throughput 0.740788
Reading from 23992: heap size 309 MB, throughput 0.71004
Reading from 23992: heap size 313 MB, throughput 0.665361
Reading from 23992: heap size 316 MB, throughput 0.104237
Reading from 23992: heap size 309 MB, throughput 0.973053
Reading from 23991: heap size 303 MB, throughput 0.989549
Reading from 23992: heap size 333 MB, throughput 0.823937
Reading from 23992: heap size 334 MB, throughput 0.885169
Reading from 23992: heap size 335 MB, throughput 0.881967
Reading from 23992: heap size 335 MB, throughput 0.972346
Reading from 23992: heap size 333 MB, throughput 0.971683
Reading from 23992: heap size 298 MB, throughput 0.974035
Reading from 23992: heap size 334 MB, throughput 0.83908
Reading from 23992: heap size 299 MB, throughput 0.96878
Reading from 23992: heap size 333 MB, throughput 0.962962
Reading from 23991: heap size 340 MB, throughput 0.990138
Reading from 23992: heap size 302 MB, throughput 0.993457
Reading from 23991: heap size 306 MB, throughput 0.98705
Reading from 23992: heap size 331 MB, throughput 0.989104
Reading from 23991: heap size 331 MB, throughput 0.98383
Reading from 23992: heap size 303 MB, throughput 0.987151
Reading from 23991: heap size 309 MB, throughput 0.983013
Reading from 23992: heap size 330 MB, throughput 0.99075
Reading from 23991: heap size 327 MB, throughput 0.989078
Reading from 23992: heap size 304 MB, throughput 0.994418
Reading from 23991: heap size 311 MB, throughput 0.983908
Reading from 23992: heap size 324 MB, throughput 0.988773
Reading from 23991: heap size 327 MB, throughput 0.966142
Reading from 23992: heap size 305 MB, throughput 0.988977
Reading from 23991: heap size 314 MB, throughput 0.970846
Reading from 23992: heap size 321 MB, throughput 0.989047
Reading from 23991: heap size 327 MB, throughput 0.978365
Reading from 23992: heap size 308 MB, throughput 0.980157
Reading from 23991: heap size 327 MB, throughput 0.978366
Reading from 23992: heap size 319 MB, throughput 0.976696
Reading from 23992: heap size 310 MB, throughput 0.976401
Reading from 23991: heap size 327 MB, throughput 0.960198
Reading from 23992: heap size 320 MB, throughput 0.976495
Reading from 23991: heap size 327 MB, throughput 0.964007
Reading from 23992: heap size 320 MB, throughput 0.981474
Reading from 23991: heap size 327 MB, throughput 0.975429
Reading from 23992: heap size 320 MB, throughput 0.977733
Reading from 23991: heap size 328 MB, throughput 0.974581
Reading from 23992: heap size 320 MB, throughput 0.971951
Equal recommendation: 303 MB each
Reading from 23991: heap size 329 MB, throughput 0.958968
Reading from 23992: heap size 320 MB, throughput 0.984721
Reading from 23991: heap size 330 MB, throughput 0.962711
Reading from 23992: heap size 321 MB, throughput 0.945989
Reading from 23992: heap size 321 MB, throughput 0.927966
Reading from 23991: heap size 330 MB, throughput 0.940834
Reading from 23992: heap size 322 MB, throughput 0.962293
Reading from 23991: heap size 331 MB, throughput 0.957531
Reading from 23992: heap size 323 MB, throughput 0.969993
Reading from 23991: heap size 330 MB, throughput 0.967548
Reading from 23991: heap size 316 MB, throughput 0.971646
Reading from 23992: heap size 312 MB, throughput 0.984488
Reading from 23991: heap size 327 MB, throughput 0.978916
Reading from 23992: heap size 322 MB, throughput 0.960671
Reading from 23992: heap size 310 MB, throughput 0.965935
Reading from 23991: heap size 315 MB, throughput 0.97526
Reading from 23991: heap size 325 MB, throughput 0.973527
Reading from 23992: heap size 319 MB, throughput 0.979484
Reading from 23992: heap size 308 MB, throughput 0.969832
Reading from 23991: heap size 315 MB, throughput 0.963771
Reading from 23992: heap size 318 MB, throughput 0.982002
Reading from 23991: heap size 324 MB, throughput 0.976834
Reading from 23992: heap size 306 MB, throughput 0.981635
Reading from 23991: heap size 316 MB, throughput 0.955522
Reading from 23992: heap size 317 MB, throughput 0.977079
Reading from 23991: heap size 324 MB, throughput 0.961385
Reading from 23992: heap size 318 MB, throughput 0.976041
Reading from 23991: heap size 317 MB, throughput 0.968571
Reading from 23992: heap size 316 MB, throughput 0.980007
Reading from 23992: heap size 308 MB, throughput 0.974924
Reading from 23991: heap size 324 MB, throughput 0.982821
Reading from 23992: heap size 315 MB, throughput 0.979642
Reading from 23991: heap size 324 MB, throughput 0.945648
Reading from 23992: heap size 310 MB, throughput 0.96573
Reading from 23991: heap size 320 MB, throughput 0.920919
Reading from 23991: heap size 324 MB, throughput 0.855256
Reading from 23991: heap size 323 MB, throughput 0.722107
Reading from 23991: heap size 324 MB, throughput 0.68709
Reading from 23992: heap size 315 MB, throughput 0.951312
Reading from 23991: heap size 320 MB, throughput 0.404524
Reading from 23991: heap size 327 MB, throughput 0.584164
Reading from 23991: heap size 327 MB, throughput 0.0736606
Reading from 23991: heap size 303 MB, throughput 0.961679
Reading from 23992: heap size 315 MB, throughput 0.962717
Reading from 23991: heap size 319 MB, throughput 0.964662
Reading from 23991: heap size 321 MB, throughput 0.961805
Reading from 23991: heap size 322 MB, throughput 0.951391
Reading from 23991: heap size 322 MB, throughput 0.970157
Reading from 23991: heap size 322 MB, throughput 0.963529
Reading from 23991: heap size 278 MB, throughput 0.958516
Reading from 23991: heap size 322 MB, throughput 0.964656
Reading from 23991: heap size 279 MB, throughput 0.964123
Reading from 23991: heap size 321 MB, throughput 0.964106
Reading from 23991: heap size 281 MB, throughput 0.967384
Reading from 23991: heap size 320 MB, throughput 0.955419
Reading from 23991: heap size 283 MB, throughput 0.938596
Equal recommendation: 303 MB each
Reading from 23992: heap size 314 MB, throughput 0.967495
Reading from 23991: heap size 318 MB, throughput 0.989944
Reading from 23992: heap size 308 MB, throughput 0.976333
Reading from 23991: heap size 285 MB, throughput 0.991457
Reading from 23991: heap size 316 MB, throughput 0.967015
Reading from 23992: heap size 313 MB, throughput 0.972372
Reading from 23991: heap size 287 MB, throughput 0.985198
Reading from 23992: heap size 314 MB, throughput 0.970515
Reading from 23991: heap size 314 MB, throughput 0.984357
Reading from 23992: heap size 314 MB, throughput 0.975412
Reading from 23991: heap size 288 MB, throughput 0.990908
Reading from 23991: heap size 312 MB, throughput 0.982555
Reading from 23992: heap size 314 MB, throughput 0.982931
Reading from 23991: heap size 292 MB, throughput 0.987013
Reading from 23992: heap size 315 MB, throughput 0.963717
Reading from 23992: heap size 315 MB, throughput 0.898375
Reading from 23992: heap size 318 MB, throughput 0.873418
Reading from 23991: heap size 311 MB, throughput 0.975009
Reading from 23992: heap size 320 MB, throughput 0.12385
Reading from 23992: heap size 300 MB, throughput 0.887102
Reading from 23992: heap size 300 MB, throughput 0.765008
Reading from 23992: heap size 306 MB, throughput 0.975812
Reading from 23992: heap size 307 MB, throughput 0.978225
Reading from 23992: heap size 307 MB, throughput 0.975606
Reading from 23992: heap size 307 MB, throughput 0.974936
Reading from 23992: heap size 306 MB, throughput 0.973458
Reading from 23992: heap size 282 MB, throughput 0.912714
Reading from 23991: heap size 295 MB, throughput 0.97857
Reading from 23992: heap size 306 MB, throughput 0.968648
Reading from 23992: heap size 282 MB, throughput 0.967222
Reading from 23992: heap size 306 MB, throughput 0.973104
Reading from 23992: heap size 283 MB, throughput 0.955967
Reading from 23991: heap size 309 MB, throughput 0.983091
Reading from 23992: heap size 305 MB, throughput 0.994492
Reading from 23991: heap size 308 MB, throughput 0.96553
Reading from 23992: heap size 285 MB, throughput 0.988269
Reading from 23991: heap size 308 MB, throughput 0.972614
Reading from 23992: heap size 304 MB, throughput 0.990903
Reading from 23991: heap size 308 MB, throughput 0.974043
Reading from 23992: heap size 287 MB, throughput 0.990276
Reading from 23991: heap size 308 MB, throughput 0.979404
Reading from 23992: heap size 303 MB, throughput 0.991882
Reading from 23991: heap size 309 MB, throughput 0.986713
Reading from 23991: heap size 309 MB, throughput 0.969166
Reading from 23992: heap size 302 MB, throughput 0.991427
Reading from 23991: heap size 310 MB, throughput 0.961757
Reading from 23992: heap size 302 MB, throughput 0.989837
Reading from 23991: heap size 310 MB, throughput 0.969394
Reading from 23991: heap size 311 MB, throughput 0.970569
Reading from 23992: heap size 303 MB, throughput 0.988134
Reading from 23991: heap size 312 MB, throughput 0.96125
Reading from 23992: heap size 299 MB, throughput 0.986527
Reading from 23991: heap size 312 MB, throughput 0.961434
Equal recommendation: 303 MB each
Reading from 23992: heap size 303 MB, throughput 0.977691
Reading from 23991: heap size 313 MB, throughput 0.96546
Reading from 23991: heap size 301 MB, throughput 0.960316
Reading from 23992: heap size 302 MB, throughput 0.983643
Reading from 23991: heap size 313 MB, throughput 0.970133
Reading from 23991: heap size 300 MB, throughput 0.968904
Reading from 23992: heap size 305 MB, throughput 0.98396
Reading from 23991: heap size 312 MB, throughput 0.963423
Reading from 23992: heap size 304 MB, throughput 0.973165
Reading from 23991: heap size 299 MB, throughput 0.981925
Reading from 23991: heap size 311 MB, throughput 0.984149
Reading from 23992: heap size 307 MB, throughput 0.982538
Reading from 23991: heap size 299 MB, throughput 0.971934
Reading from 23992: heap size 307 MB, throughput 0.960383
Reading from 23991: heap size 310 MB, throughput 0.973815
Reading from 23992: heap size 309 MB, throughput 0.968976
Reading from 23991: heap size 299 MB, throughput 0.979352
Reading from 23992: heap size 309 MB, throughput 0.960639
Reading from 23991: heap size 310 MB, throughput 0.967342
Reading from 23991: heap size 301 MB, throughput 0.972705
Reading from 23992: heap size 311 MB, throughput 0.965322
Reading from 23991: heap size 309 MB, throughput 0.976369
Reading from 23992: heap size 311 MB, throughput 0.969279
Reading from 23991: heap size 302 MB, throughput 0.97294
Reading from 23992: heap size 299 MB, throughput 0.977098
Reading from 23991: heap size 308 MB, throughput 0.985625
Reading from 23992: heap size 311 MB, throughput 0.983826
Reading from 23991: heap size 302 MB, throughput 0.981732
Reading from 23992: heap size 297 MB, throughput 0.976557
Reading from 23991: heap size 307 MB, throughput 0.970225
Reading from 23992: heap size 310 MB, throughput 0.932309
Reading from 23991: heap size 307 MB, throughput 0.969616
Reading from 23992: heap size 297 MB, throughput 0.975194
Reading from 23991: heap size 307 MB, throughput 0.978769
Reading from 23992: heap size 309 MB, throughput 0.985161
Equal recommendation: 303 MB each
Reading from 23991: heap size 307 MB, throughput 0.979369
Reading from 23992: heap size 295 MB, throughput 0.983004
Reading from 23991: heap size 306 MB, throughput 0.595109
Reading from 23991: heap size 302 MB, throughput 0.979186
Reading from 23991: heap size 308 MB, throughput 0.982055
Reading from 23991: heap size 308 MB, throughput 0.951629
Reading from 23991: heap size 308 MB, throughput 0.706961
Reading from 23991: heap size 308 MB, throughput 0.59565
Reading from 23991: heap size 309 MB, throughput 0.673241
Reading from 23991: heap size 311 MB, throughput 0.710605
Reading from 23992: heap size 308 MB, throughput 0.723399
Reading from 23991: heap size 311 MB, throughput 0.95468
Reading from 23991: heap size 312 MB, throughput 0.952795
Reading from 23991: heap size 311 MB, throughput 0.964258
Reading from 23991: heap size 278 MB, throughput 0.961547
Reading from 23991: heap size 312 MB, throughput 0.963252
Reading from 23991: heap size 279 MB, throughput 0.954025
Reading from 23991: heap size 311 MB, throughput 0.958201
Reading from 23991: heap size 280 MB, throughput 0.9599
Reading from 23991: heap size 310 MB, throughput 0.966516
Reading from 23991: heap size 282 MB, throughput 0.975862
Reading from 23992: heap size 317 MB, throughput 0.992706
Reading from 23991: heap size 308 MB, throughput 0.990947
Reading from 23991: heap size 284 MB, throughput 0.992348
Reading from 23992: heap size 317 MB, throughput 0.992655
Reading from 23991: heap size 307 MB, throughput 0.988402
Reading from 23992: heap size 302 MB, throughput 0.986313
Reading from 23991: heap size 285 MB, throughput 0.988344
Reading from 23992: heap size 317 MB, throughput 0.984003
Reading from 23991: heap size 305 MB, throughput 0.991488
Reading from 23992: heap size 305 MB, throughput 0.987908
Reading from 23991: heap size 287 MB, throughput 0.988136
Reading from 23991: heap size 304 MB, throughput 0.983473
Reading from 23992: heap size 314 MB, throughput 0.971847
Reading from 23991: heap size 291 MB, throughput 0.981777
Reading from 23992: heap size 315 MB, throughput 0.976546
Reading from 23991: heap size 302 MB, throughput 0.982625
Reading from 23992: heap size 313 MB, throughput 0.968671
Reading from 23992: heap size 318 MB, throughput 0.867933
Reading from 23992: heap size 317 MB, throughput 0.762554
Reading from 23991: heap size 302 MB, throughput 0.981848
Reading from 23992: heap size 306 MB, throughput 0.728451
Reading from 23992: heap size 319 MB, throughput 0.731044
Reading from 23992: heap size 320 MB, throughput 0.108888
Reading from 23992: heap size 334 MB, throughput 0.975795
Reading from 23992: heap size 334 MB, throughput 0.976163
Reading from 23991: heap size 305 MB, throughput 0.976391
Reading from 23992: heap size 334 MB, throughput 0.976956
Reading from 23992: heap size 303 MB, throughput 0.971104
Reading from 23992: heap size 334 MB, throughput 0.976163
Reading from 23992: heap size 303 MB, throughput 0.971925
Reading from 23992: heap size 331 MB, throughput 0.967363
Reading from 23992: heap size 303 MB, throughput 0.975295
Reading from 23992: heap size 328 MB, throughput 0.962955
Reading from 23992: heap size 305 MB, throughput 0.989664
Reading from 23991: heap size 306 MB, throughput 0.979904
Reading from 23992: heap size 326 MB, throughput 0.985386
Reading from 23991: heap size 305 MB, throughput 0.981825
Reading from 23992: heap size 304 MB, throughput 0.98933
Reading from 23991: heap size 306 MB, throughput 0.975615
Reading from 23992: heap size 322 MB, throughput 0.985785
Reading from 23991: heap size 306 MB, throughput 0.97221
Reading from 23992: heap size 306 MB, throughput 0.983536
Reading from 23991: heap size 307 MB, throughput 0.977227
Equal recommendation: 303 MB each
Reading from 23992: heap size 319 MB, throughput 0.990786
Reading from 23991: heap size 307 MB, throughput 0.98221
Reading from 23992: heap size 308 MB, throughput 0.985584
Reading from 23991: heap size 308 MB, throughput 0.982417
Reading from 23992: heap size 319 MB, throughput 0.975191
Reading from 23991: heap size 307 MB, throughput 0.967189
Reading from 23992: heap size 319 MB, throughput 0.985286
Reading from 23991: heap size 309 MB, throughput 0.96274
Reading from 23992: heap size 319 MB, throughput 0.977732
Reading from 23991: heap size 309 MB, throughput 0.951202
Reading from 23992: heap size 319 MB, throughput 0.970523
Reading from 23991: heap size 310 MB, throughput 0.960663
Reading from 23992: heap size 319 MB, throughput 0.976992
Reading from 23991: heap size 309 MB, throughput 0.963162
Reading from 23992: heap size 320 MB, throughput 0.970921
Reading from 23991: heap size 297 MB, throughput 0.965259
Reading from 23992: heap size 319 MB, throughput 0.969788
Reading from 23991: heap size 309 MB, throughput 0.683168
Reading from 23992: heap size 320 MB, throughput 0.963803
Reading from 23991: heap size 292 MB, throughput 0.990605
Reading from 23992: heap size 320 MB, throughput 0.958695
Reading from 23991: heap size 304 MB, throughput 0.989239
Reading from 23992: heap size 321 MB, throughput 0.967831
Reading from 23991: heap size 304 MB, throughput 0.98687
Reading from 23992: heap size 322 MB, throughput 0.972604
Reading from 23991: heap size 303 MB, throughput 0.987728
Reading from 23992: heap size 311 MB, throughput 0.980619
Reading from 23991: heap size 286 MB, throughput 0.989064
Reading from 23992: heap size 319 MB, throughput 0.97724
Reading from 23991: heap size 304 MB, throughput 0.983256
Reading from 23992: heap size 310 MB, throughput 0.970558
Reading from 23991: heap size 289 MB, throughput 0.979768
Reading from 23992: heap size 318 MB, throughput 0.976495
Reading from 23991: heap size 303 MB, throughput 0.974499
Reading from 23992: heap size 310 MB, throughput 0.969972
Reading from 23991: heap size 292 MB, throughput 0.983914
Reading from 23992: heap size 317 MB, throughput 0.976795
Reading from 23991: heap size 301 MB, throughput 0.979042
Reading from 23992: heap size 310 MB, throughput 0.968862
Equal recommendation: 303 MB each
Reading from 23991: heap size 301 MB, throughput 0.97467
Reading from 23992: heap size 316 MB, throughput 0.96688
Reading from 23991: heap size 305 MB, throughput 0.969823
Reading from 23992: heap size 310 MB, throughput 0.970501
Reading from 23992: heap size 315 MB, throughput 0.9721
Reading from 23991: heap size 305 MB, throughput 0.989215
Reading from 23992: heap size 310 MB, throughput 0.973444
Reading from 23992: heap size 314 MB, throughput 0.965619
Reading from 23991: heap size 305 MB, throughput 0.962366
Reading from 23991: heap size 306 MB, throughput 0.908784
Reading from 23991: heap size 308 MB, throughput 0.829758
Reading from 23991: heap size 311 MB, throughput 0.726658
Reading from 23992: heap size 310 MB, throughput 0.96325
Reading from 23991: heap size 306 MB, throughput 0.507508
Reading from 23991: heap size 313 MB, throughput 0.556446
Reading from 23991: heap size 313 MB, throughput 0.593684
Reading from 23991: heap size 317 MB, throughput 0.699465
Reading from 23991: heap size 316 MB, throughput 0.670698
Reading from 23991: heap size 287 MB, throughput 0.0881498
Reading from 23991: heap size 331 MB, throughput 0.966363
Reading from 23991: heap size 332 MB, throughput 0.89631
Reading from 23991: heap size 333 MB, throughput 0.954341
Reading from 23991: heap size 287 MB, throughput 0.869062
Reading from 23992: heap size 314 MB, throughput 0.975395
Reading from 23991: heap size 333 MB, throughput 0.954429
Reading from 23991: heap size 288 MB, throughput 0.961834
Reading from 23991: heap size 332 MB, throughput 0.945516
Reading from 23991: heap size 289 MB, throughput 0.974337
Reading from 23991: heap size 332 MB, throughput 0.952111
Client 23991 died
Clients: 1
Reading from 23992: heap size 314 MB, throughput 0.982088
Reading from 23992: heap size 314 MB, throughput 0.986387
Reading from 23992: heap size 314 MB, throughput 0.979349
Reading from 23992: heap size 313 MB, throughput 0.977704
Reading from 23992: heap size 309 MB, throughput 0.980632
Reading from 23992: heap size 313 MB, throughput 0.983507
Reading from 23992: heap size 313 MB, throughput 0.974682
Reading from 23992: heap size 313 MB, throughput 0.97843
Reading from 23992: heap size 313 MB, throughput 0.968695
Reading from 23992: heap size 313 MB, throughput 0.963031
Reading from 23992: heap size 314 MB, throughput 0.970013
Reading from 23992: heap size 317 MB, throughput 0.972188
Reading from 23992: heap size 320 MB, throughput 0.83829
Reading from 23992: heap size 322 MB, throughput 0.867107
Reading from 23992: heap size 323 MB, throughput 0.710947
Reading from 23992: heap size 323 MB, throughput 0.199846
Reading from 23992: heap size 318 MB, throughput 0.970795
Reading from 23992: heap size 324 MB, throughput 0.972758
Reading from 23992: heap size 325 MB, throughput 0.968181
Reading from 23992: heap size 326 MB, throughput 0.965253
Reading from 23992: heap size 326 MB, throughput 0.964445
Reading from 23992: heap size 324 MB, throughput 0.966835
Reading from 23992: heap size 286 MB, throughput 0.963889
Reading from 23992: heap size 325 MB, throughput 0.95237
Reading from 23992: heap size 287 MB, throughput 0.963434
Reading from 23992: heap size 323 MB, throughput 0.974923
Reading from 23992: heap size 288 MB, throughput 0.973516
Reading from 23992: heap size 323 MB, throughput 0.973309
Reading from 23992: heap size 290 MB, throughput 0.974612
Reading from 23992: heap size 321 MB, throughput 0.974969
Reading from 23992: heap size 292 MB, throughput 0.967474
Client 23992 died
Clients: 0
Recommendation: no clients; no recommendation
Recommendation: no clients; no recommendation
ReadingThread: finished
Recommendation: no clients; no recommendation
TimerThread: finished
CommandThread: finished
Main: All threads killed, cleaning up
