1413131794298 0 TOTAL_MEM 576
1413131815226 15768 CREATION
1413131815226 15768 READING 9 0.996896
1413131815226 15768 MINHEAP 2
1413131815226 15768 MINHEAP 12
1413131815480 15766 CREATION
1413131815480 15766 READING 9 0.999104
1413131815480 15766 MINHEAP 2
1413131815480 15766 MINHEAP 276
1413131815562 15768 READING 9 0.997054
1413131815637 15768 READING 9 0.996293
1413131815750 15766 READING 9 0.998443
1413131815884 15766 READING 9 0.997435
1413131815911 15766 READING 9 0.995360
1413131815998 15768 READING 9 0.996340
1413131816242 15766 READING 9 0.995559
1413131816314 15766 READING 9 0.992527
1413131816364 15766 READING 10 0.988879
1413131816383 15766 READING 10 0.978052
1413131816417 15766 READING 12 0.969358
1413131816446 15766 READING 12 0.946611
1413131816489 15768 READING 9 0.996488
1413131816527 15766 READING 15 0.977716
1413131816602 15766 READING 19 0.861951
1413131816633 15768 READING 9 0.994355
1413131816659 15766 READING 22 0.685789
1413131816692 15768 READING 10 0.987341
1413131816751 15768 READING 10 0.982877
1413131816799 15766 READING 23 0.671569
1413131816885 15768 READING 12 0.984611
1413131816887 15766 READING 33 0.637097
1413131816934 15766 READING 34 0.476089
1413131817050 15766 READING 37 0.626936
1413131817109 15766 READING 47 0.493148
1413131817164 15768 READING 12 0.988635
1413131817254 15766 READING 50 0.471678
1413131817305 15766 READING 65 0.484248
1413131817350 15766 READING 68 0.522319
1413131817393 15768 READING 14 0.989312
1413131817541 15766 READING 69 0.447443
1413131817609 15766 READING 93 0.585466
1413131817620 15768 READING 15 0.986921
1413131817724 15766 READING 93 0.652193
1413131817801 15766 READING 94 0.405931
1413131817860 15766 READING 96 0.400482
1413131818065 15768 READING 19 0.989611
1413131818116 15766 READING 97 0.492637
1413131818184 15766 READING 127 0.527935
1413131818242 15766 READING 130 0.620165
1413131818300 15766 READING 131 0.206211
1413131818374 15766 READING 135 0.282096
1413131818737 15768 READING 19 0.987550
1413131818741 15766 READING 137 0.407218
1413131818824 15766 READING 177 0.390692
1413131818908 15766 READING 177 0.532358
1413131818939 15768 READING 29 0.962022
1413131818984 15766 READING 177 0.447384
1413131819080 15766 READING 180 0.700026
1413131819134 15768 READING 29 0.931879
1413131819154 15766 READING 184 0.704165
1413131819265 15766 READING 188 0.649475
1413131819333 15768 READING 36 0.949048
1413131819650 15766 READING 191 0.873228
1413131819731 15768 READING 36 0.972295
1413131819993 15768 READING 43 0.973729
1413131820193 15766 READING 197 0.901319
1413131820214 15768 READING 43 0.974031
1413131820596 15768 READING 52 0.981463
1413131820891 15766 READING 204 0.610416
1413131820919 15768 READING 52 0.978005
1413131820998 15766 READING 249 0.749866
1413131821045 15766 READING 249 0.721590
1413131821222 15768 READING 62 0.948491
1413131821697 15766 READING 250 0.404100
1413131822043 15766 READING 245 0.666950
1413131822181 15766 READING 248 0.696009
1413131822316 15768 READING 66 0.988704
1413131822349 15766 READING 243 0.772306
1413131822484 15766 READING 246 0.781935
1413131822616 15766 READING 243 0.825520
1413131822744 15766 READING 245 0.808077
1413131822751 15768 READING 71 0.990571
1413131822846 15766 READING 246 0.737049
1413131822943 15766 READING 248 0.684444
1413131823037 15766 READING 252 0.680062
1413131823129 15766 READING 253 0.680554
1413131824299 15768 FUNCTION lru lambda h: 1.00753 * (h ** 0.001)
1413131824299 15766 FUNCTION lru lambda h: 0.903485 * (h ** 0.001)
1413131824300 15768 RECOMMEND 288
1413131824300 15766 RECOMMEND 288
1413131834300 15768 FUNCTION lru lambda h: 1.00753 * (h ** 0.001)
1413131834300 15766 FUNCTION lru lambda h: 0.903485 * (h ** 0.001)
1413131834301 15768 RECOMMEND 288
1413131834301 15766 RECOMMEND 288
1413131844301 15768 FUNCTION lru lambda h: 1.00753 * (h ** 0.001)
1413131844301 15766 FUNCTION lru lambda h: 0.903485 * (h ** 0.001)
1413131844303 15768 RECOMMEND 288
1413131844303 15766 RECOMMEND 288
1413131846454 15766 READING 255 0.060836
1413131851917 15768 READING 76 0.906931
1413131854303 15768 FUNCTION lru lambda h: 1.03073 * (h ** 0.001)
1413131854303 15766 FUNCTION lru lambda h: 1.10186 * (h ** 0.001)
1413131854304 15768 RECOMMEND 288
1413131854304 15766 RECOMMEND 288
1413131859865 15768 READING 78 0.929285
1413131860682 15768 READING 78 0.931468
1413131861488 15768 READING 89 0.935664
1413131862121 15768 READING 89 0.942306
1413131862813 15768 READING 100 0.953760
1413131863479 15768 READING 101 0.963210
1413131864237 15768 READING 113 0.971713
1413131864304 15768 FUNCTION lru lambda h: 1.02922 * (h ** 0.001)
1413131864304 15766 FUNCTION lru lambda h: 1.10186 * (h ** 0.001)
1413131864306 15768 RECOMMEND 288
1413131864306 15766 RECOMMEND 288
1413131864980 15768 READING 113 0.983413
1413131865834 15768 READING 122 0.990996
1413131866626 15768 READING 123 0.978824
1413131867458 15768 READING 133 0.988153
1413131868279 15768 READING 133 0.992949
1413131869174 15768 READING 141 0.995641
1413131869599 15766 READING 301 0.805342
1413131870098 15768 READING 142 0.996986
1413131870374 15766 READING 297 0.778814
1413131870886 15766 READING 278 0.728739
1413131871003 15766 READING 301 0.724006
1413131871025 15768 READING 149 0.997856
1413131871137 15766 READING 279 0.069526
1413131871266 15766 READING 299 0.148938
1413131871378 15766 READING 281 0.212012
1413131871998 15768 READING 150 0.998224
1413131872043 15766 READING 298 0.571235
1413131872264 15766 READING 279 0.030698
1413131872634 15766 READING 295 0.021243
1413131872893 15766 READING 296 0.019371
1413131873009 15768 READING 153 0.998491
1413131873077 15766 READING 296 0.016522
1413131873243 15766 READING 297 0.002561
1413131874306 15768 FUNCTION lru lambda h: 0.980519 * (h ** 0.001)
1413131874306 15766 FUNCTION lru lambda h: 2.13102 * (h ** 0.001)
1413131874308 15768 RECOMMEND 288
1413131874308 15766 RECOMMEND 288
1413131884308 15768 FUNCTION lru lambda h: 0.980519 * (h ** 0.001)
1413131884308 15766 FUNCTION lru lambda h: 2.13102 * (h ** 0.001)
1413131884310 15768 RECOMMEND 288
1413131884310 15766 RECOMMEND 288
1413131886177 15766 READING 298 0.010252
1413131894310 15768 FUNCTION lru lambda h: 0.980519 * (h ** 0.001)
1413131894310 15766 FUNCTION lru lambda h: 2.23469 * (h ** 0.001)
1413131894312 15768 RECOMMEND 288
1413131894312 15766 RECOMMEND 288
1413131904312 15768 FUNCTION lru lambda h: 0.980519 * (h ** 0.001)
1413131904312 15766 FUNCTION lru lambda h: 2.23469 * (h ** 0.001)
1413131904313 15768 RECOMMEND 288
1413131904313 15766 RECOMMEND 288
1413131914314 15768 FUNCTION lru lambda h: 0.980519 * (h ** 0.001)
1413131914314 15766 FUNCTION lru lambda h: 2.23469 * (h ** 0.001)
1413131914315 15768 RECOMMEND 288
1413131914315 15766 RECOMMEND 288
1413131919012 15768 READING 155 0.942618
1413131924315 15768 FUNCTION lru lambda h: 0.984761 * (h ** 0.001)
1413131924315 15766 FUNCTION lru lambda h: 2.23469 * (h ** 0.001)
1413131924317 15768 RECOMMEND 288
1413131924317 15766 RECOMMEND 288
1413131927113 15768 READING 159 0.957286
1413131928291 15768 READING 159 0.960171
1413131929569 15768 READING 167 0.965246
1413131933090 15766 READING 282 0.037966
1413131934317 15768 FUNCTION lru lambda h: 0.987067 * (h ** 0.001)
1413131934317 15766 FUNCTION lru lambda h: 2.55545 * (h ** 0.001)
1413131934318 15768 RECOMMEND 288
1413131934318 15766 RECOMMEND 288
1413131935255 15768 READING 169 0.974432
1413131935465 15766 READING 299 0.223342
1413131936273 15766 READING 284 0.319765
1413131937041 15768 READING 176 0.943323
1413131937249 15766 READING 297 0.381993
1413131938278 15768 READING 182 0.942624
1413131938874 15766 READING 286 0.512117
1413131939579 15768 READING 194 0.962494
1413131940859 15768 READING 194 0.976988
1413131944318 15768 FUNCTION lru lambda h: 0.99241 * (h ** 0.001)
1413131944318 15766 FUNCTION lru lambda h: 2.42714 * (h ** 0.001)
1413131944319 15768 RECOMMEND 288
1413131944319 15766 RECOMMEND 288
1413131954319 15768 FUNCTION lru lambda h: 0.99241 * (h ** 0.001)
1413131954319 15766 FUNCTION lru lambda h: 2.42714 * (h ** 0.001)
1413131954321 15768 RECOMMEND 288
1413131954321 15766 RECOMMEND 288
1413131956142 15768 READING 201 0.907114
1413131964321 15768 FUNCTION lru lambda h: 0.99958 * (h ** 0.001)
1413131964321 15766 FUNCTION lru lambda h: 2.42714 * (h ** 0.001)
1413131964322 15768 RECOMMEND 288
1413131964322 15766 RECOMMEND 288
1413131965788 15768 READING 203 0.956586
1413131966272 15766 READING 294 0.890561
1413131974322 15768 FUNCTION lru lambda h: 1.00025 * (h ** 0.001)
1413131974322 15766 FUNCTION lru lambda h: 2.27332 * (h ** 0.001)
1413131974324 15768 RECOMMEND 288
1413131974324 15766 RECOMMEND 288
1413131975277 15768 READING 208 0.900267
1413131984324 15768 FUNCTION lru lambda h: 1.00726 * (h ** 0.001)
1413131984324 15766 FUNCTION lru lambda h: 2.27332 * (h ** 0.001)
1413131984325 15768 RECOMMEND 288
1413131984325 15766 RECOMMEND 288
1413131985636 15768 READING 208 0.952794
1413131987051 15768 READING 207 0.958622
1413131988484 15768 READING 208 0.966644
1413131989921 15768 READING 209 0.970676
1413131991346 15768 READING 209 0.980348
1413131992704 15768 READING 209 0.988004
1413131993891 15766 READING 296 0.900058
1413131994053 15768 READING 207 0.992795
1413131994325 15768 FUNCTION lru lambda h: 0.998502 * (h ** 0.001)
1413131994325 15766 FUNCTION lru lambda h: 1.86723 * (h ** 0.001)
1413131994327 15768 RECOMMEND 288
1413131994327 15766 RECOMMEND 288
1413131994639 15766 READING 296 0.884649
1413131996369 15766 READING 297 0.228276
1413131998296 15766 READING 296 0.321171
1413131998599 15768 READING 208 0.959762
1413131999279 15766 READING 268 0.401387
1413132000276 15766 READING 296 0.276642
1413132000287 15768 READING 208 0.925793
1413132001013 15766 READING 271 0.176607
1413132001652 15768 READING 206 0.942157
1413132002380 15766 READING 295 0.186956
1413132003849 15766 READING 272 0.296947
1413132003958 15768 READING 206 0.954775
1413132004327 15768 FUNCTION lru lambda h: 1.00053 * (h ** 0.001)
1413132004327 15766 FUNCTION lru lambda h: 1.8144 * (h ** 0.001)
1413132004328 15768 RECOMMEND 288
1413132004328 15766 RECOMMEND 288
1413132004894 15766 READING 294 0.317859
1413132005337 15768 READING 207 0.967640
1413132005761 15766 READING 275 0.301063
1413132006707 15768 READING 207 0.980107
1413132006738 15766 READING 293 0.314573
1413132007626 15766 READING 278 0.334451
1413132008036 15768 READING 207 0.988444
1413132008717 15766 READING 291 0.355822
1413132009361 15768 READING 207 0.985063
1413132009457 15766 READING 280 0.308340
1413132010268 15766 READING 289 0.278568
1413132010710 15768 READING 207 0.990891
1413132011117 15766 READING 280 0.256391
1413132011954 15766 READING 288 0.285862
1413132012053 15768 READING 207 0.994023
1413132012788 15766 READING 280 0.280609
1413132013382 15768 READING 207 0.995529
1413132013576 15766 READING 288 0.281536
1413132014328 15768 FUNCTION lru lambda h: 0.998947 * (h ** 0.001)
1413132014328 15766 FUNCTION lru lambda h: 1.95695 * (h ** 0.001)
1413132014329 15768 RECOMMEND 288
1413132014329 15766 RECOMMEND 288
1413132014339 15766 READING 287 0.290380
1413132014738 15768 READING 207 0.995823
1413132015444 15766 READING 289 0.312101
1413132016030 15768 READING 207 0.995406
1413132016330 15766 READING 283 0.335989
1413132021794 15768 READING 207 0.833787
1413132022530 15766 READING 288 0.159515
1413132024330 15768 FUNCTION lru lambda h: 1.00636 * (h ** 0.001)
1413132024330 15766 FUNCTION lru lambda h: 1.98766 * (h ** 0.001)
1413132024333 15768 RECOMMEND 288
1413132024333 15766 RECOMMEND 288
1413132031553 15768 READING 207 0.951198
1413132033340 15766 READING 288 0.596736
1413132033832 15768 READING 205 0.957146
1413132034333 15768 FUNCTION lru lambda h: 1.0048 * (h ** 0.001)
1413132034333 15766 FUNCTION lru lambda h: 1.93561 * (h ** 0.001)
1413132034334 15768 RECOMMEND 288
1413132034334 15766 RECOMMEND 288
1413132035059 15768 READING 206 0.964205
1413132036446 15768 READING 206 0.974442
1413132037277 15766 READING 291 0.702205
1413132037780 15768 READING 206 0.981402
1413132038024 15766 READING 314 0.600815
1413132038752 15766 READING 316 0.620402
1413132039421 15768 READING 206 0.975437
1413132041157 15768 READING 207 0.982344
1413132041816 15766 READING 318 0.710404
1413132042459 15768 READING 205 0.977740
1413132042648 15766 READING 318 0.824319
1413132044334 15768 FUNCTION lru lambda h: 0.999358 * (h ** 0.001)
1413132044334 15766 FUNCTION lru lambda h: 1.72987 * (h ** 0.001)
1413132044336 15768 RECOMMEND 288
1413132044336 15766 RECOMMEND 288
1413132048067 15766 READING 319 0.242729
1413132050797 15768 READING 206 0.912650
1413132052597 15768 READING 206 0.904424
1413132053094 15766 READING 318 0.407955
1413132054094 15766 READING 320 0.461481
1413132054277 15766 READING 318 0.490640
1413132054336 15768 FUNCTION lru lambda h: 1.00388 * (h ** 0.001)
1413132054336 15766 FUNCTION lru lambda h: 1.76538 * (h ** 0.001)
1413132054337 15768 RECOMMEND 288
1413132054337 15766 RECOMMEND 288
1413132054351 15768 READING 207 0.930364
1413132054478 15766 READING 324 0.543972
1413132054660 15766 READING 325 0.613706
1413132054819 15766 READING 328 0.680428
1413132054879 15766 READING 328 0.685689
1413132054937 15766 READING 330 0.693400
1413132055003 15766 READING 330 0.656851
1413132055059 15766 READING 331 0.677443
1413132055334 15766 READING 332 0.667125
1413132055837 15768 READING 204 0.946626
1413132057240 15768 READING 207 0.966029
1413132057930 15766 READING 332 0.975875
1413132058843 15766 READING 331 0.923432
1413132058943 15768 READING 207 0.975034
1413132059647 15766 READING 331 0.922996
1413132060230 15768 READING 207 0.982562
1413132060298 15766 READING 331 0.948256
1413132060836 15766 READING 332 0.964395
1413132061352 15766 READING 331 0.974289
1413132061963 15766 READING 278 0.980943
1413132062589 15766 READING 330 0.984265
1413132063353 15766 READING 281 0.892261
1413132063896 15766 READING 327 0.912672
1413132064210 15768 READING 207 0.993590
1413132064337 15768 FUNCTION lru lambda h: 1.00281 * (h ** 0.001)
1413132064337 15766 FUNCTION lru lambda h: 1.35937 * (h ** 0.001)
1413132064338 15768 RECOMMEND 288
1413132064338 15766 RECOMMEND 288
1413132064519 15766 READING 286 0.936134
1413132065077 15766 READING 323 0.945792
1413132065467 15768 READING 207 0.962022
1413132065714 15766 READING 289 0.957530
1413132066397 15766 READING 316 0.970424
1413132066800 15768 READING 207 0.976162
1413132067041 15766 READING 292 0.967794
1413132067688 15766 READING 312 0.964010
1413132068147 15768 READING 205 0.984747
1413132068284 15766 READING 294 0.969405
1413132069006 15766 READING 309 0.969818
1413132069695 15766 READING 294 0.974603
1413132070232 15766 READING 307 0.126822
1413132070771 15766 READING 294 0.249746
1413132071372 15766 READING 305 0.343188
1413132072032 15766 READING 294 0.395140
1413132072087 15768 READING 206 0.939425
1413132073036 15766 READING 305 0.740956
1413132073418 15768 READING 206 0.990260
1413132073807 15766 READING 293 0.935977
1413132074338 15768 FUNCTION lru lambda h: 0.999669 * (h ** 0.001)
1413132074338 15766 FUNCTION lru lambda h: 1.18656 * (h ** 0.001)
1413132074339 15768 RECOMMEND 288
1413132074339 15766 RECOMMEND 288
1413132074414 15766 READING 301 0.951017
1413132074695 15768 READING 207 0.993248
1413132075086 15766 READING 303 0.965501
1413132075725 15766 READING 304 0.975913
1413132076005 15768 READING 207 0.996125
1413132076421 15766 READING 279 0.983325
1413132077169 15766 READING 302 0.981479
1413132077293 15768 READING 207 0.997552
1413132077899 15766 READING 282 0.984712
1413132078574 15766 READING 301 0.985232
1413132078604 15768 READING 206 0.989494
1413132079068 15766 READING 285 0.982846
1413132079591 15766 READING 299 0.981504
1413132079844 15768 READING 207 0.994075
1413132080106 15766 READING 288 0.976637
1413132080488 15766 READING 298 0.970774
1413132081099 15768 READING 208 0.996500
1413132081879 15766 READING 298 0.985195
1413132082340 15768 READING 204 0.997745
1413132082535 15766 READING 298 0.923731
1413132082716 15766 READING 299 0.857357
1413132082857 15766 READING 299 0.602585
1413132082933 15766 READING 303 0.063212
1413132082992 15766 READING 296 0.833954
1413132083045 15766 READING 304 0.763200
1413132083088 15766 READING 304 0.743367
1413132083132 15766 READING 307 0.711436
1413132083176 15766 READING 307 0.686114
1413132083219 15766 READING 308 0.675272
1413132083263 15766 READING 309 0.659442
1413132083304 15766 READING 290 0.678806
1413132083619 15766 READING 308 0.942258
1413132083650 15766 READING 323 0.797950
1413132083671 15768 READING 207 0.998415
1413132083678 15766 READING 321 0.871711
1413132083705 15766 READING 323 0.916935
1413132083738 15766 READING 323 0.944885
1413132083766 15766 READING 272 0.950797
1413132083804 15766 READING 324 0.959307
1413132083833 15766 READING 274 0.953996
1413132084256 15766 READING 321 0.990885
1413132084340 15768 FUNCTION lru lambda h: 0.992113 * (h ** 0.001)
1413132084340 15766 FUNCTION lru lambda h: 0.803636 * (h ** 0.001)
1413132084341 15768 RECOMMEND 288
1413132084341 15766 RECOMMEND 288
1413132084705 15766 READING 275 0.989399
1413132084953 15768 READING 207 0.998708
1413132085208 15766 READING 319 0.986017
1413132085546 15768 READING 207 0.906794
1413132085671 15766 READING 278 0.985176
1413132086091 15768 READING 208 0.925024
1413132086136 15766 READING 315 0.986505
1413132086540 15766 READING 281 0.983442
1413132087220 15766 READING 311 0.987886
1413132087420 15768 READING 206 0.950765
1413132087797 15766 READING 284 0.987983
1413132088254 15766 READING 308 0.985612
1413132088707 15768 READING 207 0.974658
1413132088752 15766 READING 287 0.984265
1413132089374 15766 READING 304 0.980738
1413132089777 15766 READING 289 0.979462
1413132090021 15768 READING 207 0.987037
1413132090314 15766 READING 302 0.980658
1413132090753 15766 READING 303 0.974990
1413132091302 15766 READING 302 0.977959
1413132091308 15768 READING 207 0.992645
1413132091756 15766 READING 303 0.958903
1413132092302 15766 READING 303 0.954324
1413132092608 15768 READING 206 0.995215
1413132092873 15766 READING 303 0.950008
1413132093331 15766 READING 303 0.943779
1413132093839 15766 READING 293 0.945531
1413132093910 15768 READING 206 0.996365
1413132094341 15768 FUNCTION lru lambda h: 0.993927 * (h ** 0.001)
1413132094341 15766 FUNCTION lru lambda h: 0.690266 * (h ** 0.001)
1413132094342 15768 RECOMMEND 288
1413132094342 15766 RECOMMEND 288
1413132094400 15766 READING 302 0.947700
1413132094985 15766 READING 293 0.951851
1413132095243 15768 READING 207 0.996059
1413132095440 15766 READING 302 0.946851
1413132095992 15766 READING 293 0.950719
1413132096409 15766 READING 301 0.940522
1413132096551 15768 READING 207 0.995716
1413132096975 15766 READING 293 0.946539
1413132097522 15766 READING 300 0.952428
1413132097862 15768 READING 207 0.995546
1413132098031 15766 READING 300 0.950993
1413132098472 15766 READING 299 0.947747
1413132098869 15766 READING 300 0.943819
1413132099155 15768 READING 207 0.994263
1413132099371 15766 READING 299 0.946158
1413132099935 15766 READING 299 0.949696
1413132100361 15766 READING 298 0.945261
1413132100443 15768 READING 206 0.995086
1413132100783 15766 READING 299 0.942791
1413132101236 15766 READING 298 0.945297
1413132101733 15768 READING 207 0.994228
1413132101775 15766 READING 293 0.950483
1413132102206 15766 READING 298 0.942757
1413132102796 15766 READING 293 0.948047
1413132102908 15768 READING 208 0.990154
1413132103239 15766 READING 297 0.940085
1413132103427 15768 READING 208 0.938418
1413132103700 15766 READING 293 0.932322
1413132104248 15768 READING 207 0.914417
1413132104342 15768 FUNCTION lru lambda h: 0.99552 * (h ** 0.001)
1413132104342 15766 FUNCTION lru lambda h: 0.661203 * (h ** 0.001)
1413132104343 15768 RECOMMEND 288
1413132104343 15766 RECOMMEND 288
1413132104388 15766 READING 297 0.949799
1413132105001 15766 READING 297 0.953829
1413132105596 15768 READING 207 0.961821
1413132105639 15766 READING 296 0.957710
1413132106118 15766 READING 296 0.953645
1413132106507 15766 READING 295 0.947108
1413132106795 15766 READING 296 0.935707
1413132106880 15768 READING 207 0.981172
1413132107833 15766 READING 295 0.964201
1413132108135 15768 READING 205 0.990320
1413132108577 15766 READING 296 0.967759
1413132108985 15766 READING 299 0.963048
1413132109231 15766 READING 300 0.961639
1413132109371 15766 READING 302 0.953902
1413132109416 15768 READING 207 0.993035
1413132109434 15766 READING 302 0.936213
1413132109503 15766 READING 301 0.384086
1413132109551 15766 READING 302 0.246179
1413132109595 15766 READING 308 0.261082
1413132109638 15766 READING 309 0.282912
1413132109680 15766 READING 309 0.340610
1413132109720 15766 READING 310 0.454167
1413132109762 15766 READING 309 0.022542
1413132109796 15766 READING 310 0.042014
1413132110047 15766 READING 310 0.833989
1413132110083 15766 READING 311 0.407187
1413132110122 15766 READING 312 0.564034
1413132110153 15766 READING 313 0.679663
1413132110183 15766 READING 313 0.791174
1413132110218 15766 READING 313 0.878294
1413132110253 15766 READING 311 0.924910
1413132110288 15766 READING 278 0.945234
1413132110639 15766 READING 312 0.986058
1413132110741 15768 READING 207 0.995661
1413132111077 15766 READING 280 0.988324
1413132111501 15766 READING 310 0.989319
1413132112020 15768 READING 207 0.996920
1413132112037 15766 READING 283 0.987486
1413132112487 15766 READING 308 0.987226
1413132113144 15766 READING 286 0.988549
1413132113338 15768 READING 207 0.997610
1413132113665 15766 READING 304 0.987560
1413132114131 15766 READING 289 0.986070
1413132114343 15768 FUNCTION lru lambda h: 0.991534 * (h ** 0.001)
1413132114344 15766 FUNCTION lru lambda h: 0.628538 * (h ** 0.00389893)
1413132114345 15768 RECOMMEND 118
1413132114345 15766 RECOMMEND 458
1413132114642 15768 READING 208 0.997741
1413132114652 15766 READING 303 0.985586
1413132115311 15766 READING 303 0.985942
1413132115741 15766 READING 303 0.983478
1413132115840 15768 READING 193 0.955481
1413132116189 15766 READING 303 0.981705
1413132116654 15766 READING 304 0.979963
1413132116960 15768 READING 180 0.970517
1413132117194 15766 READING 304 0.977526
1413132117682 15766 READING 304 0.977842
1413132118006 15768 READING 170 0.983822
1413132118461 15766 READING 305 0.974951
1413132119032 15768 READING 161 0.989758
1413132119156 15766 READING 306 0.971104
1413132119725 15766 READING 307 0.964724
1413132120023 15768 READING 153 0.915759
1413132120375 15766 READING 308 0.961601
1413132120733 15768 READING 146 0.810906
1413132120857 15766 READING 308 0.953846
1413132121100 15768 READING 141 0.695808
1413132121341 15768 READING 135 0.726069
1413132121357 15766 READING 310 0.940583
1413132121811 15766 READING 310 0.944100
1413132121904 15768 READING 131 0.783725
1413132122285 15766 READING 311 0.948030
1413132122646 15768 READING 125 0.886499
1413132122847 15766 READING 311 0.953845
1413132123352 15768 READING 121 0.937859
1413132123586 15766 READING 313 0.961022
1413132124033 15768 READING 117 0.961369
1413132124266 15766 READING 313 0.961065
1413132124346 15768 FUNCTION lru lambda h: 1.01033 * (h ** 0.001)
1413132124346 15766 FUNCTION lru lambda h: 0.6013 * (h ** 0.0158797)
1413132124347 15768 RECOMMEND 34
1413132124347 15766 RECOMMEND 542
1413132124781 15768 READING 127 0.980826
1413132124820 15766 READING 314 0.951499
1413132125390 15766 READING 314 0.954624
1413132125398 15768 READING 111 0.987855
1413132125958 15768 READING 100 0.992360
1413132126030 15766 READING 316 0.958687
1413132126440 15768 READING 91 0.992082
1413132126676 15766 READING 316 0.960183
1413132126896 15768 READING 85 0.993387
1413132127300 15768 READING 79 0.993278
1413132127390 15766 READING 317 0.961763
1413132127677 15768 READING 75 0.993828
1413132128028 15768 READING 71 0.985245
1413132128190 15766 READING 317 0.962647
1413132128387 15768 READING 68 0.765632
1413132128701 15768 READING 65 0.524492
1413132128875 15766 READING 319 0.959206
1413132129008 15768 READING 61 0.619815
1413132129282 15768 READING 59 0.739403
1413132129541 15768 READING 60 0.829588
1413132129752 15766 READING 319 0.964856
1413132129792 15768 READING 55 0.888296
1413132130036 15768 READING 57 0.936295
1413132130259 15768 READING 52 0.961793
1413132130481 15768 READING 55 0.976911
1413132130503 15766 READING 320 0.964812
1413132130709 15768 READING 50 0.985616
1413132130906 15768 READING 53 0.981906
1413132131099 15768 READING 48 0.986405
1413132131301 15766 READING 320 0.963638
1413132131306 15768 READING 50 0.981023
1413132131482 15768 READING 46 0.983081
1413132131667 15768 READING 49 0.987833
1413132131839 15768 READING 45 0.988679
1413132132012 15768 READING 47 0.981298
1413132132110 15766 READING 322 0.965339
1413132132189 15768 READING 44 0.974332
1413132132342 15768 READING 46 0.969753
1413132132494 15768 READING 43 0.960131
1413132132643 15768 READING 45 0.968131
1413132132678 15766 READING 322 0.957938
1413132132799 15768 READING 42 0.973382
1413132132941 15768 READING 44 0.982655
1413132133083 15768 READING 41 0.980305
1413132133218 15768 READING 42 0.985467
1413132133348 15768 READING 40 0.980535
1413132133402 15766 READING 324 0.952091
1413132133491 15768 READING 41 0.986216
1413132133614 15768 READING 39 0.988196
1413132133735 15768 READING 40 0.988590
1413132133857 15768 READING 39 0.989922
1413132133978 15768 READING 40 0.990030
1413132134102 15768 READING 39 0.990808
1413132134226 15768 READING 40 0.990900
1413132134347 15768 READING 39 0.991142
1413132134347 15768 FUNCTION lru lambda h: 0.96219 * (h ** 0.001)
1413132134347 15766 FUNCTION lru lambda h: 0.563865 * (h ** 0.0328295)
1413132134348 15768 RECOMMEND 17
1413132134348 15766 RECOMMEND 559
1413132134473 15766 READING 324 0.969202
1413132134479 15768 READING 39 0.991351
1413132134595 15768 READING 38 0.982747
1413132134709 15768 READING 38 0.978101
1413132134822 15768 READING 37 0.967898
1413132134927 15768 READING 37 0.969328
1413132135035 15768 READING 36 0.970634
1413132135054 15766 READING 326 0.968313
1413132135150 15768 READING 36 0.963770
1413132135251 15766 READING 327 0.952708
1413132135260 15768 READING 35 0.968185
1413132135365 15768 READING 35 0.978184
1413132135454 15768 READING 34 0.982678
1413132135548 15768 READING 34 0.985717
1413132135556 15766 READING 329 0.969014
1413132135609 15766 READING 329 0.856180
1413132135638 15768 READING 34 0.986966
1413132135671 15766 READING 339 0.761635
1413132135727 15768 READING 34 0.977160
1413132135730 15766 READING 341 0.963062
1413132135787 15766 READING 345 0.969801
1413132135813 15768 READING 34 0.981432
1413132135846 15766 READING 346 0.975532
1413132135901 15768 READING 34 0.984895
1413132135907 15766 READING 348 0.982082
1413132135974 15766 READING 348 0.956301
1413132135993 15768 READING 34 0.986642
1413132136097 15766 READING 348 0.983712
1413132136099 15768 READING 34 0.988492
1413132136198 15768 READING 34 0.988184
1413132136287 15768 READING 34 0.987739
1413132136376 15768 READING 34 0.988308
1413132136468 15768 READING 34 0.988091
1413132136562 15768 READING 34 0.984540
1413132136666 15768 READING 34 0.987583
1413132136755 15768 READING 34 0.987620
1413132136844 15768 READING 34 0.987818
1413132136931 15768 READING 34 0.987826
1413132137024 15768 READING 34 0.987450
1413132137080 15766 READING 349 0.994047
1413132137123 15768 READING 34 0.988268
1413132137208 15768 READING 34 0.988018
1413132137297 15768 READING 34 0.987947
1413132137384 15768 READING 34 0.988065
1413132137478 15768 READING 34 0.986260
1413132137566 15768 READING 34 0.977021
1413132137657 15768 READING 34 0.982401
1413132137749 15768 READING 34 0.984171
1413132137843 15768 READING 34 0.982597
1413132137937 15768 READING 34 0.985900
1413132137963 15766 READING 346 0.991958
1413132138035 15768 READING 34 0.987832
1413132138134 15768 READING 34 0.988595
1413132138229 15768 READING 34 0.988045
1413132138353 15768 READING 34 0.819879
1413132138380 15768 READING 34 0.566645
1413132138424 15768 READING 34 0.320510
1413132138454 15768 READING 34 0.270234
1413132138493 15768 READING 34 0.281229
1413132138523 15768 READING 34 0.392024
1413132138552 15768 READING 35 0.300656
1413132138575 15768 READING 34 0.391992
1413132138602 15768 READING 35 0.314148
1413132138660 15768 READING 35 0.271294
1413132138697 15768 READING 35 0.307022
1413132138767 15768 READING 35 0.320997
1413132138809 15768 READING 34 0.346169
1413132138896 15766 READING 348 0.990108
1413132138947 15768 READING 34 0.990147
1413132138991 15768 READING 34 0.883393
1413132139027 15768 READING 33 0.728229
1413132139069 15768 READING 35 0.770594
1413132139106 15768 READING 33 0.690273
1413132139144 15768 READING 35 0.807157
1413132139180 15768 READING 33 0.868343
1413132139207 15768 READING 35 0.882590
1413132139234 15768 READING 33 0.904654
1413132139271 15768 READING 35 0.926859
1413132139303 15768 READING 33 0.922216
1413132139344 15768 READING 35 0.937105
1413132139412 15768 READING 33 0.951381
1413132139507 15768 READING 34 0.969242
1413132139580 15768 READING 33 0.974525
1413132139657 15768 READING 34 0.977759
1413132139748 15768 READING 33 0.982296
1413132139839 15768 READING 34 0.983815
1413132139886 15766 READING 342 0.989553
1413132139952 15768 READING 33 0.943016
1413132140042 15768 READING 34 0.957740
1413132140138 15768 READING 33 0.972382
1413132140229 15768 READING 34 0.977614
1413132140322 15768 READING 33 0.978859
1413132140409 15768 READING 34 0.981986
1413132140505 15768 READING 33 0.985097
1413132140596 15768 READING 34 0.982153
1413132140693 15768 READING 33 0.981134
1413132140796 15768 READING 34 0.983857
1413132140885 15768 READING 33 0.985260
1413132140972 15766 READING 321 0.990179
1413132140986 15768 READING 34 0.986402
1413132141085 15768 READING 33 0.986908
1413132141177 15768 READING 34 0.987376
1413132141272 15768 READING 33 0.988429
1413132141356 15768 READING 34 0.983106
1413132141448 15768 READING 33 0.984922
1413132141538 15768 READING 34 0.985443
1413132141637 15768 READING 33 0.985867
1413132141730 15768 READING 33 0.987720
1413132141794 15766 READING 342 0.989402
1413132141826 15768 READING 33 0.988966
1413132141920 15768 READING 33 0.988725
1413132142010 15768 READING 33 0.986080
1413132142100 15768 READING 33 0.987530
1413132142194 15768 READING 33 0.984519
1413132142280 15768 READING 33 0.986148
1413132142376 15768 READING 33 0.984925
1413132142470 15768 READING 33 0.984840
1413132142561 15768 READING 33 0.986260
1413132142658 15768 READING 33 0.988117
1413132142683 15766 READING 343 0.987902
1413132142762 15768 READING 33 0.988518
1413132142856 15768 READING 33 0.985056
1413132142947 15768 READING 33 0.986245
1413132143044 15768 READING 33 0.985749
1413132143146 15768 READING 33 0.985058
1413132143240 15768 READING 33 0.987025
1413132143332 15768 READING 33 0.986270
1413132143424 15768 READING 33 0.987894
1413132143516 15768 READING 33 0.988338
1413132143605 15768 READING 33 0.988743
1413132143704 15768 READING 33 0.984897
1413132143798 15768 READING 33 0.986945
1413132143900 15766 READING 344 0.989219
1413132143905 15768 READING 33 0.988648
1413132143994 15768 READING 33 0.988561
1413132144093 15768 READING 33 0.988673
1413132144180 15768 READING 33 0.988359
1413132144273 15768 READING 33 0.987396
1413132144348 15768 FUNCTION lru lambda h: 0.97054 * (h ** 0.001)
1413132144348 15766 FUNCTION lru lambda h: 0.0944285 * (h ** 0.36192)
1413132144348 15768 RECOMMEND 12
1413132144348 15766 RECOMMEND 564
1413132144359 15768 READING 33 0.987478
1413132144449 15768 READING 33 0.987091
1413132144532 15768 READING 32 0.987295
1413132144612 15768 READING 32 0.986536
1413132144687 15768 READING 31 0.986171
1413132144766 15768 READING 31 0.982662
1413132144843 15768 READING 31 0.981966
1413132144923 15768 READING 31 0.978944
1413132144962 15766 READING 344 0.987688
1413132145011 15768 READING 31 0.978546
1413132145085 15768 READING 31 0.982527
1413132145155 15768 READING 31 0.981803
1413132145229 15768 READING 31 0.983168
1413132145299 15768 READING 31 0.984065
1413132145373 15768 READING 31 0.985327
1413132145449 15768 READING 31 0.983155
1413132145520 15768 READING 31 0.984712
1413132145590 15768 READING 31 0.985006
1413132145667 15768 READING 31 0.986549
1413132145739 15768 READING 31 0.986507
1413132145812 15768 READING 31 0.985280
1413132145886 15768 READING 31 0.985267
1413132145922 15766 READING 345 0.986906
1413132145970 15768 READING 31 0.987011
1413132146044 15768 READING 31 0.984213
1413132146120 15768 READING 31 0.985685
1413132146193 15768 READING 31 0.985902
1413132146268 15768 READING 31 0.986277
1413132146341 15768 READING 31 0.980526
1413132146412 15768 READING 31 0.982532
1413132146484 15768 READING 31 0.984162
1413132146556 15768 READING 31 0.984435
1413132146630 15768 READING 31 0.982269
1413132146703 15768 READING 31 0.984276
1413132146779 15768 READING 31 0.984468
1413132146837 15766 READING 346 0.984678
1413132146865 15768 READING 31 0.985167
1413132146940 15768 READING 31 0.985655
1413132147013 15768 READING 31 0.985227
1413132147089 15768 READING 31 0.986259
1413132147159 15768 READING 31 0.984968
1413132147233 15768 READING 31 0.985513
1413132147309 15768 READING 31 0.985541
1413132147380 15768 READING 31 0.984816
1413132147452 15768 READING 31 0.984629
1413132147524 15768 READING 31 0.983715
1413132147607 15768 READING 31 0.980825
1413132147684 15768 READING 31 0.981699
1413132147763 15768 READING 31 0.984162
1413132147845 15768 READING 31 0.985356
1413132147901 15766 READING 347 0.983699
1413132147929 15768 READING 31 0.986245
1413132147999 15768 READING 31 0.986553
1413132148070 15768 READING 31 0.985851
1413132148143 15768 READING 31 0.984398
1413132148226 15768 READING 31 0.981487
1413132148304 15768 READING 31 0.984431
1413132148378 15768 READING 31 0.980200
1413132148456 15768 READING 31 0.979975
1413132148539 15768 READING 31 0.980856
1413132148616 15768 READING 31 0.983153
1413132148689 15768 READING 31 0.982567
1413132148759 15768 READING 31 0.982253
1413132148836 15768 READING 31 0.983022
1413132148909 15768 READING 31 0.983801
1413132148988 15766 READING 349 0.972168
1413132148993 15768 READING 31 0.985240
1413132149066 15768 READING 31 0.984650
1413132149139 15768 READING 31 0.980067
1413132149211 15768 READING 31 0.982066
1413132149286 15768 READING 31 0.978754
1413132149370 15768 READING 31 0.970685
1413132149450 15768 READING 31 0.975356
1413132149525 15768 READING 31 0.978748
1413132149600 15768 READING 31 0.975290
1413132149677 15768 READING 31 0.980019
1413132149751 15768 READING 31 0.977312
1413132149833 15768 READING 31 0.976478
1413132149909 15768 READING 31 0.980638
1413132149982 15768 READING 31 0.982374
1413132150056 15768 READING 31 0.982831
1413132150100 15766 READING 351 0.977745
1413132150140 15768 READING 31 0.984142
1413132150221 15768 READING 31 0.981912
1413132150294 15768 READING 31 0.982742
1413132150369 15768 READING 31 0.980840
1413132150438 15768 READING 31 0.982019
1413132150508 15768 READING 31 0.982226
1413132150579 15768 READING 31 0.982689
1413132150654 15768 READING 31 0.983479
1413132150732 15768 READING 31 0.984134
1413132150805 15768 READING 31 0.984000
1413132150878 15768 READING 31 0.984176
1413132150949 15768 READING 31 0.981234
1413132151024 15768 READING 31 0.981644
1413132154349 15768 FUNCTION lru lambda h: 0.977121 * (h ** 0.001)
1413132154749 15766 FUNCTION lru lambda h: 0.0551381 * (h ** 0.458589)
1413132154749 15768 RECOMMEND 12
1413132154749 15766 RECOMMEND 564
1413132164749 15768 FUNCTION lru lambda h: 0.977121 * (h ** 0.001)
1413132164749 15766 FUNCTION lru lambda h: 0.0551381 * (h ** 0.458589)
1413132164750 15768 RECOMMEND 12
1413132164750 15766 RECOMMEND 564
1413132174750 15768 FUNCTION lru lambda h: 0.977121 * (h ** 0.001)
1413132174750 15766 FUNCTION lru lambda h: 0.0551381 * (h ** 0.458589)
1413132174750 15768 RECOMMEND 12
1413132174750 15766 RECOMMEND 564
1413132184750 15768 FUNCTION lru lambda h: 0.977121 * (h ** 0.001)
1413132184750 15766 FUNCTION lru lambda h: 0.0551381 * (h ** 0.458589)
1413132184751 15768 RECOMMEND 12
1413132184751 15766 RECOMMEND 564
1413132188925 15768 READING 31 0.969857
1413132190938 15766 READING 353 0.047415
1413132191262 15768 READING 31 0.971463
1413132191443 15768 READING 31 0.969036
1413132191574 15768 READING 31 0.966139
1413132191723 15768 READING 31 0.962274
1413132191837 15768 READING 31 0.957880
1413132192099 15768 READING 31 0.860263
1413132192221 15768 READING 31 0.883416
1413132192379 15768 READING 31 0.840197
1413132192498 15768 READING 31 0.867236
1413132192641 15768 READING 31 0.878595
1413132192733 15768 READING 31 0.914818
1413132192944 15768 READING 31 0.962455
1413132193131 15768 READING 31 0.962825
1413132193264 15768 READING 31 0.939066
1413132193389 15768 READING 31 0.958332
1413132193545 15768 READING 31 0.925042
1413132193633 15768 READING 31 0.945419
1413132193730 15768 READING 31 0.963601
1413132193844 15768 READING 31 0.975271
1413132193981 15768 READING 31 0.924400
1413132194331 15768 READING 31 0.923740
1413132194751 15768 FUNCTION lru lambda h: 0.972766 * (h ** 0.001)
1413132194751 15766 FUNCTION lru lambda h: 0.060607 * (h ** 0.435766)
1413132194751 15768 RECOMMEND 12
1413132194751 15766 RECOMMEND 564
1413132194808 15768 READING 31 0.935655
1413132195198 15768 READING 31 0.935249
1413132195344 15768 READING 31 0.949522
1413132195425 15768 READING 31 0.956136
1413132195519 15768 READING 31 0.965075
1413132195677 15768 READING 31 0.978203
1413132195794 15768 READING 31 0.944927
1413132195879 15768 READING 31 0.959977
1413132195960 15768 READING 31 0.969440
1413132196101 15768 READING 31 0.942466
1413132196192 15768 READING 31 0.915297
1413132196272 15768 READING 31 0.919467
1413132196354 15768 READING 31 0.938889
1413132196449 15768 READING 31 0.890465
1413132196624 15768 READING 31 0.957382
1413132196750 15768 READING 31 0.969828
1413132196860 15768 READING 31 0.899769
1413132196952 15768 READING 31 0.906259
1413132197053 15768 READING 31 0.915289
1413132197367 15768 READING 31 0.946505
1413132197586 15768 READING 31 0.969225
1413132197743 15768 READING 31 0.965678
1413132197874 15768 READING 31 0.961684
1413132197951 15768 READING 31 0.968977
1413132198111 15768 READING 31 0.939236
1413132198227 15768 READING 31 0.960901
1413132198305 15768 READING 31 0.969809
1413132198379 15768 READING 31 0.971814
1413132198483 15768 READING 31 0.979102
1413132198571 15768 READING 31 0.927764
1413132198666 15768 READING 31 0.877309
1413132198831 15768 READING 31 0.852878
1413132198918 15768 READING 31 0.861193
1413132199006 15768 READING 31 0.912924
1413132199167 15768 READING 31 0.922916
1413132199387 15768 READING 31 0.965946
1413132199519 15768 READING 31 0.975723
1413132199617 15768 READING 31 0.977813
1413132199779 15768 READING 31 0.834806
1413132199876 15768 READING 31 0.888061
1413132199964 15768 READING 31 0.928140
1413132200046 15768 READING 31 0.951235
1413132200129 15768 READING 31 0.962313
1413132200238 15768 READING 31 0.975786
1413132200346 15768 READING 31 0.937145
1413132200443 15768 READING 31 0.935016
1413132200575 15768 READING 31 0.920932
1413132204752 15768 FUNCTION lru lambda h: 0.972542 * (h ** 0.001)
1413132204752 15766 FUNCTION lru lambda h: 0.060607 * (h ** 0.435766)
1413132204752 15768 RECOMMEND 12
1413132204752 15766 RECOMMEND 564
1413132208582 15768 READING 31 0.993773
1413132211707 15768 READING 31 0.984809
1413132211930 15768 READING 31 0.972102
1413132212280 15768 READING 31 0.942349
1413132212815 15768 READING 31 0.939733
1413132213383 15768 READING 31 0.942033
1413132214104 15768 READING 31 0.953025
1413132214319 15768 READING 31 0.937750
1413132214536 15768 READING 31 0.936891
1413132214678 15768 READING 31 0.911360
1413132214752 15768 FUNCTION lru lambda h: 0.972007 * (h ** 0.001)
1413132214752 15766 FUNCTION lru lambda h: 0.060607 * (h ** 0.435766)
1413132214753 15768 RECOMMEND 12
1413132214753 15766 RECOMMEND 564
1413132214837 15768 READING 31 0.879774
1413132215190 15768 READING 31 0.869501
1413132215246 15768 READING 31 0.788272
1413132215700 15768 READING 31 0.908822
1413132216526 15768 READING 31 0.907756
1413132216837 15768 READING 31 0.925288
1413132217036 15768 READING 31 0.918127
1413132217115 15768 READING 31 0.872658
1413132217223 15768 READING 31 0.891703
1413132217290 15768 READING 31 0.903707
1413132217415 15768 READING 31 0.945502
1413132217456 15768 READING 31 0.938839
1413132217510 15768 READING 31 0.872298
1413132217555 15768 READING 31 0.746100
1413132217763 15768 READING 31 0.819124
1413132217813 15768 READING 31 0.849810
1413132217965 15768 READING 31 0.930612
1413132218141 15768 READING 31 0.960187
1413132218198 15768 READING 31 0.957758
1413132218363 15768 READING 31 0.975880
1413132218454 15768 READING 31 0.961571
1413132218520 15768 READING 31 0.900290
1413132218639 15768 READING 31 0.831880
1413132218721 15768 READING 31 0.895831
1413132218816 15768 READING 31 0.937291
1413132218902 15768 READING 31 0.946723
1413132218986 15768 READING 31 0.949358
1413132219070 15768 READING 31 0.959608
1413132219153 15768 READING 31 0.966456
1413132219234 15768 READING 31 0.963767
1413132219333 15768 READING 31 0.975571
1413132219416 15768 READING 31 0.976244
1413132219501 15768 READING 31 0.976555
1413132219584 15768 READING 31 0.971966
1413132219668 15768 READING 31 0.969834
1413132219751 15768 READING 31 0.973309
1413132219832 15768 READING 31 0.974707
1413132219914 15768 READING 31 0.965150
1413132220001 15768 READING 31 0.975280
1413132220083 15768 READING 31 0.978058
1413132220168 15768 READING 31 0.980718
1413132220255 15768 READING 31 0.963860
1413132220340 15768 READING 31 0.965775
1413132220442 15768 READING 31 0.917510
1413132220522 15768 READING 31 0.940476
1413132220604 15768 READING 31 0.957743
1413132220690 15768 READING 31 0.952759
1413132220774 15768 READING 31 0.966929
1413132220872 15768 READING 31 0.890907
1413132220954 15768 READING 31 0.929571
1413132221039 15768 READING 31 0.951543
1413132221120 15768 READING 31 0.961332
1413132221201 15768 READING 31 0.968131
1413132221281 15768 READING 31 0.971475
1413132221364 15768 READING 31 0.973926
1413132221448 15768 READING 31 0.973236
1413132221571 15768 READING 31 0.777791
1413132221686 15768 READING 31 0.861834
1413132221770 15768 READING 31 0.911281
1413132221852 15768 READING 31 0.941406
1413132221959 15768 READING 31 0.856151
1413132222043 15768 READING 31 0.893285
1413132222127 15768 READING 31 0.934307
1413132222231 15768 READING 31 0.959923
1413132222312 15768 READING 31 0.969722
1413132222412 15768 READING 31 0.873331
1413132222489 15768 READING 31 0.918507
1413132222569 15768 READING 31 0.947252
1413132222651 15768 READING 31 0.965198
1413132222747 15768 READING 31 0.900927
1413132222830 15768 READING 31 0.940622
1413132222913 15768 READING 31 0.951544
1413132222996 15768 READING 31 0.965018
1413132223076 15768 READING 31 0.973054
1413132223154 15768 READING 31 0.973770
1413132223237 15768 READING 31 0.974762
1413132223323 15768 READING 31 0.976600
1413132223419 15768 READING 31 0.978467
1413132223522 15768 READING 31 0.891501
1413132223623 15768 READING 31 0.841649
1413132223706 15768 READING 31 0.905651
1413132223790 15768 READING 31 0.916663
1413132223900 15768 READING 31 0.953561
1413132223985 15768 READING 31 0.964341
1413132224075 15768 READING 31 0.932813
1413132224168 15768 READING 31 0.956632
1413132224251 15768 READING 31 0.966277
1413132224331 15768 READING 31 0.969615
1413132224424 15768 READING 31 0.922449
1413132224503 15768 READING 31 0.948700
1413132224590 15768 READING 31 0.965697
1413132224672 15768 READING 31 0.971883
1413132224753 15768 FUNCTION lru lambda h: 0.97549 * (h ** 0.001)
1413132224753 15766 FUNCTION lru lambda h: 0.060607 * (h ** 0.435766)
1413132224754 15768 RECOMMEND 12
1413132224754 15766 RECOMMEND 564
1413132224756 15768 READING 31 0.974727
1413132224841 15768 READING 31 0.976857
1413132224924 15768 READING 31 0.977090
1413132225003 15768 READING 31 0.975824
1413132225081 15768 READING 31 0.979404
1413132225176 15768 READING 31 0.922094
1413132225263 15768 READING 31 0.921877
1413132225343 15768 READING 31 0.950426
1413132225429 15768 READING 31 0.967268
1413132225513 15768 READING 31 0.944432
1413132225596 15768 READING 31 0.925286
1413132225679 15768 READING 31 0.953982
1413132225763 15768 READING 31 0.965372
1413132225844 15768 READING 31 0.974117
1413132225921 15768 READING 31 0.977500
1413132226006 15768 READING 31 0.979203
1413132226086 15768 READING 31 0.977708
1413132226168 15768 READING 31 0.978302
1413132226245 15768 READING 31 0.980787
1413132226328 15768 READING 31 0.978558
1413132226445 15768 READING 31 0.810221
1413132226524 15768 READING 31 0.887345
1413132226604 15768 READING 31 0.932545
1413132226687 15768 READING 31 0.954721
1413132226810 15768 READING 31 0.766109
1413132226890 15768 READING 31 0.858363
1413132226972 15768 READING 31 0.905968
1413132227057 15768 READING 31 0.941550
1413132227143 15768 READING 31 0.951548
1413132227240 15768 READING 31 0.965038
1413132227325 15768 READING 31 0.967655
1413132227407 15768 READING 31 0.965091
1413132227486 15768 READING 31 0.969549
1413132227568 15768 READING 31 0.973521
1413132227653 15768 READING 31 0.975620
1413132227740 15768 READING 31 0.947775
1413132227824 15768 READING 31 0.948393
1413132227908 15768 READING 31 0.955490
1413132227990 15768 READING 31 0.964041
1413132228068 15768 READING 31 0.968234
1413132228148 15768 READING 31 0.963861
1413132228233 15768 READING 31 0.971493
1413132228319 15768 READING 31 0.952017
1413132228400 15768 READING 31 0.967395
1413132228502 15768 READING 31 0.876906
1413132228583 15768 READING 31 0.923151
1413132228664 15768 READING 31 0.948708
1413132228746 15768 READING 31 0.946302
1413132228833 15768 READING 31 0.961677
1413132228913 15768 READING 31 0.971325
1413132228994 15768 READING 31 0.976040
1413132234166 15768 READING 31 0.910446
1413132234294 15768 READING 30 0.921303
1413132234365 15768 READING 30 0.946831
1413132234435 15768 READING 30 0.963306
1413132234527 15766 READING 355 0.681980
1413132234550 15768 READING 30 0.979817
1413132234633 15768 READING 30 0.979780
1413132234715 15768 READING 30 0.980771
1413132234754 15768 FUNCTION lru lambda h: 0.975832 * (h ** 0.001)
1413132234754 15766 FUNCTION lru lambda h: 0.0528914 * (h ** 0.459543)
1413132234755 15768 RECOMMEND 12
1413132234755 15766 RECOMMEND 564
1413132234794 15768 READING 30 0.979730
1413132234879 15768 READING 30 0.979669
1413132234954 15768 READING 30 0.982890
1413132235025 15768 READING 30 0.983676
1413132235101 15768 READING 30 0.981021
1413132235179 15768 READING 30 0.983870
1413132235260 15768 READING 30 0.984929
1413132235338 15768 READING 30 0.985950
1413132235413 15768 READING 30 0.986359
1413132235485 15768 READING 30 0.957523
1413132235564 15768 READING 30 0.967705
1413132235647 15768 READING 30 0.975861
1413132235726 15768 READING 30 0.927945
1413132235803 15768 READING 30 0.953112
1413132235880 15768 READING 30 0.965662
1413132235956 15768 READING 30 0.974430
1413132236032 15768 READING 30 0.929091
1413132236107 15768 READING 30 0.955708
1413132236187 15768 READING 30 0.968285
1413132236254 15766 READING 358 0.695852
1413132236262 15768 READING 30 0.976925
1413132236342 15768 READING 30 0.981951
1413132236417 15768 READING 30 0.982653
1413132236491 15768 READING 30 0.983910
1413132236567 15768 READING 30 0.957566
1413132236641 15768 READING 30 0.945479
1413132236715 15768 READING 30 0.965727
1413132236786 15768 READING 30 0.975229
1413132236868 15768 READING 30 0.980386
1413132236942 15768 READING 30 0.982944
1413132237015 15768 READING 30 0.982254
1413132237092 15768 READING 30 0.979754
1413132237172 15768 READING 30 0.982695
1413132237250 15768 READING 30 0.956967
1413132237327 15768 READING 30 0.969746
1413132237411 15768 READING 30 0.977043
1413132237492 15768 READING 30 0.978160
1413132237573 15768 READING 30 0.981988
1413132237656 15768 READING 30 0.984861
1413132237746 15768 READING 30 0.986567
1413132237858 15768 READING 30 0.988760
1413132237967 15768 READING 30 0.967648
1413132238043 15768 READING 30 0.975769
1413132238114 15768 READING 30 0.980554
1413132238189 15768 READING 30 0.983824
1413132238214 15766 READING 367 0.701601
1413132238263 15768 READING 30 0.984658
1413132238336 15768 READING 30 0.981195
1413132238411 15768 READING 30 0.979390
1413132238485 15768 READING 30 0.982728
1413132238569 15768 READING 30 0.982849
1413132238644 15768 READING 30 0.982453
1413132238720 15768 READING 30 0.983756
1413132238797 15768 READING 30 0.984312
1413132238870 15768 READING 30 0.958070
1413132238943 15768 READING 30 0.971732
1413132239011 15768 READING 30 0.978605
1413132239090 15768 READING 30 0.929646
1413132239169 15768 READING 30 0.883690
1413132239245 15768 READING 30 0.928545
1413132239320 15768 READING 30 0.953147
1413132239402 15768 READING 30 0.917487
1413132239475 15768 READING 30 0.878400
1413132239549 15768 READING 30 0.925447
1413132239627 15768 READING 30 0.954707
1413132239642 15766 READING 367 0.731814
1413132239705 15768 READING 30 0.899904
1413132239777 15768 READING 30 0.914809
1413132239851 15768 READING 30 0.949683
1413132239927 15768 READING 30 0.966539
1413132240004 15768 READING 30 0.973359
1413132240089 15768 READING 30 0.978525
1413132240169 15768 READING 30 0.980394
1413132240242 15768 READING 30 0.983065
1413132240318 15768 READING 30 0.983645
1413132240392 15768 READING 30 0.984688
1413132240470 15768 READING 30 0.981400
1413132240547 15768 READING 30 0.932273
1413132240622 15768 READING 30 0.954998
1413132240705 15768 READING 30 0.967565
1413132240781 15768 READING 30 0.977340
1413132240854 15768 READING 30 0.978571
1413132240938 15768 READING 30 0.979205
1413132241018 15768 READING 30 0.983322
1413132241089 15768 READING 30 0.984669
1413132241157 15768 READING 30 0.985130
1413132241232 15768 READING 30 0.986072
1413132241315 15768 READING 30 0.961324
1413132241386 15768 READING 30 0.972961
1413132241462 15768 READING 30 0.980021
1413132241608 15768 READING 30 0.988444
1413132241678 15768 READING 30 0.965343
1413132241696 15766 READING 373 0.497577
1413132241748 15768 READING 30 0.974099
1413132241822 15768 READING 30 0.979343
1413132241899 15768 READING 30 0.982081
1413132241971 15768 READING 30 0.983967
1413132242050 15768 READING 30 0.982170
1413132242132 15768 READING 30 0.980541
1413132242227 15768 READING 30 0.984977
1413132242380 15768 READING 30 0.574995
1413132242435 15768 READING 30 0.546489
1413132242461 15768 READING 30 0.291192
1413132242502 15768 READING 30 0.202482
1413132242542 15768 READING 31 0.326080
1413132242596 15768 READING 31 0.382112
1413132242625 15768 READING 31 0.520500
1413132242709 15768 READING 31 0.325452
1413132242731 15768 READING 31 0.142269
1413132242801 15768 READING 31 0.127804
1413132242824 15768 READING 31 0.136965
1413132242880 15768 READING 30 0.176573
1413132242915 15768 READING 31 0.231234
1413132243017 15768 READING 30 0.182560
1413132243051 15768 READING 31 0.226457
1413132243088 15768 READING 31 0.211658
1413132243152 15768 READING 31 0.205461
1413132243190 15768 READING 31 0.211472
1413132243212 15768 READING 30 0.259033
1413132243220 15766 READING 375 0.663769
1413132243273 15768 READING 30 0.359169
1413132243300 15768 READING 31 0.352236
1413132243376 15768 READING 30 0.220561
1413132243430 15768 READING 31 0.281503
1413132243456 15768 READING 30 0.325373
1413132243496 15768 READING 31 0.384320
1413132243523 15768 READING 30 0.382307
1413132243546 15768 READING 31 0.403165
1413132243586 15768 READING 30 0.392305
1413132243635 15768 READING 31 0.439874
1413132243761 15768 READING 30 0.245896
1413132243823 15768 READING 31 0.224220
1413132243871 15768 READING 31 0.249040
1413132243935 15768 READING 31 0.412704
1413132244030 15768 READING 30 0.524139
1413132244108 15768 READING 31 0.658843
1413132244197 15768 READING 30 0.691480
1413132244269 15768 READING 31 0.773817
1413132244354 15768 READING 30 0.801999
1413132244438 15768 READING 31 0.778475
1413132244529 15768 READING 30 0.783670
1413132244607 15768 READING 31 0.831495
1413132244691 15768 READING 30 0.807091
1413132244755 15768 FUNCTION lru lambda h: 0.939021 * (h ** 0.001)
1413132244755 15766 FUNCTION lru lambda h: 0.0281781 * (h ** 0.568412)
1413132244755 15768 RECOMMEND 12
1413132244755 15766 RECOMMEND 564
1413132244761 15768 READING 31 0.859273
1413132244841 15768 READING 30 0.818847
1413132244913 15768 READING 31 0.847135
1413132244994 15768 READING 30 0.857844
1413132245069 15768 READING 31 0.868023
1413132245159 15768 READING 30 0.783021
1413132245230 15768 READING 31 0.847082
1413132245314 15768 READING 30 0.841569
1413132245392 15768 READING 31 0.885850
1413132245464 15768 READING 30 0.885294
1413132245533 15768 READING 30 0.904132
1413132245656 15768 READING 30 0.706997
1413132245729 15768 READING 30 0.802877
1413132245800 15768 READING 30 0.839082
1413132245870 15768 READING 30 0.857774
1413132245938 15768 READING 30 0.866193
1413132246007 15768 READING 30 0.871271
1413132246086 15768 READING 30 0.855658
1413132246166 15768 READING 30 0.853331
1413132246225 15766 READING 380 0.832125
1413132246243 15768 READING 30 0.871161
1413132246322 15768 READING 30 0.881092
1413132246393 15768 READING 30 0.881198
1413132246460 15768 READING 30 0.927393
1413132246532 15768 READING 30 0.955241
1413132246614 15768 READING 30 0.972607
1413132246627 15766 READING 383 0.802899
1413132246688 15768 READING 30 0.979506
1413132246767 15768 READING 30 0.983029
1413132246849 15768 READING 30 0.981354
1413132246932 15768 READING 30 0.985282
1413132247005 15768 READING 30 0.985103
1413132247077 15768 READING 30 0.985576
1413132247112 15766 READING 395 0.658153
1413132247149 15768 READING 30 0.985642
1413132247230 15768 READING 30 0.984225
1413132247309 15768 READING 30 0.984492
1413132247357 15766 READING 394 0.803118
1413132247392 15768 READING 30 0.986283
1413132247469 15768 READING 30 0.985963
1413132247546 15768 READING 30 0.985001
1413132247618 15768 READING 30 0.984089
1413132247689 15768 READING 30 0.930500
1413132247762 15768 READING 30 0.957073
1413132247842 15768 READING 30 0.972374
1413132247915 15768 READING 30 0.978568
1413132247990 15768 READING 30 0.982399
1413132248064 15768 READING 30 0.984151
1413132248133 15768 READING 30 0.984737
1413132248257 15768 READING 30 0.988771
1413132248329 15768 READING 30 0.987265
1413132248402 15768 READING 30 0.960338
1413132248475 15768 READING 30 0.971897
1413132248546 15768 READING 30 0.924772
1413132248617 15768 READING 30 0.927546
1413132248693 15768 READING 30 0.955735
1413132248767 15768 READING 30 0.970284
1413132248837 15768 READING 30 0.976805
1413132248911 15768 READING 30 0.981555
1413132248985 15768 READING 30 0.979948
1413132249058 15768 READING 30 0.982379
1413132249138 15768 READING 30 0.981124
1413132249224 15768 READING 30 0.979385
1413132249307 15768 READING 30 0.909718
1413132249390 15768 READING 30 0.943752
1413132249472 15768 READING 30 0.961827
1413132249551 15768 READING 30 0.948387
1413132249634 15768 READING 30 0.940763
1413132249716 15768 READING 30 0.913273
1413132249800 15768 READING 30 0.922025
1413132249882 15768 READING 30 0.950133
1413132249964 15768 READING 30 0.966775
1413132250043 15768 READING 30 0.972210
1413132250123 15768 READING 30 0.976096
1413132250203 15768 READING 30 0.977798
1413132250287 15768 READING 30 0.982393
1413132250368 15768 READING 30 0.981082
1413132250451 15768 READING 30 0.982747
1413132250533 15768 READING 30 0.984029
1413132250613 15768 READING 30 0.982549
1413132250692 15768 READING 30 0.984436
1413132250763 15768 READING 30 0.984444
1413132250836 15768 READING 30 0.984482
1413132250907 15768 READING 30 0.984772
1413132250980 15768 READING 30 0.984861
1413132251053 15768 READING 30 0.985067
1413132251138 15768 READING 30 0.985382
1413132251237 15768 READING 30 0.986842
1413132251325 15768 READING 30 0.987638
1413132251350 15766 READING 389 0.600281
1413132251420 15768 READING 30 0.987680
1413132251450 15766 READING 400 0.141014
1413132251496 15768 READING 30 0.986877
1413132251574 15768 READING 30 0.985870
1413132251653 15768 READING 30 0.933985
1413132251731 15768 READING 30 0.912184
1413132251809 15768 READING 30 0.918478
1413132251911 15768 READING 30 0.791638
1413132251988 15768 READING 30 0.858606
1413132252063 15768 READING 30 0.871433
1413132252136 15768 READING 30 0.897489
1413132252208 15768 READING 30 0.913233
1413132252225 15766 READING 398 0.290850
1413132252282 15768 READING 30 0.896464
1413132252355 15768 READING 30 0.914081
1413132252431 15768 READING 30 0.923870
1413132252504 15768 READING 30 0.927795
1413132252582 15768 READING 30 0.956521
1413132252663 15768 READING 30 0.972669
1413132252754 15768 READING 30 0.981292
1413132252830 15768 READING 30 0.983799
1413132252901 15768 READING 30 0.982891
1413132252983 15768 READING 30 0.983326
1413132253056 15768 READING 30 0.985091
1413132253127 15768 READING 30 0.956647
1413132253200 15768 READING 30 0.971614
1413132253273 15768 READING 30 0.978253
1413132253351 15768 READING 30 0.982161
1413132253430 15768 READING 30 0.983730
1413132253506 15768 READING 30 0.957972
1413132253579 15768 READING 30 0.945194
1413132253592 15766 READING 354 0.199860
1413132253661 15768 READING 30 0.965574
1413132253733 15768 READING 30 0.974542
1413132253802 15768 READING 30 0.979962
1413132253883 15768 READING 30 0.979573
1413132253968 15768 READING 30 0.981212
1413132254044 15768 READING 30 0.983377
1413132254115 15768 READING 30 0.984784
1413132254191 15768 READING 30 0.984869
1413132254259 15768 READING 30 0.984548
1413132254330 15768 READING 30 0.984680
1413132254402 15768 READING 30 0.985650
1413132254486 15768 READING 30 0.982437
1413132254569 15768 READING 30 0.980971
1413132254652 15768 READING 30 0.959296
1413132254727 15768 READING 30 0.946116
1413132254755 15768 FUNCTION lru lambda h: 0.967497 * (h ** 0.001)
1413132254755 15766 FUNCTION lru lambda h: 0.80422 * (h ** 0.001)
1413132254756 15768 RECOMMEND 288
1413132254756 15766 RECOMMEND 288
1413132254798 15768 READING 30 0.963546
1413132254885 15768 READING 31 0.924677
1413132254983 15768 READING 33 0.937635
1413132255082 15768 READING 34 0.964283
1413132255202 15768 READING 36 0.978854
1413132255230 15766 READING 399 0.197104
1413132255391 15768 READING 37 0.988476
1413132255517 15768 READING 39 0.989630
1413132255656 15768 READING 40 0.991143
1413132255815 15768 READING 42 0.991681
1413132255984 15768 READING 43 0.992904
1413132256171 15768 READING 45 0.991364
1413132256364 15768 READING 46 0.981323
1413132256561 15768 READING 48 0.976266
1413132256734 15766 READING 353 0.233440
1413132256776 15768 READING 49 0.975892
1413132256999 15768 READING 51 0.966942
1413132257221 15768 READING 52 0.971689
1413132257469 15768 READING 54 0.975500
1413132257713 15768 READING 55 0.976904
1413132258005 15766 READING 393 0.421841
1413132258013 15768 READING 57 0.980114
1413132258316 15768 READING 58 0.981525
1413132258638 15768 READING 60 0.982439
1413132258990 15768 READING 61 0.977403
1413132259319 15768 READING 63 0.974743
1413132259398 15766 READING 352 0.728058
1413132259686 15768 READING 64 0.974606
1413132260054 15768 READING 66 0.974543
1413132260386 15768 READING 67 0.979199
1413132260728 15768 READING 69 0.987834
1413132260857 15766 READING 385 0.885573
1413132261086 15768 READING 70 0.991613
1413132261548 15768 READING 72 0.829124
1413132261695 15768 READING 75 0.395477
1413132262132 15766 READING 355 0.948464
1413132262174 15768 READING 84 0.379040
1413132262727 15768 READING 95 0.426870
1413132262914 15768 READING 95 0.381716
1413132263199 15768 READING 96 0.492560
1413132263336 15766 READING 378 0.968717
1413132264756 15768 FUNCTION lru lambda h: 0.997603 * (h ** 0.001)
1413132264757 15766 FUNCTION lru lambda h: 0.703906 * (h ** 0.001)
1413132264758 15768 RECOMMEND 288
1413132264758 15766 RECOMMEND 288
1413132266043 15768 READING 107 0.844147
1413132266814 15766 READING 358 0.940924
1413132266849 15768 READING 108 0.888378
1413132267551 15768 READING 120 0.806542
1413132267989 15766 READING 376 0.949802
1413132270453 15766 READING 361 0.725927
1413132270812 15768 READING 121 0.886311
1413132271820 15766 READING 375 0.586876
1413132273214 15768 READING 135 0.968565
1413132274014 15768 READING 136 0.977291
1413132274107 15766 READING 359 0.675431
1413132274759 15768 FUNCTION lru lambda h: 0.987133 * (h ** 0.001)
1413132274759 15766 FUNCTION lru lambda h: 1.04578 * (h ** 0.001)
1413132274759 15768 RECOMMEND 288
1413132274760 15766 RECOMMEND 288
1413132274858 15768 READING 143 0.985916
1413132275334 15766 READING 372 0.776656
1413132275712 15768 READING 144 0.991556
1413132276590 15768 READING 148 0.994837
1413132276717 15766 READING 359 0.842040
1413132277459 15768 READING 150 0.996548
1413132277900 15766 READING 372 0.895748
1413132278386 15768 READING 154 0.986400
1413132284345 15768 READING 155 0.956448
1413132284760 15768 FUNCTION lru lambda h: 0.928382 * (h ** 0.001)
1413132284760 15766 FUNCTION lru lambda h: 0.78404 * (h ** 0.001)
1413132284762 15768 RECOMMEND 288
1413132284762 15766 RECOMMEND 288
1413132285864 15766 READING 372 0.554566
1413132286062 15768 READING 160 0.964435
1413132287045 15768 READING 159 0.973649
1413132288054 15768 READING 166 0.982610
1413132288594 15766 READING 370 0.638301
1413132288844 15766 READING 372 0.539171
1413132289221 15768 READING 167 0.989909
1413132289606 15766 READING 369 0.343735
1413132289793 15766 READING 371 0.063622
1413132289902 15766 READING 373 0.596908
1413132290043 15766 READING 377 0.597264
1413132290290 15768 READING 170 0.989749
1413132291534 15768 READING 172 0.904544
1413132294762 15768 FUNCTION lru lambda h: 0.900268 * (h ** 0.00452653)
1413132294762 15766 FUNCTION lru lambda h: 5.9971 * (h ** 0.001)
1413132294763 15768 RECOMMEND 300
1413132294763 15766 RECOMMEND 276
1413132295292 15766 READING 377 0.736151
1413132295367 15766 READING 342 0.672846
1413132295829 15766 READING 372 0.904855
1413132296763 15766 READING 373 0.971944
1413132297723 15766 READING 372 0.984979
1413132298436 15766 READING 321 0.988304
1413132299232 15766 READING 369 0.990340
1413132302445 15766 READING 321 0.691149
1413132303285 15766 READING 364 0.758234
1413132304090 15766 READING 320 0.818763
1413132304537 15768 READING 178 0.979852
1413132304763 15768 FUNCTION lru lambda h: 0.896194 * (h ** 0.00569637)
1413132304763 15766 FUNCTION lru lambda h: 2.60373 * (h ** 0.001)
1413132304764 15768 RECOMMEND 300
1413132304764 15766 RECOMMEND 276
1413132305012 15766 READING 360 0.068763
1413132306564 15766 READING 318 0.254767
1413132307697 15766 READING 355 0.258715
1413132308729 15766 READING 316 0.322337
1413132309453 15766 READING 350 0.373393
1413132310401 15766 READING 315 0.436030
1413132311020 15768 READING 178 0.946914
1413132311542 15766 READING 345 0.496511
1413132312383 15766 READING 315 0.525460
1413132312648 15768 READING 194 0.901046
1413132313286 15766 READING 341 0.574322
1413132313920 15768 READING 195 0.918027
1413132314355 15766 READING 313 0.716407
1413132314764 15768 FUNCTION lru lambda h: 0.900421 * (h ** 0.00449547)
1413132314764 15766 FUNCTION lru lambda h: 373.19 * (h ** 0.001)
1413132314765 15768 RECOMMEND 300
1413132314765 15766 RECOMMEND 276
1413132315302 15768 READING 209 0.942482
1413132315345 15766 READING 336 0.668474
1413132316225 15766 READING 314 0.671233
1413132316616 15768 READING 209 0.962136
1413132317208 15766 READING 331 0.820449
1413132317919 15768 READING 209 0.977640
1413132317957 15766 READING 315 0.886814
1413132318776 15766 READING 328 0.933945
1413132319210 15768 READING 209 0.987098
1413132319686 15766 READING 317 0.911284
1413132320343 15766 READING 328 0.939955
1413132320482 15768 READING 208 0.992112
1413132321703 15766 READING 328 0.704405
1413132321729 15768 READING 209 0.994883
1413132322714 15766 READING 324 0.489077
1413132322955 15768 READING 208 0.996382
1413132324298 15768 READING 208 0.996646
1413132324765 15768 FUNCTION lru lambda h: 0.898365 * (h ** 0.00505303)
1413132324765 15766 FUNCTION lru lambda h: 1666.89 * (h ** 0.001)
1413132324766 15768 RECOMMEND 300
1413132324766 15766 RECOMMEND 276
1413132325308 15766 READING 329 0.823823
1413132325466 15766 READING 309 0.352168
1413132325545 15766 READING 278 0.405974
1413132325598 15766 READING 310 0.371741
1413132325653 15766 READING 312 0.402275
1413132325708 15766 READING 311 0.407803
1413132325738 15768 READING 209 0.984564
1413132325760 15766 READING 312 0.499265
1413132325811 15766 READING 312 0.570963
1413132325866 15766 READING 295 0.005583
1413132325912 15766 READING 311 0.008752
1413132325957 15766 READING 312 0.016790
1413132326005 15766 READING 311 0.041155
1413132326059 15766 READING 273 0.098626
1413132326728 15766 READING 312 0.695092
1413132327063 15768 READING 209 0.986331
1413132327602 15766 READING 275 0.901635
1413132328322 15766 READING 311 0.957470
1413132328357 15768 READING 209 0.992011
1413132329047 15766 READING 279 0.977206
1413132329727 15766 READING 304 0.983841
1413132330067 15768 READING 209 0.983811
1413132330277 15766 READING 282 0.983604
1413132330677 15768 READING 209 0.944299
1413132330868 15766 READING 300 0.982624
1413132331553 15766 READING 284 0.982206
1413132331585 15768 READING 209 0.922207
1413132332321 15766 READING 299 0.985129
1413132332897 15768 READING 209 0.953997
1413132332898 15766 READING 287 0.981538
1413132333860 15766 READING 299 0.981271
1413132334220 15768 READING 209 0.975802
1413132334534 15766 READING 299 0.980569
1413132334766 15768 FUNCTION lru lambda h: 0.900599 * (h ** 0.00444757)
1413132334766 15766 FUNCTION lru lambda h: 337.283 * (h ** 0.001)
1413132334767 15768 RECOMMEND 300
1413132334767 15766 RECOMMEND 276
1413132335359 15766 READING 299 0.983137
1413132335532 15768 READING 208 0.986844
1413132336009 15766 READING 300 0.980938
1413132336831 15768 READING 208 0.992602
1413132336892 15766 READING 300 0.982294
1413132337578 15766 READING 301 0.896103
1413132338118 15766 READING 301 0.795007
1413132338143 15768 READING 209 0.995460
1413132338762 15766 READING 302 0.744517
1413132339429 15768 READING 207 0.996671
1413132339451 15766 READING 302 0.736695
1413132340275 15766 READING 303 0.756093
1413132340773 15768 READING 209 0.996997
1413132341005 15766 READING 303 0.749920
1413132341634 15766 READING 303 0.734691
1413132342072 15768 READING 209 0.996588
1413132342306 15766 READING 303 0.731706
1413132342932 15766 READING 291 0.739010
1413132343385 15768 READING 210 0.997424
1413132343606 15766 READING 302 0.738971
1413132344224 15766 READING 291 0.740344
1413132344739 15768 READING 208 0.996882
1413132344767 15768 FUNCTION lru lambda h: 0.890742 * (h ** 0.00707692)
1413132344767 15766 FUNCTION lru lambda h: 354.782 * (h ** 0.001)
1413132344768 15768 RECOMMEND 300
1413132344768 15766 RECOMMEND 276
1413132344889 15766 READING 301 0.743887
1413132345613 15766 READING 291 0.759077
1413132346054 15768 READING 209 0.997414
1413132346598 15766 READING 300 0.966266
1413132347260 15766 READING 302 0.964552
1413132347371 15768 READING 209 0.997064
1413132347909 15766 READING 310 0.976787
1413132348394 15766 READING 311 0.979625
1413132348431 15768 READING 210 0.981937
1413132348884 15768 READING 210 0.832512
1413132348897 15766 READING 312 0.981078
1413132349257 15766 READING 312 0.980742
1413132349873 15768 READING 209 0.891576
1413132350143 15766 READING 311 0.980209
1413132350915 15766 READING 312 0.983619
1413132351132 15768 READING 210 0.950945
1413132351456 15766 READING 312 0.979282
1413132354768 15768 FUNCTION lru lambda h: 0.901054 * (h ** 0.00426895)
1413132354768 15766 FUNCTION lru lambda h: 524.487 * (h ** 0.001)
1413132354769 15768 RECOMMEND 300
1413132354769 15766 RECOMMEND 276
1413132359557 15766 READING 313 0.086878
1413132361184 15768 READING 210 0.974441
1413132364137 15768 READING 210 0.982199
1413132364769 15768 FUNCTION lru lambda h: 0.897705 * (h ** 0.00517712)
1413132364769 15766 FUNCTION lru lambda h: 458.609 * (h ** 0.001)
1413132364769 15768 RECOMMEND 300
1413132364769 15766 RECOMMEND 276
1413132364987 15766 READING 312 0.485937
1413132365403 15768 READING 210 0.985696
1413132366453 15766 READING 315 0.535891
1413132366567 15766 READING 307 0.570306
1413132366696 15766 READING 315 0.581717
1413132366746 15766 READING 316 0.588384
1413132366802 15768 READING 210 0.989890
1413132366819 15766 READING 319 0.618394
1413132367014 15766 READING 320 0.436975
1413132367055 15766 READING 287 0.492490
1413132368174 15768 READING 210 0.992653
1413132369423 15768 READING 210 0.993868
1413132370801 15768 READING 209 0.995017
1413132371410 15766 READING 315 0.441770
1413132371443 15766 READING 332 0.003006
1413132371477 15766 READING 332 0.702569
1413132371506 15766 READING 333 0.782666
1413132371538 15766 READING 331 0.014340
1413132371573 15766 READING 283 0.058049
1413132371606 15766 READING 328 0.233711
1413132371638 15766 READING 283 0.484250
1413132371672 15766 READING 325 0.716524
1413132371710 15766 READING 283 0.859750
1413132372160 15768 READING 209 0.995494
1413132372599 15766 READING 321 0.984764
1413132373212 15766 READING 283 0.990061
1413132373479 15768 READING 210 0.996748
1413132373607 15766 READING 317 0.987068
1413132374023 15766 READING 285 0.987537
1413132374395 15766 READING 312 0.981482
1413132374770 15768 FUNCTION lru lambda h: 0.891909 * (h ** 0.00675745)
1413132374770 15766 FUNCTION lru lambda h: 351.107 * (h ** 0.001)
1413132374770 15768 RECOMMEND 300
1413132374770 15766 RECOMMEND 276
1413132374778 15768 READING 210 0.995672
1413132374796 15766 READING 287 0.978635
1413132375197 15766 READING 307 0.981360
1413132375574 15766 READING 288 0.980361
1413132375986 15766 READING 304 0.981567
1413132376201 15768 READING 210 0.996329
1413132376327 15766 READING 289 0.977103
1413132376787 15766 READING 303 0.981167
1413132377135 15766 READING 291 0.979532
1413132377603 15766 READING 302 0.976219
1413132377962 15766 READING 303 0.976155
1413132378256 15766 READING 303 0.973248
1413132378563 15766 READING 303 0.857082
1413132378842 15766 READING 303 0.769007
1413132379017 15768 DEATH 985
1413132379320 15766 READING 303 0.780935
1413132379920 15766 READING 303 0.802551
1413132380349 15766 READING 294 0.791457
1413132380794 15766 READING 302 0.793817
1413132381136 15766 READING 294 0.772333
1413132381625 15766 READING 301 0.798719
1413132382007 15766 READING 301 0.781704
1413132382476 15766 READING 300 0.792941
1413132382822 15766 READING 294 0.782401
1413132383150 15766 READING 300 0.762199
1413132383484 15766 READING 294 0.754997
1413132383784 15766 READING 300 0.754039
1413132384089 15766 READING 294 0.753517
1413132384441 15766 READING 298 0.768972
1413132384770 15766 FUNCTION lru lambda h: 645.244 * (h ** 0.001)
1413132384770 15766 RECOMMEND 576
1413132384776 15766 READING 299 0.762503
1413132385105 15766 READING 298 0.765224
1413132385490 15766 READING 298 0.777527
1413132385825 15766 READING 300 0.766667
1413132386153 15766 READING 300 0.758703
1413132386579 15766 READING 301 0.781258
1413132386937 15766 READING 301 0.773827
1413132387336 15766 READING 301 0.789321
1413132387699 15766 READING 302 0.778151
1413132388305 15766 READING 304 0.825406
1413132388759 15766 READING 304 0.810976
1413132389391 15766 READING 306 0.836259
1413132389807 15766 READING 306 0.820549
1413132390256 15766 READING 307 0.817418
1413132390702 15766 READING 307 0.812893
1413132391252 15766 READING 309 0.823086
1413132391866 15766 READING 309 0.836530
1413132392293 15766 READING 311 0.817056
1413132392614 15766 READING 311 0.779484
1413132392943 15766 READING 314 0.752792
1413132393521 15766 READING 314 0.682015
1413132394398 15766 READING 315 0.743849
1413132394771 15766 FUNCTION lru lambda h: 678.367 * (h ** 0.001)
1413132394771 15766 RECOMMEND 576
1413132394945 15766 READING 317 0.500098
1413132395062 15766 READING 316 0.325829
1413132395205 15766 READING 321 0.320777
1413132395488 15766 READING 326 0.965117
1413132395554 15766 READING 322 0.710089
1413132395600 15766 READING 334 0.743107
1413132395652 15766 READING 335 0.799043
1413132395703 15766 READING 340 0.851808
1413132395757 15766 READING 340 0.887121
1413132395814 15766 READING 344 0.912420
1413132395871 15766 READING 345 0.921052
1413132395936 15766 READING 348 0.933908
1413132396008 15766 READING 349 0.939008
1413132396891 15766 READING 351 0.989284
1413132398065 15766 READING 352 0.991443
1413132399020 15766 READING 351 0.991300
1413132400024 15766 READING 353 0.990298
1413132401228 15766 READING 352 0.990794
1413132402072 15766 READING 354 0.988639
1413132403124 15766 READING 356 0.974136
1413132404290 15766 READING 357 0.981837
1413132404771 15766 FUNCTION lru lambda h: 154.628 * (h ** 0.001)
1413132404771 15766 RECOMMEND 576
1413132405435 15766 READING 360 0.984536
1413132406397 15766 READING 360 0.983629
1413132407467 15766 READING 363 0.983793
1413132408541 15766 READING 365 0.983196
1413132409554 15766 READING 368 0.982605
1413132410878 15766 READING 370 0.980985
1413132412077 15766 READING 373 0.981254
1413132413039 15766 READING 376 0.912409
1413132414115 15766 READING 380 0.521069
1413132414771 15766 FUNCTION lru lambda h: 16.6596 * (h ** 0.001)
1413132414771 15766 RECOMMEND 576
1413132415298 15766 READING 383 0.979731
1413132416725 15766 READING 387 0.980241
1413132418037 15766 READING 379 0.983506
1413132418258 15766 READING 389 0.977415
1413132418376 15766 READING 363 0.957836
1413132418466 15766 READING 380 0.932736
1413132418554 15766 READING 376 0.902048
1413132418630 15766 READING 376 0.866331
1413132418707 15766 READING 359 0.837724
1413132418783 15766 READING 378 0.821110
1413132419105 15766 READING 378 0.933088
1413132420007 15766 READING 378 0.975380
1413132420767 15766 READING 378 0.984934
1413132421498 15766 READING 378 0.985095
1413132422276 15766 READING 378 0.986896
1413132423477 15766 READING 378 0.990271
1413132424187 15766 READING 324 0.988805
1413132424771 15766 FUNCTION lru lambda h: 6.31301 * (h ** 0.001)
1413132424771 15766 RECOMMEND 576
1413132425059 15766 READING 380 0.988314
1413132425938 15766 READING 330 0.987479
1413132427080 15766 READING 375 0.988196
1413132428183 15766 READING 376 0.987953
1413132429094 15766 READING 369 0.986142
1413132430117 15766 READING 373 0.985121
1413132431009 15766 READING 369 0.983011
1413132431880 15766 READING 371 0.980867
1413132432842 15766 READING 374 0.980681
1413132433923 15766 READING 374 0.902622
1413132434771 15766 FUNCTION lru lambda h: 0.889641 * (h ** 0.001)
1413132434771 15766 RECOMMEND 576
1413132434970 15766 READING 377 0.848269
1413132436298 15766 READING 378 0.975644
1413132437511 15766 READING 383 0.964507
1413132438506 15766 READING 384 0.973510
1413132440167 15766 READING 388 0.985012
1413132440884 15766 READING 389 0.985597
1413132441040 15766 READING 390 0.975497
1413132441144 15766 READING 390 0.942235
1413132441233 15766 READING 386 0.932202
1413132441323 15766 READING 377 0.905894
1413132441404 15766 READING 382 0.876250
1413132441485 15766 READING 365 0.873778
1413132442037 15766 READING 385 0.963340
1413132442911 15766 READING 342 0.978823
1413132443815 15766 READING 381 0.985267
1413132444619 15766 READING 381 0.987610
1413132444772 15766 FUNCTION lru lambda h: 0.240482 * (h ** 0.191002)
1413132444772 15766 RECOMMEND 576
1413132445585 15766 READING 384 0.989487
1413132446579 15766 READING 385 0.989938
1413132447422 15766 READING 384 0.988040
1413132448698 15766 READING 385 0.705409
1413132449818 15766 READING 382 0.980968
1413132450922 15766 READING 385 0.985603
1413132452059 15766 READING 383 0.985967
1413132453103 15766 READING 385 0.984353
1413132454527 15766 READING 388 0.985365
1413132454772 15766 FUNCTION lru lambda h: 0.222063 * (h ** 0.204902)
1413132454772 15766 RECOMMEND 576
1413132455997 15766 READING 388 0.985804
1413132457607 15766 READING 392 0.986260
1413132458734 15766 READING 393 0.965481
1413132459798 15766 READING 395 0.917172
1413132460786 15766 READING 384 0.856831
1413132462340 15766 READING 394 0.864712
1413132463067 15766 READING 372 0.915034
1413132463200 15766 READING 394 0.857088
1413132463304 15766 READING 393 0.946957
1413132463389 15766 READING 379 0.917488
1413132463472 15766 READING 372 0.884593
1413132463550 15766 READING 380 0.852526
1413132463626 15766 READING 362 0.830274
1413132463947 15766 READING 381 0.935114
1413132464772 15766 FUNCTION lru lambda h: 0.00765952 * (h ** 0.790152)
1413132464772 15766 RECOMMEND 576
1413132464933 15766 READING 381 0.974697
1413132465791 15766 READING 370 0.986930
1413132466752 15766 READING 371 0.991282
1413132467598 15766 READING 371 0.991917
1413132468491 15766 READING 371 0.991480
1413132469282 15766 READING 371 0.990720
1413132469997 15766 READING 316 0.988257
1413132470876 15766 READING 371 0.987173
1413132471678 15766 READING 369 0.983916
1413132472826 15766 READING 365 0.987949
1413132473863 15766 READING 368 0.987577
1413132474772 15766 FUNCTION lru lambda h: 0.00602026 * (h ** 0.833686)
1413132474772 15766 RECOMMEND 576
1413132474807 15766 READING 363 0.985870
1413132475782 15766 READING 366 0.985105
1413132476676 15766 READING 365 0.983706
1413132477781 15766 READING 367 0.983535
1413132478926 15766 READING 370 0.983741
1413132480014 15766 READING 371 0.971551
1413132481224 15766 READING 376 0.966720
1413132482252 15766 READING 377 0.960794
1413132483289 15766 READING 382 0.956024
1413132484772 15766 FUNCTION lru lambda h: 0.00121526 * (h ** 0.999)
1413132484772 15766 RECOMMEND 576
1413132484884 15766 READING 383 0.970475
1413132485529 15766 READING 386 0.967092
1413132485656 15766 READING 367 0.942418
1413132485752 15766 READING 376 0.838187
1413132485847 15766 READING 375 0.294675
1413132485930 15766 READING 372 0.886046
1413132486012 15766 READING 358 0.857768
1413132486089 15766 READING 372 0.855281
1413132486147 15766 DEATH 619
