1413913339223 0 TOTAL_MEM 2208
1413913359271 17934 CREATION
1413913359271 17934 READING 9 0.993022
1413913359271 17934 MINHEAP 2
1413913359271 17934 MINHEAP 276
1413913359274 17933 CREATION
1413913359274 17933 READING 9 0.992330
1413913359274 17933 MINHEAP 2
1413913359274 17933 MINHEAP 276
1413913359322 17934 READING 9 0.989409
1413913359323 17933 READING 9 0.986511
1413913359349 17934 READING 9 0.978380
1413913359350 17933 READING 9 0.978373
1413913359375 17933 READING 9 0.969540
1413913359375 17934 READING 9 0.965467
1413913359464 17934 READING 11 0.977278
1413913359481 17933 READING 11 0.982824
1413913359635 17933 READING 11 0.977084
1413913359646 17934 READING 11 0.977202
1413913359720 17934 READING 17 0.963291
1413913359771 17933 READING 17 0.963298
1413913359858 17934 READING 17 0.879855
1413913359893 17933 READING 17 0.896937
1413913360043 17934 READING 30 0.825787
1413913360055 17933 READING 30 0.833986
1413913360204 17934 READING 31 0.503919
1413913360204 17933 READING 31 0.552039
1413913360454 17934 READING 34 0.732801
1413913360535 17934 READING 47 0.695766
1413913360536 17933 READING 34 0.686289
1413913360613 17934 READING 50 0.382700
1413913360642 17933 READING 47 0.764123
1413913360847 17934 READING 51 0.533871
1413913360915 17934 READING 70 0.335975
1413913360918 17933 READING 49 0.462945
1413913360994 17934 READING 72 0.769209
1413913360994 17933 READING 65 0.793595
1413913361056 17933 READING 68 0.489853
1413913361124 17933 READING 69 0.278792
1413913361207 17934 READING 78 0.492487
1413913361325 17934 READING 97 0.765245
1413913361409 17933 READING 74 0.500929
1413913361459 17934 READING 106 0.773057
1413913361508 17933 READING 95 0.301610
1413913361558 17934 READING 106 0.780541
1413913361601 17933 READING 101 0.439222
1413913361733 17933 READING 101 0.245925
1413913362002 17934 READING 110 0.458473
1413913362043 17933 READING 103 0.477066
1413913362099 17934 READING 139 0.734450
1413913362164 17933 READING 132 0.190580
1413913362201 17934 READING 144 0.753281
1413913362251 17933 READING 137 0.753657
1413913362300 17934 READING 148 0.720621
1413913362338 17933 READING 139 0.752759
1413913362413 17934 READING 157 0.711574
1413913362425 17933 READING 143 0.746924
1413913362517 17934 READING 160 0.664808
1413913362530 17933 READING 148 0.651758
1413913362634 17933 READING 151 0.625097
1413913363074 17934 READING 164 0.398760
1413913363116 17933 READING 157 0.433389
1413913363176 17934 READING 201 0.650508
1413913363216 17933 READING 195 0.654194
1413913363301 17933 READING 200 0.664499
1413913363392 17933 READING 202 0.672364
1413913363489 17934 READING 210 0.802058
1413913363993 17933 READING 205 0.880603
1413913364129 17934 READING 214 0.871359
1413913364273 17934 READING 216 0.790191
1413913364389 17934 READING 226 0.663245
1413913364417 17933 READING 207 0.883669
1413913364681 17933 READING 215 0.838162
1413913364837 17933 READING 219 0.683995
1413913364954 17933 READING 226 0.582814
1413913365161 17934 READING 233 0.559576
1413913365437 17934 READING 275 0.656349
1413913365633 17934 READING 268 0.712842
1413913365743 17933 READING 232 0.580861
1413913365821 17934 READING 274 0.723742
1413913365849 17933 READING 270 0.504853
1413913365938 17933 READING 263 0.601320
1413913365981 17934 READING 266 0.789534
1413913366024 17933 READING 267 0.667246
1413913366169 17934 READING 270 0.772413
1413913366275 17934 READING 270 0.708351
1413913366379 17934 READING 271 0.662454
1413913366388 17933 READING 265 0.380163
1413913366541 17933 READING 308 0.580352
1413913366684 17933 READING 309 0.713345
1413913366773 17933 READING 310 0.789706
1413913366800 17934 READING 270 0.577276
1413913366837 17933 READING 306 0.806000
1413913366914 17933 READING 308 0.763553
1413913366914 17934 READING 312 0.621039
1413913366984 17933 READING 305 0.784762
1413913367050 17933 READING 307 0.825333
1413913367188 17934 READING 314 0.859551
1413913367402 17933 READING 307 0.955619
1413913367462 17934 READING 316 0.895907
1413913367553 17934 READING 316 0.880465
1413913367577 17933 READING 308 0.940978
1413913367655 17934 READING 319 0.835737
1413913367655 17933 READING 303 0.905266
1413913367728 17933 READING 306 0.888092
1413913367756 17934 READING 318 0.842361
1413913367807 17933 READING 301 0.875933
1413913367901 17933 READING 304 0.833307
1413913367937 17934 READING 320 0.872774
1413913368143 17933 READING 300 0.876400
1413913368143 17934 READING 322 0.847792
1413913368281 17934 READING 323 0.781013
1413913368329 17933 READING 302 0.898927
1413913368414 17934 READING 325 0.756088
1413913368433 17933 READING 302 0.873001
1413913368517 17934 READING 327 0.719228
1413913368525 17933 READING 303 0.759070
1413913368629 17933 READING 307 0.643905
1413913368642 17934 READING 336 0.666326
1413913368713 17933 READING 309 0.650059
1413913368758 17934 READING 338 0.722200
1413913368801 17933 READING 315 0.664951
1413913368917 17933 READING 317 0.583453
1413913369027 17933 READING 324 0.594072
1413913369224 17934 FUNCTION lru lambda h: 0.66103 * (h ** 0.0102036)
1413913369224 17933 FUNCTION lru lambda h: 0.63964 * (h ** 0.001)
1413913369225 17934 RECOMMEND 1932
1413913369225 17933 RECOMMEND 276
1413913369631 17934 READING 341 0.931169
1413913369953 17933 READING 325 0.918028
1413913371291 17933 READING 316 0.956374
1413913371434 17934 READING 343 0.976619
1413913372263 17933 READING 277 0.961795
1413913372998 17934 READING 349 0.979036
1413913373211 17933 READING 319 0.959565
1413913374288 17933 READING 280 0.970459
1413913374862 17934 READING 351 0.891624
1413913375256 17933 READING 313 0.970811
1413913375999 17933 READING 283 0.961236
1413913376113 17934 READING 396 0.975891
1413913376960 17933 READING 307 0.968679
1413913377495 17934 READING 398 0.984432
1413913377779 17933 READING 284 0.965496
1413913378600 17933 READING 303 0.964590
1413913378882 17934 READING 406 0.987389
1413913379225 17934 FUNCTION lru lambda h: 0.565802 * (h ** 0.0492981)
1413913379225 17933 FUNCTION lru lambda h: 0.529539 * (h ** 0.049418)
1413913379226 17934 RECOMMEND 1103
1413913379226 17933 RECOMMEND 1105
1413913379355 17933 READING 285 0.961223
1413913380193 17933 READING 303 0.962487
1413913380341 17934 READING 407 0.988377
1413913381154 17933 READING 303 0.958977
1413913381865 17934 READING 407 0.988434
1413913382420 17933 READING 303 0.967341
1413913383258 17934 READING 409 0.985548
1413913383299 17933 READING 304 0.967900
1413913384071 17933 READING 306 0.966652
1413913384747 17934 READING 403 0.984926
1413913384969 17933 READING 306 0.967873
1413913385805 17933 READING 308 0.966759
1413913386280 17934 READING 407 0.986166
1413913386669 17933 READING 308 0.174166
1413913388045 17934 READING 402 0.983095
1413913388142 17933 READING 309 0.916883
1413913389181 17933 READING 348 0.954057
1413913389227 17934 FUNCTION lru lambda h: 0.526271 * (h ** 0.067035)
1413913389227 17933 FUNCTION lru lambda h: 0.511849 * (h ** 0.0581249)
1413913389227 17934 RECOMMEND 1183
1413913389227 17933 RECOMMEND 1025
1413913390189 17934 READING 404 0.983142
1413913390619 17933 READING 349 0.969007
1413913390970 17934 READING 404 0.977881
1413913391075 17933 READING 350 0.967337
1413913391142 17934 READING 406 0.959327
1413913391198 17933 READING 351 0.946884
1413913391286 17934 READING 402 0.918868
1413913391296 17933 READING 353 0.905563
1413913391387 17933 READING 360 0.866879
1413913391417 17934 READING 411 0.887617
1413913391479 17933 READING 363 0.836234
1413913391584 17933 READING 370 0.784523
1413913391682 17933 READING 371 0.802752
1413913391777 17934 READING 422 0.924016
1413913392662 17933 READING 379 0.962988
1413913393446 17934 READING 426 0.970898
1413913393723 17933 READING 380 0.977920
1413913395056 17933 READING 383 0.979253
1413913395247 17934 READING 423 0.979779
1413913396753 17933 READING 385 0.981507
1413913396942 17934 READING 428 0.982478
1413913398119 17933 READING 384 0.982579
1413913398564 17934 READING 425 0.982761
1413913399228 17934 FUNCTION lru lambda h: 0.486787 * (h ** 0.0859325)
1413913399228 17933 FUNCTION lru lambda h: 0.43447 * (h ** 0.0978566)
1413913399229 17934 RECOMMEND 1032
1413913399229 17933 RECOMMEND 1176
1413913399548 17933 READING 387 0.982701
1413913400267 17934 READING 429 0.982232
1413913400794 17933 READING 386 0.980950
1413913402132 17934 READING 427 0.975788
1413913402133 17933 READING 388 0.977133
1413913403397 17933 READING 388 0.978449
1413913403868 17934 READING 429 0.979030
1413913404772 17933 READING 389 0.982214
1413913405687 17934 READING 428 0.980752
1413913406244 17933 READING 387 0.981530
1413913407518 17933 READING 389 0.978763
1413913407630 17934 READING 430 0.981729
1413913408852 17933 READING 390 0.977089
1413913409069 17934 READING 431 0.976995
1413913409229 17934 FUNCTION lru lambda h: 0.468103 * (h ** 0.0953566)
1413913409229 17933 FUNCTION lru lambda h: 0.409559 * (h ** 0.111904)
1413913409229 17934 RECOMMEND 1016
1413913409230 17933 RECOMMEND 1192
1413913410431 17933 READING 391 0.974496
1413913411059 17934 READING 432 0.984446
1413913411319 17934 READING 434 0.973193
1413913411465 17934 READING 434 0.959917
1413913411617 17934 READING 440 0.940804
1413913411672 17933 READING 389 0.975395
1413913411864 17933 READING 394 0.960991
1413913411982 17933 READING 392 0.938915
1413913412111 17933 READING 398 0.893687
1413913412233 17933 READING 405 0.866196
1413913412561 17933 READING 407 0.905911
1413913412647 17934 READING 441 0.972847
1413913414065 17933 READING 415 0.972640
1413913414614 17934 READING 449 0.985172
1413913415839 17933 READING 416 0.962692
1413913416783 17934 READING 450 0.987262
1413913417653 17933 READING 424 0.989458
1413913418971 17934 READING 454 0.988359
1413913419166 17933 READING 426 0.990272
1413913419230 17934 FUNCTION lru lambda h: 0.444216 * (h ** 0.107837)
1413913419230 17933 FUNCTION lru lambda h: 0.380167 * (h ** 0.129326)
1413913419231 17934 RECOMMEND 1004
1413913419231 17933 RECOMMEND 1204
1413913420789 17933 READING 435 0.990556
1413913421067 17934 READING 455 0.988024
1413913422624 17933 READING 436 0.990390
1413913422990 17934 READING 455 0.986879
1413913424354 17933 READING 436 0.988439
1413913425008 17934 READING 457 0.986114
1413913426069 17933 READING 438 0.986780
1413913427207 17934 READING 456 0.986734
1413913427829 17933 READING 433 0.986313
1413913429230 17934 READING 458 0.982098
1413913429231 17934 FUNCTION lru lambda h: 0.432904 * (h ** 0.113919)
1413913429231 17933 FUNCTION lru lambda h: 0.368104 * (h ** 0.1367)
1413913429232 17934 RECOMMEND 1004
1413913429232 17933 RECOMMEND 1204
1413913429457 17933 READING 436 0.984352
1413913431013 17934 READING 461 0.984805
1413913431218 17934 READING 461 0.976923
1413913431390 17934 READING 462 0.964138
1413913431580 17933 READING 435 0.987882
1413913432385 17933 READING 436 0.985980
1413913432525 17934 READING 464 0.978387
1413913432563 17933 READING 435 0.973234
1413913432718 17933 READING 435 0.948563
1413913432869 17933 READING 443 0.920112
1413913434255 17933 READING 448 0.975944
1413913434809 17934 READING 473 0.987760
1413913436321 17933 READING 453 0.984087
1413913437200 17934 READING 473 0.989590
1413913438382 17933 READING 458 0.988039
1413913439232 17934 FUNCTION lru lambda h: 0.424028 * (h ** 0.11877)
1413913439232 17933 FUNCTION lru lambda h: 0.359669 * (h ** 0.141938)
1413913439234 17934 RECOMMEND 1006
1413913439234 17933 RECOMMEND 1202
1413913439859 17934 READING 475 0.989774
1413913440404 17933 READING 455 0.986624
1413913442281 17933 READING 459 0.984287
1413913442761 17934 READING 477 0.988438
1413913444257 17933 READING 460 0.986368
1413913445097 17934 READING 475 0.988005
1413913446379 17933 READING 462 0.985385
1413913447367 17934 READING 477 0.985516
1413913448630 17933 READING 465 0.985150
1413913449234 17934 FUNCTION lru lambda h: 0.419721 * (h ** 0.121141)
1413913449234 17933 FUNCTION lru lambda h: 0.348823 * (h ** 0.148821)
1413913449235 17934 RECOMMEND 991
1413913449235 17933 RECOMMEND 1217
1413913449581 17934 READING 480 0.986079
1413913450494 17933 READING 465 0.982940
1413913451535 17934 READING 480 0.987979
1413913451761 17934 READING 484 0.979907
1413913451953 17934 READING 484 0.966594
1413913452343 17933 READING 469 0.984636
1413913452545 17933 READING 469 0.976578
1413913452716 17933 READING 471 0.962987
1413913453046 17933 READING 473 0.959425
1413913453862 17934 READING 492 0.982871
1413913455358 17933 READING 482 0.985613
1413913456550 17934 READING 493 0.990227
1413913457752 17933 READING 482 0.988632
1413913459235 17934 FUNCTION lru lambda h: 0.412388 * (h ** 0.1252)
1413913459235 17933 FUNCTION lru lambda h: 0.118233 * (h ** 0.339105)
1413913459236 17934 RECOMMEND 595
1413913459236 17933 RECOMMEND 1613
1413913459374 17934 READING 498 0.991534
1413913460152 17933 READING 485 0.988261
1413913462257 17934 READING 499 0.991177
1413913462720 17933 READING 487 0.987176
1413913464753 17934 READING 497 0.989495
1413913465156 17933 READING 486 0.987327
1413913467129 17934 READING 500 0.988824
1413913467743 17933 READING 489 0.987299
1413913469236 17934 FUNCTION lru lambda h: 0.405641 * (h ** 0.128967)
1413913469236 17933 FUNCTION lru lambda h: 0.0526739 * (h ** 0.478709)
1413913469237 17934 RECOMMEND 469
1413913469237 17933 RECOMMEND 1739
1413913469620 17934 READING 504 0.987342
1413913470124 17933 READING 490 0.986679
1413913471592 17934 READING 489 0.987723
1413913471793 17934 READING 490 0.980705
1413913471986 17934 READING 483 0.973636
1413913472703 17933 READING 491 0.989460
1413913472985 17933 READING 494 0.982406
1413913473184 17933 READING 495 0.970878
1413913474059 17933 READING 502 0.975545
1413913474449 17934 READING 483 0.987843
1413913476796 17933 READING 504 0.989586
1413913477408 17934 READING 454 0.990726
1413913479237 17934 FUNCTION lru lambda h: 0.400263 * (h ** 0.132032)
1413913479237 17933 FUNCTION lru lambda h: 0.0487235 * (h ** 0.491712)
1413913479238 17934 RECOMMEND 467
1413913479238 17933 RECOMMEND 1741
1413913479363 17933 READING 509 0.989808
1413913480155 17934 READING 484 0.991022
1413913482318 17933 READING 510 0.991755
1413913482875 17934 READING 455 0.990676
1413913485033 17933 READING 509 0.990320
1413913485166 17934 READING 479 0.989207
1413913487628 17934 READING 459 0.986948
1413913488014 17933 READING 512 0.989619
1413913489238 17934 FUNCTION lru lambda h: 0.397651 * (h ** 0.133568)
1413913489238 17933 FUNCTION lru lambda h: 0.0764686 * (h ** 0.415507)
1413913489239 17934 RECOMMEND 537
1413913489239 17933 RECOMMEND 1671
1413913489836 17934 READING 473 0.985062
1413913490605 17933 READING 515 0.988221
1413913492118 17934 READING 473 0.987806
1413913492406 17934 READING 475 0.981928
1413913492590 17934 READING 476 0.970333
1413913493165 17933 READING 515 0.989414
1413913493348 17934 READING 482 0.974387
1413913493434 17933 READING 516 0.983884
1413913493650 17933 READING 518 0.974482
1413913495637 17933 READING 525 0.986817
1413913495888 17934 READING 484 0.988685
1413913498481 17934 READING 488 0.989450
1413913498917 17933 READING 527 0.990272
1413913499239 17934 FUNCTION lru lambda h: 0.328203 * (h ** 0.167128)
1413913499239 17933 FUNCTION lru lambda h: 0.0684971 * (h ** 0.433498)
1413913499240 17934 RECOMMEND 614
1413913499240 17933 RECOMMEND 1594
1413913501510 17934 READING 489 0.990757
1413913502005 17933 READING 531 0.990955
1413913503915 17934 READING 489 0.990537
1413913505292 17933 READING 533 0.991035
1413913506401 17934 READING 491 0.988844
1413913508321 17933 READING 532 0.990003
1413913509208 17934 READING 492 0.988675
1413913509240 17934 FUNCTION lru lambda h: 0.258132 * (h ** 0.208585)
1413913509240 17933 FUNCTION lru lambda h: 0.0752515 * (h ** 0.417521)
1413913509241 17934 RECOMMEND 736
1413913509241 17933 RECOMMEND 1472
1413913511365 17933 READING 535 0.990264
1413913511974 17934 READING 493 0.991092
1413913512795 17934 READING 495 0.987112
1413913512996 17934 READING 496 0.977538
1413913513871 17934 READING 500 0.980210
1413913514155 17933 READING 538 0.991275
1413913514431 17933 READING 539 0.985760
1413913514657 17933 READING 539 0.980309
1413913516711 17934 READING 502 0.989368
1413913517202 17933 READING 541 0.989355
1413913519241 17934 FUNCTION lru lambda h: 0.161685 * (h ** 0.288504)
1413913519241 17933 FUNCTION lru lambda h: 0.0512209 * (h ** 0.480598)
1413913519242 17934 RECOMMEND 828
1413913519242 17933 RECOMMEND 1380
1413913519510 17934 READING 506 0.991295
1413913520252 17933 READING 547 0.990504
1413913522473 17934 READING 507 0.991243
1413913523483 17933 READING 548 0.990733
1413913525343 17934 READING 506 0.990634
1413913526648 17933 READING 547 0.990478
1413913528211 17934 READING 508 0.988737
1413913529242 17934 FUNCTION lru lambda h: 0.119451 * (h ** 0.339722)
1413913529242 17933 FUNCTION lru lambda h: 0.070335 * (h ** 0.428028)
1413913529243 17934 RECOMMEND 977
1413913529243 17933 RECOMMEND 1231
1413913529740 17933 READING 550 0.989310
1413913530821 17934 READING 510 0.987814
1413913532931 17933 READING 554 0.991147
1413913533015 17934 READING 511 0.989456
1413913533264 17934 READING 513 0.982514
1413913533478 17934 READING 514 0.975431
1413913533751 17933 READING 554 0.988279
1413913533996 17933 READING 554 0.982695
1413913536210 17933 READING 557 0.987726
1413913536403 17934 READING 523 0.989461
1413913539244 17934 FUNCTION lru lambda h: 0.0923385 * (h ** 0.382541)
1413913539244 17933 FUNCTION lru lambda h: 0.121228 * (h ** 0.338497)
1413913539244 17934 RECOMMEND 1171
1413913539244 17933 RECOMMEND 1037
1413913539484 17934 READING 523 0.991977
1413913539769 17933 READING 564 0.991140
1413913542836 17934 READING 524 0.984094
1413913543405 17933 READING 565 0.992630
1413913545924 17934 READING 542 0.994096
1413913546915 17933 READING 565 0.991791
1413913548872 17934 READING 543 0.993743
1413913549245 17934 FUNCTION lru lambda h: 0.0745244 * (h ** 0.417835)
1413913549245 17933 FUNCTION lru lambda h: 0.205817 * (h ** 0.25185)
1413913549245 17934 RECOMMEND 1378
1413913549245 17933 RECOMMEND 830
1413913550151 17933 READING 567 0.989937
1413913551573 17934 READING 545 0.992444
1413913553536 17934 READING 546 0.990251
1413913553770 17934 READING 548 0.981822
1413913553907 17933 READING 571 0.991905
1413913554282 17933 READING 571 0.987014
1413913554540 17933 READING 572 0.982619
1413913555158 17934 READING 553 0.985782
1413913558014 17933 READING 574 0.989562
1413913558482 17934 READING 557 0.990289
1413913559246 17934 FUNCTION lru lambda h: 0.0647315 * (h ** 0.440536)
1413913559246 17933 FUNCTION lru lambda h: 0.221869 * (h ** 0.239334)
1413913559246 17934 RECOMMEND 1431
1413913559246 17933 RECOMMEND 777
1413913561568 17933 READING 579 0.992591
1413913561976 17934 READING 556 0.991420
1413913565352 17934 READING 559 0.988930
1413913565353 17933 READING 581 0.990133
1413913568392 17934 READING 563 0.989024
1413913568896 17933 READING 580 0.990291
1413913569247 17934 FUNCTION lru lambda h: 0.0506892 * (h ** 0.480086)
1413913569247 17933 FUNCTION lru lambda h: 0.367431 * (h ** 0.15787)
1413913569247 17934 RECOMMEND 1662
1413913569247 17933 RECOMMEND 546
1413913571451 17934 READING 564 0.988275
1413913572287 17933 READING 583 0.989681
1413913573701 17934 READING 568 0.988434
1413913573947 17934 READING 571 0.980998
1413913574551 17933 READING 567 0.989364
1413913574810 17933 READING 564 0.983484
1413913575241 17934 READING 576 0.982703
1413913576238 17933 READING 559 0.983911
1413913578725 17934 READING 579 0.989579
1413913579247 17934 FUNCTION lru lambda h: 0.0731462 * (h ** 0.419603)
1413913579248 17933 FUNCTION lru lambda h: 0.363158 * (h ** 0.159658)
1413913579249 17934 RECOMMEND 1599
1413913579249 17933 RECOMMEND 609
1413913579525 17933 READING 529 0.989271
1413913582120 17934 READING 579 0.990618
1413913582578 17933 READING 560 0.990409
1413913585498 17934 READING 583 0.990607
1413913585964 17933 READING 559 0.990625
1413913588954 17934 READING 583 0.991040
1413913589014 17933 READING 558 0.989977
1413913589249 17934 FUNCTION lru lambda h: 0.0793613 * (h ** 0.406219)
1413913589249 17933 FUNCTION lru lambda h: 0.315184 * (h ** 0.182528)
1413913589250 17934 RECOMMEND 1523
1413913589250 17933 RECOMMEND 685
1413913592174 17933 READING 561 0.990059
1413913592343 17934 READING 585 0.988914
1413913593937 17934 READING 588 0.987704
1413913594106 17933 READING 564 0.989020
1413913594197 17934 READING 590 0.980624
1413913594357 17933 READING 565 0.984106
1413913595938 17933 READING 569 0.986324
1413913597204 17934 READING 595 0.989082
1413913599250 17934 FUNCTION lru lambda h: 0.15537 * (h ** 0.29698)
1413913599250 17933 FUNCTION lru lambda h: 0.284678 * (h ** 0.19887)
1413913599251 17934 RECOMMEND 1322
1413913599251 17933 RECOMMEND 886
1413913599327 17933 READING 571 0.990685
1413913600743 17934 READING 596 0.990795
1413913603090 17933 READING 573 0.991614
1413913604533 17934 READING 601 0.991003
1413913606362 17933 READING 575 0.988610
1413913608084 17934 READING 603 0.991939
1413913609251 17934 FUNCTION lru lambda h: 0.166668 * (h ** 0.285314)
1413913609251 17933 FUNCTION lru lambda h: 0.26979 * (h ** 0.207466)
1413913609252 17934 RECOMMEND 1278
1413913609252 17933 RECOMMEND 930
1413913610203 17933 READING 575 0.990066
1413913611788 17934 READING 603 0.991320
1413913613798 17933 READING 577 0.992159
1413913614031 17934 READING 605 0.990224
1413913614312 17934 READING 609 0.982553
1413913614663 17933 READING 579 0.988895
1413913614936 17933 READING 580 0.979613
1413913617266 17934 READING 610 0.990300
1413913618244 17933 READING 585 0.989601
1413913619252 17934 FUNCTION lru lambda h: 0.188514 * (h ** 0.265145)
1413913619252 17933 FUNCTION lru lambda h: 0.234104 * (h ** 0.230215)
1413913619253 17934 RECOMMEND 1182
1413913619253 17933 RECOMMEND 1026
1413913621074 17934 READING 619 0.992216
1413913621893 17933 READING 587 0.991254
1413913624938 17934 READING 621 0.992373
1413913625412 17933 READING 590 0.990110
1413913628720 17934 READING 623 0.992215
1413913628934 17933 READING 592 0.991591
1413913629253 17934 FUNCTION lru lambda h: 0.338782 * (h ** 0.170847)
1413913629253 17933 FUNCTION lru lambda h: 0.35787 * (h ** 0.161823)
1413913629254 17934 RECOMMEND 1134
1413913629254 17933 RECOMMEND 1074
1413913632673 17933 READING 592 0.985526
1413913632690 17934 READING 625 0.988017
1413913634268 17934 READING 628 0.986660
1413913634535 17934 DEATH 187
1413913634760 17933 READING 594 0.986995
1413913635033 17933 READING 599 0.983068
1413913635135 17933 DEATH 215
