1413585305733 0 TOTAL_MEM 7284
1413585325772 31785 CREATION
1413585325772 31785 READING 9 0.990718
1413585325772 31785 MINHEAP 2
1413585325772 31785 MINHEAP 3
1413585325781 31784 CREATION
1413585325781 31784 READING 9 0.991788
1413585325781 31784 MINHEAP 2
1413585325781 31784 MINHEAP 1211
1413585325812 31785 READING 9 0.972558
1413585325833 31784 READING 9 0.980420
1413585325836 31785 READING 9 0.957801
1413585325859 31785 READING 9 0.960414
1413585325861 31784 READING 9 0.956068
1413585325883 31784 READING 9 0.946983
1413585325928 31785 READING 11 0.973651
1413585325981 31784 READING 11 0.986543
1413585326095 31785 READING 11 0.986148
1413585326104 31784 READING 11 0.976511
1413585326235 31784 READING 17 0.904079
1413585326320 31785 READING 16 0.986995
1413585326399 31784 READING 17 0.434310
1413585326407 31785 READING 16 0.907920
1413585326547 31784 READING 30 0.897252
1413585326667 31785 READING 24 0.991524
1413585326793 31784 READING 31 0.885613
1413585326815 31785 READING 24 0.991011
1413585327007 31785 READING 33 0.993765
1413585327094 31784 READING 34 0.327854
1413585327182 31785 READING 33 0.992729
1413585327227 31784 READING 46 0.903024
1413585327375 31784 READING 48 0.908029
1413585327416 31785 READING 48 0.994441
1413585327669 31785 READING 48 0.995262
1413585327686 31784 READING 49 0.287877
1413585327778 31784 READING 66 0.804696
1413585327869 31784 READING 69 0.823559
1413585327897 31785 READING 71 0.993614
1413585328127 31785 READING 71 0.993836
1413585328211 31784 READING 71 0.339214
1413585328327 31785 READING 67 0.992806
1413585328360 31784 READING 90 0.924680
1413585328469 31784 READING 94 0.875735
1413585328544 31785 READING 64 0.991861
1413585328557 31784 READING 95 0.744104
1413585328725 31785 READING 62 0.992874
1413585328907 31785 READING 61 0.992373
1413585328953 31784 READING 97 0.140836
1413585329053 31785 READING 57 0.993812
1413585329061 31784 READING 123 0.776267
1413585329209 31784 READING 129 0.816998
1413585329211 31785 READING 55 0.991741
1413585329292 31784 READING 130 0.685988
1413585329339 31785 READING 53 0.992332
1413585329425 31784 READING 134 0.681329
1413585329442 31785 READING 51 0.990531
1413585329526 31784 READING 139 0.578164
1413585329544 31785 READING 49 0.991603
1413585329645 31784 READING 142 0.556628
1413585329675 31785 READING 48 0.993972
1413585329814 31785 READING 46 0.992827
1413585329929 31785 READING 46 0.991937
1413585330078 31785 READING 43 0.988950
1413585330105 31784 READING 148 0.170049
1413585330148 31785 READING 42 0.985723
1413585330237 31784 READING 180 0.433862
1413585330273 31785 READING 40 0.989130
1413585330374 31785 READING 39 0.991185
1413585330472 31785 READING 37 0.991941
1413585330556 31785 READING 37 0.990923
1413585330657 31785 READING 35 0.990644
1413585330725 31785 READING 35 0.987931
1413585330732 31784 READING 184 0.129182
1413585330763 31785 READING 33 0.973465
1413585330831 31785 READING 41 0.983475
1413585330856 31784 READING 219 0.597766
1413585330951 31785 READING 48 0.988690
1413585330977 31784 READING 220 0.601702
1413585331085 31784 READING 220 0.785931
1413585331105 31785 READING 60 0.994403
1413585331206 31784 READING 221 0.669419
1413585331260 31785 READING 72 0.994712
1413585331334 31784 READING 223 0.677423
1413585331375 31785 READING 69 0.993875
1413585331457 31784 READING 227 0.588482
1413585331473 31785 READING 67 0.990135
1413585331592 31784 READING 231 0.584201
1413585331621 31785 READING 64 0.993375
1413585331754 31784 READING 238 0.569140
1413585331777 31785 READING 62 0.993036
1413585331851 31785 READING 60 0.989580
1413585331921 31784 READING 242 0.636097
1413585331957 31785 READING 57 0.992202
1413585332063 31784 READING 252 0.430298
1413585332063 31785 READING 55 0.993264
1413585332162 31785 READING 53 0.987885
1413585332190 31784 READING 257 0.386284
1413585332228 31785 READING 51 0.987581
1413585332306 31785 READING 49 0.983090
1413585332321 31784 READING 264 0.431186
1413585332372 31785 READING 58 0.987012
1413585332486 31785 READING 69 0.992325
1413585332652 31785 READING 82 0.994066
1413585332790 31785 READING 79 0.993078
1413585332910 31785 READING 76 0.993154
1413585333051 31785 READING 72 0.990844
1413585333137 31784 READING 271 0.064712
1413585333148 31785 READING 70 0.991576
1413585333253 31784 READING 320 0.386949
1413585333263 31785 READING 67 0.992874
1413585333355 31785 READING 64 0.990172
1413585333492 31785 READING 61 0.992338
1413585333592 31785 READING 59 0.987572
1413585333755 31785 READING 57 0.992209
1413585333826 31784 READING 312 0.101720
1413585333835 31785 READING 55 0.983591
1413585333934 31784 READING 307 0.579155
1413585333939 31785 READING 64 0.991752
1413585334012 31784 READING 362 0.695069
1413585334018 31785 READING 62 0.989914
1413585334081 31785 READING 60 0.983223
1413585334111 31784 READING 304 0.657873
1413585334199 31785 READING 70 0.735521
1413585334213 31784 READING 355 0.613365
1413585334307 31785 READING 82 0.985970
1413585334341 31784 READING 359 0.518843
1413585334433 31785 READING 88 0.985951
1413585334453 31784 READING 360 0.631285
1413585334555 31785 READING 94 0.976159
1413585334581 31784 READING 360 0.560929
1413585334677 31785 READING 94 0.985563
1413585334725 31784 READING 362 0.419158
1413585334809 31785 READING 108 0.989030
1413585334873 31784 READING 367 0.506287
1413585334955 31785 READING 108 0.985860
1413585334980 31784 READING 371 0.550900
1413585335119 31785 READING 125 0.986792
1413585335137 31784 READING 377 0.450816
1413585335261 31784 READING 381 0.468917
1413585335287 31785 READING 125 0.993127
1413585335381 31784 READING 386 0.471930
1413585335491 31785 READING 143 0.991318
1413585335734 31785 FUNCTION lru lambda h: 0.961741 * (h ** 0.00580769)
1413585335734 31784 FUNCTION lru lambda h: 1.34244 * (h ** 0.001)
1413585335734 31785 RECOMMEND 3642
1413585335734 31784 RECOMMEND 3642
1413585335807 31785 READING 143 0.995256
1413585336128 31785 READING 163 0.995183
1413585336276 31784 READING 391 0.069112
1413585336433 31785 READING 164 0.993547
1413585336457 31784 READING 446 0.308429
1413585336613 31784 READING 440 0.454611
1413585336670 31785 READING 184 0.994970
1413585336762 31784 READING 445 0.420309
1413585336903 31785 READING 184 0.993905
1413585337202 31785 READING 175 0.994757
1413585337403 31785 READING 168 0.991954
1413585337663 31784 READING 438 0.091101
1413585337703 31785 READING 160 0.996356
1413585337837 31784 READING 499 0.394036
1413585337916 31785 READING 153 0.994139
1413585337997 31784 READING 497 0.520820
1413585338150 31784 READING 499 0.572365
1413585338167 31785 READING 146 0.995050
1413585338321 31784 READING 497 0.526319
1413585338330 31785 READING 140 0.994195
1413585338489 31784 READING 499 0.565043
1413585338499 31785 READING 133 0.993624
1413585338651 31785 READING 127 0.989604
1413585338926 31785 READING 122 0.994592
1413585339139 31785 READING 116 0.992487
1413585339334 31785 READING 111 0.992216
1413585339484 31785 READING 106 0.993080
1413585339539 31784 READING 494 0.090072
1413585339621 31785 READING 102 0.992575
1413585339749 31784 READING 558 0.475979
1413585339771 31785 READING 97 0.994244
1413585339917 31785 READING 93 0.992015
1413585339953 31784 READING 556 0.563933
1413585340044 31785 READING 89 0.993373
1413585340117 31784 READING 559 0.675698
1413585340167 31785 READING 86 0.993348
1413585340257 31785 READING 82 0.987806
1413585340321 31784 READING 558 0.573592
1413585340362 31785 READING 93 0.988273
1413585340482 31785 READING 105 0.991334
1413585340530 31784 READING 565 0.543538
1413585340615 31785 READING 119 0.992384
1413585340733 31784 READING 573 0.505313
1413585340781 31785 READING 135 0.994207
1413585340914 31784 READING 580 0.521232
1413585340978 31785 READING 152 0.993406
1413585341098 31784 READING 586 0.514015
1413585341183 31785 READING 171 0.994710
1413585341281 31784 READING 596 0.519655
1413585341396 31785 READING 164 0.993475
1413585341573 31785 READING 156 0.993645
1413585341786 31785 READING 148 0.992967
1413585342081 31785 READING 143 0.994477
1413585342380 31785 READING 136 0.995146
1413585342495 31784 READING 602 0.067155
1413585342542 31785 READING 130 0.991692
1413585342708 31785 READING 124 0.991850
1413585342877 31785 READING 140 0.993142
1413585343090 31785 READING 134 0.992051
1413585343109 31784 READING 673 0.722114
1413585343269 31785 READING 151 0.994894
1413585343426 31785 READING 143 0.992237
1413585343580 31785 READING 138 0.992517
1413585343614 31784 READING 681 0.795964
1413585343751 31785 READING 154 0.993917
1413585343912 31785 READING 147 0.993650
1413585344076 31785 READING 141 0.991600
1413585344125 31784 READING 684 0.783944
1413585344295 31785 READING 159 0.995204
1413585344923 31785 READING 151 0.996704
1413585344953 31784 READING 683 0.842835
1413585345144 31785 READING 145 0.988282
1413585345190 31784 READING 696 0.522901
1413585345389 31784 READING 702 0.306527
1413585345437 31785 READING 163 0.996055
1413585345603 31784 READING 713 0.436265
1413585345665 31785 READING 156 0.993793
1413585345734 31785 FUNCTION lru lambda h: 0.954573 * (h ** 0.007931)
1413585345734 31784 FUNCTION lru lambda h: 1.20681 * (h ** 0.001)
1413585345734 31785 RECOMMEND 3642
1413585345734 31784 RECOMMEND 3642
1413585345945 31785 READING 148 0.999993
1413585345945 31785 READING 148 1.000000
1413585345954 31785 READING 148 0.872177
1413585346198 31785 READING 142 0.994069
1413585346434 31785 READING 135 0.993998
1413585346673 31785 READING 129 0.993917
1413585346862 31785 READING 124 0.993087
1413585347058 31785 READING 118 0.992454
1413585347249 31785 READING 113 0.992757
1413585347398 31785 READING 108 0.990364
1413585347564 31785 READING 122 0.993618
1413585347615 31784 READING 721 0.020540
1413585347738 31785 READING 137 0.993026
1413585347780 31784 READING 710 0.162005
1413585347874 31784 READING 782 0.310144
1413585347928 31785 READING 131 0.992614
1413585348245 31785 READING 147 0.996059
1413585348444 31785 READING 141 0.992467
1413585348744 31785 READING 135 0.853839
1413585348880 31784 READING 787 0.028928
1413585348933 31785 READING 128 0.990634
1413585349025 31784 READING 872 0.226367
1413585349096 31785 READING 124 0.989826
1413585349109 31784 READING 872 0.393437
1413585349233 31784 READING 877 0.630465
1413585349260 31785 READING 139 0.992041
1413585349444 31785 READING 158 0.994702
1413585349608 31785 READING 151 0.993767
1413585349680 31784 READING 877 0.919124
1413585349793 31784 READING 868 0.541595
1413585349794 31785 READING 144 0.992964
1413585349897 31784 READING 737 0.500691
1413585349949 31785 READING 138 0.993410
1413585349993 31784 READING 869 0.603260
1413585350081 31784 READING 871 0.659458
1413585350106 31785 READING 132 0.994070
1413585350239 31785 READING 126 0.991203
1413585350370 31785 READING 120 0.981952
1413585350373 31784 READING 875 0.941310
1413585350499 31784 READING 875 0.832397
1413585350523 31785 READING 137 0.993125
1413585350691 31785 READING 157 0.994052
1413585350746 31784 READING 871 0.926855
1413585350837 31784 READING 704 0.717172
1413585350902 31785 READING 178 0.994912
1413585351098 31785 READING 181 0.993556
1413585351136 31784 READING 863 0.922241
1413585351288 31785 READING 173 0.991635
1413585351290 31784 READING 713 0.832567
1413585351499 31785 READING 195 0.993773
1413585351510 31784 READING 851 0.885159
1413585351700 31785 READING 186 0.994134
1413585351874 31784 READING 722 0.867107
1413585351895 31785 READING 178 0.994208
1413585352065 31784 READING 847 0.713152
1413585352080 31785 READING 169 0.992607
1413585352253 31784 READING 851 0.733698
1413585352258 31785 READING 162 0.994520
1413585352427 31785 READING 154 0.990763
1413585352696 31785 READING 147 0.995829
1413585352874 31785 READING 141 0.992175
1413585353074 31785 READING 135 0.995269
1413585353231 31785 READING 129 0.989810
1413585353399 31785 READING 123 0.991542
1413585353647 31785 READING 139 0.993953
1413585353784 31784 READING 843 0.094381
1413585353794 31785 READING 133 0.992855
1413585353929 31785 READING 127 0.992837
1413585354096 31784 READING 846 0.463853
1413585354154 31785 READING 122 0.995765
1413585354279 31785 READING 116 0.989384
1413585354285 31784 READING 923 0.810939
1413585354397 31785 READING 111 0.992045
1413585354505 31784 READING 927 0.695886
1413585354539 31785 READING 126 0.993067
1413585354667 31785 READING 120 0.992119
1413585354751 31784 READING 920 0.671408
1413585354794 31785 READING 115 0.992187
1413585354910 31785 READING 110 0.991376
1413585354976 31784 READING 924 0.734446
1413585355056 31785 READING 124 0.993067
1413585355195 31785 READING 119 0.992720
1413585355214 31784 READING 917 0.742180
1413585355349 31785 READING 134 0.992880
1413585355465 31784 READING 922 0.704126
1413585355487 31785 READING 129 0.993368
1413585355616 31785 READING 123 0.991935
1413585355693 31784 READING 916 0.836494
1413585355734 31785 FUNCTION lru lambda h: 0.958586 * (h ** 0.00679893)
1413585355734 31784 FUNCTION lru lambda h: 0.932351 * (h ** 0.001)
1413585355734 31785 RECOMMEND 3642
1413585355734 31784 RECOMMEND 3642
1413585355743 31785 READING 118 0.992305
1413585355883 31785 READING 132 0.993115
1413585356018 31785 READING 126 0.992742
1413585356147 31785 READING 121 0.992483
1413585356270 31785 READING 116 0.991990
1413585356386 31785 READING 111 0.991941
1413585356498 31785 READING 106 0.992034
1413585356626 31785 READING 120 0.991673
1413585356713 31784 READING 921 0.957787
1413585356776 31785 READING 136 0.992694
1413585356942 31785 READING 154 0.993800
1413585357097 31785 READING 147 0.994198
1413585357247 31785 READING 139 0.994120
1413585357389 31785 READING 134 0.993257
1413585357525 31785 READING 128 0.991185
1413585357684 31785 READING 122 0.988415
1413585357846 31785 READING 139 0.984459
1413585357863 31784 READING 920 0.939052
1413585358033 31785 READING 159 0.989097
1413585358064 31784 READING 922 0.743649
1413585358249 31785 READING 182 0.991316
1413585358266 31784 READING 946 0.761511
1413585358453 31785 READING 184 0.990093
1413585358471 31784 READING 947 0.748618
1413585358690 31785 READING 208 0.992498
1413585358693 31784 READING 954 0.761477
1413585358915 31784 READING 955 0.745442
1413585358920 31785 READING 208 0.993734
1413585359149 31784 READING 961 0.758510
1413585359181 31785 READING 237 0.993513
1413585359389 31784 READING 962 0.754129
1413585359443 31785 READING 238 0.994608
1413585359639 31784 READING 968 0.774339
1413585359741 31785 READING 270 0.994272
1413585360084 31785 READING 257 0.995293
1413585360102 31784 READING 969 0.916295
1413585360367 31785 READING 244 0.995235
1413585360528 31784 READING 967 0.846453
1413585360628 31785 READING 233 0.982207
1413585360781 31784 READING 973 0.818931
1413585360949 31785 READING 266 0.995300
1413585361375 31785 READING 267 0.995762
1413585361809 31785 READING 254 0.995452
1413585362176 31785 READING 242 0.996231
1413585362435 31785 READING 230 0.992962
1413585362771 31785 READING 220 0.996452
1413585362823 31784 READING 976 0.093487
1413585363017 31785 READING 210 0.992900
1413585363107 31784 READING 1082 0.480739
1413585363260 31785 READING 200 0.992413
1413585363289 31784 READING 1115 0.787052
1413585363476 31785 READING 191 0.992100
1413585363497 31784 READING 1116 0.697240
1413585363685 31785 READING 183 0.991817
1413585363707 31784 READING 1128 0.755252
1413585363886 31785 READING 174 0.989934
1413585363913 31784 READING 1127 0.751548
1413585364118 31785 READING 198 0.992042
1413585364143 31784 READING 1134 0.727214
1413585364385 31784 READING 1137 0.707978
1413585364397 31785 READING 224 0.995217
1413585364650 31785 READING 214 0.994818
1413585364657 31784 READING 1140 0.699285
1413585364873 31785 READING 204 0.990725
1413585364926 31784 READING 1145 0.713530
1413585365117 31785 READING 194 0.992753
1413585365337 31785 READING 185 0.992205
1413585365652 31785 READING 210 0.994323
1413585365734 31785 FUNCTION lru lambda h: 0.936443 * (h ** 0.0112263)
1413585365734 31784 FUNCTION lru lambda h: 0.0789601 * (h ** 0.281692)
1413585365734 31785 RECOMMEND 3642
1413585365734 31784 RECOMMEND 3642
1413585365925 31785 READING 200 0.993539
1413585366227 31785 READING 191 0.995680
1413585366451 31785 READING 183 0.993340
1413585366667 31785 READING 174 0.994211
1413585366853 31785 READING 166 0.992888
1413585367051 31785 READING 159 0.991404
1413585367235 31785 READING 151 0.991037
1413585367428 31785 READING 172 0.993529
1413585367639 31785 READING 163 0.989689
1413585367647 31784 READING 1149 0.976183
1413585367854 31785 READING 185 0.994169
1413585368091 31785 READING 210 0.994669
1413585368331 31785 READING 201 0.910356
1413585368565 31785 READING 190 0.994889
1413585368766 31785 READING 182 0.981547
1413585368995 31785 READING 210 0.993603
1413585369278 31785 READING 241 0.930705
1413585369561 31784 READING 1154 0.951776
1413585369574 31785 READING 233 0.994726
1413585370026 31785 READING 257 0.995883
1413585370532 31785 READING 280 0.995832
1413585370849 31785 READING 291 0.993153
1413585371179 31785 READING 305 0.993894
1413585371510 31785 READING 305 0.994065
1413585371645 31784 READING 1160 0.937759
1413585371903 31785 READING 332 0.995893
1413585372264 31785 READING 332 0.995040
1413585372660 31785 READING 360 0.995413
1413585373059 31785 READING 360 0.994516
1413585373501 31785 READING 390 0.995598
1413585373643 31784 READING 1163 0.946570
1413585373980 31785 READING 390 0.995812
1413585374445 31785 READING 420 0.995485
1413585374918 31785 READING 421 0.995441
1413585375417 31785 READING 454 0.995643
1413585375734 31785 FUNCTION lru lambda h: 0.985702 * (h ** 0.001)
1413585375735 31784 FUNCTION lru lambda h: 0.0457719 * (h ** 0.368705)
1413585375735 31785 RECOMMEND 3642
1413585375735 31784 RECOMMEND 3642
1413585375767 31784 READING 1175 0.944192
1413585375958 31785 READING 454 0.995758
1413585376501 31785 READING 489 0.995546
1413585377041 31785 READING 489 0.995653
1413585377625 31785 READING 527 0.995940
1413585377857 31784 READING 1179 0.955456
1413585378265 31785 READING 527 0.995935
1413585378887 31785 READING 566 0.995739
1413585379510 31785 READING 566 0.995089
1413585380131 31784 READING 1195 0.934813
1413585380187 31785 READING 609 0.995952
1413585380861 31785 READING 609 0.994988
1413585381595 31785 READING 655 0.995501
1413585382309 31784 READING 1196 0.950983
1413585382365 31785 READING 655 0.995712
1413585383156 31785 READING 706 0.995335
1413585383938 31785 READING 706 0.995163
1413585384590 31784 READING 1204 0.943736
1413585384804 31785 READING 761 0.995504
1413585385653 31785 READING 761 0.995815
1413585385735 31785 FUNCTION lru lambda h: 0.975947 * (h ** 0.00288446)
1413585385735 31784 FUNCTION lru lambda h: 0.0195583 * (h ** 0.499985)
1413585385735 31785 RECOMMEND 3642
1413585385735 31784 RECOMMEND 3642
1413585386569 31785 READING 820 0.995339
1413585386842 31784 READING 1207 0.941751
1413585387499 31785 READING 821 0.995802
1413585388483 31785 READING 884 0.995819
1413585389182 31784 READING 1216 0.945352
1413585389496 31785 READING 884 0.995816
1413585390562 31785 READING 952 0.995965
1413585391451 31784 READING 1220 0.954727
1413585391935 31785 READING 952 0.996436
1413585393692 31784 READING 1229 0.953032
1413585394553 31785 READING 1021 0.998181
1413585395700 31785 READING 1023 0.995896
1413585395735 31785 FUNCTION lru lambda h: 0.973575 * (h ** 0.00331164)
1413585395735 31784 FUNCTION lru lambda h: 0.00565504 * (h ** 0.686886)
1413585395735 31785 RECOMMEND 3642
1413585395735 31784 RECOMMEND 3642
1413585396035 31784 READING 1234 0.946335
1413585396950 31785 READING 1091 0.995722
1413585398176 31785 READING 1091 0.995411
1413585398446 31784 READING 1242 0.942104
1413585399492 31785 READING 1169 0.996102
1413585400812 31785 READING 1169 0.994971
1413585400831 31784 READING 1248 0.940666
1413585402214 31785 READING 1253 0.996090
1413585403285 31784 READING 1257 0.945918
1413585403645 31785 READING 1254 0.995928
1413585405148 31785 READING 1348 0.995918
1413585405712 31784 READING 1262 0.951360
1413585405735 31785 FUNCTION lru lambda h: 0.977257 * (h ** 0.0026977)
1413585405735 31784 FUNCTION lru lambda h: 0.00398179 * (h ** 0.740939)
1413585405735 31785 RECOMMEND 3642
1413585405735 31784 RECOMMEND 3642
1413585406702 31785 READING 1348 0.996065
1413585408196 31784 READING 1271 0.948504
1413585408363 31785 READING 1448 0.996101
1413585409993 31785 READING 1448 0.996026
1413585412294 31785 READING 1554 0.996506
1413585412776 31784 READING 1275 0.526327
1413585414191 31785 READING 1555 0.996090
1413585415222 31784 READING 1355 0.986217
1413585415735 31785 FUNCTION lru lambda h: 0.977172 * (h ** 0.00270033)
1413585415735 31784 FUNCTION lru lambda h: 0.00304767 * (h ** 0.779958)
1413585415735 31785 RECOMMEND 3642
1413585415735 31784 RECOMMEND 3642
1413585416063 31785 READING 1667 0.995927
1413585417695 31784 READING 1357 0.981180
1413585417911 31785 READING 1667 0.995605
1413585419913 31785 READING 1789 0.995964
1413585420186 31784 READING 1370 0.976786
1413585421901 31785 READING 1789 0.995737
1413585422848 31784 READING 1373 0.974024
1413585424061 31785 READING 1921 0.996083
1413585425469 31784 READING 1372 0.977246
1413585425736 31785 FUNCTION lru lambda h: 0.977168 * (h ** 0.00267991)
1413585425736 31784 FUNCTION lru lambda h: 0.001 * (h ** 0.970496)
1413585425736 31785 RECOMMEND 3642
1413585425736 31784 RECOMMEND 3642
1413585426236 31785 READING 1922 0.995782
1413585428252 31784 READING 1375 0.966160
1413585428537 31785 READING 2064 0.996064
1413585430932 31784 READING 1362 0.966626
1413585430939 31785 READING 2064 0.995303
1413585433421 31785 READING 2218 0.995842
1413585433703 31784 READING 1273 0.957413
1413585435736 31785 FUNCTION lru lambda h: 0.977429 * (h ** 0.00261206)
1413585435736 31784 FUNCTION lru lambda h: 0.001 * (h ** 0.999)
1413585435736 31785 RECOMMEND 3642
1413585435736 31784 RECOMMEND 3642
1413585435897 31785 READING 2218 0.995763
1413585436497 31784 READING 1355 0.964064
1413585438591 31785 READING 2386 0.995993
1413585439366 31784 READING 1361 0.960455
1413585441284 31785 READING 2387 0.995843
1413585442313 31784 READING 1365 0.953794
1413585444008 31785 READING 2426 0.995882
1413585445199 31784 READING 1366 0.954584
1413585445736 31785 FUNCTION lru lambda h: 0.977556 * (h ** 0.00256389)
1413585445736 31784 FUNCTION lru lambda h: 0.001 * (h ** 0.999)
1413585445736 31785 RECOMMEND 3642
1413585445736 31784 RECOMMEND 3642
1413585446747 31785 READING 2426 0.996224
1413585448138 31784 READING 1372 0.955938
1413585449501 31785 READING 2426 0.996275
1413585451128 31784 READING 1378 0.953521
1413585452250 31785 READING 2423 0.996213
1413585454085 31784 READING 1385 0.947472
1413585454980 31785 READING 2426 0.996232
1413585455736 31785 FUNCTION lru lambda h: 0.977532 * (h ** 0.00256305)
1413585455736 31784 FUNCTION lru lambda h: 0.001 * (h ** 0.999)
1413585455736 31785 RECOMMEND 3642
1413585455736 31784 RECOMMEND 3642
1413585457088 31784 READING 1394 0.943187
1413585457722 31785 READING 2426 0.996319
1413585460133 31784 READING 1406 0.940184
1413585460703 31785 READING 2426 0.996604
1413585463191 31784 READING 1414 0.936386
1413585463416 31785 READING 2422 0.996280
1413585465736 31785 FUNCTION lru lambda h: 0.977385 * (h ** 0.00258046)
1413585465737 31784 FUNCTION lru lambda h: 0.001 * (h ** 0.999)
1413585465737 31785 RECOMMEND 3642
1413585465737 31784 RECOMMEND 3642
1413585466118 31785 READING 2425 0.996431
1413585468824 31785 READING 2425 0.996246
1413585471523 31785 READING 2426 0.996135
1413585474234 31785 READING 2426 0.996242
1413585475737 31785 FUNCTION lru lambda h: 0.977359 * (h ** 0.00257942)
1413585475737 31784 FUNCTION lru lambda h: 0.001 * (h ** 0.999)
1413585475737 31785 RECOMMEND 3642
1413585475737 31784 RECOMMEND 3642
1413585476942 31785 READING 2426 0.996279
1413585478949 31784 READING 1425 0.985986
1413585479688 31785 READING 2426 0.996208
1413585482407 31785 READING 2425 0.996133
1413585485126 31785 READING 2426 0.996206
1413585485737 31785 FUNCTION lru lambda h: 0.977374 * (h ** 0.00257658)
1413585485737 31784 FUNCTION lru lambda h: 0.001 * (h ** 0.999)
1413585485737 31785 RECOMMEND 3642
1413585485737 31784 RECOMMEND 3642
1413585487819 31785 READING 2427 0.996101
1413585490695 31785 READING 2305 0.988641
1413585493117 31785 READING 2190 0.996072
1413585495510 31785 READING 2088 0.989450
1413585495557 31784 READING 1430 0.990094
1413585495737 31785 FUNCTION lru lambda h: 0.980449 * (h ** 0.00205935)
1413585495737 31784 FUNCTION lru lambda h: 0.001 * (h ** 0.999)
1413585495737 31785 RECOMMEND 3642
1413585495737 31784 RECOMMEND 3642
1413585498079 31785 READING 2302 0.996124
1413585500760 31785 READING 2416 0.995817
1413585502376 31784 READING 1434 0.974849
1413585503193 31784 READING 1455 0.747712
1413585503371 31785 READING 2295 0.996381
1413585503622 31784 READING 1447 0.623571
1413585504053 31784 READING 1491 0.571021
1413585505575 31784 READING 1519 0.162952
1413585505737 31785 FUNCTION lru lambda h: 0.980029 * (h ** 0.00211995)
1413585505737 31784 FUNCTION lru lambda h: 0.001 * (h ** 0.999)
1413585505737 31785 RECOMMEND 3642
1413585505737 31784 RECOMMEND 3642
1413585505829 31784 READING 1632 0.978891
1413585506099 31784 READING 1666 0.988714
1413585506270 31785 READING 2182 0.989642
1413585506559 31784 READING 1677 0.970486
1413585508635 31785 READING 2070 0.996193
1413585509440 31784 READING 1701 0.987940
1413585510833 31785 READING 1972 0.996067
1413585512316 31784 READING 1704 0.981483
1413585512921 31785 READING 1875 0.996044
1413585514893 31785 READING 1782 0.996098
1413585515282 31784 READING 1693 0.979343
1413585515738 31785 FUNCTION lru lambda h: 0.979409 * (h ** 0.00219313)
1413585515738 31784 FUNCTION lru lambda h: 0.001 * (h ** 0.999)
1413585515738 31785 RECOMMEND 3642
1413585515738 31784 RECOMMEND 3642
1413585516793 31785 READING 1694 0.996298
1413585518346 31784 READING 1706 0.974274
1413585518575 31785 READING 1612 0.996026
1413585520288 31785 READING 1532 0.996010
1413585521585 31784 READING 1673 0.971913
1413585521900 31785 READING 1457 0.995648
1413585523432 31785 READING 1386 0.995891
1413585524779 31784 READING 1398 0.967684
1413585524892 31785 READING 1318 0.995956
1413585525738 31785 FUNCTION lru lambda h: 0.977805 * (h ** 0.00243671)
1413585525738 31784 FUNCTION lru lambda h: 0.001 * (h ** 0.999)
1413585525738 31785 RECOMMEND 3642
1413585525738 31784 RECOMMEND 3642
1413585526289 31785 READING 1254 0.995921
1413585527599 31785 READING 1193 0.995921
1413585528102 31784 READING 1647 0.968896
1413585528872 31785 READING 1134 0.995909
1413585530054 31785 READING 1079 0.995793
1413585531184 31785 READING 1026 0.995879
1413585531485 31784 READING 1431 0.964537
1413585532272 31785 READING 977 0.995901
1413585533291 31785 READING 929 0.995586
1413585534258 31785 READING 884 0.995750
1413585534939 31784 READING 1621 0.960907
1413585535198 31785 READING 841 0.995801
1413585535738 31785 FUNCTION lru lambda h: 0.975706 * (h ** 0.00275682)
1413585535738 31784 FUNCTION lru lambda h: 0.00156061 * (h ** 0.876344)
1413585535738 31785 RECOMMEND 3642
1413585535738 31784 RECOMMEND 3642
1413585536080 31785 READING 801 0.995443
1413585536914 31785 READING 762 0.995393
1413585537706 31785 READING 726 0.995551
1413585538422 31784 READING 1463 0.956096
1413585538472 31785 READING 691 0.996175
1413585539186 31785 READING 658 0.995385
1413585539868 31785 READING 626 0.995258
1413585540515 31785 READING 596 0.995386
1413585541130 31785 READING 567 0.995349
1413585541715 31785 READING 540 0.995271
1413585541993 31784 READING 1616 0.962362
1413585542299 31785 READING 514 0.995308
1413585542828 31785 READING 490 0.994761
1413585543332 31785 READING 467 0.994803
1413585543809 31785 READING 445 0.994848
1413585544261 31785 READING 424 0.995044
1413585544699 31785 READING 405 0.994963
1413585545109 31785 READING 385 0.994667
1413585545511 31785 READING 367 0.992409
1413585545621 31784 READING 1626 0.961722
1413585545738 31785 FUNCTION lru lambda h: 0.969902 * (h ** 0.00361718)
1413585545738 31784 FUNCTION lru lambda h: 0.0143714 * (h ** 0.567852)
1413585545738 31785 RECOMMEND 3642
1413585545738 31784 RECOMMEND 3642
1413585545966 31785 READING 350 0.995405
1413585546322 31785 READING 335 0.994338
1413585546659 31785 READING 319 0.994122
1413585546980 31785 READING 305 0.993663
1413585547285 31785 READING 291 0.993190
1413585547574 31785 READING 277 0.993693
1413585547852 31785 READING 265 0.994384
1413585548115 31785 READING 252 0.993984
1413585548368 31785 READING 241 0.993803
1413585548607 31785 READING 231 0.993905
1413585548833 31785 READING 221 0.993284
1413585549050 31785 READING 211 0.993001
1413585549260 31785 READING 202 0.993165
1413585549365 31784 READING 1628 0.952978
1413585549473 31785 READING 194 0.993370
1413585549664 31785 READING 185 0.994126
1413585549903 31785 READING 177 0.994558
1413585550074 31785 READING 170 0.992136
1413585550237 31785 READING 163 0.992614
1413585550420 31785 READING 180 0.992990
1413585550624 31785 READING 199 0.993259
1413585550820 31785 READING 191 0.992495
1413585551037 31785 READING 212 0.993559
1413585551281 31785 READING 235 0.994228
1413585551515 31785 READING 225 0.994368
1413585551737 31785 READING 215 0.994198
1413585551946 31785 READING 205 0.993412
1413585552147 31785 READING 196 0.993728
1413585552337 31785 READING 188 0.993989
1413585552520 31785 READING 180 0.993732
1413585552694 31785 READING 172 0.993237
1413585552859 31785 READING 165 0.993197
1413585553059 31784 READING 1631 0.961290
1413585553072 31785 READING 158 0.994836
1413585553229 31785 READING 152 0.992615
1413585553373 31785 READING 146 0.992489
1413585553511 31785 READING 139 0.992243
1413585553665 31785 READING 154 0.993290
1413585553837 31785 READING 171 0.993893
1413585554000 31785 READING 164 0.992166
1413585554187 31785 READING 181 0.992811
1413585554393 31785 READING 201 0.993705
1413585554624 31785 READING 223 0.994164
1413585554844 31785 READING 214 0.994486
1413585555054 31785 READING 204 0.993724
1413585555252 31785 READING 195 0.993958
1413585555441 31785 READING 187 0.993139
1413585555621 31785 READING 179 0.994030
1413585555738 31785 FUNCTION lru lambda h: 0.987383 * (h ** 0.0010967)
1413585555738 31784 FUNCTION lru lambda h: 0.0148808 * (h ** 0.563032)
1413585555739 31785 RECOMMEND 3642
1413585555739 31784 RECOMMEND 3642
1413585555792 31785 READING 171 0.991667
1413585555993 31785 READING 189 0.993773
1413585556209 31785 READING 210 0.993958
1413585556451 31785 READING 233 0.994188
1413585556700 31785 READING 223 0.993281
1413585556899 31784 READING 1642 0.948826
1413585556984 31785 READING 248 0.993896
1413585557275 31785 READING 275 0.994355
1413585557549 31785 READING 263 0.994070
1413585557812 31785 READING 251 0.993846
1413585558060 31785 READING 240 0.994464
1413585558296 31785 READING 230 0.992973
1413585558522 31785 READING 220 0.993612
1413585558738 31785 READING 210 0.993536
1413585558943 31785 READING 201 0.993968
1413585559140 31785 READING 193 0.993429
1413585559325 31785 READING 184 0.993074
1413585559535 31785 READING 205 0.993137
1413585559769 31785 READING 226 0.993940
1413585559992 31785 READING 217 0.994134
1413585560203 31785 READING 207 0.993420
1413585560405 31785 READING 198 0.993022
1413585560635 31784 READING 1646 0.949766
1413585560666 31785 READING 220 0.995322
1413585560883 31785 READING 210 0.994062
1413585561092 31785 READING 201 0.994132
1413585561290 31785 READING 193 0.993545
1413585561477 31785 READING 185 0.993963
1413585561657 31785 READING 177 0.992770
1413585561826 31785 READING 169 0.993679
1413585561988 31785 READING 162 0.993014
1413585562169 31785 READING 179 0.993373
1413585562371 31785 READING 198 0.993105
1413585562599 31785 READING 221 0.993986
1413585562855 31785 READING 245 0.993894
1413585563097 31785 READING 234 0.994020
1413585563328 31785 READING 223 0.994476
1413585563546 31785 READING 214 0.994175
1413585563754 31785 READING 204 0.993754
1413585563953 31785 READING 195 0.993534
1413585564142 31785 READING 186 0.993589
1413585564324 31785 READING 178 0.992367
1413585564494 31784 READING 1662 0.944669
1413585564554 31785 READING 198 0.994004
1413585564747 31785 READING 190 0.993996
1413585564932 31785 READING 181 0.993460
1413585565139 31785 READING 201 0.993725
1413585565369 31785 READING 223 0.993341
1413585565627 31785 READING 248 0.995138
1413585565739 31785 FUNCTION lru lambda h: 0.984865 * (h ** 0.00158164)
1413585565739 31784 FUNCTION lru lambda h: 0.0162482 * (h ** 0.550627)
1413585565739 31785 RECOMMEND 3642
1413585565739 31784 RECOMMEND 3642
1413585565871 31785 READING 236 0.994463
1413585566103 31785 READING 226 0.994562
1413585566326 31785 READING 216 0.994111
1413585566548 31785 READING 207 0.993468
1413585566749 31785 READING 198 0.993317
1413585566954 31785 READING 189 0.931030
1413585567138 31785 READING 171 0.993406
1413585567312 31785 READING 164 0.991928
1413585567515 31785 READING 156 0.992957
1413585567826 31785 READING 150 0.994351
1413585568119 31785 READING 143 0.996323
1413585568319 31784 READING 1667 0.959650
1413585568423 31785 READING 137 0.996197
1413585568569 31785 READING 131 0.991142
1413585568701 31785 READING 126 0.991838
1413585568825 31785 READING 120 0.992083
1413585568949 31785 READING 115 0.992077
1413585569064 31785 READING 110 0.990484
1413585569194 31785 READING 124 0.992981
1413585569343 31785 READING 140 0.993165
1413585569485 31785 READING 134 0.992897
1413585569619 31785 READING 128 0.993088
1413585569746 31785 READING 122 0.991866
1413585569871 31785 READING 118 0.991986
1413585569987 31785 READING 113 0.993131
1413585570099 31785 READING 107 0.992385
1413585570206 31785 READING 104 0.991036
1413585570327 31785 READING 117 0.992291
1413585570467 31785 READING 132 0.990967
1413585570626 31785 READING 149 0.992153
1413585570807 31785 READING 170 0.994005
1413585570980 31785 READING 162 0.993463
1413585571145 31785 READING 155 0.993538
1413585571303 31785 READING 148 0.993439
1413585571452 31785 READING 142 0.993766
1413585571596 31785 READING 135 0.993195
1413585571732 31785 READING 129 0.992790
1413585571861 31785 READING 124 0.992796
1413585571993 31785 READING 118 0.992419
1413585572115 31785 READING 113 0.990876
1413585572238 31785 READING 109 0.957851
1413585572386 31784 READING 1684 0.960193
1413585572446 31785 READING 126 0.995192
1413585572601 31785 READING 145 0.993060
1413585572778 31785 READING 166 0.994203
1413585572982 31785 READING 190 0.994080
1413585573218 31785 READING 218 0.994119
1413585573486 31785 READING 248 0.995984
1413585573740 31785 READING 235 0.994688
1413585573985 31785 READING 225 0.994068
1413585574217 31785 READING 215 0.993469
1413585574437 31785 READING 205 0.994331
1413585574647 31785 READING 195 0.993919
1413585574848 31785 READING 186 0.994395
1413585575157 31785 READING 178 0.995546
1413585575339 31785 READING 170 0.993910
1413585575513 31785 READING 162 0.993107
1413585575718 31785 READING 155 0.994856
1413585575896 31785 FUNCTION lru lambda h: 0.976399 * (h ** 0.00313917)
1413585575896 31784 FUNCTION lru lambda h: 0.0130327 * (h ** 0.581123)
1413585575896 31785 RECOMMEND 3642
1413585575896 31784 RECOMMEND 3642
1413585575962 31785 READING 148 0.995269
1413585576111 31785 READING 142 0.992847
1413585576264 31785 READING 135 0.989595
1413585576396 31784 READING 1687 0.951224
1413585576440 31785 READING 129 0.994835
1413585576570 31785 READING 124 0.992128
1413585576694 31785 READING 118 0.991022
1413585576816 31785 READING 113 0.991202
1413585576952 31785 READING 129 0.991532
1413585577115 31785 READING 145 0.993663
1413585577262 31785 READING 139 0.992922
1413585577403 31785 READING 133 0.991403
1413585577563 31785 READING 150 0.993957
1413585577716 31785 READING 144 0.992186
1413585577861 31785 READING 138 0.993105
1413585577999 31785 READING 133 0.992893
1413585578132 31785 READING 128 0.993309
1413585578257 31785 READING 122 0.991899
1413585578377 31785 READING 117 0.990779
1413585578515 31785 READING 132 0.992274
1413585578671 31785 READING 150 0.993509
1413585578821 31785 READING 143 0.993007
1413585578963 31785 READING 137 0.992350
1413585579102 31785 READING 131 0.992649
1413585579250 31785 READING 125 0.991423
1413585579398 31785 READING 142 0.988921
1413585579568 31785 READING 161 0.993489
1413585579760 31785 READING 181 0.994140
1413585579979 31785 READING 206 0.994024
1413585580190 31785 READING 197 0.993607
1413585580431 31785 READING 188 0.827280
1413585580533 31784 READING 1703 0.953943
1413585580716 31785 READING 210 0.994768
1413585580932 31785 READING 202 0.994119
1413585581137 31785 READING 193 0.993489
1413585581332 31785 READING 184 0.993641
1413585581518 31785 READING 175 0.993216
1413585581694 31785 READING 169 0.993669
1413585581863 31785 READING 160 0.992755
1413585582024 31785 READING 154 0.993488
1413585582178 31785 READING 147 0.991028
1413585582324 31785 READING 140 0.993142
1413585582464 31785 READING 135 0.992278
1413585582597 31785 READING 129 0.991539
1413585582749 31785 READING 146 0.992368
1413585582894 31785 READING 140 0.992160
1413585583061 31785 READING 158 0.993212
1413585583219 31785 READING 151 0.992025
1413585583400 31785 READING 171 0.992973
1413585583572 31785 READING 163 0.993124
1413585583736 31785 READING 155 0.993246
1413585583892 31785 READING 149 0.992007
1413585584041 31785 READING 142 0.991627
1413585584211 31785 READING 161 0.993404
1413585584373 31785 READING 154 0.993218
1413585584527 31785 READING 147 0.992421
1413585584713 31785 READING 141 0.993515
1413585584758 31784 READING 1705 0.954649
1413585584881 31785 READING 135 0.994273
1413585585016 31785 READING 129 0.992795
1413585585145 31785 READING 124 0.991488
1413585585267 31785 READING 119 0.991714
1413585585383 31785 READING 114 0.991211
1413585585516 31785 READING 129 0.991829
1413585585669 31785 READING 146 0.993399
1413585585814 31785 READING 139 0.992469
1413585585896 31785 FUNCTION lru lambda h: 0.974078 * (h ** 0.00349696)
1413585585896 31784 FUNCTION lru lambda h: 0.00740907 * (h ** 0.659033)
1413585585896 31785 RECOMMEND 3642
1413585585896 31784 RECOMMEND 3642
1413585585953 31785 READING 134 0.991983
1413585586111 31785 READING 151 0.992451
1413585586291 31785 READING 171 0.992978
1413585586462 31785 READING 163 0.992071
1413585586657 31785 READING 185 0.993663
1413585586844 31785 READING 176 0.993175
1413585587022 31785 READING 169 0.993278
1413585587191 31785 READING 161 0.993024
1413585587354 31785 READING 154 0.993005
1413585587508 31785 READING 147 0.992403
1413585587655 31785 READING 141 0.992162
1413585587798 31785 READING 135 0.992528
1413585587933 31785 READING 130 0.992306
1413585588060 31785 READING 124 0.992212
1413585588182 31785 READING 119 0.992412
1413585588298 31785 READING 114 0.991142
1413585588430 31785 READING 129 0.992600
1413585588583 31785 READING 146 0.990648
1413585588757 31785 READING 166 0.992752
1413585588979 31785 READING 187 0.990765
1413585589100 31784 READING 1722 0.952625
1413585589292 31785 READING 213 0.996190
1413585589510 31785 READING 203 0.993435
1413585589718 31785 READING 195 0.994205
1413585589915 31785 READING 186 0.993901
1413585590104 31785 READING 178 0.993715
1413585590305 31785 READING 169 0.991098
1413585590476 31785 READING 162 0.991245
1413585590672 31785 READING 183 0.993966
1413585590859 31785 READING 176 0.992944
1413585591035 31785 READING 167 0.993191
1413585591205 31785 READING 160 0.993064
1413585591365 31785 READING 153 0.993191
1413585591519 31785 READING 147 0.994202
1413585591665 31785 READING 139 0.992946
1413585591804 31785 READING 134 0.991780
1413585591938 31785 READING 129 0.991766
1413585592065 31785 READING 123 0.992029
1413585592186 31785 READING 118 0.991766
1413585592325 31785 READING 133 0.991243
1413585592483 31785 READING 150 0.991306
1413585592664 31785 READING 171 0.993715
1413585592871 31785 READING 193 0.993242
1413585593066 31785 READING 185 0.993459
1413585593255 31785 READING 176 0.991569
1413585593470 31784 READING 1723 0.945963
1413585593497 31785 READING 200 0.938773
1413585593705 31785 READING 190 0.993790
1413585593900 31785 READING 182 0.993868
1413585594083 31785 READING 173 0.992492
1413585594260 31785 READING 166 0.993083
1413585594428 31785 READING 158 0.992594
1413585594588 31785 READING 152 0.992274
1413585594741 31785 READING 145 0.991818
1413585594887 31785 READING 139 0.992757
1413585595025 31785 READING 132 0.992230
1413585595157 31785 READING 127 0.992272
1413585595284 31785 READING 121 0.991679
1413585595405 31785 READING 116 0.990697
1413585595520 31785 READING 111 0.991861
1413585595629 31785 READING 107 0.990696
1413585595758 31785 READING 122 0.991904
1413585595896 31785 FUNCTION lru lambda h: 0.989613 * (h ** 0.001)
1413585595896 31784 FUNCTION lru lambda h: 0.00606541 * (h ** 0.686328)
1413585595896 31785 RECOMMEND 3642
1413585595896 31784 RECOMMEND 3642
1413585595905 31785 READING 139 0.992876
1413585596044 31785 READING 133 0.993314
1413585596178 31785 READING 127 0.992581
1413585596304 31785 READING 122 0.992087
1413585596427 31785 READING 117 0.990334
1413585596543 31785 READING 112 0.992061
1413585596654 31785 READING 107 0.990213
1413585596781 31785 READING 122 0.992419
1413585596927 31785 READING 139 0.991446
1413585597096 31785 READING 159 0.992806
1413585597258 31785 READING 152 0.992629
1413585597411 31785 READING 145 0.993190
1413585597564 31785 READING 139 0.993209
1413585597704 31785 READING 133 0.992297
1413585597841 31785 READING 127 0.990766
1413585597975 31785 READING 122 0.991947
1413585598030 31784 READING 1740 0.947798
1413585598099 31785 READING 117 0.993121
1413585598215 31785 READING 112 0.992140
1413585598326 31785 READING 107 0.992119
1413585598433 31785 READING 103 0.991241
1413585598533 31785 READING 99 0.991170
1413585598630 31785 READING 95 0.991080
1413585598723 31785 READING 91 0.990464
1413585598830 31785 READING 103 0.991138
1413585598952 31785 READING 118 0.992517
1413585599069 31785 READING 113 0.991945
1413585599181 31785 READING 108 0.990360
1413585599310 31785 READING 123 0.992484
1413585599434 31785 READING 118 0.991257
1413585599575 31785 READING 135 0.993039
1413585599710 31785 READING 129 0.992286
1413585599838 31785 READING 123 0.992234
1413585599961 31785 READING 118 0.991183
1413585600079 31785 READING 113 0.991746
1413585600192 31785 READING 109 0.990544
1413585600320 31785 READING 124 0.992469
1413585600444 31785 READING 119 0.991629
1413585600561 31785 READING 114 0.991438
1413585600675 31785 READING 109 0.991712
1413585600783 31785 READING 105 0.990572
1413585600907 31785 READING 119 0.992122
1413585601069 31785 READING 136 0.990865
1413585601235 31785 READING 156 0.991001
1413585601423 31785 READING 177 0.993625
1413585601646 31785 READING 204 0.994882
1413585601860 31785 READING 195 0.994393
1413585602059 31785 READING 186 0.995338
1413585602247 31785 READING 176 0.993481
1413585602438 31785 READING 169 0.990613
1413585602694 31785 READING 162 0.995341
1413585602994 31785 READING 155 0.996794
1413585603214 31785 READING 147 0.995318
1413585603491 31785 READING 141 0.994045
1413585603799 31785 READING 135 0.994801
1413585603997 31784 READING 1741 0.724276
1413585604024 31785 READING 129 0.995879
1413585604153 31785 READING 123 0.992430
1413585604277 31785 READING 118 0.992142
1413585604394 31785 READING 113 0.990895
1413585604506 31785 READING 109 0.989110
1413585604614 31785 READING 104 0.990649
1413585604715 31785 READING 100 0.990930
1413585604833 31785 READING 113 0.990892
1413585604970 31785 READING 129 0.991420
1413585605125 31785 READING 147 0.992882
1413585605276 31785 READING 141 0.992925
1413585605418 31785 READING 135 0.991156
1413585605552 31785 READING 129 0.993083
1413585605680 31785 READING 123 0.992319
1413585605803 31785 READING 119 0.990641
1413585605896 31785 FUNCTION lru lambda h: 1.00954 * (h ** 0.001)
1413585605896 31784 FUNCTION lru lambda h: 0.0386299 * (h ** 0.430461)
1413585605896 31785 RECOMMEND 3642
1413585605896 31784 RECOMMEND 3642
1413585605920 31785 READING 113 0.991477
1413585606058 31785 READING 129 0.992869
1413585606187 31785 READING 124 0.992411
1413585606311 31785 READING 119 0.991551
1413585606429 31785 READING 114 0.989915
1413585606564 31785 READING 130 0.992104
1413585606720 31785 READING 148 0.993668
1413585606870 31785 READING 141 0.992763
1413585607011 31785 READING 135 0.992756
1413585607146 31785 READING 129 0.990781
1413585607275 31785 READING 124 0.991626
1413585607397 31785 READING 119 0.991248
1413585607516 31785 READING 114 0.990853
1413585607652 31785 READING 130 0.991962
1413585607809 31785 READING 148 0.993566
1413585607958 31785 READING 141 0.993524
1413585608100 31785 READING 136 0.992313
1413585608235 31785 READING 129 0.992876
1413585608364 31785 READING 124 0.992503
1413585608494 31785 READING 119 0.953194
1413585608521 31784 READING 1833 0.990266
1413585608652 31785 READING 138 0.993569
1413585608822 31785 READING 161 0.993999
1413585609021 31785 READING 186 0.993872
1413585609255 31785 READING 215 0.994650
1413585609523 31785 READING 247 0.995051
1413585609832 31785 READING 283 0.994480
1413585610123 31785 READING 270 0.995007
1413585610470 31785 READING 258 0.995456
1413585611454 31785 READING 246 0.998619
1413585611708 31785 READING 235 0.994838
1413585611949 31785 READING 224 0.993674
1413585612180 31785 READING 214 0.993731
1413585612398 31785 READING 205 0.993164
1413585612606 31785 READING 196 0.993967
1413585612801 31785 READING 187 0.993160
1413585612987 31785 READING 178 0.993303
1413585613184 31785 READING 170 0.992187
1413585613356 31785 READING 163 0.989925
1413585613519 31785 READING 156 0.992229
1413585613674 31785 READING 150 0.992014
1413585613821 31785 READING 143 0.991825
1413585613962 31785 READING 137 0.992595
1413585614096 31785 READING 131 0.992080
1413585614223 31785 READING 125 0.991299
1413585614349 31785 READING 120 0.990198
1413585614489 31785 READING 137 0.992191
1413585614624 31785 READING 131 0.991906
1413585614750 31785 READING 126 0.991824
1413585614872 31785 READING 121 0.991276
1413585614988 31785 READING 115 0.991614
1413585615122 31785 READING 131 0.991986
1413585615276 31785 READING 150 0.992628
1413585615424 31785 READING 143 0.991607
1413585615565 31785 READING 137 0.992271
1413585615699 31785 READING 131 0.991009
1413585615855 31785 READING 149 0.991882
1413585615897 31785 FUNCTION lru lambda h: 0.988203 * (h ** 0.001)
1413585615897 31784 FUNCTION lru lambda h: 0.0360124 * (h ** 0.440108)
1413585615897 31785 RECOMMEND 3642
1413585615897 31784 RECOMMEND 3642
1413585616036 31785 READING 170 0.992238
1413585616204 31785 READING 163 0.993333
1413585616364 31785 READING 155 0.992392
1413585616518 31785 READING 149 0.992086
1413585616665 31785 READING 142 0.992231
1413585616805 31785 READING 137 0.992674
1413585616937 31785 READING 130 0.991607
1413585617064 31785 READING 125 0.992086
1413585617186 31785 READING 120 0.991296
1413585617302 31785 READING 115 0.989922
1413585617435 31785 READING 131 0.992453
1413585617588 31785 READING 149 0.992666
1413585617735 31785 READING 143 0.991232
1413585617908 31785 READING 163 0.994009
1413585618068 31785 READING 156 0.992456
1413585618222 31785 READING 150 0.992748
1413585618367 31785 READING 143 0.992601
1413585618507 31785 READING 138 0.992615
1413585618641 31785 READING 131 0.990845
1413585618770 31785 READING 126 0.991371
1413585618891 31785 READING 121 0.990828
1413585619032 31785 READING 137 0.992555
1413585619164 31785 READING 132 0.991311
1413585619333 31785 READING 150 0.908612
1413585619508 31785 READING 167 0.993014
1413585619676 31785 READING 160 0.991240
1413585619834 31785 READING 153 0.990882
1413585620039 31785 READING 147 0.995034
1413585620318 31785 READING 139 0.996177
1413585620583 31785 READING 134 0.995404
1413585621058 31785 READING 128 0.997511
1413585621185 31785 READING 123 0.990741
1413585621305 31785 READING 118 0.991091
1413585621421 31785 READING 113 0.991205
1413585621531 31785 READING 108 0.991251
1413585621636 31785 READING 104 0.990815
1413585621738 31785 READING 100 0.989201
1413585621833 31785 READING 96 0.999989
1413585621833 31785 READING 96 1.000000
1413585621834 31785 READING 96 0.064464
1413585621946 31785 READING 110 0.991095
1413585622077 31785 READING 127 0.990812
1413585622228 31785 READING 146 0.991778
1413585622405 31785 READING 168 0.993070
1413585622572 31785 READING 160 0.993210
1413585622733 31785 READING 154 0.993479
1413585622885 31785 READING 147 0.992757
1413585623031 31785 READING 141 0.993345
1413585623170 31785 READING 134 0.992368
1413585623303 31785 READING 129 0.990742
1413585623430 31785 READING 124 0.991072
1413585623552 31785 READING 119 0.992090
1413585623668 31785 READING 113 0.991753
1413585623779 31785 READING 109 0.990647
1413585623885 31785 READING 104 0.990325
1413585624009 31785 READING 120 0.990604
1413585624154 31785 READING 138 0.992041
1413585624290 31785 READING 132 0.990997
1413585624448 31785 READING 151 0.993050
1413585624631 31785 READING 145 0.915553
1413585624775 31785 READING 138 0.992659
1413585624915 31785 READING 132 0.971251
1413585625077 31785 READING 153 0.991783
1413585625264 31785 READING 178 0.993789
1413585625484 31785 READING 205 0.994215
1413585625739 31785 READING 237 0.994751
1413585625897 31785 FUNCTION lru lambda h: 0.783904 * (h ** 0.0455176)
1413585625897 31784 FUNCTION lru lambda h: 0.0360124 * (h ** 0.440108)
1413585625897 31785 RECOMMEND 3642
1413585625897 31784 RECOMMEND 3642
1413585625982 31785 READING 225 0.993997
1413585626212 31785 READING 215 0.994194
1413585626430 31785 READING 205 0.993606
1413585626638 31785 READING 196 0.993172
1413585626836 31785 READING 187 0.993467
1413585627024 31785 READING 178 0.993578
1413585627204 31785 READING 170 0.991951
1413585627376 31785 READING 163 0.993730
1413585627541 31785 READING 155 0.993542
1413585627696 31785 READING 149 0.992662
1413585627846 31785 READING 142 0.992436
1413585627988 31785 READING 136 0.992433
1413585628122 31785 READING 129 0.991927
1413585628252 31785 READING 125 0.991758
1413585628375 31785 READING 119 0.991649
1413585628491 31785 READING 114 0.990118
1413585628643 31785 READING 109 0.986004
1413585628741 31784 READING 1833 0.991969
1413585628819 31785 READING 126 0.994532
1413585628969 31785 READING 144 0.992307
1413585629113 31785 READING 138 0.992671
1413585629250 31785 READING 132 0.991999
1413585629382 31785 READING 126 0.992476
1413585629507 31785 READING 121 0.992240
1413585629627 31785 READING 116 0.992335
1413585629741 31785 READING 111 0.990404
1413585629851 31785 READING 106 0.990500
1413585629955 31785 READING 102 0.991214
1413585630056 31785 READING 98 0.991637
1413585630151 31785 READING 94 0.989900
1413585630261 31785 READING 107 0.991195
1413585630389 31785 READING 123 0.991931
1413585630510 31785 READING 118 0.991509
1413585630626 31785 READING 113 0.991479
1413585630738 31785 READING 108 0.991270
1413585630843 31785 READING 104 0.990902
1413585630945 31785 READING 100 0.990410
1413585631063 31785 READING 114 0.991111
1413585631200 31785 READING 131 0.992386
1413585631330 31785 READING 125 0.992148
1413585631454 31785 READING 120 0.992005
1413585631572 31785 READING 115 0.991887
1413585631685 31785 READING 110 0.990921
1413585631793 31785 READING 105 0.990942
1413585631895 31785 READING 101 0.990369
1413585632015 31785 READING 115 0.992175
1413585632130 31785 READING 110 0.991391
1413585632238 31785 READING 106 0.989463
1413585632364 31785 READING 121 0.991436
1413585632511 31785 READING 139 0.992460
1413585632650 31785 READING 134 0.992102
1413585632782 31785 READING 128 0.991962
1413585632909 31785 READING 122 0.990813
1413585633031 31785 READING 117 0.991403
1413585633146 31785 READING 112 0.990280
1413585633281 31785 READING 129 0.992153
1413585633409 31785 READING 123 0.991283
1413585633531 31785 READING 118 0.991443
1413585633647 31785 READING 113 0.991235
1413585633760 31785 READING 109 0.991399
1413585633866 31785 READING 104 0.990469
1413585633990 31785 READING 119 0.992010
1413585634108 31785 READING 114 0.989850
1413585634244 31785 READING 131 0.990814
1413585634402 31785 READING 150 0.993391
1413585634553 31785 READING 144 0.992527
1413585634699 31785 READING 138 0.992536
1413585634840 31785 READING 132 0.992229
1413585634970 31785 READING 127 0.991297
1413585635096 31785 READING 121 0.991768
1413585635215 31785 READING 116 0.990868
1413585635243 31785 DEATH 898
1413585635897 31784 FUNCTION lru lambda h: 0.0359944 * (h ** 0.440179)
1413585635897 31784 RECOMMEND 7284
1413585645897 31784 FUNCTION lru lambda h: 0.0359944 * (h ** 0.440179)
1413585645897 31784 RECOMMEND 7284
1413585646806 31784 READING 1832 0.995954
1413585647666 31784 READING 1848 0.901075
1413585648159 31784 READING 1834 0.847927
1413585648674 31784 READING 1851 0.836641
1413585649193 31784 READING 1886 0.890266
1413585649228 31784 DEATH 221
