2014-08-22 09:09:57    DacapoIterationTimer: Initialising...
2014-08-22 09:09:57    DacapoIterationTimer: Initialised
2014-08-22 09:09:57    DacapoIterationTimer: 
2014-08-22 09:09:57    DacapoIterationTimer: 
2014-08-22 09:09:57    DacapoIterationTimer: Started sub-experiments
2014-08-22 09:09:57    DacapoIterationTimer: 
2014-08-22 09:09:57    DacapoIterationTimer: Running sub-experiment 1 of 9...
2014-08-22 09:09:57    timeDacapoUnconstrained: Initialising...
2014-08-22 09:09:57    timeDacapoUnconstrained: Using Java version: Hotspot8
2014-08-22 09:09:57    timeDacapoUnconstrained: Initialised
2014-08-22 09:09:57    timeDacapoUnconstrained: 
2014-08-22 09:09:57    timeDacapoUnconstrained: Running benchmarks:
2014-08-22 09:09:57    timeDacapoUnconstrained:     avrora, large, 1, 20
2014-08-22 09:09:57    timeDacapoUnconstrained: With max heap: 16004 MB
2014-08-22 09:09:57    timeDacapoUnconstrained: 
2014-08-22 09:09:57    timeDacapoUnconstrained: Started main process runs
2014-08-22 09:09:57    timeDacapoUnconstrained: 
2014-08-22 09:09:57    timeDacapoUnconstrained: Run 1 of 5: started
2014-08-22 09:09:57    timeDacapoUnconstrained: Running main processes...
2014-08-22 09:18:38    timeDacapoUnconstrained: Main processes completed in 521.623721s
2014-08-22 09:18:38    timeDacapoUnconstrained: Run 1 of 5: completed with main runtime of 521.623721s
2014-08-22 09:18:38    timeDacapoUnconstrained: 
2014-08-22 09:18:38    timeDacapoUnconstrained: Run 2 of 5: started
2014-08-22 09:18:38    timeDacapoUnconstrained: Running main processes...
2014-08-22 09:27:08    timeDacapoUnconstrained: Main processes completed in 509.489445s
2014-08-22 09:27:08    timeDacapoUnconstrained: Run 2 of 5: completed with main runtime of 509.489445s
2014-08-22 09:27:08    timeDacapoUnconstrained: 
2014-08-22 09:27:08    timeDacapoUnconstrained: Run 3 of 5: started
2014-08-22 09:27:08    timeDacapoUnconstrained: Running main processes...
2014-08-22 09:35:34    timeDacapoUnconstrained: Main processes completed in 506.063841s
2014-08-22 09:35:34    timeDacapoUnconstrained: Run 3 of 5: completed with main runtime of 506.063841s
2014-08-22 09:35:34    timeDacapoUnconstrained: 
2014-08-22 09:35:34    timeDacapoUnconstrained: Run 4 of 5: started
2014-08-22 09:35:34    timeDacapoUnconstrained: Running main processes...
2014-08-22 09:44:03    timeDacapoUnconstrained: Main processes completed in 509.02124s
2014-08-22 09:44:03    timeDacapoUnconstrained: Run 4 of 5: completed with main runtime of 509.02124s
2014-08-22 09:44:03    timeDacapoUnconstrained: 
2014-08-22 09:44:03    timeDacapoUnconstrained: Run 5 of 5: started
2014-08-22 09:44:03    timeDacapoUnconstrained: Running main processes...
2014-08-22 09:52:42    timeDacapoUnconstrained: Main processes completed in 518.535872s
2014-08-22 09:52:42    timeDacapoUnconstrained: Run 5 of 5: completed with main runtime of 518.535872s
2014-08-22 09:52:42    timeDacapoUnconstrained: 
2014-08-22 09:52:42    timeDacapoUnconstrained: Completed main process runs; average runtime 512.9468238000001s
2014-08-22 09:52:42    timeDacapoUnconstrained: 
2014-08-22 09:52:42    timeDacapoUnconstrained: Cleaning up...
2014-08-22 09:52:42    timeDacapoUnconstrained: Cleaned up
2014-08-22 09:52:42    timeDacapoUnconstrained: 
2014-08-22 09:52:42    timeDacapoUnconstrained: Completed in total time 2564.907276s
2014-08-22 09:52:42    DacapoIterationTimer: Sub-experiment 1 of 9 completed in 2564.907628s
2014-08-22 09:52:42    DacapoIterationTimer: 
2014-08-22 09:52:42    DacapoIterationTimer: Running sub-experiment 2 of 9...
2014-08-22 09:52:42    timeDacapoUnconstrained: Initialising...
2014-08-22 09:52:42    timeDacapoUnconstrained: Using Java version: Hotspot8
2014-08-22 09:52:42    timeDacapoUnconstrained: Initialised
2014-08-22 09:52:42    timeDacapoUnconstrained: 
2014-08-22 09:52:42    timeDacapoUnconstrained: Running benchmarks:
2014-08-22 09:52:42    timeDacapoUnconstrained:     h2, large, 4, 20
2014-08-22 09:52:42    timeDacapoUnconstrained: With max heap: 16004 MB
2014-08-22 09:52:42    timeDacapoUnconstrained: 
2014-08-22 09:52:42    timeDacapoUnconstrained: Started main process runs
2014-08-22 09:52:42    timeDacapoUnconstrained: 
2014-08-22 09:52:42    timeDacapoUnconstrained: Run 1 of 5: started
2014-08-22 09:52:42    timeDacapoUnconstrained: Running main processes...
2014-08-22 10:01:38    timeDacapoUnconstrained: Main processes completed in 536.559809s
2014-08-22 10:01:38    timeDacapoUnconstrained: Run 1 of 5: completed with main runtime of 536.559809s
2014-08-22 10:01:38    timeDacapoUnconstrained: 
2014-08-22 10:01:38    timeDacapoUnconstrained: Run 2 of 5: started
2014-08-22 10:01:38    timeDacapoUnconstrained: Running main processes...
2014-08-22 10:10:36    timeDacapoUnconstrained: Main processes completed in 537.584512s
2014-08-22 10:10:36    timeDacapoUnconstrained: Run 2 of 5: completed with main runtime of 537.584512s
2014-08-22 10:10:36    timeDacapoUnconstrained: 
2014-08-22 10:10:36    timeDacapoUnconstrained: Run 3 of 5: started
2014-08-22 10:10:36    timeDacapoUnconstrained: Running main processes...
2014-08-22 10:20:34    timeDacapoUnconstrained: Main processes completed in 598.092483s
2014-08-22 10:20:34    timeDacapoUnconstrained: Run 3 of 5: completed with main runtime of 598.092483s
2014-08-22 10:20:34    timeDacapoUnconstrained: 
2014-08-22 10:20:34    timeDacapoUnconstrained: Run 4 of 5: started
2014-08-22 10:20:34    timeDacapoUnconstrained: Running main processes...
2014-08-22 10:29:27    timeDacapoUnconstrained: Main processes completed in 533.641572s
2014-08-22 10:29:27    timeDacapoUnconstrained: Run 4 of 5: completed with main runtime of 533.641572s
2014-08-22 10:29:27    timeDacapoUnconstrained: 
2014-08-22 10:29:27    timeDacapoUnconstrained: Run 5 of 5: started
2014-08-22 10:29:27    timeDacapoUnconstrained: Running main processes...
2014-08-22 10:38:21    timeDacapoUnconstrained: Main processes completed in 533.134469s
2014-08-22 10:38:21    timeDacapoUnconstrained: Run 5 of 5: completed with main runtime of 533.134469s
2014-08-22 10:38:21    timeDacapoUnconstrained: 
2014-08-22 10:38:21    timeDacapoUnconstrained: Completed main process runs; average runtime 547.8025690000001s
2014-08-22 10:38:21    timeDacapoUnconstrained: 
2014-08-22 10:38:21    timeDacapoUnconstrained: Cleaning up...
2014-08-22 10:38:21    timeDacapoUnconstrained: Cleaned up
2014-08-22 10:38:21    timeDacapoUnconstrained: 
2014-08-22 10:38:21    timeDacapoUnconstrained: Completed in total time 2739.047064s
2014-08-22 10:38:21    DacapoIterationTimer: Sub-experiment 2 of 9 completed in 2739.047532s
2014-08-22 10:38:21    DacapoIterationTimer: 
2014-08-22 10:38:21    DacapoIterationTimer: Running sub-experiment 3 of 9...
2014-08-22 10:38:21    timeDacapoUnconstrained: Initialising...
2014-08-22 10:38:21    timeDacapoUnconstrained: Using Java version: Hotspot8
2014-08-22 10:38:21    timeDacapoUnconstrained: Initialised
2014-08-22 10:38:21    timeDacapoUnconstrained: 
2014-08-22 10:38:21    timeDacapoUnconstrained: Running benchmarks:
2014-08-22 10:38:21    timeDacapoUnconstrained:     jython, large, 1, 20
2014-08-22 10:38:21    timeDacapoUnconstrained: With max heap: 16004 MB
2014-08-22 10:38:21    timeDacapoUnconstrained: 
2014-08-22 10:38:21    timeDacapoUnconstrained: Started main process runs
2014-08-22 10:38:21    timeDacapoUnconstrained: 
2014-08-22 10:38:21    timeDacapoUnconstrained: Run 1 of 5: started
2014-08-22 10:38:21    timeDacapoUnconstrained: Running main processes...
2014-08-22 10:41:55    timeDacapoUnconstrained: Main processes completed in 214.808597s
2014-08-22 10:41:55    timeDacapoUnconstrained: Run 1 of 5: completed with main runtime of 214.808597s
2014-08-22 10:41:55    timeDacapoUnconstrained: 
2014-08-22 10:41:55    timeDacapoUnconstrained: Run 2 of 5: started
2014-08-22 10:41:55    timeDacapoUnconstrained: Running main processes...
2014-08-22 10:45:30    timeDacapoUnconstrained: Main processes completed in 214.854649s
2014-08-22 10:45:30    timeDacapoUnconstrained: Run 2 of 5: completed with main runtime of 214.854649s
2014-08-22 10:45:30    timeDacapoUnconstrained: 
2014-08-22 10:45:30    timeDacapoUnconstrained: Run 3 of 5: started
2014-08-22 10:45:30    timeDacapoUnconstrained: Running main processes...
2014-08-22 10:49:07    timeDacapoUnconstrained: Main processes completed in 216.254443s
2014-08-22 10:49:07    timeDacapoUnconstrained: Run 3 of 5: completed with main runtime of 216.254443s
2014-08-22 10:49:07    timeDacapoUnconstrained: 
2014-08-22 10:49:07    timeDacapoUnconstrained: Run 4 of 5: started
2014-08-22 10:49:07    timeDacapoUnconstrained: Running main processes...
2014-08-22 10:52:39    timeDacapoUnconstrained: Main processes completed in 212.008753s
2014-08-22 10:52:39    timeDacapoUnconstrained: Run 4 of 5: completed with main runtime of 212.008753s
2014-08-22 10:52:39    timeDacapoUnconstrained: 
2014-08-22 10:52:39    timeDacapoUnconstrained: Run 5 of 5: started
2014-08-22 10:52:39    timeDacapoUnconstrained: Running main processes...
2014-08-22 10:56:14    timeDacapoUnconstrained: Main processes completed in 215.155081s
2014-08-22 10:56:14    timeDacapoUnconstrained: Run 5 of 5: completed with main runtime of 215.155081s
2014-08-22 10:56:14    timeDacapoUnconstrained: 
2014-08-22 10:56:14    timeDacapoUnconstrained: Completed main process runs; average runtime 214.61630459999998s
2014-08-22 10:56:14    timeDacapoUnconstrained: 
2014-08-22 10:56:14    timeDacapoUnconstrained: Cleaning up...
2014-08-22 10:56:14    timeDacapoUnconstrained: Cleaned up
2014-08-22 10:56:14    timeDacapoUnconstrained: 
2014-08-22 10:56:14    timeDacapoUnconstrained: Completed in total time 1073.118378s
2014-08-22 10:56:14    DacapoIterationTimer: Sub-experiment 3 of 9 completed in 1073.118843s
2014-08-22 10:56:14    DacapoIterationTimer: 
2014-08-22 10:56:14    DacapoIterationTimer: Running sub-experiment 4 of 9...
2014-08-22 10:56:14    timeDacapoUnconstrained: Initialising...
2014-08-22 10:56:14    timeDacapoUnconstrained: Using Java version: Hotspot8
2014-08-22 10:56:14    timeDacapoUnconstrained: Initialised
2014-08-22 10:56:14    timeDacapoUnconstrained: 
2014-08-22 10:56:14    timeDacapoUnconstrained: Running benchmarks:
2014-08-22 10:56:14    timeDacapoUnconstrained:     pmd, large, 1, 20
2014-08-22 10:56:14    timeDacapoUnconstrained: With max heap: 16004 MB
2014-08-22 10:56:14    timeDacapoUnconstrained: 
2014-08-22 10:56:14    timeDacapoUnconstrained: Started main process runs
2014-08-22 10:56:14    timeDacapoUnconstrained: 
2014-08-22 10:56:14    timeDacapoUnconstrained: Run 1 of 5: started
2014-08-22 10:56:14    timeDacapoUnconstrained: Running main processes...
2014-08-22 10:57:21    timeDacapoUnconstrained: Main processes completed in 67.2279s
2014-08-22 10:57:21    timeDacapoUnconstrained: Run 1 of 5: completed with main runtime of 67.2279s
2014-08-22 10:57:21    timeDacapoUnconstrained: 
2014-08-22 10:57:21    timeDacapoUnconstrained: Run 2 of 5: started
2014-08-22 10:57:21    timeDacapoUnconstrained: Running main processes...
2014-08-22 10:58:27    timeDacapoUnconstrained: Main processes completed in 65.528769s
2014-08-22 10:58:27    timeDacapoUnconstrained: Run 2 of 5: completed with main runtime of 65.528769s
2014-08-22 10:58:27    timeDacapoUnconstrained: 
2014-08-22 10:58:27    timeDacapoUnconstrained: Run 3 of 5: started
2014-08-22 10:58:27    timeDacapoUnconstrained: Running main processes...
2014-08-22 10:59:32    timeDacapoUnconstrained: Main processes completed in 65.456165s
2014-08-22 10:59:32    timeDacapoUnconstrained: Run 3 of 5: completed with main runtime of 65.456165s
2014-08-22 10:59:32    timeDacapoUnconstrained: 
2014-08-22 10:59:32    timeDacapoUnconstrained: Run 4 of 5: started
2014-08-22 10:59:32    timeDacapoUnconstrained: Running main processes...
2014-08-22 11:00:40    timeDacapoUnconstrained: Main processes completed in 67.930506s
2014-08-22 11:00:40    timeDacapoUnconstrained: Run 4 of 5: completed with main runtime of 67.930506s
2014-08-22 11:00:40    timeDacapoUnconstrained: 
2014-08-22 11:00:40    timeDacapoUnconstrained: Run 5 of 5: started
2014-08-22 11:00:40    timeDacapoUnconstrained: Running main processes...
2014-08-22 11:01:46    timeDacapoUnconstrained: Main processes completed in 66.298317s
2014-08-22 11:01:46    timeDacapoUnconstrained: Run 5 of 5: completed with main runtime of 66.298317s
2014-08-22 11:01:46    timeDacapoUnconstrained: 
2014-08-22 11:01:46    timeDacapoUnconstrained: Completed main process runs; average runtime 66.48833139999999s
2014-08-22 11:01:46    timeDacapoUnconstrained: 
2014-08-22 11:01:46    timeDacapoUnconstrained: Cleaning up...
2014-08-22 11:01:46    timeDacapoUnconstrained: Cleaned up
2014-08-22 11:01:46    timeDacapoUnconstrained: 
2014-08-22 11:01:46    timeDacapoUnconstrained: Completed in total time 332.501701s
2014-08-22 11:01:46    DacapoIterationTimer: Sub-experiment 4 of 9 completed in 332.502156s
2014-08-22 11:01:46    DacapoIterationTimer: 
2014-08-22 11:01:46    DacapoIterationTimer: Running sub-experiment 5 of 9...
2014-08-22 11:01:46    timeDacapoUnconstrained: Initialising...
2014-08-22 11:01:46    timeDacapoUnconstrained: Using Java version: Hotspot8
2014-08-22 11:01:46    timeDacapoUnconstrained: Initialised
2014-08-22 11:01:46    timeDacapoUnconstrained: 
2014-08-22 11:01:46    timeDacapoUnconstrained: Running benchmarks:
2014-08-22 11:01:46    timeDacapoUnconstrained:     sunflow, large, 4, 20
2014-08-22 11:01:46    timeDacapoUnconstrained: With max heap: 16004 MB
2014-08-22 11:01:46    timeDacapoUnconstrained: 
2014-08-22 11:01:46    timeDacapoUnconstrained: Started main process runs
2014-08-22 11:01:46    timeDacapoUnconstrained: 
2014-08-22 11:01:46    timeDacapoUnconstrained: Run 1 of 5: started
2014-08-22 11:01:46    timeDacapoUnconstrained: Running main processes...
2014-08-22 11:03:34    timeDacapoUnconstrained: Main processes completed in 107.322765s
2014-08-22 11:03:34    timeDacapoUnconstrained: Run 1 of 5: completed with main runtime of 107.322765s
2014-08-22 11:03:34    timeDacapoUnconstrained: 
2014-08-22 11:03:34    timeDacapoUnconstrained: Run 2 of 5: started
2014-08-22 11:03:34    timeDacapoUnconstrained: Running main processes...
2014-08-22 11:05:20    timeDacapoUnconstrained: Main processes completed in 106.493122s
2014-08-22 11:05:20    timeDacapoUnconstrained: Run 2 of 5: completed with main runtime of 106.493122s
2014-08-22 11:05:20    timeDacapoUnconstrained: 
2014-08-22 11:05:20    timeDacapoUnconstrained: Run 3 of 5: started
2014-08-22 11:05:20    timeDacapoUnconstrained: Running main processes...
2014-08-22 11:07:07    timeDacapoUnconstrained: Main processes completed in 107.256519s
2014-08-22 11:07:07    timeDacapoUnconstrained: Run 3 of 5: completed with main runtime of 107.256519s
2014-08-22 11:07:07    timeDacapoUnconstrained: 
2014-08-22 11:07:07    timeDacapoUnconstrained: Run 4 of 5: started
2014-08-22 11:07:07    timeDacapoUnconstrained: Running main processes...
2014-08-22 11:08:56    timeDacapoUnconstrained: Main processes completed in 108.400799s
2014-08-22 11:08:56    timeDacapoUnconstrained: Run 4 of 5: completed with main runtime of 108.400799s
2014-08-22 11:08:56    timeDacapoUnconstrained: 
2014-08-22 11:08:56    timeDacapoUnconstrained: Run 5 of 5: started
2014-08-22 11:08:56    timeDacapoUnconstrained: Running main processes...
2014-08-22 11:10:43    timeDacapoUnconstrained: Main processes completed in 106.996152s
2014-08-22 11:10:43    timeDacapoUnconstrained: Run 5 of 5: completed with main runtime of 106.996152s
2014-08-22 11:10:43    timeDacapoUnconstrained: 
2014-08-22 11:10:43    timeDacapoUnconstrained: Completed main process runs; average runtime 107.29387139999999s
2014-08-22 11:10:43    timeDacapoUnconstrained: 
2014-08-22 11:10:43    timeDacapoUnconstrained: Cleaning up...
2014-08-22 11:10:43    timeDacapoUnconstrained: Cleaned up
2014-08-22 11:10:43    timeDacapoUnconstrained: 
2014-08-22 11:10:43    timeDacapoUnconstrained: Completed in total time 536.494281s
2014-08-22 11:10:43    DacapoIterationTimer: Sub-experiment 5 of 9 completed in 536.494502s
2014-08-22 11:10:43    DacapoIterationTimer: 
2014-08-22 11:10:43    DacapoIterationTimer: Running sub-experiment 6 of 9...
2014-08-22 11:10:43    timeDacapoUnconstrained: Initialising...
2014-08-22 11:10:43    timeDacapoUnconstrained: Using Java version: Hotspot8
2014-08-22 11:10:43    timeDacapoUnconstrained: Initialised
2014-08-22 11:10:43    timeDacapoUnconstrained: 
2014-08-22 11:10:43    timeDacapoUnconstrained: Running benchmarks:
2014-08-22 11:10:43    timeDacapoUnconstrained:     tomcat, large, 4, 20
2014-08-22 11:10:43    timeDacapoUnconstrained: With max heap: 16004 MB
2014-08-22 11:10:43    timeDacapoUnconstrained: 
2014-08-22 11:10:43    timeDacapoUnconstrained: Started main process runs
2014-08-22 11:10:43    timeDacapoUnconstrained: 
2014-08-22 11:10:43    timeDacapoUnconstrained: Run 1 of 5: started
2014-08-22 11:10:43    timeDacapoUnconstrained: Running main processes...
2014-08-22 11:14:15    timeDacapoUnconstrained: Main processes completed in 212.344451s
2014-08-22 11:14:15    timeDacapoUnconstrained: Run 1 of 5: completed with main runtime of 212.344451s
2014-08-22 11:14:15    timeDacapoUnconstrained: 
2014-08-22 11:14:15    timeDacapoUnconstrained: Run 2 of 5: started
2014-08-22 11:14:15    timeDacapoUnconstrained: Running main processes...
2014-08-22 11:17:46    timeDacapoUnconstrained: Main processes completed in 211.277021s
2014-08-22 11:17:46    timeDacapoUnconstrained: Run 2 of 5: completed with main runtime of 211.277021s
2014-08-22 11:17:46    timeDacapoUnconstrained: 
2014-08-22 11:17:46    timeDacapoUnconstrained: Run 3 of 5: started
2014-08-22 11:17:46    timeDacapoUnconstrained: Running main processes...
2014-08-22 11:21:18    timeDacapoUnconstrained: Main processes completed in 211.661207s
2014-08-22 11:21:18    timeDacapoUnconstrained: Run 3 of 5: completed with main runtime of 211.661207s
2014-08-22 11:21:18    timeDacapoUnconstrained: 
2014-08-22 11:21:18    timeDacapoUnconstrained: Run 4 of 5: started
2014-08-22 11:21:18    timeDacapoUnconstrained: Running main processes...
2014-08-22 11:24:49    timeDacapoUnconstrained: Main processes completed in 210.993633s
2014-08-22 11:24:49    timeDacapoUnconstrained: Run 4 of 5: completed with main runtime of 210.993633s
2014-08-22 11:24:49    timeDacapoUnconstrained: 
2014-08-22 11:24:49    timeDacapoUnconstrained: Run 5 of 5: started
2014-08-22 11:24:49    timeDacapoUnconstrained: Running main processes...
2014-08-22 11:28:20    timeDacapoUnconstrained: Main processes completed in 210.811419s
2014-08-22 11:28:20    timeDacapoUnconstrained: Run 5 of 5: completed with main runtime of 210.811419s
2014-08-22 11:28:20    timeDacapoUnconstrained: 
2014-08-22 11:28:20    timeDacapoUnconstrained: Completed main process runs; average runtime 211.4175462s
2014-08-22 11:28:20    timeDacapoUnconstrained: 
2014-08-22 11:28:20    timeDacapoUnconstrained: Cleaning up...
2014-08-22 11:28:20    timeDacapoUnconstrained: Cleaned up
2014-08-22 11:28:20    timeDacapoUnconstrained: 
2014-08-22 11:28:20    timeDacapoUnconstrained: Completed in total time 1057.245829s
2014-08-22 11:28:20    DacapoIterationTimer: Sub-experiment 6 of 9 completed in 1057.246056s
2014-08-22 11:28:20    DacapoIterationTimer: 
2014-08-22 11:28:20    DacapoIterationTimer: Running sub-experiment 7 of 9...
2014-08-22 11:28:20    timeDacapoUnconstrained: Initialising...
2014-08-22 11:28:20    timeDacapoUnconstrained: Using Java version: Hotspot8
2014-08-22 11:28:20    timeDacapoUnconstrained: Initialised
2014-08-22 11:28:20    timeDacapoUnconstrained: 
2014-08-22 11:28:20    timeDacapoUnconstrained: Running benchmarks:
2014-08-22 11:28:20    timeDacapoUnconstrained:     tomcat, huge, 4, 20
2014-08-22 11:28:20    timeDacapoUnconstrained: With max heap: 16004 MB
2014-08-22 11:28:20    timeDacapoUnconstrained: 
2014-08-22 11:28:20    timeDacapoUnconstrained: Started main process runs
2014-08-22 11:28:20    timeDacapoUnconstrained: 
2014-08-22 11:28:20    timeDacapoUnconstrained: Run 1 of 5: started
2014-08-22 11:28:20    timeDacapoUnconstrained: Running main processes...
2014-08-22 11:53:40    timeDacapoUnconstrained: Main processes completed in 1519.695548s
2014-08-22 11:53:40    timeDacapoUnconstrained: Run 1 of 5: completed with main runtime of 1519.695548s
2014-08-22 11:53:40    timeDacapoUnconstrained: 
2014-08-22 11:53:40    timeDacapoUnconstrained: Run 2 of 5: started
2014-08-22 11:53:40    timeDacapoUnconstrained: Running main processes...
2014-08-22 12:19:04    timeDacapoUnconstrained: Main processes completed in 1523.793365s
2014-08-22 12:19:04    timeDacapoUnconstrained: Run 2 of 5: completed with main runtime of 1523.793365s
2014-08-22 12:19:04    timeDacapoUnconstrained: 
2014-08-22 12:19:04    timeDacapoUnconstrained: Run 3 of 5: started
2014-08-22 12:19:04    timeDacapoUnconstrained: Running main processes...
2014-08-22 12:44:28    timeDacapoUnconstrained: Main processes completed in 1524.636223s
2014-08-22 12:44:28    timeDacapoUnconstrained: Run 3 of 5: completed with main runtime of 1524.636223s
2014-08-22 12:44:28    timeDacapoUnconstrained: 
2014-08-22 12:44:28    timeDacapoUnconstrained: Run 4 of 5: started
2014-08-22 12:44:28    timeDacapoUnconstrained: Running main processes...
2014-08-22 13:09:50    timeDacapoUnconstrained: Main processes completed in 1521.510544s
2014-08-22 13:09:50    timeDacapoUnconstrained: Run 4 of 5: completed with main runtime of 1521.510544s
2014-08-22 13:09:50    timeDacapoUnconstrained: 
2014-08-22 13:09:50    timeDacapoUnconstrained: Run 5 of 5: started
2014-08-22 13:09:50    timeDacapoUnconstrained: Running main processes...
2014-08-22 13:35:05    timeDacapoUnconstrained: Main processes completed in 1515.357038s
2014-08-22 13:35:05    timeDacapoUnconstrained: Run 5 of 5: completed with main runtime of 1515.357038s
2014-08-22 13:35:05    timeDacapoUnconstrained: 
2014-08-22 13:35:05    timeDacapoUnconstrained: Completed main process runs; average runtime 1520.9985436000002s
2014-08-22 13:35:05    timeDacapoUnconstrained: 
2014-08-22 13:35:05    timeDacapoUnconstrained: Cleaning up...
2014-08-22 13:35:05    timeDacapoUnconstrained: Cleaned up
2014-08-22 13:35:05    timeDacapoUnconstrained: 
2014-08-22 13:35:05    timeDacapoUnconstrained: Completed in total time 7605.421465s
2014-08-22 13:35:05    DacapoIterationTimer: Sub-experiment 7 of 9 completed in 7605.421667s
2014-08-22 13:35:05    DacapoIterationTimer: 
2014-08-22 13:35:05    DacapoIterationTimer: Running sub-experiment 8 of 9...
2014-08-22 13:35:05    timeDacapoUnconstrained: Initialising...
2014-08-22 13:35:05    timeDacapoUnconstrained: Using Java version: Hotspot8
2014-08-22 13:35:05    timeDacapoUnconstrained: Initialised
2014-08-22 13:35:05    timeDacapoUnconstrained: 
2014-08-22 13:35:05    timeDacapoUnconstrained: Running benchmarks:
2014-08-22 13:35:05    timeDacapoUnconstrained:     xalan, large, 4, 20
2014-08-22 13:35:05    timeDacapoUnconstrained: With max heap: 16004 MB
2014-08-22 13:35:05    timeDacapoUnconstrained: 
2014-08-22 13:35:05    timeDacapoUnconstrained: Started main process runs
2014-08-22 13:35:05    timeDacapoUnconstrained: 
2014-08-22 13:35:05    timeDacapoUnconstrained: Run 1 of 5: started
2014-08-22 13:35:05    timeDacapoUnconstrained: Running main processes...
2014-08-22 13:37:09    timeDacapoUnconstrained: Main processes completed in 124.02587s
2014-08-22 13:37:09    timeDacapoUnconstrained: Run 1 of 5: completed with main runtime of 124.02587s
2014-08-22 13:37:09    timeDacapoUnconstrained: 
2014-08-22 13:37:09    timeDacapoUnconstrained: Run 2 of 5: started
2014-08-22 13:37:09    timeDacapoUnconstrained: Running main processes...
2014-08-22 13:39:16    timeDacapoUnconstrained: Main processes completed in 126.593093s
2014-08-22 13:39:16    timeDacapoUnconstrained: Run 2 of 5: completed with main runtime of 126.593093s
2014-08-22 13:39:16    timeDacapoUnconstrained: 
2014-08-22 13:39:16    timeDacapoUnconstrained: Run 3 of 5: started
2014-08-22 13:39:16    timeDacapoUnconstrained: Running main processes...
2014-08-22 13:41:26    timeDacapoUnconstrained: Main processes completed in 129.900217s
2014-08-22 13:41:26    timeDacapoUnconstrained: Run 3 of 5: completed with main runtime of 129.900217s
2014-08-22 13:41:26    timeDacapoUnconstrained: 
2014-08-22 13:41:26    timeDacapoUnconstrained: Run 4 of 5: started
2014-08-22 13:41:26    timeDacapoUnconstrained: Running main processes...
2014-08-22 13:43:30    timeDacapoUnconstrained: Main processes completed in 123.298786s
2014-08-22 13:43:30    timeDacapoUnconstrained: Run 4 of 5: completed with main runtime of 123.298786s
2014-08-22 13:43:30    timeDacapoUnconstrained: 
2014-08-22 13:43:30    timeDacapoUnconstrained: Run 5 of 5: started
2014-08-22 13:43:30    timeDacapoUnconstrained: Running main processes...
2014-08-22 13:45:33    timeDacapoUnconstrained: Main processes completed in 122.58965s
2014-08-22 13:45:33    timeDacapoUnconstrained: Run 5 of 5: completed with main runtime of 122.58965s
2014-08-22 13:45:33    timeDacapoUnconstrained: 
2014-08-22 13:45:33    timeDacapoUnconstrained: Completed main process runs; average runtime 125.2815232s
2014-08-22 13:45:33    timeDacapoUnconstrained: 
2014-08-22 13:45:33    timeDacapoUnconstrained: Cleaning up...
2014-08-22 13:45:33    timeDacapoUnconstrained: Cleaned up
2014-08-22 13:45:33    timeDacapoUnconstrained: 
2014-08-22 13:45:33    timeDacapoUnconstrained: Completed in total time 627.548295s
2014-08-22 13:45:33    DacapoIterationTimer: Sub-experiment 8 of 9 completed in 627.54853s
2014-08-22 13:45:33    DacapoIterationTimer: 
2014-08-22 13:45:33    DacapoIterationTimer: Running sub-experiment 9 of 9...
2014-08-22 13:45:33    timeDacapoUnconstrained: Initialising...
2014-08-22 13:45:33    timeDacapoUnconstrained: Using Java version: Hotspot8
2014-08-22 13:45:33    timeDacapoUnconstrained: Initialised
2014-08-22 13:45:33    timeDacapoUnconstrained: 
2014-08-22 13:45:33    timeDacapoUnconstrained: Running benchmarks:
2014-08-22 13:45:33    timeDacapoUnconstrained:     h2, huge, 1, 20
2014-08-22 13:45:33    timeDacapoUnconstrained: With max heap: 16004 MB
2014-08-22 13:45:33    timeDacapoUnconstrained: 
2014-08-22 13:45:33    timeDacapoUnconstrained: Started main process runs
2014-08-22 13:45:33    timeDacapoUnconstrained: 
2014-08-22 13:45:33    timeDacapoUnconstrained: Run 1 of 5: started
2014-08-22 13:45:33    timeDacapoUnconstrained: Running main processes...
2014-08-22 14:28:56    timeDacapoUnconstrained: Main processes completed in 2602.996321s
2014-08-22 14:28:56    timeDacapoUnconstrained: Run 1 of 5: completed with main runtime of 2602.996321s
2014-08-22 14:28:56    timeDacapoUnconstrained: 
2014-08-22 14:28:56    timeDacapoUnconstrained: Run 2 of 5: started
2014-08-22 14:28:56    timeDacapoUnconstrained: Running main processes...
2014-08-22 15:12:08    timeDacapoUnconstrained: Main processes completed in 2591.879652s
2014-08-22 15:12:08    timeDacapoUnconstrained: Run 2 of 5: completed with main runtime of 2591.879652s
2014-08-22 15:12:08    timeDacapoUnconstrained: 
2014-08-22 15:12:08    timeDacapoUnconstrained: Run 3 of 5: started
2014-08-22 15:12:08    timeDacapoUnconstrained: Running main processes...
2014-08-22 15:56:21    timeDacapoUnconstrained: Main processes completed in 2653.157212s
2014-08-22 15:56:21    timeDacapoUnconstrained: Run 3 of 5: completed with main runtime of 2653.157212s
2014-08-22 15:56:21    timeDacapoUnconstrained: 
2014-08-22 15:56:21    timeDacapoUnconstrained: Run 4 of 5: started
2014-08-22 15:56:21    timeDacapoUnconstrained: Running main processes...
2014-08-22 16:41:45    timeDacapoUnconstrained: Main processes completed in 2724.38527s
2014-08-22 16:41:45    timeDacapoUnconstrained: Run 4 of 5: completed with main runtime of 2724.38527s
2014-08-22 16:41:45    timeDacapoUnconstrained: 
2014-08-22 16:41:45    timeDacapoUnconstrained: Run 5 of 5: started
2014-08-22 16:41:45    timeDacapoUnconstrained: Running main processes...
2014-08-22 17:26:03    timeDacapoUnconstrained: Main processes completed in 2657.723586s
2014-08-22 17:26:03    timeDacapoUnconstrained: Run 5 of 5: completed with main runtime of 2657.723586s
2014-08-22 17:26:03    timeDacapoUnconstrained: 
2014-08-22 17:26:03    timeDacapoUnconstrained: Completed main process runs; average runtime 2646.0284082000003s
2014-08-22 17:26:03    timeDacapoUnconstrained: 
2014-08-22 17:26:03    timeDacapoUnconstrained: Cleaning up...
2014-08-22 17:26:03    timeDacapoUnconstrained: Cleaned up
2014-08-22 17:26:03    timeDacapoUnconstrained: 
2014-08-22 17:26:03    timeDacapoUnconstrained: Completed in total time 13230.182473s
2014-08-22 17:26:03    DacapoIterationTimer: Sub-experiment 9 of 9 completed in 13230.182722s
2014-08-22 17:26:03    DacapoIterationTimer: 
2014-08-22 17:26:03    DacapoIterationTimer: Completed sub-experiments; average runtime 3307.385515111111s
2014-08-22 17:26:03    DacapoIterationTimer: 
2014-08-22 17:26:03    DacapoIterationTimer: Cleaning up...
2014-08-22 17:26:03    DacapoIterationTimer: Cleaned up
2014-08-22 17:26:03    DacapoIterationTimer: 
2014-08-22 17:26:03    DacapoIterationTimer: Completed in total time 29766.493824s
