MemTotal:       16318588 kB
MemFree:        13707992 kB
Buffers:          646664 kB
Cached:           821200 kB
SwapCached:            0 kB
Active:          1431752 kB
Inactive:         687372 kB
Active(anon):     652060 kB
Inactive(anon):      748 kB
Active(file):     779692 kB
Inactive(file):   686624 kB
Unevictable:           0 kB
Mlocked:               0 kB
SwapTotal:      16728060 kB
SwapFree:       16728060 kB
Dirty:               180 kB
Writeback:             0 kB
AnonPages:        651256 kB
Mapped:            17344 kB
Shmem:              1552 kB
Slab:             364244 kB
SReclaimable:     345320 kB
SUnreclaim:        18924 kB
KernelStack:        1592 kB
PageTables:         4240 kB
NFS_Unstable:          0 kB
Bounce:                0 kB
WritebackTmp:          0 kB
CommitLimit:    24887352 kB
Committed_AS:     817216 kB
VmallocTotal:   34359738367 kB
VmallocUsed:      370636 kB
VmallocChunk:   34359363072 kB
HardwareCorrupted:     0 kB
AnonHugePages:    628736 kB
HugePages_Total:       0
HugePages_Free:        0
HugePages_Rsvd:        0
HugePages_Surp:        0
Hugepagesize:       2048 kB
DirectMap4k:       70592 kB
DirectMap2M:    16590848 kB
