economemd
    total memory: 6115 MB
    timer interval: 10 s
    timer start state: running
    utility model: root

    caches:
        lru

    force utility function validity: yes
    make recommendations: yes
    equal recommendations: no

    reading receiver name: vengerov
    command receiver name: vengerov

    dump file: economemd.dump.log
    log file: /home/callum/economics_memory_code/dynamic_sizing/data/output/timerComparisonMany_2014_10_15_12_35_15/sub14_timerComparisonSingle/sub3_timeBenchmarkDaemon/daemon_run02_log.txt
    log readings: yes
    log functions: yes

PyOptimiser: initialising...
PyOptimiser: initialised
ReadingThread: starting
TimerThread: starting
CommandThread: starting
Recommendation: no clients; no recommendation
Recommendation: no clients; no recommendation
Reading from 12829: heap size 9 MB, throughput 0.978633
Clients: 1
Client 12829 has a minimum heap size of 12 MB
Reading from 12828: heap size 9 MB, throughput 0.990342
Clients: 2
Client 12828 has a minimum heap size of 1211 MB
Reading from 12828: heap size 9 MB, throughput 0.986739
Reading from 12828: heap size 9 MB, throughput 0.976202
Reading from 12829: heap size 9 MB, throughput 0.986029
Reading from 12828: heap size 9 MB, throughput 0.969316
Reading from 12829: heap size 11 MB, throughput 0.983595
Reading from 12828: heap size 11 MB, throughput 0.97595
Reading from 12829: heap size 11 MB, throughput 0.974175
Reading from 12828: heap size 11 MB, throughput 0.971655
Reading from 12828: heap size 17 MB, throughput 0.925797
Reading from 12829: heap size 15 MB, throughput 0.986629
Reading from 12828: heap size 17 MB, throughput 0.905917
Reading from 12829: heap size 15 MB, throughput 0.977679
Reading from 12828: heap size 30 MB, throughput 0.814805
Reading from 12828: heap size 31 MB, throughput 0.52522
Reading from 12829: heap size 24 MB, throughput 0.963834
Reading from 12828: heap size 35 MB, throughput 0.743365
Reading from 12828: heap size 47 MB, throughput 0.518067
Reading from 12829: heap size 29 MB, throughput 0.96404
Reading from 12828: heap size 50 MB, throughput 0.668244
Reading from 12828: heap size 65 MB, throughput 0.65762
Reading from 12829: heap size 36 MB, throughput 0.94092
Reading from 12828: heap size 71 MB, throughput 0.432041
Reading from 12828: heap size 90 MB, throughput 0.668494
Reading from 12829: heap size 43 MB, throughput 0.967812
Reading from 12829: heap size 44 MB, throughput 0.914876
Reading from 12828: heap size 96 MB, throughput 0.457004
Reading from 12828: heap size 121 MB, throughput 0.809571
Reading from 12829: heap size 45 MB, throughput 0.942025
Reading from 12828: heap size 125 MB, throughput 0.647334
Reading from 12828: heap size 125 MB, throughput 0.394454
Reading from 12829: heap size 54 MB, throughput 0.934763
Reading from 12829: heap size 54 MB, throughput 0.795275
Reading from 12828: heap size 131 MB, throughput 0.477956
Reading from 12828: heap size 162 MB, throughput 0.276682
Reading from 12829: heap size 67 MB, throughput 0.741856
Reading from 12828: heap size 172 MB, throughput 0.384299
Reading from 12829: heap size 67 MB, throughput 0.954065
Reading from 12828: heap size 173 MB, throughput 0.121079
Reading from 12829: heap size 88 MB, throughput 0.950496
Reading from 12828: heap size 175 MB, throughput 0.413462
Reading from 12828: heap size 218 MB, throughput 0.676231
Reading from 12828: heap size 225 MB, throughput 0.685873
Reading from 12829: heap size 88 MB, throughput 0.981533
Reading from 12828: heap size 227 MB, throughput 0.673488
Reading from 12828: heap size 231 MB, throughput 0.686732
Reading from 12828: heap size 238 MB, throughput 0.669871
Reading from 12828: heap size 242 MB, throughput 0.676932
Reading from 12828: heap size 251 MB, throughput 0.624852
Reading from 12828: heap size 256 MB, throughput 0.579454
Reading from 12829: heap size 98 MB, throughput 0.99273
Reading from 12828: heap size 267 MB, throughput 0.436752
Reading from 12829: heap size 100 MB, throughput 0.994302
Reading from 12828: heap size 315 MB, throughput 0.581815
Reading from 12828: heap size 323 MB, throughput 0.243071
Reading from 12828: heap size 376 MB, throughput 0.537475
Reading from 12829: heap size 109 MB, throughput 0.995979
Reading from 12828: heap size 314 MB, throughput 0.592729
Reading from 12828: heap size 370 MB, throughput 0.637038
Reading from 12828: heap size 372 MB, throughput 0.652392
Reading from 12828: heap size 376 MB, throughput 0.619041
Reading from 12828: heap size 379 MB, throughput 0.621374
Reading from 12829: heap size 110 MB, throughput 0.996161
Reading from 12828: heap size 382 MB, throughput 0.5919
Reading from 12828: heap size 392 MB, throughput 0.563885
Reading from 12828: heap size 395 MB, throughput 0.512951
Reading from 12828: heap size 407 MB, throughput 0.488585
Reading from 12829: heap size 117 MB, throughput 0.993684
Reading from 12828: heap size 413 MB, throughput 0.381551
Reading from 12828: heap size 473 MB, throughput 0.406849
Reading from 12829: heap size 118 MB, throughput 0.994954
Reading from 12828: heap size 474 MB, throughput 0.41414
Numeric result:
Recommendation: 2 clients, utility 1.0924:
    h1: 4561.98 MB (U(h) = 0.948103*h^0.00301201)
    h2: 1553.02 MB (U(h) = 1.1151*h^0.001)
Recommendation: 2 clients, utility 1.0924:
    h1: 4590.83 MB (U(h) = 0.948103*h^0.00301201)
    h2: 1524.17 MB (U(h) = 1.1151*h^0.001)
Reading from 12829: heap size 126 MB, throughput 0.99202
Reading from 12828: heap size 478 MB, throughput 0.173025
Reading from 12828: heap size 524 MB, throughput 0.4549
Reading from 12828: heap size 532 MB, throughput 0.534059
Reading from 12828: heap size 525 MB, throughput 0.587703
Reading from 12828: heap size 464 MB, throughput 0.589818
Reading from 12828: heap size 524 MB, throughput 0.606056
Reading from 12829: heap size 127 MB, throughput 0.994456
Reading from 12828: heap size 526 MB, throughput 0.58318
Reading from 12828: heap size 528 MB, throughput 0.572089
Reading from 12828: heap size 533 MB, throughput 0.57069
Reading from 12828: heap size 537 MB, throughput 0.538886
Reading from 12829: heap size 133 MB, throughput 0.995634
Reading from 12828: heap size 542 MB, throughput 0.37672
Reading from 12829: heap size 134 MB, throughput 0.996095
Reading from 12828: heap size 609 MB, throughput 0.539305
Reading from 12828: heap size 616 MB, throughput 0.541993
Reading from 12828: heap size 619 MB, throughput 0.559443
Reading from 12828: heap size 622 MB, throughput 0.550044
Reading from 12828: heap size 626 MB, throughput 0.553913
Reading from 12829: heap size 138 MB, throughput 0.996622
Reading from 12828: heap size 632 MB, throughput 0.52968
Reading from 12828: heap size 639 MB, throughput 0.756069
Reading from 12829: heap size 139 MB, throughput 0.99691
Reading from 12828: heap size 646 MB, throughput 0.800654
Reading from 12829: heap size 144 MB, throughput 0.996914
Reading from 12829: heap size 145 MB, throughput 0.993826
Reading from 12828: heap size 649 MB, throughput 0.474755
Reading from 12829: heap size 149 MB, throughput 0.992947
Reading from 12828: heap size 725 MB, throughput 0.79368
Reading from 12828: heap size 736 MB, throughput 0.733666
Reading from 12828: heap size 742 MB, throughput 0.690157
Reading from 12828: heap size 745 MB, throughput 0.6072
Reading from 12828: heap size 665 MB, throughput 0.523445
Reading from 12829: heap size 149 MB, throughput 0.993339
Reading from 12829: heap size 154 MB, throughput 0.995204
Numeric result:
Recommendation: 2 clients, utility 0.874706:
    h1: 4904 MB (U(h) = 0.911538*h^0.0150931)
    h2: 1211 MB (U(h) = 0.838112*h^0.001)
Recommendation: 2 clients, utility 0.874706:
    h1: 4904 MB (U(h) = 0.911538*h^0.0150931)
    h2: 1211 MB (U(h) = 0.838112*h^0.001)
Reading from 12828: heap size 729 MB, throughput 0.265177
Reading from 12829: heap size 154 MB, throughput 0.994217
Reading from 12828: heap size 812 MB, throughput 0.369074
Reading from 12828: heap size 811 MB, throughput 0.420565
Reading from 12828: heap size 812 MB, throughput 0.778492
Reading from 12828: heap size 811 MB, throughput 0.736472
Reading from 12828: heap size 814 MB, throughput 0.692809
Reading from 12828: heap size 814 MB, throughput 0.692483
Reading from 12829: heap size 159 MB, throughput 0.996487
Reading from 12829: heap size 159 MB, throughput 0.997068
Reading from 12828: heap size 815 MB, throughput 0.374923
Reading from 12829: heap size 163 MB, throughput 0.996495
Reading from 12828: heap size 904 MB, throughput 0.641147
Reading from 12828: heap size 905 MB, throughput 0.719048
Reading from 12829: heap size 163 MB, throughput 0.994008
Reading from 12828: heap size 912 MB, throughput 0.834114
Reading from 12828: heap size 915 MB, throughput 0.863601
Reading from 12829: heap size 168 MB, throughput 0.994204
Reading from 12828: heap size 918 MB, throughput 0.902568
Reading from 12828: heap size 920 MB, throughput 0.915571
Reading from 12828: heap size 898 MB, throughput 0.886136
Reading from 12828: heap size 781 MB, throughput 0.848002
Reading from 12828: heap size 885 MB, throughput 0.854339
Reading from 12829: heap size 169 MB, throughput 0.995828
Reading from 12828: heap size 785 MB, throughput 0.850785
Reading from 12828: heap size 874 MB, throughput 0.85852
Reading from 12828: heap size 784 MB, throughput 0.867317
Reading from 12828: heap size 869 MB, throughput 0.87286
Reading from 12828: heap size 789 MB, throughput 0.877406
Reading from 12829: heap size 175 MB, throughput 0.99685
Reading from 12828: heap size 863 MB, throughput 0.880385
Reading from 12828: heap size 868 MB, throughput 0.886469
Reading from 12829: heap size 175 MB, throughput 0.996947
Reading from 12828: heap size 861 MB, throughput 0.962402
Reading from 12829: heap size 178 MB, throughput 0.997319
Reading from 12828: heap size 865 MB, throughput 0.968835
Reading from 12828: heap size 867 MB, throughput 0.933073
Numeric result:
Recommendation: 2 clients, utility 0.641731:
    h1: 3277.09 MB (U(h) = 0.904815*h^0.0172238)
    h2: 2837.91 MB (U(h) = 0.547877*h^0.0149321)
Recommendation: 2 clients, utility 0.641731:
    h1: 3275.41 MB (U(h) = 0.904815*h^0.0172238)
    h2: 2839.59 MB (U(h) = 0.547877*h^0.0149321)
Reading from 12828: heap size 868 MB, throughput 0.905995
Reading from 12828: heap size 870 MB, throughput 0.876725
Reading from 12828: heap size 871 MB, throughput 0.856463
Reading from 12829: heap size 179 MB, throughput 0.99725
Reading from 12828: heap size 873 MB, throughput 0.84798
Reading from 12828: heap size 874 MB, throughput 0.822879
Reading from 12828: heap size 876 MB, throughput 0.832278
Reading from 12828: heap size 877 MB, throughput 0.83091
Reading from 12829: heap size 183 MB, throughput 0.996942
Reading from 12828: heap size 879 MB, throughput 0.874173
Reading from 12828: heap size 881 MB, throughput 0.870447
Reading from 12828: heap size 886 MB, throughput 0.89855
Reading from 12828: heap size 887 MB, throughput 0.858214
Reading from 12829: heap size 183 MB, throughput 0.996243
Reading from 12829: heap size 187 MB, throughput 0.99518
Reading from 12828: heap size 890 MB, throughput 0.728627
Reading from 12828: heap size 988 MB, throughput 0.692331
Reading from 12828: heap size 1008 MB, throughput 0.72534
Reading from 12829: heap size 187 MB, throughput 0.995775
Reading from 12828: heap size 1013 MB, throughput 0.745127
Reading from 12828: heap size 1010 MB, throughput 0.746207
Reading from 12828: heap size 1015 MB, throughput 0.747855
Reading from 12828: heap size 1021 MB, throughput 0.732403
Reading from 12828: heap size 1022 MB, throughput 0.735307
Reading from 12828: heap size 1036 MB, throughput 0.74441
Reading from 12829: heap size 192 MB, throughput 0.996829
Reading from 12828: heap size 1036 MB, throughput 0.734011
Reading from 12828: heap size 1050 MB, throughput 0.899334
Reading from 12829: heap size 192 MB, throughput 0.997198
Reading from 12829: heap size 195 MB, throughput 0.997485
Reading from 12828: heap size 1052 MB, throughput 0.947267
Numeric result:
Recommendation: 2 clients, utility 1.22781:
    h1: 367.655 MB (U(h) = 0.901797*h^0.0181545)
    h2: 5747.34 MB (U(h) = 0.104837*h^0.2838)
Recommendation: 2 clients, utility 1.22781:
    h1: 367.655 MB (U(h) = 0.901797*h^0.0181545)
    h2: 5747.34 MB (U(h) = 0.104837*h^0.2838)
Reading from 12829: heap size 196 MB, throughput 0.989781
Reading from 12828: heap size 1070 MB, throughput 0.955744
Reading from 12829: heap size 200 MB, throughput 0.987913
Reading from 12829: heap size 200 MB, throughput 0.984996
Reading from 12829: heap size 203 MB, throughput 0.987188
Reading from 12828: heap size 1071 MB, throughput 0.963351
Reading from 12829: heap size 204 MB, throughput 0.992761
Reading from 12828: heap size 1076 MB, throughput 0.964363
Reading from 12829: heap size 208 MB, throughput 0.996014
Reading from 12829: heap size 209 MB, throughput 0.996686
Reading from 12828: heap size 1080 MB, throughput 0.961266
Reading from 12829: heap size 214 MB, throughput 0.997421
Reading from 12828: heap size 1074 MB, throughput 0.960002
Reading from 12829: heap size 214 MB, throughput 0.997521
Numeric result:
Recommendation: 2 clients, utility 1.6827:
    h1: 248.236 MB (U(h) = 0.902232*h^0.0180193)
    h2: 5866.76 MB (U(h) = 0.0419488*h^0.425861)
Recommendation: 2 clients, utility 1.6827:
    h1: 248.238 MB (U(h) = 0.902232*h^0.0180193)
    h2: 5866.76 MB (U(h) = 0.0419488*h^0.425861)
Reading from 12829: heap size 218 MB, throughput 0.997572
Reading from 12828: heap size 1080 MB, throughput 0.960562
Reading from 12829: heap size 218 MB, throughput 0.997689
Reading from 12828: heap size 1080 MB, throughput 0.9579
Reading from 12829: heap size 222 MB, throughput 0.997761
Reading from 12829: heap size 222 MB, throughput 0.997486
Reading from 12828: heap size 1082 MB, throughput 0.957249
Reading from 12829: heap size 226 MB, throughput 0.997628
Reading from 12828: heap size 1089 MB, throughput 0.959571
Reading from 12829: heap size 214 MB, throughput 0.996108
Reading from 12829: heap size 204 MB, throughput 0.995651
Reading from 12828: heap size 1090 MB, throughput 0.943134
Reading from 12829: heap size 196 MB, throughput 0.994974
Numeric result:
Recommendation: 2 clients, utility 1.46296:
    h1: 300.399 MB (U(h) = 0.901279*h^0.0183011)
    h2: 5814.6 MB (U(h) = 0.0678946*h^0.354147)
Recommendation: 2 clients, utility 1.46296:
    h1: 300.475 MB (U(h) = 0.901279*h^0.0183011)
    h2: 5814.53 MB (U(h) = 0.0678946*h^0.354147)
Reading from 12829: heap size 208 MB, throughput 0.994743
Reading from 12828: heap size 1096 MB, throughput 0.953725
Reading from 12829: heap size 217 MB, throughput 0.997166
Reading from 12829: heap size 223 MB, throughput 0.997948
Reading from 12828: heap size 1099 MB, throughput 0.953935
Reading from 12829: heap size 223 MB, throughput 0.998155
Reading from 12829: heap size 229 MB, throughput 0.998371
Reading from 12828: heap size 1105 MB, throughput 0.95743
Reading from 12829: heap size 230 MB, throughput 0.998386
Reading from 12828: heap size 1109 MB, throughput 0.948935
Reading from 12829: heap size 235 MB, throughput 0.998371
Reading from 12829: heap size 235 MB, throughput 0.998294
Numeric result:
Recommendation: 2 clients, utility 1.7551:
    h1: 246.972 MB (U(h) = 0.900382*h^0.0185618)
    h2: 5868.03 MB (U(h) = 0.0383317*h^0.441)
Recommendation: 2 clients, utility 1.7551:
    h1: 246.987 MB (U(h) = 0.900382*h^0.0185618)
    h2: 5868.01 MB (U(h) = 0.0383317*h^0.441)
Reading from 12828: heap size 1115 MB, throughput 0.954606
Reading from 12829: heap size 240 MB, throughput 0.99844
Reading from 12829: heap size 240 MB, throughput 0.998364
Reading from 12828: heap size 1120 MB, throughput 0.903044
Reading from 12829: heap size 245 MB, throughput 0.998593
Reading from 12829: heap size 245 MB, throughput 0.998458
Reading from 12828: heap size 1223 MB, throughput 0.936001
Reading from 12829: heap size 248 MB, throughput 0.989488
Reading from 12829: heap size 238 MB, throughput 0.975716
Reading from 12828: heap size 1227 MB, throughput 0.957894
Reading from 12829: heap size 242 MB, throughput 0.979805
Numeric result:
Recommendation: 2 clients, utility 2.33301:
    h1: 180.332 MB (U(h) = 0.903205*h^0.0177575)
    h2: 5934.67 MB (U(h) = 0.0147126*h^0.584189)
Recommendation: 2 clients, utility 2.33301:
    h1: 180.393 MB (U(h) = 0.903205*h^0.0177575)
    h2: 5934.61 MB (U(h) = 0.0147126*h^0.584189)
Reading from 12829: heap size 246 MB, throughput 0.990047
Reading from 12828: heap size 1237 MB, throughput 0.967953
Reading from 12829: heap size 229 MB, throughput 0.994362
Reading from 12828: heap size 1238 MB, throughput 0.972656
Reading from 12829: heap size 218 MB, throughput 0.996693
Reading from 12829: heap size 207 MB, throughput 0.997531
Reading from 12828: heap size 1237 MB, throughput 0.974211
Reading from 12829: heap size 198 MB, throughput 0.997826
Reading from 12829: heap size 189 MB, throughput 0.998079
Reading from 12828: heap size 1240 MB, throughput 0.974101
Reading from 12829: heap size 182 MB, throughput 0.998031
Reading from 12829: heap size 175 MB, throughput 0.998014
Reading from 12829: heap size 178 MB, throughput 0.998036
Reading from 12828: heap size 1231 MB, throughput 0.974603
Numeric result:
Recommendation: 2 clients, utility 2.52165:
    h1: 170.688 MB (U(h) = 0.902866*h^0.0178899)
    h2: 5944.31 MB (U(h) = 0.0113488*h^0.622976)
Recommendation: 2 clients, utility 2.52165:
    h1: 170.701 MB (U(h) = 0.902866*h^0.0178899)
    h2: 5944.3 MB (U(h) = 0.0113488*h^0.622976)
Reading from 12829: heap size 181 MB, throughput 0.998047
Reading from 12829: heap size 174 MB, throughput 0.99802
Reading from 12828: heap size 1175 MB, throughput 0.971946
Reading from 12829: heap size 168 MB, throughput 0.997567
Reading from 12829: heap size 172 MB, throughput 0.991786
Reading from 12829: heap size 167 MB, throughput 0.988857
Reading from 12829: heap size 175 MB, throughput 0.984162
Reading from 12828: heap size 1229 MB, throughput 0.971871
Reading from 12829: heap size 166 MB, throughput 0.989094
Reading from 12829: heap size 172 MB, throughput 0.993973
Reading from 12828: heap size 1232 MB, throughput 0.969553
Reading from 12829: heap size 166 MB, throughput 0.996124
Reading from 12829: heap size 170 MB, throughput 0.997248
Reading from 12829: heap size 175 MB, throughput 0.997715
Reading from 12828: heap size 1236 MB, throughput 0.96967
Numeric result:
Recommendation: 2 clients, utility 3.11223:
    h1: 146.967 MB (U(h) = 0.902352*h^0.0180853)
    h2: 5968.03 MB (U(h) = 0.00531871*h^0.734327)
Recommendation: 2 clients, utility 3.11223:
    h1: 146.983 MB (U(h) = 0.902352*h^0.0180853)
    h2: 5968.02 MB (U(h) = 0.00531871*h^0.734327)
Reading from 12829: heap size 168 MB, throughput 0.997927
Reading from 12829: heap size 161 MB, throughput 0.997657
Reading from 12828: heap size 1237 MB, throughput 0.966992
Reading from 12829: heap size 155 MB, throughput 0.997752
Reading from 12829: heap size 149 MB, throughput 0.997591
Reading from 12829: heap size 144 MB, throughput 0.997439
Reading from 12828: heap size 1241 MB, throughput 0.966092
Reading from 12829: heap size 148 MB, throughput 0.997423
Reading from 12829: heap size 143 MB, throughput 0.995378
Reading from 12829: heap size 146 MB, throughput 0.992553
Reading from 12828: heap size 1246 MB, throughput 0.964127
Reading from 12829: heap size 149 MB, throughput 0.992639
Reading from 12829: heap size 143 MB, throughput 0.995188
Reading from 12829: heap size 149 MB, throughput 0.996671
Reading from 12829: heap size 141 MB, throughput 0.99606
Reading from 12828: heap size 1251 MB, throughput 0.962526
Reading from 12829: heap size 147 MB, throughput 0.99459
Numeric result:
Recommendation: 2 clients, utility 3.64529:
    h1: 133.249 MB (U(h) = 0.902245*h^0.0182714)
    h2: 5981.75 MB (U(h) = 0.00295092*h^0.820167)
Recommendation: 2 clients, utility 3.64529:
    h1: 133.259 MB (U(h) = 0.902245*h^0.0182714)
    h2: 5981.74 MB (U(h) = 0.00295092*h^0.820167)
Reading from 12829: heap size 152 MB, throughput 0.991782
Reading from 12829: heap size 147 MB, throughput 0.984427
Reading from 12829: heap size 139 MB, throughput 0.989124
Reading from 12828: heap size 1258 MB, throughput 0.96058
Reading from 12829: heap size 135 MB, throughput 0.993545
Reading from 12829: heap size 130 MB, throughput 0.995401
Reading from 12829: heap size 134 MB, throughput 0.996276
Reading from 12828: heap size 1266 MB, throughput 0.959458
Reading from 12829: heap size 130 MB, throughput 0.996968
Reading from 12829: heap size 133 MB, throughput 0.997055
Reading from 12829: heap size 129 MB, throughput 0.996863
Reading from 12829: heap size 132 MB, throughput 0.996949
Reading from 12828: heap size 1272 MB, throughput 0.956938
Reading from 12829: heap size 136 MB, throughput 0.997098
Reading from 12829: heap size 131 MB, throughput 0.996921
Reading from 12829: heap size 135 MB, throughput 0.996879
Reading from 12828: heap size 1281 MB, throughput 0.959138
Reading from 12829: heap size 130 MB, throughput 0.993007
Numeric result:
Recommendation: 2 clients, utility 3.71418:
    h1: 131.245 MB (U(h) = 0.902896*h^0.0182553)
    h2: 5983.75 MB (U(h) = 0.00270163*h^0.832395)
Recommendation: 2 clients, utility 3.71418:
    h1: 131.231 MB (U(h) = 0.902896*h^0.0182553)
    h2: 5983.77 MB (U(h) = 0.00270163*h^0.832395)
Reading from 12829: heap size 133 MB, throughput 0.996716
Reading from 12829: heap size 128 MB, throughput 0.996077
Reading from 12829: heap size 131 MB, throughput 0.997133
Reading from 12828: heap size 1284 MB, throughput 0.960561
Reading from 12829: heap size 129 MB, throughput 0.997648
Reading from 12829: heap size 130 MB, throughput 0.998012
Reading from 12829: heap size 136 MB, throughput 0.998151
Reading from 12829: heap size 129 MB, throughput 0.997991
Reading from 12828: heap size 1293 MB, throughput 0.960831
Reading from 12829: heap size 135 MB, throughput 0.998217
Reading from 12829: heap size 128 MB, throughput 0.997036
Reading from 12829: heap size 134 MB, throughput 0.994825
Reading from 12829: heap size 130 MB, throughput 0.992407
Reading from 12829: heap size 138 MB, throughput 0.981701
Reading from 12828: heap size 1295 MB, throughput 0.960615
Reading from 12829: heap size 131 MB, throughput 0.988945
Reading from 12829: heap size 127 MB, throughput 0.993294
Reading from 12829: heap size 133 MB, throughput 0.995452
Numeric result:
Recommendation: 2 clients, utility 3.04388:
    h1: 150.437 MB (U(h) = 0.902957*h^0.0182405)
    h2: 5964.56 MB (U(h) = 0.00572145*h^0.72321)
Recommendation: 2 clients, utility 3.04388:
    h1: 150.436 MB (U(h) = 0.902957*h^0.0182405)
    h2: 5964.56 MB (U(h) = 0.00572145*h^0.72321)
Reading from 12829: heap size 129 MB, throughput 0.996517
Reading from 12829: heap size 134 MB, throughput 0.996509
Reading from 12829: heap size 139 MB, throughput 0.995767
Reading from 12829: heap size 144 MB, throughput 0.994725
Reading from 12828: heap size 1302 MB, throughput 0.930728
Reading from 12829: heap size 151 MB, throughput 0.99606
Reading from 12829: heap size 145 MB, throughput 0.996625
Reading from 12829: heap size 151 MB, throughput 0.996826
Reading from 12828: heap size 1416 MB, throughput 0.95623
Reading from 12829: heap size 146 MB, throughput 0.996991
Reading from 12829: heap size 152 MB, throughput 0.993925
Reading from 12829: heap size 145 MB, throughput 0.992692
Reading from 12828: heap size 1421 MB, throughput 0.967945
Reading from 12829: heap size 151 MB, throughput 0.99325
Reading from 12829: heap size 143 MB, throughput 0.994844
Numeric result:
Recommendation: 2 clients, utility 3.07752:
    h1: 148.784 MB (U(h) = 0.902931*h^0.0182672)
    h2: 5966.22 MB (U(h) = 0.00533469*h^0.732514)
Recommendation: 2 clients, utility 3.07752:
    h1: 148.784 MB (U(h) = 0.902931*h^0.0182672)
    h2: 5966.22 MB (U(h) = 0.00533469*h^0.732514)
Reading from 12829: heap size 149 MB, throughput 0.996462
Reading from 12829: heap size 142 MB, throughput 0.997439
Reading from 12829: heap size 148 MB, throughput 0.997901
Reading from 12829: heap size 148 MB, throughput 0.997968
Reading from 12829: heap size 148 MB, throughput 0.994544
Reading from 12829: heap size 151 MB, throughput 0.975813
Reading from 12829: heap size 146 MB, throughput 0.965722
Reading from 12829: heap size 147 MB, throughput 0.980461
Reading from 12829: heap size 151 MB, throughput 0.990148
Reading from 12829: heap size 143 MB, throughput 0.993965
Reading from 12829: heap size 156 MB, throughput 0.995889
Reading from 12829: heap size 147 MB, throughput 0.99671
Reading from 12829: heap size 157 MB, throughput 0.99717
Reading from 12829: heap size 149 MB, throughput 0.997483
Numeric result:
Recommendation: 2 clients, utility 3.07755:
    h1: 148.886 MB (U(h) = 0.902882*h^0.0182798)
    h2: 5966.11 MB (U(h) = 0.00533469*h^0.732514)
Recommendation: 2 clients, utility 3.07755:
    h1: 148.884 MB (U(h) = 0.902882*h^0.0182798)
    h2: 5966.12 MB (U(h) = 0.00533469*h^0.732514)
Reading from 12829: heap size 155 MB, throughput 0.997699
Reading from 12829: heap size 147 MB, throughput 0.997773
Reading from 12829: heap size 155 MB, throughput 0.997814
Reading from 12829: heap size 147 MB, throughput 0.997886
Reading from 12829: heap size 153 MB, throughput 0.997298
Reading from 12829: heap size 146 MB, throughput 0.996825
Reading from 12829: heap size 152 MB, throughput 0.995473
Reading from 12828: heap size 1424 MB, throughput 0.989218
Reading from 12829: heap size 144 MB, throughput 0.996442
Reading from 12829: heap size 150 MB, throughput 0.99727
Reading from 12829: heap size 143 MB, throughput 0.997926
Reading from 12829: heap size 148 MB, throughput 0.998218
Reading from 12829: heap size 148 MB, throughput 0.995446
Reading from 12829: heap size 148 MB, throughput 0.987981
Reading from 12829: heap size 153 MB, throughput 0.99016
Numeric result:
Recommendation: 2 clients, utility 3.09152:
    h1: 148.74 MB (U(h) = 0.902835*h^0.0183458)
    h2: 5966.26 MB (U(h) = 0.00520201*h^0.7359)
Recommendation: 2 clients, utility 3.09152:
    h1: 148.738 MB (U(h) = 0.902835*h^0.0183458)
    h2: 5966.26 MB (U(h) = 0.00520201*h^0.7359)
Reading from 12829: heap size 148 MB, throughput 0.986838
Reading from 12829: heap size 150 MB, throughput 0.990267
Reading from 12829: heap size 145 MB, throughput 0.994723
Reading from 12829: heap size 150 MB, throughput 0.996118
Reading from 12829: heap size 143 MB, throughput 0.996966
Reading from 12829: heap size 148 MB, throughput 0.997243
Reading from 12829: heap size 148 MB, throughput 0.99727
Reading from 12829: heap size 153 MB, throughput 0.99725
Reading from 12829: heap size 146 MB, throughput 0.997292
Reading from 12829: heap size 151 MB, throughput 0.997293
Reading from 12829: heap size 145 MB, throughput 0.997339
Reading from 12829: heap size 149 MB, throughput 0.997416
Numeric result:
Recommendation: 2 clients, utility 3.09202:
    h1: 149.042 MB (U(h) = 0.90281*h^0.0183841)
    h2: 5965.96 MB (U(h) = 0.00520201*h^0.7359)
Recommendation: 2 clients, utility 3.09202:
    h1: 149.04 MB (U(h) = 0.90281*h^0.0183841)
    h2: 5965.96 MB (U(h) = 0.00520201*h^0.7359)
Reading from 12829: heap size 144 MB, throughput 0.994896
Reading from 12828: heap size 1422 MB, throughput 0.992256
Reading from 12829: heap size 148 MB, throughput 0.995625
Reading from 12829: heap size 151 MB, throughput 0.996717
Reading from 12829: heap size 144 MB, throughput 0.997574
Reading from 12829: heap size 151 MB, throughput 0.997773
Reading from 12829: heap size 144 MB, throughput 0.99807
Reading from 12829: heap size 150 MB, throughput 0.99734
Reading from 12829: heap size 145 MB, throughput 0.995445
Reading from 12829: heap size 151 MB, throughput 0.992954
Reading from 12829: heap size 147 MB, throughput 0.995466
Reading from 12828: heap size 1432 MB, throughput 0.989607
Reading from 12829: heap size 153 MB, throughput 0.996495
Reading from 12828: heap size 1436 MB, throughput 0.981213
Reading from 12828: heap size 1450 MB, throughput 0.960828
Reading from 12829: heap size 147 MB, throughput 0.996875
Reading from 12828: heap size 1453 MB, throughput 0.933917
Reading from 12828: heap size 1487 MB, throughput 0.89134
Reading from 12828: heap size 1515 MB, throughput 0.845439
Reading from 12829: heap size 155 MB, throughput 0.99725
Reading from 12828: heap size 1533 MB, throughput 0.797181
Numeric result:
Recommendation: 2 clients, utility 2.30732:
    h1: 189.101 MB (U(h) = 0.902798*h^0.0183976)
    h2: 5925.9 MB (U(h) = 0.0155089*h^0.576516)
Recommendation: 2 clients, utility 2.30732:
    h1: 189.105 MB (U(h) = 0.902798*h^0.0183976)
    h2: 5925.89 MB (U(h) = 0.0155089*h^0.576516)
Reading from 12828: heap size 1565 MB, throughput 0.79365
Reading from 12829: heap size 148 MB, throughput 0.997353
Reading from 12829: heap size 154 MB, throughput 0.997303
Reading from 12829: heap size 156 MB, throughput 0.997313
Reading from 12828: heap size 1575 MB, throughput 0.932064
Reading from 12829: heap size 156 MB, throughput 0.997099
Reading from 12829: heap size 163 MB, throughput 0.997135
Reading from 12829: heap size 163 MB, throughput 0.996803
Reading from 12828: heap size 1560 MB, throughput 0.957417
Reading from 12829: heap size 169 MB, throughput 0.997001
Reading from 12829: heap size 169 MB, throughput 0.996987
Reading from 12829: heap size 176 MB, throughput 0.99428
Reading from 12828: heap size 1576 MB, throughput 0.964354
Reading from 12829: heap size 176 MB, throughput 0.992824
Reading from 12829: heap size 183 MB, throughput 0.993353
Numeric result:
Recommendation: 2 clients, utility 2.09301:
    h1: 207.418 MB (U(h) = 0.90278*h^0.0184115)
    h2: 5907.58 MB (U(h) = 0.022122*h^0.524395)
Recommendation: 2 clients, utility 2.09301:
    h1: 207.415 MB (U(h) = 0.90278*h^0.0184115)
    h2: 5907.58 MB (U(h) = 0.022122*h^0.524395)
Reading from 12828: heap size 1559 MB, throughput 0.967248
Reading from 12829: heap size 183 MB, throughput 0.99543
Reading from 12829: heap size 188 MB, throughput 0.997149
Reading from 12829: heap size 189 MB, throughput 0.996224
Reading from 12829: heap size 194 MB, throughput 0.994734
Reading from 12829: heap size 194 MB, throughput 0.995101
Reading from 12828: heap size 1575 MB, throughput 0.968728
Reading from 12829: heap size 205 MB, throughput 0.996738
Reading from 12829: heap size 205 MB, throughput 0.997206
Reading from 12828: heap size 1561 MB, throughput 0.970275
Reading from 12829: heap size 214 MB, throughput 0.997493
Reading from 12829: heap size 204 MB, throughput 0.997616
Reading from 12829: heap size 212 MB, throughput 0.997755
Numeric result:
Recommendation: 2 clients, utility 1.97596:
    h1: 222.168 MB (U(h) = 0.902534*h^0.0184822)
    h2: 5892.83 MB (U(h) = 0.0280816*h^0.490282)
Recommendation: 2 clients, utility 1.97596:
    h1: 222.143 MB (U(h) = 0.902534*h^0.0184822)
    h2: 5892.86 MB (U(h) = 0.0280816*h^0.490282)
Reading from 12828: heap size 1573 MB, throughput 0.962187
Reading from 12829: heap size 202 MB, throughput 0.997776
Reading from 12829: heap size 208 MB, throughput 0.997828
Reading from 12829: heap size 210 MB, throughput 0.997647
Reading from 12828: heap size 1574 MB, throughput 0.981745
Reading from 12829: heap size 217 MB, throughput 0.997387
Reading from 12829: heap size 217 MB, throughput 0.997314
Reading from 12829: heap size 225 MB, throughput 0.997301
Reading from 12828: heap size 1578 MB, throughput 0.986534
Reading from 12829: heap size 215 MB, throughput 0.996392
Reading from 12829: heap size 222 MB, throughput 0.986912
Reading from 12829: heap size 224 MB, throughput 0.988668
Numeric result:
Recommendation: 2 clients, utility 1.88816:
    h1: 278.768 MB (U(h) = 0.886047*h^0.022086)
    h2: 5836.23 MB (U(h) = 0.0341295*h^0.462396)
Recommendation: 2 clients, utility 1.88816:
    h1: 278.763 MB (U(h) = 0.886047*h^0.022086)
    h2: 5836.24 MB (U(h) = 0.0341295*h^0.462396)
Reading from 12828: heap size 1600 MB, throughput 0.987682
Reading from 12829: heap size 215 MB, throughput 0.994223
Reading from 12829: heap size 225 MB, throughput 0.996435
Reading from 12829: heap size 232 MB, throughput 0.997371
Reading from 12828: heap size 1606 MB, throughput 0.98724
Reading from 12829: heap size 233 MB, throughput 0.997589
Reading from 12829: heap size 242 MB, throughput 0.997796
Reading from 12828: heap size 1606 MB, throughput 0.986575
Reading from 12829: heap size 242 MB, throughput 0.997753
Reading from 12829: heap size 251 MB, throughput 0.997896
Numeric result:
Recommendation: 2 clients, utility 1.57455:
    h1: 596.274 MB (U(h) = 0.823818*h^0.0363176)
    h2: 5518.73 MB (U(h) = 0.0836486*h^0.336217)
Recommendation: 2 clients, utility 1.57455:
    h1: 596.138 MB (U(h) = 0.823818*h^0.0363176)
    h2: 5518.86 MB (U(h) = 0.0836486*h^0.336217)
Reading from 12829: heap size 251 MB, throughput 0.997814
Reading from 12828: heap size 1612 MB, throughput 0.985506
Reading from 12829: heap size 260 MB, throughput 0.997937
Reading from 12829: heap size 260 MB, throughput 0.997895
Reading from 12828: heap size 1593 MB, throughput 0.983432
Reading from 12829: heap size 269 MB, throughput 0.997542
Reading from 12829: heap size 269 MB, throughput 0.991492
Reading from 12829: heap size 277 MB, throughput 0.994397
Reading from 12828: heap size 1425 MB, throughput 0.981409
Reading from 12829: heap size 278 MB, throughput 0.996394
Numeric result:
Recommendation: 2 clients, utility 1.45671:
    h1: 750.363 MB (U(h) = 0.811272*h^0.0391454)
    h2: 5364.64 MB (U(h) = 0.125274*h^0.279871)
Recommendation: 2 clients, utility 1.45671:
    h1: 750.351 MB (U(h) = 0.811272*h^0.0391454)
    h2: 5364.65 MB (U(h) = 0.125274*h^0.279871)
Reading from 12829: heap size 289 MB, throughput 0.996962
Reading from 12829: heap size 290 MB, throughput 0.995877
Reading from 12828: heap size 1574 MB, throughput 0.980097
Reading from 12829: heap size 302 MB, throughput 0.996933
Reading from 12829: heap size 302 MB, throughput 0.997499
Reading from 12828: heap size 1457 MB, throughput 0.978756
Reading from 12829: heap size 313 MB, throughput 0.997883
Numeric result:
Recommendation: 2 clients, utility 1.31597:
    h1: 27.0515 MB (U(h) = 0.993651*h^0.001)
    h2: 6087.95 MB (U(h) = 0.185641*h^0.225106)
Recommendation: 2 clients, utility 1.31597:
    h1: 27.0449 MB (U(h) = 0.993651*h^0.001)
    h2: 6087.96 MB (U(h) = 0.185641*h^0.225106)
Reading from 12829: heap size 315 MB, throughput 0.998062
Reading from 12828: heap size 1572 MB, throughput 0.977803
Reading from 12829: heap size 160 MB, throughput 0.997472
Reading from 12829: heap size 126 MB, throughput 0.996716
Reading from 12829: heap size 108 MB, throughput 0.993953
Reading from 12829: heap size 95 MB, throughput 0.991087
Reading from 12829: heap size 87 MB, throughput 0.983972
Reading from 12829: heap size 80 MB, throughput 0.964261
Reading from 12829: heap size 74 MB, throughput 0.98069
Reading from 12829: heap size 70 MB, throughput 0.987959
Reading from 12829: heap size 67 MB, throughput 0.990043
Reading from 12829: heap size 64 MB, throughput 0.991112
Reading from 12829: heap size 61 MB, throughput 0.982477
Reading from 12829: heap size 59 MB, throughput 0.978916
Reading from 12829: heap size 56 MB, throughput 0.976469
Reading from 12829: heap size 54 MB, throughput 0.981137
Reading from 12828: heap size 1578 MB, throughput 0.975977
Reading from 12829: heap size 53 MB, throughput 0.980701
Reading from 12829: heap size 51 MB, throughput 0.979937
Reading from 12829: heap size 50 MB, throughput 0.986124
Reading from 12829: heap size 53 MB, throughput 0.98887
Reading from 12829: heap size 48 MB, throughput 0.99049
Reading from 12829: heap size 51 MB, throughput 0.991144
Reading from 12829: heap size 46 MB, throughput 0.991454
Reading from 12829: heap size 49 MB, throughput 0.989762
Reading from 12829: heap size 45 MB, throughput 0.990063
Reading from 12829: heap size 48 MB, throughput 0.990234
Reading from 12829: heap size 44 MB, throughput 0.990769
Reading from 12829: heap size 46 MB, throughput 0.990445
Reading from 12829: heap size 43 MB, throughput 0.990168
Reading from 12829: heap size 45 MB, throughput 0.989538
Reading from 12829: heap size 42 MB, throughput 0.989898
Reading from 12829: heap size 44 MB, throughput 0.989194
Reading from 12829: heap size 41 MB, throughput 0.990004
Reading from 12829: heap size 43 MB, throughput 0.989425
Reading from 12829: heap size 40 MB, throughput 0.989128
Reading from 12829: heap size 41 MB, throughput 0.988516
Reading from 12829: heap size 39 MB, throughput 0.987834
Reading from 12829: heap size 41 MB, throughput 0.987194
Reading from 12829: heap size 39 MB, throughput 0.987517
Reading from 12829: heap size 41 MB, throughput 0.986881
Reading from 12829: heap size 39 MB, throughput 0.987472
Reading from 12829: heap size 41 MB, throughput 0.987896
Reading from 12829: heap size 39 MB, throughput 0.987938
Reading from 12829: heap size 40 MB, throughput 0.98743
Reading from 12829: heap size 39 MB, throughput 0.987727
Reading from 12828: heap size 1585 MB, throughput 0.974394
Reading from 12829: heap size 40 MB, throughput 0.988722
Reading from 12829: heap size 39 MB, throughput 0.988045
Reading from 12829: heap size 40 MB, throughput 0.987661
Reading from 12829: heap size 39 MB, throughput 0.98838
Reading from 12829: heap size 40 MB, throughput 0.988056
Reading from 12829: heap size 39 MB, throughput 0.987963
Reading from 12829: heap size 40 MB, throughput 0.987545
Reading from 12829: heap size 39 MB, throughput 0.987971
Reading from 12829: heap size 40 MB, throughput 0.987879
Reading from 12829: heap size 39 MB, throughput 0.98812
Reading from 12829: heap size 40 MB, throughput 0.987476
Reading from 12829: heap size 39 MB, throughput 0.987484
Reading from 12829: heap size 40 MB, throughput 0.987588
Reading from 12829: heap size 39 MB, throughput 0.98782
Reading from 12829: heap size 39 MB, throughput 0.987764
Numeric result:
Recommendation: 2 clients, utility 1.26232:
    h1: 197.717 MB (U(h) = 0.961255*h^0.0067254)
    h2: 5917.28 MB (U(h) = 0.220619*h^0.201278)
Recommendation: 2 clients, utility 1.26232:
    h1: 197.717 MB (U(h) = 0.961255*h^0.0067254)
    h2: 5917.28 MB (U(h) = 0.220619*h^0.201278)
Reading from 12829: heap size 39 MB, throughput 0.987189
Reading from 12829: heap size 41 MB, throughput 0.988041
Reading from 12829: heap size 44 MB, throughput 0.989324
Reading from 12829: heap size 46 MB, throughput 0.990957
Reading from 12829: heap size 49 MB, throughput 0.991984
Reading from 12829: heap size 52 MB, throughput 0.99306
Reading from 12829: heap size 55 MB, throughput 0.993682
Reading from 12829: heap size 58 MB, throughput 0.994471
Reading from 12829: heap size 61 MB, throughput 0.994435
Reading from 12829: heap size 65 MB, throughput 0.995043
Reading from 12829: heap size 68 MB, throughput 0.995351
Reading from 12828: heap size 1586 MB, throughput 0.972728
Reading from 12829: heap size 72 MB, throughput 0.995958
Reading from 12829: heap size 75 MB, throughput 0.996266
Reading from 12829: heap size 79 MB, throughput 0.996445
Reading from 12829: heap size 83 MB, throughput 0.99662
Reading from 12829: heap size 87 MB, throughput 0.996738
Reading from 12829: heap size 91 MB, throughput 0.996988
Reading from 12829: heap size 95 MB, throughput 0.997123
Reading from 12829: heap size 99 MB, throughput 0.997313
Reading from 12829: heap size 103 MB, throughput 0.997379
Reading from 12828: heap size 1595 MB, throughput 0.970763
Reading from 12829: heap size 107 MB, throughput 0.997673
Reading from 12829: heap size 111 MB, throughput 0.997748
Reading from 12829: heap size 115 MB, throughput 0.997824
Numeric result:
Recommendation: 2 clients, utility 1.25795:
    h1: 157.372 MB (U(h) = 0.96896*h^0.005249)
    h2: 5957.63 MB (U(h) = 0.224854*h^0.198652)
Recommendation: 2 clients, utility 1.25795:
    h1: 157.418 MB (U(h) = 0.96896*h^0.005249)
    h2: 5957.58 MB (U(h) = 0.224854*h^0.198652)
Reading from 12828: heap size 1602 MB, throughput 0.970739
Client 12829 died
Clients: 1
Reading from 12828: heap size 1616 MB, throughput 0.969861
Reading from 12828: heap size 1624 MB, throughput 0.969208
Recommendation: one client; give it all the memory
Reading from 12828: heap size 1639 MB, throughput 0.969245
Reading from 12828: heap size 1643 MB, throughput 0.968975
Reading from 12828: heap size 1658 MB, throughput 0.969094
Recommendation: one client; give it all the memory
Recommendation: one client; give it all the memory
Reading from 12828: heap size 1660 MB, throughput 0.985429
Recommendation: one client; give it all the memory
Reading from 12828: heap size 1667 MB, throughput 0.989041
Recommendation: one client; give it all the memory
Reading from 12828: heap size 1676 MB, throughput 0.986561
Reading from 12828: heap size 1694 MB, throughput 0.976638
Reading from 12828: heap size 1699 MB, throughput 0.955628
Reading from 12828: heap size 1729 MB, throughput 0.931389
Client 12828 died
Clients: 0
Recommendation: no clients; no recommendation
Recommendation: no clients; no recommendation
TimerThread: finished
ReadingThread: finished
CommandThread: finished
Main: All threads killed, cleaning up
