Using scaled threading model. 4 processors detected, 2 threads used to drive the workload, in a possible range of [1,64000]
===== DaCapo 9.12 h2 starting warmup 1 =====
................................
Completed 32000 transactions
	Stock level .............  1277 ( 4.0%)
	Order status by name ....   765 ( 2.4%)
	Order status by ID ......   518 ( 1.6%)
	Payment by name .........  8262 (25.8%)
	Payment by ID ...........  5489 (17.2%)
	Delivery schedule .......  1299 ( 4.1%)
	New order ............... 14241 (44.5%)
	New order rollback ......   149 ( 0.5%)
Resetting database to initial state
===== DaCapo 9.12 h2 completed warmup 1 in 26871 msec =====
===== DaCapo 9.12 h2 starting warmup 2 =====
................................
Completed 32000 transactions
	Stock level .............  1277 ( 4.0%)
	Order status by name ....   765 ( 2.4%)
	Order status by ID ......   518 ( 1.6%)
	Payment by name .........  8262 (25.8%)
	Payment by ID ...........  5489 (17.2%)
	Delivery schedule .......  1299 ( 4.1%)
	New order ............... 14241 (44.5%)
	New order rollback ......   149 ( 0.5%)
Resetting database to initial state
===== DaCapo 9.12 h2 completed warmup 2 in 26325 msec =====
===== DaCapo 9.12 h2 starting warmup 3 =====
................................
Completed 32000 transactions
	Stock level .............  1277 ( 4.0%)
	Order status by name ....   765 ( 2.4%)
	Order status by ID ......   518 ( 1.6%)
	Payment by name .........  8262 (25.8%)
	Payment by ID ...........  5489 (17.2%)
	Delivery schedule .......  1299 ( 4.1%)
	New order ............... 14241 (44.5%)
	New order rollback ......   149 ( 0.5%)
Resetting database to initial state
===== DaCapo 9.12 h2 completed warmup 3 in 40256 msec =====
===== DaCapo 9.12 h2 starting warmup 4 =====
................................
Completed 32000 transactions
	Stock level .............  1277 ( 4.0%)
	Order status by name ....   765 ( 2.4%)
	Order status by ID ......   518 ( 1.6%)
	Payment by name .........  8262 (25.8%)
	Payment by ID ...........  5489 (17.2%)
	Delivery schedule .......  1299 ( 4.1%)
	New order ............... 14241 (44.5%)
	New order rollback ......   149 ( 0.5%)
Resetting database to initial state
java.lang.reflect.InvocationTargetException
java.lang.reflect.InvocationTargetException
	at sun.reflect.NativeMethodAccessorImpl.invoke0(Native Method)
	at sun.reflect.NativeMethodAccessorImpl.invoke(NativeMethodAccessorImpl.java:62)
	at sun.reflect.DelegatingMethodAccessorImpl.invoke(DelegatingMethodAccessorImpl.java:43)
	at java.lang.reflect.Method.invoke(Method.java:483)
	at org.dacapo.harness.H2.iterate(H2.java:87)
	at org.dacapo.harness.Benchmark.run(Benchmark.java:166)
	at org.dacapo.harness.TestHarness.runBenchmark(TestHarness.java:218)
	at org.dacapo.harness.TestHarness.main(TestHarness.java:171)
	at Harness.main(Harness.java:17)
Caused by: org.h2.jdbc.JdbcSQLException: Out of memory.; SQL statement:
DELETE FROM ORDERLINE WHERE OL_INITIAL = FALSE [90108-123]
	at org.h2.message.Message.getSQLException(Message.java:111)
	at org.h2.message.Message.convertThrowable(Message.java:303)
	at org.h2.command.Command.executeUpdate(Command.java:231)
	at org.h2.jdbc.JdbcPreparedStatement.execute(JdbcPreparedStatement.java:176)
	at org.dacapo.h2.TPCC.resetToInitialData(TPCC.java:485)
	at org.dacapo.h2.TPCC.iteration(TPCC.java:310)
	... 9 more
Caused by: java.lang.OutOfMemoryError: Java heap space
	at org.h2.index.TreeIndex.find(TreeIndex.java:293)
	at org.h2.index.MultiVersionIndex.removeIfExists(MultiVersionIndex.java:132)
	at org.h2.index.MultiVersionIndex.add(MultiVersionIndex.java:51)
	at org.h2.table.TableData.removeRow(TableData.java:379)
	at org.h2.command.dml.Delete.update(Delete.java:71)
	at org.h2.command.CommandContainer.update(CommandContainer.java:72)
	at org.h2.command.Command.executeUpdate(Command.java:209)
	... 12 more
