2014-10-22 05:21:20    timeBenchmarkDaemon: Initialising...
2014-10-22 05:21:20    timeBenchmarkDaemon: Using Java version: Hotspot8
2014-10-22 05:21:20    timeBenchmarkDaemon: Initialised
2014-10-22 05:21:20    timeBenchmarkDaemon: 
2014-10-22 05:21:20    timeBenchmarkDaemon: Running benchmarks:
2014-10-22 05:21:20    timeBenchmarkDaemon:     h2, large, 2, 13
2014-10-22 05:21:20    timeBenchmarkDaemon:     jython, large, 1, 28
2014-10-22 05:21:20    timeBenchmarkDaemon: With max heap: 894 MB
2014-10-22 05:21:20    timeBenchmarkDaemon: Daemon-managed memory: 894 MB
2014-10-22 05:21:20    timeBenchmarkDaemon: 
2014-10-22 05:21:20    timeBenchmarkDaemon: Started main process runs
2014-10-22 05:21:20    timeBenchmarkDaemon: 
2014-10-22 05:21:20    timeBenchmarkDaemon: Run 01 of 10: started
2014-10-22 05:21:20    timeBenchmarkDaemon: Starting auxiliary processes...
2014-10-22 05:21:40    timeBenchmarkDaemon: Started auxiliary processes
2014-10-22 05:21:40    timeBenchmarkDaemon: Running main processes...
2014-10-22 05:26:59    timeBenchmarkDaemon: Main processes completed in 319.584117s
2014-10-22 05:26:59    timeBenchmarkDaemon: Cleaning up auxiliary processes...
2014-10-22 05:27:19    timeBenchmarkDaemon: Cleaned up auxiliary processes
2014-10-22 05:27:19    timeBenchmarkDaemon: Run 01 of 10: completed with main runtime of 319.584117s
2014-10-22 05:27:19    timeBenchmarkDaemon: 
2014-10-22 05:27:19    timeBenchmarkDaemon: Run 02 of 10: started
2014-10-22 05:27:19    timeBenchmarkDaemon: Starting auxiliary processes...
2014-10-22 05:27:39    timeBenchmarkDaemon: Started auxiliary processes
2014-10-22 05:27:39    timeBenchmarkDaemon: Running main processes...
2014-10-22 05:32:54    timeBenchmarkDaemon: Main processes completed in 314.564275s
2014-10-22 05:32:54    timeBenchmarkDaemon: Cleaning up auxiliary processes...
2014-10-22 05:33:14    timeBenchmarkDaemon: Cleaned up auxiliary processes
2014-10-22 05:33:14    timeBenchmarkDaemon: Run 02 of 10: completed with main runtime of 314.564275s
2014-10-22 05:33:14    timeBenchmarkDaemon: 
2014-10-22 05:33:14    timeBenchmarkDaemon: Run 03 of 10: started
2014-10-22 05:33:14    timeBenchmarkDaemon: Starting auxiliary processes...
2014-10-22 05:33:34    timeBenchmarkDaemon: Started auxiliary processes
2014-10-22 05:33:34    timeBenchmarkDaemon: Running main processes...
2014-10-22 05:38:27    timeBenchmarkDaemon: Main processes completed in 292.749906s
2014-10-22 05:38:27    timeBenchmarkDaemon: Cleaning up auxiliary processes...
2014-10-22 05:38:47    timeBenchmarkDaemon: Cleaned up auxiliary processes
2014-10-22 05:38:47    timeBenchmarkDaemon: Run 03 of 10: completed with main runtime of 292.749906s
2014-10-22 05:38:47    timeBenchmarkDaemon: 
2014-10-22 05:38:47    timeBenchmarkDaemon: Run 04 of 10: started
2014-10-22 05:38:47    timeBenchmarkDaemon: Starting auxiliary processes...
2014-10-22 05:39:07    timeBenchmarkDaemon: Started auxiliary processes
2014-10-22 05:39:07    timeBenchmarkDaemon: Running main processes...
2014-10-22 05:44:33    timeBenchmarkDaemon: Main processes completed in 325.873905s
2014-10-22 05:44:33    timeBenchmarkDaemon: Cleaning up auxiliary processes...
2014-10-22 05:44:53    timeBenchmarkDaemon: Cleaned up auxiliary processes
2014-10-22 05:44:53    timeBenchmarkDaemon: Run 04 of 10: completed with main runtime of 325.873905s
2014-10-22 05:44:53    timeBenchmarkDaemon: 
2014-10-22 05:44:53    timeBenchmarkDaemon: Run 05 of 10: started
2014-10-22 05:44:53    timeBenchmarkDaemon: Starting auxiliary processes...
2014-10-22 05:45:13    timeBenchmarkDaemon: Started auxiliary processes
2014-10-22 05:45:13    timeBenchmarkDaemon: Running main processes...
2014-10-22 05:50:04    timeBenchmarkDaemon: Main processes completed in 291.629045s
2014-10-22 05:50:04    timeBenchmarkDaemon: Cleaning up auxiliary processes...
2014-10-22 05:50:25    timeBenchmarkDaemon: Cleaned up auxiliary processes
2014-10-22 05:50:25    timeBenchmarkDaemon: Run 05 of 10: completed with main runtime of 291.629045s
2014-10-22 05:50:25    timeBenchmarkDaemon: 
2014-10-22 05:50:25    timeBenchmarkDaemon: Run 06 of 10: started
2014-10-22 05:50:25    timeBenchmarkDaemon: Starting auxiliary processes...
2014-10-22 05:50:45    timeBenchmarkDaemon: Started auxiliary processes
2014-10-22 05:50:45    timeBenchmarkDaemon: Running main processes...
2014-10-22 05:55:53    timeBenchmarkDaemon: Main processes completed in 308.247057s
2014-10-22 05:55:53    timeBenchmarkDaemon: Cleaning up auxiliary processes...
2014-10-22 05:56:13    timeBenchmarkDaemon: Cleaned up auxiliary processes
2014-10-22 05:56:13    timeBenchmarkDaemon: Run 06 of 10: completed with main runtime of 308.247057s
2014-10-22 05:56:13    timeBenchmarkDaemon: 
2014-10-22 05:56:13    timeBenchmarkDaemon: Run 07 of 10: started
2014-10-22 05:56:13    timeBenchmarkDaemon: Starting auxiliary processes...
2014-10-22 05:56:33    timeBenchmarkDaemon: Started auxiliary processes
2014-10-22 05:56:33    timeBenchmarkDaemon: Running main processes...
2014-10-22 06:01:24    timeBenchmarkDaemon: Main processes completed in 290.693264s
2014-10-22 06:01:24    timeBenchmarkDaemon: Cleaning up auxiliary processes...
2014-10-22 06:01:44    timeBenchmarkDaemon: Cleaned up auxiliary processes
2014-10-22 06:01:44    timeBenchmarkDaemon: Run 07 of 10: completed with main runtime of 290.693264s
2014-10-22 06:01:44    timeBenchmarkDaemon: 
2014-10-22 06:01:44    timeBenchmarkDaemon: Run 08 of 10: started
2014-10-22 06:01:44    timeBenchmarkDaemon: Starting auxiliary processes...
2014-10-22 06:02:04    timeBenchmarkDaemon: Started auxiliary processes
2014-10-22 06:02:04    timeBenchmarkDaemon: Running main processes...
2014-10-22 06:06:50    timeBenchmarkDaemon: Main processes completed in 285.903234s
2014-10-22 06:06:50    timeBenchmarkDaemon: Cleaning up auxiliary processes...
2014-10-22 06:07:10    timeBenchmarkDaemon: Cleaned up auxiliary processes
2014-10-22 06:07:10    timeBenchmarkDaemon: Run 08 of 10: completed with main runtime of 285.903234s
2014-10-22 06:07:10    timeBenchmarkDaemon: 
2014-10-22 06:07:10    timeBenchmarkDaemon: Run 09 of 10: started
2014-10-22 06:07:10    timeBenchmarkDaemon: Starting auxiliary processes...
2014-10-22 06:07:30    timeBenchmarkDaemon: Started auxiliary processes
2014-10-22 06:07:30    timeBenchmarkDaemon: Running main processes...
2014-10-22 06:12:48    timeBenchmarkDaemon: Main processes completed in 318.459364s
2014-10-22 06:12:48    timeBenchmarkDaemon: Cleaning up auxiliary processes...
2014-10-22 06:13:08    timeBenchmarkDaemon: Cleaned up auxiliary processes
2014-10-22 06:13:08    timeBenchmarkDaemon: Run 09 of 10: completed with main runtime of 318.459364s
2014-10-22 06:13:08    timeBenchmarkDaemon: 
2014-10-22 06:13:08    timeBenchmarkDaemon: Run 10 of 10: started
2014-10-22 06:13:08    timeBenchmarkDaemon: Starting auxiliary processes...
2014-10-22 06:13:28    timeBenchmarkDaemon: Started auxiliary processes
2014-10-22 06:13:28    timeBenchmarkDaemon: Running main processes...
2014-10-22 06:18:51    timeBenchmarkDaemon: Main processes completed in 322.77553s
2014-10-22 06:18:51    timeBenchmarkDaemon: Cleaning up auxiliary processes...
2014-10-22 06:19:11    timeBenchmarkDaemon: Cleaned up auxiliary processes
2014-10-22 06:19:11    timeBenchmarkDaemon: Run 10 of 10: completed with main runtime of 322.77553s
2014-10-22 06:19:11    timeBenchmarkDaemon: 
2014-10-22 06:19:11    timeBenchmarkDaemon: Completed main process runs; average runtime (307.04796969999995 +/- 15.289188876287417) s
2014-10-22 06:19:11    timeBenchmarkDaemon: 
2014-10-22 06:19:11    timeBenchmarkDaemon: Cleaning up...
2014-10-22 06:19:11    timeBenchmarkDaemon: Cleaned up
2014-10-22 06:19:11    timeBenchmarkDaemon: 
2014-10-22 06:19:11    timeBenchmarkDaemon: Completed in total time 3471.202377s
