1413900907623 0 TOTAL_MEM 1656
1413900927676 13798 CREATION
1413900927676 13798 READING 9 0.991928
1413900927676 13798 MINHEAP 2
1413900927676 13798 MINHEAP 276
1413900927680 13799 CREATION
1413900927680 13799 READING 9 0.990156
1413900927680 13799 MINHEAP 2
1413900927680 13799 MINHEAP 276
1413900927722 13798 READING 9 0.974098
1413900927725 13799 READING 9 0.974845
1413900927749 13798 READING 9 0.963058
1413900927751 13799 READING 9 0.964190
1413900927773 13798 READING 9 0.955145
1413900927774 13799 READING 9 0.961591
1413900927862 13798 READING 11 0.980706
1413900927875 13799 READING 11 0.986715
1413900928038 13798 READING 11 0.980523
1413900928044 13799 READING 11 0.988768
1413900928132 13799 READING 17 0.908357
1413900928149 13798 READING 17 0.941084
1413900928278 13798 READING 17 0.417725
1413900928288 13799 READING 17 0.655432
1413900928441 13799 READING 30 0.927193
1413900928576 13798 READING 30 0.960025
1413900928621 13799 READING 31 0.936301
1413900928728 13798 READING 31 0.785701
1413900928864 13799 READING 34 0.502001
1413900928936 13798 READING 35 0.356095
1413900928975 13799 READING 47 0.915669
1413900929009 13798 READING 46 0.792614
1413900929086 13799 READING 49 0.919335
1413900929274 13798 READING 50 0.455043
1413900929356 13799 READING 51 0.248587
1413900929377 13798 READING 64 0.840772
1413900929455 13798 READING 70 0.659331
1413900929456 13799 READING 75 0.805118
1413900929684 13799 READING 75 0.261603
1413900929793 13799 READING 97 0.769598
1413900929797 13798 READING 72 0.168026
1413900929877 13799 READING 100 0.735310
1413900929893 13798 READING 104 0.826284
1413900930291 13798 READING 104 0.213374
1413900930314 13799 READING 102 0.197376
1413900930422 13799 READING 129 0.696399
1413900930433 13798 READING 136 0.717260
1413900930529 13799 READING 133 0.824690
1413900930557 13798 READING 136 0.859745
1413900930641 13799 READING 135 0.752295
1413900930652 13798 READING 138 0.798784
1413900930761 13798 READING 142 0.764565
1413900931099 13799 READING 143 0.212736
1413900931229 13799 READING 174 0.594732
1413900931320 13798 READING 145 0.127341
1413900931342 13799 READING 181 0.831077
1413900931466 13799 READING 183 0.708055
1413900931606 13798 READING 176 0.276725
1413900931738 13798 READING 205 0.758108
1413900931853 13798 READING 210 0.760434
1413900931906 13799 READING 184 0.189611
1413900932116 13798 READING 212 0.820957
1413900932470 13799 READING 226 0.909919
1413900932769 13798 READING 214 0.949155
1413900932909 13799 READING 229 0.922595
1413900933065 13799 READING 234 0.743141
1413900933349 13799 READING 239 0.804541
1413900933437 13799 READING 245 0.571155
1413900933498 13798 READING 217 0.269788
1413900933640 13799 READING 251 0.650815
1413900933641 13798 READING 267 0.618288
1413900933829 13798 READING 267 0.800959
1413900933870 13799 READING 255 0.767075
1413900933943 13798 READING 268 0.946832
1413900934046 13798 READING 265 0.878583
1413900934046 13799 READING 259 0.802103
1413900934143 13799 READING 262 0.659588
1413900934237 13798 READING 267 0.862186
1413900934253 13799 READING 269 0.578136
1413900934347 13799 READING 273 0.658642
1413900934355 13798 READING 268 0.786325
1413900934448 13799 READING 280 0.655591
1413900934449 13798 READING 269 0.658487
1413900934548 13798 READING 274 0.651917
1413900934549 13799 READING 283 0.663287
1413900934627 13798 READING 276 0.808794
1413900934711 13798 READING 281 0.825492
1413900935045 13799 READING 286 0.934268
1413900935140 13799 READING 288 0.704186
1413900935187 13798 READING 282 0.966163
1413900935289 13798 READING 285 0.687102
1413900935437 13798 READING 288 0.723361
1413900935541 13798 READING 295 0.715610
1413900935637 13798 READING 296 0.768182
1413900935860 13798 READING 295 0.916165
1413900936039 13799 READING 285 0.098884
1413900936096 13798 READING 298 0.873963
1413900936162 13799 READING 332 0.641877
1413900936220 13798 READING 300 0.807498
1413900936262 13799 READING 335 0.866318
1413900936309 13798 READING 301 0.699557
1413900936405 13798 READING 307 0.665095
1413900936471 13799 READING 336 0.869238
1413900936505 13798 READING 309 0.652479
1413900936615 13798 READING 316 0.602698
1413900936701 13799 READING 335 0.844439
1413900936711 13798 READING 318 0.749833
1413900936822 13799 READING 338 0.691394
1413900936944 13799 READING 342 0.609472
1413900937057 13799 READING 342 0.588110
1413900937164 13799 READING 350 0.715346
1413900937291 13799 READING 350 0.549628
1413900937428 13799 READING 358 0.694672
1413900937624 13798 FUNCTION lru lambda h: 0.623937 * (h ** 0.0101336)
1413900937624 13799 FUNCTION lru lambda h: 0.889704 * (h ** 0.001)
1413900937624 13798 RECOMMEND 828
1413900937624 13799 RECOMMEND 828
1413900937982 13798 READING 326 0.961862
1413900939433 13799 READING 359 0.983685
1413900939510 13798 READING 327 0.987270
1413900940814 13798 READING 327 0.979205
1413900941062 13799 READING 361 0.964734
1413900942049 13798 READING 330 0.976003
1413900942312 13799 READING 364 0.970258
1413900943054 13798 READING 330 0.970217
1413900943816 13799 READING 368 0.968236
1413900944282 13798 READING 332 0.973230
1413900945197 13799 READING 369 0.982224
1413900945417 13798 READING 329 0.973977
1413900946545 13798 READING 332 0.958485
1413900946704 13799 READING 369 0.972150
1413900947624 13798 FUNCTION lru lambda h: 0.547797 * (h ** 0.0443315)
1413900947624 13799 FUNCTION lru lambda h: 0.739313 * (h ** 0.001)
1413900947624 13798 RECOMMEND 828
1413900947624 13799 RECOMMEND 828
1413900947867 13798 READING 332 0.971035
1413900948068 13799 READING 372 0.969666
1413900948908 13798 READING 333 0.970338
1413900949355 13799 READING 369 0.967546
1413900950113 13798 READING 334 0.969025
1413900950791 13799 READING 372 0.979970
1413900951510 13798 READING 336 0.971245
1413900952499 13799 READING 371 0.975529
1413900952645 13798 READING 337 0.969468
1413900953915 13798 READING 338 0.964593
1413900954042 13799 READING 372 0.979634
1413900955326 13798 READING 340 0.981838
1413900955623 13799 READING 375 0.975612
1413900957056 13798 READING 342 0.977455
1413900957624 13798 FUNCTION lru lambda h: 0.48364 * (h ** 0.0767333)
1413900957624 13799 FUNCTION lru lambda h: 0.679075 * (h ** 0.001)
1413900957624 13798 RECOMMEND 828
1413900957624 13799 RECOMMEND 828
1413900957733 13798 READING 345 0.925233
1413900958113 13799 READING 376 0.689782
1413900958666 13798 READING 345 0.119314
1413900958827 13798 READING 378 0.527202
1413900958931 13798 READING 383 0.794309
1413900959032 13798 READING 389 0.840417
1413900959492 13799 READING 416 0.963257
1413900959658 13799 READING 421 0.841800
1413900959690 13798 READING 389 0.962782
1413900959785 13799 READING 425 0.830773
1413900959906 13799 READING 424 0.856879
1413900960143 13799 READING 428 0.938518
1413900961029 13798 READING 393 0.974633
1413900962077 13799 READING 429 0.986410
1413900962358 13798 READING 394 0.982250
1413900963856 13799 READING 436 0.988995
1413900963981 13798 READING 392 0.978872
1413900965371 13798 READING 395 0.972204
1413900965751 13799 READING 437 0.987446
1413900966764 13798 READING 395 0.974287
1413900967478 13799 READING 439 0.985039
1413900967625 13798 FUNCTION lru lambda h: 0.468398 * (h ** 0.0842351)
1413900967625 13799 FUNCTION lru lambda h: 0.568712 * (h ** 0.0417166)
1413900967625 13798 RECOMMEND 828
1413900967625 13799 RECOMMEND 828
1413900968348 13798 READING 396 0.979971
1413900969258 13799 READING 441 0.984868
1413900969859 13798 READING 399 0.959257
1413900970874 13799 READING 438 0.982417
1413900971226 13798 READING 401 0.966059
1413900972706 13799 READING 441 0.983834
1413900972763 13798 READING 403 0.976987
1413900974203 13798 READING 406 0.965518
1413900974568 13799 READING 440 0.986745
1413900975771 13798 READING 409 0.963942
1413900976306 13799 READING 441 0.981339
1413900977259 13798 READING 413 0.974590
1413900977625 13798 FUNCTION lru lambda h: 0.43271 * (h ** 0.103436)
1413900977625 13799 FUNCTION lru lambda h: 0.539999 * (h ** 0.0540825)
1413900977625 13798 RECOMMEND 828
1413900977625 13799 RECOMMEND 828
1413900978297 13799 READING 443 0.982212
1413900978585 13798 READING 412 0.980966
1413900978759 13798 READING 413 0.857298
1413900978881 13798 READING 411 0.817298
1413900979004 13798 READING 413 0.796156
1413900979132 13798 READING 421 0.845881
1413900979326 13799 READING 444 0.984592
1413900979494 13799 READING 449 0.889351
1413900979646 13799 READING 450 0.863823
1413900979926 13799 READING 456 0.966916
1413900980396 13798 READING 421 0.982430
1413900981993 13799 READING 457 0.991076
1413900982129 13798 READING 425 0.986672
1413900983734 13798 READING 427 0.987853
1413900984385 13799 READING 459 0.992701
1413900985432 13798 READING 428 0.984204
1413900986372 13799 READING 461 0.991394
1413900987332 13798 READING 430 0.989128
1413900987625 13798 FUNCTION lru lambda h: 0.41257 * (h ** 0.114748)
1413900987625 13799 FUNCTION lru lambda h: 0.490026 * (h ** 0.0770481)
1413900987625 13798 RECOMMEND 828
1413900987625 13799 RECOMMEND 828
1413900988442 13799 READING 460 0.986793
1413900989012 13798 READING 428 0.981262
1413900990504 13798 READING 430 0.984895
1413900990813 13799 READING 462 0.989132
1413900992170 13798 READING 427 0.981990
1413900992784 13799 READING 459 0.985605
1413900993884 13798 READING 429 0.980835
1413900994758 13799 READING 462 0.985053
1413900994947 13798 READING 427 0.965574
1413900996710 13798 READING 429 0.985713
1413900996787 13799 READING 464 0.981600
1413900997264 13798 READING 428 0.962507
1413900997405 13798 READING 429 0.865652
1413900997555 13798 READING 432 0.797593
1413900997625 13798 FUNCTION lru lambda h: 0.411666 * (h ** 0.115268)
1413900997625 13799 FUNCTION lru lambda h: 0.474198 * (h ** 0.0847566)
1413900997625 13798 RECOMMEND 828
1413900997625 13799 RECOMMEND 828
1413900997969 13798 READING 433 0.959955
1413900999211 13799 READING 464 0.992211
1413900999467 13799 READING 466 0.940114
1413900999635 13799 READING 467 0.876101
1413900999809 13799 READING 471 0.862766
1413901000006 13798 READING 439 0.990360
1413901002148 13799 READING 473 0.986230
1413901002154 13798 READING 441 0.984997
1413901003975 13798 READING 443 0.983654
1413901004936 13799 READING 478 0.994591
1413901006198 13798 READING 445 0.987760
1413901007292 13799 READING 480 0.989740
1413901007625 13798 FUNCTION lru lambda h: 0.396655 * (h ** 0.123961)
1413901007626 13799 FUNCTION lru lambda h: 0.453765 * (h ** 0.0950043)
1413901007626 13798 RECOMMEND 828
1413901007626 13799 RECOMMEND 828
1413901008043 13798 READING 444 0.982709
1413901009607 13799 READING 480 0.989064
1413901010062 13798 READING 446 0.989130
1413901011957 13799 READING 482 0.988827
1413901012039 13798 READING 445 0.984075
1413901013922 13798 READING 446 0.981655
1413901014299 13799 READING 482 0.987435
1413901016306 13798 READING 448 0.987378
1413901016756 13799 READING 483 0.987762
1413901017086 13798 READING 448 0.962685
1413901017253 13798 READING 449 0.842456
1413901017410 13798 READING 451 0.866246
1413901017626 13798 FUNCTION lru lambda h: 0.389037 * (h ** 0.128475)
1413901017626 13799 FUNCTION lru lambda h: 0.446087 * (h ** 0.0989475)
1413901017626 13798 RECOMMEND 828
1413901017626 13799 RECOMMEND 828
1413901018513 13798 READING 456 0.987735
1413901018947 13799 READING 486 0.988796
1413901019525 13799 READING 487 0.964694
1413901019714 13799 READING 486 0.885443
1413901020121 13799 READING 489 0.947243
1413901020486 13798 READING 458 0.992125
1413901022823 13798 READING 461 0.992518
1413901022933 13799 READING 496 0.994596
1413901025025 13798 READING 463 0.989046
1413901025303 13799 READING 497 0.992053
1413901027263 13798 READING 462 0.986543
1413901027626 13798 FUNCTION lru lambda h: 0.377693 * (h ** 0.135276)
1413901027626 13799 FUNCTION lru lambda h: 0.431266 * (h ** 0.106701)
1413901027626 13798 RECOMMEND 828
1413901027626 13799 RECOMMEND 828
1413901027755 13799 READING 499 0.990347
1413901029257 13798 READING 464 0.984587
1413901030389 13799 READING 501 0.992465
1413901031772 13798 READING 463 0.880920
1413901032911 13799 READING 500 0.988653
1413901033842 13798 READING 482 0.994437
1413901035512 13799 READING 501 0.987850
1413901036667 13798 READING 481 0.991280
1413901036942 13798 READING 484 0.924166
1413901037112 13798 READING 484 0.882081
1413901037289 13798 READING 486 0.871802
1413901037626 13798 FUNCTION lru lambda h: 0.372121 * (h ** 0.138637)
1413901037626 13799 FUNCTION lru lambda h: 0.422419 * (h ** 0.111425)
1413901037626 13798 RECOMMEND 828
1413901037626 13799 RECOMMEND 828
1413901038376 13799 READING 504 0.992756
1413901039234 13799 READING 504 0.979085
1413901039428 13799 READING 504 0.898051
1413901039709 13798 READING 496 0.993890
1413901040260 13799 READING 506 0.982805
1413901042127 13798 READING 495 0.987576
1413901043210 13799 READING 513 0.994509
1413901044752 13798 READING 496 0.988420
1413901046115 13799 READING 514 0.992218
1413901047255 13798 READING 499 0.987430
1413901047626 13798 FUNCTION lru lambda h: 0.366781 * (h ** 0.141859)
1413901047627 13799 FUNCTION lru lambda h: 0.412773 * (h ** 0.116653)
1413901047627 13798 RECOMMEND 828
1413901047627 13799 RECOMMEND 828
1413901048882 13799 READING 515 0.989533
1413901049532 13798 READING 499 0.986293
1413901051707 13799 READING 516 0.989788
1413901051958 13798 READING 501 0.985842
1413901054285 13799 READING 515 0.987813
1413901054364 13798 READING 504 0.983798
1413901056687 13798 READING 505 0.990276
1413901056907 13798 READING 506 0.927416
1413901057062 13799 READING 516 0.987841
1413901057104 13798 READING 509 0.882196
1413901057627 13798 FUNCTION lru lambda h: 0.0946702 * (h ** 0.374499)
1413901057628 13799 FUNCTION lru lambda h: 0.408074 * (h ** 0.119232)
1413901057628 13798 RECOMMEND 828
1413901057628 13799 RECOMMEND 828
1413901058787 13798 READING 515 0.987992
1413901059404 13799 READING 519 0.989811
1413901059635 13799 READING 520 0.910164
1413901059843 13799 READING 520 0.929780
1413901061422 13798 READING 518 0.990623
1413901062546 13799 READING 522 0.990059
1413901064386 13798 READING 520 0.992005
1413901065686 13799 READING 526 0.992191
1413901067082 13798 READING 522 0.989142
1413901067628 13798 FUNCTION lru lambda h: 0.0358376 * (h ** 0.538588)
1413901067628 13799 FUNCTION lru lambda h: 0.255545 * (h ** 0.200409)
1413901067628 13798 RECOMMEND 828
1413901067628 13799 RECOMMEND 828
1413901068860 13799 READING 527 0.992119
1413901069710 13798 READING 521 0.988530
1413901072179 13799 READING 526 0.990078
1413901072389 13798 READING 523 0.987542
1413901074992 13798 READING 526 0.986032
1413901075099 13799 READING 529 0.988938
1413901076847 13798 READING 526 0.986818
1413901077057 13798 READING 529 0.889751
1413901077628 13798 FUNCTION lru lambda h: 0.0285098 * (h ** 0.575945)
1413901077628 13799 FUNCTION lru lambda h: 0.162449 * (h ** 0.27764)
1413901077628 13798 RECOMMEND 828
1413901077628 13799 RECOMMEND 828
1413901077650 13798 READING 531 0.967521
1413901077813 13799 READING 532 0.991200
1413901080089 13799 READING 532 0.988225
1413901080312 13799 READING 535 0.903244
1413901080357 13798 READING 539 0.989397
1413901081185 13799 READING 537 0.983365
1413901083252 13798 READING 540 0.990074
1413901084554 13799 READING 544 0.990988
1413901086002 13798 READING 540 0.989923
1413901087481 13799 READING 545 0.993921
1413901087628 13798 FUNCTION lru lambda h: 0.0436881 * (h ** 0.504481)
1413901087628 13799 FUNCTION lru lambda h: 0.0532976 * (h ** 0.46516)
1413901087628 13798 RECOMMEND 828
1413901087628 13799 RECOMMEND 828
1413901088995 13798 READING 543 0.988543
1413901090496 13799 READING 544 0.991453
1413901091837 13798 READING 542 0.988526
1413901093426 13799 READING 547 0.989829
1413901094706 13798 READING 544 0.990015
1413901096223 13798 READING 546 0.984061
1413901096441 13798 READING 548 0.905623
1413901096703 13799 READING 547 0.990061
1413901097628 13798 FUNCTION lru lambda h: 0.0520037 * (h ** 0.474489)
1413901097628 13799 FUNCTION lru lambda h: 0.04555 * (h ** 0.491314)
1413901097628 13798 RECOMMEND 828
1413901097628 13799 RECOMMEND 828
1413901097673 13798 READING 552 0.983059
1413901099873 13799 READING 548 0.994366
1413901100169 13799 READING 550 0.941764
1413901100398 13799 READING 551 0.941242
1413901100703 13798 READING 553 0.991389
1413901103796 13798 READING 556 0.991245
1413901103908 13799 READING 558 0.993995
1413901106678 13798 READING 558 0.986445
1413901107605 13799 READING 558 0.994569
1413901107629 13798 FUNCTION lru lambda h: 0.0986517 * (h ** 0.368706)
1413901107629 13799 FUNCTION lru lambda h: 0.0311903 * (h ** 0.553536)
1413901107629 13798 RECOMMEND 828
1413901107629 13799 RECOMMEND 828
1413901110108 13798 READING 556 0.988653
1413901111287 13799 READING 559 0.991854
1413901113307 13798 READING 559 0.992099
1413901114426 13799 READING 561 0.990220
1413901116095 13798 READING 561 0.992042
1413901116349 13798 READING 562 0.914810
1413901116758 13798 READING 562 0.958553
1413901117629 13798 FUNCTION lru lambda h: 0.128007 * (h ** 0.325926)
1413901117629 13799 FUNCTION lru lambda h: 0.0157679 * (h ** 0.665653)
1413901117629 13798 RECOMMEND 828
1413901117629 13799 RECOMMEND 828
1413901117787 13799 READING 562 0.990367
1413901119840 13798 READING 564 0.992059
1413901120739 13799 READING 562 0.995380
1413901121005 13799 READING 566 0.931881
1413901121975 13799 READING 566 0.988606
1413901123227 13798 READING 567 0.992049
1413901125774 13799 READING 573 0.994152
1413901126500 13798 READING 569 0.990907
1413901127629 13798 FUNCTION lru lambda h: 0.126636 * (h ** 0.327529)
1413901127629 13799 FUNCTION lru lambda h: 0.0190357 * (h ** 0.633933)
1413901127629 13798 RECOMMEND 828
1413901127629 13799 RECOMMEND 828
1413901129333 13799 READING 574 0.992403
1413901129977 13798 READING 568 0.990479
1413901132694 13799 READING 573 0.987491
1413901133221 13798 READING 571 0.988993
1413901135898 13799 READING 575 0.989683
1413901135989 13798 READING 573 0.992235
1413901136248 13798 READING 574 0.934122
1413901137139 13798 READING 574 0.981368
1413901137629 13798 FUNCTION lru lambda h: 0.144878 * (h ** 0.305422)
1413901137629 13799 FUNCTION lru lambda h: 0.0339811 * (h ** 0.538943)
1413901137629 13798 RECOMMEND 828
1413901137629 13799 RECOMMEND 828
1413901139685 13799 READING 577 0.989860
1413901140762 13798 READING 577 0.994724
1413901141057 13799 READING 577 0.981911
1413901141308 13799 READING 584 0.925854
1413901144098 13798 READING 578 0.991970
1413901144358 13799 READING 586 0.994976
1413901147281 13798 READING 580 0.990511
1413901147630 13798 FUNCTION lru lambda h: 0.203215 * (h ** 0.250672)
1413901147630 13799 FUNCTION lru lambda h: 0.0198034 * (h ** 0.626014)
1413901147630 13798 RECOMMEND 828
1413901147630 13799 RECOMMEND 828
1413901148189 13799 READING 591 0.993640
1413901150567 13798 READING 580 0.989872
1413901151590 13799 READING 592 0.991390
1413901153809 13798 READING 581 0.991940
1413901155407 13799 READING 590 0.991743
1413901155757 13798 READING 583 0.986581
1413901156009 13798 READING 585 0.914708
1413901157630 13798 FUNCTION lru lambda h: 0.392131 * (h ** 0.144537)
1413901157630 13799 FUNCTION lru lambda h: 0.0180048 * (h ** 0.640857)
1413901157630 13798 RECOMMEND 828
1413901157630 13799 RECOMMEND 828
1413901158244 13798 READING 588 0.990503
1413901159256 13799 READING 593 0.991260
1413901161392 13799 READING 595 0.991036
1413901161655 13799 READING 596 0.920919
1413901161702 13798 READING 590 0.993130
1413901164894 13799 READING 599 0.993614
1413901165547 13798 READING 592 0.992110
1413901167630 13798 FUNCTION lru lambda h: 0.328592 * (h ** 0.172962)
1413901167630 13799 FUNCTION lru lambda h: 0.0152957 * (h ** 0.666196)
1413901167630 13798 RECOMMEND 828
1413901167630 13799 RECOMMEND 828
1413901168843 13799 READING 600 0.993958
1413901169280 13798 READING 594 0.991144
1413901172648 13798 READING 594 0.987808
1413901172865 13799 READING 602 0.992873
1413901175206 13798 READING 595 0.991575
1413901175502 13798 READING 599 0.895574
1413901176579 13799 READING 604 0.991519
1413901176920 13798 READING 599 0.986857
1413901177630 13798 FUNCTION lru lambda h: 0.274957 * (h ** 0.201374)
1413901177630 13799 FUNCTION lru lambda h: 0.0165881 * (h ** 0.652511)
1413901177630 13798 RECOMMEND 828
1413901177630 13799 RECOMMEND 828
1413901179886 13799 READING 603 0.988334
1413901180679 13798 READING 607 0.992825
1413901181759 13799 READING 604 0.986767
1413901182031 13799 READING 607 0.964041
1413901184600 13798 READING 608 0.990160
1413901185935 13799 READING 608 0.994119
1413901187631 13798 FUNCTION lru lambda h: 0.234949 * (h ** 0.226502)
1413901187631 13799 FUNCTION lru lambda h: 0.111751 * (h ** 0.345629)
1413901187631 13798 RECOMMEND 828
1413901187631 13799 RECOMMEND 828
1413901188526 13798 READING 609 0.991525
1413901189528 13799 READING 611 0.992716
1413901192300 13798 READING 611 0.990049
1413901193281 13799 READING 612 0.991909
1413901195385 13798 READING 614 0.993823
1413901195681 13798 READING 615 0.927561
1413901195821 13798 DEATH 196
1413901196849 13799 READING 611 0.993205
1413901197631 13799 FUNCTION lru lambda h: 0.141192 * (h ** 0.308084)
1413901197631 13799 RECOMMEND 1656
1413901201123 13799 READING 613 0.996605
1413901201491 13799 READING 614 0.959493
1413901201685 13799 DEATH 179
