1413903774466 0 TOTAL_MEM 1656
1413903794522 14745 CREATION
1413903794522 14745 READING 9 0.991270
1413903794522 14745 MINHEAP 2
1413903794522 14745 MINHEAP 276
1413903794527 14746 CREATION
1413903794527 14746 READING 9 0.990499
1413903794527 14746 MINHEAP 2
1413903794527 14746 MINHEAP 276
1413903794571 14746 READING 9 0.978017
1413903794574 14745 READING 9 0.976968
1413903794600 14746 READING 9 0.962736
1413903794601 14745 READING 9 0.949283
1413903794623 14746 READING 9 0.949122
1413903794623 14745 READING 9 0.957314
1413903794722 14745 READING 11 0.986635
1413903794723 14746 READING 11 0.987271
1413903794869 14746 READING 11 0.972506
1413903794885 14745 READING 11 0.975433
1413903794952 14746 READING 17 0.918198
1413903795053 14745 READING 17 0.959093
1413903795110 14746 READING 17 0.456303
1413903795172 14745 READING 17 0.603905
1413903795317 14745 READING 30 0.968980
1413903795322 14746 READING 30 0.856011
1413903795433 14745 READING 31 0.768932
1413903795473 14746 READING 31 0.925274
1413903795644 14745 READING 35 0.401532
1413903795714 14746 READING 35 0.408794
1413903795738 14745 READING 47 0.860000
1413903795818 14746 READING 45 0.876304
1413903796061 14745 READING 49 0.382231
1413903796109 14746 READING 49 0.420475
1413903796166 14745 READING 62 0.906122
1413903796175 14746 READING 64 0.865356
1413903796244 14746 READING 69 0.755401
1413903796244 14745 READING 67 0.885744
1413903796480 14745 READING 69 0.253501
1413903796568 14745 READING 98 0.690832
1413903796573 14746 READING 70 0.182952
1413903796709 14746 READING 103 0.756232
1413903796827 14746 READING 103 0.693256
1413903796955 14745 READING 98 0.182698
1413903797070 14745 READING 127 0.779512
1413903797131 14746 READING 105 0.206885
1413903797177 14745 READING 127 0.755150
1413903797256 14746 READING 136 0.788492
1413903797276 14745 READING 130 0.776942
1413903797353 14746 READING 140 0.846842
1413903797450 14746 READING 141 0.729145
1413903797559 14746 READING 144 0.689960
1413903797701 14745 READING 133 0.187549
1413903797884 14745 READING 162 0.544605
1413903797991 14745 READING 167 0.702922
1413903798058 14746 READING 149 0.167125
1413903798081 14745 READING 169 0.763000
1413903798186 14746 READING 192 0.652873
1413903798293 14746 READING 194 0.677775
1413903798422 14746 READING 196 0.682696
1413903798481 14745 READING 172 0.205970
1413903798535 14746 READING 200 0.767887
1413903798649 14745 READING 212 0.504905
1413903799124 14745 READING 215 0.904379
1413903799275 14746 READING 210 0.946076
1413903799541 14745 READING 215 0.913135
1413903799686 14745 READING 223 0.718109
1413903799835 14745 READING 228 0.843223
1413903799949 14745 READING 230 0.437668
1413903800043 14746 READING 213 0.327295
1413903800093 14745 READING 235 0.833996
1413903800157 14746 READING 262 0.694313
1413903800297 14745 READING 237 0.712338
1413903800337 14746 READING 266 0.859843
1413903800465 14746 READING 269 0.688274
1413903800471 14745 READING 241 0.747220
1413903800583 14745 READING 243 0.670433
1413903800583 14746 READING 269 0.697008
1413903800686 14745 READING 248 0.668438
1413903800781 14745 READING 252 0.696644
1413903800805 14746 READING 274 0.902113
1413903800882 14745 READING 259 0.718946
1413903800918 14746 READING 274 0.745564
1413903800983 14745 READING 261 0.724062
1413903801020 14746 READING 279 0.758822
1413903801118 14746 READING 282 0.759653
1413903801226 14746 READING 289 0.751172
1413903801379 14745 READING 268 0.931860
1413903801605 14746 READING 290 0.887198
1413903801869 14746 READING 297 0.873942
1413903802001 14746 READING 297 0.639957
1413903802129 14746 READING 304 0.725982
1413903802205 14745 READING 269 0.159930
1413903802361 14745 READING 304 0.520768
1413903802469 14745 READING 307 0.746945
1413903802589 14745 READING 310 0.730922
1413903802818 14745 READING 311 0.929053
1413903802826 14746 READING 304 0.130744
1413903803045 14745 READING 310 0.878780
1413903803161 14746 READING 352 0.822282
1413903803234 14745 READING 313 0.723922
1413903803355 14745 READING 316 0.593934
1413903803356 14746 READING 353 0.872388
1413903803446 14745 READING 317 0.671816
1413903803474 14746 READING 355 0.805396
1413903803558 14745 READING 324 0.587481
1413903803576 14746 READING 357 0.669938
1413903803673 14745 READING 325 0.578381
1413903803684 14746 READING 364 0.698296
1413903803800 14745 READING 334 0.601714
1413903803809 14746 READING 363 0.600505
1413903804130 14746 READING 372 0.897423
1413903804467 14745 FUNCTION lru lambda h: 0.832488 * (h ** 0.001)
1413903804467 14746 FUNCTION lru lambda h: 0.651567 * (h ** 0.00189292)
1413903804467 14745 RECOMMEND 828
1413903804467 14746 RECOMMEND 828
1413903805325 14745 READING 335 0.968781
1413903805990 14746 READING 372 0.979359
1413903806726 14745 READING 337 0.967426
1413903807390 14746 READING 377 0.979001
1413903808840 14745 READING 340 0.651457
1413903808890 14746 READING 380 0.968535
1413903810300 14745 READING 384 0.959850
1413903810317 14746 READING 380 0.955274
1413903811665 14745 READING 386 0.987356
1413903812115 14746 READING 383 0.982117
1413903813085 14745 READING 393 0.984881
1413903813587 14746 READING 384 0.976192
1413903814348 14745 READING 394 0.987302
1413903814467 14745 FUNCTION lru lambda h: 0.663514 * (h ** 0.001)
1413903814467 14746 FUNCTION lru lambda h: 0.570939 * (h ** 0.0354163)
1413903814467 14745 RECOMMEND 828
1413903814467 14746 RECOMMEND 828
1413903815183 14746 READING 386 0.973494
1413903815945 14745 READING 394 0.985134
1413903816732 14746 READING 384 0.973364
1413903817449 14745 READING 396 0.982738
1413903818199 14746 READING 387 0.968371
1413903819062 14745 READING 391 0.982626
1413903819841 14746 READING 389 0.975170
1413903820394 14745 READING 394 0.980113
1413903821587 14746 READING 390 0.975202
1413903821821 14745 READING 393 0.979764
1413903822962 14746 READING 393 0.971398
1413903823691 14745 READING 394 0.973319
1413903824467 14745 FUNCTION lru lambda h: 0.625709 * (h ** 0.012841)
1413903824467 14746 FUNCTION lru lambda h: 0.510547 * (h ** 0.0636166)
1413903824467 14745 RECOMMEND 828
1413903824467 14746 RECOMMEND 828
1413903824911 14746 READING 394 0.982971
1413903825147 14746 READING 395 0.881838
1413903825281 14746 READING 397 0.792343
1413903825414 14746 READING 405 0.818624
1413903825560 14746 READING 407 0.807954
1413903825640 14745 READING 396 0.989210
1413903826388 14745 READING 397 0.971284
1413903826536 14745 READING 394 0.844441
1413903826667 14745 READING 395 0.772874
1413903826802 14745 READING 403 0.762217
1413903827204 14746 READING 417 0.984853
1413903827337 14745 READING 407 0.967948
1413903828947 14746 READING 417 0.980629
1413903828947 14745 READING 414 0.973251
1413903830587 14746 READING 420 0.984450
1413903830819 14745 READING 416 0.990597
1413903832537 14746 READING 422 0.982848
1413903832537 14745 READING 415 0.971121
1413903834098 14745 READING 419 0.984601
1413903834402 14746 READING 422 0.982588
1413903834467 14745 FUNCTION lru lambda h: 0.540546 * (h ** 0.0483241)
1413903834467 14746 FUNCTION lru lambda h: 0.468527 * (h ** 0.0849254)
1413903834467 14745 RECOMMEND 828
1413903834468 14746 RECOMMEND 828
1413903835787 14745 READING 416 0.987785
1413903836598 14746 READING 424 0.986362
1413903837701 14745 READING 419 0.984777
1413903838494 14746 READING 422 0.983417
1413903839482 14745 READING 417 0.980022
1413903840473 14746 READING 425 0.984085
1413903841287 14745 READING 419 0.981759
1413903842511 14746 READING 425 0.987503
1413903842993 14745 READING 421 0.980316
1413903844468 14745 FUNCTION lru lambda h: 0.521401 * (h ** 0.057011)
1413903844468 14746 FUNCTION lru lambda h: 0.456165 * (h ** 0.091474)
1413903844468 14745 RECOMMEND 828
1413903844468 14746 RECOMMEND 828
1413903844681 14746 READING 426 0.984517
1413903844952 14745 READING 422 0.977284
1413903845684 14746 READING 427 0.485837
1413903845816 14746 READING 471 0.994495
1413903845947 14746 READING 470 0.994182
1413903846291 14745 READING 422 0.986370
1413903846457 14745 READING 425 0.885055
1413903846603 14745 READING 426 0.830021
1413903846748 14745 READING 428 0.900126
1413903847010 14746 READING 475 0.994084
1413903848601 14745 READING 435 0.988690
1413903849147 14746 READING 479 0.994700
1413903850587 14745 READING 436 0.990335
1413903851244 14746 READING 481 0.993020
1413903852649 14745 READING 438 0.988718
1413903853380 14746 READING 480 0.991440
1413903854468 14745 FUNCTION lru lambda h: 0.477742 * (h ** 0.0778834)
1413903854468 14746 FUNCTION lru lambda h: 0.430126 * (h ** 0.105216)
1413903854468 14745 RECOMMEND 828
1413903854468 14746 RECOMMEND 828
1413903854692 14745 READING 440 0.988178
1413903855498 14746 READING 436 0.990188
1413903856729 14745 READING 438 0.990336
1413903857667 14746 READING 475 0.988637
1413903858584 14745 READING 441 0.988503
1413903859875 14746 READING 447 0.986992
1413903860734 14745 READING 439 0.985624
1413903861872 14746 READING 476 0.983826
1413903862761 14745 READING 441 0.985214
1413903863632 14746 READING 476 0.980402
1413903864468 14745 FUNCTION lru lambda h: 0.459861 * (h ** 0.0869191)
1413903864469 14746 FUNCTION lru lambda h: 0.418871 * (h ** 0.111589)
1413903864469 14745 RECOMMEND 828
1413903864469 14746 RECOMMEND 828
1413903865027 14745 READING 443 0.982809
1413903865806 14746 READING 477 0.987226
1413903866054 14746 READING 479 0.899369
1413903866209 14746 READING 475 0.843880
1413903866326 14745 READING 444 0.985370
1413903866368 14746 READING 481 0.836798
1413903866509 14745 READING 447 0.881080
1413903866670 14745 READING 449 0.869872
1413903867755 14745 READING 455 0.989077
1413903868029 14746 READING 491 0.982465
1413903869989 14745 READING 456 0.991594
1413903870175 14746 READING 494 0.991470
1413903872329 14746 READING 490 0.990758
1413903872501 14745 READING 460 0.991359
1413903874411 14746 READING 495 0.984504
1413903874469 14745 FUNCTION lru lambda h: 0.431633 * (h ** 0.10179)
1413903874469 14746 FUNCTION lru lambda h: 0.40624 * (h ** 0.118719)
1413903874469 14745 RECOMMEND 828
1413903874469 14746 RECOMMEND 828
1413903875051 14745 READING 461 0.989882
1413903876658 14746 READING 495 0.985206
1413903877426 14745 READING 461 0.989304
1413903878923 14746 READING 497 0.985325
1413903879629 14745 READING 463 0.987006
1413903881482 14746 READING 499 0.985179
1413903882096 14745 READING 461 0.985323
1413903883642 14746 READING 500 0.983337
1413903884309 14745 READING 463 0.984988
1413903884469 14745 FUNCTION lru lambda h: 0.423735 * (h ** 0.106084)
1413903884469 14746 FUNCTION lru lambda h: 0.397862 * (h ** 0.123553)
1413903884469 14745 RECOMMEND 828
1413903884469 14746 RECOMMEND 828
1413903886056 14746 READING 503 0.990902
1413903886308 14746 READING 503 0.914540
1413903886481 14746 READING 505 0.879158
1413903886875 14745 READING 464 0.992255
1413903887082 14746 READING 506 0.969756
1413903887122 14745 READING 465 0.922198
1413903887301 14745 READING 465 0.881017
1413903888221 14745 READING 468 0.987410
1413903889892 14746 READING 514 0.994599
1413903890727 14745 READING 474 0.991844
1413903892261 14746 READING 515 0.990040
1413903893354 14745 READING 475 0.991672
1413903894469 14745 FUNCTION lru lambda h: 0.407901 * (h ** 0.114886)
1413903894469 14746 FUNCTION lru lambda h: 0.38858 * (h ** 0.128985)
1413903894469 14745 RECOMMEND 828
1413903894469 14746 RECOMMEND 828
1413903895077 14746 READING 516 0.990751
1413903895875 14745 READING 476 0.990541
1413903897736 14746 READING 518 0.989181
1413903898325 14745 READING 478 0.989163
1413903900330 14746 READING 515 0.988308
1413903901064 14745 READING 476 0.989266
1413903902728 14746 READING 518 0.986508
1413903903405 14745 READING 478 0.986094
1413903904469 14745 FUNCTION lru lambda h: 0.401813 * (h ** 0.11834)
1413903904469 14746 FUNCTION lru lambda h: 0.384271 * (h ** 0.131537)
1413903904470 14745 RECOMMEND 828
1413903904470 14746 RECOMMEND 828
1413903905439 14746 READING 520 0.985000
1413903906040 14745 READING 480 0.984384
1413903906705 14746 READING 520 0.980756
1413903906894 14746 READING 527 0.892041
1413903907200 14746 READING 528 0.951178
1413903907321 14745 READING 480 0.979195
1413903907504 14745 READING 487 0.916280
1413903907783 14745 READING 488 0.959944
1413903910118 14746 READING 535 0.991907
1413903910265 14745 READING 494 0.991803
1413903912794 14746 READING 535 0.991478
1413903913394 14745 READING 494 0.992938
1413903914470 14745 FUNCTION lru lambda h: 0.392586 * (h ** 0.123633)
1413903914470 14746 FUNCTION lru lambda h: 0.378874 * (h ** 0.134751)
1413903914470 14745 RECOMMEND 828
1413903914470 14746 RECOMMEND 828
1413903915679 14746 READING 537 0.991092
1413903916555 14745 READING 494 0.990360
1413903918517 14746 READING 539 0.988132
1413903919240 14745 READING 496 0.990222
1413903921447 14746 READING 536 0.989574
1413903921702 14745 READING 493 0.987639
1413903923895 14746 READING 539 0.986368
1413903924127 14745 READING 496 0.988871
1413903924470 14745 FUNCTION lru lambda h: 0.387593 * (h ** 0.126532)
1413903924470 14746 FUNCTION lru lambda h: 0.373658 * (h ** 0.137881)
1413903924470 14745 RECOMMEND 828
1413903924470 14746 RECOMMEND 828
1413903926601 14746 READING 542 0.991413
1413903926868 14746 READING 542 0.904693
1413903927073 14745 READING 498 0.983573
1413903927073 14746 READING 542 0.922453
1413903927601 14745 READING 499 0.966334
1413903927803 14745 READING 500 0.902123
1413903929170 14745 READING 502 0.988081
1413903929291 14746 READING 544 0.990845
1413903932115 14745 READING 508 0.991242
1413903932344 14746 READING 552 0.994507
1413903934470 14745 FUNCTION lru lambda h: 0.378205 * (h ** 0.132055)
1413903934470 14746 FUNCTION lru lambda h: 0.369702 * (h ** 0.140268)
1413903934470 14745 RECOMMEND 828
1413903934470 14746 RECOMMEND 828
1413903934877 14745 READING 509 0.987960
1413903935383 14746 READING 553 0.991320
1413903937997 14745 READING 510 0.988222
1413903938316 14746 READING 553 0.990581
1413903940707 14745 READING 512 0.984587
1413903941394 14746 READING 555 0.984207
1413903943555 14745 READING 511 0.989225
1413903944252 14746 READING 557 0.987997
1413903944470 14745 FUNCTION lru lambda h: 0.13522 * (h ** 0.309033)
1413903944470 14746 FUNCTION lru lambda h: 0.365525 * (h ** 0.142802)
1413903944470 14745 RECOMMEND 828
1413903944471 14746 RECOMMEND 828
1413903946507 14746 READING 557 0.989771
1413903946741 14746 READING 559 0.908375
1413903946889 14745 READING 512 0.994409
1413903947526 14746 READING 561 0.977032
1413903947827 14745 READING 514 0.977978
1413903948046 14745 READING 514 0.872052
1413903949544 14745 READING 518 0.988958
1413903950828 14746 READING 570 0.993301
1413903952490 14745 READING 519 0.992629
1413903954079 14746 READING 570 0.991167
1413903954471 14745 FUNCTION lru lambda h: 0.0683895 * (h ** 0.42445)
1413903954471 14746 FUNCTION lru lambda h: 0.227717 * (h ** 0.223543)
1413903954471 14745 RECOMMEND 828
1413903954471 14746 RECOMMEND 828
1413903955599 14745 READING 522 0.990802
1413903957261 14746 READING 571 0.991197
1413903958419 14745 READING 524 0.990653
1413903960538 14746 READING 573 0.991560
1413903961163 14745 READING 522 0.988196
1413903963845 14746 READING 574 0.988413
1413903964471 14745 FUNCTION lru lambda h: 0.0417903 * (h ** 0.50721)
1413903964471 14746 FUNCTION lru lambda h: 0.114502 * (h ** 0.339132)
1413903964471 14745 RECOMMEND 828
1413903964471 14746 RECOMMEND 828
1413903964533 14745 READING 524 0.989998
1413903966464 14746 READING 575 0.992584
1413903966733 14746 READING 580 0.915389
1413903967460 14745 READING 527 0.994620
1413903967738 14745 READING 527 0.920715
1413903967960 14745 READING 527 0.951107
1413903968034 14746 READING 580 0.985169
1413903971040 14745 READING 529 0.992925
1413903971540 14746 READING 588 0.991953
1413903974071 14745 READING 532 0.991964
1413903974471 14745 FUNCTION lru lambda h: 0.0259202 * (h ** 0.586957)
1413903974471 14746 FUNCTION lru lambda h: 0.0770706 * (h ** 0.404874)
1413903974471 14745 RECOMMEND 828
1413903974471 14746 RECOMMEND 828
1413903975012 14746 READING 589 0.993747
1413903977249 14745 READING 534 0.991286
1413903978308 14746 READING 588 0.991180
1413903980365 14745 READING 533 0.989900
1413903981503 14746 READING 591 0.987351
1413903983715 14745 READING 535 0.990225
1413903984471 14745 FUNCTION lru lambda h: 0.022741 * (h ** 0.608413)
1413903984471 14746 FUNCTION lru lambda h: 0.0385297 * (h ** 0.519322)
1413903984471 14745 RECOMMEND 828
1413903984471 14746 RECOMMEND 828
1413903985077 14746 READING 593 0.989350
1413903986346 14746 READING 594 0.974329
1413903986598 14746 READING 597 0.898952
1413903987316 14745 READING 537 0.992116
1413903987733 14745 READING 538 0.959368
1413903987965 14745 READING 537 0.939414
1413903989719 14746 READING 603 0.992267
1413903990840 14745 READING 540 0.992531
1413903993545 14746 READING 609 0.991885
1413903994166 14745 READING 544 0.992373
1413903994472 14745 FUNCTION lru lambda h: 0.026432 * (h ** 0.583104)
1413903994472 14746 FUNCTION lru lambda h: 0.0500431 * (h ** 0.474897)
1413903994472 14745 RECOMMEND 828
1413903994472 14746 RECOMMEND 828
1413903997151 14746 READING 612 0.993011
1413903997788 14745 READING 545 0.992314
1413904000545 14746 READING 615 0.990434
1413904001008 14745 READING 543 0.990435
1413904003957 14746 READING 616 0.987371
1413904004111 14745 READING 545 0.990425
1413904004472 14745 FUNCTION lru lambda h: 0.0235226 * (h ** 0.60195)
1413904004472 14746 FUNCTION lru lambda h: 0.0794413 * (h ** 0.399373)
1413904004472 14745 RECOMMEND 828
1413904004472 14746 RECOMMEND 828
1413904006327 14746 READING 619 0.987125
1413904006592 14746 READING 622 0.895812
1413904007455 14745 READING 548 0.993608
1413904007760 14745 READING 549 0.931208
1413904008400 14745 READING 547 0.969452
1413904009426 14746 READING 627 0.993063
1413904012295 14745 READING 550 0.994549
1413904013202 14746 READING 629 0.988928
1413904014472 14745 FUNCTION lru lambda h: 0.0191207 * (h ** 0.635041)
1413904014472 14746 FUNCTION lru lambda h: 0.0715008 * (h ** 0.415722)
1413904014472 14745 RECOMMEND 828
1413904014472 14746 RECOMMEND 828
1413904015897 14745 READING 553 0.992657
1413904016916 14746 READING 630 0.989943
1413904019573 14745 READING 554 0.991632
1413904020711 14746 READING 633 0.990229
1413904023022 14745 READING 554 0.990242
1413904024472 14745 FUNCTION lru lambda h: 0.0154231 * (h ** 0.669733)
1413904024472 14746 FUNCTION lru lambda h: 0.0997726 * (h ** 0.36182)
1413904024473 14745 RECOMMEND 828
1413904024473 14746 RECOMMEND 828
1413904024823 14746 READING 631 0.930370
1413904026702 14745 READING 555 0.910928
1413904026799 14746 READING 640 0.987427
1413904027070 14746 READING 643 0.934462
1413904028736 14745 READING 589 0.983148
1413904028994 14745 READING 590 0.890230
1413904030488 14746 READING 643 0.993258
1413904031505 14745 READING 594 0.993088
1413904034473 14745 FUNCTION lru lambda h: 0.0136939 * (h ** 0.687598)
1413904034473 14746 FUNCTION lru lambda h: 0.110282 * (h ** 0.345261)
1413904034473 14745 RECOMMEND 828
1413904034473 14746 RECOMMEND 828
1413904034951 14746 READING 649 0.994633
1413904035152 14745 READING 595 0.993796
1413904038646 14746 READING 651 0.992003
1413904038694 14745 READING 600 0.993109
1413904042024 14745 READING 602 0.990897
1413904042823 14746 READING 654 0.992151
1413904044473 14745 FUNCTION lru lambda h: 0.0401409 * (h ** 0.5128)
1413904044473 14746 FUNCTION lru lambda h: 0.111893 * (h ** 0.342663)
1413904044473 14745 RECOMMEND 828
1413904044473 14746 RECOMMEND 828
1413904045696 14745 READING 603 0.990808
1413904046866 14746 READING 656 0.994703
1413904047231 14746 READING 657 0.950091
1413904048683 14745 READING 604 0.993621
1413904048969 14745 READING 608 0.931688
1413904049475 14746 READING 658 0.990974
1413904050907 14745 READING 609 0.992152
1413904053688 14746 READING 665 0.995662
1413904054473 14745 FUNCTION lru lambda h: 0.0567714 * (h ** 0.456027)
1413904054473 14746 FUNCTION lru lambda h: 0.205309 * (h ** 0.24566)
1413904054473 14745 RECOMMEND 828
1413904054473 14746 RECOMMEND 828
1413904054822 14745 READING 616 0.993716
1413904057881 14746 READING 666 0.992670
1413904059008 14745 READING 618 0.993121
1413904062283 14746 READING 666 0.992284
1413904063065 14745 READING 618 0.992421
1413904064474 14745 FUNCTION lru lambda h: 0.0873042 * (h ** 0.386544)
1413904064474 14746 FUNCTION lru lambda h: 0.214965 * (h ** 0.23833)
1413904064474 14745 RECOMMEND 828
1413904064474 14746 RECOMMEND 828
1413904066622 14745 READING 620 0.990473
1413904066659 14746 READING 669 0.995061
1413904067486 14746 READING 668 0.974558
1413904067684 14746 DEATH 175
1413904069201 14745 READING 623 0.992288
1413904069475 14745 READING 625 0.931918
1413904069555 14745 DEATH 184
