1412858861339 0 TOTAL_MEM 6175
1412858881355 29874 CREATION
1412858881355 29874 READING 9 0.983181
1412858881355 29874 MINHEAP 2
1412858881355 29874 MINHEAP 12
1412858881392 29873 CREATION
1412858881392 29873 READING 9 0.987069
1412858881392 29873 MINHEAP 2
1412858881392 29873 MINHEAP 1223
1412858881440 29874 READING 9 0.974591
1412858881449 29873 READING 9 0.965579
1412858881509 29874 READING 11 0.981784
1412858881510 29873 READING 11 0.981829
1412858881582 29874 READING 11 0.966006
1412858881624 29873 READING 11 0.974826
1412858881740 29874 READING 15 0.974987
1412858881809 29873 READING 15 0.811587
1412858881861 29874 READING 15 0.965794
1412858881898 29873 READING 18 0.966467
1412858882018 29873 READING 23 0.951763
1412858882157 29873 READING 27 0.859563
1412858882330 29874 READING 24 0.853494
1412858882334 29873 READING 27 0.345641
1412858882398 29873 READING 37 0.802070
1412858882465 29873 READING 42 0.763642
1412858882546 29873 READING 43 0.766872
1412858882744 29874 READING 29 0.962422
1412858882782 29873 READING 49 0.305022
1412858882848 29873 READING 62 0.844085
1412858882913 29873 READING 70 0.776017
1412858883069 29874 READING 34 0.987327
1412858883232 29873 READING 71 0.214854
1412858883286 29874 READING 38 0.978990
1412858883415 29873 READING 102 0.852651
1412858883540 29874 READING 40 0.983616
1412858883545 29873 READING 103 0.784983
1412858883718 29874 READING 43 0.983583
1412858883865 29874 READING 46 0.975439
1412858883909 29873 READING 105 0.185527
1412858884089 29874 READING 47 0.986517
1412858884158 29873 READING 135 0.775927
1412858884273 29874 READING 51 0.965169
1412858884277 29873 READING 139 0.770894
1412858884464 29874 READING 51 0.949511
1412858884726 29874 READING 57 0.835281
1412858884922 29874 READING 63 0.984566
1412858884926 29873 READING 143 0.153539
1412858885055 29873 READING 182 0.649462
1412858885103 29874 READING 68 0.957135
1412858885194 29873 READING 185 0.739916
1412858885337 29873 READING 187 0.592992
1412858885494 29873 READING 192 0.701854
1412858885567 29874 READING 68 0.996179
1412858885634 29873 READING 199 0.760970
1412858885765 29873 READING 205 0.686663
1412858885901 29873 READING 208 0.678285
1412858886040 29873 READING 218 0.607329
1412858886167 29873 READING 223 0.611848
1412858886216 29874 READING 74 0.997217
1412858886296 29873 READING 235 0.521722
1412858886792 29874 READING 75 0.994709
1412858886919 29873 READING 242 0.112709
1412858887057 29873 READING 286 0.539866
1412858887176 29873 READING 295 0.517223
1412858887437 29874 READING 80 0.995468
1412858887818 29873 READING 298 0.113318
1412858887966 29873 READING 340 0.474492
1412858887997 29874 READING 81 0.996055
1412858888089 29873 READING 268 0.584172
1412858888230 29873 READING 331 0.515697
1412858888634 29874 READING 84 0.995280
1412858888903 29873 READING 335 0.129422
1412858889074 29873 READING 385 0.511681
1412858889200 29873 READING 329 0.729711
1412858889216 29874 READING 86 0.996220
1412858889356 29873 READING 381 0.722183
1412858889491 29873 READING 383 0.673785
1412858889654 29873 READING 384 0.612333
1412858889813 29873 READING 390 0.603822
1412858889870 29874 READING 89 0.997244
1412858889950 29873 READING 395 0.627557
1412858890103 29873 READING 403 0.608676
1412858890237 29873 READING 407 0.597373
1412858890396 29873 READING 416 0.535585
1412858890470 29874 READING 89 0.995828
1412858890565 29873 READING 420 0.453823
1412858891129 29874 READING 91 0.995074
1412858891340 29874 FUNCTION lru lambda h: 0.915021 * (h ** 0.0155677)
1412858891340 29873 FUNCTION lru lambda h: 1.22459 * (h ** 0.001)
1412858891340 29874 RECOMMEND 3087
1412858891340 29873 RECOMMEND 3087
1412858891575 29873 READING 428 0.082010
1412858891682 29874 READING 92 0.969498
1412858891793 29873 READING 477 0.339836
1412858891988 29873 READING 483 0.413305
1412858892173 29873 READING 488 0.387442
1412858892333 29874 READING 95 0.991428
1412858892906 29874 READING 95 0.989823
1412858893158 29873 READING 491 0.079395
1412858893357 29873 READING 546 0.434250
1412858893513 29873 READING 463 0.527957
1412858893571 29874 READING 99 0.996668
1412858894196 29874 READING 99 0.993478
1412858894460 29873 READING 532 0.098323
1412858894659 29873 READING 524 0.444846
1412858894841 29873 READING 586 0.540708
1412858894897 29874 READING 102 0.996829
1412858895033 29873 READING 591 0.574198
1412858895261 29873 READING 592 0.605287
1412858895451 29873 READING 593 0.592809
1412858895565 29874 READING 103 0.996708
1412858895647 29873 READING 598 0.579028
1412858895846 29873 READING 600 0.602565
1412858896259 29874 READING 106 0.996455
1412858896844 29873 READING 605 0.106854
1412858896889 29874 READING 106 0.997594
1412858897108 29873 READING 667 0.479425
1412858897579 29874 READING 107 0.997757
1412858897839 29873 READING 677 0.862725
1412858898219 29874 READING 108 0.997681
1412858898508 29873 READING 677 0.844649
1412858898893 29874 READING 110 0.997439
1412858899240 29873 READING 676 0.864697
1412858899407 29873 READING 688 0.483080
1412858899631 29874 READING 110 0.997731
1412858899644 29873 READING 698 0.646699
1412858899804 29873 READING 706 0.468632
1412858900325 29874 READING 111 0.997559
1412858900939 29874 READING 111 0.996393
1412858901340 29874 FUNCTION lru lambda h: 0.902208 * (h ** 0.0197949)
1412858901340 29873 FUNCTION lru lambda h: 1.28701 * (h ** 0.001)
1412858901340 29874 RECOMMEND 3087
1412858901340 29873 RECOMMEND 3087
1412858901527 29873 READING 715 0.027664
1412858901573 29874 READING 112 0.997896
1412858901706 29873 READING 778 0.271414
1412858901824 29873 READING 768 0.439777
1412858902296 29874 READING 112 0.998034
1412858902303 29873 READING 775 0.847569
1412858902446 29873 READING 765 0.522931
1412858902958 29874 READING 114 0.997457
1412858903583 29874 READING 114 0.994964
1412858904211 29873 READING 771 0.042112
1412858904224 29874 READING 115 0.997340
1412858904406 29873 READING 845 0.460058
1412858904720 29874 READING 115 0.993980
1412858904801 29873 READING 845 0.817810
1412858905135 29874 READING 116 0.988427
1412858905181 29873 READING 852 0.809675
1412858905363 29873 READING 852 0.662372
1412858905485 29874 READING 117 0.991230
1412858906004 29874 READING 120 0.993769
1412858906742 29874 READING 120 0.996013
1412858906802 29873 READING 857 0.275367
1412858907105 29873 READING 950 0.590531
1412858907523 29874 READING 124 0.997350
1412858907556 29873 READING 955 0.934037
1412858907754 29873 READING 961 0.824887
1412858907956 29873 READING 951 0.854138
1412858908159 29873 READING 820 0.852019
1412858908288 29874 READING 124 0.996842
1412858908373 29873 READING 943 0.862600
1412858908586 29873 READING 825 0.859315
1412858908808 29873 READING 936 0.862401
1412858909029 29873 READING 942 0.875882
1412858909095 29874 READING 127 0.996289
1412858909259 29873 READING 933 0.881712
1412858909494 29873 READING 938 0.862535
1412858909734 29873 READING 929 0.887745
1412858909869 29874 READING 127 0.997077
1412858910627 29874 READING 129 0.997056
1412858911307 29873 READING 934 0.984910
1412858911340 29874 FUNCTION lru lambda h: 0.899377 * (h ** 0.0207067)
1412858911340 29873 FUNCTION lru lambda h: 0.900336 * (h ** 0.001)
1412858911340 29874 RECOMMEND 3087
1412858911340 29873 RECOMMEND 3087
1412858911378 29874 READING 129 0.996785
1412858911916 29873 READING 926 0.938375
1412858912128 29873 READING 860 0.785832
1412858912152 29874 READING 131 0.997060
1412858912337 29873 READING 919 0.824610
1412858912544 29873 READING 859 0.835808
1412858912762 29873 READING 914 0.840015
1412858912941 29874 READING 131 0.996741
1412858912984 29873 READING 919 0.832300
1412858913214 29873 READING 912 0.847916
1412858913443 29873 READING 916 0.846447
1412858913711 29873 READING 912 0.924881
1412858913765 29874 READING 133 0.994131
1412858914039 29873 READING 916 0.886866
1412858914446 29873 READING 920 0.920811
1412858914585 29874 READING 133 0.996516
1412858914639 29873 READING 922 0.797350
1412858914870 29873 READING 927 0.718698
1412858915436 29874 READING 134 0.996299
1412858916185 29874 READING 135 0.996544
1412858916949 29873 READING 927 0.064377
1412858916960 29874 READING 137 0.997869
1412858917210 29873 READING 1065 0.560837
1412858917398 29873 READING 1069 0.750803
1412858917591 29873 READING 1070 0.774554
1412858917788 29873 READING 1073 0.752064
1412858917836 29874 READING 137 0.997966
1412858918004 29873 READING 1078 0.757531
1412858918228 29873 READING 1080 0.745920
1412858918472 29873 READING 1094 0.735759
1412858918710 29873 READING 1094 0.795910
1412858918719 29874 READING 139 0.998543
1412858919636 29874 READING 139 0.998540
1412858920547 29874 READING 140 0.998819
1412858921340 29874 FUNCTION lru lambda h: 0.898364 * (h ** 0.0210196)
1412858921340 29873 FUNCTION lru lambda h: 0.21764 * (h ** 0.139741)
1412858921340 29874 RECOMMEND 3087
1412858921340 29873 RECOMMEND 3087
1412858921441 29873 READING 1107 0.977110
1412858921463 29874 READING 140 0.998242
1412858922338 29874 READING 142 0.998709
1412858923107 29874 READING 142 0.996703
1412858923597 29874 READING 143 0.987709
1412858923983 29874 READING 143 0.988526
1412858924600 29873 READING 1111 0.967324
1412858924668 29874 READING 146 0.996900
1412858925559 29874 READING 146 0.996662
1412858926468 29874 READING 149 0.997727
1412858927381 29874 READING 149 0.997186
1412858928086 29873 READING 1125 0.978348
1412858928330 29874 READING 151 0.997567
1412858929235 29874 READING 152 0.996333
1412858930179 29874 READING 153 0.997422
1412858931130 29874 READING 154 0.997195
1412858931340 29874 FUNCTION lru lambda h: 0.899575 * (h ** 0.020653)
1412858931340 29873 FUNCTION lru lambda h: 0.129824 * (h ** 0.223058)
1412858931340 29874 RECOMMEND 3087
1412858931340 29873 RECOMMEND 3087
1412858931420 29873 READING 1127 0.979589
1412858932106 29874 READING 155 0.995347
1412858933068 29874 READING 156 0.997132
1412858934048 29874 READING 158 0.996667
1412858934979 29873 READING 1129 0.980160
1412858935044 29874 READING 158 0.996203
1412858936029 29874 READING 160 0.996798
1412858937017 29874 READING 160 0.996097
1412858938017 29874 READING 163 0.997796
1412858938478 29873 READING 1133 0.978518
1412858939129 29874 READING 163 0.925110
1412858940117 29874 READING 168 0.998843
1412858941130 29874 READING 168 0.997816
1412858941341 29874 FUNCTION lru lambda h: 0.903452 * (h ** 0.0195164)
1412858941341 29873 FUNCTION lru lambda h: 0.0808292 * (h ** 0.29841)
1412858941341 29874 RECOMMEND 3087
1412858941341 29873 RECOMMEND 3087
1412858941590 29874 READING 171 0.992784
1412858941937 29873 READING 1127 0.973012
1412858942013 29874 READING 171 0.992280
1412858942953 29874 READING 174 0.995262
1412858944024 29874 READING 175 0.997489
1412858945109 29874 READING 178 0.997948
1412858945669 29873 READING 1132 0.979743
1412858946210 29874 READING 179 0.997419
1412858947330 29874 READING 181 0.995462
1412858948422 29874 READING 182 0.997496
1412858949316 29873 READING 1134 0.972855
1412858949542 29874 READING 185 0.997782
1412858950678 29874 READING 185 0.996676
1412858951341 29874 FUNCTION lru lambda h: 0.905332 * (h ** 0.0189794)
1412858951341 29873 FUNCTION lru lambda h: 0.0705108 * (h ** 0.320742)
1412858951341 29874 RECOMMEND 3087
1412858951341 29873 RECOMMEND 3087
1412858951833 29874 READING 188 0.998036
1412858953014 29873 READING 1135 0.978586
1412858953023 29874 READING 188 0.996798
1412858954212 29874 READING 192 0.997448
1412858955387 29874 READING 192 0.996913
1412858956581 29874 READING 195 0.997815
1412858956834 29873 READING 1140 0.980640
1412858957788 29874 READING 195 0.997574
1412858958961 29874 READING 198 0.995387
1412858959438 29874 READING 198 0.990768
1412858960118 29874 READING 202 0.995545
1412858960573 29873 READING 1142 0.977290
1412858961341 29874 FUNCTION lru lambda h: 0.906996 * (h ** 0.0185171)
1412858961341 29873 FUNCTION lru lambda h: 0.0520746 * (h ** 0.368855)
1412858961341 29874 RECOMMEND 3087
1412858961341 29873 RECOMMEND 3087
1412858961403 29874 READING 202 0.997256
1412858962696 29874 READING 207 0.997695
1412858963985 29874 READING 207 0.997882
1412858964171 29873 READING 1145 0.978449
1412858965297 29874 READING 210 0.997977
1412858966613 29874 READING 211 0.997186
1412858967824 29873 READING 1149 0.979272
1412858967959 29874 READING 214 0.998401
1412858969302 29874 READING 214 0.995746
1412858970656 29874 READING 218 0.997679
1412858971341 29874 FUNCTION lru lambda h: 0.908421 * (h ** 0.0181282)
1412858971341 29873 FUNCTION lru lambda h: 0.0325027 * (h ** 0.441007)
1412858971341 29874 RECOMMEND 3087
1412858971341 29873 RECOMMEND 3087
1412858971627 29873 READING 1152 0.974859
1412858972045 29874 READING 218 0.996846
1412858973427 29874 READING 222 0.997870
1412858974808 29874 READING 222 0.997812
1412858975462 29873 READING 1157 0.978337
1412858976230 29874 READING 225 0.996736
1412858976819 29874 READING 225 0.991305
1412858977558 29874 READING 229 0.995101
1412858979032 29874 READING 229 0.996644
1412858979056 29873 READING 1161 0.977676
1412858980544 29874 READING 234 0.998256
1412858981342 29874 FUNCTION lru lambda h: 0.910161 * (h ** 0.01766)
1412858981342 29873 FUNCTION lru lambda h: 0.0128865 * (h ** 0.581016)
1412858981342 29874 RECOMMEND 3087
1412858981342 29873 RECOMMEND 3087
1412858982010 29874 READING 235 0.998140
1412858982741 29873 READING 1166 0.977212
1412858983551 29874 READING 239 0.998305
1412858985070 29874 READING 239 0.997742
1412858986632 29874 READING 243 0.997942
1412858986800 29873 READING 1170 0.979828
1412858988158 29874 READING 243 0.997838
1412858989739 29874 READING 246 0.998035
1412858990707 29873 READING 1172 0.977576
1412858991315 29874 READING 247 0.997984
1412858991342 29874 FUNCTION lru lambda h: 0.911847 * (h ** 0.0172127)
1412858991342 29873 FUNCTION lru lambda h: 0.00463732 * (h ** 0.734366)
1412858991342 29874 RECOMMEND 3087
1412858991342 29873 RECOMMEND 3087
1412858992923 29874 READING 250 0.996700
1412858994070 29874 READING 250 0.996780
1412858994603 29874 READING 254 0.990248
1412858994708 29873 READING 1176 0.976130
1412858996225 29874 READING 254 0.997614
1412858997892 29874 READING 260 0.997705
1412858998547 29873 READING 1177 0.977658
1412858999565 29874 READING 261 0.997562
1412859001267 29874 READING 265 0.998261
1412859001342 29874 FUNCTION lru lambda h: 0.914031 * (h ** 0.0166402)
1412859001342 29873 FUNCTION lru lambda h: 0.00460186 * (h ** 0.736202)
1412859001342 29874 RECOMMEND 3087
1412859001342 29873 RECOMMEND 3087
1412859002589 29873 READING 1181 0.977440
1412859002976 29874 READING 266 0.997920
1412859004681 29874 READING 270 0.996776
1412859006418 29874 READING 270 0.995634
1412859006606 29873 READING 1181 0.977977
1412859008209 29874 READING 274 0.997854
1412859009919 29874 READING 274 0.997674
1412859011342 29874 FUNCTION lru lambda h: 0.915237 * (h ** 0.0163274)
1412859011342 29873 FUNCTION lru lambda h: 0.00359427 * (h ** 0.772937)
1412859011342 29874 RECOMMEND 3087
1412859011342 29873 RECOMMEND 3087
1412859011504 29874 READING 279 0.996785
1412859012432 29874 READING 279 0.992249
1412859012561 29873 READING 1185 0.667493
1412859014252 29874 READING 284 0.997555
1412859016099 29874 READING 284 0.998023
1412859016586 29873 READING 1281 0.968073
1412859017983 29874 READING 289 0.998201
1412859019846 29874 READING 290 0.998000
1412859020741 29873 READING 1276 0.987379
1412859021342 29874 FUNCTION lru lambda h: 0.899415 * (h ** 0.019733)
1412859021342 29873 FUNCTION lru lambda h: 0.00370435 * (h ** 0.768261)
1412859021342 29874 RECOMMEND 3087
1412859021342 29873 RECOMMEND 3087
1412859021776 29874 READING 295 0.998574
1412859023638 29874 READING 295 0.998373
1412859024608 29873 READING 1284 0.989147
1412859025584 29874 READING 298 0.998695
1412859027496 29874 READING 298 0.997930
1412859028643 29873 READING 1291 0.988497
1412859029218 29874 READING 302 0.998248
1412859029862 29874 READING 302 0.990903
1412859031343 29874 FUNCTION lru lambda h: 0.929138 * (h ** 0.0133079)
1412859031343 29873 FUNCTION lru lambda h: 0.0019809 * (h ** 0.860423)
1412859031343 29874 RECOMMEND 3087
1412859031343 29873 RECOMMEND 3087
1412859031849 29874 READING 304 0.997640
1412859032536 29873 READING 1292 0.984610
1412859033820 29874 READING 305 0.998079
1412859035813 29874 READING 309 0.997620
1412859036295 29873 READING 1286 0.985674
1412859037831 29874 READING 310 0.997825
1412859039878 29874 READING 315 0.998397
1412859040373 29873 READING 1195 0.986356
1412859041343 29874 FUNCTION lru lambda h: 0.922432 * (h ** 0.0146307)
1412859041343 29873 FUNCTION lru lambda h: 0.00150734 * (h ** 0.900633)
1412859041343 29874 RECOMMEND 3087
1412859041343 29873 RECOMMEND 3087
1412859041923 29874 READING 315 0.998523
1412859043970 29874 READING 320 0.997779
1412859044319 29873 READING 1277 0.981547
1412859046026 29874 READING 320 0.997901
1412859047050 29874 READING 324 0.911148
1412859048399 29873 READING 1211 0.984353
1412859048814 29874 READING 333 0.998417
1412859050956 29874 READING 339 0.999189
1412859051343 29874 FUNCTION lru lambda h: 0.993116 * (h ** 0.001)
1412859051343 29873 FUNCTION lru lambda h: 0.001 * (h ** 0.999)
1412859051343 29874 RECOMMEND 3087
1412859051343 29873 RECOMMEND 3087
1412859052644 29873 READING 1269 0.982262
1412859053116 29874 READING 339 0.998563
1412859055319 29874 READING 345 0.999315
1412859057083 29873 READING 1274 0.983319
1412859057523 29874 READING 345 0.999006
1412859059738 29874 READING 350 0.998847
1412859061238 29873 READING 1275 0.981557
1412859061343 29874 FUNCTION lru lambda h: 0.996331 * (h ** 0.001)
1412859061343 29873 FUNCTION lru lambda h: 0.001 * (h ** 0.999)
1412859061343 29874 RECOMMEND 3087
1412859061343 29873 RECOMMEND 3087
1412859061964 29874 READING 350 0.999062
1412859064016 29874 READING 353 0.998820
1412859064946 29874 READING 353 0.993180
1412859065331 29873 READING 1275 0.980315
1412859067224 29874 READING 356 0.998393
1412859069514 29874 READING 357 0.998013
1412859069564 29873 READING 1277 0.977514
1412859071344 29874 FUNCTION lru lambda h: 0.994775 * (h ** 0.001)
1412859071344 29873 FUNCTION lru lambda h: 0.001 * (h ** 0.999)
1412859071344 29874 RECOMMEND 3087
1412859071344 29873 RECOMMEND 3087
1412859071863 29874 READING 363 0.998096
1412859073837 29873 READING 1281 0.975854
1412859074195 29874 READING 364 0.997536
1412859076515 29874 READING 370 0.997733
1412859077771 29873 READING 1283 0.975709
1412859078909 29874 READING 370 0.997903
1412859081318 29874 READING 376 0.996953
1412859081344 29874 FUNCTION lru lambda h: 0.992208 * (h ** 0.001)
1412859081344 29873 FUNCTION lru lambda h: 0.001 * (h ** 0.999)
1412859081344 29874 RECOMMEND 3087
1412859081344 29873 RECOMMEND 3087
1412859082091 29873 READING 1290 0.975183
1412859082192 29874 READING 376 0.989237
1412859084621 29874 READING 383 0.998265
1412859086319 29873 READING 1295 0.978161
1412859087104 29874 READING 384 0.998118
1412859089623 29874 READING 392 0.998304
1412859090714 29873 READING 1298 0.978473
1412859091344 29874 FUNCTION lru lambda h: 0.999675 * (h ** 0.001)
1412859091344 29873 FUNCTION lru lambda h: 0.001 * (h ** 0.999)
1412859091344 29874 RECOMMEND 3087
1412859091344 29873 RECOMMEND 3087
1412859092170 29874 READING 393 0.998367
1412859094682 29874 READING 400 0.998503
1412859094892 29873 READING 1303 0.975491
1412859097144 29874 READING 401 0.998231
1412859098793 29874 READING 406 0.997376
1412859100612 29874 READING 407 0.997363
1412859101344 29874 FUNCTION lru lambda h: 0.995356 * (h ** 0.001)
1412859101344 29873 FUNCTION lru lambda h: 0.001 * (h ** 0.999)
1412859101344 29874 RECOMMEND 3087
1412859101344 29873 RECOMMEND 3087
1412859103136 29874 READING 415 0.998542
1412859105646 29874 READING 415 0.998389
1412859108211 29874 READING 421 0.998497
1412859110758 29874 READING 421 0.998180
1412859111344 29874 FUNCTION lru lambda h: 0.993359 * (h ** 0.001)
1412859111345 29873 FUNCTION lru lambda h: 0.001 * (h ** 0.999)
1412859111345 29874 RECOMMEND 3087
1412859111345 29873 RECOMMEND 3087
1412859113368 29874 READING 426 0.998577
1412859114002 29873 READING 1305 0.878877
1412859115081 29874 READING 427 0.996696
1412859117094 29874 READING 432 0.997701
1412859119741 29874 READING 433 0.998690
1412859121345 29874 FUNCTION lru lambda h: 0.992609 * (h ** 0.001)
1412859121345 29873 FUNCTION lru lambda h: 0.001 * (h ** 0.999)
1412859121345 29874 RECOMMEND 3087
1412859121345 29873 RECOMMEND 3087
1412859122433 29874 READING 438 0.998724
1412859125118 29874 READING 439 0.998414
1412859127844 29874 READING 445 0.998634
1412859128898 29873 READING 1402 0.989829
1412859130611 29874 READING 445 0.998246
1412859131345 29874 FUNCTION lru lambda h: 0.992061 * (h ** 0.001)
1412859131345 29873 FUNCTION lru lambda h: 0.001 * (h ** 0.999)
1412859131345 29874 RECOMMEND 3087
1412859131345 29873 RECOMMEND 3087
1412859131834 29874 READING 451 0.995269
1412859134616 29874 READING 451 0.997989
1412859135765 29873 READING 1346 0.988817
1412859136400 29873 READING 1421 0.888268
1412859136843 29873 READING 1431 0.757407
1412859137114 29873 READING 1420 0.657588
1412859137381 29873 READING 1454 0.662656
1412859137610 29874 READING 459 0.998300
1412859137652 29873 READING 1476 0.686474
1412859137924 29873 READING 1490 0.674408
1412859138205 29873 READING 1516 0.707300
1412859138493 29873 READING 1522 0.708932
1412859138795 29873 READING 1551 0.750453
1412859140632 29874 READING 460 0.997427
1412859140974 29873 READING 1552 0.652389
1412859141345 29874 FUNCTION lru lambda h: 0.990306 * (h ** 0.00103215)
1412859141345 29873 FUNCTION lru lambda h: 0.001 * (h ** 0.999)
1412859141345 29874 RECOMMEND 3087
1412859141345 29873 RECOMMEND 3087
1412859143648 29874 READING 468 0.998595
1412859145471 29873 READING 1472 0.996499
1412859146710 29874 READING 468 0.998130
1412859149668 29873 READING 1478 0.994913
1412859150114 29874 DEATH 212
1412859151345 29873 FUNCTION lru lambda h: 0.001 * (h ** 0.985522)
1412859151345 29873 RECOMMEND 6175
1412859153803 29873 READING 1512 0.993223
1412859157920 29873 READING 1517 0.992187
1412859161345 29873 FUNCTION lru lambda h: 0.001 * (h ** 0.999)
1412859161346 29873 RECOMMEND 6175
1412859162187 29873 READING 1520 0.991395
1412859166756 29873 READING 1529 0.990504
1412859171346 29873 FUNCTION lru lambda h: 0.001 * (h ** 0.999)
1412859171346 29873 RECOMMEND 6175
1412859171541 29873 READING 1510 0.985067
1412859176334 29873 READING 1299 0.989124
1412859181227 29873 READING 1492 0.988449
1412859181346 29873 FUNCTION lru lambda h: 0.00376861 * (h ** 0.765697)
1412859181346 29873 RECOMMEND 6175
1412859186168 29873 READING 1328 0.986998
1412859191279 29873 READING 1470 0.986618
1412859191346 29873 FUNCTION lru lambda h: 0.00903335 * (h ** 0.643272)
1412859191346 29873 RECOMMEND 6175
1412859196295 29873 READING 1356 0.985509
1412859201260 29873 READING 1470 0.984353
1412859201346 29873 FUNCTION lru lambda h: 0.00718935 * (h ** 0.675364)
1412859201346 29873 RECOMMEND 6175
1412859206617 29873 READING 1477 0.984415
1412859211346 29873 FUNCTION lru lambda h: 0.00858824 * (h ** 0.650432)
1412859211347 29873 RECOMMEND 6175
1412859211820 29873 READING 1481 0.983343
1412859216929 29873 READING 1481 0.982024
1412859221347 29873 FUNCTION lru lambda h: 0.102292 * (h ** 0.303484)
1412859221347 29873 RECOMMEND 6175
1412859222236 29873 READING 1489 0.981633
1412859227218 29873 READING 1492 0.980571
1412859231347 29873 FUNCTION lru lambda h: 0.117099 * (h ** 0.284716)
1412859231347 29873 RECOMMEND 6175
1412859232556 29873 READING 1500 0.981460
1412859238056 29873 READING 1501 0.981757
1412859241347 29873 FUNCTION lru lambda h: 0.264323 * (h ** 0.171456)
1412859241347 29873 RECOMMEND 6175
1412859243578 29873 READING 1510 0.981639
1412859248747 29873 READING 1510 0.979752
1412859251347 29873 FUNCTION lru lambda h: 0.264829 * (h ** 0.171181)
1412859251347 29873 RECOMMEND 6175
1412859254097 29873 READING 1518 0.980665
1412859259733 29873 READING 1519 0.980738
1412859261347 29873 FUNCTION lru lambda h: 0.291332 * (h ** 0.158284)
1412859261347 29873 RECOMMEND 6175
1412859265413 29873 READING 1527 0.980891
1412859270784 29873 READING 1527 0.979229
1412859271348 29873 FUNCTION lru lambda h: 0.290221 * (h ** 0.158962)
1412859271348 29873 RECOMMEND 6175
1412859276377 29873 READING 1534 0.980393
1412859281348 29873 FUNCTION lru lambda h: 0.28418 * (h ** 0.162013)
1412859281348 29873 RECOMMEND 6175
1412859282390 29873 READING 1535 0.981092
1412859288494 29873 READING 1542 0.981531
1412859291348 29873 FUNCTION lru lambda h: 0.266631 * (h ** 0.171105)
1412859291348 29873 RECOMMEND 6175
1412859294669 29873 READING 1543 0.981518
1412859301348 29873 FUNCTION lru lambda h: 0.254633 * (h ** 0.177612)
1412859301348 29873 RECOMMEND 6175
1412859301745 29873 READING 1550 0.836076
1412859311348 29873 FUNCTION lru lambda h: 0.270214 * (h ** 0.169101)
1412859311348 29873 RECOMMEND 6175
1412859319025 29873 READING 1698 0.992905
1412859321349 29873 FUNCTION lru lambda h: 0.258354 * (h ** 0.175436)
1412859321349 29873 RECOMMEND 6175
1412859331349 29873 FUNCTION lru lambda h: 0.258354 * (h ** 0.175436)
1412859331349 29873 RECOMMEND 6175
1412859336377 29873 READING 1698 0.996068
1412859337195 29873 READING 1702 0.903753
1412859337613 29873 READING 1690 0.831220
1412859338033 29873 READING 1705 0.806088
1412859338465 29873 READING 1739 0.836726
1412859338900 29873 READING 1750 0.878019
1412859338919 29873 DEATH 216
