===== DaCapo 9.12 xalan starting warmup 1 =====
===== DaCapo 9.12 xalan completed warmup 1 in 29756 msec =====
===== DaCapo 9.12 xalan starting warmup 2 =====
===== DaCapo 9.12 xalan completed warmup 2 in 25375 msec =====
===== DaCapo 9.12 xalan starting warmup 3 =====
===== DaCapo 9.12 xalan completed warmup 3 in 24603 msec =====
===== DaCapo 9.12 xalan starting warmup 4 =====
===== DaCapo 9.12 xalan completed warmup 4 in 24549 msec =====
===== DaCapo 9.12 xalan starting warmup 5 =====
===== DaCapo 9.12 xalan completed warmup 5 in 24500 msec =====
===== DaCapo 9.12 xalan starting warmup 6 =====
===== DaCapo 9.12 xalan completed warmup 6 in 24526 msec =====
===== DaCapo 9.12 xalan starting warmup 7 =====
===== DaCapo 9.12 xalan completed warmup 7 in 24524 msec =====
===== DaCapo 9.12 xalan starting warmup 8 =====
===== DaCapo 9.12 xalan completed warmup 8 in 24517 msec =====
===== DaCapo 9.12 xalan starting warmup 9 =====
===== DaCapo 9.12 xalan completed warmup 9 in 24537 msec =====
===== DaCapo 9.12 xalan starting warmup 10 =====
===== DaCapo 9.12 xalan completed warmup 10 in 24536 msec =====
===== DaCapo 9.12 xalan starting warmup 11 =====
===== DaCapo 9.12 xalan completed warmup 11 in 24525 msec =====
===== DaCapo 9.12 xalan starting warmup 12 =====
===== DaCapo 9.12 xalan completed warmup 12 in 24539 msec =====
===== DaCapo 9.12 xalan starting warmup 13 =====
===== DaCapo 9.12 xalan completed warmup 13 in 24541 msec =====
===== DaCapo 9.12 xalan starting warmup 14 =====
===== DaCapo 9.12 xalan completed warmup 14 in 24510 msec =====
===== DaCapo 9.12 xalan starting warmup 15 =====
===== DaCapo 9.12 xalan completed warmup 15 in 24385 msec =====
===== DaCapo 9.12 xalan starting warmup 16 =====
===== DaCapo 9.12 xalan completed warmup 16 in 24205 msec =====
===== DaCapo 9.12 xalan starting warmup 17 =====
===== DaCapo 9.12 xalan completed warmup 17 in 24237 msec =====
===== DaCapo 9.12 xalan starting warmup 18 =====
===== DaCapo 9.12 xalan completed warmup 18 in 24211 msec =====
===== DaCapo 9.12 xalan starting warmup 19 =====
===== DaCapo 9.12 xalan completed warmup 19 in 24198 msec =====
===== DaCapo 9.12 xalan starting warmup 20 =====
===== DaCapo 9.12 xalan completed warmup 20 in 24198 msec =====
===== DaCapo 9.12 xalan starting warmup 21 =====
===== DaCapo 9.12 xalan completed warmup 21 in 24217 msec =====
===== DaCapo 9.12 xalan starting warmup 22 =====
===== DaCapo 9.12 xalan completed warmup 22 in 24216 msec =====
===== DaCapo 9.12 xalan starting warmup 23 =====
===== DaCapo 9.12 xalan completed warmup 23 in 24164 msec =====
===== DaCapo 9.12 xalan starting warmup 24 =====
===== DaCapo 9.12 xalan completed warmup 24 in 24220 msec =====
===== DaCapo 9.12 xalan starting warmup 25 =====
===== DaCapo 9.12 xalan completed warmup 25 in 24177 msec =====
===== DaCapo 9.12 xalan starting warmup 26 =====
===== DaCapo 9.12 xalan completed warmup 26 in 24238 msec =====
===== DaCapo 9.12 xalan starting warmup 27 =====
===== DaCapo 9.12 xalan completed warmup 27 in 24227 msec =====
===== DaCapo 9.12 xalan starting warmup 28 =====
===== DaCapo 9.12 xalan completed warmup 28 in 24251 msec =====
===== DaCapo 9.12 xalan starting warmup 29 =====
===== DaCapo 9.12 xalan completed warmup 29 in 24208 msec =====
===== DaCapo 9.12 xalan starting warmup 30 =====
===== DaCapo 9.12 xalan completed warmup 30 in 24203 msec =====
===== DaCapo 9.12 xalan starting warmup 31 =====
===== DaCapo 9.12 xalan completed warmup 31 in 24189 msec =====
===== DaCapo 9.12 xalan starting warmup 32 =====
===== DaCapo 9.12 xalan completed warmup 32 in 24189 msec =====
===== DaCapo 9.12 xalan starting warmup 33 =====
===== DaCapo 9.12 xalan completed warmup 33 in 24217 msec =====
===== DaCapo 9.12 xalan starting warmup 34 =====
===== DaCapo 9.12 xalan completed warmup 34 in 24192 msec =====
===== DaCapo 9.12 xalan starting warmup 35 =====
===== DaCapo 9.12 xalan completed warmup 35 in 24207 msec =====
===== DaCapo 9.12 xalan starting warmup 36 =====
===== DaCapo 9.12 xalan completed warmup 36 in 24201 msec =====
===== DaCapo 9.12 xalan starting warmup 37 =====
===== DaCapo 9.12 xalan completed warmup 37 in 24206 msec =====
===== DaCapo 9.12 xalan starting warmup 38 =====
===== DaCapo 9.12 xalan completed warmup 38 in 24235 msec =====
===== DaCapo 9.12 xalan starting warmup 39 =====
===== DaCapo 9.12 xalan completed warmup 39 in 24227 msec =====
===== DaCapo 9.12 xalan starting warmup 40 =====
===== DaCapo 9.12 xalan completed warmup 40 in 24224 msec =====
===== DaCapo 9.12 xalan starting warmup 41 =====
===== DaCapo 9.12 xalan completed warmup 41 in 24247 msec =====
===== DaCapo 9.12 xalan starting warmup 42 =====
===== DaCapo 9.12 xalan completed warmup 42 in 24214 msec =====
===== DaCapo 9.12 xalan starting warmup 43 =====
===== DaCapo 9.12 xalan completed warmup 43 in 24201 msec =====
===== DaCapo 9.12 xalan starting warmup 44 =====
===== DaCapo 9.12 xalan completed warmup 44 in 24226 msec =====
===== DaCapo 9.12 xalan starting warmup 45 =====
===== DaCapo 9.12 xalan completed warmup 45 in 24221 msec =====
===== DaCapo 9.12 xalan starting warmup 46 =====
===== DaCapo 9.12 xalan completed warmup 46 in 24229 msec =====
===== DaCapo 9.12 xalan starting warmup 47 =====
===== DaCapo 9.12 xalan completed warmup 47 in 24200 msec =====
===== DaCapo 9.12 xalan starting warmup 48 =====
===== DaCapo 9.12 xalan completed warmup 48 in 24174 msec =====
===== DaCapo 9.12 xalan starting warmup 49 =====
===== DaCapo 9.12 xalan completed warmup 49 in 24253 msec =====
===== DaCapo 9.12 xalan starting warmup 50 =====
