Using scaled threading model. 4 processors detected, 1 threads used to drive the workload, in a possible range of [1,1000]
===== DaCapo 9.12 xalan starting warmup 1 =====
Normal completion.
===== DaCapo 9.12 xalan completed warmup 1 in 28753 msec =====
===== DaCapo 9.12 xalan starting warmup 2 =====
Normal completion.
===== DaCapo 9.12 xalan completed warmup 2 in 24314 msec =====
===== DaCapo 9.12 xalan starting warmup 3 =====
Normal completion.
===== DaCapo 9.12 xalan completed warmup 3 in 23607 msec =====
===== DaCapo 9.12 xalan starting warmup 4 =====
Normal completion.
===== DaCapo 9.12 xalan completed warmup 4 in 23606 msec =====
===== DaCapo 9.12 xalan starting warmup 5 =====
Normal completion.
===== DaCapo 9.12 xalan completed warmup 5 in 23628 msec =====
===== DaCapo 9.12 xalan starting warmup 6 =====
Normal completion.
===== DaCapo 9.12 xalan completed warmup 6 in 23620 msec =====
===== DaCapo 9.12 xalan starting warmup 7 =====
Normal completion.
===== DaCapo 9.12 xalan completed warmup 7 in 23583 msec =====
===== DaCapo 9.12 xalan starting warmup 8 =====
Normal completion.
===== DaCapo 9.12 xalan completed warmup 8 in 23553 msec =====
===== DaCapo 9.12 xalan starting warmup 9 =====
Normal completion.
===== DaCapo 9.12 xalan completed warmup 9 in 23569 msec =====
===== DaCapo 9.12 xalan starting warmup 10 =====
Normal completion.
===== DaCapo 9.12 xalan completed warmup 10 in 23592 msec =====
===== DaCapo 9.12 xalan starting warmup 11 =====
Normal completion.
===== DaCapo 9.12 xalan completed warmup 11 in 23597 msec =====
===== DaCapo 9.12 xalan starting warmup 12 =====
Normal completion.
===== DaCapo 9.12 xalan completed warmup 12 in 23627 msec =====
===== DaCapo 9.12 xalan starting warmup 13 =====
Normal completion.
===== DaCapo 9.12 xalan completed warmup 13 in 24189 msec =====
===== DaCapo 9.12 xalan starting warmup 14 =====
Normal completion.
===== DaCapo 9.12 xalan completed warmup 14 in 23577 msec =====
===== DaCapo 9.12 xalan starting warmup 15 =====
Normal completion.
===== DaCapo 9.12 xalan completed warmup 15 in 23616 msec =====
===== DaCapo 9.12 xalan starting warmup 16 =====
Normal completion.
===== DaCapo 9.12 xalan completed warmup 16 in 23622 msec =====
===== DaCapo 9.12 xalan starting warmup 17 =====
Normal completion.
===== DaCapo 9.12 xalan completed warmup 17 in 23544 msec =====
===== DaCapo 9.12 xalan starting warmup 18 =====
Normal completion.
===== DaCapo 9.12 xalan completed warmup 18 in 23570 msec =====
===== DaCapo 9.12 xalan starting warmup 19 =====
Normal completion.
===== DaCapo 9.12 xalan completed warmup 19 in 24129 msec =====
===== DaCapo 9.12 xalan starting warmup 20 =====
Normal completion.
===== DaCapo 9.12 xalan completed warmup 20 in 23607 msec =====
===== DaCapo 9.12 xalan starting warmup 21 =====
Normal completion.
===== DaCapo 9.12 xalan completed warmup 21 in 23581 msec =====
===== DaCapo 9.12 xalan starting warmup 22 =====
Normal completion.
===== DaCapo 9.12 xalan completed warmup 22 in 23617 msec =====
===== DaCapo 9.12 xalan starting warmup 23 =====
Normal completion.
===== DaCapo 9.12 xalan completed warmup 23 in 23880 msec =====
===== DaCapo 9.12 xalan starting warmup 24 =====
Normal completion.
===== DaCapo 9.12 xalan completed warmup 24 in 23632 msec =====
===== DaCapo 9.12 xalan starting warmup 25 =====
Normal completion.
===== DaCapo 9.12 xalan completed warmup 25 in 23576 msec =====
===== DaCapo 9.12 xalan starting warmup 26 =====
Normal completion.
===== DaCapo 9.12 xalan completed warmup 26 in 23602 msec =====
===== DaCapo 9.12 xalan starting warmup 27 =====
Normal completion.
===== DaCapo 9.12 xalan completed warmup 27 in 23691 msec =====
===== DaCapo 9.12 xalan starting warmup 28 =====
Normal completion.
===== DaCapo 9.12 xalan completed warmup 28 in 23616 msec =====
===== DaCapo 9.12 xalan starting warmup 29 =====
Normal completion.
===== DaCapo 9.12 xalan completed warmup 29 in 23599 msec =====
===== DaCapo 9.12 xalan starting warmup 30 =====
Normal completion.
===== DaCapo 9.12 xalan completed warmup 30 in 23608 msec =====
===== DaCapo 9.12 xalan starting warmup 31 =====
Normal completion.
===== DaCapo 9.12 xalan completed warmup 31 in 23596 msec =====
===== DaCapo 9.12 xalan starting warmup 32 =====
Normal completion.
===== DaCapo 9.12 xalan completed warmup 32 in 23605 msec =====
===== DaCapo 9.12 xalan starting warmup 33 =====
Normal completion.
===== DaCapo 9.12 xalan completed warmup 33 in 23594 msec =====
===== DaCapo 9.12 xalan starting warmup 34 =====
Normal completion.
===== DaCapo 9.12 xalan completed warmup 34 in 23619 msec =====
===== DaCapo 9.12 xalan starting warmup 35 =====
Normal completion.
===== DaCapo 9.12 xalan completed warmup 35 in 23577 msec =====
===== DaCapo 9.12 xalan starting warmup 36 =====
Normal completion.
===== DaCapo 9.12 xalan completed warmup 36 in 23723 msec =====
===== DaCapo 9.12 xalan starting warmup 37 =====
Normal completion.
===== DaCapo 9.12 xalan completed warmup 37 in 23594 msec =====
===== DaCapo 9.12 xalan starting warmup 38 =====
Normal completion.
===== DaCapo 9.12 xalan completed warmup 38 in 23734 msec =====
===== DaCapo 9.12 xalan starting warmup 39 =====
Normal completion.
===== DaCapo 9.12 xalan completed warmup 39 in 23598 msec =====
===== DaCapo 9.12 xalan starting warmup 40 =====
Normal completion.
===== DaCapo 9.12 xalan completed warmup 40 in 23618 msec =====
===== DaCapo 9.12 xalan starting warmup 41 =====
Normal completion.
===== DaCapo 9.12 xalan completed warmup 41 in 23716 msec =====
===== DaCapo 9.12 xalan starting warmup 42 =====
Normal completion.
===== DaCapo 9.12 xalan completed warmup 42 in 23590 msec =====
===== DaCapo 9.12 xalan starting warmup 43 =====
Normal completion.
===== DaCapo 9.12 xalan completed warmup 43 in 23601 msec =====
===== DaCapo 9.12 xalan starting warmup 44 =====
Normal completion.
===== DaCapo 9.12 xalan completed warmup 44 in 23619 msec =====
===== DaCapo 9.12 xalan starting warmup 45 =====
Normal completion.
===== DaCapo 9.12 xalan completed warmup 45 in 23579 msec =====
===== DaCapo 9.12 xalan starting warmup 46 =====
Normal completion.
===== DaCapo 9.12 xalan completed warmup 46 in 23594 msec =====
===== DaCapo 9.12 xalan starting warmup 47 =====
Normal completion.
===== DaCapo 9.12 xalan completed warmup 47 in 23562 msec =====
===== DaCapo 9.12 xalan starting warmup 48 =====
Normal completion.
===== DaCapo 9.12 xalan completed warmup 48 in 23611 msec =====
===== DaCapo 9.12 xalan starting warmup 49 =====
Normal completion.
===== DaCapo 9.12 xalan completed warmup 49 in 23554 msec =====
===== DaCapo 9.12 xalan starting warmup 50 =====
Normal completion.
===== DaCapo 9.12 xalan completed warmup 50 in 23622 msec =====
===== DaCapo 9.12 xalan starting warmup 51 =====
