2 302 148.8 48.4 0.979795897113 1.01980390272 0.124 0.0403333333333 0.000816496580928 0.0008498365856 148.0 48.0 0.123333333333 0.04
102 102 206.6 48.2 1.35646599663 0.748331477355 0.172166666667 0.0401666666667 0.00113038833052 0.000623609564463 206.0 48.0 0.171666666667 0.04
202 2 218.0 39.6 1.41421356237 0.489897948557 0.181666666667 0.033 0.00117851130198 0.000407908366825 218.0 40.0 0.18151540383 0.0333055786844
302 2 220.8 40.4 1.93907194297 0.489897948557 0.184 0.0336666666667 0.00161589328581 0.000408248290464 221.0 40.0 0.184166666667 0.0333333333333
402 102 217.6 48.8 5.88557558782 0.4 0.181333333333 0.0406666666667 0.00490464632318 0.000333333333333 220.0 49.0 0.183333333333 0.0408333333333
502 302 221.2 47.8 1.46969384567 1.6 0.184333333333 0.0398333333333 0.00122474487139 0.00133333333333 220.0 48.0 0.183333333333 0.04
702 202 223.8 49.0 1.46969384567 0.632455532034 0.1865 0.0408333333333 0.00122474487139 0.000527046276695 223.0 49.0 0.185833333333 0.0408333333333
