1412282030802 0 TOTAL_MEM 4892
1412282050820 29185 CREATION
1412282050820 29185 READING 9 0.982130
1412282050820 29185 MINHEAP 2
1412282050820 29185 MINHEAP 12
1412282050860 29184 CREATION
1412282050860 29184 READING 9 0.974248
1412282050860 29184 MINHEAP 2
1412282050860 29184 MINHEAP 1211
1412282050918 29185 READING 9 0.984695
1412282050927 29184 READING 9 0.972081
1412282050983 29184 READING 11 0.976015
1412282050995 29185 READING 11 0.983160
1412282051074 29185 READING 11 0.963571
1412282051097 29184 READING 11 0.988128
1412282051263 29185 READING 15 0.988993
1412282051313 29184 READING 15 0.839635
1412282051380 29185 READING 15 0.913806
1412282051392 29184 READING 18 0.961572
1412282051521 29184 READING 23 0.872129
1412282051734 29184 READING 28 0.563170
1412282051826 29184 READING 37 0.849335
1412282051874 29185 READING 24 0.876066
1412282051917 29184 READING 38 0.892246
1412282051986 29184 READING 40 0.879758
1412282052086 29184 READING 42 0.904071
1412282052273 29184 READING 45 0.264617
1412282052324 29185 READING 30 0.991271
1412282052345 29184 READING 59 0.816793
1412282052407 29184 READING 65 0.823776
1412282052611 29184 READING 66 0.248892
1412282052623 29185 READING 35 0.986452
1412282052689 29184 READING 91 0.774181
1412282052765 29184 READING 92 0.773437
1412282052887 29185 READING 40 0.990517
1412282052953 29184 READING 95 0.764275
1412282053069 29184 READING 98 0.782961
1412282053080 29185 READING 42 0.977133
1412282053192 29184 READING 104 0.718500
1412282053323 29185 READING 45 0.989699
1412282053504 29185 READING 48 0.981301
1412282053642 29185 READING 49 0.959092
1412282053782 29185 READING 55 0.968558
1412282053942 29185 READING 55 0.978712
1412282053946 29184 READING 108 0.113960
1412282054136 29185 READING 62 0.955514
1412282054274 29185 READING 62 0.281264
1412282054374 29184 READING 135 0.310554
1412282054485 29184 READING 168 0.753371
1412282054564 29185 READING 73 0.988575
1412282054582 29184 READING 172 0.726310
1412282054702 29184 READING 173 0.718197
1412282054817 29184 READING 175 0.736850
1412282054961 29184 READING 180 0.586417
1412282055006 29185 READING 73 0.995575
1412282055081 29184 READING 183 0.653470
1412282055194 29184 READING 191 0.619584
1412282055338 29184 READING 195 0.591832
1412282055437 29184 READING 205 0.557670
1412282055529 29184 READING 211 0.507578
1412282055746 29185 READING 80 0.996262
1412282056166 29184 READING 217 0.088402
1412282056276 29184 READING 256 0.490493
1412282056355 29185 READING 82 0.996247
1412282056707 29184 READING 259 0.099129
1412282056828 29184 READING 290 0.554221
1412282056936 29184 READING 295 0.674157
1412282057042 29184 READING 288 0.752497
1412282057084 29185 READING 88 0.997382
1412282057161 29184 READING 245 0.636796
1412282057277 29184 READING 287 0.600746
1412282057389 29184 READING 289 0.651388
1412282057527 29184 READING 290 0.583987
1412282057650 29184 READING 294 0.610478
1412282057763 29184 READING 294 0.525851
1412282057815 29185 READING 89 0.996828
1412282057884 29184 READING 302 0.536834
1412282057995 29184 READING 307 0.506700
1412282058520 29185 READING 94 0.996743
1412282058731 29184 READING 313 0.075162
1412282058849 29184 READING 358 0.522515
1412282058957 29184 READING 363 0.455368
1412282059074 29184 READING 366 0.604186
1412282059182 29184 READING 367 0.481375
1412282059201 29185 READING 95 0.996567
1412282059283 29184 READING 370 0.535761
1412282059864 29185 READING 97 0.994949
1412282060053 29184 READING 372 0.085435
1412282060189 29184 READING 418 0.486916
1412282060310 29184 READING 365 0.614505
1412282060422 29184 READING 414 0.638321
1412282060553 29185 READING 98 0.993729
1412282060561 29184 READING 417 0.575960
1412282060698 29184 READING 418 0.513701
1412282060803 29185 FUNCTION lru lambda h: 0.936515 * (h ** 0.00641432)
1412282060803 29184 FUNCTION lru lambda h: 1.54949 * (h ** 0.001)
1412282060803 29185 RECOMMEND 2446
1412282060803 29184 RECOMMEND 2446
1412282060877 29184 READING 421 0.467671
1412282061241 29185 READING 102 0.991489
1412282061893 29185 READING 102 0.994490
1412282061944 29184 READING 424 0.073699
1412282062136 29184 READING 478 0.512167
1412282062292 29184 READING 476 0.571259
1412282062470 29184 READING 480 0.480760
1412282062651 29185 READING 104 0.995862
1412282062652 29184 READING 484 0.531445
1412282062869 29184 READING 485 0.459790
1412282063049 29184 READING 489 0.507266
1412282063259 29184 READING 493 0.476992
1412282063367 29185 READING 105 0.996580
1412282064058 29185 READING 108 0.997058
1412282064263 29184 READING 497 0.114987
1412282064473 29184 READING 558 0.386595
1412282064652 29184 READING 566 0.626726
1412282064781 29185 READING 108 0.994892
1412282064848 29184 READING 569 0.545265
1412282065020 29184 READING 573 0.576305
1412282065209 29184 READING 577 0.550065
1412282065500 29185 READING 110 0.995387
1412282066129 29185 READING 110 0.996170
1412282066246 29184 READING 582 0.101527
1412282066459 29184 READING 649 0.509512
1412282066683 29184 READING 660 0.737228
1412282066872 29185 READING 111 0.995363
1412282067434 29184 READING 661 0.865409
1412282067579 29185 READING 112 0.997851
1412282067971 29184 READING 659 0.833011
1412282068268 29185 READING 113 0.998159
1412282068688 29184 READING 671 0.864184
1412282068865 29184 READING 675 0.483268
1412282069034 29185 READING 114 0.998386
1412282069704 29185 READING 115 0.997520
1412282070338 29185 READING 115 0.997597
1412282070563 29184 READING 690 0.043262
1412282070803 29185 FUNCTION lru lambda h: 0.900723 * (h ** 0.0182961)
1412282070803 29184 FUNCTION lru lambda h: 1.46429 * (h ** 0.001)
1412282070803 29185 RECOMMEND 2446
1412282070803 29184 RECOMMEND 2446
1412282070918 29184 READING 767 0.552939
1412282071056 29184 READING 769 0.464360
1412282071094 29185 READING 116 0.998436
1412282071194 29184 READING 758 0.397190
1412282071316 29184 READING 678 0.414629
1412282071828 29185 READING 116 0.997759
1412282072151 29184 READING 756 0.053082
1412282072326 29184 READING 837 0.446190
1412282072555 29185 READING 118 0.998633
1412282072740 29184 READING 840 0.896619
1412282072844 29184 READING 843 0.606890
1412282072952 29184 READING 843 0.633209
1412282073062 29184 READING 845 0.621088
1412282073289 29185 READING 118 0.998226
1412282073379 29184 READING 842 0.863199
1412282074003 29185 READING 119 0.997836
1412282074677 29185 READING 119 0.993991
1412282075218 29185 READING 118 0.987242
1412282075637 29185 READING 119 0.973200
1412282075705 29184 READING 845 0.043893
1412282076061 29184 READING 940 0.641680
1412282076144 29184 READING 943 0.856694
1412282076277 29185 READING 122 0.996448
1412282076489 29184 READING 951 0.965231
1412282076624 29184 READING 952 0.926183
1412282077034 29184 READING 950 0.928024
1412282077044 29185 READING 122 0.996681
1412282077187 29184 READING 809 0.807814
1412282077337 29184 READING 924 0.800461
1412282077487 29184 READING 814 0.797680
1412282077643 29184 READING 911 0.806918
1412282077800 29184 READING 818 0.800736
1412282077863 29185 READING 126 0.997351
1412282077963 29184 READING 905 0.827228
1412282078124 29184 READING 817 0.829048
1412282078296 29184 READING 898 0.832610
1412282078466 29184 READING 904 0.834567
1412282078642 29184 READING 895 0.851623
1412282078664 29185 READING 126 0.996835
1412282078819 29184 READING 899 0.851164
1412282079425 29185 READING 129 0.996965
1412282079880 29184 READING 893 0.985881
1412282080195 29185 READING 129 0.996620
1412282080803 29185 FUNCTION lru lambda h: 0.894177 * (h ** 0.0204335)
1412282080803 29184 FUNCTION lru lambda h: 0.581725 * (h ** 0.001)
1412282080804 29185 RECOMMEND 2446
1412282080804 29184 RECOMMEND 2446
1412282080933 29184 READING 897 0.964750
1412282080970 29185 READING 132 0.996994
1412282081116 29184 READING 900 0.814090
1412282081298 29184 READING 901 0.813083
1412282081489 29184 READING 904 0.813863
1412282081679 29184 READING 904 0.816167
1412282081798 29185 READING 132 0.997183
1412282081876 29184 READING 906 0.827913
1412282082074 29184 READING 908 0.830069
1412282082287 29184 READING 910 0.817469
1412282082495 29184 READING 911 0.836643
1412282082635 29185 READING 134 0.996020
1412282082793 29184 READING 914 0.892973
1412282083129 29184 READING 915 0.841334
1412282083502 29184 READING 916 0.908752
1412282083521 29185 READING 134 0.997604
1412282083701 29184 READING 919 0.789666
1412282083925 29184 READING 920 0.703072
1412282084364 29185 READING 136 0.996654
1412282085163 29185 READING 136 0.995536
1412282085742 29184 READING 924 0.069941
1412282085980 29184 READING 1057 0.591780
1412282086089 29185 READING 137 0.997260
1412282086161 29184 READING 1061 0.742855
1412282086354 29184 READING 1062 0.756728
1412282086545 29184 READING 1065 0.753029
1412282086747 29184 READING 1068 0.766596
1412282086959 29184 READING 1071 0.737319
1412282086987 29185 READING 137 0.997398
1412282087185 29184 READING 1083 0.758515
1412282087417 29184 READING 1083 0.731060
1412282087662 29184 READING 1098 0.793319
1412282087892 29185 READING 138 0.997792
1412282088807 29185 READING 139 0.998152
1412282089772 29185 READING 140 0.998645
1412282089795 29184 READING 1099 0.950422
1412282090624 29185 READING 140 0.998299
1412282090804 29185 FUNCTION lru lambda h: 0.888697 * (h ** 0.022167)
1412282090804 29184 FUNCTION lru lambda h: 0.047586 * (h ** 0.382284)
1412282090804 29185 RECOMMEND 2446
1412282090804 29184 RECOMMEND 2446
1412282091481 29185 READING 142 0.998489
1412282091616 29184 READING 1117 0.967345
1412282092326 29185 READING 142 0.998365
1412282093291 29185 READING 143 0.998737
1412282093474 29184 READING 1120 0.951811
1412282093750 29185 READING 143 0.992034
1412282094145 29185 READING 143 0.991555
1412282094676 29185 READING 143 0.993445
1412282095399 29184 READING 1128 0.971116
1412282095575 29185 READING 146 0.997695
1412282096444 29185 READING 146 0.997326
1412282097267 29184 READING 1131 0.966910
1412282097345 29185 READING 147 0.997514
1412282098210 29185 READING 148 0.997425
1412282099091 29185 READING 150 0.997533
1412282099206 29184 READING 1128 0.964462
1412282099989 29185 READING 150 0.997389
1412282100804 29185 FUNCTION lru lambda h: 0.886523 * (h ** 0.022842)
1412282100804 29184 FUNCTION lru lambda h: 0.0171432 * (h ** 0.539497)
1412282100804 29185 RECOMMEND 2446
1412282100804 29184 RECOMMEND 2446
1412282100875 29185 READING 152 0.997467
1412282101123 29184 READING 1133 0.964350
1412282101785 29185 READING 152 0.997307
1412282102692 29185 READING 152 0.997304
1412282103129 29184 READING 1131 0.965625
1412282103603 29185 READING 153 0.996860
1412282104523 29185 READING 154 0.997298
1412282105111 29184 READING 1134 0.962980
1412282105461 29185 READING 154 0.997416
1412282106393 29185 READING 155 0.996317
1412282107148 29184 READING 1140 0.965206
1412282107342 29185 READING 155 0.997884
1412282108339 29185 READING 156 0.918796
1412282109185 29184 READING 1141 0.961114
1412282109284 29185 READING 160 0.998479
1412282110228 29185 READING 162 0.998867
1412282110804 29185 FUNCTION lru lambda h: 0.891114 * (h ** 0.0214492)
1412282110805 29184 FUNCTION lru lambda h: 0.011626 * (h ** 0.599962)
1412282110805 29185 RECOMMEND 2446
1412282110805 29184 RECOMMEND 2446
1412282110949 29185 READING 162 0.994786
1412282111345 29184 READING 1145 0.945296
1412282111358 29185 READING 164 0.992125
1412282111762 29185 READING 164 0.992323
1412282112741 29185 READING 167 0.997844
1412282113400 29184 READING 1149 0.962120
1412282113748 29185 READING 168 0.997598
1412282114751 29185 READING 171 0.997773
1412282115497 29184 READING 1154 0.957914
1412282115771 29185 READING 171 0.997346
1412282116784 29185 READING 174 0.997820
1412282117553 29184 READING 1158 0.960615
1412282117832 29185 READING 174 0.997589
1412282118864 29185 READING 176 0.997823
1412282119695 29184 READING 1163 0.949151
1412282119927 29185 READING 176 0.997749
1412282120805 29185 FUNCTION lru lambda h: 0.890404 * (h ** 0.0216567)
1412282120805 29184 FUNCTION lru lambda h: 0.00619788 * (h ** 0.695162)
1412282120805 29185 RECOMMEND 2446
1412282120805 29184 RECOMMEND 2446
1412282120967 29185 READING 178 0.997548
1412282121787 29184 READING 1169 0.958577
1412282122049 29185 READING 178 0.997488
1412282123105 29185 READING 181 0.997563
1412282123942 29184 READING 1176 0.959676
1412282124178 29185 READING 181 0.997328
1412282125250 29185 READING 183 0.997515
1412282126106 29184 READING 1180 0.961275
1412282126341 29185 READING 183 0.997825
1412282127431 29185 READING 186 0.998559
1412282128001 29185 READING 186 0.994811
1412282128383 29184 READING 1186 0.949585
1412282128425 29185 READING 187 0.993233
1412282129374 29185 READING 188 0.996946
1412282130502 29185 READING 191 0.998043
1412282130622 29184 READING 1188 0.959402
1412282130805 29185 FUNCTION lru lambda h: 0.890502 * (h ** 0.0216293)
1412282130805 29184 FUNCTION lru lambda h: 0.00144284 * (h ** 0.911449)
1412282130805 29185 RECOMMEND 2446
1412282130805 29184 RECOMMEND 2446
1412282131659 29185 READING 192 0.997878
1412282132815 29185 READING 194 0.998000
1412282132941 29184 READING 1195 0.963872
1412282133983 29185 READING 194 0.997833
1412282135154 29185 READING 196 0.997570
1412282135292 29184 READING 1196 0.951854
1412282136348 29185 READING 197 0.997442
1412282137550 29185 READING 200 0.997419
1412282137683 29184 READING 1202 0.960383
1412282138761 29185 READING 200 0.997780
1412282139984 29185 READING 202 0.996439
1412282140805 29185 FUNCTION lru lambda h: 0.890832 * (h ** 0.0215363)
1412282140805 29184 FUNCTION lru lambda h: 0.00153359 * (h ** 0.902641)
1412282140805 29185 RECOMMEND 2446
1412282140805 29184 RECOMMEND 2446
1412282141205 29185 READING 202 0.987495
1412282141860 29184 READING 1202 0.542100
1412282142412 29185 READING 205 0.997783
1412282143643 29185 READING 205 0.997786
1412282144312 29184 READING 1305 0.952461
1412282144677 29185 READING 209 0.997350
1412282145103 29185 READING 209 0.992785
1412282145998 29185 READING 213 0.996999
1412282146711 29184 READING 1306 0.985365
1412282147295 29185 READING 213 0.997699
1412282148614 29185 READING 217 0.998294
1412282149134 29184 READING 1316 0.983245
1412282149947 29185 READING 217 0.998004
1412282150805 29185 FUNCTION lru lambda h: 0.891807 * (h ** 0.0212649)
1412282150805 29184 FUNCTION lru lambda h: 0.001 * (h ** 0.991129)
1412282150805 29185 RECOMMEND 2446
1412282150805 29184 RECOMMEND 2446
1412282151269 29185 READING 221 0.998189
1412282151603 29184 READING 1320 0.979181
1412282152622 29185 READING 221 0.997821
1412282153982 29185 READING 223 0.998077
1412282154052 29184 READING 1321 0.979579
1412282155346 29185 READING 223 0.997770
1412282156532 29184 READING 1324 0.978477
1412282156724 29185 READING 226 0.998072
1412282158087 29185 READING 226 0.997850
1412282159123 29184 READING 1313 0.975205
1412282159499 29185 READING 229 0.998062
1412282160805 29185 FUNCTION lru lambda h: 0.892528 * (h ** 0.0210676)
1412282160806 29184 FUNCTION lru lambda h: 0.001 * (h ** 0.999)
1412282160806 29185 RECOMMEND 2446
1412282160806 29184 RECOMMEND 2446
1412282160886 29185 READING 229 0.997622
1412282161571 29185 READING 232 0.993575
1412282161727 29184 READING 1238 0.970963
1412282162241 29185 READING 232 0.993661
1412282163679 29185 READING 236 0.998359
1412282164386 29184 READING 1305 0.971611
1412282165129 29185 READING 236 0.998264
1412282166576 29185 READING 240 0.998385
1412282166984 29184 READING 1311 0.971771
1412282168052 29185 READING 240 0.998510
1412282169520 29185 READING 242 0.998378
1412282169655 29184 READING 1312 0.968311
1412282170806 29185 FUNCTION lru lambda h: 0.893702 * (h ** 0.0207502)
1412282170806 29184 FUNCTION lru lambda h: 0.001 * (h ** 0.999)
1412282170806 29185 RECOMMEND 2446
1412282170806 29184 RECOMMEND 2446
1412282171013 29185 READING 243 0.997718
1412282172335 29184 READING 1313 0.965156
1412282172517 29185 READING 246 0.998196
1412282174005 29185 READING 246 0.997990
1412282175004 29184 READING 1317 0.967465
1412282175535 29185 READING 249 0.998167
1412282177045 29185 READING 249 0.997907
1412282177744 29184 READING 1321 0.963885
1412282178069 29185 READING 251 0.996031
1412282178641 29185 READING 251 0.992280
1412282180211 29185 READING 255 0.998037
1412282180503 29184 READING 1326 0.961478
1412282180806 29185 FUNCTION lru lambda h: 0.895272 * (h ** 0.0203311)
1412282180806 29184 FUNCTION lru lambda h: 0.001 * (h ** 0.999)
1412282180806 29185 RECOMMEND 2446
1412282180806 29184 RECOMMEND 2446
1412282181798 29185 READING 255 0.998179
1412282183267 29184 READING 1332 0.962319
1412282183409 29185 READING 259 0.998739
1412282184984 29185 READING 259 0.998296
1412282185999 29184 READING 1341 0.960396
1412282186600 29185 READING 263 0.998391
1412282188205 29185 READING 263 0.998046
1412282189836 29185 READING 265 0.998276
1412282190806 29185 FUNCTION lru lambda h: 0.8961 * (h ** 0.0201126)
1412282190806 29184 FUNCTION lru lambda h: 0.001 * (h ** 0.999)
1412282190806 29185 RECOMMEND 2446
1412282190806 29184 RECOMMEND 2446
1412282191452 29185 READING 265 0.998134
1412282193087 29185 READING 268 0.998348
1412282194546 29185 READING 268 0.997835
1412282195140 29185 READING 271 0.992175
1412282196701 29185 READING 271 0.997647
1412282198397 29185 READING 276 0.998142
1412282200085 29185 READING 276 0.997938
1412282200806 29185 FUNCTION lru lambda h: 0.897254 * (h ** 0.01981)
1412282200806 29184 FUNCTION lru lambda h: 0.001 * (h ** 0.999)
1412282200806 29185 RECOMMEND 2446
1412282200806 29184 RECOMMEND 2446
1412282200997 29184 READING 1347 0.991743
1412282201842 29185 READING 280 0.998378
1412282203559 29185 READING 280 0.998085
1412282205276 29185 READING 284 0.998433
1412282207002 29185 READING 284 0.998212
1412282208769 29185 READING 286 0.998349
1412282210536 29185 READING 286 0.998272
1412282210807 29185 FUNCTION lru lambda h: 0.862425 * (h ** 0.027601)
1412282210807 29184 FUNCTION lru lambda h: 0.001 * (h ** 0.999)
1412282210807 29185 RECOMMEND 2446
1412282210807 29184 RECOMMEND 2446
1412282211388 29185 READING 289 0.994923
1412282212624 29185 READING 289 0.996475
1412282214439 29185 READING 294 0.998169
1412282216252 29185 READING 294 0.998004
1412282217170 29184 READING 1346 0.991141
1412282218140 29185 READING 298 0.998351
1412282219980 29185 READING 298 0.998024
1412282220807 29185 FUNCTION lru lambda h: 0.867824 * (h ** 0.0262699)
1412282220807 29184 FUNCTION lru lambda h: 0.001 * (h ** 0.999)
1412282220807 29185 RECOMMEND 2446
1412282220807 29184 RECOMMEND 2446
1412282221850 29185 READING 301 0.998484
1412282223705 29185 READING 301 0.998339
1412282224869 29184 READING 1359 0.981648
1412282225549 29184 READING 1354 0.848779
1412282225652 29185 READING 304 0.998440
1412282226830 29184 READING 1388 0.269883
1412282227040 29184 READING 1462 0.992568
1412282227246 29184 READING 1501 0.989909
1412282227467 29184 READING 1520 0.993034
1412282227586 29185 READING 304 0.998321
1412282227682 29184 READING 1524 0.989337
1412282227879 29185 READING 307 0.711342
1412282227904 29184 READING 1526 0.990372
1412282228127 29184 READING 1530 0.990653
1412282228375 29184 READING 1516 0.985716
1412282228834 29185 READING 312 0.996676
1412282230442 29184 READING 1240 0.991616
1412282230807 29185 FUNCTION lru lambda h: 0.888831 * (h ** 0.0206162)
1412282230807 29184 FUNCTION lru lambda h: 0.001 * (h ** 0.978062)
1412282230807 29185 RECOMMEND 2446
1412282230807 29184 RECOMMEND 2446
1412282230865 29185 READING 319 0.998922
1412282232677 29184 READING 1497 0.989637
1412282232849 29185 READING 319 0.998858
1412282234842 29185 READING 325 0.998905
1412282234919 29184 READING 1253 0.985837
1412282236877 29185 READING 326 0.998765
1412282237212 29184 READING 1471 0.982859
1412282238944 29185 READING 330 0.998951
1412282239515 29184 READING 1273 0.978430
1412282240807 29185 FUNCTION lru lambda h: 1.05063 * (h ** 0.001)
1412282240807 29184 FUNCTION lru lambda h: 0.001 * (h ** 0.999)
1412282240807 29185 RECOMMEND 2446
1412282240807 29184 RECOMMEND 2446
1412282241012 29185 READING 331 0.998712
1412282241886 29184 READING 1444 0.980490
1412282243077 29185 READING 334 0.998933
1412282244273 29184 READING 1293 0.978128
1412282244618 29185 READING 335 0.997262
1412282245746 29185 READING 338 0.996369
1412282246690 29184 READING 1422 0.976958
1412282247859 29185 READING 339 0.998282
1412282249091 29184 READING 1313 0.974759
1412282249989 29185 READING 344 0.998465
1412282250807 29185 FUNCTION lru lambda h: 1.04107 * (h ** 0.001)
1412282250807 29184 FUNCTION lru lambda h: 0.00242357 * (h ** 0.83313)
1412282250807 29185 RECOMMEND 2446
1412282250807 29184 RECOMMEND 2446
1412282251585 29184 READING 1420 0.973609
1412282252114 29185 READING 345 0.998173
1412282254061 29184 READING 1425 0.970051
1412282254276 29185 READING 350 0.998203
1412282256423 29185 READING 350 0.998086
1412282256568 29184 READING 1428 0.968249
1412282258602 29185 READING 355 0.998274
1412282259113 29184 READING 1428 0.966266
1412282260787 29185 READING 355 0.998365
1412282260808 29185 FUNCTION lru lambda h: 1.03783 * (h ** 0.001)
1412282260808 29184 FUNCTION lru lambda h: 0.0341878 * (h ** 0.460577)
1412282260808 29185 RECOMMEND 2446
1412282260808 29184 RECOMMEND 2446
1412282261569 29185 READING 359 0.992691
1412282261698 29184 READING 1432 0.968885
1412282263725 29185 READING 359 0.998330
1412282264231 29184 READING 1436 0.965685
1412282266019 29185 READING 366 0.998421
1412282266845 29184 READING 1442 0.962582
1412282268300 29185 READING 367 0.998305
1412282269440 29184 READING 1448 0.963672
1412282270641 29185 READING 372 0.998473
1412282270808 29185 FUNCTION lru lambda h: 1.03091 * (h ** 0.001)
1412282270808 29184 FUNCTION lru lambda h: 0.0466498 * (h ** 0.417044)
1412282270808 29185 RECOMMEND 2446
1412282270808 29184 RECOMMEND 2446
1412282272123 29184 READING 1456 0.964681
1412282272957 29185 READING 372 0.998300
1412282274804 29184 READING 1460 0.964765
1412282275292 29185 READING 376 0.998334
1412282277594 29184 READING 1469 0.962202
1412282277595 29185 READING 377 0.998304
1412282278527 29185 READING 382 0.995056
1412282280357 29184 READING 1470 0.964402
1412282280808 29185 FUNCTION lru lambda h: 1.02512 * (h ** 0.001)
1412282280808 29184 FUNCTION lru lambda h: 0.0858877 * (h ** 0.33179)
1412282280808 29185 RECOMMEND 2446
1412282280808 29184 RECOMMEND 2446
1412282280917 29185 READING 382 0.998446
1412282283195 29184 READING 1479 0.965943
1412282283349 29185 READING 387 0.998547
1412282285749 29185 READING 388 0.998278
1412282286030 29184 READING 1479 0.964303
1412282288208 29185 READING 392 0.998554
1412282289011 29184 READING 1487 0.963093
1412282290651 29185 READING 393 0.998316
1412282290808 29185 FUNCTION lru lambda h: 1.01617 * (h ** 0.001)
1412282290808 29184 FUNCTION lru lambda h: 0.0784525 * (h ** 0.344286)
1412282290808 29185 RECOMMEND 2446
1412282290808 29184 RECOMMEND 2446
1412282291969 29184 READING 1488 0.964606
1412282293142 29185 READING 398 0.998547
1412282294517 29185 READING 398 0.995824
1412282295030 29184 READING 1495 0.963364
1412282296599 29185 READING 402 0.998222
1412282298082 29184 READING 1495 0.963892
1412282299132 29185 READING 403 0.998502
1412282300808 29185 FUNCTION lru lambda h: 1.01389 * (h ** 0.001)
1412282300808 29184 FUNCTION lru lambda h: 0.0764254 * (h ** 0.347906)
1412282300809 29185 RECOMMEND 2446
1412282300809 29184 RECOMMEND 2446
1412282301189 29184 READING 1502 0.963447
1412282301683 29185 READING 407 0.998607
1412282304223 29185 READING 408 0.998388
1412282305458 29184 READING 1503 0.716595
1412282306834 29185 READING 412 0.998550
1412282308608 29184 READING 1550 0.993625
1412282309419 29185 READING 413 0.998200
1412282310809 29185 FUNCTION lru lambda h: 1.00551 * (h ** 0.001)
1412282310809 29184 FUNCTION lru lambda h: 0.0826189 * (h ** 0.336389)
1412282310809 29185 RECOMMEND 2446
1412282310809 29184 RECOMMEND 2446
1412282311660 29184 READING 1551 0.991335
1412282312511 29185 DEATH 222
1412282314672 29184 READING 1567 0.988833
1412282317746 29184 READING 1571 0.986986
1412282320809 29184 FUNCTION lru lambda h: 0.074362 * (h ** 0.351054)
1412282320809 29184 RECOMMEND 4892
1412282320837 29184 READING 1569 0.984981
1412282323992 29184 READING 1574 0.983142
1412282327244 29184 READING 1559 0.981798
1412282330430 29184 READING 1453 0.979405
1412282330809 29184 FUNCTION lru lambda h: 0.0514269 * (h ** 0.402186)
1412282330809 29184 RECOMMEND 4892
1412282340809 29184 FUNCTION lru lambda h: 0.0514269 * (h ** 0.402186)
1412282340809 29184 RECOMMEND 4892
1412282346724 29184 READING 1549 0.990453
1412282350809 29184 FUNCTION lru lambda h: 0.049784 * (h ** 0.406691)
1412282350810 29184 RECOMMEND 4892
1412282360810 29184 FUNCTION lru lambda h: 0.049784 * (h ** 0.406691)
1412282360810 29184 RECOMMEND 4892
1412282362625 29184 READING 1557 0.990933
1412282363857 29184 READING 1571 0.928294
1412282364367 29184 READING 1603 0.762372
1412282364720 29184 READING 1588 0.714291
1412282365090 29184 READING 1633 0.690756
1412282365449 29184 READING 1668 0.716069
1412282365823 29184 READING 1692 0.715518
1412282366208 29184 READING 1738 0.788521
1412282366246 29184 DEATH 235
