Using scaled threading model. 4 processors detected, 4 threads used to drive the workload, in a possible range of [1,1000]
===== DaCapo 9.12 xalan starting warmup 1 =====
Normal completion.
===== DaCapo 9.12 xalan completed warmup 1 in 10448 msec =====
===== DaCapo 9.12 xalan starting warmup 2 =====
Normal completion.
===== DaCapo 9.12 xalan completed warmup 2 in 6838 msec =====
===== DaCapo 9.12 xalan starting warmup 3 =====
Normal completion.
===== DaCapo 9.12 xalan completed warmup 3 in 6187 msec =====
===== DaCapo 9.12 xalan starting warmup 4 =====
Normal completion.
===== DaCapo 9.12 xalan completed warmup 4 in 6168 msec =====
===== DaCapo 9.12 xalan starting warmup 5 =====
Normal completion.
===== DaCapo 9.12 xalan completed warmup 5 in 6187 msec =====
===== DaCapo 9.12 xalan starting warmup 6 =====
Normal completion.
===== DaCapo 9.12 xalan completed warmup 6 in 6197 msec =====
===== DaCapo 9.12 xalan starting warmup 7 =====
Normal completion.
===== DaCapo 9.12 xalan completed warmup 7 in 6160 msec =====
===== DaCapo 9.12 xalan starting warmup 8 =====
Normal completion.
===== DaCapo 9.12 xalan completed warmup 8 in 6301 msec =====
===== DaCapo 9.12 xalan starting warmup 9 =====
Normal completion.
===== DaCapo 9.12 xalan completed warmup 9 in 6096 msec =====
===== DaCapo 9.12 xalan starting warmup 10 =====
Normal completion.
===== DaCapo 9.12 xalan completed warmup 10 in 6137 msec =====
===== DaCapo 9.12 xalan starting warmup 11 =====
Normal completion.
===== DaCapo 9.12 xalan completed warmup 11 in 6140 msec =====
===== DaCapo 9.12 xalan starting warmup 12 =====
Normal completion.
===== DaCapo 9.12 xalan completed warmup 12 in 6121 msec =====
===== DaCapo 9.12 xalan starting warmup 13 =====
Normal completion.
===== DaCapo 9.12 xalan completed warmup 13 in 6165 msec =====
===== DaCapo 9.12 xalan starting warmup 14 =====
Normal completion.
===== DaCapo 9.12 xalan completed warmup 14 in 6163 msec =====
===== DaCapo 9.12 xalan starting warmup 15 =====
Normal completion.
===== DaCapo 9.12 xalan completed warmup 15 in 6179 msec =====
===== DaCapo 9.12 xalan starting warmup 16 =====
Normal completion.
===== DaCapo 9.12 xalan completed warmup 16 in 6104 msec =====
===== DaCapo 9.12 xalan starting warmup 17 =====
Normal completion.
===== DaCapo 9.12 xalan completed warmup 17 in 6195 msec =====
===== DaCapo 9.12 xalan starting warmup 18 =====
Normal completion.
===== DaCapo 9.12 xalan completed warmup 18 in 6096 msec =====
===== DaCapo 9.12 xalan starting warmup 19 =====
Normal completion.
===== DaCapo 9.12 xalan completed warmup 19 in 6161 msec =====
===== DaCapo 9.12 xalan starting warmup 20 =====
Normal completion.
===== DaCapo 9.12 xalan completed warmup 20 in 6957 msec =====
===== DaCapo 9.12 xalan starting warmup 21 =====
Normal completion.
===== DaCapo 9.12 xalan completed warmup 21 in 6132 msec =====
===== DaCapo 9.12 xalan starting warmup 22 =====
Normal completion.
===== DaCapo 9.12 xalan completed warmup 22 in 6127 msec =====
===== DaCapo 9.12 xalan starting warmup 23 =====
Normal completion.
===== DaCapo 9.12 xalan completed warmup 23 in 6105 msec =====
===== DaCapo 9.12 xalan starting warmup 24 =====
Normal completion.
===== DaCapo 9.12 xalan completed warmup 24 in 6117 msec =====
===== DaCapo 9.12 xalan starting warmup 25 =====
Normal completion.
===== DaCapo 9.12 xalan completed warmup 25 in 6253 msec =====
===== DaCapo 9.12 xalan starting warmup 26 =====
Normal completion.
===== DaCapo 9.12 xalan completed warmup 26 in 6124 msec =====
===== DaCapo 9.12 xalan starting warmup 27 =====
Normal completion.
===== DaCapo 9.12 xalan completed warmup 27 in 6187 msec =====
===== DaCapo 9.12 xalan starting warmup 28 =====
Normal completion.
===== DaCapo 9.12 xalan completed warmup 28 in 6159 msec =====
===== DaCapo 9.12 xalan starting warmup 29 =====
Normal completion.
===== DaCapo 9.12 xalan completed warmup 29 in 6146 msec =====
===== DaCapo 9.12 xalan starting warmup 30 =====
Normal completion.
===== DaCapo 9.12 xalan completed warmup 30 in 6160 msec =====
===== DaCapo 9.12 xalan starting warmup 31 =====
Normal completion.
===== DaCapo 9.12 xalan completed warmup 31 in 6105 msec =====
===== DaCapo 9.12 xalan starting warmup 32 =====
Normal completion.
===== DaCapo 9.12 xalan completed warmup 32 in 6127 msec =====
===== DaCapo 9.12 xalan starting warmup 33 =====
Normal completion.
===== DaCapo 9.12 xalan completed warmup 33 in 6048 msec =====
===== DaCapo 9.12 xalan starting warmup 34 =====
Normal completion.
===== DaCapo 9.12 xalan completed warmup 34 in 6013 msec =====
===== DaCapo 9.12 xalan starting warmup 35 =====
Normal completion.
===== DaCapo 9.12 xalan completed warmup 35 in 6012 msec =====
===== DaCapo 9.12 xalan starting warmup 36 =====
Normal completion.
===== DaCapo 9.12 xalan completed warmup 36 in 6002 msec =====
===== DaCapo 9.12 xalan starting warmup 37 =====
Normal completion.
===== DaCapo 9.12 xalan completed warmup 37 in 5971 msec =====
===== DaCapo 9.12 xalan starting warmup 38 =====
Normal completion.
===== DaCapo 9.12 xalan completed warmup 38 in 5992 msec =====
===== DaCapo 9.12 xalan starting warmup 39 =====
Normal completion.
===== DaCapo 9.12 xalan completed warmup 39 in 6041 msec =====
===== DaCapo 9.12 xalan starting warmup 40 =====
Normal completion.
===== DaCapo 9.12 xalan completed warmup 40 in 6051 msec =====
===== DaCapo 9.12 xalan starting warmup 41 =====
Normal completion.
===== DaCapo 9.12 xalan completed warmup 41 in 6723 msec =====
===== DaCapo 9.12 xalan starting warmup 42 =====
Normal completion.
===== DaCapo 9.12 xalan completed warmup 42 in 6109 msec =====
===== DaCapo 9.12 xalan starting warmup 43 =====
Normal completion.
===== DaCapo 9.12 xalan completed warmup 43 in 6025 msec =====
===== DaCapo 9.12 xalan starting warmup 44 =====
Normal completion.
===== DaCapo 9.12 xalan completed warmup 44 in 5999 msec =====
===== DaCapo 9.12 xalan starting warmup 45 =====
Normal completion.
===== DaCapo 9.12 xalan completed warmup 45 in 6009 msec =====
===== DaCapo 9.12 xalan starting warmup 46 =====
Normal completion.
===== DaCapo 9.12 xalan completed warmup 46 in 5991 msec =====
===== DaCapo 9.12 xalan starting warmup 47 =====
Normal completion.
===== DaCapo 9.12 xalan completed warmup 47 in 6007 msec =====
===== DaCapo 9.12 xalan starting =====
Normal completion.
===== DaCapo 9.12 xalan PASSED in 5982 msec =====
