economemd
    total memory: 3669 MB
    timer interval: 10 s
    timer start state: running
    utility model: root

    caches:
        lru

    force utility function validity: yes
    make recommendations: yes
    equal recommendations: no

    reading receiver name: vengerov
    command receiver name: vengerov

    dump file: economemd.dump.log
    log file: /home/callum/economics_memory_code/dynamic_sizing/data/output/timerComparisonMany_2014_09_25_14_54_37/sub15_timerComparisonSingle/sub3_timeBenchmarkDaemon/daemon_run04_log.txt
    log readings: yes
    log functions: yes

PyOptimiser: initialising...
PyOptimiser: initialised
ReadingThread: starting
TimerThread: starting
CommandThread: starting
Recommendation: no clients; no recommendation
Recommendation: no clients; no recommendation
Reading from 27299: heap size 9 MB, throughput 0.990233
Clients: 1
Client 27299 has a minimum heap size of 12 MB
Reading from 27298: heap size 9 MB, throughput 0.993457
Clients: 2
Client 27298 has a minimum heap size of 1211 MB
Reading from 27299: heap size 9 MB, throughput 0.990574
Reading from 27298: heap size 9 MB, throughput 0.986946
Reading from 27299: heap size 9 MB, throughput 0.985699
Reading from 27298: heap size 9 MB, throughput 0.981599
Reading from 27298: heap size 9 MB, throughput 0.972426
Reading from 27299: heap size 9 MB, throughput 0.974942
Reading from 27298: heap size 11 MB, throughput 0.980515
Reading from 27299: heap size 11 MB, throughput 0.965889
Reading from 27299: heap size 11 MB, throughput 0.972824
Reading from 27298: heap size 11 MB, throughput 0.978792
Reading from 27298: heap size 17 MB, throughput 0.975879
Reading from 27299: heap size 16 MB, throughput 0.979197
Reading from 27298: heap size 17 MB, throughput 0.9309
Reading from 27298: heap size 30 MB, throughput 0.862545
Reading from 27299: heap size 16 MB, throughput 0.979941
Reading from 27298: heap size 31 MB, throughput 0.523617
Reading from 27298: heap size 34 MB, throughput 0.678648
Reading from 27299: heap size 24 MB, throughput 0.967708
Reading from 27298: heap size 45 MB, throughput 0.646002
Reading from 27298: heap size 54 MB, throughput 0.8849
Reading from 27298: heap size 56 MB, throughput 0.748273
Reading from 27299: heap size 25 MB, throughput 0.949401
Reading from 27298: heap size 57 MB, throughput 0.443875
Reading from 27298: heap size 76 MB, throughput 0.711936
Reading from 27298: heap size 78 MB, throughput 0.593121
Reading from 27298: heap size 79 MB, throughput 0.39258
Reading from 27298: heap size 85 MB, throughput 0.379603
Reading from 27299: heap size 39 MB, throughput 0.803904
Reading from 27299: heap size 40 MB, throughput 0.796383
Reading from 27298: heap size 86 MB, throughput 0.400071
Reading from 27299: heap size 47 MB, throughput 0.823426
Reading from 27298: heap size 115 MB, throughput 0.45931
Reading from 27298: heap size 117 MB, throughput 0.494867
Reading from 27299: heap size 47 MB, throughput 0.89669
Reading from 27298: heap size 119 MB, throughput 0.24207
Reading from 27298: heap size 122 MB, throughput 0.0809272
Reading from 27299: heap size 55 MB, throughput 0.938592
Reading from 27299: heap size 55 MB, throughput 0.963647
Reading from 27298: heap size 126 MB, throughput 0.458918
Reading from 27299: heap size 62 MB, throughput 0.983071
Reading from 27298: heap size 161 MB, throughput 0.279711
Reading from 27298: heap size 166 MB, throughput 0.305884
Reading from 27299: heap size 63 MB, throughput 0.983708
Reading from 27298: heap size 167 MB, throughput 0.693975
Reading from 27298: heap size 170 MB, throughput 0.663181
Reading from 27299: heap size 70 MB, throughput 0.983554
Reading from 27298: heap size 175 MB, throughput 0.659527
Reading from 27298: heap size 177 MB, throughput 0.67555
Reading from 27298: heap size 182 MB, throughput 0.63766
Reading from 27299: heap size 70 MB, throughput 0.987469
Reading from 27298: heap size 187 MB, throughput 0.568193
Reading from 27298: heap size 194 MB, throughput 0.553798
Reading from 27299: heap size 77 MB, throughput 0.989343
Reading from 27298: heap size 201 MB, throughput 0.434029
Reading from 27298: heap size 248 MB, throughput 0.572077
Reading from 27298: heap size 247 MB, throughput 0.588615
Reading from 27299: heap size 77 MB, throughput 0.990501
Reading from 27298: heap size 250 MB, throughput 0.235135
Reading from 27298: heap size 293 MB, throughput 0.591087
Reading from 27298: heap size 295 MB, throughput 0.640055
Reading from 27298: heap size 291 MB, throughput 0.667675
Reading from 27299: heap size 84 MB, throughput 0.991012
Reading from 27298: heap size 294 MB, throughput 0.690225
Reading from 27298: heap size 296 MB, throughput 0.677921
Reading from 27298: heap size 299 MB, throughput 0.658245
Reading from 27298: heap size 301 MB, throughput 0.612199
Reading from 27298: heap size 309 MB, throughput 0.595929
Reading from 27298: heap size 312 MB, throughput 0.547946
Reading from 27299: heap size 85 MB, throughput 0.990423
Reading from 27298: heap size 323 MB, throughput 0.506805
Reading from 27298: heap size 328 MB, throughput 0.502437
Reading from 27298: heap size 338 MB, throughput 0.479927
Reading from 27298: heap size 345 MB, throughput 0.453309
Reading from 27299: heap size 93 MB, throughput 0.991745
Reading from 27298: heap size 349 MB, throughput 0.414989
Reading from 27298: heap size 399 MB, throughput 0.433452
Reading from 27298: heap size 332 MB, throughput 0.502472
Reading from 27299: heap size 93 MB, throughput 0.991624
Reading from 27298: heap size 390 MB, throughput 0.167578
Reading from 27299: heap size 98 MB, throughput 0.99306
Reading from 27298: heap size 454 MB, throughput 0.462357
Reading from 27298: heap size 451 MB, throughput 0.516815
Reading from 27298: heap size 452 MB, throughput 0.575854
Reading from 27298: heap size 446 MB, throughput 0.543469
Reading from 27298: heap size 392 MB, throughput 0.542246
Reading from 27298: heap size 441 MB, throughput 0.53279
Reading from 27299: heap size 99 MB, throughput 0.98333
Reading from 27298: heap size 445 MB, throughput 0.548921
Numeric result:
Recommendation: 2 clients, utility 1.00092:
    h1: 2458 MB (U(h) = 0.905748*h^0.0127278)
    h2: 1211 MB (U(h) = 0.993471*h^0.001)
Recommendation: 2 clients, utility 1.00092:
    h1: 2458 MB (U(h) = 0.905748*h^0.0127278)
    h2: 1211 MB (U(h) = 0.993471*h^0.001)
Reading from 27298: heap size 447 MB, throughput 0.534598
Reading from 27298: heap size 448 MB, throughput 0.534756
Reading from 27298: heap size 451 MB, throughput 0.529035
Reading from 27298: heap size 453 MB, throughput 0.512591
Reading from 27299: heap size 104 MB, throughput 0.986158
Reading from 27298: heap size 455 MB, throughput 0.485193
Reading from 27298: heap size 460 MB, throughput 0.48478
Reading from 27298: heap size 464 MB, throughput 0.504043
Reading from 27298: heap size 470 MB, throughput 0.491461
Reading from 27298: heap size 472 MB, throughput 0.412522
Reading from 27299: heap size 104 MB, throughput 0.983828
Reading from 27299: heap size 109 MB, throughput 0.979817
Reading from 27298: heap size 481 MB, throughput 0.367761
Reading from 27298: heap size 545 MB, throughput 0.377631
Reading from 27298: heap size 548 MB, throughput 0.387506
Reading from 27298: heap size 549 MB, throughput 0.395351
Reading from 27299: heap size 110 MB, throughput 0.980761
Reading from 27299: heap size 115 MB, throughput 0.980208
Reading from 27298: heap size 550 MB, throughput 0.174806
Reading from 27298: heap size 611 MB, throughput 0.419941
Reading from 27298: heap size 616 MB, throughput 0.522483
Reading from 27298: heap size 612 MB, throughput 0.582769
Reading from 27299: heap size 115 MB, throughput 0.981138
Reading from 27298: heap size 615 MB, throughput 0.62104
Reading from 27298: heap size 615 MB, throughput 0.64476
Reading from 27298: heap size 615 MB, throughput 0.626253
Reading from 27298: heap size 616 MB, throughput 0.609599
Reading from 27299: heap size 120 MB, throughput 0.983764
Reading from 27298: heap size 624 MB, throughput 0.826396
Reading from 27299: heap size 120 MB, throughput 0.985281
Reading from 27298: heap size 626 MB, throughput 0.844351
Reading from 27298: heap size 638 MB, throughput 0.831399
Reading from 27299: heap size 124 MB, throughput 0.990631
Reading from 27298: heap size 640 MB, throughput 0.820516
Reading from 27299: heap size 125 MB, throughput 0.993565
Reading from 27299: heap size 127 MB, throughput 0.995905
Reading from 27298: heap size 655 MB, throughput 0.504429
Reading from 27298: heap size 731 MB, throughput 0.564641
Reading from 27298: heap size 739 MB, throughput 0.488201
Reading from 27299: heap size 128 MB, throughput 0.996527
Reading from 27298: heap size 731 MB, throughput 0.649687
Reading from 27298: heap size 665 MB, throughput 0.539057
Reading from 27298: heap size 721 MB, throughput 0.45185
Numeric result:
Recommendation: 2 clients, utility 0.857112:
    h1: 2458 MB (U(h) = 0.877045*h^0.0226144)
    h2: 1211 MB (U(h) = 0.813311*h^0.001)
Recommendation: 2 clients, utility 0.857112:
    h1: 2458 MB (U(h) = 0.877045*h^0.0226144)
    h2: 1211 MB (U(h) = 0.813311*h^0.001)
Reading from 27299: heap size 131 MB, throughput 0.996479
Reading from 27298: heap size 651 MB, throughput 0.210666
Reading from 27298: heap size 801 MB, throughput 0.321122
Reading from 27298: heap size 803 MB, throughput 0.379397
Reading from 27298: heap size 807 MB, throughput 0.434323
Reading from 27299: heap size 131 MB, throughput 0.996722
Reading from 27298: heap size 810 MB, throughput 0.128372
Reading from 27299: heap size 133 MB, throughput 0.997077
Reading from 27298: heap size 902 MB, throughput 0.777659
Reading from 27298: heap size 906 MB, throughput 0.784496
Reading from 27298: heap size 912 MB, throughput 0.780589
Reading from 27298: heap size 913 MB, throughput 0.797016
Reading from 27298: heap size 909 MB, throughput 0.807095
Reading from 27298: heap size 730 MB, throughput 0.804599
Reading from 27298: heap size 901 MB, throughput 0.904003
Reading from 27298: heap size 730 MB, throughput 0.901956
Reading from 27299: heap size 133 MB, throughput 0.997066
Reading from 27298: heap size 891 MB, throughput 0.895152
Reading from 27298: heap size 733 MB, throughput 0.926403
Reading from 27298: heap size 879 MB, throughput 0.893835
Reading from 27298: heap size 739 MB, throughput 0.914791
Reading from 27298: heap size 864 MB, throughput 0.862237
Reading from 27298: heap size 746 MB, throughput 0.786522
Reading from 27299: heap size 135 MB, throughput 0.996853
Reading from 27298: heap size 854 MB, throughput 0.8126
Reading from 27299: heap size 135 MB, throughput 0.990982
Reading from 27298: heap size 763 MB, throughput 0.791487
Reading from 27298: heap size 851 MB, throughput 0.745069
Reading from 27299: heap size 141 MB, throughput 0.994532
Reading from 27298: heap size 853 MB, throughput 0.671788
Reading from 27298: heap size 851 MB, throughput 0.675809
Reading from 27298: heap size 853 MB, throughput 0.674823
Reading from 27298: heap size 851 MB, throughput 0.702553
Reading from 27299: heap size 141 MB, throughput 0.994736
Reading from 27298: heap size 854 MB, throughput 0.733062
Reading from 27298: heap size 848 MB, throughput 0.771055
Reading from 27298: heap size 852 MB, throughput 0.778978
Reading from 27298: heap size 847 MB, throughput 0.769721
Reading from 27298: heap size 850 MB, throughput 0.788978
Reading from 27298: heap size 841 MB, throughput 0.792761
Reading from 27298: heap size 846 MB, throughput 0.0114859
Reading from 27299: heap size 149 MB, throughput 0.996746
Reading from 27298: heap size 841 MB, throughput 0.456007
Reading from 27299: heap size 150 MB, throughput 0.996997
Reading from 27298: heap size 845 MB, throughput 0.903072
Reading from 27299: heap size 156 MB, throughput 0.997361
Reading from 27298: heap size 846 MB, throughput 0.939017
Reading from 27298: heap size 847 MB, throughput 0.930687
Reading from 27298: heap size 853 MB, throughput 0.880224
Reading from 27298: heap size 858 MB, throughput 0.831953
Reading from 27298: heap size 865 MB, throughput 0.802414
Reading from 27298: heap size 868 MB, throughput 0.79073
Reading from 27299: heap size 156 MB, throughput 0.997659
Reading from 27298: heap size 874 MB, throughput 0.786305
Reading from 27298: heap size 876 MB, throughput 0.7894
Reading from 27298: heap size 883 MB, throughput 0.794478
Reading from 27298: heap size 884 MB, throughput 0.768769
Reading from 27298: heap size 891 MB, throughput 0.791713
Reading from 27298: heap size 891 MB, throughput 0.844854
Reading from 27299: heap size 161 MB, throughput 0.99767
Numeric result:
Recommendation: 2 clients, utility 0.969737:
    h1: 311.87 MB (U(h) = 0.865128*h^0.0265865)
    h2: 3357.13 MB (U(h) = 0.0942277*h^0.286188)
Recommendation: 2 clients, utility 0.969737:
    h1: 311.873 MB (U(h) = 0.865128*h^0.0265865)
    h2: 3357.13 MB (U(h) = 0.0942277*h^0.286188)
Reading from 27298: heap size 892 MB, throughput 0.83566
Reading from 27298: heap size 895 MB, throughput 0.877075
Reading from 27298: heap size 894 MB, throughput 0.815096
Reading from 27299: heap size 161 MB, throughput 0.995726
Reading from 27299: heap size 167 MB, throughput 0.996017
Reading from 27298: heap size 896 MB, throughput 0.717463
Reading from 27298: heap size 994 MB, throughput 0.661291
Reading from 27298: heap size 1002 MB, throughput 0.644867
Reading from 27299: heap size 167 MB, throughput 0.995853
Reading from 27298: heap size 1009 MB, throughput 0.628692
Reading from 27298: heap size 1009 MB, throughput 0.582808
Reading from 27298: heap size 1019 MB, throughput 0.6201
Reading from 27298: heap size 1020 MB, throughput 0.63279
Reading from 27298: heap size 1033 MB, throughput 0.614262
Reading from 27298: heap size 1034 MB, throughput 0.602406
Reading from 27299: heap size 173 MB, throughput 0.996867
Reading from 27298: heap size 1049 MB, throughput 0.614106
Reading from 27298: heap size 1051 MB, throughput 0.615233
Reading from 27298: heap size 1067 MB, throughput 0.642898
Reading from 27298: heap size 1069 MB, throughput 0.647842
Reading from 27299: heap size 173 MB, throughput 0.99706
Reading from 27299: heap size 179 MB, throughput 0.997245
Reading from 27298: heap size 1085 MB, throughput 0.907693
Reading from 27299: heap size 179 MB, throughput 0.997263
Reading from 27298: heap size 1090 MB, throughput 0.927581
Reading from 27299: heap size 184 MB, throughput 0.997487
Numeric result:
Recommendation: 2 clients, utility 1.07476:
    h1: 261.863 MB (U(h) = 0.86335*h^0.0271499)
    h2: 3407.14 MB (U(h) = 0.060492*h^0.353238)
Recommendation: 2 clients, utility 1.07476:
    h1: 261.872 MB (U(h) = 0.86335*h^0.0271499)
    h2: 3407.13 MB (U(h) = 0.060492*h^0.353238)
Reading from 27299: heap size 185 MB, throughput 0.990581
Reading from 27298: heap size 1105 MB, throughput 0.771522
Reading from 27299: heap size 190 MB, throughput 0.990751
Reading from 27299: heap size 190 MB, throughput 0.991686
Reading from 27298: heap size 1171 MB, throughput 0.962097
Reading from 27299: heap size 195 MB, throughput 0.984654
Reading from 27299: heap size 195 MB, throughput 0.990548
Reading from 27298: heap size 1178 MB, throughput 0.975267
Reading from 27299: heap size 203 MB, throughput 0.994091
Reading from 27298: heap size 1186 MB, throughput 0.97937
Reading from 27299: heap size 203 MB, throughput 0.99585
Reading from 27299: heap size 209 MB, throughput 0.996464
Reading from 27298: heap size 1197 MB, throughput 0.980624
Reading from 27299: heap size 210 MB, throughput 0.996866
Reading from 27298: heap size 1199 MB, throughput 0.980818
Numeric result:
Recommendation: 2 clients, utility 1.46162:
    h1: 168.406 MB (U(h) = 0.865419*h^0.0265092)
    h2: 3500.59 MB (U(h) = 0.0164269*h^0.55106)
Recommendation: 2 clients, utility 1.46162:
    h1: 168.399 MB (U(h) = 0.865419*h^0.0265092)
    h2: 3500.6 MB (U(h) = 0.0164269*h^0.55106)
Reading from 27299: heap size 216 MB, throughput 0.99706
Reading from 27298: heap size 1195 MB, throughput 0.980165
Reading from 27299: heap size 203 MB, throughput 0.994825
Reading from 27299: heap size 192 MB, throughput 0.994759
Reading from 27298: heap size 1200 MB, throughput 0.975712
Reading from 27299: heap size 184 MB, throughput 0.995909
Reading from 27298: heap size 1186 MB, throughput 0.975306
Reading from 27299: heap size 176 MB, throughput 0.99646
Reading from 27299: heap size 169 MB, throughput 0.996946
Reading from 27298: heap size 1113 MB, throughput 0.974584
Reading from 27299: heap size 162 MB, throughput 0.996862
Reading from 27299: heap size 167 MB, throughput 0.997184
Reading from 27298: heap size 1179 MB, throughput 0.97321
Reading from 27299: heap size 171 MB, throughput 0.99063
Reading from 27299: heap size 164 MB, throughput 0.970567
Reading from 27299: heap size 173 MB, throughput 0.965936
Numeric result:
Recommendation: 2 clients, utility 1.70194:
    h1: 141.546 MB (U(h) = 0.866674*h^0.0261003)
    h2: 3527.45 MB (U(h) = 0.00849662*h^0.650522)
Recommendation: 2 clients, utility 1.70194:
    h1: 141.529 MB (U(h) = 0.866674*h^0.0261003)
    h2: 3527.47 MB (U(h) = 0.00849662*h^0.650522)
Reading from 27298: heap size 1185 MB, throughput 0.971869
Reading from 27299: heap size 167 MB, throughput 0.994977
Reading from 27299: heap size 158 MB, throughput 0.989391
Reading from 27298: heap size 1185 MB, throughput 0.969947
Reading from 27299: heap size 151 MB, throughput 0.993364
Reading from 27299: heap size 145 MB, throughput 0.995846
Reading from 27298: heap size 1186 MB, throughput 0.966358
Reading from 27299: heap size 143 MB, throughput 0.996907
Reading from 27299: heap size 134 MB, throughput 0.997682
Reading from 27299: heap size 143 MB, throughput 0.997928
Reading from 27298: heap size 1190 MB, throughput 0.965436
Reading from 27299: heap size 134 MB, throughput 0.998008
Reading from 27299: heap size 142 MB, throughput 0.998235
Reading from 27298: heap size 1193 MB, throughput 0.962828
Reading from 27299: heap size 142 MB, throughput 0.998291
Reading from 27299: heap size 150 MB, throughput 0.9984
Numeric result:
Recommendation: 2 clients, utility 1.80316:
    h1: 136.806 MB (U(h) = 0.865369*h^0.0266129)
    h2: 3532.19 MB (U(h) = 0.00666902*h^0.687118)
Recommendation: 2 clients, utility 1.80316:
    h1: 136.806 MB (U(h) = 0.865369*h^0.0266129)
    h2: 3532.19 MB (U(h) = 0.00666902*h^0.687118)
Reading from 27298: heap size 1197 MB, throughput 0.960946
Reading from 27299: heap size 140 MB, throughput 0.998564
Reading from 27299: heap size 138 MB, throughput 0.998442
Reading from 27299: heap size 130 MB, throughput 0.998473
Reading from 27298: heap size 1203 MB, throughput 0.9583
Reading from 27299: heap size 136 MB, throughput 0.998325
Reading from 27299: heap size 136 MB, throughput 0.998338
Reading from 27298: heap size 1210 MB, throughput 0.956242
Reading from 27299: heap size 143 MB, throughput 0.998201
Reading from 27299: heap size 134 MB, throughput 0.997954
Reading from 27299: heap size 140 MB, throughput 0.997979
Reading from 27298: heap size 1214 MB, throughput 0.951241
Reading from 27299: heap size 133 MB, throughput 0.996337
Reading from 27299: heap size 141 MB, throughput 0.987274
Reading from 27299: heap size 136 MB, throughput 0.987939
Reading from 27299: heap size 144 MB, throughput 0.99044
Reading from 27298: heap size 1221 MB, throughput 0.956544
Reading from 27299: heap size 137 MB, throughput 0.989798
Reading from 27299: heap size 133 MB, throughput 0.994186
Numeric result:
Recommendation: 2 clients, utility 1.80674:
    h1: 139.158 MB (U(h) = 0.864553*h^0.0269652)
    h2: 3529.84 MB (U(h) = 0.00685035*h^0.68398)
Recommendation: 2 clients, utility 1.80674:
    h1: 139.16 MB (U(h) = 0.864553*h^0.0269652)
    h2: 3529.84 MB (U(h) = 0.00685035*h^0.68398)
Reading from 27299: heap size 139 MB, throughput 0.995628
Reading from 27298: heap size 1223 MB, throughput 0.957353
Reading from 27299: heap size 145 MB, throughput 0.996354
Reading from 27299: heap size 139 MB, throughput 0.996616
Reading from 27298: heap size 1229 MB, throughput 0.959348
Reading from 27299: heap size 134 MB, throughput 0.996626
Reading from 27299: heap size 140 MB, throughput 0.99673
Reading from 27299: heap size 135 MB, throughput 0.996883
Reading from 27298: heap size 1230 MB, throughput 0.95782
Reading from 27299: heap size 140 MB, throughput 0.996992
Reading from 27299: heap size 135 MB, throughput 0.996842
Reading from 27299: heap size 141 MB, throughput 0.996425
Reading from 27298: heap size 1236 MB, throughput 0.95798
Reading from 27299: heap size 136 MB, throughput 0.986021
Reading from 27299: heap size 140 MB, throughput 0.98169
Reading from 27298: heap size 1237 MB, throughput 0.957236
Reading from 27299: heap size 135 MB, throughput 0.982808
Numeric result:
Recommendation: 2 clients, utility 2.07797:
    h1: 121.431 MB (U(h) = 0.864647*h^0.0269223)
    h2: 3547.57 MB (U(h) = 0.00340917*h^0.786505)
Recommendation: 2 clients, utility 2.07797:
    h1: 121.434 MB (U(h) = 0.864647*h^0.0269223)
    h2: 3547.57 MB (U(h) = 0.00340917*h^0.786505)
Reading from 27299: heap size 143 MB, throughput 0.990137
Reading from 27299: heap size 133 MB, throughput 0.993944
Reading from 27298: heap size 1243 MB, throughput 0.960111
Reading from 27299: heap size 128 MB, throughput 0.996075
Reading from 27299: heap size 126 MB, throughput 0.996686
Reading from 27299: heap size 118 MB, throughput 0.996405
Reading from 27299: heap size 125 MB, throughput 0.99461
Reading from 27299: heap size 120 MB, throughput 0.992187
Reading from 27299: heap size 128 MB, throughput 0.968064
Reading from 27298: heap size 1243 MB, throughput 0.961484
Reading from 27299: heap size 123 MB, throughput 0.982444
Reading from 27299: heap size 119 MB, throughput 0.990569
Reading from 27299: heap size 127 MB, throughput 0.993832
Reading from 27298: heap size 1248 MB, throughput 0.96025
Reading from 27299: heap size 120 MB, throughput 0.995907
Reading from 27299: heap size 123 MB, throughput 0.996109
Reading from 27299: heap size 119 MB, throughput 0.996241
Reading from 27299: heap size 121 MB, throughput 0.995685
Reading from 27298: heap size 1249 MB, throughput 0.958278
Reading from 27299: heap size 123 MB, throughput 0.995563
Reading from 27299: heap size 117 MB, throughput 0.995976
Numeric result:
Recommendation: 2 clients, utility 2.26232:
    h1: 113.133 MB (U(h) = 0.864789*h^0.0270585)
    h2: 3555.87 MB (U(h) = 0.00219844*h^0.850467)
Recommendation: 2 clients, utility 2.26232:
    h1: 113.134 MB (U(h) = 0.864789*h^0.0270585)
    h2: 3555.87 MB (U(h) = 0.00219844*h^0.850467)
Reading from 27299: heap size 122 MB, throughput 0.995916
Reading from 27298: heap size 1254 MB, throughput 0.959807
Reading from 27299: heap size 118 MB, throughput 0.996064
Reading from 27299: heap size 114 MB, throughput 0.988723
Reading from 27299: heap size 110 MB, throughput 0.979351
Reading from 27299: heap size 114 MB, throughput 0.975409
Reading from 27298: heap size 1254 MB, throughput 0.959733
Reading from 27299: heap size 110 MB, throughput 0.977353
Reading from 27299: heap size 116 MB, throughput 0.9867
Reading from 27299: heap size 108 MB, throughput 0.992077
Reading from 27299: heap size 114 MB, throughput 0.994854
Reading from 27298: heap size 1260 MB, throughput 0.960714
Reading from 27299: heap size 107 MB, throughput 0.996289
Reading from 27299: heap size 112 MB, throughput 0.996924
Reading from 27299: heap size 114 MB, throughput 0.997066
Reading from 27299: heap size 107 MB, throughput 0.997305
Reading from 27299: heap size 111 MB, throughput 0.997208
Reading from 27299: heap size 110 MB, throughput 0.997615
Reading from 27299: heap size 114 MB, throughput 0.995199
Numeric result:
Recommendation: 2 clients, utility 2.3737:
    h1: 108.928 MB (U(h) = 0.865473*h^0.0271323)
    h2: 3560.07 MB (U(h) = 0.00171183*h^0.886802)
Recommendation: 2 clients, utility 2.3737:
    h1: 108.923 MB (U(h) = 0.865473*h^0.0271323)
    h2: 3560.08 MB (U(h) = 0.00171183*h^0.886802)
Reading from 27299: heap size 109 MB, throughput 0.994103
Reading from 27299: heap size 105 MB, throughput 0.99347
Reading from 27298: heap size 1260 MB, throughput 0.936861
Reading from 27299: heap size 110 MB, throughput 0.99121
Reading from 27299: heap size 105 MB, throughput 0.994526
Reading from 27299: heap size 112 MB, throughput 0.995575
Reading from 27299: heap size 106 MB, throughput 0.996039
Reading from 27299: heap size 112 MB, throughput 0.995919
Reading from 27298: heap size 1381 MB, throughput 0.957952
Reading from 27299: heap size 106 MB, throughput 0.996214
Reading from 27299: heap size 113 MB, throughput 0.996338
Reading from 27299: heap size 107 MB, throughput 0.996471
Reading from 27299: heap size 112 MB, throughput 0.996793
Reading from 27298: heap size 1381 MB, throughput 0.97158
Reading from 27299: heap size 107 MB, throughput 0.996781
Reading from 27299: heap size 113 MB, throughput 0.996773
Reading from 27299: heap size 108 MB, throughput 0.996437
Reading from 27299: heap size 112 MB, throughput 0.996479
Reading from 27298: heap size 1393 MB, throughput 0.97717
Reading from 27299: heap size 107 MB, throughput 0.996577
Reading from 27299: heap size 113 MB, throughput 0.975156
Numeric result:
Recommendation: 2 clients, utility 2.47541:
    h1: 104.835 MB (U(h) = 0.865991*h^0.0271063)
    h2: 3564.16 MB (U(h) = 0.00134287*h^0.921557)
Recommendation: 2 clients, utility 2.47541:
    h1: 104.835 MB (U(h) = 0.865991*h^0.0271063)
    h2: 3564.17 MB (U(h) = 0.00134287*h^0.921557)
Reading from 27299: heap size 107 MB, throughput 0.974136
Reading from 27299: heap size 103 MB, throughput 0.984475
Reading from 27298: heap size 1398 MB, throughput 0.979478
Reading from 27299: heap size 109 MB, throughput 0.990963
Reading from 27299: heap size 104 MB, throughput 0.994049
Reading from 27299: heap size 109 MB, throughput 0.995634
Reading from 27299: heap size 103 MB, throughput 0.996136
Reading from 27299: heap size 107 MB, throughput 0.996604
Reading from 27298: heap size 1401 MB, throughput 0.977348
Reading from 27299: heap size 101 MB, throughput 0.996751
Reading from 27299: heap size 105 MB, throughput 0.997057
Reading from 27299: heap size 105 MB, throughput 0.997274
Reading from 27299: heap size 107 MB, throughput 0.997628
Reading from 27298: heap size 1403 MB, throughput 0.977639
Reading from 27299: heap size 103 MB, throughput 0.997312
Reading from 27299: heap size 107 MB, throughput 0.983868
Reading from 27299: heap size 103 MB, throughput 0.887335
Reading from 27299: heap size 104 MB, throughput 0.884658
Reading from 27299: heap size 107 MB, throughput 0.929662
Reading from 27299: heap size 103 MB, throughput 0.97399
Reading from 27299: heap size 110 MB, throughput 0.988575
Reading from 27299: heap size 106 MB, throughput 0.991226
Reading from 27298: heap size 1393 MB, throughput 0.977211
Numeric result:
Recommendation: 2 clients, utility 2.35648:
    h1: 109.311 MB (U(h) = 0.864605*h^0.0272088)
    h2: 3559.69 MB (U(h) = 0.00171105*h^0.886046)
Recommendation: 2 clients, utility 2.35648:
    h1: 109.311 MB (U(h) = 0.864605*h^0.0272088)
    h2: 3559.69 MB (U(h) = 0.00171105*h^0.886046)
Reading from 27299: heap size 103 MB, throughput 0.993917
Reading from 27299: heap size 111 MB, throughput 0.994865
Reading from 27299: heap size 106 MB, throughput 0.995987
Reading from 27299: heap size 108 MB, throughput 0.996052
Reading from 27298: heap size 1315 MB, throughput 0.975831
Reading from 27299: heap size 109 MB, throughput 0.99622
Reading from 27299: heap size 105 MB, throughput 0.99615
Reading from 27299: heap size 110 MB, throughput 0.996398
Reading from 27299: heap size 107 MB, throughput 0.991649
Reading from 27299: heap size 112 MB, throughput 0.988849
Reading from 27298: heap size 1387 MB, throughput 0.975228
Reading from 27299: heap size 107 MB, throughput 0.987104
Reading from 27299: heap size 112 MB, throughput 0.973009
Reading from 27299: heap size 106 MB, throughput 0.97448
Reading from 27299: heap size 112 MB, throughput 0.985386
Reading from 27299: heap size 106 MB, throughput 0.991143
Reading from 27299: heap size 111 MB, throughput 0.994515
Reading from 27299: heap size 105 MB, throughput 0.995897
Reading from 27299: heap size 110 MB, throughput 0.996776
Numeric result:
Recommendation: 2 clients, utility 2.2527:
    h1: 113.608 MB (U(h) = 0.865126*h^0.0271564)
    h2: 3555.39 MB (U(h) = 0.00219827*h^0.849851)
Recommendation: 2 clients, utility 2.2527:
    h1: 113.61 MB (U(h) = 0.865126*h^0.0271564)
    h2: 3555.39 MB (U(h) = 0.00219827*h^0.849851)
Reading from 27299: heap size 105 MB, throughput 0.997045
Reading from 27299: heap size 109 MB, throughput 0.996878
Reading from 27299: heap size 111 MB, throughput 0.996802
Reading from 27299: heap size 111 MB, throughput 0.996897
Reading from 27299: heap size 115 MB, throughput 0.997486
Reading from 27299: heap size 109 MB, throughput 0.996357
Reading from 27299: heap size 113 MB, throughput 0.993533
Reading from 27299: heap size 113 MB, throughput 0.987834
Reading from 27299: heap size 121 MB, throughput 0.985761
Reading from 27299: heap size 117 MB, throughput 0.942286
Reading from 27299: heap size 113 MB, throughput 0.96957
Reading from 27299: heap size 120 MB, throughput 0.985363
Reading from 27299: heap size 113 MB, throughput 0.991507
Reading from 27299: heap size 122 MB, throughput 0.994534
Reading from 27299: heap size 115 MB, throughput 0.995958
Reading from 27299: heap size 111 MB, throughput 0.996586
Reading from 27299: heap size 119 MB, throughput 0.996858
Reading from 27299: heap size 113 MB, throughput 0.994071
Numeric result:
Recommendation: 2 clients, utility 2.25227:
    h1: 113.351 MB (U(h) = 0.865224*h^0.0270927)
    h2: 3555.65 MB (U(h) = 0.00219827*h^0.849851)
Recommendation: 2 clients, utility 2.25227:
    h1: 113.352 MB (U(h) = 0.865224*h^0.0270927)
    h2: 3555.65 MB (U(h) = 0.00219827*h^0.849851)
Reading from 27299: heap size 117 MB, throughput 0.9949
Reading from 27299: heap size 111 MB, throughput 0.996017
Reading from 27298: heap size 1392 MB, throughput 0.92244
Reading from 27299: heap size 115 MB, throughput 0.993231
Reading from 27299: heap size 109 MB, throughput 0.993534
Reading from 27299: heap size 113 MB, throughput 0.992289
Reading from 27299: heap size 108 MB, throughput 0.992918
Reading from 27299: heap size 111 MB, throughput 0.995066
Reading from 27299: heap size 111 MB, throughput 0.996249
Reading from 27299: heap size 116 MB, throughput 0.996715
Reading from 27299: heap size 110 MB, throughput 0.997004
Reading from 27299: heap size 114 MB, throughput 0.997377
Reading from 27299: heap size 109 MB, throughput 0.99732
Reading from 27299: heap size 112 MB, throughput 0.997575
Reading from 27299: heap size 112 MB, throughput 0.997279
Reading from 27299: heap size 116 MB, throughput 0.997453
Reading from 27299: heap size 111 MB, throughput 0.997638
Reading from 27299: heap size 115 MB, throughput 0.995358
Numeric result:
Recommendation: 2 clients, utility 1.97027:
    h1: 129.819 MB (U(h) = 0.865337*h^0.027158)
    h2: 3539.18 MB (U(h) = 0.00470419*h^0.740359)
Recommendation: 2 clients, utility 1.97027:
    h1: 129.825 MB (U(h) = 0.865337*h^0.027158)
    h2: 3539.18 MB (U(h) = 0.00470419*h^0.740359)
Reading from 27299: heap size 108 MB, throughput 0.9674
Reading from 27299: heap size 109 MB, throughput 0.966728
Reading from 27299: heap size 111 MB, throughput 0.977958
Reading from 27299: heap size 122 MB, throughput 0.991714
Reading from 27299: heap size 122 MB, throughput 0.994512
Reading from 27298: heap size 1507 MB, throughput 0.988738
Reading from 27299: heap size 131 MB, throughput 0.996094
Reading from 27299: heap size 125 MB, throughput 0.996652
Reading from 27299: heap size 129 MB, throughput 0.997028
Reading from 27299: heap size 130 MB, throughput 0.99678
Reading from 27299: heap size 123 MB, throughput 0.996408
Reading from 27299: heap size 118 MB, throughput 0.996641
Reading from 27299: heap size 114 MB, throughput 0.996601
Reading from 27299: heap size 109 MB, throughput 0.996569
Reading from 27299: heap size 105 MB, throughput 0.99638
Reading from 27298: heap size 1552 MB, throughput 0.988486
Reading from 27299: heap size 101 MB, throughput 0.996301
Reading from 27298: heap size 1557 MB, throughput 0.981677
Reading from 27299: heap size 98 MB, throughput 0.989251
Reading from 27298: heap size 1560 MB, throughput 0.962219
Reading from 27298: heap size 1543 MB, throughput 0.936641
Reading from 27299: heap size 94 MB, throughput 0.985481
Numeric result:
Recommendation: 2 clients, utility 1.9333:
    h1: 131.268 MB (U(h) = 0.865067*h^0.0271883)
    h2: 3537.73 MB (U(h) = 0.00491372*h^0.732728)
Recommendation: 2 clients, utility 1.9333:
    h1: 131.269 MB (U(h) = 0.865067*h^0.0271883)
    h2: 3537.73 MB (U(h) = 0.00491372*h^0.732728)
Reading from 27298: heap size 1571 MB, throughput 0.895971
Reading from 27298: heap size 1596 MB, throughput 0.852034
Reading from 27299: heap size 90 MB, throughput 0.985242
Reading from 27298: heap size 1610 MB, throughput 0.802099
Reading from 27299: heap size 87 MB, throughput 0.990322
Reading from 27298: heap size 1640 MB, throughput 0.777336
Reading from 27298: heap size 1647 MB, throughput 0.788794
Reading from 27299: heap size 84 MB, throughput 0.993523
Reading from 27299: heap size 83 MB, throughput 0.994995
Reading from 27299: heap size 78 MB, throughput 0.995785
Reading from 27299: heap size 78 MB, throughput 0.995903
Reading from 27299: heap size 73 MB, throughput 0.996214
Reading from 27299: heap size 73 MB, throughput 0.995808
Reading from 27298: heap size 1664 MB, throughput 0.940096
Reading from 27299: heap size 69 MB, throughput 0.996529
Reading from 27299: heap size 69 MB, throughput 0.996228
Reading from 27299: heap size 65 MB, throughput 0.996341
Reading from 27299: heap size 64 MB, throughput 0.995281
Reading from 27299: heap size 61 MB, throughput 0.995087
Reading from 27299: heap size 60 MB, throughput 0.995104
Reading from 27299: heap size 57 MB, throughput 0.995045
Reading from 27299: heap size 62 MB, throughput 0.995258
Reading from 27299: heap size 64 MB, throughput 0.995398
Reading from 27298: heap size 1673 MB, throughput 0.959299
Reading from 27299: heap size 69 MB, throughput 0.979591
Reading from 27299: heap size 74 MB, throughput 0.979244
Reading from 27299: heap size 81 MB, throughput 0.914202
Reading from 27299: heap size 88 MB, throughput 0.927403
Reading from 27299: heap size 99 MB, throughput 0.957436
Reading from 27299: heap size 110 MB, throughput 0.984623
Reading from 27299: heap size 111 MB, throughput 0.991351
Reading from 27299: heap size 121 MB, throughput 0.989716
Reading from 27298: heap size 1670 MB, throughput 0.967436
Reading from 27299: heap size 121 MB, throughput 0.992913
Numeric result:
Recommendation: 2 clients, utility 1.56234:
    h1: 152.833 MB (U(h) = 0.876594*h^0.024614)
    h2: 3516.17 MB (U(h) = 0.0154556*h^0.566297)
Recommendation: 2 clients, utility 1.56234:
    h1: 152.83 MB (U(h) = 0.876594*h^0.024614)
    h2: 3516.17 MB (U(h) = 0.0154556*h^0.566297)
Reading from 27299: heap size 132 MB, throughput 0.996027
Reading from 27299: heap size 133 MB, throughput 0.996731
Reading from 27299: heap size 125 MB, throughput 0.997328
Reading from 27298: heap size 1683 MB, throughput 0.970336
Reading from 27299: heap size 123 MB, throughput 0.997412
Reading from 27299: heap size 115 MB, throughput 0.997776
Reading from 27299: heap size 114 MB, throughput 0.997882
Reading from 27299: heap size 107 MB, throughput 0.997653
Reading from 27298: heap size 1673 MB, throughput 0.970139
Reading from 27299: heap size 106 MB, throughput 0.997861
Reading from 27299: heap size 99 MB, throughput 0.997828
Reading from 27299: heap size 98 MB, throughput 0.997304
Reading from 27299: heap size 92 MB, throughput 0.997457
Reading from 27299: heap size 92 MB, throughput 0.997237
Reading from 27299: heap size 86 MB, throughput 0.997317
Reading from 27299: heap size 85 MB, throughput 0.996864
Reading from 27298: heap size 1686 MB, throughput 0.969838
Reading from 27299: heap size 81 MB, throughput 0.997028
Reading from 27299: heap size 80 MB, throughput 0.996561
Reading from 27299: heap size 76 MB, throughput 0.996569
Reading from 27299: heap size 75 MB, throughput 0.99625
Numeric result:
Recommendation: 2 clients, utility 1.45597:
    h1: 327.184 MB (U(h) = 0.7892*h^0.0469335)
    h2: 3341.82 MB (U(h) = 0.0287515*h^0.479366)
Recommendation: 2 clients, utility 1.45597:
    h1: 327.188 MB (U(h) = 0.7892*h^0.0469335)
    h2: 3341.81 MB (U(h) = 0.0287515*h^0.479366)
Reading from 27299: heap size 71 MB, throughput 0.996136
Reading from 27299: heap size 71 MB, throughput 0.996225
Reading from 27299: heap size 67 MB, throughput 0.996233
Reading from 27299: heap size 67 MB, throughput 0.99599
Reading from 27298: heap size 1696 MB, throughput 0.975552
Reading from 27299: heap size 63 MB, throughput 0.995634
Reading from 27299: heap size 63 MB, throughput 0.995491
Reading from 27299: heap size 60 MB, throughput 0.995583
Reading from 27299: heap size 60 MB, throughput 0.995375
Reading from 27299: heap size 57 MB, throughput 0.995464
Reading from 27299: heap size 57 MB, throughput 0.995256
Reading from 27299: heap size 54 MB, throughput 0.994643
Reading from 27299: heap size 58 MB, throughput 0.973849
Reading from 27299: heap size 63 MB, throughput 0.974992
Reading from 27299: heap size 70 MB, throughput 0.943062
Reading from 27299: heap size 77 MB, throughput 0.951316
Reading from 27299: heap size 87 MB, throughput 0.949136
Reading from 27299: heap size 97 MB, throughput 0.970812
Reading from 27299: heap size 109 MB, throughput 0.990895
Reading from 27298: heap size 1698 MB, throughput 0.977988
Reading from 27299: heap size 113 MB, throughput 0.990308
Reading from 27299: heap size 115 MB, throughput 0.989085
Reading from 27299: heap size 125 MB, throughput 0.981412
Reading from 27299: heap size 126 MB, throughput 0.982682
Reading from 27299: heap size 135 MB, throughput 0.99058
Reading from 27298: heap size 1702 MB, throughput 0.978339
Reading from 27299: heap size 136 MB, throughput 0.994418
Reading from 27299: heap size 128 MB, throughput 0.99605
Numeric result:
Recommendation: 2 clients, utility 1.25798:
    h1: 77.1007 MB (U(h) = 0.955568*h^0.0074639)
    h2: 3591.9 MB (U(h) = 0.0739702*h^0.347724)
Recommendation: 2 clients, utility 1.25798:
    h1: 77.1001 MB (U(h) = 0.955568*h^0.0074639)
    h2: 3591.9 MB (U(h) = 0.0739702*h^0.347724)
Reading from 27299: heap size 126 MB, throughput 0.996857
Reading from 27299: heap size 116 MB, throughput 0.997375
Reading from 27299: heap size 113 MB, throughput 0.99736
Reading from 27298: heap size 1708 MB, throughput 0.977439
Reading from 27299: heap size 105 MB, throughput 0.997389
Reading from 27299: heap size 103 MB, throughput 0.997482
Reading from 27299: heap size 96 MB, throughput 0.997611
Reading from 27299: heap size 95 MB, throughput 0.99753
Reading from 27299: heap size 89 MB, throughput 0.997515
Reading from 27299: heap size 88 MB, throughput 0.997301
Reading from 27298: heap size 1697 MB, throughput 0.976467
Reading from 27299: heap size 83 MB, throughput 0.997203
Reading from 27299: heap size 82 MB, throughput 0.997093
Reading from 27299: heap size 78 MB, throughput 0.996667
Reading from 27299: heap size 78 MB, throughput 0.996498
Reading from 27299: heap size 74 MB, throughput 0.996494
Reading from 27299: heap size 73 MB, throughput 0.996271
Reading from 27299: heap size 70 MB, throughput 0.996308
Reading from 27299: heap size 69 MB, throughput 0.996236
Reading from 27299: heap size 66 MB, throughput 0.995923
Reading from 27299: heap size 65 MB, throughput 0.99543
Reading from 27298: heap size 1706 MB, throughput 0.975436
Reading from 27299: heap size 62 MB, throughput 0.995671
Reading from 27299: heap size 62 MB, throughput 0.995487
Reading from 27299: heap size 59 MB, throughput 0.995631
Reading from 27299: heap size 59 MB, throughput 0.995428
Reading from 27299: heap size 56 MB, throughput 0.994248
Reading from 27299: heap size 61 MB, throughput 0.972186
Reading from 27299: heap size 66 MB, throughput 0.972982
Reading from 27299: heap size 74 MB, throughput 0.954156
Numeric result:
Recommendation: 2 clients, utility 1.2583:
    h1: 50.5128 MB (U(h) = 0.968459*h^0.00482776)
    h2: 3618.49 MB (U(h) = 0.0749348*h^0.345873)
Recommendation: 2 clients, utility 1.2583:
    h1: 50.5076 MB (U(h) = 0.968459*h^0.00482776)
    h2: 3618.49 MB (U(h) = 0.0749348*h^0.345873)
Reading from 27299: heap size 82 MB, throughput 0.966078
Reading from 27299: heap size 79 MB, throughput 0.994324
Reading from 27299: heap size 76 MB, throughput 0.976834
Reading from 27299: heap size 73 MB, throughput 0.990736
Reading from 27299: heap size 69 MB, throughput 0.993915
Reading from 27299: heap size 69 MB, throughput 0.994728
Reading from 27299: heap size 65 MB, throughput 0.995156
Reading from 27298: heap size 1697 MB, throughput 0.974774
Reading from 27299: heap size 65 MB, throughput 0.98838
Reading from 27299: heap size 61 MB, throughput 0.991572
Reading from 27299: heap size 62 MB, throughput 0.992785
Reading from 27299: heap size 58 MB, throughput 0.994161
Reading from 27299: heap size 59 MB, throughput 0.994065
Reading from 27299: heap size 56 MB, throughput 0.994686
Reading from 27299: heap size 57 MB, throughput 0.994416
Reading from 27299: heap size 54 MB, throughput 0.994833
Reading from 27299: heap size 55 MB, throughput 0.99426
Reading from 27299: heap size 52 MB, throughput 0.994402
Reading from 27299: heap size 52 MB, throughput 0.993774
Reading from 27299: heap size 50 MB, throughput 0.99359
Reading from 27299: heap size 50 MB, throughput 0.993061
Reading from 27299: heap size 52 MB, throughput 0.993884
Reading from 27299: heap size 53 MB, throughput 0.993648
Reading from 27298: heap size 1702 MB, throughput 0.970682
Reading from 27299: heap size 50 MB, throughput 0.994004
Reading from 27299: heap size 50 MB, throughput 0.993908
Reading from 27299: heap size 48 MB, throughput 0.993852
Reading from 27299: heap size 53 MB, throughput 0.993963
Reading from 27299: heap size 51 MB, throughput 0.993767
Reading from 27299: heap size 55 MB, throughput 0.994066
Reading from 27299: heap size 53 MB, throughput 0.994175
Reading from 27299: heap size 53 MB, throughput 0.994183
Reading from 27299: heap size 51 MB, throughput 0.993957
Reading from 27299: heap size 51 MB, throughput 0.994158
Reading from 27299: heap size 49 MB, throughput 0.993847
Reading from 27299: heap size 49 MB, throughput 0.993223
Reading from 27299: heap size 52 MB, throughput 0.99388
Reading from 27299: heap size 51 MB, throughput 0.993456
Reading from 27299: heap size 50 MB, throughput 0.993676
Reading from 27299: heap size 49 MB, throughput 0.993524
Reading from 27299: heap size 48 MB, throughput 0.993669
Reading from 27298: heap size 1710 MB, throughput 0.970166
Reading from 27299: heap size 51 MB, throughput 0.99435
Reading from 27299: heap size 50 MB, throughput 0.994233
Reading from 27299: heap size 49 MB, throughput 0.994152
Reading from 27299: heap size 48 MB, throughput 0.993813
Numeric result:
Recommendation: 2 clients, utility 1.26251:
    h1: 14.5611 MB (U(h) = 0.984106*h^0.00137644)
    h2: 3654.44 MB (U(h) = 0.075121*h^0.345465)
Recommendation: 2 clients, utility 1.26251:
    h1: 14.5604 MB (U(h) = 0.984106*h^0.00137644)
    h2: 3654.44 MB (U(h) = 0.075121*h^0.345465)
Reading from 27299: heap size 47 MB, throughput 0.993794
Reading from 27299: heap size 45 MB, throughput 0.993528
Reading from 27299: heap size 43 MB, throughput 0.992992
Reading from 27299: heap size 41 MB, throughput 0.992345
Reading from 27299: heap size 39 MB, throughput 0.992026
Reading from 27299: heap size 38 MB, throughput 0.991353
Reading from 27299: heap size 37 MB, throughput 0.990719
Reading from 27299: heap size 36 MB, throughput 0.990483
Reading from 27299: heap size 35 MB, throughput 0.98999
Reading from 27299: heap size 35 MB, throughput 0.989465
Reading from 27299: heap size 34 MB, throughput 0.988578
Reading from 27299: heap size 34 MB, throughput 0.98859
Reading from 27299: heap size 33 MB, throughput 0.988023
Reading from 27299: heap size 33 MB, throughput 0.987511
Reading from 27299: heap size 32 MB, throughput 0.987067
Reading from 27299: heap size 32 MB, throughput 0.986765
Reading from 27299: heap size 31 MB, throughput 0.986336
Reading from 27299: heap size 31 MB, throughput 0.986375
Reading from 27299: heap size 30 MB, throughput 0.985632
Reading from 27299: heap size 30 MB, throughput 0.985837
Reading from 27299: heap size 30 MB, throughput 0.984761
Reading from 27299: heap size 30 MB, throughput 0.984371
Reading from 27299: heap size 30 MB, throughput 0.984729
Reading from 27299: heap size 30 MB, throughput 0.984456
Reading from 27299: heap size 30 MB, throughput 0.984508
Reading from 27299: heap size 30 MB, throughput 0.984716
Reading from 27299: heap size 30 MB, throughput 0.984758
Reading from 27298: heap size 1712 MB, throughput 0.96746
Reading from 27299: heap size 30 MB, throughput 0.984652
Reading from 27299: heap size 30 MB, throughput 0.984964
Reading from 27299: heap size 30 MB, throughput 0.985276
Reading from 27299: heap size 30 MB, throughput 0.984628
Reading from 27299: heap size 30 MB, throughput 0.984563
Reading from 27299: heap size 30 MB, throughput 0.98458
Reading from 27299: heap size 30 MB, throughput 0.984678
Reading from 27299: heap size 30 MB, throughput 0.984214
Reading from 27299: heap size 30 MB, throughput 0.984517
Reading from 27299: heap size 30 MB, throughput 0.984278
Reading from 27299: heap size 30 MB, throughput 0.983963
Reading from 27299: heap size 30 MB, throughput 0.98475
Reading from 27299: heap size 30 MB, throughput 0.984847
Reading from 27299: heap size 30 MB, throughput 0.984472
Reading from 27299: heap size 30 MB, throughput 0.984834
Reading from 27299: heap size 30 MB, throughput 0.984753
Reading from 27299: heap size 30 MB, throughput 0.984435
Reading from 27299: heap size 30 MB, throughput 0.984282
Reading from 27299: heap size 30 MB, throughput 0.984896
Reading from 27299: heap size 30 MB, throughput 0.984403
Reading from 27299: heap size 30 MB, throughput 0.984587
Reading from 27299: heap size 30 MB, throughput 0.985169
Reading from 27299: heap size 30 MB, throughput 0.984882
Reading from 27299: heap size 30 MB, throughput 0.984835
Reading from 27299: heap size 30 MB, throughput 0.985021
Reading from 27299: heap size 30 MB, throughput 0.984373
Reading from 27299: heap size 30 MB, throughput 0.984419
Reading from 27299: heap size 30 MB, throughput 0.98455
Reading from 27299: heap size 30 MB, throughput 0.984799
Reading from 27299: heap size 30 MB, throughput 0.984893
Reading from 27299: heap size 30 MB, throughput 0.98275
Reading from 27299: heap size 30 MB, throughput 0.983963
Reading from 27299: heap size 30 MB, throughput 0.983593
Reading from 27299: heap size 30 MB, throughput 0.984199
Reading from 27299: heap size 30 MB, throughput 0.984702
Reading from 27299: heap size 30 MB, throughput 0.984631
Reading from 27299: heap size 30 MB, throughput 0.984529
Reading from 27299: heap size 30 MB, throughput 0.984921
Reading from 27299: heap size 30 MB, throughput 0.985013
Reading from 27299: heap size 30 MB, throughput 0.982193
Reading from 27299: heap size 30 MB, throughput 0.954924
Reading from 27299: heap size 30 MB, throughput 0.933477
Reading from 27299: heap size 30 MB, throughput 0.924769
Reading from 27299: heap size 30 MB, throughput 0.926693
Reading from 27299: heap size 30 MB, throughput 0.918889
Reading from 27299: heap size 31 MB, throughput 0.922643
Reading from 27299: heap size 31 MB, throughput 0.927687
Reading from 27299: heap size 30 MB, throughput 0.919474
Reading from 27299: heap size 31 MB, throughput 0.923784
Reading from 27299: heap size 30 MB, throughput 0.925634
Reading from 27299: heap size 30 MB, throughput 0.915912
Reading from 27299: heap size 31 MB, throughput 0.914347
Reading from 27299: heap size 31 MB, throughput 0.940423
Reading from 27299: heap size 30 MB, throughput 0.931656
Reading from 27299: heap size 30 MB, throughput 0.935199
Reading from 27298: heap size 1724 MB, throughput 0.960766
Reading from 27299: heap size 31 MB, throughput 0.934966
Reading from 27299: heap size 31 MB, throughput 0.942472
Reading from 27299: heap size 30 MB, throughput 0.931427
Reading from 27299: heap size 31 MB, throughput 0.923835
Reading from 27299: heap size 30 MB, throughput 0.919976
Reading from 27299: heap size 30 MB, throughput 0.928584
Reading from 27299: heap size 31 MB, throughput 0.927861
Reading from 27299: heap size 30 MB, throughput 0.931056
Reading from 27299: heap size 31 MB, throughput 0.932302
Reading from 27299: heap size 30 MB, throughput 0.933891
Reading from 27299: heap size 31 MB, throughput 0.934883
Reading from 27299: heap size 30 MB, throughput 0.924841
Reading from 27299: heap size 31 MB, throughput 0.94673
Reading from 27299: heap size 30 MB, throughput 0.972717
Reading from 27299: heap size 31 MB, throughput 0.979192
Reading from 27299: heap size 30 MB, throughput 0.981543
Reading from 27299: heap size 31 MB, throughput 0.983555
Reading from 27299: heap size 30 MB, throughput 0.984708
Reading from 27299: heap size 31 MB, throughput 0.982941
Reading from 27299: heap size 30 MB, throughput 0.984134
Reading from 27299: heap size 31 MB, throughput 0.984523
Reading from 27299: heap size 30 MB, throughput 0.984395
Reading from 27299: heap size 31 MB, throughput 0.984218
Reading from 27299: heap size 30 MB, throughput 0.984314
Reading from 27299: heap size 31 MB, throughput 0.983738
Reading from 27299: heap size 30 MB, throughput 0.984424
Reading from 27299: heap size 31 MB, throughput 0.983901
Reading from 27299: heap size 30 MB, throughput 0.984616
Reading from 27299: heap size 31 MB, throughput 0.983964
Reading from 27299: heap size 30 MB, throughput 0.984933
Reading from 27299: heap size 30 MB, throughput 0.985098
Reading from 27299: heap size 30 MB, throughput 0.983921
Reading from 27299: heap size 30 MB, throughput 0.98485
Reading from 27299: heap size 30 MB, throughput 0.984909
Reading from 27299: heap size 30 MB, throughput 0.98474
Reading from 27299: heap size 30 MB, throughput 0.984782
Reading from 27299: heap size 30 MB, throughput 0.984466
Reading from 27299: heap size 30 MB, throughput 0.984583
Reading from 27299: heap size 30 MB, throughput 0.984262
Reading from 27299: heap size 30 MB, throughput 0.984933
Reading from 27299: heap size 30 MB, throughput 0.98503
Reading from 27299: heap size 30 MB, throughput 0.984356
Reading from 27299: heap size 30 MB, throughput 0.984646
Reading from 27299: heap size 30 MB, throughput 0.984461
Reading from 27299: heap size 30 MB, throughput 0.984303
Reading from 27299: heap size 30 MB, throughput 0.984984
Reading from 27299: heap size 30 MB, throughput 0.984605
Reading from 27299: heap size 30 MB, throughput 0.984932
Reading from 27299: heap size 30 MB, throughput 0.984635
Numeric result:
Recommendation: 2 clients, utility 1.28088:
    h1: 12 MB (U(h) = 0.986324*h^0.001)
    h2: 3657 MB (U(h) = 0.0676165*h^0.359897)
Recommendation: 2 clients, utility 1.28088:
    h1: 12 MB (U(h) = 0.986324*h^0.001)
    h2: 3657 MB (U(h) = 0.0676165*h^0.359897)
Reading from 27299: heap size 30 MB, throughput 0.984582
Reading from 27299: heap size 30 MB, throughput 0.984078
Reading from 27299: heap size 29 MB, throughput 0.983267
Reading from 27299: heap size 29 MB, throughput 0.983294
Reading from 27299: heap size 29 MB, throughput 0.982869
Reading from 27299: heap size 29 MB, throughput 0.983349
Reading from 27298: heap size 1729 MB, throughput 0.963236
Reading from 27299: heap size 29 MB, throughput 0.983059
Reading from 27299: heap size 29 MB, throughput 0.982649
Reading from 27299: heap size 29 MB, throughput 0.982623
Reading from 27299: heap size 29 MB, throughput 0.981349
Reading from 27299: heap size 29 MB, throughput 0.98187
Reading from 27299: heap size 29 MB, throughput 0.982657
Reading from 27299: heap size 29 MB, throughput 0.98258
Reading from 27299: heap size 29 MB, throughput 0.982611
Reading from 27299: heap size 29 MB, throughput 0.982136
Reading from 27299: heap size 29 MB, throughput 0.982567
Reading from 27299: heap size 29 MB, throughput 0.981524
Reading from 27299: heap size 29 MB, throughput 0.98187
Reading from 27299: heap size 29 MB, throughput 0.982531
Reading from 27299: heap size 29 MB, throughput 0.981902
Reading from 27299: heap size 29 MB, throughput 0.981955
Reading from 27299: heap size 29 MB, throughput 0.981895
Reading from 27299: heap size 29 MB, throughput 0.98223
Reading from 27299: heap size 29 MB, throughput 0.982238
Reading from 27299: heap size 29 MB, throughput 0.98125
Reading from 27299: heap size 29 MB, throughput 0.982567
Reading from 27299: heap size 29 MB, throughput 0.982803
Reading from 27299: heap size 29 MB, throughput 0.982746
Reading from 27299: heap size 29 MB, throughput 0.982157
Reading from 27299: heap size 29 MB, throughput 0.981884
Reading from 27299: heap size 29 MB, throughput 0.982217
Reading from 27299: heap size 29 MB, throughput 0.98239
Reading from 27299: heap size 29 MB, throughput 0.983251
Reading from 27299: heap size 29 MB, throughput 0.983528
Reading from 27299: heap size 29 MB, throughput 0.983627
Reading from 27299: heap size 29 MB, throughput 0.983282
Reading from 27299: heap size 29 MB, throughput 0.982421
Reading from 27299: heap size 29 MB, throughput 0.981878
Reading from 27299: heap size 29 MB, throughput 0.982259
Reading from 27299: heap size 29 MB, throughput 0.982267
Reading from 27299: heap size 29 MB, throughput 0.982859
Reading from 27299: heap size 29 MB, throughput 0.983184
Reading from 27299: heap size 29 MB, throughput 0.982598
Reading from 27299: heap size 29 MB, throughput 0.982514
Reading from 27299: heap size 29 MB, throughput 0.982278
Reading from 27299: heap size 29 MB, throughput 0.981836
Reading from 27299: heap size 29 MB, throughput 0.983063
Reading from 27299: heap size 29 MB, throughput 0.982719
Reading from 27299: heap size 29 MB, throughput 0.98275
Reading from 27299: heap size 29 MB, throughput 0.982265
Reading from 27299: heap size 29 MB, throughput 0.982272
Reading from 27299: heap size 29 MB, throughput 0.982155
Reading from 27299: heap size 29 MB, throughput 0.98215
Reading from 27299: heap size 29 MB, throughput 0.982999
Reading from 27299: heap size 29 MB, throughput 0.98277
Reading from 27299: heap size 29 MB, throughput 0.982457
Reading from 27299: heap size 29 MB, throughput 0.982962
Reading from 27299: heap size 29 MB, throughput 0.982162
Reading from 27299: heap size 29 MB, throughput 0.979761
Reading from 27299: heap size 29 MB, throughput 0.977611
Reading from 27299: heap size 29 MB, throughput 0.978448
Reading from 27299: heap size 29 MB, throughput 0.97841
Reading from 27299: heap size 29 MB, throughput 0.969725
Reading from 27299: heap size 29 MB, throughput 0.973787
Reading from 27299: heap size 29 MB, throughput 0.976587
Reading from 27299: heap size 29 MB, throughput 0.977893
Reading from 27299: heap size 29 MB, throughput 0.979808
Reading from 27299: heap size 29 MB, throughput 0.980414
Reading from 27299: heap size 29 MB, throughput 0.982503
Reading from 27299: heap size 29 MB, throughput 0.982981
Reading from 27299: heap size 29 MB, throughput 0.983743
Reading from 27299: heap size 29 MB, throughput 0.98162
Reading from 27299: heap size 29 MB, throughput 0.980237
Reading from 27299: heap size 29 MB, throughput 0.979053
Reading from 27298: heap size 1743 MB, throughput 0.955595
Reading from 27299: heap size 29 MB, throughput 0.981409
Reading from 27299: heap size 29 MB, throughput 0.982648
Reading from 27299: heap size 29 MB, throughput 0.982234
Reading from 27299: heap size 29 MB, throughput 0.982242
Reading from 27299: heap size 29 MB, throughput 0.982362
Reading from 27299: heap size 29 MB, throughput 0.98169
Reading from 27299: heap size 29 MB, throughput 0.98129
Reading from 27299: heap size 29 MB, throughput 0.981555
Reading from 27299: heap size 29 MB, throughput 0.981692
Reading from 27299: heap size 29 MB, throughput 0.982169
Reading from 27299: heap size 29 MB, throughput 0.98157
Reading from 27299: heap size 29 MB, throughput 0.982182
Reading from 27299: heap size 29 MB, throughput 0.981827
Reading from 27299: heap size 29 MB, throughput 0.981937
Reading from 27299: heap size 29 MB, throughput 0.982615
Reading from 27299: heap size 29 MB, throughput 0.982511
Reading from 27299: heap size 29 MB, throughput 0.982659
Reading from 27299: heap size 29 MB, throughput 0.982165
Reading from 27299: heap size 29 MB, throughput 0.982007
Reading from 27299: heap size 29 MB, throughput 0.981785
Reading from 27299: heap size 29 MB, throughput 0.983337
Reading from 27299: heap size 29 MB, throughput 0.983738
Reading from 27299: heap size 29 MB, throughput 0.98348
Reading from 27299: heap size 29 MB, throughput 0.982737
Reading from 27299: heap size 29 MB, throughput 0.982518
Reading from 27299: heap size 29 MB, throughput 0.981745
Reading from 27299: heap size 29 MB, throughput 0.980614
Reading from 27299: heap size 29 MB, throughput 0.980917
Reading from 27299: heap size 29 MB, throughput 0.981756
Reading from 27299: heap size 29 MB, throughput 0.981626
Reading from 27299: heap size 29 MB, throughput 0.982119
Reading from 27299: heap size 29 MB, throughput 0.981622
Reading from 27299: heap size 29 MB, throughput 0.981694
Reading from 27299: heap size 29 MB, throughput 0.981847
Reading from 27299: heap size 29 MB, throughput 0.981766
Reading from 27299: heap size 29 MB, throughput 0.982909
Reading from 27299: heap size 29 MB, throughput 0.982806
Reading from 27299: heap size 29 MB, throughput 0.983097
Reading from 27299: heap size 29 MB, throughput 0.982308
Reading from 27299: heap size 29 MB, throughput 0.981916
Reading from 27299: heap size 29 MB, throughput 0.981966
Reading from 27299: heap size 29 MB, throughput 0.98224
Reading from 27299: heap size 29 MB, throughput 0.981918
Reading from 27299: heap size 29 MB, throughput 0.982601
Reading from 27299: heap size 29 MB, throughput 0.982702
Reading from 27299: heap size 29 MB, throughput 0.9821
Reading from 27299: heap size 29 MB, throughput 0.982065
Reading from 27299: heap size 29 MB, throughput 0.982074
Reading from 27299: heap size 29 MB, throughput 0.982376
Reading from 27299: heap size 29 MB, throughput 0.982714
Reading from 27299: heap size 29 MB, throughput 0.982099
Reading from 27298: heap size 1657 MB, throughput 0.977322
Reading from 27299: heap size 29 MB, throughput 0.984285
Reading from 27299: heap size 29 MB, throughput 0.983837
Reading from 27299: heap size 29 MB, throughput 0.982659
Reading from 27299: heap size 29 MB, throughput 0.981866
Reading from 27299: heap size 29 MB, throughput 0.982426
Reading from 27299: heap size 29 MB, throughput 0.981977
Reading from 27299: heap size 29 MB, throughput 0.982342
Reading from 27299: heap size 29 MB, throughput 0.981985
Reading from 27299: heap size 29 MB, throughput 0.981527
Reading from 27299: heap size 29 MB, throughput 0.981789
Reading from 27299: heap size 29 MB, throughput 0.981518
Reading from 27299: heap size 29 MB, throughput 0.981675
Reading from 27299: heap size 29 MB, throughput 0.981993
Reading from 27299: heap size 29 MB, throughput 0.98245
Reading from 27299: heap size 29 MB, throughput 0.981669
Numeric result:
Recommendation: 2 clients, utility 1.30289:
    h1: 12 MB (U(h) = 0.985184*h^0.00109797)
    h2: 3657 MB (U(h) = 0.0585671*h^0.379597)
Recommendation: 2 clients, utility 1.30289:
    h1: 12 MB (U(h) = 0.985184*h^0.00109797)
    h2: 3657 MB (U(h) = 0.0585671*h^0.379597)
Reading from 27299: heap size 29 MB, throughput 0.981363
Reading from 27299: heap size 29 MB, throughput 0.980779
Reading from 27299: heap size 29 MB, throughput 0.9821
Reading from 27299: heap size 29 MB, throughput 0.981899
Reading from 27299: heap size 29 MB, throughput 0.982603
Reading from 27299: heap size 29 MB, throughput 0.983195
Reading from 27299: heap size 29 MB, throughput 0.982886
Reading from 27299: heap size 29 MB, throughput 0.982466
Reading from 27299: heap size 29 MB, throughput 0.981423
Reading from 27299: heap size 29 MB, throughput 0.982299
Reading from 27299: heap size 29 MB, throughput 0.981643
Reading from 27299: heap size 29 MB, throughput 0.981561
Reading from 27299: heap size 29 MB, throughput 0.981875
Reading from 27299: heap size 29 MB, throughput 0.982583
Reading from 27299: heap size 29 MB, throughput 0.981663
Reading from 27299: heap size 29 MB, throughput 0.980999
Reading from 27299: heap size 29 MB, throughput 0.982338
Reading from 27299: heap size 29 MB, throughput 0.982327
Reading from 27299: heap size 29 MB, throughput 0.98266
Reading from 27299: heap size 29 MB, throughput 0.982401
Reading from 27299: heap size 29 MB, throughput 0.98198
Reading from 27299: heap size 29 MB, throughput 0.982204
Reading from 27299: heap size 29 MB, throughput 0.982156
Reading from 27299: heap size 29 MB, throughput 0.981968
Reading from 27299: heap size 29 MB, throughput 0.982165
Reading from 27299: heap size 29 MB, throughput 0.982033
Reading from 27299: heap size 29 MB, throughput 0.982581
Reading from 27299: heap size 29 MB, throughput 0.983162
Reading from 27299: heap size 29 MB, throughput 0.982565
Reading from 27299: heap size 29 MB, throughput 0.981318
Reading from 27299: heap size 29 MB, throughput 0.981265
Reading from 27299: heap size 29 MB, throughput 0.982179
Reading from 27299: heap size 29 MB, throughput 0.982218
Reading from 27299: heap size 29 MB, throughput 0.982363
Reading from 27299: heap size 29 MB, throughput 0.981851
Reading from 27299: heap size 29 MB, throughput 0.981795
Reading from 27299: heap size 29 MB, throughput 0.981963
Reading from 27298: heap size 1662 MB, throughput 0.984392
Reading from 27299: heap size 29 MB, throughput 0.983502
Reading from 27299: heap size 29 MB, throughput 0.983399
Reading from 27299: heap size 29 MB, throughput 0.982535
Reading from 27299: heap size 29 MB, throughput 0.983497
Reading from 27299: heap size 29 MB, throughput 0.949813
Reading from 27299: heap size 29 MB, throughput 0.909859
Reading from 27299: heap size 30 MB, throughput 0.915298
Reading from 27299: heap size 30 MB, throughput 0.928634
Reading from 27299: heap size 31 MB, throughput 0.922439
Reading from 27299: heap size 30 MB, throughput 0.913787
Reading from 27299: heap size 31 MB, throughput 0.915397
Reading from 27299: heap size 30 MB, throughput 0.914325
Reading from 27299: heap size 31 MB, throughput 0.919878
Reading from 27299: heap size 30 MB, throughput 0.919408
Reading from 27299: heap size 31 MB, throughput 0.911728
Reading from 27299: heap size 30 MB, throughput 0.918308
Reading from 27299: heap size 31 MB, throughput 0.924529
Reading from 27299: heap size 30 MB, throughput 0.916814
Reading from 27299: heap size 31 MB, throughput 0.935275
Reading from 27299: heap size 31 MB, throughput 0.917668
Reading from 27299: heap size 30 MB, throughput 0.984639
Reading from 27299: heap size 28 MB, throughput 0.921803
Reading from 27299: heap size 28 MB, throughput 0.881999
Reading from 27299: heap size 28 MB, throughput 0.908621
Reading from 27299: heap size 28 MB, throughput 0.87093
Reading from 27299: heap size 28 MB, throughput 0.887096
Reading from 27299: heap size 28 MB, throughput 0.901886
Reading from 27299: heap size 28 MB, throughput 0.925611
Reading from 27299: heap size 28 MB, throughput 0.913245
Reading from 27299: heap size 28 MB, throughput 0.918861
Reading from 27299: heap size 28 MB, throughput 0.918178
Reading from 27299: heap size 28 MB, throughput 0.922061
Reading from 27299: heap size 28 MB, throughput 0.921643
Reading from 27299: heap size 28 MB, throughput 0.930126
Reading from 27299: heap size 28 MB, throughput 0.918011
Reading from 27299: heap size 28 MB, throughput 0.927988
Reading from 27299: heap size 28 MB, throughput 0.961556
Reading from 27299: heap size 28 MB, throughput 0.973577
Reading from 27299: heap size 28 MB, throughput 0.977536
Reading from 27299: heap size 28 MB, throughput 0.981652
Reading from 27299: heap size 28 MB, throughput 0.982763
Reading from 27299: heap size 28 MB, throughput 0.983441
Reading from 27299: heap size 28 MB, throughput 0.98241
Reading from 27299: heap size 28 MB, throughput 0.981997
Reading from 27299: heap size 28 MB, throughput 0.981369
Reading from 27299: heap size 28 MB, throughput 0.982559
Reading from 27299: heap size 28 MB, throughput 0.982648
Reading from 27299: heap size 28 MB, throughput 0.982205
Reading from 27299: heap size 28 MB, throughput 0.982147
Reading from 27299: heap size 28 MB, throughput 0.98213
Reading from 27299: heap size 28 MB, throughput 0.982406
Reading from 27299: heap size 28 MB, throughput 0.98211
Reading from 27299: heap size 28 MB, throughput 0.982065
Reading from 27299: heap size 28 MB, throughput 0.983032
Reading from 27299: heap size 28 MB, throughput 0.982546
Reading from 27299: heap size 28 MB, throughput 0.98322
Reading from 27299: heap size 28 MB, throughput 0.983174
Reading from 27299: heap size 28 MB, throughput 0.982348
Reading from 27299: heap size 28 MB, throughput 0.981898
Reading from 27299: heap size 28 MB, throughput 0.982541
Reading from 27299: heap size 28 MB, throughput 0.982576
Reading from 27299: heap size 28 MB, throughput 0.982889
Reading from 27299: heap size 28 MB, throughput 0.982717
Reading from 27299: heap size 28 MB, throughput 0.982413
Reading from 27299: heap size 28 MB, throughput 0.98266
Reading from 27299: heap size 28 MB, throughput 0.981521
Reading from 27299: heap size 28 MB, throughput 0.982519
Reading from 27299: heap size 28 MB, throughput 0.982484
Reading from 27299: heap size 28 MB, throughput 0.982537
Reading from 27299: heap size 28 MB, throughput 0.982902
Reading from 27299: heap size 28 MB, throughput 0.983339
Reading from 27299: heap size 28 MB, throughput 0.982663
Reading from 27299: heap size 28 MB, throughput 0.982317
Reading from 27299: heap size 28 MB, throughput 0.983675
Reading from 27298: heap size 1674 MB, throughput 0.986833
Reading from 27299: heap size 28 MB, throughput 0.983436
Reading from 27299: heap size 28 MB, throughput 0.983537
Reading from 27299: heap size 28 MB, throughput 0.982969
Reading from 27299: heap size 28 MB, throughput 0.982078
Reading from 27299: heap size 28 MB, throughput 0.982
Reading from 27299: heap size 28 MB, throughput 0.981158
Reading from 27299: heap size 28 MB, throughput 0.981874
Reading from 27299: heap size 28 MB, throughput 0.982151
Reading from 27299: heap size 28 MB, throughput 0.981044
Reading from 27299: heap size 28 MB, throughput 0.981438
Reading from 27299: heap size 28 MB, throughput 0.981874
Reading from 27299: heap size 28 MB, throughput 0.980719
Reading from 27299: heap size 28 MB, throughput 0.981742
Reading from 27299: heap size 28 MB, throughput 0.981759
Reading from 27299: heap size 28 MB, throughput 0.982838
Reading from 27299: heap size 28 MB, throughput 0.983609
Reading from 27299: heap size 28 MB, throughput 0.983192
Reading from 27299: heap size 28 MB, throughput 0.982955
Reading from 27299: heap size 28 MB, throughput 0.982096
Reading from 27299: heap size 28 MB, throughput 0.981926
Reading from 27299: heap size 28 MB, throughput 0.981872
Reading from 27299: heap size 28 MB, throughput 0.982671
Reading from 27299: heap size 28 MB, throughput 0.982849
Reading from 27299: heap size 28 MB, throughput 0.982554
Reading from 27299: heap size 28 MB, throughput 0.982223
Reading from 27299: heap size 28 MB, throughput 0.982137
Reading from 27299: heap size 28 MB, throughput 0.982359
Reading from 27299: heap size 28 MB, throughput 0.981646
Reading from 27299: heap size 28 MB, throughput 0.982275
Reading from 27299: heap size 28 MB, throughput 0.981805
Reading from 27299: heap size 28 MB, throughput 0.981544
Reading from 27299: heap size 28 MB, throughput 0.981997
Reading from 27299: heap size 28 MB, throughput 0.981917
Reading from 27299: heap size 28 MB, throughput 0.981649
Reading from 27299: heap size 28 MB, throughput 0.981531
Reading from 27299: heap size 28 MB, throughput 0.981812
Reading from 27299: heap size 28 MB, throughput 0.981911
Reading from 27299: heap size 28 MB, throughput 0.981812
Reading from 27299: heap size 28 MB, throughput 0.982688
Reading from 27299: heap size 28 MB, throughput 0.982849
Reading from 27299: heap size 28 MB, throughput 0.982543
Reading from 27299: heap size 28 MB, throughput 0.98276
Reading from 27299: heap size 28 MB, throughput 0.982185
Reading from 27299: heap size 28 MB, throughput 0.981747
Reading from 27299: heap size 28 MB, throughput 0.981613
Reading from 27299: heap size 28 MB, throughput 0.982372
Reading from 27299: heap size 28 MB, throughput 0.98244
Reading from 27299: heap size 28 MB, throughput 0.98226
Reading from 27299: heap size 28 MB, throughput 0.982302
Numeric result:
Recommendation: 2 clients, utility 1.31277:
    h1: 73.8113 MB (U(h) = 0.954211*h^0.00809288)
    h2: 3595.19 MB (U(h) = 0.0527042*h^0.394176)
Recommendation: 2 clients, utility 1.31277:
    h1: 73.8133 MB (U(h) = 0.954211*h^0.00809288)
    h2: 3595.19 MB (U(h) = 0.0527042*h^0.394176)
Reading from 27299: heap size 28 MB, throughput 0.982187
Reading from 27299: heap size 30 MB, throughput 0.984321
Reading from 27299: heap size 32 MB, throughput 0.985285
Reading from 27299: heap size 34 MB, throughput 0.987082
Reading from 27298: heap size 1688 MB, throughput 0.986512
Reading from 27299: heap size 37 MB, throughput 0.989715
Reading from 27299: heap size 40 MB, throughput 0.991288
Reading from 27299: heap size 44 MB, throughput 0.992248
Reading from 27299: heap size 48 MB, throughput 0.992999
Reading from 27299: heap size 53 MB, throughput 0.993764
Reading from 27299: heap size 58 MB, throughput 0.994187
Reading from 27299: heap size 63 MB, throughput 0.994748
Reading from 27299: heap size 62 MB, throughput 0.994855
Reading from 27299: heap size 60 MB, throughput 0.995039
Reading from 27299: heap size 59 MB, throughput 0.995156
Reading from 27299: heap size 57 MB, throughput 0.995088
Reading from 27299: heap size 56 MB, throughput 0.994982
Reading from 27299: heap size 54 MB, throughput 0.995055
Reading from 27299: heap size 53 MB, throughput 0.994809
Reading from 27299: heap size 52 MB, throughput 0.994498
Reading from 27299: heap size 51 MB, throughput 0.994488
Reading from 27298: heap size 1689 MB, throughput 0.985885
Reading from 27299: heap size 50 MB, throughput 0.99469
Reading from 27299: heap size 49 MB, throughput 0.994447
Reading from 27299: heap size 48 MB, throughput 0.99428
Reading from 27299: heap size 47 MB, throughput 0.993961
Reading from 27299: heap size 46 MB, throughput 0.99365
Reading from 27299: heap size 45 MB, throughput 0.99324
Reading from 27299: heap size 44 MB, throughput 0.99315
Reading from 27299: heap size 43 MB, throughput 0.992971
Reading from 27299: heap size 42 MB, throughput 0.992626
Reading from 27299: heap size 41 MB, throughput 0.992238
Reading from 27299: heap size 45 MB, throughput 0.992669
Reading from 27299: heap size 48 MB, throughput 0.993351
Reading from 27299: heap size 47 MB, throughput 0.993641
Reading from 27299: heap size 46 MB, throughput 0.993518
Reading from 27299: heap size 45 MB, throughput 0.993211
Reading from 27299: heap size 44 MB, throughput 0.993314
Reading from 27299: heap size 43 MB, throughput 0.992929
Reading from 27299: heap size 42 MB, throughput 0.99283
Reading from 27299: heap size 45 MB, throughput 0.993166
Reading from 27299: heap size 44 MB, throughput 0.993198
Reading from 27299: heap size 48 MB, throughput 0.993587
Reading from 27298: heap size 1679 MB, throughput 0.984541
Reading from 27299: heap size 47 MB, throughput 0.993971
Reading from 27299: heap size 46 MB, throughput 0.993571
Reading from 27299: heap size 45 MB, throughput 0.993339
Reading from 27299: heap size 44 MB, throughput 0.993061
Reading from 27299: heap size 47 MB, throughput 0.993342
Reading from 27299: heap size 46 MB, throughput 0.993337
Reading from 27299: heap size 45 MB, throughput 0.993183
Numeric result:
Recommendation: 2 clients, utility 1.32049:
    h1: 56.7294 MB (U(h) = 0.962316*h^0.00627319)
    h2: 3612.27 MB (U(h) = 0.0507638*h^0.399367)
Recommendation: 2 clients, utility 1.32049:
    h1: 56.7408 MB (U(h) = 0.962316*h^0.00627319)
    h2: 3612.26 MB (U(h) = 0.0507638*h^0.399367)
Client 27299 died
Clients: 1
Reading from 27298: heap size 1687 MB, throughput 0.983513
Reading from 27298: heap size 1665 MB, throughput 0.982137
Reading from 27298: heap size 1676 MB, throughput 0.980249
Recommendation: one client; give it all the memory
Recommendation: one client; give it all the memory
Reading from 27298: heap size 1675 MB, throughput 0.986182
Recommendation: one client; give it all the memory
Reading from 27298: heap size 1677 MB, throughput 0.989188
Reading from 27298: heap size 1695 MB, throughput 0.981332
Reading from 27298: heap size 1723 MB, throughput 0.965013
Recommendation: one client; give it all the memory
Reading from 27298: heap size 1764 MB, throughput 0.943549
Reading from 27298: heap size 1792 MB, throughput 0.908038
Reading from 27298: heap size 1837 MB, throughput 0.88162
Client 27298 died
Clients: 0
Recommendation: no clients; no recommendation
Recommendation: no clients; no recommendation
ReadingThread: finished
TimerThread: finished
CommandThread: finished
Main: All threads killed, cleaning up
