===== DaCapo 9.12 lusearch starting warmup 1 =====
===== DaCapo 9.12 lusearch completed warmup 1 in 10344 msec =====
===== DaCapo 9.12 lusearch starting warmup 2 =====
===== DaCapo 9.12 lusearch completed warmup 2 in 8550 msec =====
===== DaCapo 9.12 lusearch starting warmup 3 =====
===== DaCapo 9.12 lusearch completed warmup 3 in 8498 msec =====
===== DaCapo 9.12 lusearch starting warmup 4 =====
===== DaCapo 9.12 lusearch completed warmup 4 in 8499 msec =====
===== DaCapo 9.12 lusearch starting warmup 5 =====
===== DaCapo 9.12 lusearch completed warmup 5 in 8558 msec =====
===== DaCapo 9.12 lusearch starting warmup 6 =====
===== DaCapo 9.12 lusearch completed warmup 6 in 8545 msec =====
===== DaCapo 9.12 lusearch starting warmup 7 =====
===== DaCapo 9.12 lusearch completed warmup 7 in 8519 msec =====
===== DaCapo 9.12 lusearch starting warmup 8 =====
===== DaCapo 9.12 lusearch completed warmup 8 in 8492 msec =====
===== DaCapo 9.12 lusearch starting warmup 9 =====
===== DaCapo 9.12 lusearch completed warmup 9 in 8480 msec =====
===== DaCapo 9.12 lusearch starting warmup 10 =====
===== DaCapo 9.12 lusearch completed warmup 10 in 8457 msec =====
===== DaCapo 9.12 lusearch starting warmup 11 =====
===== DaCapo 9.12 lusearch completed warmup 11 in 8442 msec =====
===== DaCapo 9.12 lusearch starting warmup 12 =====
===== DaCapo 9.12 lusearch completed warmup 12 in 8457 msec =====
===== DaCapo 9.12 lusearch starting warmup 13 =====
===== DaCapo 9.12 lusearch completed warmup 13 in 8458 msec =====
===== DaCapo 9.12 lusearch starting warmup 14 =====
===== DaCapo 9.12 lusearch completed warmup 14 in 8484 msec =====
===== DaCapo 9.12 lusearch starting warmup 15 =====
===== DaCapo 9.12 lusearch completed warmup 15 in 8498 msec =====
===== DaCapo 9.12 lusearch starting warmup 16 =====
===== DaCapo 9.12 lusearch completed warmup 16 in 8711 msec =====
===== DaCapo 9.12 lusearch starting warmup 17 =====
===== DaCapo 9.12 lusearch completed warmup 17 in 8656 msec =====
===== DaCapo 9.12 lusearch starting warmup 18 =====
===== DaCapo 9.12 lusearch completed warmup 18 in 8578 msec =====
===== DaCapo 9.12 lusearch starting warmup 19 =====
===== DaCapo 9.12 lusearch completed warmup 19 in 8726 msec =====
===== DaCapo 9.12 lusearch starting warmup 20 =====
===== DaCapo 9.12 lusearch completed warmup 20 in 8697 msec =====
===== DaCapo 9.12 lusearch starting warmup 21 =====
===== DaCapo 9.12 lusearch completed warmup 21 in 8623 msec =====
===== DaCapo 9.12 lusearch starting warmup 22 =====
===== DaCapo 9.12 lusearch completed warmup 22 in 8640 msec =====
===== DaCapo 9.12 lusearch starting warmup 23 =====
===== DaCapo 9.12 lusearch completed warmup 23 in 8626 msec =====
===== DaCapo 9.12 lusearch starting warmup 24 =====
===== DaCapo 9.12 lusearch completed warmup 24 in 8619 msec =====
===== DaCapo 9.12 lusearch starting warmup 25 =====
===== DaCapo 9.12 lusearch completed warmup 25 in 8748 msec =====
===== DaCapo 9.12 lusearch starting warmup 26 =====
===== DaCapo 9.12 lusearch completed warmup 26 in 8732 msec =====
===== DaCapo 9.12 lusearch starting warmup 27 =====
===== DaCapo 9.12 lusearch completed warmup 27 in 8769 msec =====
===== DaCapo 9.12 lusearch starting warmup 28 =====
===== DaCapo 9.12 lusearch completed warmup 28 in 8657 msec =====
===== DaCapo 9.12 lusearch starting warmup 29 =====
===== DaCapo 9.12 lusearch completed warmup 29 in 8758 msec =====
===== DaCapo 9.12 lusearch starting warmup 30 =====
===== DaCapo 9.12 lusearch completed warmup 30 in 8743 msec =====
===== DaCapo 9.12 lusearch starting warmup 31 =====
===== DaCapo 9.12 lusearch completed warmup 31 in 8702 msec =====
===== DaCapo 9.12 lusearch starting warmup 32 =====
===== DaCapo 9.12 lusearch completed warmup 32 in 8575 msec =====
===== DaCapo 9.12 lusearch starting warmup 33 =====
===== DaCapo 9.12 lusearch completed warmup 33 in 8557 msec =====
===== DaCapo 9.12 lusearch starting warmup 34 =====
===== DaCapo 9.12 lusearch completed warmup 34 in 8539 msec =====
===== DaCapo 9.12 lusearch starting warmup 35 =====
===== DaCapo 9.12 lusearch completed warmup 35 in 8494 msec =====
===== DaCapo 9.12 lusearch starting warmup 36 =====
===== DaCapo 9.12 lusearch completed warmup 36 in 8525 msec =====
===== DaCapo 9.12 lusearch starting warmup 37 =====
===== DaCapo 9.12 lusearch completed warmup 37 in 8709 msec =====
===== DaCapo 9.12 lusearch starting warmup 38 =====
===== DaCapo 9.12 lusearch completed warmup 38 in 8737 msec =====
===== DaCapo 9.12 lusearch starting warmup 39 =====
===== DaCapo 9.12 lusearch completed warmup 39 in 8699 msec =====
===== DaCapo 9.12 lusearch starting warmup 40 =====
===== DaCapo 9.12 lusearch completed warmup 40 in 8668 msec =====
===== DaCapo 9.12 lusearch starting warmup 41 =====
===== DaCapo 9.12 lusearch completed warmup 41 in 8672 msec =====
===== DaCapo 9.12 lusearch starting warmup 42 =====
===== DaCapo 9.12 lusearch completed warmup 42 in 8685 msec =====
===== DaCapo 9.12 lusearch starting warmup 43 =====
===== DaCapo 9.12 lusearch completed warmup 43 in 8651 msec =====
===== DaCapo 9.12 lusearch starting warmup 44 =====
===== DaCapo 9.12 lusearch completed warmup 44 in 8560 msec =====
===== DaCapo 9.12 lusearch starting warmup 45 =====
===== DaCapo 9.12 lusearch completed warmup 45 in 8756 msec =====
===== DaCapo 9.12 lusearch starting warmup 46 =====
===== DaCapo 9.12 lusearch completed warmup 46 in 8499 msec =====
===== DaCapo 9.12 lusearch starting warmup 47 =====
===== DaCapo 9.12 lusearch completed warmup 47 in 8518 msec =====
===== DaCapo 9.12 lusearch starting warmup 48 =====
===== DaCapo 9.12 lusearch completed warmup 48 in 8691 msec =====
===== DaCapo 9.12 lusearch starting warmup 49 =====
===== DaCapo 9.12 lusearch completed warmup 49 in 8525 msec =====
===== DaCapo 9.12 lusearch starting warmup 50 =====
===== DaCapo 9.12 lusearch completed warmup 50 in 8666 msec =====
===== DaCapo 9.12 lusearch starting warmup 51 =====
===== DaCapo 9.12 lusearch completed warmup 51 in 8517 msec =====
===== DaCapo 9.12 lusearch starting warmup 52 =====
===== DaCapo 9.12 lusearch completed warmup 52 in 8482 msec =====
===== DaCapo 9.12 lusearch starting warmup 53 =====
===== DaCapo 9.12 lusearch completed warmup 53 in 8789 msec =====
===== DaCapo 9.12 lusearch starting warmup 54 =====
===== DaCapo 9.12 lusearch completed warmup 54 in 8694 msec =====
===== DaCapo 9.12 lusearch starting warmup 55 =====
===== DaCapo 9.12 lusearch completed warmup 55 in 8729 msec =====
===== DaCapo 9.12 lusearch starting warmup 56 =====
===== DaCapo 9.12 lusearch completed warmup 56 in 8752 msec =====
===== DaCapo 9.12 lusearch starting warmup 57 =====
===== DaCapo 9.12 lusearch completed warmup 57 in 8691 msec =====
===== DaCapo 9.12 lusearch starting warmup 58 =====
===== DaCapo 9.12 lusearch completed warmup 58 in 8672 msec =====
===== DaCapo 9.12 lusearch starting warmup 59 =====
===== DaCapo 9.12 lusearch completed warmup 59 in 8671 msec =====
===== DaCapo 9.12 lusearch starting warmup 60 =====
===== DaCapo 9.12 lusearch completed warmup 60 in 8676 msec =====
===== DaCapo 9.12 lusearch starting warmup 61 =====
===== DaCapo 9.12 lusearch completed warmup 61 in 8672 msec =====
===== DaCapo 9.12 lusearch starting warmup 62 =====
===== DaCapo 9.12 lusearch completed warmup 62 in 8518 msec =====
===== DaCapo 9.12 lusearch starting warmup 63 =====
===== DaCapo 9.12 lusearch completed warmup 63 in 8649 msec =====
===== DaCapo 9.12 lusearch starting warmup 64 =====
===== DaCapo 9.12 lusearch completed warmup 64 in 8695 msec =====
===== DaCapo 9.12 lusearch starting warmup 65 =====
===== DaCapo 9.12 lusearch completed warmup 65 in 8602 msec =====
===== DaCapo 9.12 lusearch starting warmup 66 =====
===== DaCapo 9.12 lusearch completed warmup 66 in 8542 msec =====
===== DaCapo 9.12 lusearch starting warmup 67 =====
===== DaCapo 9.12 lusearch completed warmup 67 in 8621 msec =====
===== DaCapo 9.12 lusearch starting warmup 68 =====
===== DaCapo 9.12 lusearch completed warmup 68 in 8544 msec =====
===== DaCapo 9.12 lusearch starting warmup 69 =====
===== DaCapo 9.12 lusearch completed warmup 69 in 8603 msec =====
===== DaCapo 9.12 lusearch starting warmup 70 =====
===== DaCapo 9.12 lusearch completed warmup 70 in 8604 msec =====
===== DaCapo 9.12 lusearch starting warmup 71 =====
===== DaCapo 9.12 lusearch completed warmup 71 in 8577 msec =====
===== DaCapo 9.12 lusearch starting warmup 72 =====
===== DaCapo 9.12 lusearch completed warmup 72 in 8581 msec =====
===== DaCapo 9.12 lusearch starting warmup 73 =====
===== DaCapo 9.12 lusearch completed warmup 73 in 8550 msec =====
===== DaCapo 9.12 lusearch starting warmup 74 =====
===== DaCapo 9.12 lusearch completed warmup 74 in 8514 msec =====
===== DaCapo 9.12 lusearch starting warmup 75 =====
===== DaCapo 9.12 lusearch completed warmup 75 in 8558 msec =====
===== DaCapo 9.12 lusearch starting warmup 76 =====
===== DaCapo 9.12 lusearch completed warmup 76 in 8525 msec =====
===== DaCapo 9.12 lusearch starting warmup 77 =====
===== DaCapo 9.12 lusearch completed warmup 77 in 8732 msec =====
===== DaCapo 9.12 lusearch starting warmup 78 =====
===== DaCapo 9.12 lusearch completed warmup 78 in 8539 msec =====
===== DaCapo 9.12 lusearch starting warmup 79 =====
===== DaCapo 9.12 lusearch completed warmup 79 in 8682 msec =====
===== DaCapo 9.12 lusearch starting warmup 80 =====
===== DaCapo 9.12 lusearch completed warmup 80 in 8552 msec =====
===== DaCapo 9.12 lusearch starting warmup 81 =====
===== DaCapo 9.12 lusearch completed warmup 81 in 8643 msec =====
===== DaCapo 9.12 lusearch starting warmup 82 =====
===== DaCapo 9.12 lusearch completed warmup 82 in 8691 msec =====
===== DaCapo 9.12 lusearch starting warmup 83 =====
===== DaCapo 9.12 lusearch completed warmup 83 in 8651 msec =====
===== DaCapo 9.12 lusearch starting warmup 84 =====
===== DaCapo 9.12 lusearch completed warmup 84 in 8655 msec =====
===== DaCapo 9.12 lusearch starting warmup 85 =====
===== DaCapo 9.12 lusearch completed warmup 85 in 8620 msec =====
===== DaCapo 9.12 lusearch starting warmup 86 =====
===== DaCapo 9.12 lusearch completed warmup 86 in 8753 msec =====
===== DaCapo 9.12 lusearch starting warmup 87 =====
===== DaCapo 9.12 lusearch completed warmup 87 in 8710 msec =====
===== DaCapo 9.12 lusearch starting warmup 88 =====
===== DaCapo 9.12 lusearch completed warmup 88 in 8688 msec =====
===== DaCapo 9.12 lusearch starting warmup 89 =====
===== DaCapo 9.12 lusearch completed warmup 89 in 8651 msec =====
===== DaCapo 9.12 lusearch starting warmup 90 =====
===== DaCapo 9.12 lusearch completed warmup 90 in 8690 msec =====
===== DaCapo 9.12 lusearch starting warmup 91 =====
===== DaCapo 9.12 lusearch completed warmup 91 in 8718 msec =====
===== DaCapo 9.12 lusearch starting warmup 92 =====
===== DaCapo 9.12 lusearch completed warmup 92 in 8686 msec =====
===== DaCapo 9.12 lusearch starting warmup 93 =====
===== DaCapo 9.12 lusearch completed warmup 93 in 8661 msec =====
===== DaCapo 9.12 lusearch starting warmup 94 =====
===== DaCapo 9.12 lusearch completed warmup 94 in 8652 msec =====
===== DaCapo 9.12 lusearch starting warmup 95 =====
===== DaCapo 9.12 lusearch completed warmup 95 in 8605 msec =====
===== DaCapo 9.12 lusearch starting warmup 96 =====
===== DaCapo 9.12 lusearch completed warmup 96 in 8657 msec =====
===== DaCapo 9.12 lusearch starting warmup 97 =====
===== DaCapo 9.12 lusearch completed warmup 97 in 8643 msec =====
===== DaCapo 9.12 lusearch starting warmup 98 =====
===== DaCapo 9.12 lusearch completed warmup 98 in 8569 msec =====
===== DaCapo 9.12 lusearch starting warmup 99 =====
===== DaCapo 9.12 lusearch completed warmup 99 in 8605 msec =====
===== DaCapo 9.12 lusearch starting warmup 100 =====
===== DaCapo 9.12 lusearch completed warmup 100 in 8606 msec =====
===== DaCapo 9.12 lusearch starting warmup 101 =====
===== DaCapo 9.12 lusearch completed warmup 101 in 8656 msec =====
===== DaCapo 9.12 lusearch starting warmup 102 =====
===== DaCapo 9.12 lusearch completed warmup 102 in 8715 msec =====
===== DaCapo 9.12 lusearch starting warmup 103 =====
===== DaCapo 9.12 lusearch completed warmup 103 in 8633 msec =====
===== DaCapo 9.12 lusearch starting warmup 104 =====
===== DaCapo 9.12 lusearch completed warmup 104 in 8660 msec =====
===== DaCapo 9.12 lusearch starting warmup 105 =====
===== DaCapo 9.12 lusearch completed warmup 105 in 8587 msec =====
===== DaCapo 9.12 lusearch starting warmup 106 =====
===== DaCapo 9.12 lusearch completed warmup 106 in 8640 msec =====
===== DaCapo 9.12 lusearch starting warmup 107 =====
===== DaCapo 9.12 lusearch completed warmup 107 in 8651 msec =====
===== DaCapo 9.12 lusearch starting warmup 108 =====
===== DaCapo 9.12 lusearch completed warmup 108 in 8635 msec =====
===== DaCapo 9.12 lusearch starting warmup 109 =====
===== DaCapo 9.12 lusearch completed warmup 109 in 8668 msec =====
===== DaCapo 9.12 lusearch starting warmup 110 =====
===== DaCapo 9.12 lusearch completed warmup 110 in 8704 msec =====
===== DaCapo 9.12 lusearch starting warmup 111 =====
===== DaCapo 9.12 lusearch completed warmup 111 in 8663 msec =====
===== DaCapo 9.12 lusearch starting warmup 112 =====
===== DaCapo 9.12 lusearch completed warmup 112 in 8711 msec =====
===== DaCapo 9.12 lusearch starting warmup 113 =====
===== DaCapo 9.12 lusearch completed warmup 113 in 8658 msec =====
===== DaCapo 9.12 lusearch starting warmup 114 =====
===== DaCapo 9.12 lusearch completed warmup 114 in 8562 msec =====
===== DaCapo 9.12 lusearch starting warmup 115 =====
===== DaCapo 9.12 lusearch completed warmup 115 in 8643 msec =====
===== DaCapo 9.12 lusearch starting warmup 116 =====
===== DaCapo 9.12 lusearch completed warmup 116 in 8659 msec =====
===== DaCapo 9.12 lusearch starting warmup 117 =====
===== DaCapo 9.12 lusearch completed warmup 117 in 8575 msec =====
===== DaCapo 9.12 lusearch starting warmup 118 =====
===== DaCapo 9.12 lusearch completed warmup 118 in 8679 msec =====
===== DaCapo 9.12 lusearch starting warmup 119 =====
===== DaCapo 9.12 lusearch completed warmup 119 in 8658 msec =====
===== DaCapo 9.12 lusearch starting warmup 120 =====
===== DaCapo 9.12 lusearch completed warmup 120 in 8648 msec =====
===== DaCapo 9.12 lusearch starting warmup 121 =====
===== DaCapo 9.12 lusearch completed warmup 121 in 8669 msec =====
===== DaCapo 9.12 lusearch starting warmup 122 =====
===== DaCapo 9.12 lusearch completed warmup 122 in 8663 msec =====
===== DaCapo 9.12 lusearch starting warmup 123 =====
===== DaCapo 9.12 lusearch completed warmup 123 in 8635 msec =====
===== DaCapo 9.12 lusearch starting warmup 124 =====
===== DaCapo 9.12 lusearch completed warmup 124 in 8637 msec =====
===== DaCapo 9.12 lusearch starting warmup 125 =====
===== DaCapo 9.12 lusearch completed warmup 125 in 8634 msec =====
===== DaCapo 9.12 lusearch starting warmup 126 =====
===== DaCapo 9.12 lusearch completed warmup 126 in 8777 msec =====
===== DaCapo 9.12 lusearch starting warmup 127 =====
===== DaCapo 9.12 lusearch completed warmup 127 in 8674 msec =====
===== DaCapo 9.12 lusearch starting warmup 128 =====
===== DaCapo 9.12 lusearch completed warmup 128 in 8700 msec =====
===== DaCapo 9.12 lusearch starting warmup 129 =====
===== DaCapo 9.12 lusearch completed warmup 129 in 8644 msec =====
===== DaCapo 9.12 lusearch starting warmup 130 =====
===== DaCapo 9.12 lusearch completed warmup 130 in 8683 msec =====
===== DaCapo 9.12 lusearch starting warmup 131 =====
===== DaCapo 9.12 lusearch completed warmup 131 in 8655 msec =====
===== DaCapo 9.12 lusearch starting warmup 132 =====
===== DaCapo 9.12 lusearch completed warmup 132 in 8690 msec =====
===== DaCapo 9.12 lusearch starting warmup 133 =====
===== DaCapo 9.12 lusearch completed warmup 133 in 8672 msec =====
===== DaCapo 9.12 lusearch starting warmup 134 =====
===== DaCapo 9.12 lusearch completed warmup 134 in 8713 msec =====
===== DaCapo 9.12 lusearch starting warmup 135 =====
===== DaCapo 9.12 lusearch completed warmup 135 in 8771 msec =====
===== DaCapo 9.12 lusearch starting warmup 136 =====
===== DaCapo 9.12 lusearch completed warmup 136 in 8590 msec =====
===== DaCapo 9.12 lusearch starting warmup 137 =====
===== DaCapo 9.12 lusearch completed warmup 137 in 8404 msec =====
===== DaCapo 9.12 lusearch starting warmup 138 =====
===== DaCapo 9.12 lusearch completed warmup 138 in 8539 msec =====
===== DaCapo 9.12 lusearch starting warmup 139 =====
===== DaCapo 9.12 lusearch completed warmup 139 in 8435 msec =====
===== DaCapo 9.12 lusearch starting warmup 140 =====
