===== DaCapo 9.12 lusearch starting warmup 1 =====
===== DaCapo 9.12 lusearch completed warmup 1 in 9826 msec =====
===== DaCapo 9.12 lusearch starting warmup 2 =====
===== DaCapo 9.12 lusearch completed warmup 2 in 8072 msec =====
===== DaCapo 9.12 lusearch starting warmup 3 =====
===== DaCapo 9.12 lusearch completed warmup 3 in 8045 msec =====
===== DaCapo 9.12 lusearch starting warmup 4 =====
===== DaCapo 9.12 lusearch completed warmup 4 in 8147 msec =====
===== DaCapo 9.12 lusearch starting warmup 5 =====
===== DaCapo 9.12 lusearch completed warmup 5 in 8073 msec =====
===== DaCapo 9.12 lusearch starting warmup 6 =====
===== DaCapo 9.12 lusearch completed warmup 6 in 8054 msec =====
===== DaCapo 9.12 lusearch starting warmup 7 =====
===== DaCapo 9.12 lusearch completed warmup 7 in 8056 msec =====
===== DaCapo 9.12 lusearch starting warmup 8 =====
===== DaCapo 9.12 lusearch completed warmup 8 in 8042 msec =====
===== DaCapo 9.12 lusearch starting warmup 9 =====
===== DaCapo 9.12 lusearch completed warmup 9 in 8059 msec =====
===== DaCapo 9.12 lusearch starting warmup 10 =====
===== DaCapo 9.12 lusearch completed warmup 10 in 8058 msec =====
===== DaCapo 9.12 lusearch starting warmup 11 =====
===== DaCapo 9.12 lusearch completed warmup 11 in 8030 msec =====
===== DaCapo 9.12 lusearch starting warmup 12 =====
===== DaCapo 9.12 lusearch completed warmup 12 in 8095 msec =====
===== DaCapo 9.12 lusearch starting warmup 13 =====
===== DaCapo 9.12 lusearch completed warmup 13 in 8096 msec =====
===== DaCapo 9.12 lusearch starting warmup 14 =====
===== DaCapo 9.12 lusearch completed warmup 14 in 8056 msec =====
===== DaCapo 9.12 lusearch starting warmup 15 =====
===== DaCapo 9.12 lusearch completed warmup 15 in 8072 msec =====
===== DaCapo 9.12 lusearch starting warmup 16 =====
===== DaCapo 9.12 lusearch completed warmup 16 in 8083 msec =====
===== DaCapo 9.12 lusearch starting warmup 17 =====
===== DaCapo 9.12 lusearch completed warmup 17 in 8097 msec =====
===== DaCapo 9.12 lusearch starting warmup 18 =====
===== DaCapo 9.12 lusearch completed warmup 18 in 8067 msec =====
===== DaCapo 9.12 lusearch starting warmup 19 =====
===== DaCapo 9.12 lusearch completed warmup 19 in 8043 msec =====
===== DaCapo 9.12 lusearch starting warmup 20 =====
===== DaCapo 9.12 lusearch completed warmup 20 in 8076 msec =====
===== DaCapo 9.12 lusearch starting warmup 21 =====
===== DaCapo 9.12 lusearch completed warmup 21 in 8054 msec =====
===== DaCapo 9.12 lusearch starting warmup 22 =====
===== DaCapo 9.12 lusearch completed warmup 22 in 8052 msec =====
===== DaCapo 9.12 lusearch starting warmup 23 =====
===== DaCapo 9.12 lusearch completed warmup 23 in 8044 msec =====
===== DaCapo 9.12 lusearch starting warmup 24 =====
===== DaCapo 9.12 lusearch completed warmup 24 in 8031 msec =====
===== DaCapo 9.12 lusearch starting warmup 25 =====
===== DaCapo 9.12 lusearch completed warmup 25 in 8064 msec =====
===== DaCapo 9.12 lusearch starting warmup 26 =====
===== DaCapo 9.12 lusearch completed warmup 26 in 8038 msec =====
===== DaCapo 9.12 lusearch starting warmup 27 =====
===== DaCapo 9.12 lusearch completed warmup 27 in 8152 msec =====
===== DaCapo 9.12 lusearch starting warmup 28 =====
===== DaCapo 9.12 lusearch completed warmup 28 in 8035 msec =====
===== DaCapo 9.12 lusearch starting warmup 29 =====
===== DaCapo 9.12 lusearch completed warmup 29 in 8059 msec =====
===== DaCapo 9.12 lusearch starting warmup 30 =====
===== DaCapo 9.12 lusearch completed warmup 30 in 8025 msec =====
===== DaCapo 9.12 lusearch starting warmup 31 =====
===== DaCapo 9.12 lusearch completed warmup 31 in 8048 msec =====
===== DaCapo 9.12 lusearch starting warmup 32 =====
===== DaCapo 9.12 lusearch completed warmup 32 in 8099 msec =====
===== DaCapo 9.12 lusearch starting warmup 33 =====
===== DaCapo 9.12 lusearch completed warmup 33 in 8031 msec =====
===== DaCapo 9.12 lusearch starting warmup 34 =====
===== DaCapo 9.12 lusearch completed warmup 34 in 8031 msec =====
===== DaCapo 9.12 lusearch starting warmup 35 =====
===== DaCapo 9.12 lusearch completed warmup 35 in 8028 msec =====
===== DaCapo 9.12 lusearch starting warmup 36 =====
===== DaCapo 9.12 lusearch completed warmup 36 in 8035 msec =====
===== DaCapo 9.12 lusearch starting warmup 37 =====
===== DaCapo 9.12 lusearch completed warmup 37 in 8015 msec =====
===== DaCapo 9.12 lusearch starting warmup 38 =====
===== DaCapo 9.12 lusearch completed warmup 38 in 8029 msec =====
===== DaCapo 9.12 lusearch starting warmup 39 =====
===== DaCapo 9.12 lusearch completed warmup 39 in 8060 msec =====
===== DaCapo 9.12 lusearch starting warmup 40 =====
===== DaCapo 9.12 lusearch completed warmup 40 in 8081 msec =====
===== DaCapo 9.12 lusearch starting warmup 41 =====
===== DaCapo 9.12 lusearch completed warmup 41 in 8023 msec =====
===== DaCapo 9.12 lusearch starting warmup 42 =====
===== DaCapo 9.12 lusearch completed warmup 42 in 8069 msec =====
===== DaCapo 9.12 lusearch starting warmup 43 =====
===== DaCapo 9.12 lusearch completed warmup 43 in 8070 msec =====
===== DaCapo 9.12 lusearch starting warmup 44 =====
===== DaCapo 9.12 lusearch completed warmup 44 in 8045 msec =====
===== DaCapo 9.12 lusearch starting warmup 45 =====
===== DaCapo 9.12 lusearch completed warmup 45 in 8034 msec =====
===== DaCapo 9.12 lusearch starting warmup 46 =====
===== DaCapo 9.12 lusearch completed warmup 46 in 8009 msec =====
===== DaCapo 9.12 lusearch starting warmup 47 =====
===== DaCapo 9.12 lusearch completed warmup 47 in 8078 msec =====
===== DaCapo 9.12 lusearch starting warmup 48 =====
===== DaCapo 9.12 lusearch completed warmup 48 in 8032 msec =====
===== DaCapo 9.12 lusearch starting warmup 49 =====
===== DaCapo 9.12 lusearch completed warmup 49 in 8098 msec =====
===== DaCapo 9.12 lusearch starting warmup 50 =====
===== DaCapo 9.12 lusearch completed warmup 50 in 8061 msec =====
===== DaCapo 9.12 lusearch starting warmup 51 =====
===== DaCapo 9.12 lusearch completed warmup 51 in 8073 msec =====
===== DaCapo 9.12 lusearch starting warmup 52 =====
===== DaCapo 9.12 lusearch completed warmup 52 in 8077 msec =====
===== DaCapo 9.12 lusearch starting warmup 53 =====
===== DaCapo 9.12 lusearch completed warmup 53 in 8039 msec =====
===== DaCapo 9.12 lusearch starting warmup 54 =====
===== DaCapo 9.12 lusearch completed warmup 54 in 8133 msec =====
===== DaCapo 9.12 lusearch starting warmup 55 =====
===== DaCapo 9.12 lusearch completed warmup 55 in 8086 msec =====
===== DaCapo 9.12 lusearch starting warmup 56 =====
===== DaCapo 9.12 lusearch completed warmup 56 in 8058 msec =====
===== DaCapo 9.12 lusearch starting warmup 57 =====
===== DaCapo 9.12 lusearch completed warmup 57 in 8111 msec =====
===== DaCapo 9.12 lusearch starting warmup 58 =====
===== DaCapo 9.12 lusearch completed warmup 58 in 8066 msec =====
===== DaCapo 9.12 lusearch starting warmup 59 =====
===== DaCapo 9.12 lusearch completed warmup 59 in 8098 msec =====
===== DaCapo 9.12 lusearch starting warmup 60 =====
===== DaCapo 9.12 lusearch completed warmup 60 in 8089 msec =====
===== DaCapo 9.12 lusearch starting warmup 61 =====
===== DaCapo 9.12 lusearch completed warmup 61 in 8098 msec =====
===== DaCapo 9.12 lusearch starting warmup 62 =====
===== DaCapo 9.12 lusearch completed warmup 62 in 8048 msec =====
===== DaCapo 9.12 lusearch starting warmup 63 =====
===== DaCapo 9.12 lusearch completed warmup 63 in 8041 msec =====
===== DaCapo 9.12 lusearch starting warmup 64 =====
===== DaCapo 9.12 lusearch completed warmup 64 in 8058 msec =====
===== DaCapo 9.12 lusearch starting warmup 65 =====
===== DaCapo 9.12 lusearch completed warmup 65 in 8084 msec =====
===== DaCapo 9.12 lusearch starting warmup 66 =====
===== DaCapo 9.12 lusearch completed warmup 66 in 8048 msec =====
===== DaCapo 9.12 lusearch starting warmup 67 =====
===== DaCapo 9.12 lusearch completed warmup 67 in 8049 msec =====
===== DaCapo 9.12 lusearch starting warmup 68 =====
===== DaCapo 9.12 lusearch completed warmup 68 in 8057 msec =====
===== DaCapo 9.12 lusearch starting warmup 69 =====
===== DaCapo 9.12 lusearch completed warmup 69 in 8052 msec =====
===== DaCapo 9.12 lusearch starting warmup 70 =====
===== DaCapo 9.12 lusearch completed warmup 70 in 8061 msec =====
===== DaCapo 9.12 lusearch starting warmup 71 =====
===== DaCapo 9.12 lusearch completed warmup 71 in 8109 msec =====
===== DaCapo 9.12 lusearch starting warmup 72 =====
===== DaCapo 9.12 lusearch completed warmup 72 in 8080 msec =====
===== DaCapo 9.12 lusearch starting warmup 73 =====
===== DaCapo 9.12 lusearch completed warmup 73 in 8124 msec =====
===== DaCapo 9.12 lusearch starting warmup 74 =====
===== DaCapo 9.12 lusearch completed warmup 74 in 8126 msec =====
===== DaCapo 9.12 lusearch starting warmup 75 =====
===== DaCapo 9.12 lusearch completed warmup 75 in 8053 msec =====
===== DaCapo 9.12 lusearch starting warmup 76 =====
===== DaCapo 9.12 lusearch completed warmup 76 in 8047 msec =====
===== DaCapo 9.12 lusearch starting warmup 77 =====
===== DaCapo 9.12 lusearch completed warmup 77 in 8068 msec =====
===== DaCapo 9.12 lusearch starting warmup 78 =====
===== DaCapo 9.12 lusearch completed warmup 78 in 8080 msec =====
===== DaCapo 9.12 lusearch starting warmup 79 =====
===== DaCapo 9.12 lusearch completed warmup 79 in 8121 msec =====
===== DaCapo 9.12 lusearch starting warmup 80 =====
===== DaCapo 9.12 lusearch completed warmup 80 in 8097 msec =====
===== DaCapo 9.12 lusearch starting warmup 81 =====
===== DaCapo 9.12 lusearch completed warmup 81 in 8095 msec =====
===== DaCapo 9.12 lusearch starting warmup 82 =====
===== DaCapo 9.12 lusearch completed warmup 82 in 8112 msec =====
===== DaCapo 9.12 lusearch starting warmup 83 =====
===== DaCapo 9.12 lusearch completed warmup 83 in 8111 msec =====
===== DaCapo 9.12 lusearch starting warmup 84 =====
===== DaCapo 9.12 lusearch completed warmup 84 in 8100 msec =====
===== DaCapo 9.12 lusearch starting warmup 85 =====
===== DaCapo 9.12 lusearch completed warmup 85 in 8108 msec =====
===== DaCapo 9.12 lusearch starting warmup 86 =====
===== DaCapo 9.12 lusearch completed warmup 86 in 8111 msec =====
===== DaCapo 9.12 lusearch starting warmup 87 =====
===== DaCapo 9.12 lusearch completed warmup 87 in 8098 msec =====
===== DaCapo 9.12 lusearch starting warmup 88 =====
===== DaCapo 9.12 lusearch completed warmup 88 in 8130 msec =====
===== DaCapo 9.12 lusearch starting warmup 89 =====
===== DaCapo 9.12 lusearch completed warmup 89 in 8142 msec =====
===== DaCapo 9.12 lusearch starting warmup 90 =====
===== DaCapo 9.12 lusearch completed warmup 90 in 8132 msec =====
===== DaCapo 9.12 lusearch starting warmup 91 =====
===== DaCapo 9.12 lusearch completed warmup 91 in 8128 msec =====
===== DaCapo 9.12 lusearch starting warmup 92 =====
===== DaCapo 9.12 lusearch completed warmup 92 in 8133 msec =====
===== DaCapo 9.12 lusearch starting warmup 93 =====
===== DaCapo 9.12 lusearch completed warmup 93 in 8129 msec =====
===== DaCapo 9.12 lusearch starting warmup 94 =====
===== DaCapo 9.12 lusearch completed warmup 94 in 8140 msec =====
===== DaCapo 9.12 lusearch starting warmup 95 =====
===== DaCapo 9.12 lusearch completed warmup 95 in 8125 msec =====
===== DaCapo 9.12 lusearch starting warmup 96 =====
===== DaCapo 9.12 lusearch completed warmup 96 in 8112 msec =====
===== DaCapo 9.12 lusearch starting warmup 97 =====
===== DaCapo 9.12 lusearch completed warmup 97 in 8103 msec =====
===== DaCapo 9.12 lusearch starting warmup 98 =====
===== DaCapo 9.12 lusearch completed warmup 98 in 8116 msec =====
===== DaCapo 9.12 lusearch starting warmup 99 =====
===== DaCapo 9.12 lusearch completed warmup 99 in 8135 msec =====
===== DaCapo 9.12 lusearch starting warmup 100 =====
===== DaCapo 9.12 lusearch completed warmup 100 in 8129 msec =====
===== DaCapo 9.12 lusearch starting warmup 101 =====
===== DaCapo 9.12 lusearch completed warmup 101 in 8131 msec =====
===== DaCapo 9.12 lusearch starting warmup 102 =====
===== DaCapo 9.12 lusearch completed warmup 102 in 8119 msec =====
===== DaCapo 9.12 lusearch starting warmup 103 =====
===== DaCapo 9.12 lusearch completed warmup 103 in 8127 msec =====
===== DaCapo 9.12 lusearch starting warmup 104 =====
===== DaCapo 9.12 lusearch completed warmup 104 in 8104 msec =====
===== DaCapo 9.12 lusearch starting warmup 105 =====
===== DaCapo 9.12 lusearch completed warmup 105 in 8126 msec =====
===== DaCapo 9.12 lusearch starting warmup 106 =====
===== DaCapo 9.12 lusearch completed warmup 106 in 8122 msec =====
===== DaCapo 9.12 lusearch starting warmup 107 =====
===== DaCapo 9.12 lusearch completed warmup 107 in 8156 msec =====
===== DaCapo 9.12 lusearch starting warmup 108 =====
===== DaCapo 9.12 lusearch completed warmup 108 in 8172 msec =====
===== DaCapo 9.12 lusearch starting warmup 109 =====
===== DaCapo 9.12 lusearch completed warmup 109 in 8121 msec =====
===== DaCapo 9.12 lusearch starting warmup 110 =====
===== DaCapo 9.12 lusearch completed warmup 110 in 8141 msec =====
===== DaCapo 9.12 lusearch starting warmup 111 =====
===== DaCapo 9.12 lusearch completed warmup 111 in 8152 msec =====
===== DaCapo 9.12 lusearch starting warmup 112 =====
===== DaCapo 9.12 lusearch completed warmup 112 in 8140 msec =====
===== DaCapo 9.12 lusearch starting warmup 113 =====
===== DaCapo 9.12 lusearch completed warmup 113 in 8142 msec =====
===== DaCapo 9.12 lusearch starting warmup 114 =====
===== DaCapo 9.12 lusearch completed warmup 114 in 8158 msec =====
===== DaCapo 9.12 lusearch starting warmup 115 =====
===== DaCapo 9.12 lusearch completed warmup 115 in 8153 msec =====
===== DaCapo 9.12 lusearch starting warmup 116 =====
===== DaCapo 9.12 lusearch completed warmup 116 in 8154 msec =====
===== DaCapo 9.12 lusearch starting warmup 117 =====
===== DaCapo 9.12 lusearch completed warmup 117 in 8135 msec =====
===== DaCapo 9.12 lusearch starting warmup 118 =====
===== DaCapo 9.12 lusearch completed warmup 118 in 8162 msec =====
===== DaCapo 9.12 lusearch starting warmup 119 =====
===== DaCapo 9.12 lusearch completed warmup 119 in 8142 msec =====
===== DaCapo 9.12 lusearch starting warmup 120 =====
===== DaCapo 9.12 lusearch completed warmup 120 in 8122 msec =====
===== DaCapo 9.12 lusearch starting warmup 121 =====
===== DaCapo 9.12 lusearch completed warmup 121 in 8161 msec =====
===== DaCapo 9.12 lusearch starting warmup 122 =====
===== DaCapo 9.12 lusearch completed warmup 122 in 8123 msec =====
===== DaCapo 9.12 lusearch starting warmup 123 =====
===== DaCapo 9.12 lusearch completed warmup 123 in 8182 msec =====
===== DaCapo 9.12 lusearch starting warmup 124 =====
===== DaCapo 9.12 lusearch completed warmup 124 in 8131 msec =====
===== DaCapo 9.12 lusearch starting warmup 125 =====
===== DaCapo 9.12 lusearch completed warmup 125 in 8102 msec =====
===== DaCapo 9.12 lusearch starting warmup 126 =====
===== DaCapo 9.12 lusearch completed warmup 126 in 8118 msec =====
===== DaCapo 9.12 lusearch starting warmup 127 =====
===== DaCapo 9.12 lusearch completed warmup 127 in 8196 msec =====
===== DaCapo 9.12 lusearch starting warmup 128 =====
===== DaCapo 9.12 lusearch completed warmup 128 in 8115 msec =====
===== DaCapo 9.12 lusearch starting warmup 129 =====
===== DaCapo 9.12 lusearch completed warmup 129 in 8109 msec =====
===== DaCapo 9.12 lusearch starting warmup 130 =====
===== DaCapo 9.12 lusearch completed warmup 130 in 8129 msec =====
===== DaCapo 9.12 lusearch starting warmup 131 =====
===== DaCapo 9.12 lusearch completed warmup 131 in 8139 msec =====
===== DaCapo 9.12 lusearch starting warmup 132 =====
===== DaCapo 9.12 lusearch completed warmup 132 in 8173 msec =====
===== DaCapo 9.12 lusearch starting warmup 133 =====
===== DaCapo 9.12 lusearch completed warmup 133 in 8094 msec =====
===== DaCapo 9.12 lusearch starting warmup 134 =====
===== DaCapo 9.12 lusearch completed warmup 134 in 8119 msec =====
===== DaCapo 9.12 lusearch starting warmup 135 =====
===== DaCapo 9.12 lusearch completed warmup 135 in 8123 msec =====
===== DaCapo 9.12 lusearch starting warmup 136 =====
===== DaCapo 9.12 lusearch completed warmup 136 in 8144 msec =====
===== DaCapo 9.12 lusearch starting warmup 137 =====
===== DaCapo 9.12 lusearch completed warmup 137 in 8142 msec =====
===== DaCapo 9.12 lusearch starting warmup 138 =====
===== DaCapo 9.12 lusearch completed warmup 138 in 8106 msec =====
===== DaCapo 9.12 lusearch starting warmup 139 =====
===== DaCapo 9.12 lusearch completed warmup 139 in 8119 msec =====
===== DaCapo 9.12 lusearch starting warmup 140 =====
===== DaCapo 9.12 lusearch completed warmup 140 in 8173 msec =====
===== DaCapo 9.12 lusearch starting warmup 141 =====
===== DaCapo 9.12 lusearch completed warmup 141 in 8114 msec =====
===== DaCapo 9.12 lusearch starting warmup 142 =====
===== DaCapo 9.12 lusearch completed warmup 142 in 8140 msec =====
===== DaCapo 9.12 lusearch starting warmup 143 =====
===== DaCapo 9.12 lusearch completed warmup 143 in 8106 msec =====
===== DaCapo 9.12 lusearch starting warmup 144 =====
===== DaCapo 9.12 lusearch completed warmup 144 in 8149 msec =====
===== DaCapo 9.12 lusearch starting warmup 145 =====
===== DaCapo 9.12 lusearch completed warmup 145 in 8160 msec =====
===== DaCapo 9.12 lusearch starting warmup 146 =====
===== DaCapo 9.12 lusearch completed warmup 146 in 5545 msec =====
===== DaCapo 9.12 lusearch starting warmup 147 =====
===== DaCapo 9.12 lusearch completed warmup 147 in 5526 msec =====
===== DaCapo 9.12 lusearch starting warmup 148 =====
===== DaCapo 9.12 lusearch completed warmup 148 in 5533 msec =====
===== DaCapo 9.12 lusearch starting warmup 149 =====
===== DaCapo 9.12 lusearch completed warmup 149 in 5522 msec =====
===== DaCapo 9.12 lusearch starting warmup 150 =====
===== DaCapo 9.12 lusearch completed warmup 150 in 5522 msec =====
===== DaCapo 9.12 lusearch starting warmup 151 =====
===== DaCapo 9.12 lusearch completed warmup 151 in 5528 msec =====
===== DaCapo 9.12 lusearch starting warmup 152 =====
===== DaCapo 9.12 lusearch completed warmup 152 in 5546 msec =====
===== DaCapo 9.12 lusearch starting warmup 153 =====
===== DaCapo 9.12 lusearch completed warmup 153 in 5520 msec =====
===== DaCapo 9.12 lusearch starting warmup 154 =====
===== DaCapo 9.12 lusearch completed warmup 154 in 5519 msec =====
===== DaCapo 9.12 lusearch starting warmup 155 =====
===== DaCapo 9.12 lusearch completed warmup 155 in 5524 msec =====
===== DaCapo 9.12 lusearch starting warmup 156 =====
===== DaCapo 9.12 lusearch completed warmup 156 in 5530 msec =====
===== DaCapo 9.12 lusearch starting warmup 157 =====
===== DaCapo 9.12 lusearch completed warmup 157 in 5518 msec =====
===== DaCapo 9.12 lusearch starting warmup 158 =====
===== DaCapo 9.12 lusearch completed warmup 158 in 5520 msec =====
===== DaCapo 9.12 lusearch starting warmup 159 =====
===== DaCapo 9.12 lusearch completed warmup 159 in 5526 msec =====
===== DaCapo 9.12 lusearch starting warmup 160 =====
===== DaCapo 9.12 lusearch completed warmup 160 in 5527 msec =====
===== DaCapo 9.12 lusearch starting warmup 161 =====
===== DaCapo 9.12 lusearch completed warmup 161 in 5513 msec =====
===== DaCapo 9.12 lusearch starting warmup 162 =====
===== DaCapo 9.12 lusearch completed warmup 162 in 5530 msec =====
===== DaCapo 9.12 lusearch starting warmup 163 =====
===== DaCapo 9.12 lusearch completed warmup 163 in 5516 msec =====
===== DaCapo 9.12 lusearch starting warmup 164 =====
===== DaCapo 9.12 lusearch completed warmup 164 in 5525 msec =====
===== DaCapo 9.12 lusearch starting warmup 165 =====
===== DaCapo 9.12 lusearch completed warmup 165 in 5537 msec =====
===== DaCapo 9.12 lusearch starting warmup 166 =====
===== DaCapo 9.12 lusearch completed warmup 166 in 5550 msec =====
===== DaCapo 9.12 lusearch starting warmup 167 =====
===== DaCapo 9.12 lusearch completed warmup 167 in 5525 msec =====
===== DaCapo 9.12 lusearch starting warmup 168 =====
===== DaCapo 9.12 lusearch completed warmup 168 in 5527 msec =====
===== DaCapo 9.12 lusearch starting warmup 169 =====
===== DaCapo 9.12 lusearch completed warmup 169 in 5512 msec =====
===== DaCapo 9.12 lusearch starting warmup 170 =====
===== DaCapo 9.12 lusearch completed warmup 170 in 5513 msec =====
===== DaCapo 9.12 lusearch starting warmup 171 =====
===== DaCapo 9.12 lusearch completed warmup 171 in 5527 msec =====
===== DaCapo 9.12 lusearch starting warmup 172 =====
===== DaCapo 9.12 lusearch completed warmup 172 in 5529 msec =====
===== DaCapo 9.12 lusearch starting warmup 173 =====
===== DaCapo 9.12 lusearch completed warmup 173 in 5517 msec =====
===== DaCapo 9.12 lusearch starting warmup 174 =====
===== DaCapo 9.12 lusearch completed warmup 174 in 5520 msec =====
===== DaCapo 9.12 lusearch starting warmup 175 =====
===== DaCapo 9.12 lusearch completed warmup 175 in 5529 msec =====
===== DaCapo 9.12 lusearch starting warmup 176 =====
===== DaCapo 9.12 lusearch completed warmup 176 in 5526 msec =====
===== DaCapo 9.12 lusearch starting warmup 177 =====
===== DaCapo 9.12 lusearch completed warmup 177 in 5518 msec =====
===== DaCapo 9.12 lusearch starting warmup 178 =====
===== DaCapo 9.12 lusearch completed warmup 178 in 5570 msec =====
===== DaCapo 9.12 lusearch starting warmup 179 =====
===== DaCapo 9.12 lusearch completed warmup 179 in 5563 msec =====
===== DaCapo 9.12 lusearch starting warmup 180 =====
===== DaCapo 9.12 lusearch completed warmup 180 in 5524 msec =====
===== DaCapo 9.12 lusearch starting warmup 181 =====
===== DaCapo 9.12 lusearch completed warmup 181 in 5521 msec =====
===== DaCapo 9.12 lusearch starting warmup 182 =====
===== DaCapo 9.12 lusearch completed warmup 182 in 5516 msec =====
===== DaCapo 9.12 lusearch starting warmup 183 =====
===== DaCapo 9.12 lusearch completed warmup 183 in 5535 msec =====
===== DaCapo 9.12 lusearch starting warmup 184 =====
===== DaCapo 9.12 lusearch completed warmup 184 in 5539 msec =====
===== DaCapo 9.12 lusearch starting warmup 185 =====
===== DaCapo 9.12 lusearch completed warmup 185 in 5517 msec =====
===== DaCapo 9.12 lusearch starting warmup 186 =====
===== DaCapo 9.12 lusearch completed warmup 186 in 5529 msec =====
===== DaCapo 9.12 lusearch starting warmup 187 =====
===== DaCapo 9.12 lusearch completed warmup 187 in 5523 msec =====
===== DaCapo 9.12 lusearch starting warmup 188 =====
===== DaCapo 9.12 lusearch completed warmup 188 in 5523 msec =====
===== DaCapo 9.12 lusearch starting warmup 189 =====
===== DaCapo 9.12 lusearch completed warmup 189 in 5517 msec =====
===== DaCapo 9.12 lusearch starting warmup 190 =====
===== DaCapo 9.12 lusearch completed warmup 190 in 5519 msec =====
===== DaCapo 9.12 lusearch starting warmup 191 =====
===== DaCapo 9.12 lusearch completed warmup 191 in 5544 msec =====
===== DaCapo 9.12 lusearch starting warmup 192 =====
===== DaCapo 9.12 lusearch completed warmup 192 in 5540 msec =====
===== DaCapo 9.12 lusearch starting warmup 193 =====
===== DaCapo 9.12 lusearch completed warmup 193 in 5518 msec =====
===== DaCapo 9.12 lusearch starting warmup 194 =====
===== DaCapo 9.12 lusearch completed warmup 194 in 5524 msec =====
===== DaCapo 9.12 lusearch starting warmup 195 =====
===== DaCapo 9.12 lusearch completed warmup 195 in 5522 msec =====
===== DaCapo 9.12 lusearch starting warmup 196 =====
===== DaCapo 9.12 lusearch completed warmup 196 in 5521 msec =====
===== DaCapo 9.12 lusearch starting warmup 197 =====
===== DaCapo 9.12 lusearch completed warmup 197 in 5536 msec =====
===== DaCapo 9.12 lusearch starting warmup 198 =====
===== DaCapo 9.12 lusearch completed warmup 198 in 5521 msec =====
===== DaCapo 9.12 lusearch starting warmup 199 =====
===== DaCapo 9.12 lusearch completed warmup 199 in 5560 msec =====
===== DaCapo 9.12 lusearch starting warmup 200 =====
===== DaCapo 9.12 lusearch completed warmup 200 in 5527 msec =====
===== DaCapo 9.12 lusearch starting warmup 201 =====
===== DaCapo 9.12 lusearch completed warmup 201 in 5521 msec =====
===== DaCapo 9.12 lusearch starting warmup 202 =====
===== DaCapo 9.12 lusearch completed warmup 202 in 5517 msec =====
===== DaCapo 9.12 lusearch starting warmup 203 =====
===== DaCapo 9.12 lusearch completed warmup 203 in 5528 msec =====
===== DaCapo 9.12 lusearch starting warmup 204 =====
===== DaCapo 9.12 lusearch completed warmup 204 in 5525 msec =====
===== DaCapo 9.12 lusearch starting warmup 205 =====
===== DaCapo 9.12 lusearch completed warmup 205 in 5517 msec =====
===== DaCapo 9.12 lusearch starting warmup 206 =====
===== DaCapo 9.12 lusearch completed warmup 206 in 5524 msec =====
===== DaCapo 9.12 lusearch starting warmup 207 =====
===== DaCapo 9.12 lusearch completed warmup 207 in 5532 msec =====
===== DaCapo 9.12 lusearch starting warmup 208 =====
===== DaCapo 9.12 lusearch completed warmup 208 in 5521 msec =====
===== DaCapo 9.12 lusearch starting warmup 209 =====
===== DaCapo 9.12 lusearch completed warmup 209 in 5512 msec =====
===== DaCapo 9.12 lusearch starting warmup 210 =====
===== DaCapo 9.12 lusearch completed warmup 210 in 5524 msec =====
===== DaCapo 9.12 lusearch starting warmup 211 =====
