1413107524568 0 TOTAL_MEM 1704
1413107544595 8296 CREATION
1413107544595 8296 READING 9 0.990224
1413107544595 8296 MINHEAP 2
1413107544595 8296 MINHEAP 8
1413107544620 8295 CREATION
1413107544620 8295 READING 9 0.993157
1413107544620 8295 MINHEAP 2
1413107544620 8295 MINHEAP 276
1413107544664 8295 READING 9 0.971658
1413107544669 8296 READING 9 0.973429
1413107544694 8295 READING 9 0.959889
1413107544697 8296 READING 9 0.956413
1413107544707 8296 READING 9 0.905524
1413107544721 8296 READING 11 0.858848
1413107544721 8295 READING 9 0.940410
1413107544797 8296 READING 11 0.978223
1413107544827 8295 READING 11 0.965205
1413107544943 8296 READING 17 0.977988
1413107544965 8295 READING 11 0.968571
1413107545028 8296 READING 17 0.965082
1413107545048 8295 READING 17 0.906777
1413107545091 8296 READING 25 0.762119
1413107545125 8296 READING 28 0.972646
1413107545166 8296 READING 31 0.967911
1413107545204 8296 READING 34 0.956936
1413107545236 8295 READING 17 0.677503
1413107545272 8296 READING 42 0.984798
1413107545373 8296 READING 42 0.983092
1413107545405 8295 READING 30 0.938426
1413107545472 8296 READING 52 0.985668
1413107545521 8295 READING 31 0.928425
1413107545573 8296 READING 52 0.957580
1413107545655 8296 READING 64 0.957098
1413107545685 8295 READING 34 0.414993
1413107545752 8295 READING 47 0.873432
1413107545756 8296 READING 64 0.986354
1413107545854 8296 READING 75 0.982048
1413107545855 8295 READING 49 0.919881
1413107546031 8296 READING 76 0.989004
1413107546190 8296 READING 88 0.993808
1413107546262 8295 READING 51 0.205148
1413107546308 8296 READING 89 0.989293
1413107546354 8295 READING 73 0.751162
1413107546459 8296 READING 101 0.988308
1413107546577 8295 READING 73 0.273303
1413107546649 8295 READING 99 0.758290
1413107546655 8296 READING 102 0.995099
1413107546725 8295 READING 100 0.789763
1413107546831 8295 READING 102 0.711753
1413107546874 8296 READING 113 0.993843
1413107547068 8296 READING 115 0.995552
1413107547075 8295 READING 104 0.223751
1413107547197 8295 READING 131 0.612935
1413107547232 8296 READING 123 0.994141
1413107547273 8295 READING 135 0.761198
1413107547369 8295 READING 138 0.712912
1413107547406 8296 READING 124 0.994354
1413107547641 8296 READING 131 0.993410
1413107547862 8295 READING 140 0.125279
1413107547913 8296 READING 132 0.995877
1413107547966 8295 READING 179 0.744881
1413107548058 8295 READING 181 0.728752
1413107548138 8296 READING 140 0.994397
1413107548157 8295 READING 183 0.733154
1413107548253 8295 READING 188 0.672994
1413107548369 8296 READING 141 0.992876
1413107548593 8295 READING 197 0.861835
1413107548635 8296 READING 149 0.996202
1413107548847 8296 READING 149 0.995545
1413107549033 8296 READING 155 0.989797
1413107549263 8296 READING 156 0.994031
1413107549458 8295 READING 201 0.481098
1413107549608 8296 READING 164 0.994496
1413107549648 8295 READING 246 0.689841
1413107549709 8295 READING 252 0.730981
1413107549894 8296 READING 164 0.974374
1413107549905 8295 READING 257 0.843039
1413107550045 8295 READING 258 0.741078
1413107550105 8296 READING 173 0.997347
1413107550169 8295 READING 262 0.783456
1413107550329 8295 READING 264 0.796893
1413107550402 8296 READING 173 0.996732
1413107550531 8295 READING 268 0.775886
1413107550663 8295 READING 269 0.639423
1413107550723 8296 READING 183 0.996635
1413107550801 8295 READING 275 0.636422
1413107550936 8295 READING 278 0.715018
1413107550998 8296 READING 184 0.996720
1413107551079 8295 READING 285 0.659695
1413107551273 8296 READING 192 0.996884
1413107551469 8295 READING 287 0.889994
1413107551605 8296 READING 192 0.997023
1413107551706 8295 READING 285 0.835521
1413107551947 8296 READING 198 0.996029
1413107552321 8296 READING 199 0.994803
1413107552537 8295 READING 289 0.090505
1413107552663 8295 READING 332 0.650074
1413107552689 8296 READING 206 0.997794
1413107552757 8295 READING 334 0.872092
1413107552979 8295 READING 340 0.929401
1413107552980 8296 READING 206 0.996557
1413107553189 8295 READING 340 0.874931
1413107553307 8295 READING 341 0.770025
1413107553310 8296 READING 212 0.996171
1413107553403 8295 READING 343 0.635051
1413107553506 8295 READING 348 0.644700
1413107553561 8296 READING 212 0.995902
1413107553611 8295 READING 347 0.633307
1413107553724 8295 READING 355 0.658682
1413107553833 8295 READING 355 0.713657
1413107553885 8296 READING 218 0.996513
1413107554258 8296 READING 219 0.996762
1413107554569 8296 FUNCTION lru lambda h: 0.854048 * (h ** 0.0302504)
1413107554569 8295 FUNCTION lru lambda h: 0.78464 * (h ** 0.001)
1413107554569 8296 RECOMMEND 852
1413107554569 8295 RECOMMEND 852
1413107554591 8296 READING 225 0.997004
1413107555077 8296 READING 225 0.998098
1413107555465 8296 READING 230 0.997885
1413107555540 8295 READING 362 0.980421
1413107555842 8296 READING 231 0.996101
1413107556125 8296 READING 235 0.989174
1413107556455 8296 READING 236 0.995681
1413107556799 8296 READING 243 0.996133
1413107556891 8295 READING 363 0.970406
1413107557181 8296 READING 244 0.996229
1413107557501 8296 READING 251 0.995722
1413107557929 8296 READING 251 0.996904
1413107558166 8295 READING 364 0.965811
1413107558332 8296 READING 258 0.996783
1413107558688 8296 READING 259 0.996280
1413107558985 8296 READING 266 0.995448
1413107559329 8296 READING 266 0.992375
1413107559355 8295 READING 367 0.957863
1413107559681 8296 READING 274 0.996095
1413107560132 8296 READING 274 0.997155
1413107560565 8296 READING 282 0.997026
1413107560620 8295 READING 368 0.957953
1413107560970 8296 READING 283 0.997034
1413107561464 8296 READING 291 0.978299
1413107561908 8296 READING 292 0.997425
1413107562086 8295 READING 370 0.968879
1413107562380 8296 READING 300 0.998170
1413107562725 8296 READING 300 0.996560
1413107563156 8296 READING 311 0.997340
1413107563553 8295 READING 369 0.971430
1413107563652 8296 READING 311 0.997439
1413107564151 8296 READING 322 0.997467
1413107564569 8296 FUNCTION lru lambda h: 0.871387 * (h ** 0.0250544)
1413107564569 8295 FUNCTION lru lambda h: 0.629247 * (h ** 0.014196)
1413107564569 8296 RECOMMEND 852
1413107564569 8295 RECOMMEND 852
1413107564593 8296 READING 323 0.997489
1413107565063 8296 READING 334 0.982998
1413107565085 8295 READING 372 0.970316
1413107565475 8296 READING 334 0.996097
1413107565976 8296 READING 356 0.996416
1413107566440 8295 READING 370 0.958824
1413107566457 8296 READING 357 0.996554
1413107567064 8296 READING 378 0.997346
1413107567581 8296 READING 378 0.995219
1413107568029 8296 READING 398 0.996212
1413107568110 8295 READING 372 0.966943
1413107568532 8296 READING 398 0.996445
1413107569166 8296 READING 417 0.996032
1413107569692 8295 READING 375 0.963012
1413107569756 8296 READING 418 0.996824
1413107570462 8296 READING 437 0.998089
1413107571103 8296 READING 438 0.997138
1413107571250 8295 READING 376 0.970086
1413107571633 8296 READING 456 0.997139
1413107572273 8296 READING 457 0.997885
1413107572954 8296 READING 473 0.997760
1413107573009 8295 READING 378 0.971231
1413107573608 8296 READING 474 0.985843
1413107574240 8296 READING 491 0.997352
1413107574501 8295 READING 380 0.971530
1413107574569 8296 FUNCTION lru lambda h: 0.887128 * (h ** 0.0208411)
1413107574569 8295 FUNCTION lru lambda h: 0.565389 * (h ** 0.0408667)
1413107574569 8296 RECOMMEND 852
1413107574569 8295 RECOMMEND 852
1413107574687 8295 READING 386 0.796532
1413107574829 8295 READING 386 0.749240
1413107574969 8295 READING 393 0.773054
1413107574971 8296 READING 491 0.997879
1413107575110 8295 READING 396 0.823570
1413107575785 8296 READING 517 0.997829
1413107576489 8296 READING 519 0.997493
1413107576904 8295 READING 405 0.981791
1413107577131 8296 READING 542 0.997199
1413107577947 8296 READING 542 0.997628
1413107578875 8296 READING 564 0.998505
1413107579316 8295 READING 406 0.732721
1413107579837 8296 READING 565 0.998379
1413107580548 8296 READING 574 0.997013
1413107581339 8296 READING 574 0.998454
1413107581435 8295 READING 441 0.994483
1413107582109 8296 READING 574 0.998394
1413107582866 8296 READING 574 0.998426
1413107583282 8295 READING 444 0.990648
1413107583707 8296 READING 574 0.998477
1413107584569 8296 FUNCTION lru lambda h: 0.892557 * (h ** 0.0194667)
1413107584569 8295 FUNCTION lru lambda h: 0.525531 * (h ** 0.0584283)
1413107584569 8296 RECOMMEND 852
1413107584569 8295 RECOMMEND 852
1413107584572 8296 READING 573 0.998860
1413107585256 8295 READING 453 0.988097
1413107585358 8296 READING 574 0.998420
1413107586055 8296 READING 574 0.997925
1413107586914 8296 READING 575 0.998630
1413107587070 8295 READING 454 0.989244
1413107587815 8296 READING 575 0.998915
1413107588670 8296 READING 575 0.998467
1413107588785 8295 READING 454 0.979584
1413107589332 8296 READING 575 0.998226
1413107590125 8296 READING 575 0.998446
1413107590606 8295 READING 457 0.981865
1413107590970 8296 READING 575 0.998435
1413107591685 8296 READING 575 0.998651
1413107592493 8296 READING 574 0.998457
1413107592518 8295 READING 451 0.978334
1413107593369 8296 READING 574 0.998582
1413107594113 8296 READING 574 0.998496
1413107594569 8296 FUNCTION lru lambda h: 0.89404 * (h ** 0.0190953)
1413107594569 8295 FUNCTION lru lambda h: 0.492633 * (h ** 0.073618)
1413107594569 8296 RECOMMEND 852
1413107594570 8295 RECOMMEND 852
1413107594794 8296 READING 575 0.998542
1413107594906 8295 READING 455 0.991128
1413107595664 8295 READING 449 0.957725
1413107595693 8296 READING 575 0.998505
1413107595832 8295 READING 453 0.807346
1413107595998 8295 READING 457 0.814902
1413107596604 8296 READING 575 0.998595
1413107596651 8295 READING 461 0.972060
1413107597434 8296 READING 575 0.998542
1413107598135 8296 READING 575 0.997993
1413107598750 8295 READING 467 0.981726
1413107598976 8296 READING 575 0.998632
1413107599710 8296 READING 575 0.998407
1413107600419 8296 READING 575 0.998703
1413107600988 8295 READING 471 0.982195
1413107601236 8296 READING 575 0.998695
1413107602169 8296 READING 575 0.998568
1413107602862 8296 READING 575 0.998341
1413107602929 8295 READING 468 0.981588
1413107603615 8296 READING 575 0.998531
1413107604500 8296 READING 575 0.998544
1413107604570 8296 FUNCTION lru lambda h: 0.894041 * (h ** 0.0190949)
1413107604570 8295 FUNCTION lru lambda h: 0.461629 * (h ** 0.0888007)
1413107604570 8296 RECOMMEND 852
1413107604570 8295 RECOMMEND 852
1413107604997 8295 READING 472 0.978955
1413107605440 8296 READING 575 0.998790
1413107606194 8296 READING 575 0.998432
1413107606935 8296 READING 575 0.998829
1413107607390 8295 READING 474 0.980298
1413107607770 8296 READING 575 0.998457
1413107608503 8296 READING 575 0.998697
1413107609220 8296 READING 575 0.998104
1413107609809 8295 READING 475 0.981257
1413107610076 8296 READING 575 0.998645
1413107610980 8296 READING 575 0.998854
1413107611667 8296 READING 575 0.998502
1413107612076 8295 READING 479 0.979629
1413107612468 8296 READING 575 0.998474
1413107613321 8296 READING 575 0.998495
1413107614230 8296 READING 574 0.998693
1413107614570 8296 FUNCTION lru lambda h: 0.894035 * (h ** 0.0190966)
1413107614570 8295 FUNCTION lru lambda h: 0.442763 * (h ** 0.098469)
1413107614570 8296 RECOMMEND 852
1413107614570 8295 RECOMMEND 852
1413107614824 8295 READING 479 0.989512
1413107614955 8296 READING 575 0.998012
1413107615719 8295 READING 481 0.965642
1413107615743 8296 READING 575 0.998247
1413107615907 8295 READING 482 0.843985
1413107616099 8295 READING 487 0.864725
1413107616536 8296 READING 575 0.998563
1413107617259 8296 READING 576 0.998387
1413107618002 8295 READING 488 0.990034
1413107618062 8296 READING 576 0.998507
1413107618936 8296 READING 576 0.998705
1413107619787 8296 READING 576 0.998569
1413107620464 8296 READING 576 0.996124
1413107620473 8295 READING 496 0.990753
1413107621324 8296 READING 576 0.998526
1413107622238 8296 READING 576 0.998375
1413107622763 8295 READING 497 0.984359
1413107623123 8296 READING 576 0.998496
1413107623784 8296 READING 576 0.997951
1413107624570 8296 FUNCTION lru lambda h: 0.894763 * (h ** 0.0189145)
1413107624570 8295 FUNCTION lru lambda h: 0.425389 * (h ** 0.107651)
1413107624570 8296 RECOMMEND 852
1413107624570 8295 RECOMMEND 852
1413107624585 8296 READING 576 0.998561
1413107625292 8295 READING 500 0.984330
1413107625369 8296 READING 576 0.998553
1413107626068 8296 READING 576 0.998530
1413107626958 8296 READING 576 0.998800
1413107627628 8295 READING 502 0.982163
1413107627845 8296 READING 576 0.998446
1413107628603 8296 READING 576 0.998483
1413107629300 8296 READING 576 0.997793
1413107630055 8295 READING 500 0.981137
1413107630185 8296 READING 576 0.998651
1413107631115 8296 READING 576 0.998842
1413107631942 8296 READING 576 0.998638
1413107632621 8296 READING 576 0.996804
1413107632636 8295 READING 503 0.976984
1413107633452 8296 READING 576 0.998634
1413107634174 8296 READING 576 0.998803
1413107634570 8296 FUNCTION lru lambda h: 0.894741 * (h ** 0.0189201)
1413107634570 8295 FUNCTION lru lambda h: 0.415735 * (h ** 0.112876)
1413107634570 8296 RECOMMEND 852
1413107634570 8295 RECOMMEND 852
1413107634867 8296 READING 575 0.998173
1413107634978 8295 READING 506 0.987862
1413107635211 8295 READING 507 0.869895
1413107635421 8295 READING 509 0.881026
1413107635700 8296 READING 575 0.998575
1413107636629 8296 READING 575 0.998701
1413107637309 8295 READING 511 0.984904
1413107637368 8296 READING 575 0.998589
1413107638126 8296 READING 575 0.998172
1413107639038 8296 READING 575 0.998780
1413107639965 8296 READING 575 0.998742
1413107640225 8295 READING 519 0.989112
1413107640728 8296 READING 575 0.998555
1413107641502 8296 READING 576 0.998462
1413107642348 8296 READING 576 0.998663
1413107643032 8295 READING 521 0.987001
1413107643060 8296 READING 576 0.998226
1413107643832 8296 READING 576 0.998581
1413107644571 8296 FUNCTION lru lambda h: 0.894728 * (h ** 0.0189233)
1413107644571 8295 FUNCTION lru lambda h: 0.403011 * (h ** 0.119895)
1413107644571 8296 RECOMMEND 852
1413107644571 8295 RECOMMEND 852
1413107644712 8296 READING 576 0.998467
1413107645609 8296 READING 576 0.998333
1413107645958 8295 READING 522 0.986026
1413107646294 8296 READING 576 0.997726
1413107647075 8296 READING 576 0.998683
1413107647940 8296 READING 576 0.998574
1413107648854 8296 READING 576 0.998676
1413107648956 8295 READING 525 0.984466
1413107649612 8296 READING 576 0.998418
1413107650386 8296 READING 576 0.998436
1413107651188 8296 READING 576 0.998357
1413107651884 8296 READING 576 0.998429
1413107652177 8295 READING 526 0.986988
1413107652679 8296 READING 576 0.998537
1413107653515 8296 READING 576 0.998534
1413107654408 8296 READING 576 0.997935
1413107654571 8296 FUNCTION lru lambda h: 0.894745 * (h ** 0.018919)
1413107654571 8295 FUNCTION lru lambda h: 0.395733 * (h ** 0.123981)
1413107654571 8296 RECOMMEND 852
1413107654571 8295 RECOMMEND 852
1413107655050 8296 READING 576 0.998227
1413107655219 8295 READING 527 0.990835
1413107655517 8295 READING 530 0.914738
1413107655749 8295 READING 531 0.882413
1413107655916 8296 READING 576 0.998680
1413107656790 8296 READING 576 0.998466
1413107657687 8296 READING 576 0.998756
1413107658010 8295 READING 539 0.987265
1413107658361 8296 READING 576 0.997956
1413107659164 8296 READING 576 0.998636
1413107659944 8296 READING 576 0.998447
1413107660626 8296 READING 576 0.998513
1413107661020 8295 READING 541 0.988915
1413107661447 8296 READING 576 0.998532
1413107662345 8296 READING 576 0.998839
1413107663124 8296 READING 576 0.998748
1413107663818 8296 READING 576 0.997853
1413107664120 8295 READING 544 0.987851
1413107664571 8296 FUNCTION lru lambda h: 0.894741 * (h ** 0.0189199)
1413107664571 8295 FUNCTION lru lambda h: 0.248296 * (h ** 0.2052)
1413107664571 8296 RECOMMEND 852
1413107664571 8295 RECOMMEND 852
1413107664708 8296 READING 576 0.998434
1413107665608 8296 READING 576 0.998538
1413107666464 8296 READING 576 0.998679
1413107667161 8296 READING 576 0.998564
1413107667275 8295 READING 547 0.985909
1413107668001 8296 READING 576 0.998728
1413107668754 8296 READING 576 0.998337
1413107669454 8296 READING 576 0.997615
1413107670276 8296 READING 576 0.998480
1413107670312 8295 READING 546 0.988115
1413107671250 8296 READING 576 0.998849
1413107671961 8296 READING 548 0.998098
1413107672610 8296 READING 522 0.979221
1413107673394 8296 READING 495 0.998669
1413107673851 8295 READING 549 0.980931
1413107674110 8296 READING 472 0.998607
1413107674571 8296 FUNCTION lru lambda h: 0.897424 * (h ** 0.018238)
1413107674571 8295 FUNCTION lru lambda h: 0.116693 * (h ** 0.33355)
1413107674571 8296 RECOMMEND 852
1413107674571 8295 RECOMMEND 852
1413107674783 8296 READING 449 0.998602
1413107675233 8295 READING 549 0.973359
1413107675328 8296 READING 428 0.998207
1413107675481 8295 READING 554 0.869959
1413107675823 8296 READING 408 0.997307
1413107676385 8296 READING 389 0.998109
1413107676907 8296 READING 370 0.998264
1413107677167 8295 READING 560 0.977500
1413107677333 8296 READING 353 0.997323
1413107677743 8296 READING 336 0.996234
1413107678134 8296 READING 324 0.996402
1413107678593 8296 READING 308 0.996585
1413107678977 8296 READING 294 0.995645
1413107679497 8296 READING 310 0.997019
1413107679968 8296 READING 326 0.996784
1413107680395 8296 READING 343 0.995693
1413107680488 8295 READING 562 0.988818
1413107680835 8296 READING 362 0.996103
1413107681310 8296 READING 382 0.997879
1413107681972 8296 READING 402 0.998362
1413107682527 8296 READING 383 0.997580
1413107683141 8296 READING 365 0.997944
1413107683659 8296 READING 348 0.997543
1413107684034 8295 READING 565 0.987631
1413107684037 8296 READING 332 0.996635
1413107684416 8296 READING 317 0.995987
1413107684571 8296 FUNCTION lru lambda h: 0.958217 * (h ** 0.00669087)
1413107684572 8295 FUNCTION lru lambda h: 0.0726067 * (h ** 0.412996)
1413107684572 8296 RECOMMEND 852
1413107684572 8295 RECOMMEND 852
1413107684887 8296 READING 333 0.996754
1413107685403 8296 READING 348 0.998412
1413107685846 8296 READING 332 0.997834
1413107686240 8296 READING 316 0.996175
1413107686595 8296 READING 304 0.996672
1413107686946 8296 READING 290 0.996266
1413107687333 8295 READING 567 0.986078
1413107687416 8296 READING 305 0.997413
1413107687793 8296 READING 291 0.996076
1413107688296 8296 READING 306 0.997036
1413107688746 8296 READING 322 0.997549
1413107689130 8296 READING 307 0.996641
1413107689489 8296 READING 293 0.996421
1413107689865 8296 READING 308 0.996291
1413107690378 8296 READING 324 0.997100
1413107690586 8295 READING 568 0.983787
1413107690854 8296 READING 341 0.997634
1413107691393 8296 READING 325 0.997634
1413107691886 8296 READING 310 0.997208
1413107692320 8296 READING 296 0.997180
1413107692640 8296 READING 283 0.995717
1413107692981 8296 READING 295 0.997269
1413107693377 8296 READING 281 0.997338
1413107693763 8296 READING 268 0.997857
1413107694149 8296 READING 256 0.997961
1413107694246 8295 READING 570 0.990601
1413107694470 8296 READING 244 0.997401
1413107694572 8296 FUNCTION lru lambda h: 0.984659 * (h ** 0.00203533)
1413107694572 8295 FUNCTION lru lambda h: 0.0418066 * (h ** 0.504352)
1413107694572 8296 RECOMMEND 852
1413107694572 8295 RECOMMEND 852
1413107694749 8296 READING 233 0.996858
1413107695029 8296 READING 223 0.995534
1413107695115 8295 READING 573 0.962299
1413107695326 8296 READING 237 0.995062
1413107695381 8295 READING 574 0.876258
1413107695630 8296 READING 250 0.995080
1413107696033 8296 READING 265 0.997267
1413107696402 8296 READING 280 0.996445
1413107696856 8296 READING 296 0.997183
1413107697337 8296 READING 312 0.996935
1413107697764 8296 READING 328 0.996503
1413107698173 8296 READING 346 0.975309
1413107698187 8295 READING 581 0.988346
1413107698634 8296 READING 381 0.997084
1413107699338 8296 READING 416 0.998162
1413107699990 8296 READING 452 0.998331
1413107700708 8296 READING 453 0.998399
1413107701321 8296 READING 453 0.997407
1413107701765 8295 READING 583 0.988636
1413107701924 8296 READING 479 0.997397
1413107702607 8296 READING 481 0.985107
1413107703440 8296 READING 506 0.998475
1413107704072 8296 READING 479 0.996725
1413107704572 8296 FUNCTION lru lambda h: 0.991781 * (h ** 0.001)
1413107704572 8295 FUNCTION lru lambda h: 0.0340243 * (h ** 0.537429)
1413107704572 8296 RECOMMEND 852
1413107704572 8295 RECOMMEND 852
1413107704659 8296 READING 458 0.997947
1413107705174 8295 READING 587 0.990297
1413107705305 8296 READING 437 0.997808
1413107705993 8296 READING 416 0.997980
1413107706545 8296 READING 397 0.997321
1413107706950 8296 READING 378 0.996310
1413107707418 8296 READING 361 0.997729
1413107707915 8296 READING 344 0.997389
1413107708432 8296 READING 328 0.994402
1413107708441 8295 READING 589 0.989692
1413107708911 8296 READING 313 0.997309
1413107709388 8296 READING 298 0.997551
1413107709804 8296 READING 285 0.996577
1413107710168 8296 READING 272 0.996412
1413107710438 8296 READING 259 0.994223
1413107710734 8296 READING 248 0.995772
1413107711056 8296 READING 237 0.996404
1413107711397 8296 READING 224 0.997373
1413107711739 8296 READING 214 0.997525
1413107712005 8295 READING 588 0.985632
1413107712044 8296 READING 204 0.997514
1413107712308 8296 READING 195 0.996362
1413107712569 8296 READING 187 0.996951
1413107712781 8296 READING 180 0.993802
1413107712975 8296 READING 173 0.993230
1413107713171 8296 READING 166 0.993561
1413107713371 8296 READING 159 0.992352
1413107713617 8296 READING 172 0.993726
1413107713887 8296 READING 187 0.995090
1413107714133 8296 READING 203 0.994758
1413107714472 8296 READING 221 0.996667
1413107714572 8296 FUNCTION lru lambda h: 0.988337 * (h ** 0.0013737)
1413107714572 8295 FUNCTION lru lambda h: 0.0600378 * (h ** 0.443926)
1413107714572 8296 RECOMMEND 852
1413107714572 8295 RECOMMEND 852
1413107714707 8295 READING 591 0.987886
1413107714794 8296 READING 211 0.994677
1413107714981 8295 READING 595 0.906241
1413107715073 8296 READING 201 0.994776
1413107715323 8296 READING 192 0.994058
1413107715558 8296 READING 208 0.995295
1413107715803 8296 READING 226 0.994560
1413107716113 8296 READING 245 0.995425
1413107716385 8296 READING 234 0.995062
1413107716755 8296 READING 223 0.996273
1413107717069 8296 READING 211 0.997276
1413107717319 8296 READING 201 0.996650
1413107717479 8295 READING 595 0.986472
1413107717613 8296 READING 192 0.997514
1413107717917 8296 READING 184 0.996981
1413107718170 8296 READING 176 0.996795
1413107718401 8296 READING 168 0.995201
1413107718640 8296 READING 161 0.996701
1413107718844 8296 READING 154 0.995731
1413107718998 8296 READING 147 0.993959
1413107719148 8296 READING 141 0.994064
1413107719290 8296 READING 135 0.993901
1413107719445 8296 READING 130 0.995671
1413107719611 8296 READING 124 0.994985
1413107719772 8296 READING 123 0.992538
1413107719949 8296 READING 129 0.995418
1413107720109 8296 READING 124 0.994907
1413107720244 8296 READING 119 0.994016
1413107720442 8296 READING 129 0.994607
1413107720636 8296 READING 140 0.996164
1413107720795 8296 READING 136 0.994010
1413107720935 8296 READING 128 0.993554
1413107721087 8296 READING 139 0.993716
1413107721194 8295 READING 603 0.992504
1413107721305 8296 READING 151 0.955953
1413107721504 8296 READING 166 0.996184
1413107721689 8296 READING 157 0.995295
1413107721874 8296 READING 151 0.993142
1413107722052 8296 READING 144 0.994893
1413107722265 8296 READING 140 0.995297
1413107722470 8296 READING 132 0.995370
1413107722627 8296 READING 127 0.994339
1413107722776 8296 READING 122 0.994470
1413107722939 8296 READING 117 0.994748
1413107723122 8296 READING 112 0.994334
1413107723287 8296 READING 108 0.993349
1413107723445 8296 READING 103 0.995399
1413107723579 8296 READING 99 0.993242
1413107723703 8296 READING 95 0.991100
1413107723820 8296 READING 92 0.992855
1413107723934 8296 READING 88 0.992214
1413107724059 8296 READING 98 0.992680
1413107724182 8296 READING 107 0.993629
1413107724300 8296 READING 118 0.993622
1413107724431 8296 READING 131 0.992269
1413107724572 8296 FUNCTION lru lambda h: 0.983226 * (h ** 0.0022439)
1413107724572 8295 FUNCTION lru lambda h: 0.0447234 * (h ** 0.491524)
1413107724572 8296 RECOMMEND 852
1413107724572 8295 RECOMMEND 852
1413107724618 8296 READING 145 0.994324
1413107724803 8296 READING 161 0.994426
1413107724996 8296 READING 154 0.993245
1413107725230 8296 READING 170 0.995462
1413107725233 8295 READING 604 0.991524
1413107725522 8296 READING 163 0.996644
1413107725759 8296 READING 156 0.997012
1413107725955 8296 READING 149 0.996060
1413107726140 8296 READING 143 0.996077
1413107726348 8296 READING 137 0.993291
1413107726575 8296 READING 131 0.996456
1413107726771 8296 READING 126 0.995798
1413107726938 8296 READING 121 0.995323
1413107727113 8296 READING 116 0.995008
1413107727251 8296 READING 111 0.993735
1413107727404 8296 READING 107 0.995629
1413107727552 8296 READING 102 0.994574
1413107727666 8296 READING 99 0.992811
1413107727759 8296 READING 95 0.990859
1413107727857 8296 READING 104 0.992230
1413107727976 8296 READING 115 0.991715
1413107728114 8296 READING 128 0.994262
1413107728289 8296 READING 142 0.995849
1413107728477 8296 READING 136 0.994904
1413107728657 8296 READING 130 0.993957
1413107728838 8296 READING 125 0.996326
1413107728981 8296 READING 120 0.993345
1413107728996 8295 READING 605 0.986697
1413107729127 8296 READING 115 0.994881
1413107729314 8296 READING 110 0.996040
1413107729445 8296 READING 106 0.995301
1413107729564 8296 READING 102 0.992918
1413107729681 8296 READING 98 0.993829
1413107729790 8296 READING 94 0.993245
1413107729889 8296 READING 91 0.990261
1413107730019 8296 READING 100 0.994835
1413107730143 8296 READING 111 0.990266
1413107730297 8296 READING 123 0.945100
1413107730461 8296 READING 139 0.995411
1413107730619 8296 READING 132 0.993992
1413107730765 8296 READING 127 0.994813
1413107730919 8296 READING 122 0.994436
1413107731105 8296 READING 117 0.994221
1413107731270 8296 READING 112 0.994663
1413107731405 8296 READING 109 0.993782
1413107731525 8296 READING 104 0.993261
1413107731647 8296 READING 100 0.993406
1413107731784 8296 READING 96 0.994384
1413107731927 8296 READING 92 0.990375
1413107732054 8296 READING 88 0.992612
1413107732186 8296 READING 86 0.993578
1413107732294 8296 READING 82 0.991741
1413107732401 8296 READING 80 0.989733
1413107732520 8296 READING 89 0.991757
1413107732641 8296 READING 99 0.991019
1413107732645 8295 READING 608 0.985973
1413107732789 8296 READING 111 0.993619
1413107732947 8296 READING 124 0.993315
1413107733090 8296 READING 140 0.993191
1413107733225 8296 READING 134 0.994075
1413107733381 8296 READING 128 0.993944
1413107733507 8296 READING 122 0.991463
1413107733663 8296 READING 118 0.993302
1413107733792 8296 READING 113 0.993094
1413107733906 8296 READING 109 0.992483
1413107734063 8296 READING 104 0.994307
1413107734228 8296 READING 100 0.994128
1413107734392 8296 READING 96 0.994502
1413107734515 8296 READING 92 0.991664
1413107734573 8296 FUNCTION lru lambda h: 0.976484 * (h ** 0.00359372)
1413107734573 8295 FUNCTION lru lambda h: 0.041338 * (h ** 0.503925)
1413107734573 8296 RECOMMEND 852
1413107734573 8295 RECOMMEND 852
1413107734634 8296 READING 90 0.992655
1413107734732 8296 READING 86 0.990485
1413107734847 8296 READING 96 0.991591
1413107734889 8295 READING 611 0.988752
1413107735003 8296 READING 107 0.994428
1413107735173 8296 READING 104 0.911358
1413107735190 8295 READING 611 0.878312
1413107735382 8296 READING 120 0.996175
1413107735605 8296 READING 138 0.996380
1413107735837 8296 READING 159 0.996216
1413107736098 8296 READING 183 0.996929
1413107736417 8296 READING 210 0.997477
1413107736676 8296 READING 238 0.997154
1413107736986 8296 READING 269 0.996529
1413107737345 8296 READING 257 0.997293
1413107737707 8296 READING 245 0.997773
1413107738015 8296 READING 234 0.997841
1413107738310 8295 READING 616 0.990578
1413107738349 8296 READING 223 0.997468
1413107738609 8296 READING 214 0.996620
1413107738886 8296 READING 204 0.971663
1413107739108 8296 READING 194 0.996993
1413107739324 8296 READING 185 0.996570
1413107739535 8296 READING 178 0.996190
1413107739753 8296 READING 170 0.996287
1413107740001 8296 READING 162 0.996650
1413107740208 8296 READING 155 0.996752
1413107740389 8296 READING 149 0.994435
1413107740601 8296 READING 142 0.996086
1413107740806 8296 READING 136 0.996331
1413107741013 8296 READING 130 0.995765
1413107741182 8296 READING 125 0.993461
1413107741343 8296 READING 120 0.994637
1413107741496 8296 READING 115 0.994713
1413107741637 8296 READING 110 0.995846
1413107741752 8296 READING 106 0.992460
1413107741849 8296 READING 102 0.990810
1413107741941 8296 READING 98 0.990459
1413107742035 8296 READING 94 0.991507
1413107742154 8296 READING 91 0.993194
1413107742234 8296 READING 87 0.987599
1413107742352 8296 READING 99 0.992064
1413107742354 8295 READING 617 0.990766
1413107742494 8296 READING 112 0.995478
1413107742595 8296 READING 107 0.993784
1413107742731 8296 READING 102 0.994040
1413107742891 8296 READING 99 0.993684
1413107743056 8296 READING 94 0.994890
1413107743186 8296 READING 91 0.994204
1413107743301 8296 READING 88 0.991359
1413107743405 8296 READING 84 0.991860
1413107743497 8296 READING 81 0.990545
1413107743587 8296 READING 78 0.988933
1413107743706 8296 READING 89 0.992281
1413107743856 8296 READING 100 0.993907
1413107744007 8296 READING 96 0.994755
1413107744153 8296 READING 93 0.994879
1413107744284 8296 READING 89 0.993875
1413107744394 8296 READING 85 0.989051
1413107744508 8296 READING 83 0.992071
1413107744573 8296 FUNCTION lru lambda h: 0.966234 * (h ** 0.00566551)
1413107744573 8295 FUNCTION lru lambda h: 0.0347235 * (h ** 0.531411)
1413107744573 8296 RECOMMEND 852
1413107744573 8295 RECOMMEND 852
1413107744616 8296 READING 80 0.993544
1413107744699 8296 READING 76 0.990582
1413107744825 8296 READING 86 0.993115
1413107744944 8296 READING 83 0.993141
1413107745048 8296 READING 80 0.993270
1413107745131 8296 READING 77 0.986569
1413107745222 8296 READING 88 0.991630
1413107745313 8296 READING 100 0.990992
1413107745435 8296 READING 113 0.992936
1413107745567 8296 READING 128 0.992758
1413107745746 8296 READING 146 0.995066
1413107745927 8296 READING 140 0.994089
1413107746105 8296 READING 134 0.995559
1413107746285 8296 READING 128 0.995242
1413107746401 8295 READING 622 0.989206
1413107746430 8296 READING 123 0.994871
1413107746573 8296 READING 117 0.995411
1413107746759 8296 READING 113 0.995900
1413107746888 8296 READING 108 0.993149
1413107747007 8296 READING 104 0.992705
1413107747118 8296 READING 99 0.992555
1413107747217 8296 READING 96 0.992010
1413107747321 8296 READING 92 0.994339
1413107747452 8296 READING 89 0.942628
1413107747550 8296 READING 87 0.990032
1413107747637 8296 READING 84 0.990194
1413107747724 8296 READING 81 0.990752
1413107747806 8296 READING 78 0.990956
1413107747886 8296 READING 76 0.990416
1413107747961 8296 READING 73 0.983149
1413107748063 8296 READING 83 0.992395
1413107748168 8296 READING 95 0.991912
1413107748296 8296 READING 108 0.994212
1413107748444 8296 READING 104 0.994164
1413107748591 8296 READING 100 0.994859
1413107748734 8296 READING 96 0.993653
1413107748839 8296 READING 92 0.992461
1413107748943 8296 READING 89 0.984134
1413107749065 8296 READING 100 0.992936
1413107749237 8296 READING 115 0.995343
1413107749406 8296 READING 110 0.995783
1413107749567 8296 READING 106 0.994285
1413107749711 8296 READING 101 0.993970
1413107749852 8296 READING 98 0.994778
1413107749972 8296 READING 94 0.993046
1413107750085 8296 READING 91 0.993582
1413107750194 8296 READING 87 0.993735
1413107750302 8296 READING 84 0.992124
1413107750398 8296 READING 81 0.991119
1413107750478 8296 READING 78 0.988590
1413107750478 8295 READING 624 0.988166
1413107750548 8296 READING 75 0.987882
1413107750623 8296 READING 86 0.989152
1413107750724 8296 READING 98 0.991134
1413107750861 8296 READING 112 0.994259
1413107750963 8296 READING 107 0.991245
1413107751097 8296 READING 103 0.992865
1413107751214 8296 READING 98 0.992290
1413107751301 8296 READING 96 0.990164
1413107751419 8296 READING 92 0.992250
1413107751555 8296 READING 88 0.992588
1413107751689 8296 READING 85 0.992828
1413107751826 8296 READING 82 0.992635
1413107751930 8296 READING 79 0.991195
1413107752026 8296 READING 77 0.990732
1413107752125 8296 READING 74 0.909194
1413107752204 8296 READING 69 0.988755
1413107752280 8296 READING 67 0.988296
1413107752373 8296 READING 76 0.991064
1413107752500 8296 READING 87 0.993280
1413107752626 8296 READING 84 0.993101
1413107752753 8296 READING 81 0.993960
1413107752880 8296 READING 78 0.993175
1413107752987 8296 READING 74 0.992400
1413107753091 8296 READING 72 0.991972
1413107753182 8296 READING 69 0.989458
1413107753270 8296 READING 67 0.989456
1413107753379 8296 READING 76 0.991227
1413107753482 8296 READING 86 0.990569
1413107753624 8296 READING 99 0.993267
1413107753763 8296 READING 95 0.993676
1413107753880 8296 READING 91 0.992798
1413107753979 8296 READING 88 0.991863
1413107754058 8296 READING 84 0.988590
1413107754134 8296 READING 81 0.989287
1413107754236 8296 READING 93 0.992649
1413107754321 8296 READING 89 0.990002
1413107754438 8296 READING 102 0.992700
1413107754558 8296 READING 98 0.993425
1413107754573 8296 FUNCTION lru lambda h: 0.957729 * (h ** 0.00750285)
1413107754573 8295 FUNCTION lru lambda h: 0.0291835 * (h ** 0.558994)
1413107754573 8296 RECOMMEND 852
1413107754573 8295 RECOMMEND 852
1413107754677 8296 READING 94 0.990392
1413107754685 8295 READING 625 0.993268
1413107754796 8296 READING 91 0.992657
1413107754910 8296 READING 86 0.992544
1413107755024 8296 READING 84 0.990396
1413107755055 8295 READING 627 0.928732
1413107755137 8296 READING 81 0.991961
1413107755229 8296 READING 77 0.990774
1413107755313 8296 READING 75 0.988501
1413107755419 8296 READING 85 0.992412
1413107755579 8296 READING 96 0.994699
1413107755717 8296 READING 93 0.993951
1413107755820 8296 READING 89 0.991212
1413107755931 8296 READING 86 0.991931
1413107756031 8296 READING 83 0.992222
1413107756122 8296 READING 80 0.991578
1413107756206 8296 READING 77 0.989753
1413107756286 8296 READING 74 0.982607
1413107756409 8296 READING 85 0.929968
1413107756514 8296 READING 97 0.992593
1413107756635 8296 READING 111 0.993068
1413107756694 8295 READING 630 0.984379
1413107756754 8296 READING 106 0.994081
1413107756862 8296 READING 102 0.993620
1413107756978 8296 READING 98 0.993750
1413107757080 8296 READING 94 0.990227
1413107757183 8296 READING 92 0.992319
1413107757300 8296 READING 87 0.993484
1413107757425 8296 READING 84 0.992980
1413107757535 8296 READING 81 0.992178
1413107757644 8296 READING 79 0.992517
1413107757727 8296 READING 75 0.990586
1413107757804 8296 READING 73 0.989921
1413107757880 8296 READING 70 0.990036
1413107757956 8296 READING 68 0.990140
1413107758036 8296 READING 65 0.991631
1413107758134 8296 READING 63 0.992183
1413107758224 8296 READING 61 0.993235
1413107758302 8296 READING 60 0.988506
1413107758376 8296 READING 57 0.987178
1413107758478 8296 READING 64 0.992134
1413107758580 8296 READING 73 0.990205
1413107758687 8296 READING 84 0.990254
1413107758816 8296 READING 96 0.993204
1413107758922 8296 READING 92 0.992146
1413107759036 8296 READING 89 0.991994
1413107759141 8296 READING 85 0.992727
1413107759244 8296 READING 82 0.989020
1413107759320 8296 READING 80 0.986713
1413107759401 8296 READING 90 0.989146
1413107759498 8296 READING 104 0.991712
1413107759626 8296 READING 118 0.993565
1413107759764 8296 READING 114 0.994275
1413107759881 8296 READING 109 0.992452
1413107760027 8296 READING 105 0.993634
1413107760115 8296 READING 100 0.989298
1413107760226 8296 READING 97 0.992584
1413107760371 8296 READING 93 0.993153
1413107760516 8296 READING 89 0.992743
1413107760668 8296 READING 86 0.943407
1413107760782 8296 READING 83 0.987453
1413107760789 8295 READING 632 0.992260
1413107760887 8296 READING 81 0.991581
1413107760980 8296 READING 78 0.992018
1413107761065 8296 READING 75 0.975771
1413107761170 8296 READING 86 0.990074
1413107761307 8296 READING 99 0.991916
1413107761486 8296 READING 114 0.994544
1413107761701 8296 READING 131 0.995798
1413107761890 8296 READING 126 0.995732
1413107762053 8296 READING 120 0.994699
1413107762216 8296 READING 116 0.994552
1413107762359 8296 READING 111 0.994185
1413107762512 8296 READING 107 0.994273
1413107762650 8296 READING 103 0.992785
1413107762754 8296 READING 99 0.992905
1413107762841 8296 READING 95 0.991063
1413107762929 8296 READING 91 0.991629
1413107763020 8296 READING 87 0.990355
1413107763094 8296 READING 85 0.989356
1413107763184 8296 READING 82 0.990761
1413107763273 8296 READING 79 0.990970
1413107763363 8296 READING 75 0.992213
1413107763449 8296 READING 73 0.991245
1413107763536 8296 READING 70 0.991549
1413107763619 8296 READING 68 0.989541
1413107763716 8296 READING 77 0.990760
1413107763834 8296 READING 88 0.993879
1413107763937 8296 READING 85 0.992575
1413107764022 8296 READING 82 0.991256
1413107764114 8296 READING 79 0.988091
1413107764245 8296 READING 90 0.993868
1413107764378 8296 READING 87 0.993367
1413107764473 8296 READING 83 0.990573
1413107764559 8296 READING 81 0.992086
1413107764573 8296 FUNCTION lru lambda h: 0.962924 * (h ** 0.00647814)
1413107764573 8295 FUNCTION lru lambda h: 0.030826 * (h ** 0.549327)
1413107764573 8296 RECOMMEND 852
1413107764573 8295 RECOMMEND 852
1413107764644 8296 READING 78 0.992067
1413107764726 8296 READING 75 0.985952
1413107764814 8296 READING 86 0.990411
1413107764915 8296 READING 98 0.991029
1413107764996 8295 READING 635 0.990256
1413107765072 8296 READING 113 0.944757
1413107765191 8296 READING 108 0.992977
1413107765302 8296 READING 106 0.992914
1413107765413 8296 READING 101 0.992146
1413107765514 8296 READING 97 0.989907
1413107765626 8296 READING 93 0.992717
1413107765725 8296 READING 90 0.990510
1413107765821 8296 READING 86 0.992296
1413107765922 8296 READING 84 0.991405
1413107766036 8296 READING 80 0.992918
1413107766146 8296 READING 77 0.993018
1413107766247 8296 READING 75 0.989297
1413107766336 8296 READING 72 0.989798
1413107766414 8296 READING 70 0.989293
1413107766488 8296 READING 67 0.988010
1413107766574 8296 READING 76 0.989671
1413107766684 8296 READING 88 0.992745
1413107766838 8296 READING 100 0.992646
1413107766980 8296 READING 96 0.994636
1413107767119 8296 READING 93 0.993809
1413107767257 8296 READING 89 0.992374
1413107767369 8296 READING 85 0.991780
1413107767474 8296 READING 83 0.991717
1413107767571 8296 READING 79 0.990395
1413107767662 8296 READING 77 0.987648
1413107767751 8296 READING 74 0.990222
1413107767854 8296 READING 85 0.991666
1413107767947 8296 READING 81 0.990816
1413107768039 8296 READING 94 0.987322
1413107768136 8296 READING 106 0.991003
1413107768268 8296 READING 123 0.992251
1413107768452 8296 READING 140 0.995484
1413107768604 8296 READING 135 0.993909
1413107768766 8296 READING 129 0.994879
1413107768890 8296 READING 124 0.989932
1413107769074 8296 READING 119 0.993857
1413107769266 8296 READING 115 0.995932
1413107769345 8295 READING 637 0.991081
1413107769449 8296 READING 110 0.995808
1413107769592 8296 READING 105 0.994696
1413107769715 8296 READING 101 0.993400
1413107769830 8296 READING 97 0.991286
1413107769946 8296 READING 93 0.991603
1413107770084 8296 READING 90 0.994208
1413107770211 8296 READING 87 0.993553
1413107770338 8296 READING 84 0.992694
1413107770458 8296 READING 80 0.993361
1413107770567 8296 READING 78 0.992483
1413107770667 8296 READING 75 0.990991
1413107770754 8296 READING 73 0.990011
1413107770853 8296 READING 70 0.990948
1413107770939 8296 READING 67 0.989921
1413107771006 8296 READING 66 0.985745
1413107771116 8296 READING 75 0.920903
1413107771235 8296 READING 85 0.991933
1413107771375 8296 READING 97 0.994808
1413107771483 8296 READING 94 0.992667
1413107771570 8296 READING 90 0.991530
1413107771647 8296 READING 86 0.988727
1413107771733 8296 READING 84 0.988455
1413107771827 8296 READING 96 0.992113
1413107771950 8296 READING 111 0.991427
1413107772078 8296 READING 106 0.993531
1413107772205 8296 READING 102 0.994121
1413107772333 8296 READING 98 0.993274
1413107772457 8296 READING 95 0.992385
1413107772579 8296 READING 91 0.992768
1413107772691 8296 READING 88 0.993631
1413107772783 8296 READING 84 0.992162
1413107772876 8296 READING 82 0.991440
1413107772982 8296 READING 79 0.993244
1413107773107 8296 READING 76 0.992759
1413107773199 8296 READING 73 0.991467
1413107773276 8296 READING 71 0.989940
1413107773349 8296 READING 69 0.991240
1413107773423 8296 READING 67 0.990881
1413107773490 8296 READING 64 0.987455
1413107773567 8296 READING 74 0.988371
1413107773657 8296 READING 85 0.987774
1413107773760 8296 READING 97 0.992306
1413107773843 8295 READING 639 0.994980
1413107773912 8296 READING 111 0.991124
1413107774063 8296 READING 129 0.993470
1413107774219 8296 READING 124 0.994422
1413107774369 8296 READING 119 0.994893
1413107774521 8296 READING 114 0.995147
1413107774574 8296 FUNCTION lru lambda h: 0.962 * (h ** 0.00662216)
1413107774574 8295 FUNCTION lru lambda h: 0.151993 * (h ** 0.293915)
1413107774574 8296 RECOMMEND 852
1413107774574 8295 RECOMMEND 852
1413107774659 8296 READING 110 0.993667
1413107774809 8296 READING 105 0.994107
1413107774859 8295 READING 640 0.966659
1413107774978 8296 READING 101 0.994069
1413107775129 8296 READING 97 0.993670
1413107775270 8296 READING 94 0.994447
1413107775380 8296 READING 90 0.991067
1413107775497 8296 READING 87 0.993339
1413107775606 8296 READING 84 0.992979
1413107775730 8296 READING 81 0.994443
1413107775859 8296 READING 78 0.992663
1413107775977 8296 READING 75 0.991211
1413107776100 8296 READING 73 0.928475
1413107776169 8295 READING 641 0.979807
1413107776216 8296 READING 70 0.993233
1413107776309 8296 READING 67 0.990892
1413107776400 8296 READING 66 0.985620
1413107776485 8296 READING 64 0.988850
1413107776578 8296 READING 72 0.990198
1413107776691 8296 READING 83 0.992510
1413107776789 8296 READING 80 0.990312
1413107776891 8296 READING 77 0.992655
1413107776995 8296 READING 75 0.992890
1413107777070 8296 READING 72 0.988286
1413107777138 8296 READING 70 0.987357
1413107777215 8296 READING 79 0.985958
1413107777318 8296 READING 92 0.991001
1413107777446 8296 READING 106 0.994654
1413107777576 8296 READING 101 0.992785
1413107777675 8296 READING 98 0.990723
1413107777812 8296 READING 94 0.992585
1413107777922 8296 READING 90 0.991260
1413107778009 8296 READING 88 0.990446
1413107778120 8296 READING 84 0.993344
1413107778254 8296 READING 81 0.993033
1413107778383 8296 READING 78 0.993908
1413107778517 8296 READING 76 0.993448
1413107778626 8296 READING 73 0.992059
1413107778722 8296 READING 70 0.990684
1413107778811 8296 READING 68 0.989469
1413107778893 8296 READING 67 0.987236
1413107778985 8296 READING 75 0.988503
1413107779091 8296 READING 86 0.991155
1413107779240 8296 READING 99 0.994265
1413107779397 8296 READING 96 0.995128
1413107779555 8296 READING 92 0.994780
1413107779703 8296 READING 89 0.994698
1413107779838 8296 READING 86 0.993735
1413107779962 8296 READING 82 0.992326
1413107780071 8296 READING 80 0.992559
1413107780200 8296 READING 77 0.930219
1413107780289 8296 READING 74 0.989655
1413107780390 8296 READING 72 0.980569
1413107780412 8295 READING 643 0.993419
1413107780518 8296 READING 82 0.994402
1413107780667 8296 READING 94 0.993377
1413107780787 8296 READING 91 0.991514
1413107780888 8296 READING 87 0.991092
1413107780974 8296 READING 84 0.991956
1413107781055 8296 READING 81 0.989560
1413107781141 8296 READING 78 0.990329
1413107781216 8296 READING 76 0.986497
1413107781313 8296 READING 86 0.986232
1413107781434 8296 READING 99 0.993829
1413107781598 8296 READING 114 0.994688
1413107781756 8296 READING 110 0.993196
1413107781902 8296 READING 105 0.994180
1413107782051 8296 READING 102 0.994350
1413107782183 8296 READING 97 0.995260
1413107782295 8296 READING 94 0.993147
1413107782411 8296 READING 90 0.993273
1413107782561 8296 READING 87 0.994666
1413107782690 8296 READING 83 0.994313
1413107782788 8296 READING 81 0.991917
1413107782883 8296 READING 78 0.988122
1413107782976 8296 READING 75 0.991805
1413107783063 8296 READING 72 0.991349
1413107783142 8296 READING 70 0.989624
1413107783216 8296 READING 68 0.990854
1413107783287 8296 READING 66 0.988316
1413107783383 8296 READING 74 0.992634
1413107783468 8296 READING 72 0.983458
1413107783553 8296 READING 83 0.990189
1413107783665 8296 READING 95 0.992684
1413107783793 8296 READING 109 0.993420
1413107783916 8296 READING 105 0.993740
1413107784045 8296 READING 101 0.993818
1413107784160 8296 READING 97 0.992542
1413107784284 8296 READING 93 0.993961
1413107784415 8296 READING 91 0.994081
1413107784552 8296 READING 86 0.993714
1413107784574 8296 FUNCTION lru lambda h: 0.960876 * (h ** 0.00686243)
1413107784574 8295 FUNCTION lru lambda h: 0.178107 * (h ** 0.268439)
1413107784574 8296 RECOMMEND 852
1413107784574 8295 RECOMMEND 852
1413107784672 8296 READING 83 0.992989
1413107784779 8296 READING 80 0.992367
1413107784853 8295 READING 646 0.990610
1413107784868 8296 READING 77 0.992070
1413107784955 8296 READING 75 0.990017
1413107785039 8296 READING 72 0.990990
1413107785127 8296 READING 70 0.989807
1413107785222 8296 READING 67 0.992211
1413107785329 8296 READING 65 0.919567
1413107785419 8296 READING 63 0.990977
1413107785502 8296 READING 61 0.990620
1413107785590 8296 READING 60 0.990764
1413107785672 8296 READING 57 0.992255
1413107785745 8296 READING 56 0.988347
1413107785808 8296 READING 54 0.988405
1413107785888 8296 READING 62 0.986098
1413107785978 8296 READING 70 0.990285
1413107786077 8296 READING 81 0.990667
1413107786198 8296 READING 91 0.991675
1413107786335 8296 READING 105 0.993839
1413107786464 8296 READING 101 0.994224
1413107786566 8296 READING 98 0.987960
1413107786659 8296 READING 93 0.991700
1413107786755 8296 READING 90 0.991471
1413107786850 8296 READING 86 0.990908
1413107786958 8296 READING 84 0.990215
1413107787034 8296 READING 80 0.989044
1413107787150 8296 READING 92 0.992432
1413107787276 8296 READING 89 0.992096
1413107787361 8296 READING 85 0.985013
1413107787473 8296 READING 98 0.991713
1413107787655 8296 READING 113 0.994694
1413107787847 8296 READING 108 0.995594
1413107788020 8296 READING 104 0.994397
1413107788158 8296 READING 100 0.994118
1413107788287 8296 READING 96 0.930323
1413107788404 8296 READING 92 0.993048
1413107788514 8296 READING 89 0.992829
1413107788641 8296 READING 86 0.994194
1413107788767 8296 READING 83 0.993583
1413107788893 8296 READING 79 0.994777
1413107789017 8296 READING 77 0.993549
1413107789120 8295 READING 647 0.988431
1413107789129 8296 READING 74 0.992337
1413107789234 8296 READING 72 0.991663
1413107789329 8296 READING 69 0.990638
1413107789407 8296 READING 67 0.985661
1413107789521 8296 READING 76 0.993711
1413107789612 8296 READING 73 0.990065
1413107789695 8296 READING 71 0.990508
1413107789792 8296 READING 69 0.990906
1413107789901 8296 READING 77 0.990125
1413107790029 8296 READING 89 0.993728
1413107790123 8296 READING 85 0.992186
1413107790215 8296 READING 82 0.989992
1413107790288 8296 READING 79 0.987857
1413107790387 8296 READING 91 0.992442
1413107790481 8296 READING 87 0.990988
1413107790591 8296 READING 100 0.991737
1413107790704 8296 READING 96 0.991452
1413107790824 8296 READING 92 0.994433
1413107790940 8296 READING 88 0.992600
1413107791060 8296 READING 86 0.994136
1413107791175 8296 READING 82 0.992256
1413107791285 8296 READING 80 0.991242
1413107791392 8296 READING 76 0.991278
1413107791479 8296 READING 75 0.990558
1413107791558 8296 READING 72 0.988943
1413107791642 8296 READING 69 0.990460
1413107791727 8296 READING 67 0.990211
1413107791834 8296 READING 65 0.992018
1413107791926 8296 READING 63 0.988508
1413107792014 8296 READING 71 0.990760
1413107792107 8296 READING 81 0.991409
1413107792203 8296 READING 78 0.990745
1413107792290 8296 READING 76 0.990489
1413107792372 8296 READING 73 0.990192
1413107792465 8296 READING 83 0.990859
1413107792556 8296 READING 80 0.991416
1413107792666 8296 READING 77 0.931031
1413107792741 8296 READING 75 0.988318
1413107792832 8296 READING 85 0.992086
1413107792918 8296 READING 83 0.991450
1413107793001 8296 READING 79 0.990811
1413107793079 8296 READING 77 0.990392
1413107793156 8296 READING 74 0.988636
1413107793252 8296 READING 84 0.991589
1413107793356 8296 READING 96 0.991565
1413107793486 8296 READING 110 0.994687
1413107793641 8296 READING 106 0.994964
1413107793786 8296 READING 102 0.994160
1413107793922 8296 READING 97 0.994629
1413107794026 8296 READING 94 0.992644
1413107794089 8295 READING 649 0.993218
1413107794131 8296 READING 91 0.992319
1413107794232 8296 READING 87 0.992994
1413107794346 8296 READING 84 0.993739
1413107794469 8296 READING 81 0.992354
1413107794574 8296 FUNCTION lru lambda h: 0.961814 * (h ** 0.00670174)
1413107794574 8295 FUNCTION lru lambda h: 0.305981 * (h ** 0.182535)
1413107794574 8296 RECOMMEND 852
1413107794574 8295 RECOMMEND 852
1413107794577 8296 READING 78 0.991226
1413107794685 8296 READING 76 0.991171
1413107794793 8296 READING 73 0.991968
1413107794878 8296 READING 71 0.987676
1413107794966 8296 READING 68 0.988830
1413107795064 8296 READING 78 0.989941
1413107795138 8295 READING 649 0.971709
1413107795171 8296 READING 88 0.991657
1413107795303 8296 READING 102 0.992353
1413107795422 8296 READING 97 0.993757
1413107795537 8296 READING 94 0.992710
1413107795630 8296 READING 91 0.990614
1413107795707 8296 READING 87 0.982085
1413107795806 8296 READING 100 0.991988
1413107795939 8296 READING 115 0.993397
1413107796078 8296 READING 132 0.992715
1413107796255 8296 READING 127 0.994657
1413107796406 8296 READING 122 0.994743
1413107796574 8295 READING 650 0.825343
1413107796593 8296 READING 117 0.995808
1413107796772 8296 READING 112 0.994272
1413107796959 8296 READING 107 0.994185
1413107797111 8296 READING 104 0.994076
1413107797243 8296 READING 100 0.993314
1413107797358 8296 READING 96 0.993778
1413107797463 8296 READING 92 0.992852
1413107797572 8296 READING 88 0.992110
1413107797699 8296 READING 86 0.991998
1413107797820 8296 READING 83 0.992608
1413107797941 8296 READING 80 0.990952
1413107798058 8296 READING 77 0.993047
1413107798161 8296 READING 74 0.992134
1413107798259 8296 READING 71 0.992753
1413107798352 8296 READING 70 0.898960
1413107798443 8296 READING 66 0.990639
1413107798535 8296 READING 65 0.989779
1413107798610 8296 READING 62 0.989267
1413107798695 8296 READING 72 0.988990
1413107798811 8296 READING 81 0.992009
1413107798948 8296 READING 94 0.994254
1413107799072 8296 READING 90 0.993470
1413107799172 8296 READING 87 0.991636
1413107799248 8296 READING 84 0.987656
1413107799324 8296 READING 80 0.989602
1413107799406 8296 READING 78 0.990215
1413107799485 8296 READING 75 0.988218
1413107799573 8296 READING 85 0.988852
1413107799690 8296 READING 99 0.992444
1413107799842 8296 READING 113 0.994984
1413107799992 8296 READING 108 0.993122
1413107800134 8296 READING 104 0.994762
1413107800275 8296 READING 101 0.994199
1413107800409 8296 READING 96 0.993481
1413107800517 8296 READING 93 0.992646
1413107800625 8296 READING 89 0.992621
1413107800756 8296 READING 86 0.993448
1413107800891 8296 READING 83 0.992513
1413107800988 8296 READING 79 0.992299
1413107801072 8296 READING 77 0.989598
1413107801163 8296 READING 74 0.990749
1413107801192 8295 READING 655 0.994524
1413107801248 8296 READING 72 0.990935
1413107801323 8296 READING 70 0.990861
1413107801394 8296 READING 67 0.987467
1413107801462 8296 READING 65 0.989289
1413107801543 8296 READING 73 0.990684
1413107801661 8296 READING 84 0.988969
1413107801760 8296 READING 97 0.988662
1413107801884 8296 READING 111 0.993914
1413107802007 8296 READING 107 0.991575
1413107802121 8296 READING 103 0.992540
1413107802239 8296 READING 99 0.993761
1413107802342 8296 READING 95 0.992381
1413107802453 8296 READING 92 0.990912
1413107802577 8296 READING 88 0.993917
1413107802707 8296 READING 85 0.993817
1413107802821 8296 READING 82 0.990955
1413107802925 8296 READING 79 0.992561
1413107803008 8296 READING 76 0.991330
1413107803087 8296 READING 74 0.989516
1413107803167 8296 READING 71 0.988662
1413107803252 8296 READING 69 0.989601
1413107803342 8296 READING 67 0.991386
1413107803445 8296 READING 65 0.913078
1413107803535 8296 READING 62 0.991422
1413107803613 8296 READING 60 0.988052
1413107803711 8296 READING 69 0.990908
1413107803807 8296 READING 66 0.991216
1413107803885 8296 READING 65 0.987653
1413107803980 8296 READING 73 0.986328
1413107804092 8296 READING 85 0.991170
1413107804207 8296 READING 97 0.992651
1413107804357 8296 READING 112 0.994858
1413107804483 8296 READING 107 0.993128
1413107804574 8296 FUNCTION lru lambda h: 0.959999 * (h ** 0.00710128)
1413107804574 8295 FUNCTION lru lambda h: 0.540529 * (h ** 0.0919826)
1413107804574 8296 RECOMMEND 852
1413107804574 8295 RECOMMEND 852
1413107804595 8296 READING 104 0.991581
1413107804684 8296 READING 99 0.990311
1413107804772 8296 READING 96 0.988743
1413107804862 8296 READING 92 0.989866
1413107804974 8296 READING 88 0.991558
1413107805057 8296 READING 86 0.986675
1413107805166 8296 READING 98 0.990618
1413107805322 8296 READING 113 0.995083
1413107805420 8296 READING 108 0.990671
1413107805537 8295 READING 657 0.995445
1413107805566 8296 READING 104 0.994645
1413107805728 8296 READING 101 0.993901
1413107805891 8296 READING 96 0.991524
1413107806029 8296 READING 93 0.994197
1413107806144 8296 READING 89 0.993027
1413107806252 8296 READING 86 0.991784
1413107806346 8296 READING 82 0.990951
1413107806437 8296 READING 80 0.988399
1413107806530 8296 READING 76 0.990326
1413107806636 8296 READING 75 0.991372
1413107806734 8296 READING 72 0.992149
1413107806838 8296 READING 69 0.992428
1413107806939 8296 READING 67 0.992176
1413107807033 8296 READING 65 0.991352
1413107807117 8296 READING 63 0.990904
1413107807197 8296 READING 60 0.989302
1413107807266 8296 READING 58 0.986864
1413107807348 8296 READING 67 0.987946
1413107807467 8296 READING 76 0.929317
1413107807572 8296 READING 87 0.990286
1413107807706 8296 READING 100 0.993288
1413107807843 8296 READING 96 0.993485
1413107807962 8296 READING 93 0.992650
1413107808060 8296 READING 90 0.992519
1413107808140 8296 READING 86 0.989567
1413107808211 8296 READING 83 0.986909
1413107808310 8296 READING 95 0.989910
1413107808418 8296 READING 109 0.991994
1413107808564 8296 READING 123 0.993650
1413107808717 8296 READING 118 0.995386
1413107808864 8296 READING 113 0.994961
1413107809003 8296 READING 109 0.994372
1413107809146 8296 READING 105 0.992579
1413107809277 8296 READING 101 0.994033
1413107809383 8296 READING 96 0.993381
1413107809492 8296 READING 93 0.992586
1413107809631 8296 READING 90 0.993657
1413107809750 8296 READING 87 0.994753
1413107809850 8296 READING 83 0.992314
1413107809938 8296 READING 81 0.991209
1413107809973 8295 READING 659 0.991925
1413107810033 8296 READING 78 0.990688
1413107810113 8296 READING 75 0.991234
1413107810187 8296 READING 72 0.989256
1413107810255 8296 READING 70 0.990096
1413107810321 8296 READING 68 0.987448
1413107810429 8296 READING 77 0.991756
1413107810516 8296 READING 88 0.991161
1413107810633 8296 READING 102 0.991507
1413107810738 8296 READING 97 0.993441
1413107810837 8296 READING 93 0.966362
1413107810959 8296 READING 107 0.992700
1413107811091 8296 READING 118 0.992468
1413107811237 8296 READING 125 0.994549
1413107811421 8296 READING 125 0.995005
1413107811596 8296 READING 120 0.994162
1413107811742 8296 READING 115 0.994287
1413107811865 8296 READING 111 0.993813
1413107811990 8296 READING 106 0.994052
1413107812135 8296 READING 102 0.992624
1413107812280 8296 READING 98 0.993848
1413107812414 8296 READING 94 0.993277
1413107812550 8296 READING 92 0.992739
1413107812658 8296 READING 87 0.988714
1413107812762 8296 READING 85 0.990842
1413107812873 8296 READING 82 0.917903
1413107812963 8296 READING 78 0.990990
1413107813056 8296 READING 76 0.987616
1413107813155 8296 READING 87 0.991299
1413107813251 8296 READING 83 0.990144
1413107813344 8296 READING 96 0.988084
1413107813445 8296 READING 109 0.991794
1413107813568 8296 READING 126 0.992138
1413107813721 8296 READING 121 0.994545
1413107813831 8296 READING 116 0.993118
1413107813982 8296 READING 112 0.991414
1413107814088 8296 READING 107 0.988744
1413107814193 8296 READING 103 0.990116
1413107814340 8296 READING 99 0.993920
1413107814490 8296 READING 96 0.994218
1413107814575 8296 FUNCTION lru lambda h: 0.957127 * (h ** 0.00763776)
1413107814575 8295 FUNCTION lru lambda h: 0.495899 * (h ** 0.105651)
1413107814575 8296 RECOMMEND 852
1413107814575 8295 RECOMMEND 852
1413107814644 8296 READING 92 0.993987
1413107814759 8296 READING 88 0.991902
1413107814871 8295 READING 658 0.992359
1413107814872 8296 READING 86 0.990499
1413107814968 8296 READING 83 0.990379
1413107815057 8296 READING 80 0.988705
1413107815143 8296 READING 77 0.987846
1413107815259 8296 READING 89 0.992171
1413107815347 8295 READING 661 0.928319
1413107815411 8296 READING 101 0.992191
1413107815550 8295 DEATH 170
1413107815559 8296 READING 97 0.994683
1413107815700 8296 READING 94 0.994952
1413107815827 8296 READING 91 0.994256
1413107815936 8296 READING 86 0.988886
1413107816045 8296 READING 84 0.991066
1413107816147 8296 READING 81 0.990949
1413107816227 8296 READING 77 0.984775
1413107816348 8296 READING 89 0.990873
1413107816489 8296 READING 102 0.992421
1413107816606 8296 READING 98 0.989405
1413107816705 8296 READING 94 0.990958
1413107816781 8296 READING 91 0.988982
1413107816882 8296 READING 104 0.987664
1413107816997 8296 READING 119 0.988834
1413107817127 8296 READING 124 0.991306
1413107817294 8296 READING 138 0.995193
1413107817463 8296 READING 132 0.992207
1413107817633 8296 READING 126 0.992918
1413107817798 8296 READING 122 0.992947
1413107817927 8296 READING 117 0.994429
1413107818057 8296 READING 112 0.993047
1413107818226 8296 READING 107 0.993369
1413107818350 8296 READING 104 0.992319
1413107818456 8296 READING 100 0.992614
1413107818560 8296 READING 96 0.993577
1413107818654 8296 READING 92 0.991311
1413107818742 8296 READING 89 0.991516
1413107818826 8296 READING 86 0.991425
1413107818950 8296 READING 83 0.986018
1413107819057 8296 READING 97 0.914744
1413107819179 8296 READING 111 0.989539
1413107819318 8296 READING 127 0.991888
1413107819451 8296 READING 122 0.991493
1413107819585 8296 READING 117 0.991935
1413107819711 8296 READING 113 0.991040
1413107819850 8296 READING 108 0.995164
1413107820005 8296 READING 104 0.992236
1413107820145 8296 READING 100 0.994306
1413107820255 8296 READING 97 0.993212
1413107820354 8296 READING 93 0.990985
1413107820459 8296 READING 90 0.992655
1413107820567 8296 READING 87 0.992132
1413107820688 8296 READING 84 0.993065
1413107820799 8296 READING 80 0.994325
1413107820904 8296 READING 79 0.991261
1413107821017 8296 READING 75 0.990858
1413107821114 8296 READING 74 0.986496
1413107821197 8296 READING 70 0.989123
1413107821278 8296 READING 69 0.984220
1413107821372 8296 READING 78 0.991401
1413107821480 8296 READING 90 0.992026
1413107821599 8296 READING 102 0.993600
1413107821725 8296 READING 99 0.991691
1413107821817 8296 READING 95 0.987615
1413107821918 8296 READING 110 0.989544
1413107822031 8296 READING 122 0.992349
1413107822160 8296 READING 117 0.991571
1413107822278 8296 READING 112 0.989299
1413107822395 8296 READING 109 0.990178
1413107822549 8296 READING 121 0.993349
1413107822655 8296 READING 116 0.992897
1413107822802 8296 READING 111 0.992515
1413107822969 8296 READING 107 0.993224
1413107823142 8296 READING 103 0.995029
1413107823271 8296 READING 100 0.992453
1413107823393 8296 READING 96 0.991471
1413107823501 8296 READING 92 0.990416
1413107823599 8296 READING 88 0.990427
1413107823701 8296 READING 86 0.986204
1413107823818 8296 READING 83 0.992360
1413107823928 8296 READING 80 0.993079
1413107824043 8296 READING 77 0.993621
1413107824155 8296 READING 75 0.988852
1413107824251 8296 READING 72 0.992632
1413107824345 8296 READING 70 0.991218
1413107824434 8296 READING 67 0.988121
1413107824504 8296 READING 66 0.986832
1413107824575 8296 FUNCTION lru lambda h: 0.957316 * (h ** 0.00752492)
1413107824575 8296 RECOMMEND 1704
1413107824609 8296 READING 75 0.988556
1413107824709 8296 READING 85 0.987908
1413107824831 8296 READING 98 0.989732
1413107824990 8296 READING 112 0.993306
1413107825137 8296 READING 113 0.991145
1413107825251 8296 READING 108 0.992496
1413107825342 8296 READING 104 0.990678
1413107825441 8296 READING 100 0.988927
1413107825546 8296 READING 112 0.990272
1413107825667 8296 READING 112 0.991806
1413107825797 8296 READING 108 0.989226
1413107825953 8296 READING 124 0.994834
1413107826106 8296 READING 119 0.991061
1413107826257 8296 READING 115 0.994890
1413107826397 8296 READING 110 0.992624
1413107826510 8296 READING 106 0.993612
1413107826628 8296 READING 102 0.994352
1413107826788 8296 READING 98 0.995562
1413107826909 8296 READING 95 0.992423
1413107827003 8296 READING 91 0.991006
1413107827102 8296 READING 88 0.988544
1413107827188 8296 READING 85 0.991431
1413107827268 8296 READING 82 0.989500
1413107827351 8296 READING 79 0.990828
1413107827427 8296 READING 76 0.988949
1413107827480 8296 DEATH 1223
