1413109839664 0 TOTAL_MEM 1704
1413109859693 9761 CREATION
1413109859693 9761 READING 9 0.987153
1413109859693 9761 MINHEAP 2
1413109859693 9761 MINHEAP 8
1413109859714 9760 CREATION
1413109859714 9760 READING 9 0.989880
1413109859714 9760 MINHEAP 2
1413109859714 9760 MINHEAP 276
1413109859761 9760 READING 9 0.968615
1413109859767 9761 READING 9 0.960509
1413109859787 9760 READING 9 0.956202
1413109859810 9760 READING 9 0.921773
1413109859811 9761 READING 11 0.970211
1413109859831 9761 READING 11 0.948638
1413109859906 9760 READING 11 0.970997
1413109860006 9761 READING 15 0.919235
1413109860047 9760 READING 11 0.981334
1413109860113 9760 READING 17 0.896193
1413109860144 9761 READING 19 0.986393
1413109860203 9761 READING 24 0.973945
1413109860233 9761 READING 28 0.918493
1413109860265 9761 READING 32 0.966108
1413109860314 9760 READING 17 0.565726
1413109860323 9761 READING 32 0.823164
1413109860381 9761 READING 39 0.978368
1413109860450 9761 READING 39 0.976505
1413109860497 9760 READING 30 0.955462
1413109860548 9761 READING 48 0.983558
1413109860597 9760 READING 31 0.829895
1413109860633 9761 READING 48 0.982072
1413109860707 9761 READING 58 0.978273
1413109860783 9761 READING 59 0.982131
1413109860822 9760 READING 34 0.496608
1413109860879 9760 READING 46 0.832104
1413109860880 9761 READING 72 0.987329
1413109860978 9761 READING 72 0.987783
1413109861133 9761 READING 81 0.988224
1413109861178 9760 READING 50 0.374738
1413109861251 9761 READING 82 0.988271
1413109861265 9760 READING 65 0.657163
1413109861328 9760 READING 70 0.769140
1413109861360 9761 READING 92 0.988651
1413109861406 9760 READING 71 0.778431
1413109861483 9761 READING 93 0.988894
1413109861660 9761 READING 103 0.988794
1413109861729 9760 READING 77 0.160333
1413109861829 9761 READING 104 0.987930
1413109861866 9760 READING 107 0.770146
1413109861953 9760 READING 109 0.834160
1413109861986 9761 READING 115 0.993466
1413109862159 9761 READING 115 0.991542
1413109862297 9760 READING 111 0.189237
1413109862391 9761 READING 124 0.992413
1413109862406 9760 READING 146 0.782107
1413109862507 9760 READING 146 0.684326
1413109862591 9761 READING 124 0.993215
1413109862611 9760 READING 150 0.806167
1413109862815 9761 READING 132 0.995847
1413109863056 9760 READING 154 0.156023
1413109863065 9761 READING 133 0.995768
1413109863177 9760 READING 191 0.709776
1413109863280 9761 READING 140 0.987776
1413109863296 9760 READING 195 0.702722
1413109863407 9760 READING 196 0.716642
1413109863470 9761 READING 140 0.989437
1413109863695 9761 READING 149 0.992813
1413109863886 9761 READING 149 0.992415
1413109864111 9761 READING 157 0.993252
1413109864194 9760 READING 200 0.463537
1413109864313 9761 READING 157 0.991353
1413109864569 9761 READING 166 0.993370
1413109864689 9760 READING 248 0.889762
1413109864825 9761 READING 166 0.995390
1413109864901 9760 READING 251 0.888538
1413109865093 9760 READING 257 0.824112
1413109865156 9761 READING 173 0.996686
1413109865229 9760 READING 258 0.780242
1413109865357 9760 READING 264 0.778584
1413109865481 9761 READING 174 0.997256
1413109865544 9760 READING 265 0.830201
1413109865673 9760 READING 267 0.722994
1413109865770 9761 READING 180 0.995530
1413109865773 9760 READING 271 0.742641
1413109865883 9760 READING 277 0.683441
1413109865991 9760 READING 281 0.692830
1413109865993 9761 READING 181 0.995191
1413109866246 9760 READING 288 0.821012
1413109866275 9761 READING 186 0.997307
1413109866582 9761 READING 186 0.996160
1413109866613 9760 READING 290 0.867604
1413109866728 9760 READING 291 0.678619
1413109866844 9760 READING 295 0.662905
1413109866864 9761 READING 191 0.997372
1413109866964 9760 READING 301 0.703349
1413109867133 9761 READING 191 0.996173
1413109867455 9761 READING 196 0.996896
1413109867691 9761 READING 196 0.992363
1413109867869 9760 READING 302 0.250710
1413109867932 9761 READING 201 0.985015
1413109868124 9760 READING 346 0.774486
1413109868231 9760 READING 347 0.869007
1413109868252 9761 READING 201 0.996712
1413109868329 9760 READING 347 0.692234
1413109868429 9760 READING 351 0.667654
1413109868538 9761 READING 209 0.996577
1413109868541 9760 READING 355 0.653146
1413109868653 9760 READING 356 0.661392
1413109868845 9761 READING 210 0.996625
1413109869301 9761 READING 216 0.996925
1413109869379 9760 READING 363 0.969034
1413109869665 9761 FUNCTION lru lambda h: 0.906387 * (h ** 0.0181306)
1413109869665 9760 FUNCTION lru lambda h: 0.681781 * (h ** 0.001)
1413109869665 9761 RECOMMEND 852
1413109869665 9760 RECOMMEND 852
1413109869678 9761 READING 216 0.996909
1413109870001 9761 READING 222 0.996923
1413109870319 9761 READING 222 0.997862
1413109870632 9761 READING 226 0.986809
1413109870910 9761 READING 227 0.994377
1413109870926 9760 READING 363 0.980471
1413109871229 9761 READING 235 0.996492
1413109871609 9761 READING 235 0.996520
1413109871929 9761 READING 241 0.995226
1413109872163 9760 READING 368 0.968839
1413109872307 9761 READING 242 0.995365
1413109872698 9761 READING 249 0.996565
1413109873056 9761 READING 249 0.995880
1413109873374 9761 READING 255 0.996613
1413109873636 9760 READING 370 0.971445
1413109873648 9761 READING 255 0.995825
1413109873977 9761 READING 262 0.996733
1413109874302 9761 READING 262 0.996279
1413109874764 9761 READING 267 0.997324
1413109874810 9760 READING 371 0.961450
1413109875132 9761 READING 268 0.996063
1413109875557 9761 READING 274 0.997737
1413109876002 9761 READING 274 0.996304
1413109876338 9760 READING 374 0.970304
1413109876417 9761 READING 279 0.996870
1413109876802 9761 READING 265 0.998006
1413109877087 9761 READING 253 0.997054
1413109877378 9761 READING 241 0.996206
1413109877702 9761 READING 230 0.996788
1413109877902 9760 READING 372 0.968031
1413109878027 9761 READING 220 0.997463
1413109878304 9761 READING 210 0.997487
1413109878608 9761 READING 200 0.997015
1413109878845 9761 READING 191 0.996595
1413109879057 9761 READING 183 0.996567
1413109879308 9761 READING 175 0.954346
1413109879476 9760 READING 375 0.967178
1413109879519 9761 READING 169 0.995366
1413109879665 9761 FUNCTION lru lambda h: 0.912643 * (h ** 0.0162085)
1413109879665 9760 FUNCTION lru lambda h: 0.574611 * (h ** 0.0348785)
1413109879665 9761 RECOMMEND 852
1413109879665 9760 RECOMMEND 852
1413109879725 9761 READING 175 0.995691
1413109879949 9761 READING 182 0.994619
1413109880229 9761 READING 189 0.996400
1413109880522 9761 READING 197 0.996068
1413109880717 9760 READING 377 0.962597
1413109880797 9761 READING 205 0.996634
1413109881133 9761 READING 213 0.997379
1413109881477 9761 READING 220 0.996858
1413109881797 9761 READING 228 0.996961
1413109882113 9761 READING 236 0.995475
1413109882117 9760 READING 378 0.958710
1413109882372 9761 READING 245 0.996241
1413109882688 9761 READING 254 0.996671
1413109883023 9761 READING 263 0.997532
1413109883463 9761 READING 265 0.997633
1413109883765 9760 READING 381 0.962975
1413109883856 9761 READING 265 0.996940
1413109884249 9761 READING 273 0.997672
1413109884708 9761 READING 273 0.998148
1413109885084 9760 READING 383 0.963251
1413109885142 9761 READING 281 0.998070
1413109885555 9761 READING 281 0.997515
1413109885872 9761 READING 289 0.997259
1413109886223 9761 READING 289 0.996575
1413109886644 9761 READING 298 0.997415
1413109886665 9760 READING 386 0.958713
1413109887045 9761 READING 298 0.997654
1413109887494 9761 READING 307 0.998071
1413109887863 9761 READING 307 0.997677
1413109888254 9761 READING 315 0.996194
1413109888603 9760 READING 388 0.976642
1413109888649 9761 READING 315 0.996176
1413109889129 9761 READING 326 0.997121
1413109889263 9760 READING 393 0.943006
1413109889413 9760 READING 394 0.741104
1413109889555 9760 READING 396 0.715680
1413109889593 9761 READING 326 0.995987
1413109889665 9761 FUNCTION lru lambda h: 0.914062 * (h ** 0.0158929)
1413109889665 9760 FUNCTION lru lambda h: 0.507991 * (h ** 0.0657425)
1413109889665 9761 RECOMMEND 852
1413109889665 9760 RECOMMEND 852
1413109889694 9760 READING 400 0.743507
1413109890145 9761 READING 338 0.997216
1413109890622 9761 READING 338 0.996856
1413109890714 9760 READING 410 0.972993
1413109891026 9761 READING 350 0.996745
1413109891440 9761 READING 350 0.996569
1413109891942 9761 READING 363 0.997241
1413109892409 9760 READING 411 0.982809
1413109892594 9761 READING 363 0.997511
1413109893147 9761 READING 374 0.997678
1413109893750 9761 READING 375 0.997240
1413109894159 9760 READING 414 0.980895
1413109894315 9761 READING 387 0.997482
1413109894735 9761 READING 387 0.994236
1413109895268 9761 READING 399 0.996846
1413109895849 9761 READING 399 0.997246
1413109896040 9760 READING 417 0.987085
1413109896442 9761 READING 413 0.997731
1413109896952 9761 READING 413 0.996146
1413109897481 9761 READING 427 0.997236
1413109897794 9760 READING 416 0.978655
1413109898127 9761 READING 427 0.997300
1413109898780 9761 READING 442 0.996668
1413109899411 9761 READING 442 0.997054
1413109899665 9761 FUNCTION lru lambda h: 0.918684 * (h ** 0.0147212)
1413109899665 9760 FUNCTION lru lambda h: 0.473816 * (h ** 0.0827118)
1413109899665 9761 RECOMMEND 852
1413109899665 9760 RECOMMEND 852
1413109899729 9760 READING 419 0.979432
1413109899940 9761 READING 458 0.996440
1413109900520 9761 READING 458 0.997338
1413109901288 9761 READING 474 0.997603
1413109901473 9760 READING 417 0.976368
1413109902002 9761 READING 474 0.996955
1413109902729 9761 READING 489 0.997429
1413109903136 9760 READING 419 0.971977
1413109903335 9761 READING 490 0.997002
1413109903983 9761 READING 506 0.997273
1413109904721 9761 READING 506 0.997445
1413109905068 9760 READING 417 0.975228
1413109905361 9761 READING 520 0.997158
1413109905981 9761 READING 521 0.997170
1413109906786 9761 READING 538 0.997682
1413109906945 9760 READING 419 0.974698
1413109907626 9761 READING 538 0.997573
1413109908369 9761 READING 554 0.997419
1413109908964 9760 READING 421 0.982043
1413109909041 9761 READING 555 0.996627
1413109909274 9760 READING 421 0.913305
1413109909432 9760 READING 422 0.819175
1413109909587 9760 READING 423 0.825640
1413109909665 9761 FUNCTION lru lambda h: 0.924603 * (h ** 0.0132909)
1413109909666 9760 FUNCTION lru lambda h: 0.46186 * (h ** 0.0889018)
1413109909666 9761 RECOMMEND 852
1413109909666 9760 RECOMMEND 852
1413109909913 9761 READING 572 0.997260
1413109910780 9760 READING 430 0.979582
1413109910799 9761 READING 572 0.997948
1413109911624 9761 READING 574 0.998421
1413109912292 9761 READING 575 0.998177
1413109912872 9760 READING 431 0.986526
1413109913094 9761 READING 576 0.998598
1413109913847 9761 READING 576 0.998245
1413109914564 9761 READING 576 0.998394
1413109914871 9760 READING 437 0.984510
1413109915389 9761 READING 576 0.998652
1413109916277 9761 READING 576 0.998865
1413109916751 9760 READING 438 0.981543
1413109917020 9761 READING 575 0.998342
1413109917719 9761 READING 575 0.998278
1413109918619 9761 READING 575 0.998637
1413109918979 9760 READING 439 0.983550
1413109919537 9761 READING 576 0.998775
1413109919666 9761 FUNCTION lru lambda h: 0.926509 * (h ** 0.0128394)
1413109919666 9760 FUNCTION lru lambda h: 0.438843 * (h ** 0.101125)
1413109919666 9761 RECOMMEND 852
1413109919666 9760 RECOMMEND 852
1413109920365 9761 READING 576 0.998675
1413109920934 9760 READING 441 0.974875
1413109921090 9761 READING 576 0.998227
1413109921919 9761 READING 576 0.998585
1413109922635 9761 READING 576 0.998259
1413109922998 9760 READING 440 0.982639
1413109923357 9761 READING 576 0.998565
1413109924212 9761 READING 576 0.998500
1413109925042 9760 READING 442 0.976364
1413109925098 9761 READING 576 0.998632
1413109925792 9761 READING 576 0.998160
1413109926553 9761 READING 576 0.998167
1413109927311 9760 READING 444 0.971873
1413109927439 9761 READING 576 0.998573
1413109928355 9761 READING 576 0.998705
1413109928508 9760 READING 444 0.967450
1413109928691 9760 READING 449 0.809063
1413109928883 9760 READING 453 0.771907
1413109929092 9761 READING 576 0.998302
1413109929666 9761 FUNCTION lru lambda h: 0.926527 * (h ** 0.012835)
1413109929666 9760 FUNCTION lru lambda h: 0.42635 * (h ** 0.107997)
1413109929666 9761 RECOMMEND 852
1413109929666 9760 RECOMMEND 852
1413109929845 9761 READING 576 0.998288
1413109930472 9760 READING 461 0.980996
1413109930649 9761 READING 576 0.998728
1413109931359 9761 READING 576 0.998478
1413109932128 9761 READING 576 0.998764
1413109932539 9760 READING 463 0.984227
1413109932980 9761 READING 576 0.998420
1413109933826 9761 READING 576 0.998458
1413109934498 9761 READING 576 0.997962
1413109935293 9760 READING 466 0.985921
1413109935364 9761 READING 576 0.998584
1413109936201 9761 READING 576 0.998477
1413109937096 9761 READING 576 0.998708
1413109937713 9760 READING 469 0.982195
1413109937812 9761 READING 576 0.998305
1413109938629 9761 READING 576 0.998341
1413109939404 9761 READING 576 0.998290
1413109939666 9761 FUNCTION lru lambda h: 0.926533 * (h ** 0.0128336)
1413109939666 9760 FUNCTION lru lambda h: 0.413676 * (h ** 0.115026)
1413109939666 9761 RECOMMEND 852
1413109939666 9760 RECOMMEND 852
1413109940090 9761 READING 577 0.998107
1413109940241 9760 READING 467 0.982044
1413109940904 9761 READING 577 0.998613
1413109941760 9761 READING 577 0.998817
1413109942602 9760 READING 470 0.984684
1413109942603 9761 READING 577 0.998430
1413109943280 9761 READING 577 0.998480
1413109944150 9761 READING 577 0.998714
1413109944930 9760 READING 472 0.978370
1413109945033 9761 READING 577 0.998497
1413109945891 9761 READING 577 0.998724
1413109946547 9761 READING 577 0.997993
1413109947327 9761 READING 577 0.998563
1413109948196 9761 READING 577 0.997712
1413109948222 9760 READING 473 0.803890
1413109948886 9761 READING 577 0.997877
1413109948980 9760 READING 496 0.969438
1413109949169 9760 READING 496 0.886594
1413109949666 9761 FUNCTION lru lambda h: 0.926974 * (h ** 0.0127293)
1413109949666 9760 FUNCTION lru lambda h: 0.40488 * (h ** 0.119994)
1413109949666 9761 RECOMMEND 852
1413109949666 9760 RECOMMEND 852
1413109949761 9760 READING 500 0.982775
1413109949775 9761 READING 577 0.998610
1413109950668 9761 READING 577 0.998857
1413109951386 9761 READING 577 0.998408
1413109952081 9761 READING 577 0.998328
1413109952395 9760 READING 500 0.991095
1413109952970 9761 READING 577 0.998761
1413109953887 9761 READING 577 0.998490
1413109954724 9761 READING 577 0.998533
1413109954977 9760 READING 509 0.991781
1413109955431 9761 READING 577 0.998337
1413109956266 9761 READING 577 0.998352
1413109956998 9761 READING 577 0.998118
1413109957706 9761 READING 577 0.998337
1413109957955 9760 READING 510 0.990317
1413109958575 9761 READING 577 0.998661
1413109959496 9761 READING 577 0.998646
1413109959667 9761 FUNCTION lru lambda h: 0.926939 * (h ** 0.0127377)
1413109959667 9760 FUNCTION lru lambda h: 0.397102 * (h ** 0.124371)
1413109959667 9761 RECOMMEND 852
1413109959667 9760 RECOMMEND 852
1413109960176 9761 READING 577 0.998254
1413109960587 9760 READING 509 0.986137
1413109960924 9761 READING 577 0.998421
1413109961782 9761 READING 577 0.998580
1413109962709 9761 READING 577 0.998713
1413109963342 9760 READING 511 0.987337
1413109963460 9761 READING 577 0.998215
1413109964230 9761 READING 577 0.998402
1413109965037 9761 READING 577 0.998331
1413109965757 9761 READING 577 0.998251
1413109965892 9760 READING 511 0.980960
1413109966496 9761 READING 577 0.998448
1413109967337 9761 READING 577 0.998460
1413109968177 9761 READING 577 0.998495
1413109968532 9760 READING 512 0.986100
1413109968812 9760 READING 514 0.888196
1413109968839 9761 READING 577 0.997813
1413109969033 9760 READING 515 0.836919
1413109969667 9761 FUNCTION lru lambda h: 0.926965 * (h ** 0.0127316)
1413109969667 9760 FUNCTION lru lambda h: 0.392799 * (h ** 0.126821)
1413109969667 9761 RECOMMEND 852
1413109969667 9760 RECOMMEND 852
1413109969674 9761 READING 577 0.998477
1413109970526 9761 READING 577 0.998462
1413109971270 9760 READING 524 0.986092
1413109971432 9761 READING 577 0.998618
1413109972191 9761 READING 577 0.998234
1413109973007 9761 READING 577 0.998754
1413109973784 9761 READING 577 0.998265
1413109973892 9760 READING 527 0.986497
1413109974480 9761 READING 577 0.998429
1413109975278 9761 READING 577 0.998274
1413109976126 9761 READING 577 0.998825
1413109976849 9760 READING 528 0.980869
1413109976971 9761 READING 577 0.998090
1413109977691 9761 READING 577 0.998138
1413109978537 9761 READING 577 0.998365
1413109979419 9761 READING 577 0.998607
1413109979667 9761 FUNCTION lru lambda h: 0.926945 * (h ** 0.0127361)
1413109979667 9760 FUNCTION lru lambda h: 0.386721 * (h ** 0.130292)
1413109979667 9761 RECOMMEND 852
1413109979667 9760 RECOMMEND 852
1413109979846 9760 READING 532 0.983085
1413109980295 9761 READING 577 0.998562
1413109980969 9761 READING 577 0.998307
1413109981758 9761 READING 577 0.998675
1413109982524 9761 READING 577 0.998037
1413109982693 9760 READING 533 0.986875
1413109983238 9761 READING 577 0.998365
1413109984102 9761 READING 577 0.998597
1413109984986 9761 READING 577 0.998411
1413109985408 9760 READING 535 0.982004
1413109985716 9761 READING 577 0.998489
1413109986403 9761 READING 577 0.998132
1413109987330 9761 READING 577 0.998786
1413109988074 9760 READING 540 0.987440
1413109988253 9761 READING 577 0.998527
1413109988330 9760 READING 541 0.884705
1413109988969 9760 READING 543 0.956127
1413109989080 9761 READING 577 0.998465
1413109989667 9761 FUNCTION lru lambda h: 0.926943 * (h ** 0.0127368)
1413109989667 9760 FUNCTION lru lambda h: 0.120026 * (h ** 0.330635)
1413109989667 9761 RECOMMEND 852
1413109989667 9760 RECOMMEND 852
1413109989768 9761 READING 577 0.998050
1413109990603 9761 READING 577 0.998614
1413109991331 9761 READING 577 0.998465
1413109992095 9761 READING 577 0.998615
1413109992337 9760 READING 546 0.989535
1413109992911 9761 READING 577 0.998479
1413109993850 9761 READING 577 0.998749
1413109994539 9761 READING 577 0.997973
1413109995285 9761 READING 577 0.997888
1413109995475 9760 READING 550 0.987109
1413109996157 9761 READING 577 0.998951
1413109997089 9761 READING 577 0.998673
1413109997857 9761 READING 577 0.998469
1413109998465 9760 READING 552 0.986879
1413109998660 9761 READING 577 0.998406
1413109999474 9761 READING 577 0.998102
1413109999668 9761 FUNCTION lru lambda h: 0.926956 * (h ** 0.0127337)
1413109999668 9760 FUNCTION lru lambda h: 0.0792787 * (h ** 0.40055)
1413109999668 9761 RECOMMEND 852
1413109999668 9760 RECOMMEND 852
1413110000193 9761 READING 577 0.998482
1413110000932 9761 READING 577 0.998640
1413110001568 9760 READING 552 0.990794
1413110001804 9761 READING 577 0.998389
1413110002693 9761 READING 577 0.998603
1413110003376 9761 READING 577 0.998300
1413110004182 9761 READING 577 0.998113
1413110004773 9760 READING 555 0.990441
1413110005059 9761 READING 577 0.998753
1413110005949 9761 READING 577 0.998848
1413110006648 9761 READING 577 0.998302
1413110007449 9761 READING 577 0.998572
1413110007867 9760 READING 558 0.990259
1413110008147 9760 READING 559 0.864616
1413110008317 9761 READING 577 0.998506
1413110009018 9761 READING 577 0.998532
1413110009133 9760 READING 560 0.975187
1413110009668 9761 FUNCTION lru lambda h: 0.926941 * (h ** 0.0127371)
1413110009668 9760 FUNCTION lru lambda h: 0.0524034 * (h ** 0.469308)
1413110009668 9761 RECOMMEND 852
1413110009668 9760 RECOMMEND 852
1413110009819 9761 READING 577 0.998530
1413110010684 9761 READING 577 0.998713
1413110011506 9761 READING 577 0.998057
1413110012175 9761 READING 577 0.998146
1413110012460 9760 READING 563 0.992746
1413110013031 9761 READING 577 0.998500
1413110013908 9761 READING 577 0.998727
1413110014782 9761 READING 577 0.998573
1413110015437 9761 READING 577 0.998368
1413110015935 9760 READING 566 0.989458
1413110016242 9761 READING 577 0.998206
1413110017041 9761 READING 577 0.998654
1413110017742 9761 READING 577 0.998415
1413110018559 9761 READING 577 0.998586
1413110019104 9760 READING 569 0.985647
1413110019450 9761 READING 577 0.998422
1413110019668 9761 FUNCTION lru lambda h: 0.926944 * (h ** 0.0127364)
1413110019668 9760 FUNCTION lru lambda h: 0.0476308 * (h ** 0.484911)
1413110019668 9761 RECOMMEND 852
1413110019668 9760 RECOMMEND 852
1413110020209 9761 READING 577 0.998547
1413110020950 9761 READING 577 0.998271
1413110021829 9761 READING 577 0.998630
1413110022289 9760 READING 569 0.984935
1413110022796 9761 READING 577 0.998753
1413110023622 9761 READING 577 0.998575
1413110024348 9761 READING 577 0.998308
1413110025186 9761 READING 577 0.998458
1413110025447 9760 READING 571 0.982388
1413110025983 9761 READING 577 0.982509
1413110026659 9761 READING 580 0.998607
1413110027030 9760 READING 574 0.978419
1413110027301 9760 READING 577 0.853922
1413110027484 9761 READING 579 0.998826
1413110028402 9761 READING 579 0.998865
1413110029092 9761 READING 579 0.998123
1413110029668 9761 FUNCTION lru lambda h: 0.92186 * (h ** 0.013678)
1413110029669 9760 FUNCTION lru lambda h: 0.0771951 * (h ** 0.404872)
1413110029669 9761 RECOMMEND 852
1413110029669 9760 RECOMMEND 852
1413110029806 9761 READING 579 0.998729
1413110030221 9760 READING 582 0.990251
1413110030720 9761 READING 579 0.998767
1413110031643 9761 READING 579 0.998843
1413110032395 9761 READING 579 0.998477
1413110033121 9761 READING 579 0.998309
1413110033950 9761 READING 579 0.998834
1413110034076 9760 READING 584 0.990374
1413110034638 9761 READING 579 0.997858
1413110035357 9761 READING 579 0.998150
1413110036181 9761 READING 577 0.998329
1413110037071 9761 READING 578 0.998348
1413110037440 9760 READING 588 0.987162
1413110037815 9761 READING 577 0.998094
1413110038601 9761 READING 578 0.997895
1413110039467 9761 READING 578 0.998672
1413110039669 9761 FUNCTION lru lambda h: 0.93211 * (h ** 0.0116949)
1413110039669 9760 FUNCTION lru lambda h: 0.0652466 * (h ** 0.432159)
1413110039669 9761 RECOMMEND 852
1413110039669 9760 RECOMMEND 852
1413110040363 9761 READING 578 0.998497
1413110041102 9761 READING 577 0.998078
1413110041136 9760 READING 590 0.987193
1413110041924 9761 READING 577 0.998646
1413110042779 9761 READING 578 0.998568
1413110043492 9761 READING 578 0.998126
1413110044234 9761 READING 578 0.998159
1413110044466 9760 READING 592 0.984545
1413110045058 9761 READING 578 0.998163
1413110045903 9761 READING 578 0.998208
1413110046498 9760 READING 594 0.981563
1413110046571 9761 READING 578 0.997481
1413110046775 9760 READING 599 0.899257
1413110047452 9761 READING 578 0.998399
1413110048306 9761 READING 578 0.998566
1413110049197 9761 READING 578 0.998602
1413110049669 9761 FUNCTION lru lambda h: 0.93197 * (h ** 0.0117259)
1413110049669 9760 FUNCTION lru lambda h: 0.0662838 * (h ** 0.428678)
1413110049669 9761 RECOMMEND 852
1413110049669 9760 RECOMMEND 852
1413110049847 9760 READING 600 0.989478
1413110049967 9761 READING 577 0.998427
1413110050756 9761 READING 578 0.998247
1413110051525 9761 READING 578 0.998541
1413110052243 9761 READING 579 0.997865
1413110053046 9761 READING 579 0.998745
1413110053658 9760 READING 609 0.989932
1413110053926 9761 READING 579 0.998588
1413110054731 9761 READING 579 0.998099
1413110055422 9761 READING 578 0.998160
1413110056291 9761 READING 578 0.998734
1413110057162 9761 READING 579 0.998743
1413110057318 9760 READING 610 0.986840
1413110058024 9761 READING 579 0.998699
1413110058693 9761 READING 579 0.998345
1413110059484 9761 READING 579 0.998477
1413110059669 9761 FUNCTION lru lambda h: 0.931923 * (h ** 0.0117364)
1413110059669 9760 FUNCTION lru lambda h: 0.0569763 * (h ** 0.452789)
1413110059669 9761 RECOMMEND 852
1413110059669 9760 RECOMMEND 852
1413110060245 9761 READING 579 0.998296
1413110060941 9761 READING 579 0.998317
1413110061209 9760 READING 611 0.986379
1413110061761 9761 READING 579 0.998719
1413110062652 9761 READING 579 0.998287
1413110063387 9761 READING 579 0.998509
1413110064067 9761 READING 579 0.998031
1413110064956 9761 READING 579 0.998520
1413110065134 9760 READING 614 0.989956
1413110065853 9761 READING 579 0.998602
1413110065901 9760 READING 614 0.963035
1413110066686 9761 READING 579 0.998014
1413110067114 9760 READING 617 0.987246
1413110067375 9761 READING 579 0.998319
1413110068226 9761 READING 579 0.998461
1413110068950 9761 READING 579 0.998730
1413110069649 9761 READING 579 0.998376
1413110069670 9761 FUNCTION lru lambda h: 0.931924 * (h ** 0.0117361)
1413110069670 9760 FUNCTION lru lambda h: 0.0621207 * (h ** 0.438417)
1413110069670 9761 RECOMMEND 852
1413110069670 9760 RECOMMEND 852
1413110070472 9761 READING 579 0.998723
1413110070754 9760 READING 625 0.992705
1413110071371 9761 READING 579 0.998437
1413110072070 9761 READING 579 0.998292
1413110072799 9761 READING 579 0.998263
1413110073682 9761 READING 579 0.997611
1413110074609 9761 READING 579 0.998741
1413110074877 9760 READING 625 0.989167
1413110075362 9761 READING 579 0.998496
1413110076101 9761 READING 579 0.998497
1413110076913 9761 READING 579 0.998559
1413110077611 9761 READING 580 0.998513
1413110078334 9761 READING 580 0.998402
1413110078827 9760 READING 626 0.987978
1413110079183 9761 READING 580 0.998588
1413110079670 9761 FUNCTION lru lambda h: 0.931926 * (h ** 0.0117357)
1413110079670 9760 FUNCTION lru lambda h: 0.0635756 * (h ** 0.434404)
1413110079670 9761 RECOMMEND 852
1413110079670 9760 RECOMMEND 852
1413110080064 9761 READING 580 0.998789
1413110080740 9761 READING 580 0.998421
1413110081537 9761 READING 580 0.998618
1413110082436 9761 READING 580 0.998690
1413110082788 9760 READING 628 0.989583
1413110083392 9761 READING 580 0.998698
1413110084108 9761 READING 580 0.998053
1413110084873 9760 READING 630 0.981123
1413110084894 9761 READING 580 0.998631
1413110085173 9760 READING 631 0.949065
1413110085686 9761 READING 580 0.998588
1413110086375 9761 READING 580 0.998436
1413110087162 9761 READING 580 0.998253
1413110088010 9761 READING 580 0.998717
1413110088827 9761 READING 580 0.998537
1413110089336 9760 READING 638 0.992161
1413110089525 9761 READING 580 0.998321
1413110089670 9761 FUNCTION lru lambda h: 0.931935 * (h ** 0.0117338)
1413110089670 9760 FUNCTION lru lambda h: 0.0822653 * (h ** 0.392428)
1413110089670 9761 RECOMMEND 852
1413110089670 9760 RECOMMEND 852
1413110090399 9761 READING 580 0.998524
1413110091265 9761 READING 580 0.998680
1413110092135 9761 READING 580 0.998471
1413110092799 9761 READING 580 0.998192
1413110093608 9761 READING 580 0.998585
1413110093662 9760 READING 638 0.990346
1413110094378 9761 READING 580 0.998437
1413110095070 9761 READING 580 0.998610
1413110095903 9761 READING 580 0.998660
1413110096763 9761 READING 580 0.998681
1413110097509 9761 READING 580 0.998489
1413110097669 9760 READING 639 0.988144
1413110098202 9761 READING 580 0.998445
1413110099104 9761 READING 580 0.998786
1413110099670 9761 FUNCTION lru lambda h: 0.931918 * (h ** 0.0117377)
1413110099670 9760 FUNCTION lru lambda h: 0.227441 * (h ** 0.229532)
1413110099670 9761 RECOMMEND 852
1413110099670 9760 RECOMMEND 852
1413110100027 9761 READING 580 0.998686
1413110100868 9761 READING 580 0.998744
1413110101547 9760 READING 641 0.989408
1413110101565 9761 READING 580 0.998454
1413110102377 9761 READING 580 0.998474
1413110103109 9761 READING 580 0.998476
1413110103796 9761 READING 580 0.998308
1413110104117 9760 READING 645 0.985940
1413110104430 9760 READING 646 0.938512
1413110104670 9761 READING 580 0.998725
1413110105560 9761 READING 580 0.998814
1413110106251 9761 READING 580 0.998236
1413110107013 9761 READING 580 0.998456
1413110107905 9761 READING 580 0.998866
1413110108807 9760 READING 652 0.993473
1413110108843 9761 READING 580 0.998777
1413110109599 9761 READING 580 0.998597
1413110109670 9761 FUNCTION lru lambda h: 0.931916 * (h ** 0.0117379)
1413110109671 9760 FUNCTION lru lambda h: 0.408764 * (h ** 0.136085)
1413110109671 9761 RECOMMEND 852
1413110109671 9760 RECOMMEND 852
1413110110347 9761 READING 580 0.998462
1413110111188 9761 READING 580 0.998729
1413110111893 9761 READING 580 0.998373
1413110112635 9761 READING 580 0.998148
1413110113484 9761 READING 580 0.998131
1413110113487 9760 READING 652 0.991315
1413110114358 9761 READING 580 0.998327
1413110115034 9761 READING 580 0.998209
1413110115849 9761 READING 580 0.998647
1413110116730 9761 READING 580 0.998661
1413110117525 9760 READING 653 0.989444
1413110117681 9761 READING 580 0.998909
1413110118407 9761 READING 580 0.998246
1413110119209 9761 READING 580 0.998412
1413110119671 9761 FUNCTION lru lambda h: 0.931933 * (h ** 0.0117342)
1413110119671 9760 FUNCTION lru lambda h: 0.50467 * (h ** 0.102645)
1413110119671 9761 RECOMMEND 852
1413110119671 9760 RECOMMEND 852
1413110120047 9761 READING 580 0.998427
1413110120735 9761 READING 580 0.998168
1413110121529 9760 READING 655 0.984786
1413110121533 9761 READING 580 0.994535
1413110122364 9761 READING 580 0.998644
1413110123185 9761 READING 580 0.998427
1413110123502 9760 READING 659 0.982886
1413110123742 9760 DEATH 169
1413110123842 9761 READING 580 0.998178
1413110124677 9761 READING 580 0.998443
1413110125513 9761 READING 580 0.998207
1413110126368 9761 READING 580 0.998229
1413110127003 9761 READING 580 0.997777
1413110127770 9761 READING 580 0.998429
1413110128527 9761 READING 580 0.997945
1413110129200 9761 READING 580 0.997714
1413110129671 9761 FUNCTION lru lambda h: 0.931978 * (h ** 0.0117242)
1413110129671 9761 RECOMMEND 1704
1413110129989 9761 READING 580 0.998331
1413110130817 9761 READING 580 0.998184
1413110131547 9761 READING 580 0.997728
1413110132200 9761 READING 580 0.997552
1413110133047 9761 READING 580 0.998659
1413110133923 9761 READING 580 0.998292
1413110134727 9761 READING 580 0.997823
1413110135372 9761 READING 580 0.997860
1413110136180 9761 READING 580 0.998072
1413110136886 9761 READING 580 0.998125
1413110136920 9761 DEATH 430
