1413781863429 0 TOTAL_MEM 4940
1413781883450 17456 CREATION
1413781883450 17456 READING 9 0.987768
1413781883450 17456 MINHEAP 2
1413781883450 17456 MINHEAP 12
1413781883479 17454 CREATION
1413781883479 17454 READING 9 0.992658
1413781883479 17454 MINHEAP 2
1413781883479 17454 MINHEAP 1223
1413781883526 17454 READING 9 0.974506
1413781883551 17456 READING 9 0.985830
1413781883561 17454 READING 9 0.753745
1413781883595 17454 READING 9 0.964458
1413781883627 17456 READING 11 0.979002
1413781883690 17454 READING 11 0.968760
1413781883741 17456 READING 11 0.971914
1413781883804 17454 READING 11 0.977883
1413781883903 17454 READING 17 0.957726
1413781883997 17456 READING 15 0.980630
1413781884003 17454 READING 17 0.523747
1413781884117 17456 READING 15 0.950294
1413781884157 17454 READING 30 0.959572
1413781884248 17454 READING 31 0.910071
1413781884474 17454 READING 34 0.412441
1413781884556 17454 READING 48 0.796104
1413781884652 17454 READING 49 0.880144
1413781884733 17456 READING 24 0.932343
1413781884916 17454 READING 51 0.190623
1413781885025 17454 READING 75 0.786051
1413781885052 17456 READING 29 0.989052
1413781885286 17454 READING 75 0.372747
1413781885359 17454 READING 101 0.757694
1413781885371 17456 READING 36 0.987727
1413781885451 17454 READING 102 0.652758
1413781885589 17454 READING 103 0.605448
1413781885606 17456 READING 43 0.982722
1413781885677 17454 READING 106 0.685850
1413781885862 17456 READING 44 0.981061
1413781886028 17456 READING 45 0.943438
1413781886226 17456 READING 52 0.913671
1413781886283 17454 READING 110 0.175840
1413781886405 17454 READING 140 0.603708
1413781886469 17456 READING 52 0.963626
1413781886538 17454 READING 145 0.636445
1413781886637 17454 READING 148 0.666887
1413781886675 17456 READING 66 0.982460
1413781886773 17454 READING 158 0.645988
1413781886934 17456 READING 66 0.770099
1413781887207 17454 READING 160 0.160689
1413781887233 17456 READING 84 0.993146
1413781887369 17454 READING 194 0.561531
1413781887499 17454 READING 202 0.630919
1413781887628 17454 READING 205 0.716509
1413781887710 17456 READING 86 0.995996
1413781887822 17454 READING 208 0.665963
1413781887949 17454 READING 212 0.674277
1413781888084 17454 READING 220 0.553954
1413781888238 17454 READING 224 0.507958
1413781888611 17456 READING 95 0.996858
1413781888942 17454 READING 235 0.110358
1413781889100 17454 READING 280 0.506576
1413781889416 17456 READING 97 0.996169
1413781889616 17454 READING 286 0.129498
1413781889769 17454 READING 334 0.584377
1413781889886 17454 READING 281 0.614752
1413781890016 17454 READING 330 0.629913
1413781890134 17454 READING 332 0.685295
1413781890259 17456 READING 104 0.995750
1413781890261 17454 READING 335 0.676180
1413781890402 17454 READING 340 0.621150
1413781890553 17454 READING 343 0.454528
1413781890700 17454 READING 352 0.538814
1413781890817 17454 READING 359 0.509528
1413781891078 17456 READING 106 0.995859
1413781891565 17454 READING 367 0.092383
1413781891706 17454 READING 420 0.463451
1413781891806 17454 READING 425 0.612288
1413781891903 17456 READING 113 0.994802
1413781891931 17454 READING 423 0.568666
1413781892065 17454 READING 425 0.572610
1413781892201 17454 READING 430 0.613536
1413781892712 17456 READING 114 0.996555
1413781893020 17454 READING 430 0.103576
1413781893204 17454 READING 488 0.458453
1413781893364 17454 READING 488 0.566257
1413781893430 17456 FUNCTION lru lambda h: 0.94345 * (h ** 0.00833305)
1413781893430 17454 FUNCTION lru lambda h: 1.23009 * (h ** 0.001)
1413781893430 17456 RECOMMEND 2470
1413781893430 17454 RECOMMEND 2470
1413781893555 17454 READING 487 0.519167
1413781893575 17456 READING 120 0.997112
1413781893761 17454 READING 488 0.437246
1413781893973 17454 READING 494 0.513775
1413781894430 17456 READING 121 0.996701
1413781894869 17454 READING 496 0.115862
1413781895093 17454 READING 559 0.475072
1413781895255 17456 READING 126 0.996373
1413781895276 17454 READING 562 0.553731
1413781895454 17454 READING 563 0.599999
1413781895642 17454 READING 564 0.628142
1413781895841 17454 READING 569 0.614404
1413781896042 17454 READING 576 0.594665
1413781896169 17456 READING 126 0.995617
1413781896245 17454 READING 582 0.495653
1413781897046 17456 READING 130 0.996249
1413781897613 17454 READING 591 0.095088
1413781897892 17454 READING 656 0.373473
1413781897894 17456 READING 130 0.996840
1413781898442 17454 READING 666 0.794255
1413781898829 17456 READING 134 0.997919
1413781899149 17454 READING 665 0.837837
1413781899639 17456 READING 134 0.996770
1413781899788 17454 READING 671 0.840428
1413781900205 17454 READING 669 0.757739
1413781900606 17456 READING 137 0.997776
1413781901391 17456 READING 137 0.996717
1413781901581 17454 READING 688 0.053292
1413781901791 17454 READING 765 0.402834
1413781901995 17454 READING 772 0.604098
1413781902112 17454 READING 765 0.307238
1413781902216 17454 READING 678 0.328858
1413781902312 17456 READING 140 0.997060
1413781903117 17454 READING 753 0.042475
1413781903265 17456 READING 140 0.997675
1413781903305 17454 READING 839 0.203512
1413781903431 17456 FUNCTION lru lambda h: 0.929951 * (h ** 0.0127572)
1413781903431 17454 FUNCTION lru lambda h: 1.40654 * (h ** 0.001)
1413781903431 17456 RECOMMEND 2470
1413781903431 17454 RECOMMEND 2470
1413781903462 17454 READING 840 0.693244
1413781903855 17454 READING 842 0.897699
1413781903963 17454 READING 849 0.692722
1413781904060 17454 READING 850 0.659954
1413781904165 17454 READING 847 0.678032
1413781904240 17456 READING 143 0.998771
1413781905104 17456 READING 143 0.997833
1413781905614 17454 READING 850 0.131760
1413781905804 17454 READING 941 0.554704
1413781905968 17456 READING 146 0.998448
1413781906020 17454 READING 942 0.944091
1413781906100 17454 READING 948 0.862233
1413781906357 17454 READING 949 0.954368
1413781906479 17454 READING 942 0.897944
1413781906777 17454 READING 749 0.933757
1413781906963 17456 READING 146 0.997524
1413781907056 17454 READING 924 0.828823
1413781907216 17454 READING 796 0.731012
1413781907386 17454 READING 903 0.717659
1413781907500 17456 READING 147 0.994276
1413781907566 17454 READING 801 0.669684
1413781907750 17454 READING 890 0.695510
1413781907929 17454 READING 800 0.740450
1413781907997 17456 READING 148 0.992096
1413781908101 17454 READING 884 0.791780
1413781908292 17454 READING 891 0.728792
1413781908480 17454 READING 879 0.784373
1413781908671 17454 READING 886 0.770258
1413781908786 17456 READING 150 0.996862
1413781908855 17454 READING 880 0.858663
1413781909747 17456 READING 151 0.997351
1413781909855 17454 READING 885 0.985059
1413781910698 17456 READING 155 0.997590
1413781910875 17454 READING 886 0.963819
1413781911073 17454 READING 887 0.776578
1413781911271 17454 READING 893 0.823630
1413781911469 17454 READING 893 0.817601
1413781911676 17454 READING 899 0.829969
1413781911706 17456 READING 155 0.997378
1413781911885 17454 READING 899 0.822120
1413781912101 17454 READING 904 0.843330
1413781912320 17454 READING 905 0.835602
1413781912550 17454 READING 908 0.842581
1413781912740 17456 READING 159 0.996926
1413781912930 17454 READING 910 0.904568
1413781913348 17454 READING 911 0.923234
1413781913431 17456 FUNCTION lru lambda h: 0.925915 * (h ** 0.0140348)
1413781913431 17454 FUNCTION lru lambda h: 0.577838 * (h ** 0.001)
1413781913431 17456 RECOMMEND 2470
1413781913431 17454 RECOMMEND 2470
1413781913541 17454 READING 914 0.796944
1413781913819 17456 READING 159 0.995642
1413781914771 17456 READING 162 0.995165
1413781915377 17454 READING 920 0.092099
1413781915624 17454 READING 1007 0.573375
1413781915756 17456 READING 162 0.996936
1413781915799 17454 READING 1029 0.807098
1413781915984 17454 READING 1034 0.787353
1413781916175 17454 READING 1036 0.809989
1413781916373 17454 READING 1038 0.787844
1413781916585 17454 READING 1041 0.785215
1413781916815 17454 READING 1044 0.746203
1413781916852 17456 READING 165 0.997447
1413781917052 17454 READING 1054 0.781069
1413781917293 17454 READING 1055 0.791080
1413781917920 17456 READING 166 0.996242
1413781919041 17456 READING 168 0.997019
1413781920134 17456 READING 169 0.997070
1413781920544 17454 READING 1068 0.983939
1413781921249 17456 READING 172 0.997241
1413781922350 17456 READING 172 0.997526
1413781923431 17456 FUNCTION lru lambda h: 0.924896 * (h ** 0.0143453)
1413781923431 17454 FUNCTION lru lambda h: 0.194793 * (h ** 0.16416)
1413781923431 17456 RECOMMEND 2470
1413781923431 17454 RECOMMEND 2470
1413781923448 17456 READING 175 0.998136
1413781923911 17454 READING 1072 0.983448
1413781924576 17456 READING 175 0.997751
1413781925629 17456 READING 178 0.998125
1413781926107 17456 READING 178 0.993244
1413781926719 17456 READING 180 0.995620
1413781927138 17454 READING 1084 0.979812
1413781927869 17456 READING 181 0.997223
1413781929042 17456 READING 185 0.997858
1413781930209 17456 READING 185 0.997440
1413781930407 17454 READING 1087 0.978684
1413781931423 17456 READING 187 0.998109
1413781932614 17456 READING 188 0.997599
1413781933431 17456 FUNCTION lru lambda h: 0.924603 * (h ** 0.0144321)
1413781933431 17454 FUNCTION lru lambda h: 0.113771 * (h ** 0.249375)
1413781933431 17456 RECOMMEND 2470
1413781933431 17454 RECOMMEND 2470
1413781933831 17454 READING 1086 0.978800
1413781933838 17456 READING 191 0.998041
1413781935071 17456 READING 191 0.996822
1413781936305 17456 READING 193 0.997868
1413781937384 17454 READING 1091 0.980398
1413781937544 17456 READING 193 0.997500
1413781938783 17456 READING 196 0.997946
1413781940034 17456 READING 196 0.997719
1413781940891 17454 READING 1088 0.979212
1413781941321 17456 READING 199 0.997223
1413781942605 17456 READING 199 0.997560
1413781943431 17456 FUNCTION lru lambda h: 0.924638 * (h ** 0.0144221)
1413781943431 17454 FUNCTION lru lambda h: 0.0863326 * (h ** 0.293927)
1413781943431 17456 RECOMMEND 2470
1413781943431 17454 RECOMMEND 2470
1413781943665 17456 READING 202 0.996452
1413781944214 17456 READING 202 0.991831
1413781944533 17454 READING 1091 0.967273
1413781945207 17456 READING 204 0.996511
1413781946524 17456 READING 205 0.997808
1413781947878 17456 READING 209 0.998350
1413781948093 17454 READING 1095 0.978490
1413781949220 17456 READING 210 0.997566
1413781950608 17456 READING 213 0.998154
1413781951645 17454 READING 1097 0.977536
1413781951921 17456 READING 203 0.997376
1413781953171 17456 READING 194 0.998250
1413781953432 17456 FUNCTION lru lambda h: 0.925235 * (h ** 0.0142525)
1413781953432 17454 FUNCTION lru lambda h: 0.0572975 * (h ** 0.35734)
1413781953432 17456 RECOMMEND 2470
1413781953432 17454 RECOMMEND 2470
1413781954377 17456 READING 186 0.995593
1413781955309 17454 READING 1101 0.979491
1413781955512 17456 READING 178 0.994475
1413781956640 17456 READING 181 0.997739
1413781957743 17456 READING 174 0.997498
1413781958783 17456 READING 166 0.997944
1413781958885 17454 READING 1104 0.973167
1413781959792 17456 READING 159 0.997418
1413781960833 17456 READING 153 0.901866
1413781961460 17456 READING 149 0.996364
1413781961821 17456 READING 153 0.984586
1413781962154 17456 READING 161 0.991633
1413781962380 17454 READING 1108 0.977758
1413781963204 17456 READING 168 0.997455
1413781963432 17456 FUNCTION lru lambda h: 0.9264 * (h ** 0.0138199)
1413781963432 17454 FUNCTION lru lambda h: 0.0414454 * (h ** 0.408111)
1413781963432 17456 RECOMMEND 2470
1413781963432 17454 RECOMMEND 2470
1413781964287 17456 READING 172 0.997676
1413781965438 17456 READING 182 0.998288
1413781966181 17454 READING 1112 0.976904
1413781966621 17456 READING 185 0.998337
1413781967816 17456 READING 190 0.998756
1413781969030 17456 READING 194 0.998234
1413781969893 17454 READING 1116 0.977267
1413781970247 17456 READING 194 0.998539
1413781971473 17456 READING 197 0.998044
1413781972689 17456 READING 197 0.997195
1413781973432 17456 FUNCTION lru lambda h: 0.92607 * (h ** 0.013917)
1413781973432 17454 FUNCTION lru lambda h: 0.0267167 * (h ** 0.474898)
1413781973432 17456 RECOMMEND 2470
1413781973432 17454 RECOMMEND 2470
1413781973747 17454 READING 1121 0.976844
1413781973960 17456 READING 201 0.998429
1413781975217 17456 READING 201 0.997810
1413781976486 17456 READING 204 0.998244
1413781977457 17454 READING 1125 0.976481
1413781977767 17456 READING 204 0.998250
1413781978931 17456 READING 207 0.997206
1413781979358 17456 READING 207 0.990734
1413781980134 17456 READING 210 0.996614
1413781981469 17456 READING 211 0.996571
1413781982739 17454 READING 1130 0.651203
1413781982816 17456 READING 218 0.997925
1413781983432 17456 FUNCTION lru lambda h: 0.926233 * (h ** 0.013872)
1413781983432 17454 FUNCTION lru lambda h: 0.0102684 * (h ** 0.617951)
1413781983432 17456 RECOMMEND 2470
1413781983432 17454 RECOMMEND 2470
1413781984198 17456 READING 218 0.997637
1413781985603 17456 READING 223 0.995701
1413781986434 17454 READING 1230 0.968076
1413781987044 17456 READING 224 0.997288
1413781988502 17456 READING 229 0.998279
1413781989953 17456 READING 229 0.997319
1413781990227 17454 READING 1232 0.989899
1413781991445 17456 READING 235 0.998201
1413781992929 17456 READING 235 0.997759
1413781993432 17456 FUNCTION lru lambda h: 0.92659 * (h ** 0.0137757)
1413781993433 17454 FUNCTION lru lambda h: 0.00548405 * (h ** 0.711684)
1413781993433 17456 RECOMMEND 2470
1413781993433 17454 RECOMMEND 2470
1413781994073 17454 READING 1239 0.988990
1413781994464 17456 READING 240 0.997813
1413781995993 17456 READING 240 0.997879
1413781996735 17456 READING 244 0.994563
1413781997605 17456 READING 244 0.993965
1413781997801 17454 READING 1241 0.986467
1413781999222 17456 READING 251 0.997639
1413782000829 17456 READING 251 0.998292
1413782001626 17454 READING 1239 0.985744
1413782002499 17456 READING 257 0.998450
1413782003433 17456 FUNCTION lru lambda h: 0.92724 * (h ** 0.013605)
1413782003433 17454 FUNCTION lru lambda h: 0.00654463 * (h ** 0.685937)
1413782003433 17456 RECOMMEND 2470
1413782003433 17454 RECOMMEND 2470
1413782004116 17456 READING 258 0.997727
1413782005341 17454 READING 1148 0.981100
1413782005831 17456 READING 262 0.998524
1413782007525 17456 READING 263 0.998047
1413782009118 17454 READING 1231 0.983780
1413782009238 17456 READING 267 0.997484
1413782010956 17456 READING 267 0.997930
1413782012686 17456 READING 272 0.997837
1413782012720 17454 READING 1164 0.981123
1413782013433 17456 FUNCTION lru lambda h: 0.927991 * (h ** 0.0134117)
1413782013433 17454 FUNCTION lru lambda h: 0.00532673 * (h ** 0.717097)
1413782013433 17456 RECOMMEND 2470
1413782013433 17454 RECOMMEND 2470
1413782013955 17456 READING 272 0.993483
1413782014744 17456 READING 277 0.991734
1413782016549 17456 READING 277 0.997394
1413782016716 17454 READING 1222 0.981979
1413782018436 17456 READING 285 0.998362
1413782020276 17456 READING 287 0.997994
1413782020457 17454 READING 1228 0.980952
1413782022219 17456 READING 294 0.998308
1413782023433 17456 FUNCTION lru lambda h: 0.929105 * (h ** 0.0131292)
1413782023433 17454 FUNCTION lru lambda h: 0.00261789 * (h ** 0.82159)
1413782023433 17456 RECOMMEND 2470
1413782023433 17454 RECOMMEND 2470
1413782024129 17456 READING 294 0.998287
1413782024729 17454 READING 1229 0.981277
1413782026082 17456 READING 299 0.998463
1413782028011 17456 READING 300 0.997627
1413782028519 17454 READING 1229 0.978656
1413782029999 17456 READING 306 0.998477
1413782031391 17456 READING 306 0.997240
1413782032212 17454 READING 1231 0.975466
1413782032484 17456 READING 311 0.993899
1413782033433 17456 FUNCTION lru lambda h: 0.930313 * (h ** 0.0128287)
1413782033433 17454 FUNCTION lru lambda h: 0.00170201 * (h ** 0.884727)
1413782033434 17456 RECOMMEND 2470
1413782033434 17454 RECOMMEND 2470
1413782034516 17456 READING 311 0.998072
1413782036174 17454 READING 1234 0.979189
1413782036619 17456 READING 318 0.997780
1413782038689 17456 READING 319 0.997551
1413782040309 17454 READING 1237 0.976682
1413782040840 17456 READING 326 0.998021
1413782042966 17456 READING 326 0.997890
1413782043434 17456 FUNCTION lru lambda h: 0.930984 * (h ** 0.0126636)
1413782043434 17454 FUNCTION lru lambda h: 0.001 * (h ** 0.991542)
1413782043434 17456 RECOMMEND 2470
1413782043434 17454 RECOMMEND 2470
1413782044223 17454 READING 1243 0.975121
1413782045166 17456 READING 332 0.998323
1413782047344 17456 READING 333 0.998267
1413782048383 17454 READING 1248 0.977463
1413782048897 17456 READING 338 0.997500
1413782050295 17456 READING 338 0.996856
1413782052259 17454 READING 1253 0.975691
1413782052592 17456 READING 345 0.998506
1413782053434 17456 FUNCTION lru lambda h: 0.932051 * (h ** 0.0124032)
1413782053434 17454 FUNCTION lru lambda h: 0.001 * (h ** 0.999)
1413782053434 17456 RECOMMEND 2470
1413782053434 17454 RECOMMEND 2470
1413782054869 17456 READING 345 0.998019
1413782056535 17454 READING 1258 0.977796
1413782057206 17456 READING 352 0.998311
1413782059507 17456 READING 352 0.998349
1413782060482 17454 READING 1261 0.975291
1413782061890 17456 READING 357 0.998057
1413782063434 17456 FUNCTION lru lambda h: 0.922899 * (h ** 0.0142678)
1413782063434 17454 FUNCTION lru lambda h: 0.001 * (h ** 0.999)
1413782063434 17456 RECOMMEND 2470
1413782063434 17454 RECOMMEND 2470
1413782064223 17456 READING 357 0.997937
1413782064759 17454 READING 1266 0.977207
1413782066150 17456 READING 363 0.998180
1413782067426 17456 READING 363 0.991488
1413782068565 17454 READING 1268 0.972969
1413782069881 17456 READING 369 0.998580
1413782072317 17456 READING 369 0.998025
1413782072942 17454 READING 1273 0.978121
1413782073434 17456 FUNCTION lru lambda h: 0.912761 * (h ** 0.0163292)
1413782073434 17454 FUNCTION lru lambda h: 0.001 * (h ** 0.999)
1413782073434 17456 RECOMMEND 2470
1413782073434 17454 RECOMMEND 2470
1413782074846 17456 READING 378 0.998554
1413782077335 17456 READING 378 0.997953
1413782079499 17454 READING 1273 0.676186
1413782079780 17456 READING 384 0.998547
1413782082321 17456 READING 385 0.998197
1413782083435 17456 FUNCTION lru lambda h: 0.912061 * (h ** 0.0164042)
1413782083435 17454 FUNCTION lru lambda h: 0.001 * (h ** 0.999)
1413782083435 17456 RECOMMEND 2470
1413782083435 17454 RECOMMEND 2470
1413782083831 17456 READING 392 0.941593
1413782084206 17454 READING 1389 0.963425
1413782085988 17456 READING 400 0.997953
1413782088556 17454 READING 1389 0.987158
1413782088682 17456 READING 408 0.998853
1413782091314 17456 READING 408 0.999110
1413782093435 17456 FUNCTION lru lambda h: 0.928871 * (h ** 0.0128098)
1413782093435 17454 FUNCTION lru lambda h: 0.001 * (h ** 0.999)
1413782093435 17456 RECOMMEND 2470
1413782093435 17454 RECOMMEND 2470
1413782093866 17456 READING 415 0.999038
1413782096404 17456 READING 416 0.999014
1413782099004 17456 READING 423 0.999132
1413782100602 17456 READING 423 0.996637
1413782101479 17454 READING 1398 0.992424
1413782102780 17456 READING 429 0.998083
1413782103435 17456 FUNCTION lru lambda h: 0.994199 * (h ** 0.001)
1413782103435 17454 FUNCTION lru lambda h: 0.001 * (h ** 0.999)
1413782103435 17456 RECOMMEND 2470
1413782103435 17454 RECOMMEND 2470
1413782105439 17456 READING 430 0.998542
1413782108134 17456 READING 438 0.998831
1413782110849 17456 READING 438 0.998455
1413782113435 17456 FUNCTION lru lambda h: 0.99259 * (h ** 0.001)
1413782113435 17454 FUNCTION lru lambda h: 0.001 * (h ** 0.999)
1413782113435 17456 RECOMMEND 2470
1413782113435 17454 RECOMMEND 2470
1413782113592 17456 READING 446 0.998603
1413782115103 17454 READING 1400 0.992873
1413782116376 17456 READING 446 0.998505
1413782117647 17456 READING 453 0.995458
1413782120463 17456 READING 453 0.998241
1413782122393 17454 READING 1400 0.986133
1413782123064 17454 READING 1402 0.873136
1413782123406 17456 READING 463 0.998543
1413782123435 17456 FUNCTION lru lambda h: 0.99165 * (h ** 0.001)
1413782123436 17454 FUNCTION lru lambda h: 0.001 * (h ** 0.999)
1413782123436 17456 RECOMMEND 2470
1413782123436 17454 RECOMMEND 2470
1413782123545 17454 READING 1416 0.783676
1413782123881 17454 READING 1428 0.710404
1413782124213 17454 READING 1466 0.744012
1413782124544 17454 READING 1483 0.727836
1413782124886 17454 READING 1511 0.755622
1413782125236 17454 READING 1521 0.744225
1413782126526 17456 READING 465 0.998485
1413782127530 17454 READING 1553 0.967712
1413782129660 17456 READING 473 0.998055
1413782132583 17454 READING 1557 0.984317
1413782132781 17456 READING 474 0.998456
1413782133436 17456 FUNCTION lru lambda h: 0.989477 * (h ** 0.00123944)
1413782133436 17454 FUNCTION lru lambda h: 0.001 * (h ** 0.999)
1413782133436 17456 RECOMMEND 2470
1413782133436 17454 RECOMMEND 2470
1413782134427 17456 READING 482 0.995714
1413782137634 17456 READING 483 0.998559
1413782137851 17454 READING 1543 0.985052
1413782140905 17456 READING 494 0.997568
1413782142950 17454 READING 1559 0.982823
1413782143436 17456 FUNCTION lru lambda h: 0.988435 * (h ** 0.00142485)
1413782143436 17454 FUNCTION lru lambda h: 0.001 * (h ** 0.999)
1413782143436 17456 RECOMMEND 2470
1413782143436 17454 RECOMMEND 2470
1413782144170 17456 READING 495 0.998311
1413782147471 17456 READING 505 0.998533
1413782148627 17454 READING 1547 0.983348
1413782150820 17456 READING 506 0.998202
1413782152997 17456 DEATH 192
1413782153436 17454 FUNCTION lru lambda h: 0.001 * (h ** 0.999)
1413782153436 17454 RECOMMEND 4940
1413782154486 17454 READING 1559 0.871115
1413782159571 17454 READING 1512 0.996054
1413782163436 17454 FUNCTION lru lambda h: 0.001 * (h ** 0.999)
1413782163436 17454 RECOMMEND 4940
1413782164542 17454 READING 1521 0.994246
1413782169731 17454 READING 1544 0.993202
1413782173437 17454 FUNCTION lru lambda h: 0.00115115 * (h ** 0.935903)
1413782173437 17454 RECOMMEND 4940
1413782175027 17454 READING 1553 0.992088
1413782180586 17454 READING 1560 0.991271
1413782183437 17454 FUNCTION lru lambda h: 0.00120102 * (h ** 0.929619)
1413782183437 17454 RECOMMEND 4940
1413782185964 17454 READING 1563 0.989832
1413782191770 17454 READING 1548 0.989605
1413782193437 17454 FUNCTION lru lambda h: 0.00271366 * (h ** 0.814237)
1413782193437 17454 RECOMMEND 4940
1413782197302 17454 READING 1397 0.988017
1413782203098 17454 READING 1531 0.987478
1413782203437 17454 FUNCTION lru lambda h: 0.0314263 * (h ** 0.470476)
1413782203437 17454 RECOMMEND 4940
1413782208860 17454 READING 1426 0.986132
1413782213437 17454 FUNCTION lru lambda h: 0.0322559 * (h ** 0.466912)
1413782213437 17454 RECOMMEND 4940
1413782214606 17454 READING 1528 0.985166
1413782220341 17454 READING 1533 0.983930
1413782223438 17454 FUNCTION lru lambda h: 0.0307493 * (h ** 0.473556)
1413782223438 17454 RECOMMEND 4940
1413782226073 17454 READING 1536 0.983073
1413782231924 17454 READING 1539 0.982405
1413782233438 17454 FUNCTION lru lambda h: 0.0460654 * (h ** 0.417206)
1413782233438 17454 RECOMMEND 4940
1413782237465 17454 READING 1544 0.980806
1413782243096 17454 READING 1552 0.978976
1413782243438 17454 FUNCTION lru lambda h: 0.0529981 * (h ** 0.397823)
1413782243438 17454 RECOMMEND 4940
1413782248797 17454 READING 1563 0.979902
1413782253438 17454 FUNCTION lru lambda h: 0.0531349 * (h ** 0.39745)
1413782253438 17454 RECOMMEND 4940
1413782254412 17454 READING 1570 0.978845
1413782260084 17454 READING 1581 0.979665
1413782263438 17454 FUNCTION lru lambda h: 0.0496351 * (h ** 0.406745)
1413782263438 17454 RECOMMEND 4940
1413782265801 17454 READING 1586 0.979316
1413782271972 17454 READING 1597 0.980848
1413782273439 17454 FUNCTION lru lambda h: 0.0395044 * (h ** 0.43844)
1413782273439 17454 RECOMMEND 4940
1413782278363 17454 READING 1599 0.980933
1413782283439 17454 FUNCTION lru lambda h: 0.0390922 * (h ** 0.43982)
1413782283439 17454 RECOMMEND 4940
1413782284815 17454 READING 1610 0.981072
1413782293439 17454 FUNCTION lru lambda h: 0.0398503 * (h ** 0.437088)
1413782293439 17454 RECOMMEND 4940
1413782300168 17454 READING 1610 0.988431
1413782303439 17454 FUNCTION lru lambda h: 0.039775 * (h ** 0.43736)
1413782303439 17454 RECOMMEND 4940
1413782313439 17454 FUNCTION lru lambda h: 0.039775 * (h ** 0.43736)
1413782313439 17454 RECOMMEND 4940
1413782314559 17454 READING 1598 0.993387
1413782315399 17454 READING 1620 0.879715
1413782315823 17454 READING 1603 0.776738
1413782316262 17454 READING 1626 0.768381
1413782316706 17454 READING 1661 0.794507
1413782317150 17454 READING 1673 0.837008
1413782317176 17454 DEATH 214
