F S UID        PID  PPID  C PRI  NI ADDR SZ WCHAN    RSS PSR STIME TTY          TIME CMD
4 S root         1     0  0  80   0 -  8472 poll_s  3200   1 Oct07 ?        00:00:00 /sbin/init
1 S root         2     0  0  80   0 -     0 kthrea     0   2 Oct07 ?        00:00:00 [kthreadd]
1 S root         3     2  0  80   0 -     0 smpboo     0   0 Oct07 ?        00:00:01 [ksoftirqd/0]
1 S root         5     2  0  60 -20 -     0 worker     0   0 Oct07 ?        00:00:00 [kworker/0:0H]
1 S root         7     2  0  80   0 -     0 rcu_gp     0   3 Oct07 ?        00:04:40 [rcu_sched]
1 S root         8     2  0  80   0 -     0 rcu_no     0   2 Oct07 ?        00:02:36 [rcuos/0]
1 S root         9     2  0  80   0 -     0 rcu_no     0   3 Oct07 ?        00:02:33 [rcuos/1]
1 S root        10     2  0  80   0 -     0 rcu_no     0   3 Oct07 ?        00:02:33 [rcuos/2]
1 S root        11     2  0  80   0 -     0 rcu_no     0   0 Oct07 ?        00:03:49 [rcuos/3]
1 S root        12     2  0  80   0 -     0 rcu_gp     0   0 Oct07 ?        00:00:00 [rcu_bh]
1 S root        13     2  0  80   0 -     0 rcu_no     0   0 Oct07 ?        00:00:00 [rcuob/0]
1 S root        14     2  0  80   0 -     0 rcu_no     0   0 Oct07 ?        00:00:00 [rcuob/1]
1 S root        15     2  0  80   0 -     0 rcu_no     0   0 Oct07 ?        00:00:00 [rcuob/2]
1 S root        16     2  0  80   0 -     0 rcu_no     0   0 Oct07 ?        00:00:00 [rcuob/3]
1 S root        17     2  0 -40   - -     0 smpboo     0   0 Oct07 ?        00:00:01 [migration/0]
5 S root        18     2  0 -40   - -     0 smpboo     0   0 Oct07 ?        00:00:00 [watchdog/0]
5 S root        19     2  0 -40   - -     0 smpboo     0   1 Oct07 ?        00:00:00 [watchdog/1]
1 S root        20     2  0 -40   - -     0 smpboo     0   1 Oct07 ?        00:00:01 [migration/1]
1 S root        21     2  0  80   0 -     0 smpboo     0   1 Oct07 ?        00:00:01 [ksoftirqd/1]
1 S root        23     2  0  60 -20 -     0 worker     0   1 Oct07 ?        00:00:00 [kworker/1:0H]
5 S root        24     2  0 -40   - -     0 smpboo     0   2 Oct07 ?        00:00:00 [watchdog/2]
1 S root        25     2  0 -40   - -     0 smpboo     0   2 Oct07 ?        00:00:01 [migration/2]
1 S root        26     2  0  80   0 -     0 smpboo     0   2 Oct07 ?        00:00:01 [ksoftirqd/2]
1 S root        28     2  0  60 -20 -     0 worker     0   2 Oct07 ?        00:00:00 [kworker/2:0H]
5 S root        29     2  0 -40   - -     0 smpboo     0   3 Oct07 ?        00:00:00 [watchdog/3]
1 S root        30     2  0 -40   - -     0 smpboo     0   3 Oct07 ?        00:00:01 [migration/3]
1 S root        31     2  0  80   0 -     0 smpboo     0   3 Oct07 ?        00:00:01 [ksoftirqd/3]
1 S root        33     2  0  60 -20 -     0 worker     0   3 Oct07 ?        00:00:00 [kworker/3:0H]
1 S root        34     2  0  60 -20 -     0 rescue     0   3 Oct07 ?        00:00:00 [khelper]
5 S root        35     2  0  80   0 -     0 devtmp     0   1 Oct07 ?        00:00:00 [kdevtmpfs]
1 S root        36     2  0  60 -20 -     0 rescue     0   3 Oct07 ?        00:00:00 [netns]
1 S root        37     2  0  60 -20 -     0 rescue     0   3 Oct07 ?        00:00:00 [writeback]
1 S root        38     2  0  60 -20 -     0 rescue     0   1 Oct07 ?        00:00:00 [kintegrityd]
1 S root        39     2  0  60 -20 -     0 rescue     0   1 Oct07 ?        00:00:00 [bioset]
1 S root        41     2  0  60 -20 -     0 rescue     0   2 Oct07 ?        00:00:00 [kblockd]
1 S root        42     2  0  60 -20 -     0 rescue     0   2 Oct07 ?        00:00:00 [ata_sff]
1 S root        43     2  0  80   0 -     0 hub_th     0   0 Oct07 ?        00:00:00 [khubd]
1 S root        44     2  0  60 -20 -     0 rescue     0   2 Oct07 ?        00:00:00 [md]
1 S root        45     2  0  60 -20 -     0 rescue     0   3 Oct07 ?        00:00:00 [devfreq_wq]
1 S root        48     2  0  80   0 -     0 watchd     0   2 Oct07 ?        00:00:00 [khungtaskd]
1 S root        49     2  0  80   0 -     0 kswapd     0   3 Oct07 ?        00:00:00 [kswapd0]
1 S root        50     2  0  85   5 -     0 ksm_sc     0   3 Oct07 ?        00:00:00 [ksmd]
1 S root        51     2  0  99  19 -     0 khugep     0   3 Oct07 ?        00:00:07 [khugepaged]
1 S root        52     2  0  80   0 -     0 fsnoti     0   2 Oct07 ?        00:00:00 [fsnotify_mark]
1 S root        53     2  0  80   0 -     0 ecrypt     0   3 Oct07 ?        00:00:00 [ecryptfs-kthrea]
1 S root        54     2  0  60 -20 -     0 rescue     0   3 Oct07 ?        00:00:00 [crypto]
1 S root        66     2  0  60 -20 -     0 rescue     0   3 Oct07 ?        00:00:00 [kthrotld]
1 S root        86     2  0  60 -20 -     0 rescue     0   1 Oct07 ?        00:00:00 [deferwq]
1 S root        87     2  0  60 -20 -     0 rescue     0   1 Oct07 ?        00:00:00 [charger_manager]
1 S root        93     2  0  80   0 -     0 worker     0   3 Oct07 ?        00:02:31 [kworker/3:1]
1 S root       135     2  0  60 -20 -     0 rescue     0   0 Oct07 ?        00:00:00 [kpsmoused]
1 S root       137     2  0  80   0 -     0 scsi_e     0   0 Oct07 ?        00:00:00 [scsi_eh_0]
1 S root       138     2  0  80   0 -     0 scsi_e     0   3 Oct07 ?        00:00:00 [scsi_eh_1]
1 S root       139     2  0  80   0 -     0 scsi_e     0   2 Oct07 ?        00:00:00 [scsi_eh_2]
1 S root       140     2  0  80   0 -     0 scsi_e     0   3 Oct07 ?        00:00:00 [scsi_eh_3]
1 S root       141     2  0  80   0 -     0 scsi_e     0   3 Oct07 ?        00:00:00 [scsi_eh_4]
1 S root       142     2  0  80   0 -     0 scsi_e     0   3 Oct07 ?        00:00:00 [scsi_eh_5]
1 S root       173     2  0  80   0 -     0 worker     0   0 Oct07 ?        00:02:35 [kworker/0:3]
1 S root       175     2  0  80   0 -     0 worker     0   1 Oct07 ?        00:02:32 [kworker/1:1]
1 S root       190     2  0  60 -20 -     0 rescue     0   2 Oct07 ?        00:00:00 [kdmflush]
1 S root       191     2  0  60 -20 -     0 rescue     0   3 Oct07 ?        00:00:00 [bioset]
1 S root       193     2  0  60 -20 -     0 rescue     0   0 Oct07 ?        00:00:00 [kdmflush]
1 S root       195     2  0  60 -20 -     0 rescue     0   0 Oct07 ?        00:00:00 [bioset]
1 S root       285     2  0  80   0 -     0 kjourn     0   3 Oct07 ?        00:00:06 [jbd2/dm-0-8]
1 S root       286     2  0  60 -20 -     0 rescue     0   3 Oct07 ?        00:00:00 [ext4-rsv-conver]
1 S root       454     1  0  80   0 -  4869 poll_s   652   1 Oct07 ?        00:00:00 upstart-udev-bridge --daemon
5 S root       459     1  0  80   0 - 12937 ep_pol  1980   0 Oct07 ?        00:00:00 /lib/systemd/systemd-udevd --daemon
1 S root       495     2  0   9   - -     0 irq_th     0   2 Oct07 ?        00:00:00 [irq/46-mei_me]
1 S root       575     2  0  60 -20 -     0 rescue     0   3 Oct07 ?        00:00:00 [kvm-irqfd-clean]
1 S root       585     2  0  60 -20 -     0 rescue     0   3 Oct07 ?        00:00:00 [kmpathd]
1 S root       586     2  0  60 -20 -     0 rescue     0   0 Oct07 ?        00:00:00 [kmpath_handlerd]
1 S root       604     2  0  60 -20 -     0 rescue     0   0 Oct07 ?        00:00:00 [hd-audio0]
1 S root       664     1  0  80   0 -  3844 poll_s   744   1 Oct07 ?        00:00:00 upstart-socket-bridge --daemon
1 S root       751     2  0  60 -20 -     0 rescue     0   3 Oct07 ?        00:00:00 [ext4-rsv-conver]
1 S root       835     2  0  80   0 -     0 kaudit     0   2 Oct07 ?        00:00:00 [kauditd]
1 S root       965     1  0  80   0 -  3819 poll_s   636   1 Oct07 ?        00:00:00 upstart-file-bridge --daemon
5 S syslog     975     1  0  80   0 - 63961 poll_s  1588   1 Oct07 ?        00:00:00 rsyslogd
5 S message+   980     1  0  80   0 -  9893 ep_pol  1712   1 Oct07 ?        00:00:00 dbus-daemon --system --fork
4 S root      1002     1  0  80   0 - 82566 poll_s  4924   3 Oct07 ?        00:00:00 /usr/sbin/ModemManager
5 S root      1018     2  0  70 -10 -     0 rfcomm     0   3 Oct07 ?        00:00:00 [krfcommd]
4 S root      1065     1  0  80   0 - 10863 ep_pol  1864   1 Oct07 ?        00:00:00 /lib/systemd/systemd-logind
5 S root      1069     1  0  80   0 - 88100 poll_s  6740   1 Oct07 ?        00:00:03 NetworkManager
4 S root      1110     1  0  80   0 - 73631 poll_s  4220   1 Oct07 ?        00:00:00 /usr/lib/policykit-1/polkitd --no-debug
4 S root      1363     1  0  80   0 -  3955 n_tty_   964   1 Oct07 tty4     00:00:00 /sbin/getty -8 38400 tty4
4 S root      1365     1  0  80   0 -  3955 n_tty_   968   1 Oct07 tty5     00:00:00 /sbin/getty -8 38400 tty5
4 S root      1372     1  0  80   0 -  3955 n_tty_   964   1 Oct07 tty2     00:00:00 /sbin/getty -8 38400 tty2
4 S root      1373     1  0  80   0 -  3955 n_tty_   964   3 Oct07 tty3     00:00:00 /sbin/getty -8 38400 tty3
4 S root      1376     1  0  80   0 -  3955 n_tty_   964   3 Oct07 tty6     00:00:00 /sbin/getty -8 38400 tty6
4 S root      1394     1  0  80   0 - 15341 poll_s  3076   3 Oct07 ?        00:00:00 /usr/sbin/sshd -D
1 S root      1408     1  0  80   0 -  1092 poll_s   696   0 Oct07 ?        00:00:00 acpid -c /etc/acpi/events -s /var/run/acpid.socket
5 S root      1444     1  0  80   0 -  4797 hrtime   740   2 Oct07 ?        00:00:11 /usr/sbin/irqbalance
1 S kernoops  1598     1  0  80   0 -  9286 poll_s  1008   2 Oct07 ?        00:00:01 /usr/sbin/kerneloops
1 S root      1619     2  0  60 -20 -     0 rescue     0   0 Oct07 ?        00:00:00 [iprt]
4 S root      1696     1  0  80   0 -  3955 n_tty_   952   2 Oct07 tty1     00:00:00 /sbin/getty -8 38400 tty1
4 S root      1718  1069  0  80   0 -  2558 poll_s  3720   3 Oct07 ?        00:00:03 /sbin/dhclient -d -sf /usr/lib/NetworkManager/nm-dhcp-client.action -pf /run/sendsigs.omit.d/network-manager.dhclient-eth0.pid -lf /var/lib/NetworkManager/dhclient-63d27ea2-92f0-4915-9141-ab66349c0799-eth0.lease -cf /var/lib/NetworkManager/dhclient-eth0.conf eth0
4 S nobody    1745  1069  0  80   0 -  7758 poll_s  1540   0 Oct07 ?        00:00:00 /usr/sbin/dnsmasq --no-resolv --keep-in-foreground --no-hosts --bind-interfaces --pid-file=/run/sendsigs.omit.d/network-manager.dnsmasq.pid --listen-address=127.0.1.1 --conf-file=/var/run/NetworkManager/dnsmasq.conf --cache-size=0 --proxy-dnssec --enable-dbus=org.freedesktop.NetworkManager.dnsmasq --conf-dir=/etc/NetworkManager/dnsmasq.d
4 S colord    1981     1  0  80   0 - 77749 poll_s  6276   1 Oct07 ?        00:00:00 /usr/lib/colord/colord
4 S root      1997     1  0  80   0 - 525657 poll_s 4204   1 Oct07 ?        00:00:00 /usr/sbin/console-kit-daemon --no-daemon
1 S callum    2359     1  0  80   0 -  6832 poll_s  1680   1 Oct07 ?        00:00:00 SCREEN
0 S callum    2360  2359  0  80   0 - 11729 sigsus  6724   3 Oct07 pts/0    00:00:00 /bin/zsh
0 S callum    2506  2360  0  80   0 - 179653 futex_ 535552 3 Oct07 pts/0    00:06:56 ./timer_comparison_many -r 10 -m ../../data/saved/min_heaps.csv --cgroupFair --daemonEqual --daemonVengerov ../../data/saved/many_input_trimmed.csv
1 S root     11521     2  0  80   0 -     0 worker     0   2 Oct08 ?        00:01:45 [kworker/2:2]
1 S root     15742     2  0  80   0 -     0 worker     0   0 12:44 ?        00:00:00 [kworker/0:1]
1 S root     16151     2  0  80   0 -     0 worker     0   2 12:57 ?        00:00:00 [kworker/2:1]
1 S root     16680     2  0  80   0 -     0 worker     0   3 13:31 ?        00:00:00 [kworker/3:2]
1 S root     17914     2  0  60 -20 -     0 worker     0   3 14:41 ?        00:00:00 [kworker/u9:1]
1 S root     20548     2  0  60 -20 -     0 worker     0   0 17:38 ?        00:00:00 [kworker/u9:2]
1 S root     21610     2  0  80   0 -     0 worker     0   0 19:02 ?        00:00:00 [kworker/u8:0]
1 S root     24518     2  0  80   0 -     0 worker     0   2 21:35 ?        00:00:00 [kworker/u8:2]
1 S root     25139     2  0  80   0 -     0 worker     0   3 22:05 ?        00:00:00 [kworker/u8:1]
0 R callum   25195  2506  0  80   0 -  4615 -       1296   1 22:10 pts/0    00:00:00 ps -elFww
1 S root     29336     2  0  80   0 -     0 worker     0   1 Oct09 ?        00:00:00 [kworker/1:0]
