1413988869957 0 TOTAL_MEM 568
1413988889985 6516 CREATION
1413988889985 6516 READING 9 0.988786
1413988889985 6516 MINHEAP 2
1413988889985 6516 MINHEAP 8
1413988890015 6515 CREATION
1413988890015 6515 READING 9 0.992512
1413988890015 6515 MINHEAP 2
1413988890015 6515 MINHEAP 276
1413988890059 6516 READING 9 0.981179
1413988890059 6515 READING 9 0.959636
1413988890086 6515 READING 9 0.959338
1413988890089 6516 READING 11 0.958790
1413988890107 6516 READING 11 0.918302
1413988890130 6515 READING 9 0.971309
1413988890248 6516 READING 15 0.833673
1413988890254 6515 READING 11 0.957395
1413988890349 6516 READING 20 0.981427
1413988890415 6515 READING 11 0.949307
1413988890415 6516 READING 24 0.974792
1413988890451 6516 READING 29 0.916107
1413988890494 6516 READING 30 0.970056
1413988890498 6515 READING 17 0.951173
1413988890546 6516 READING 30 0.974760
1413988890587 6516 READING 34 0.972827
1413988890635 6516 READING 34 0.891240
1413988890650 6515 READING 17 0.607847
1413988890698 6516 READING 38 0.984266
1413988890739 6516 READING 38 0.961191
1413988890790 6515 READING 30 0.939123
1413988890818 6516 READING 45 0.972545
1413988890917 6516 READING 45 0.981901
1413988890969 6515 READING 31 0.916825
1413988891006 6516 READING 51 0.978722
1413988891073 6516 READING 51 0.977763
1413988891122 6515 READING 34 0.379770
1413988891144 6516 READING 56 0.976658
1413988891195 6515 READING 48 0.836175
1413988891213 6516 READING 56 0.982544
1413988891313 6515 READING 50 0.931612
1413988891369 6516 READING 62 0.995647
1413988891448 6516 READING 62 0.973427
1413988891542 6516 READING 67 0.983987
1413988891635 6516 READING 67 0.986791
1413988891636 6515 READING 52 0.266840
1413988891713 6515 READING 74 0.690385
1413988891723 6516 READING 72 0.970958
1413988891828 6516 READING 72 0.990893
1413988891963 6515 READING 74 0.250728
1413988891979 6516 READING 76 0.991537
1413988892043 6515 READING 97 0.765674
1413988892113 6515 READING 100 0.816287
1413988892126 6516 READING 77 0.993257
1413988892206 6515 READING 103 0.779927
1413988892250 6516 READING 80 0.991086
1413988892367 6516 READING 81 0.989495
1413988892481 6516 READING 84 0.986936
1413988892571 6515 READING 105 0.219907
1413988892622 6516 READING 84 0.991386
1413988892689 6515 READING 136 0.670696
1413988892736 6516 READING 87 0.992306
1413988892789 6515 READING 138 0.658491
1413988892874 6516 READING 87 0.991739
1413988892890 6515 READING 142 0.740673
1413988892986 6515 READING 147 0.650007
1413988893016 6516 READING 90 0.993529
1413988893097 6515 READING 152 0.676127
1413988893154 6516 READING 90 0.992773
1413988893338 6516 READING 92 0.989097
1413988893476 6516 READING 93 0.987745
1413988893654 6516 READING 96 0.990559
1413988893698 6515 READING 157 0.102482
1413988893797 6516 READING 96 0.988194
1413988893970 6515 READING 190 0.285839
1413988893991 6516 READING 99 0.995577
1413988894153 6516 READING 99 0.993985
1413988894245 6515 READING 221 0.241050
1413988894277 6516 READING 101 0.993008
1413988894403 6516 READING 102 0.976966
1413988894535 6516 READING 104 0.993041
1413988894674 6516 READING 104 0.985897
1413988894721 6515 READING 245 0.978489
1413988894822 6516 READING 107 0.992023
1413988894997 6516 READING 108 0.993040
1413988895081 6515 READING 250 0.928868
1413988895179 6516 READING 111 0.994020
1413988895230 6515 READING 254 0.842687
1413988895393 6516 READING 111 0.994765
1413988895463 6515 READING 254 0.908847
1413988895552 6516 READING 114 0.988994
1413988895557 6515 READING 255 0.832061
1413988895728 6516 READING 114 0.993812
1413988895809 6515 READING 257 0.915617
1413988895933 6515 READING 258 0.873989
1413988895940 6516 READING 117 0.996090
1413988896105 6515 READING 260 0.825950
1413988896140 6516 READING 117 0.995813
1413988896202 6515 READING 260 0.736403
1413988896314 6515 READING 264 0.650832
1413988896314 6516 READING 119 0.994898
1413988896416 6515 READING 267 0.710458
1413988896470 6516 READING 119 0.994142
1413988896516 6515 READING 273 0.762528
1413988896623 6516 READING 122 0.995710
1413988896809 6516 READING 122 0.995720
1413988897014 6516 READING 124 0.992924
1413988897017 6515 READING 274 0.932655
1413988897121 6515 READING 277 0.667422
1413988897221 6515 READING 281 0.689625
1413988897225 6516 READING 124 0.974858
1413988897328 6515 READING 286 0.672412
1413988897422 6515 READING 288 0.765020
1413988897423 6516 READING 126 0.995874
1413988897613 6515 READING 288 0.887659
1413988897631 6516 READING 126 0.996017
1413988897837 6515 READING 289 0.900322
1413988897848 6516 READING 129 0.992798
1413988897957 6515 READING 291 0.709952
1413988898052 6515 READING 292 0.633453
1413988898078 6516 READING 129 0.995456
1413988898148 6515 READING 297 0.613290
1413988898239 6515 READING 298 0.631278
1413988898274 6516 READING 132 0.995757
1413988898338 6515 READING 302 0.614920
1413988898426 6516 READING 132 0.991582
1413988898440 6515 READING 287 0.596012
1413988898567 6516 READING 134 0.992695
1413988898742 6516 READING 134 0.993284
1413988898750 6515 READING 301 0.898720
1413988898930 6516 READING 137 0.995384
1413988899121 6516 READING 137 0.995775
1413988899355 6516 READING 140 0.994914
1413988899595 6516 READING 140 0.996297
1413988899819 6516 READING 142 0.994171
1413988899957 6516 FUNCTION lru lambda h: 0.873718 * (h ** 0.0271048)
1413988899957 6515 FUNCTION lru lambda h: 0.723149 * (h ** 0.001)
1413988899957 6516 RECOMMEND 284
1413988899957 6515 RECOMMEND 284
1413988900059 6515 READING 301 0.976980
1413988900060 6516 READING 142 0.996114
1413988900361 6516 READING 145 0.987045
1413988900585 6516 READING 145 0.995847
1413988900773 6516 READING 148 0.995568
1413988900965 6516 READING 148 0.990299
1413988901309 6516 READING 150 0.993245
1413988901512 6516 READING 150 0.989201
1413988901712 6516 READING 154 0.989527
1413988901982 6516 READING 154 0.994683
1413988901986 6515 READING 297 0.498437
1413988902195 6516 READING 157 0.995855
1413988902428 6516 READING 158 0.993202
1413988902682 6516 READING 161 0.995811
1413988902888 6516 READING 161 0.994279
1413988903017 6515 READING 296 0.946824
1413988903127 6516 READING 164 0.995640
1413988903406 6516 READING 164 0.996132
1413988903690 6516 READING 166 0.995405
1413988903846 6515 READING 335 0.964010
1413988903929 6516 READING 167 0.994093
1413988904190 6516 READING 169 0.995701
1413988904413 6516 READING 169 0.992980
1413988904612 6516 READING 172 0.994943
1413988904776 6515 READING 293 0.966914
1413988904795 6516 READING 172 0.992808
1413988905022 6516 READING 175 0.995733
1413988905280 6516 READING 175 0.996942
1413988905485 6516 READING 177 0.995615
1413988905533 6515 READING 331 0.957712
1413988905798 6516 READING 177 0.997300
1413988906108 6516 READING 180 0.996584
1413988906368 6516 READING 180 0.997021
1413988906627 6516 READING 181 0.997300
1413988906667 6515 READING 296 0.970109
1413988906948 6516 READING 182 0.997605
1413988907267 6516 READING 184 0.996818
1413988907572 6515 READING 326 0.980527
1413988907577 6516 READING 184 0.983338
1413988907856 6516 READING 186 0.997120
1413988908149 6516 READING 186 0.997301
1413988908340 6515 READING 298 0.977814
1413988908394 6516 READING 188 0.995672
1413988908626 6516 READING 188 0.995820
1413988908874 6516 READING 191 0.996820
1413988909164 6516 READING 191 0.996313
1413988909190 6515 READING 320 0.971162
1413988909482 6516 READING 194 0.997840
1413988909755 6516 READING 194 0.996588
1413988909957 6516 FUNCTION lru lambda h: 0.885797 * (h ** 0.0234018)
1413988909957 6515 FUNCTION lru lambda h: 0.61099 * (h ** 0.022961)
1413988909957 6516 RECOMMEND 284
1413988909958 6515 RECOMMEND 284
1413988910079 6516 READING 196 0.997904
1413988910211 6515 READING 299 0.968176
1413988910361 6516 READING 196 0.996065
1413988910621 6516 READING 198 0.996228
1413988910919 6516 READING 198 0.994616
1413988911161 6516 READING 197 0.993903
1413988911163 6515 READING 316 0.968841
1413988911402 6516 READING 198 0.996568
1413988911663 6516 READING 197 0.996397
1413988911859 6515 READING 301 0.958655
1413988911990 6516 READING 198 0.995628
1413988912279 6516 READING 198 0.996640
1413988912533 6516 READING 198 0.995705
1413988912604 6515 READING 314 0.953152
1413988912848 6516 READING 197 0.997238
1413988913167 6516 READING 197 0.995112
1413988913450 6516 READING 197 0.996133
1413988913604 6515 READING 301 0.964755
1413988913712 6516 READING 197 0.995716
1413988913950 6516 READING 197 0.994909
1413988914163 6516 READING 197 0.994032
1413988914325 6515 READING 313 0.951436
1413988914405 6516 READING 197 0.994775
1413988914670 6516 READING 197 0.996524
1413988914900 6516 READING 197 0.958402
1413988915123 6515 READING 302 0.960703
1413988915276 6516 READING 199 0.996560
1413988915578 6516 READING 199 0.996726
1413988915845 6516 READING 199 0.996389
1413988915985 6515 READING 312 0.958365
1413988916164 6516 READING 199 0.997143
1413988916506 6516 READING 199 0.997370
1413988916726 6515 READING 301 0.949199
1413988916818 6516 READING 199 0.996141
1413988917102 6516 READING 197 0.996928
1413988917409 6516 READING 199 0.996841
1413988917524 6515 READING 311 0.951095
1413988917642 6516 READING 199 0.995844
1413988917878 6516 READING 200 0.994219
1413988918118 6516 READING 200 0.997008
1413988918338 6515 READING 300 0.954210
1413988918402 6516 READING 200 0.996142
1413988918697 6516 READING 198 0.996854
1413988918959 6516 READING 199 0.995125
1413988919280 6516 READING 199 0.997030
1413988919538 6516 READING 200 0.994808
1413988919545 6515 READING 308 0.963933
1413988919785 6516 READING 200 0.996150
1413988919958 6516 FUNCTION lru lambda h: 0.888459 * (h ** 0.0226262)
1413988919958 6515 FUNCTION lru lambda h: 0.532366 * (h ** 0.0591376)
1413988919958 6516 RECOMMEND 284
1413988919958 6515 RECOMMEND 284
1413988920056 6516 READING 200 0.996092
1413988920300 6516 READING 200 0.995744
1413988920535 6516 READING 199 0.995901
1413988920657 6515 READING 309 0.969608
1413988920803 6516 READING 200 0.991483
1413988920818 6515 READING 309 0.829349
1413988921148 6516 READING 199 0.987659
1413988921536 6515 READING 311 0.101193
1413988921570 6516 READING 199 0.997663
1413988921588 6515 READING 336 0.832861
1413988921635 6515 READING 344 0.918470
1413988921687 6515 READING 345 0.790981
1413988921729 6515 READING 347 0.978054
1413988921770 6515 READING 349 0.977221
1413988921812 6515 READING 349 0.976605
1413988921820 6516 READING 199 0.995716
1413988921853 6515 READING 347 0.976482
1413988921895 6515 READING 290 0.976346
1413988922084 6515 READING 343 0.976792
1413988922135 6516 READING 199 0.995642
1413988922463 6516 READING 199 0.996521
1413988922666 6515 READING 291 0.991226
1413988922749 6516 READING 198 0.995889
1413988923007 6516 READING 199 0.992256
1413988923218 6515 READING 339 0.982577
1413988923244 6516 READING 199 0.994721
1413988923442 6516 READING 199 0.994885
1413988923686 6516 READING 199 0.994514
1413988923918 6515 READING 294 0.983992
1413988923952 6516 READING 198 0.995863
1413988924178 6516 READING 198 0.995985
1413988924463 6515 READING 333 0.975931
1413988924562 6516 READING 198 0.997299
1413988924895 6516 READING 199 0.997711
1413988925126 6515 READING 297 0.977304
1413988925177 6516 READING 199 0.996720
1413988925521 6516 READING 199 0.997415
1413988925886 6516 READING 198 0.997694
1413988925890 6515 READING 326 0.981628
1413988926215 6516 READING 198 0.997920
1413988926526 6516 READING 199 0.997928
1413988926604 6515 READING 299 0.967036
1413988926864 6516 READING 199 0.997478
1413988927116 6516 READING 199 0.997230
1413988927144 6515 READING 321 0.955203
1413988927350 6516 READING 199 0.996403
1413988927600 6516 READING 198 0.997265
1413988927682 6515 READING 302 0.956050
1413988927905 6516 READING 199 0.997210
1413988928223 6516 READING 200 0.997713
1413988928252 6515 READING 320 0.955617
1413988928510 6516 READING 200 0.997184
1413988928847 6516 READING 200 0.997292
1413988928971 6515 READING 321 0.963679
1413988929146 6516 READING 198 0.997581
1413988929411 6516 READING 199 0.996273
1413988929634 6515 READING 321 0.974903
1413988929705 6516 READING 199 0.995893
1413988929946 6516 READING 199 0.994754
1413988929958 6516 FUNCTION lru lambda h: 0.888369 * (h ** 0.0226526)
1413988929958 6515 FUNCTION lru lambda h: 0.477769 * (h ** 0.0869497)
1413988929958 6516 RECOMMEND 284
1413988929958 6515 RECOMMEND 284
1413988930215 6515 READING 321 0.957279
1413988930215 6516 READING 200 0.995431
1413988930474 6516 READING 198 0.994761
1413988930761 6516 READING 198 0.994320
1413988930765 6515 READING 320 0.946788
1413988931060 6516 READING 197 0.994618
1413988931271 6515 READING 321 0.942250
1413988931305 6516 READING 198 0.995262
1413988931612 6516 READING 197 0.996233
1413988931828 6515 READING 321 0.945986
1413988931934 6516 READING 197 0.996140
1413988932230 6516 READING 197 0.994863
1413988932355 6515 READING 322 0.950014
1413988932511 6516 READING 197 0.994365
1413988932757 6516 READING 197 0.994465
1413988932953 6516 READING 197 0.993713
1413988933029 6515 READING 322 0.954877
1413988933191 6516 READING 197 0.994266
1413988933423 6516 READING 197 0.994041
1413988933550 6515 READING 322 0.940744
1413988933649 6516 READING 197 0.994660
1413988933954 6516 READING 197 0.995931
1413988934099 6515 READING 322 0.936533
1413988934285 6516 READING 197 0.997410
1413988934550 6516 READING 197 0.996198
1413988934623 6515 READING 322 0.938761
1413988934820 6516 READING 197 0.997426
1413988935146 6516 READING 197 0.997751
1413988935255 6515 READING 321 0.949359
1413988935462 6516 READING 197 0.996898
1413988935749 6516 READING 193 0.997551
1413988936022 6516 READING 197 0.997498
1413988936084 6515 READING 308 0.962201
1413988936294 6516 READING 197 0.997204
1413988936502 6516 READING 197 0.996078
1413988936718 6516 READING 197 0.993062
1413988936725 6515 READING 321 0.952529
1413988936974 6516 READING 198 0.997277
1413988937242 6516 READING 195 0.996837
1413988937443 6515 READING 308 0.957028
1413988937541 6516 READING 198 0.997431
1413988937789 6516 READING 198 0.996587
1413988937971 6515 READING 320 0.957817
1413988938111 6516 READING 198 0.997518
1413988938349 6516 READING 198 0.997446
1413988938577 6516 READING 199 0.996369
1413988938673 6515 READING 308 0.959450
1413988938835 6516 READING 197 0.995211
1413988939081 6516 READING 198 0.995245
1413988939274 6515 READING 318 0.950608
1413988939342 6516 READING 198 0.994929
1413988939594 6516 READING 197 0.994811
1413988939814 6515 READING 308 0.941983
1413988939903 6516 READING 198 0.996521
1413988939958 6516 FUNCTION lru lambda h: 0.888436 * (h ** 0.0226324)
1413988939958 6515 FUNCTION lru lambda h: 0.471877 * (h ** 0.0901563)
1413988939958 6516 RECOMMEND 284
1413988939958 6515 RECOMMEND 284
1413988940169 6516 READING 197 0.995613
1413988940384 6515 READING 317 0.944693
1413988940425 6516 READING 197 0.994975
1413988940746 6516 READING 197 0.996419
1413988941049 6516 READING 195 0.995721
1413988941328 6516 READING 197 0.995158
1413988941544 6515 READING 308 0.972731
1413988941586 6516 READING 197 0.995248
1413988941814 6516 READING 197 0.994307
1413988942007 6516 READING 197 0.992971
1413988942139 6515 READING 316 0.955489
1413988942249 6516 READING 197 0.993973
1413988942260 6515 READING 316 0.791844
1413988942341 6515 READING 315 0.695533
1413988942526 6516 READING 194 0.993699
1413988942724 6515 READING 318 0.143575
1413988942756 6515 READING 311 0.972268
1413988942779 6516 READING 196 0.948724
1413988942790 6515 READING 318 0.970024
1413988942820 6515 READING 319 0.968072
1413988942852 6515 READING 320 0.970885
1413988942882 6515 READING 320 0.967576
1413988942912 6515 READING 276 0.967309
1413988942944 6515 READING 321 0.968329
1413988942975 6515 READING 277 0.969440
1413988943007 6515 READING 320 0.969403
1413988943039 6515 READING 278 0.970557
1413988943077 6515 READING 318 0.953588
1413988943119 6516 READING 200 0.996252
1413988943432 6516 READING 201 0.994710
1413988943478 6515 READING 281 0.990521
1413988943699 6516 READING 196 0.995380
1413988943993 6516 READING 200 0.997409
1413988944063 6515 READING 314 0.990608
1413988944329 6516 READING 200 0.997569
1413988944626 6516 READING 201 0.997104
1413988944713 6515 READING 283 0.985714
1413988944917 6516 READING 201 0.996541
1413988945219 6516 READING 200 0.996939
1413988945240 6515 READING 311 0.985377
1413988945476 6516 READING 201 0.996120
1413988945694 6516 READING 201 0.980889
1413988945698 6515 READING 286 0.974160
1413988945919 6516 READING 201 0.996160
1413988946181 6516 READING 202 0.996672
1413988946220 6515 READING 305 0.958538
1413988946462 6516 READING 199 0.996718
1413988946748 6516 READING 202 0.995920
1413988946758 6515 READING 288 0.975485
1413988947024 6516 READING 202 0.996967
1413988947312 6516 READING 202 0.996690
1413988947355 6515 READING 304 0.962117
1413988947563 6516 READING 202 0.996994
1413988947796 6516 READING 203 0.996266
1413988947880 6515 READING 291 0.982946
1413988948073 6516 READING 203 0.996021
1413988948321 6516 READING 202 0.983586
1413988948321 6515 READING 303 0.965081
1413988948564 6516 READING 202 0.995472
1413988948832 6516 READING 202 0.995623
1413988948969 6515 READING 304 0.974635
1413988949153 6516 READING 201 0.996551
1413988949423 6516 READING 201 0.995228
1413988949515 6515 READING 304 0.961496
1413988949700 6516 READING 201 0.995732
1413988949958 6516 FUNCTION lru lambda h: 0.890503 * (h ** 0.0220329)
1413988949958 6515 FUNCTION lru lambda h: 0.442048 * (h ** 0.108452)
1413988949958 6516 RECOMMEND 284
1413988949958 6515 RECOMMEND 284
1413988950008 6515 READING 304 0.948882
1413988950025 6516 READING 201 0.995620
1413988950332 6516 READING 201 0.996184
1413988950465 6515 READING 304 0.955810
1413988950605 6516 READING 201 0.995815
1413988950879 6516 READING 201 0.995564
1413988950930 6515 READING 305 0.956956
1413988951108 6516 READING 201 0.993420
1413988951323 6516 READING 201 0.994944
1413988951374 6515 READING 304 0.945672
1413988951562 6516 READING 201 0.995024
1413988951827 6516 READING 201 0.991442
1413988951829 6515 READING 306 0.948114
1413988952078 6516 READING 201 0.995139
1413988952417 6515 READING 306 0.960775
1413988952479 6516 READING 201 0.997876
1413988952781 6516 READING 201 0.997403
1413988952839 6515 READING 306 0.943964
1413988953079 6516 READING 201 0.997255
1413988953284 6515 READING 307 0.945940
1413988953430 6516 READING 201 0.997855
1413988953797 6516 READING 201 0.988580
1413988953798 6515 READING 307 0.953365
1413988954128 6516 READING 201 0.997517
1413988954211 6515 READING 307 0.934694
1413988954434 6516 READING 201 0.996925
1413988954627 6515 READING 295 0.936094
1413988954761 6516 READING 200 0.997749
1413988954995 6516 READING 201 0.996903
1413988955102 6515 READING 305 0.934341
1413988955225 6516 READING 202 0.996626
1413988955488 6516 READING 198 0.997271
1413988955564 6515 READING 306 0.937332
1413988955789 6516 READING 201 0.997547
1413988956081 6515 READING 305 0.948137
1413988956103 6516 READING 201 0.997626
1413988956388 6516 READING 202 0.997791
1413988956601 6515 READING 295 0.942513
1413988956729 6516 READING 202 0.997801
1413988957015 6516 READING 202 0.997757
1413988957164 6515 READING 304 0.951727
1413988957282 6516 READING 202 0.997195
1413988957574 6516 READING 203 0.996506
1413988957789 6515 READING 295 0.956484
1413988957810 6516 READING 203 0.994681
1413988958051 6516 READING 201 0.995213
1413988958256 6515 READING 303 0.942523
1413988958299 6516 READING 201 0.995693
1413988958576 6516 READING 202 0.995562
1413988958808 6515 READING 295 0.951778
1413988958878 6516 READING 200 0.996274
1413988959122 6516 READING 201 0.995220
1413988959275 6515 READING 302 0.941409
1413988959426 6516 READING 201 0.995390
1413988959697 6515 READING 295 0.934300
1413988959743 6516 READING 200 0.994985
1413988959958 6516 FUNCTION lru lambda h: 0.890428 * (h ** 0.0220547)
1413988959959 6515 FUNCTION lru lambda h: 0.437156 * (h ** 0.111461)
1413988959959 6516 RECOMMEND 284
1413988959959 6515 RECOMMEND 284
1413988960035 6516 READING 201 0.995980
1413988960229 6515 READING 301 0.951626
1413988960313 6516 READING 201 0.996188
1413988960558 6516 READING 201 0.995508
1413988960753 6516 READING 201 0.993370
1413988960851 6515 READING 295 0.956034
1413988960982 6516 READING 198 0.995049
1413988961209 6516 READING 200 0.994835
1413988961396 6515 READING 301 0.946194
1413988961439 6516 READING 200 0.994636
1413988961718 6515 READING 295 0.902181
1413988961754 6516 READING 201 0.997104
1413988962108 6516 READING 201 0.998087
1413988962398 6516 READING 201 0.995683
1413988962751 6516 READING 201 0.995219
1413988962797 6515 READING 299 0.628121
1413988963110 6516 READING 201 0.997507
1413988963386 6515 READING 308 0.962173
1413988963453 6516 READING 201 0.997786
1413988963761 6516 READING 201 0.997104
1413988963905 6515 READING 312 0.950764
1413988964007 6515 READING 301 0.794346
1413988964057 6516 READING 197 0.997666
1413988964078 6515 READING 311 0.776224
1413988964157 6515 READING 311 0.692742
1413988964200 6515 READING 306 0.629054
1413988964245 6515 READING 311 0.608225
1413988964297 6515 READING 311 0.515434
1413988964343 6515 READING 313 0.551781
1413988964355 6516 READING 201 0.997642
1413988964394 6515 READING 312 0.513995
1413988964442 6515 READING 313 0.521834
1413988964475 6515 READING 313 0.756901
1413988964592 6516 READING 201 0.996362
1413988964803 6515 READING 293 0.077384
1413988964828 6515 READING 310 0.962307
1413988964852 6515 READING 312 0.960184
1413988964874 6516 READING 201 0.997179
1413988964877 6515 READING 313 0.957799
1413988964901 6515 READING 313 0.960892
1413988964925 6515 READING 313 0.962432
1413988964954 6515 READING 275 0.937289
1413988965144 6516 READING 201 0.996912
1413988965156 6515 READING 313 0.984706
1413988965448 6516 READING 201 0.996790
1413988965501 6515 READING 276 0.984639
1413988965760 6516 READING 202 0.996888
1413988965959 6515 READING 312 0.985036
1413988966044 6516 READING 203 0.996868
1413988966315 6515 READING 280 0.982726
1413988966388 6516 READING 200 0.996989
1413988966672 6515 READING 309 0.980886
1413988966672 6516 READING 202 0.997259
1413988966944 6516 READING 202 0.996978
1413988967013 6515 READING 283 0.969196
1413988967236 6516 READING 202 0.995061
1413988967393 6515 READING 306 0.972076
1413988967484 6516 READING 203 0.994966
1413988967719 6516 READING 202 0.993896
1413988967823 6515 READING 286 0.969983
1413988967974 6516 READING 201 0.995424
1413988968272 6516 READING 202 0.995916
1413988968313 6515 READING 301 0.967013
1413988968564 6516 READING 200 0.996100
1413988968723 6515 READING 288 0.947209
1413988968810 6516 READING 201 0.995530
1413988969118 6516 READING 201 0.995684
1413988969347 6515 READING 301 0.971504
1413988969434 6516 READING 201 0.995477
1413988969702 6515 READING 290 0.964073
1413988969722 6516 READING 199 0.995073
1413988969959 6516 FUNCTION lru lambda h: 0.890445 * (h ** 0.0220497)
1413988969959 6515 FUNCTION lru lambda h: 0.445955 * (h ** 0.106235)
1413988969959 6516 RECOMMEND 284
1413988969959 6515 RECOMMEND 284
1413988969990 6516 READING 201 0.995247
1413988970061 6515 READING 301 0.957395
1413988970244 6516 READING 201 0.994090
1413988970441 6516 READING 201 0.993711
1413988970513 6515 READING 301 0.978950
1413988970701 6516 READING 198 0.995771
1413988970899 6515 READING 301 0.940402
1413988970954 6516 READING 200 0.994370
1413988971169 6516 READING 200 0.994469
1413988971305 6515 READING 301 0.936677
1413988971506 6516 READING 201 0.997270
1413988971827 6516 READING 197 0.997257
1413988971876 6515 READING 301 0.958424
1413988972092 6516 READING 201 0.997200
1413988972284 6515 READING 302 0.941782
1413988972386 6516 READING 201 0.997357
1413988972684 6515 READING 302 0.942578
1413988972727 6516 READING 201 0.997630
1413988973047 6516 READING 201 0.997547
1413988973168 6515 READING 302 0.951407
1413988973335 6516 READING 201 0.997318
1413988973554 6515 READING 302 0.941253
1413988973636 6516 READING 197 0.997395
1413988973903 6516 READING 201 0.996888
1413988973942 6515 READING 302 0.936816
1413988974119 6516 READING 201 0.995343
1413988974302 6515 READING 302 0.936812
1413988974352 6516 READING 201 0.996391
1413988974613 6516 READING 201 0.997677
1413988974909 6516 READING 202 0.980588
1413988974912 6515 READING 293 0.973488
1413988975212 6516 READING 199 0.996881
1413988975308 6515 READING 302 0.937335
1413988975481 6516 READING 202 0.997057
1413988975673 6515 READING 293 0.954621
1413988975800 6516 READING 202 0.997572
1413988976059 6516 READING 202 0.996471
1413988976220 6515 READING 300 0.957900
1413988976305 6516 READING 202 0.996611
1413988976556 6516 READING 202 0.995527
1413988976669 6515 READING 301 0.943373
1413988976804 6516 READING 203 0.994728
1413988977043 6515 READING 300 0.936330
1413988977055 6516 READING 202 0.994927
1413988977298 6516 READING 201 0.995339
1413988977433 6515 READING 293 0.937451
1413988977618 6516 READING 202 0.995847
1413988977817 6515 READING 300 0.937098
1413988977888 6516 READING 200 0.994094
1413988978147 6516 READING 201 0.995231
1413988978251 6515 READING 293 0.945304
1413988978461 6516 READING 199 0.996300
1413988978622 6515 READING 299 0.933485
1413988978775 6516 READING 201 0.995767
1413988979069 6516 READING 201 0.996692
1413988979290 6515 READING 293 0.972005
1413988979340 6516 READING 201 0.995395
1413988979565 6516 READING 201 0.995081
1413988979711 6515 READING 298 0.943648
1413988979764 6516 READING 201 0.994197
1413988979959 6516 FUNCTION lru lambda h: 0.890503 * (h ** 0.0220331)
1413988979959 6515 FUNCTION lru lambda h: 0.437883 * (h ** 0.111328)
1413988979959 6516 RECOMMEND 284
1413988979959 6515 RECOMMEND 284
1413988979994 6516 READING 201 0.993423
1413988980080 6515 READING 298 0.934817
1413988980254 6516 READING 201 0.995177
1413988980477 6515 READING 297 0.940041
1413988980506 6516 READING 201 0.963841
1413988980871 6516 READING 206 0.995835
1413988980878 6515 READING 298 0.923257
1413988981181 6516 READING 206 0.997150
1413988981256 6515 READING 297 0.954247
1413988981450 6516 READING 206 0.996507
1413988981710 6515 READING 297 0.950727
1413988981766 6516 READING 202 0.996181
1413988982113 6516 READING 206 0.996662
1413988982161 6515 READING 296 0.938334
1413988982418 6516 READING 206 0.997150
1413988982629 6515 READING 297 0.936807
1413988982710 6516 READING 207 0.996281
1413988983006 6515 READING 296 0.935932
1413988983026 6516 READING 202 0.996655
1413988983275 6516 READING 206 0.995392
1413988983479 6515 READING 296 0.946410
1413988983503 6516 READING 206 0.995309
1413988983738 6516 READING 206 0.994980
1413988983980 6515 READING 295 0.951652
1413988984020 6516 READING 207 0.996576
1413988984314 6516 READING 208 0.996163
1413988984559 6515 READING 296 0.928344
1413988984595 6516 READING 205 0.996816
1413988984895 6516 READING 207 0.996801
1413988985176 6516 READING 207 0.995937
1413988985190 6515 READING 293 0.939009
1413988985435 6516 READING 208 0.996273
1413988985734 6516 READING 208 0.996126
1413988985803 6515 READING 296 0.491116
1413988986004 6516 READING 209 0.995421
1413988986107 6515 READING 278 0.978018
1413988986152 6515 READING 285 0.918094
1413988986219 6515 READING 286 0.868971
1413988986235 6516 READING 209 0.994795
1413988986255 6515 READING 266 0.795273
1413988986291 6515 READING 286 0.819835
1413988986337 6515 READING 266 0.719644
1413988986374 6515 READING 283 0.472677
1413988986411 6515 READING 285 0.440027
1413988986442 6515 READING 287 0.587380
1413988986481 6515 READING 288 0.441291
1413988986486 6516 READING 207 0.995075
1413988986518 6515 READING 289 0.434419
1413988986549 6515 READING 289 0.541984
1413988986577 6515 READING 289 0.588132
1413988986603 6515 READING 269 0.646772
1413988986619 6515 READING 286 0.930498
1413988986636 6515 READING 288 0.928335
1413988986652 6515 READING 288 0.923003
1413988986668 6515 READING 252 0.926569
1413988986684 6515 READING 288 0.926994
1413988986699 6515 READING 252 0.924344
1413988986716 6515 READING 288 0.931614
1413988986733 6515 READING 253 0.924860
1413988986751 6515 READING 286 0.934613
1413988986755 6516 READING 207 0.995695
1413988986769 6515 READING 255 0.932227
1413988986788 6515 READING 285 0.932753
1413988986808 6515 READING 256 0.933917
1413988986833 6515 READING 284 0.919214
1413988986910 6515 READING 283 0.920564
1413988987093 6516 READING 207 0.996491
1413988987202 6515 READING 281 0.985552
1413988987360 6516 READING 206 0.995923
1413988987510 6515 READING 282 0.980355
1413988987645 6516 READING 207 0.996266
1413988987823 6515 READING 279 0.964864
1413988987964 6516 READING 207 0.996866
1413988988137 6515 READING 281 0.960698
1413988988257 6516 READING 206 0.996459
1413988988524 6516 READING 206 0.995394
1413988988537 6515 READING 279 0.975093
1413988988791 6516 READING 206 0.995390
1413988988842 6515 READING 280 0.966864
1413988989002 6516 READING 206 0.993399
1413988989222 6516 READING 206 0.993016
1413988989287 6515 READING 279 0.980207
1413988989451 6516 READING 204 0.995184
1413988989614 6515 READING 280 0.931358
1413988989694 6516 READING 206 0.993623
1413988989959 6516 FUNCTION lru lambda h: 0.893236 * (h ** 0.021249)
1413988989959 6515 FUNCTION lru lambda h: 0.439459 * (h ** 0.110762)
1413988989959 6516 RECOMMEND 284
1413988989959 6515 RECOMMEND 284
1413988989974 6516 READING 206 0.995619
1413988990155 6515 READING 281 0.940487
1413988990328 6516 READING 207 0.997492
1413988990604 6516 READING 207 0.998100
1413988990713 6515 READING 281 0.974038
1413988990871 6516 READING 207 0.997345
1413988991174 6515 READING 283 0.966334
1413988991200 6516 READING 207 0.996905
1413988991530 6515 READING 283 0.953760
1413988991536 6516 READING 207 0.997841
1413988991838 6516 READING 207 0.997503
1413988992011 6515 READING 286 0.955223
1413988992116 6516 READING 207 0.997344
1413988992404 6515 READING 286 0.937567
1413988992413 6516 READING 202 0.997117
1413988992636 6516 READING 206 0.996310
1413988992789 6515 READING 286 0.938069
1413988992858 6516 READING 206 0.996115
1413988993108 6516 READING 206 0.997018
1413988993241 6515 READING 287 0.968530
1413988993397 6516 READING 207 0.996667
1413988993633 6515 READING 287 0.945343
1413988993697 6516 READING 208 0.996867
1413988993957 6516 READING 204 0.997108
1413988994028 6515 READING 288 0.939158
1413988994284 6516 READING 207 0.997088
1413988994407 6515 READING 288 0.931708
1413988994545 6516 READING 207 0.996783
1413988994801 6516 READING 208 0.978068
1413988994808 6515 READING 289 0.955040
1413988995076 6516 READING 208 0.995121
1413988995192 6515 READING 288 0.939294
1413988995327 6516 READING 208 0.995864
1413988995559 6516 READING 208 0.995285
1413988995752 6515 READING 289 0.957802
1413988995802 6516 READING 207 0.995192
1413988996092 6516 READING 207 0.995237
1413988996126 6515 READING 289 0.958147
1413988996395 6516 READING 206 0.996258
1413988996637 6516 READING 207 0.982677
1413988996967 6515 READING 289 0.583850
1413988996973 6516 READING 206 0.982079
1413988997286 6516 READING 206 0.996295
1413988997387 6515 READING 281 0.990887
1413988997584 6516 READING 206 0.996283
1413988997746 6515 READING 281 0.982071
1413988997842 6516 READING 206 0.994612
1413988998088 6516 READING 206 0.994376
1413988998281 6516 READING 206 0.992859
1413988998364 6515 READING 282 0.986979
1413988998523 6516 READING 206 0.993939
1413988998717 6515 READING 283 0.973201
1413988998759 6516 READING 204 0.994285
1413988998982 6516 READING 206 0.995090
1413988999089 6515 READING 283 0.969746
1413988999311 6516 READING 206 0.997565
1413988999478 6515 READING 284 0.969573
1413988999662 6516 READING 206 0.996881
1413988999946 6516 READING 206 0.997301
1413988999959 6516 FUNCTION lru lambda h: 0.893545 * (h ** 0.021161)
1413988999959 6515 FUNCTION lru lambda h: 0.432131 * (h ** 0.115595)
1413988999959 6516 RECOMMEND 284
1413988999959 6515 RECOMMEND 284
1413988999994 6515 READING 283 0.973118
1413989000232 6516 READING 205 0.997185
1413989000519 6515 READING 284 0.949586
1413989000576 6516 READING 206 0.998134
1413989000917 6516 READING 207 0.997252
1413989001035 6515 READING 283 0.958247
1413989001230 6516 READING 207 0.997306
1413989001528 6516 READING 206 0.997696
1413989001577 6515 READING 284 0.957975
1413989001826 6516 READING 206 0.997081
1413989002039 6515 READING 285 0.958349
1413989002058 6516 READING 207 0.996775
1413989002296 6516 READING 203 0.996630
1413989002564 6516 READING 207 0.997476
1413989002702 6515 READING 285 0.977750
1413989002870 6516 READING 207 0.996707
1413989003184 6515 READING 285 0.947944
1413989003184 6516 READING 207 0.997580
1413989003457 6516 READING 207 0.997564
1413989003765 6515 READING 285 0.958014
1413989003799 6516 READING 208 0.997590
1413989004070 6516 READING 205 0.997211
1413989004329 6516 READING 208 0.996628
1413989004386 6515 READING 285 0.958425
1413989004596 6516 READING 208 0.995052
1413989004821 6515 READING 286 0.941902
1413989004835 6516 READING 207 0.995600
1413989005076 6516 READING 208 0.994646
1413989005256 6515 READING 286 0.935606
1413989005345 6516 READING 207 0.995230
1413989005653 6516 READING 207 0.995426
1413989005702 6515 READING 287 0.940915
1413989005925 6516 READING 206 0.995946
1413989006108 6515 READING 288 0.934156
1413989006183 6516 READING 207 0.995301
1413989006497 6516 READING 206 0.996315
1413989006785 6515 READING 288 0.930508
1413989006811 6516 READING 206 0.996101
1413989007084 6516 READING 206 0.995312
1413989007356 6516 READING 206 0.995157
1413989007497 6515 READING 286 0.969898
1413989007589 6516 READING 206 0.994392
1413989007789 6516 READING 206 0.993787
1413989008006 6515 READING 277 0.936794
1413989008021 6516 READING 206 0.994904
1413989008160 6515 READING 285 0.856795
1413989008260 6515 READING 288 0.741237
1413989008275 6516 READING 204 0.993828
1413989008309 6515 READING 288 0.631748
1413989008380 6515 READING 290 0.637331
1413989008426 6515 READING 284 0.460663
1413989008471 6515 READING 290 0.421461
1413989008510 6516 READING 206 0.993526
1413989008515 6515 READING 294 0.432012
1413989008555 6515 READING 297 0.454839
1413989008863 6516 READING 206 0.997139
1413989008909 6515 READING 296 0.052580
1413989008929 6515 READING 283 0.944839
1413989008948 6515 READING 310 0.951073
1413989008965 6515 READING 312 0.946465
1413989008983 6515 READING 312 0.946775
1413989009000 6515 READING 262 0.940711
1413989009018 6515 READING 312 0.949471
1413989009036 6515 READING 262 0.946644
1413989009055 6515 READING 312 0.948846
1413989009074 6515 READING 264 0.949385
1413989009095 6515 READING 310 0.950129
1413989009116 6515 READING 266 0.955045
1413989009138 6515 READING 308 0.933956
1413989009160 6515 READING 267 0.948891
1413989009172 6516 READING 206 0.997670
1413989009189 6515 READING 306 0.929690
1413989009323 6515 READING 271 0.978738
1413989009428 6516 READING 206 0.996864
1413989009661 6515 READING 303 0.989012
1413989009716 6516 READING 205 0.997860
1413989009960 6516 FUNCTION lru lambda h: 0.893119 * (h ** 0.0212824)
1413989009960 6515 FUNCTION lru lambda h: 0.445969 * (h ** 0.107547)
1413989009960 6516 RECOMMEND 284
1413989009960 6515 RECOMMEND 284
1413989010001 6515 READING 272 0.986083
1413989010049 6516 READING 206 0.997184
1413989010350 6515 READING 301 0.983447
1413989010353 6516 READING 207 0.996985
1413989010630 6516 READING 207 0.996832
1413989010707 6515 READING 276 0.967515
1413989010922 6516 READING 206 0.997157
1413989011066 6515 READING 299 0.931310
1413989011176 6516 READING 206 0.997439
1413989011385 6516 READING 207 0.995730
1413989011458 6515 READING 280 0.971763
1413989011604 6516 READING 203 0.995944
1413989011827 6515 READING 298 0.965498
1413989011860 6516 READING 207 0.996352
1413989012133 6516 READING 207 0.997280
1413989012410 6516 READING 207 0.996872
1413989012475 6515 READING 284 0.978913
1413989012673 6516 READING 207 0.997272
1413989012968 6516 READING 207 0.997451
1413989012973 6515 READING 297 0.964780
1413989013208 6516 READING 208 0.997110
1413989013377 6515 READING 297 0.956807
1413989013434 6516 READING 209 0.996475
1413989013687 6516 READING 206 0.994522
1413989013847 6515 READING 296 0.964107
1413989013927 6516 READING 207 0.994839
1413989014184 6516 READING 208 0.996634
1413989014230 6515 READING 297 0.939568
1413989014439 6516 READING 207 0.995647
1413989014616 6515 READING 296 0.939302
1413989014756 6516 READING 207 0.996184
1413989015009 6516 READING 206 0.995476
1413989015169 6515 READING 297 0.959921
1413989015274 6516 READING 207 0.995064
1413989015602 6516 READING 207 0.996508
1413989015646 6515 READING 296 0.956563
1413989015909 6516 READING 207 0.995537
1413989016131 6515 READING 297 0.950097
1413989016189 6516 READING 207 0.996542
1413989016451 6516 READING 207 0.995757
1413989016511 6515 READING 297 0.933131
1413989016672 6516 READING 207 0.994726
1413989016895 6516 READING 207 0.989617
1413989016896 6515 READING 298 0.943461
1413989017129 6516 READING 207 0.996273
1413989017287 6515 READING 298 0.943266
1413989017390 6516 READING 207 0.994609
1413989017634 6516 READING 207 0.995134
1413989017676 6515 READING 298 0.932351
1413989018000 6516 READING 207 0.997692
1413989018091 6515 READING 298 0.948372
1413989018290 6516 READING 207 0.997133
1413989018448 6515 READING 288 0.931770
1413989018552 6516 READING 207 0.997421
1413989018881 6516 READING 207 0.994630
1413989018885 6515 READING 298 0.947542
1413989019222 6516 READING 207 0.997368
1413989019357 6515 READING 288 0.955480
1413989019538 6516 READING 207 0.997699
1413989019728 6515 READING 297 0.932311
1413989019827 6516 READING 202 0.997970
1413989019960 6516 FUNCTION lru lambda h: 0.892943 * (h ** 0.0213328)
1413989019960 6515 FUNCTION lru lambda h: 0.429941 * (h ** 0.117717)
1413989019960 6516 RECOMMEND 284
1413989019960 6515 RECOMMEND 284
1413989020090 6515 READING 288 0.937491
1413989020129 6516 READING 206 0.997647
1413989020355 6516 READING 206 0.996877
1413989020527 6515 READING 296 0.961665
1413989020582 6516 READING 206 0.996950
1413989020815 6516 READING 207 0.997187
1413989020890 6515 READING 288 0.901086
1413989021104 6516 READING 208 0.996875
1413989021297 6515 READING 295 0.943157
1413989021397 6516 READING 204 0.997477
1413989021670 6516 READING 207 0.997118
1413989021680 6515 READING 288 0.947162
1413989021997 6516 READING 207 0.997935
1413989022116 6515 READING 294 0.942317
1413989022268 6516 READING 207 0.997357
1413989022518 6516 READING 208 0.996163
1413989022761 6515 READING 294 0.968378
1413989022795 6516 READING 209 0.996403
1413989023048 6516 READING 208 0.995855
1413989023140 6515 READING 293 0.922804
1413989023290 6516 READING 207 0.995332
1413989023536 6516 READING 207 0.995888
1413989023697 6515 READING 288 0.955429
1413989023829 6516 READING 207 0.995717
1413989024130 6516 READING 206 0.995916
1413989024159 6515 READING 292 0.949519
1413989024368 6516 READING 207 0.994711
1413989024638 6515 READING 293 0.961282
1413989024677 6516 READING 207 0.996058
1413989025011 6516 READING 206 0.995986
1413989025029 6515 READING 292 0.956924
1413989025298 6516 READING 206 0.995351
1413989025393 6515 READING 288 0.925090
1413989025567 6516 READING 206 0.995210
1413989025770 6515 READING 292 0.935861
1413989025825 6516 READING 206 0.995281
1413989026026 6516 READING 206 0.994581
1413989026114 6515 READING 288 0.928589
1413989026254 6516 READING 206 0.994744
1413989026481 6515 READING 291 0.929807
1413989026504 6516 READING 205 0.994848
1413989026751 6516 READING 206 0.994814
1413989026923 6515 READING 288 0.945968
1413989027046 6516 READING 207 0.996742
1413989027386 6516 READING 202 0.997153
1413989027457 6515 READING 291 0.945775
1413989027658 6516 READING 207 0.996903
1413989027813 6515 READING 287 0.932661
1413989027920 6516 READING 206 0.996976
1413989028086 6515 READING 289 0.912905
1413989028245 6516 READING 206 0.997756
1413989028570 6516 READING 206 0.997361
1413989028886 6516 READING 207 0.994659
1413989029121 6515 READING 290 0.604412
1413989029224 6516 READING 202 0.997286
1413989029501 6516 READING 206 0.997587
1413989029655 6515 READING 292 0.983619
1413989029713 6516 READING 206 0.995707
1413989029929 6516 READING 206 0.996722
1413989029960 6516 FUNCTION lru lambda h: 0.89297 * (h ** 0.0213252)
1413989029960 6515 FUNCTION lru lambda h: 0.422309 * (h ** 0.12268)
1413989029960 6516 RECOMMEND 284
1413989029960 6515 RECOMMEND 284
1413989030143 6515 READING 291 0.961858
1413989030179 6516 READING 207 0.997468
1413989030242 6515 READING 288 0.820341
1413989030336 6515 READING 292 0.803170
1413989030381 6515 READING 292 0.689347
1413989030453 6515 READING 293 0.680168
1413989030458 6516 READING 208 0.996364
1413989030501 6515 READING 293 0.530543
1413989030549 6515 READING 300 0.539092
1413989030594 6515 READING 300 0.568109
1413989030757 6516 READING 204 0.995981
1413989030931 6515 READING 300 0.076121
1413989030958 6515 READING 298 0.948941
1413989030983 6515 READING 296 0.963871
1413989031007 6515 READING 298 0.962620
1413989031031 6515 READING 299 0.962173
1413989031044 6516 READING 207 0.997180
1413989031055 6515 READING 299 0.958212
1413989031079 6515 READING 299 0.959582
1413989031104 6515 READING 271 0.959382
1413989031128 6515 READING 299 0.962077
1413989031152 6515 READING 271 0.960732
1413989031182 6515 READING 299 0.941369
1413989031214 6515 READING 274 0.970782
1413989031362 6516 READING 207 0.997948
1413989031610 6516 READING 208 0.995329
1413989031681 6515 READING 298 0.992297
1413989031849 6516 READING 208 0.996295
1413989032108 6516 READING 208 0.995124
1413989032127 6515 READING 274 0.987148
1413989032342 6516 READING 208 0.994289
1413989032576 6516 READING 207 0.994870
1413989032681 6515 READING 296 0.977915
1413989032814 6516 READING 207 0.993340
1413989033045 6515 READING 278 0.977301
1413989033113 6516 READING 207 0.995466
1413989033394 6516 READING 206 0.995248
1413989033498 6515 READING 295 0.976576
1413989033648 6516 READING 207 0.995319
1413989033960 6516 READING 205 0.996054
1413989033985 6515 READING 281 0.988317
1413989034320 6516 READING 206 0.996348
1413989034434 6515 READING 294 0.968637
1413989034597 6516 READING 206 0.995738
1413989034856 6516 READING 206 0.995373
1413989034933 6515 READING 284 0.972341
1413989035104 6516 READING 206 0.995207
1413989035320 6516 READING 206 0.994955
1413989035460 6515 READING 293 0.953841
1413989035564 6516 READING 204 0.994779
1413989035806 6516 READING 206 0.995270
1413989035865 6515 READING 293 0.945818
1413989036024 6516 READING 206 0.958075
1413989036348 6516 READING 212 0.997617
1413989036488 6515 READING 293 0.962727
1413989036670 6516 READING 207 0.997119
1413989036863 6515 READING 293 0.939127
1413989036934 6516 READING 212 0.997099
1413989037218 6516 READING 211 0.996104
1413989037305 6515 READING 293 0.966982
1413989037569 6516 READING 211 0.997079
1413989037683 6515 READING 294 0.940090
1413989037879 6516 READING 211 0.996775
1413989038162 6516 READING 211 0.997208
1413989038233 6515 READING 294 0.951415
1413989038461 6516 READING 211 0.996418
1413989038626 6515 READING 295 0.924820
1413989038726 6516 READING 212 0.996284
1413989038932 6516 READING 212 0.995502
1413989039096 6515 READING 295 0.949595
1413989039152 6516 READING 211 0.996499
1413989039411 6516 READING 212 0.995636
1413989039469 6515 READING 296 0.935548
1413989039694 6516 READING 212 0.997182
1413989039849 6515 READING 296 0.952279
1413989039960 6516 FUNCTION lru lambda h: 0.894582 * (h ** 0.0208652)
1413989039960 6515 FUNCTION lru lambda h: 0.431354 * (h ** 0.117032)
1413989039960 6516 RECOMMEND 284
1413989039960 6515 RECOMMEND 284
1413989039986 6516 READING 212 0.996881
1413989040244 6516 READING 213 0.996167
1413989040355 6515 READING 296 0.948825
1413989040554 6516 READING 210 0.997319
1413989040720 6515 READING 296 0.932560
1413989040798 6516 READING 213 0.997095
1413989041028 6516 READING 213 0.996774
1413989041087 6515 READING 296 0.939862
1413989041279 6516 READING 214 0.995613
1413989041516 6516 READING 214 0.995011
1413989041592 6515 READING 295 0.961168
1413989041760 6516 READING 212 0.995954
1413989041940 6515 READING 296 0.932249
1413989042012 6516 READING 212 0.995264
1413989042323 6516 READING 212 0.996111
1413989042408 6515 READING 295 0.950143
1413989042595 6516 READING 211 0.995628
1413989042787 6515 READING 287 0.933696
1413989042860 6516 READING 212 0.995948
1413989043121 6515 READING 295 0.949863
1413989043186 6516 READING 212 0.996127
1413989043477 6515 READING 287 0.955501
1413989043516 6516 READING 212 0.996764
1413989043790 6516 READING 210 0.995947
1413989043833 6515 READING 293 0.931329
1413989044049 6516 READING 211 0.995719
1413989044199 6515 READING 287 0.936797
1413989044269 6516 READING 211 0.994266
1413989044466 6516 READING 210 0.993360
1413989044566 6515 READING 292 0.937155
1413989044702 6516 READING 211 0.994110
1413989044934 6515 READING 293 0.944768
1413989044975 6516 READING 212 0.995366
1413989045212 6516 READING 212 0.995448
1413989045288 6515 READING 292 0.927612
1413989045583 6516 READING 212 0.997587
1413989045649 6515 READING 287 0.935084
1413989045892 6516 READING 212 0.997356
1413989046023 6515 READING 292 0.938095
1413989046162 6516 READING 212 0.997296
1413989046471 6515 READING 287 0.942629
1413989046482 6516 READING 212 0.997745
1413989046832 6516 READING 212 0.998007
1413989046908 6515 READING 290 0.950688
1413989047135 6516 READING 212 0.997729
1413989047390 6515 READING 291 0.952186
1413989047433 6516 READING 212 0.998009
1413989047749 6516 READING 207 0.996978
1413989047824 6515 READING 290 0.933731
1413989047998 6516 READING 211 0.997305
1413989048225 6516 READING 211 0.996408
1413989048365 6515 READING 290 0.953041
1413989048461 6516 READING 211 0.996869
1413989048699 6515 READING 289 0.915183
1413989048752 6516 READING 212 0.997212
1413989049055 6515 READING 290 0.935372
1413989049065 6516 READING 213 0.997528
1413989049356 6516 READING 209 0.997394
1413989049413 6515 READING 289 0.934675
1413989049673 6516 READING 212 0.997244
1413989049777 6515 READING 289 0.939260
1413989049959 6516 READING 212 0.997269
1413989049961 6516 FUNCTION lru lambda h: 0.895209 * (h ** 0.0206881)
1413989049961 6515 FUNCTION lru lambda h: 0.425489 * (h ** 0.120866)
1413989049961 6516 RECOMMEND 284
1413989049961 6515 RECOMMEND 284
1413989050135 6515 READING 288 0.935438
1413989050225 6516 READING 213 0.997057
1413989050483 6516 READING 213 0.997717
1413989050483 6515 READING 289 0.924531
1413989050723 6516 READING 214 0.994993
1413989050971 6516 READING 214 0.994893
1413989051216 6516 READING 212 0.988874
1413989051435 6515 READING 289 0.567725
1413989051563 6516 READING 212 0.996162
1413989051875 6516 READING 211 0.995160
1413989052060 6515 READING 288 0.976455
1413989052118 6516 READING 212 0.995295
1413989052403 6515 READING 291 0.906470
1413989052409 6516 READING 211 0.995810
1413989052726 6516 READING 211 0.994907
1413989052732 6515 READING 291 0.901522
1413989052825 6515 READING 294 0.697248
1413989052892 6515 READING 294 0.741293
1413989052954 6515 READING 294 0.661685
1413989053010 6515 READING 295 0.581436
1413989053021 6516 READING 211 0.995844
1413989053049 6515 READING 294 0.551731
1413989053092 6515 READING 298 0.505359
1413989053330 6516 READING 211 0.995135
1413989053432 6515 READING 299 0.059708
1413989053454 6515 READING 281 0.929418
1413989053475 6515 READING 299 0.919517
1413989053495 6515 READING 300 0.955346
1413989053514 6515 READING 301 0.951337
1413989053534 6515 READING 302 0.948058
1413989053553 6515 READING 301 0.948455
1413989053574 6515 READING 265 0.905045
1413989053593 6515 READING 302 0.952346
1413989053614 6516 READING 211 0.994367
1413989053614 6515 READING 266 0.925905
1413989053638 6515 READING 301 0.961927
1413989053659 6515 READING 267 0.953889
1413989053681 6515 READING 299 0.955583
1413989053703 6515 READING 268 0.959020
1413989053732 6515 READING 298 0.929688
1413989053814 6516 READING 211 0.994727
1413989053930 6515 READING 271 0.965666
1413989054053 6516 READING 211 0.995700
1413989054294 6516 READING 211 0.994330
1413989054442 6515 READING 295 0.989157
1413989054553 6516 READING 211 0.995427
1413989054840 6516 READING 211 0.994702
1413989054867 6515 READING 272 0.985914
1413989055192 6516 READING 211 0.998005
1413989055279 6515 READING 294 0.980404
1413989055471 6516 READING 211 0.996915
1413989055618 6515 READING 275 0.974391
1413989055734 6516 READING 211 0.996606
1413989056046 6515 READING 292 0.980940
1413989056067 6516 READING 211 0.996887
1413989056405 6516 READING 210 0.997455
1413989056509 6515 READING 278 0.976491
1413989056711 6516 READING 211 0.997469
1413989056837 6515 READING 291 0.960024
1413989056994 6516 READING 212 0.996544
1413989057288 6516 READING 207 0.997110
1413989057323 6515 READING 280 0.952359
1413989057514 6516 READING 211 0.996497
1413989057700 6515 READING 290 0.953537
1413989057741 6516 READING 211 0.996391
1413989057993 6516 READING 211 0.997134
1413989058057 6515 READING 290 0.969259
1413989058283 6516 READING 212 0.996844
1413989058396 6515 READING 290 0.936263
1413989058581 6516 READING 213 0.997325
1413989058842 6516 READING 209 0.997006
1413989058909 6515 READING 290 0.965854
1413989059167 6516 READING 212 0.997530
1413989059237 6515 READING 290 0.945118
1413989059434 6516 READING 212 0.996752
1413989059582 6515 READING 291 0.934845
1413989059688 6516 READING 213 0.997081
1413989059950 6516 READING 213 0.994153
1413989059961 6516 FUNCTION lru lambda h: 0.895224 * (h ** 0.0206838)
1413989059961 6515 FUNCTION lru lambda h: 0.252962 * (h ** 0.215264)
1413989059961 6516 RECOMMEND 284
1413989059961 6515 RECOMMEND 284
1413989060053 6515 READING 290 0.957276
1413989060192 6516 READING 213 0.994802
1413989060405 6515 READING 291 0.941004
1413989060434 6516 READING 213 0.995571
1413989060667 6516 READING 212 0.995343
1413989060950 6516 READING 212 0.995478
1413989061101 6515 READING 291 0.964358
1413989061244 6516 READING 211 0.995826
1413989061431 6515 READING 292 0.933488
1413989061501 6516 READING 212 0.996582
1413989061771 6515 READING 292 0.931241
1413989061824 6516 READING 212 0.995431
1413989062117 6515 READING 292 0.958379
1413989062154 6516 READING 212 0.995720
1413989062438 6516 READING 211 0.995999
1413989062463 6515 READING 292 0.942328
1413989062700 6516 READING 211 0.996157
1413989062890 6515 READING 283 0.942154
1413989062946 6516 READING 211 0.994956
1413989063145 6516 READING 209 0.994038
1413989063229 6515 READING 292 0.917164
1413989063381 6516 READING 211 0.994813
1413989063572 6515 READING 283 0.926271
1413989063614 6516 READING 211 0.994843
1413989063838 6516 READING 212 0.994545
1413989064037 6515 READING 291 0.960126
1413989064158 6516 READING 212 0.996874
1413989064347 6515 READING 283 0.933081
1413989064505 6516 READING 211 0.997375
1413989064695 6515 READING 291 0.935990
1413989064785 6516 READING 211 0.996960
1413989065044 6515 READING 283 0.936402
1413989065070 6516 READING 211 0.997279
1413989065373 6515 READING 291 0.932320
1413989065418 6516 READING 211 0.997867
1413989065749 6516 READING 212 0.997350
1413989065790 6515 READING 290 0.949022
1413989066053 6516 READING 212 0.997229
1413989066104 6515 READING 289 0.930924
1413989066340 6516 READING 211 0.996861
1413989066556 6515 READING 284 0.952858
1413989066626 6516 READING 211 0.997547
1413989066845 6516 READING 212 0.996479
1413989066911 6515 READING 289 0.956728
1413989067079 6516 READING 208 0.996798
1413989067340 6516 READING 212 0.997570
1413989067356 6515 READING 284 0.939909
1413989067630 6516 READING 212 0.996554
1413989067707 6515 READING 289 0.931816
1413989067932 6516 READING 212 0.997598
1413989068037 6515 READING 284 0.925631
1413989068191 6516 READING 212 0.996811
1413989068486 6515 READING 288 0.949525
1413989068518 6516 READING 212 0.997628
1413989068775 6516 READING 213 0.997181
1413989068867 6515 READING 288 0.946955
1413989069024 6516 READING 214 0.996021
1413989069206 6515 READING 287 0.946222
1413989069288 6516 READING 211 0.995345
1413989069524 6516 READING 212 0.994765
1413989069669 6515 READING 288 0.949278
1413989069763 6516 READING 213 0.995200
1413989069961 6516 FUNCTION lru lambda h: 0.895288 * (h ** 0.0206657)
1413989069961 6515 FUNCTION lru lambda h: 0.251625 * (h ** 0.21662)
1413989069961 6516 RECOMMEND 284
1413989069961 6515 RECOMMEND 284
1413989070008 6516 READING 212 0.994961
1413989070190 6515 READING 288 0.955309
1413989070307 6516 READING 212 0.995605
1413989070521 6515 READING 285 0.949314
1413989070593 6516 READING 211 0.995834
1413989070837 6516 READING 212 0.995258
1413989071044 6515 READING 287 0.942451
1413989071158 6516 READING 212 0.995755
1413989071461 6515 READING 287 0.937398
1413989071470 6516 READING 210 0.995415
1413989071774 6516 READING 211 0.996047
1413989071801 6515 READING 286 0.945756
1413989072036 6516 READING 211 0.994787
1413989072226 6515 READING 287 0.953487
1413989072275 6516 READING 211 0.994307
1413989072478 6516 READING 211 0.993105
1413989072580 6515 READING 287 0.932343
1413989072723 6516 READING 211 0.993892
1413989072921 6515 READING 287 0.934098
1413989072975 6516 READING 211 0.994193
1413989073204 6516 READING 210 0.994464
1413989073288 6515 READING 286 0.933413
1413989073537 6516 READING 211 0.997917
1413989073752 6515 READING 286 0.940034
1413989073854 6516 READING 211 0.997807
1413989074113 6516 READING 211 0.994880
1413989074402 6516 READING 211 0.997362
1413989074416 6515 READING 285 0.968303
1413989074744 6516 READING 206 0.995199
1413989074957 6515 READING 286 0.447836
1413989075093 6516 READING 211 0.997458
1413989075377 6516 READING 211 0.991720
1413989075378 6515 READING 267 0.984150
1413989075425 6515 READING 271 0.889042
1413989075488 6515 READING 274 0.824475
1413989075539 6515 READING 275 0.876931
1413989075578 6515 READING 277 0.809847
1413989075633 6515 READING 278 0.718199
1413989075672 6515 READING 278 0.623226
1413989075672 6516 READING 211 0.997260
1413989075709 6515 READING 281 0.646130
1413989075747 6515 READING 286 0.674832
1413989075786 6515 READING 288 0.669976
1413989075821 6515 READING 289 0.727364
1413989075947 6516 READING 211 0.994371
1413989076148 6515 READING 289 0.081319
1413989076173 6515 READING 304 0.960197
1413989076187 6516 READING 212 0.996261
1413989076198 6515 READING 306 0.957581
1413989076223 6515 READING 306 0.961978
1413989076248 6515 READING 274 0.964080
1413989076275 6515 READING 306 0.898824
1413989076300 6515 READING 274 0.959850
1413989076325 6515 READING 305 0.963772
1413989076356 6515 READING 274 0.918398
1413989076410 6516 READING 208 0.995428
1413989076666 6516 READING 212 0.996862
1413989076689 6515 READING 305 0.990590
1413989076946 6516 READING 212 0.997429
1413989077229 6516 READING 212 0.997287
1413989077230 6515 READING 276 0.975778
1413989077498 6516 READING 212 0.997214
1413989077700 6515 READING 303 0.985654
1413989077810 6516 READING 213 0.997606
1413989078067 6515 READING 279 0.978249
1413989078067 6516 READING 210 0.997088
1413989078303 6516 READING 213 0.997044
1413989078571 6516 READING 213 0.996139
1413989078633 6515 READING 301 0.982338
1413989078819 6516 READING 213 0.995131
1413989079059 6516 READING 213 0.994671
1413989079074 6515 READING 283 0.978019
1413989079309 6516 READING 212 0.996149
1413989079445 6515 READING 299 0.966532
1413989079617 6516 READING 212 0.995532
1413989079854 6515 READING 286 0.945560
1413989079879 6516 READING 211 0.994808
1413989079962 6516 FUNCTION lru lambda h: 0.894937 * (h ** 0.0207662)
1413989079962 6515 FUNCTION lru lambda h: 0.259681 * (h ** 0.208275)
1413989079962 6516 RECOMMEND 284
1413989079962 6515 RECOMMEND 284
1413989080156 6516 READING 212 0.995900
1413989080371 6515 READING 298 0.973744
1413989080473 6516 READING 211 0.995930
1413989080779 6516 READING 211 0.995763
1413989080900 6515 READING 298 0.954270
1413989081052 6516 READING 211 0.995154
1413989081308 6516 READING 211 0.994947
1413989081450 6515 READING 298 0.969967
1413989081528 6516 READING 211 0.994756
1413989081731 6516 READING 211 0.992502
1413989081834 6515 READING 298 0.955723
1413989081961 6516 READING 211 0.994096
1413989082207 6515 READING 298 0.951914
1413989082236 6516 READING 211 0.995539
1413989082490 6516 READING 210 0.994873
1413989082606 6515 READING 298 0.952051
1413989082850 6516 READING 211 0.996753
1413989083087 6515 READING 299 0.971520
1413989083151 6516 READING 211 0.997134
1413989083407 6516 READING 211 0.995912
1413989083580 6515 READING 299 0.948742
1413989083710 6516 READING 210 0.997229
1413989083975 6515 READING 299 0.944205
1413989084054 6516 READING 211 0.997826
1413989084352 6515 READING 300 0.960647
1413989084363 6516 READING 212 0.997756
1413989084650 6516 READING 212 0.996272
1413989084753 6515 READING 300 0.937542
1413989084965 6516 READING 211 0.997081
1413989085147 6515 READING 301 0.912968
1413989085205 6516 READING 211 0.997127
1413989085423 6516 READING 212 0.996183
1413989085521 6515 READING 300 0.954732
1413989085663 6516 READING 208 0.996358
1413989085902 6515 READING 301 0.936207
1413989085940 6516 READING 212 0.997133
1413989086230 6516 READING 212 0.996974
1413989086371 6515 READING 300 0.946336
1413989086510 6516 READING 212 0.997390
1413989086812 6516 READING 212 0.996648
1413989086853 6515 READING 300 0.948760
1413989087089 6516 READING 212 0.997537
1413989087229 6515 READING 299 0.935933
1413989087346 6516 READING 213 0.996551
1413989087593 6515 READING 300 0.943080
1413989087594 6516 READING 214 0.997188
1413989087846 6516 READING 214 0.995762
1413989088073 6516 READING 213 0.995368
1413989088151 6515 READING 299 0.957327
1413989088311 6516 READING 213 0.995627
1413989088539 6515 READING 291 0.935708
1413989088579 6516 READING 212 0.995827
1413989088898 6516 READING 212 0.995902
1413989088947 6515 READING 298 0.938781
1413989089141 6516 READING 211 0.996099
1413989089345 6515 READING 298 0.938411
1413989089431 6516 READING 212 0.996535
1413989089744 6516 READING 211 0.996176
1413989089773 6515 READING 297 0.943168
1413989089962 6516 FUNCTION lru lambda h: 0.89477 * (h ** 0.0208136)
1413989089962 6515 FUNCTION lru lambda h: 0.255686 * (h ** 0.212048)
1413989089962 6516 RECOMMEND 284
1413989089962 6515 RECOMMEND 284
1413989090042 6516 READING 211 0.995695
1413989090243 6515 READING 291 0.949832
1413989090314 6516 READING 211 0.994731
1413989090574 6516 READING 211 0.993906
1413989090713 6515 READING 296 0.946358
1413989090775 6516 READING 211 0.994384
1413989091001 6516 READING 211 0.994439
1413989091218 6515 READING 291 0.936271
1413989091229 6516 READING 211 0.993620
1413989091471 6516 READING 209 0.995273
1413989091674 6515 READING 296 0.964261
1413989091746 6516 READING 211 0.994802
1413989092099 6516 READING 211 0.997422
1413989092242 6515 READING 291 0.959913
1413989092397 6516 READING 212 0.996972
1413989092641 6515 READING 295 0.939140
1413989092664 6516 READING 212 0.997608
1413989092992 6516 READING 212 0.997166
1413989093097 6515 READING 295 0.943885
1413989093335 6516 READING 212 0.997774
1413989093544 6515 READING 294 0.941816
1413989093645 6516 READING 212 0.997548
1413989093897 6515 READING 295 0.926578
1413989093930 6516 READING 212 0.997855
1413989094231 6516 READING 211 0.997015
1413989094440 6515 READING 294 0.951587
1413989094465 6516 READING 211 0.996959
1413989094697 6516 READING 211 0.996206
1413989094825 6515 READING 294 0.924612
1413989094950 6516 READING 212 0.996928
1413989095211 6515 READING 293 0.934252
1413989095239 6516 READING 213 0.997350
1413989095540 6516 READING 209 0.996698
1413989095616 6515 READING 291 0.933577
1413989095809 6516 READING 212 0.996460
1413989095976 6515 READING 293 0.932448
1413989096134 6516 READING 212 0.997405
1413989096402 6516 READING 212 0.996576
1413989096656 6516 READING 213 0.996464
1413989096949 6516 READING 214 0.995475
1413989097106 6515 READING 291 0.672150
1413989097221 6516 READING 214 0.995610
1413989097456 6516 READING 212 0.994589
1413989097543 6515 READING 288 0.972110
1413989097695 6516 READING 212 0.995147
1413989097983 6516 READING 212 0.995657
1413989098054 6515 READING 292 0.951455
1413989098160 6515 READING 292 0.836396
1413989098240 6515 READING 287 0.812638
1413989098288 6516 READING 211 0.994676
1413989098303 6515 READING 290 0.577895
1413989098357 6515 READING 284 0.670445
1413989098410 6515 READING 289 0.568807
1413989098451 6515 READING 291 0.499183
1413989098492 6515 READING 295 0.468542
1413989098535 6515 READING 296 0.462882
1413989098535 6516 READING 212 0.995202
1413989098564 6515 READING 296 0.673694
1413989098599 6515 READING 279 0.557963
1413989098877 6516 READING 212 0.994822
1413989098923 6515 READING 296 0.060157
1413989098944 6515 READING 297 0.955607
1413989098963 6515 READING 297 0.951732
1413989098983 6515 READING 298 0.953171
1413989099002 6515 READING 298 0.942551
1413989099020 6515 READING 266 0.950735
1413989099040 6515 READING 299 0.949353
1413989099060 6515 READING 267 0.950369
1413989099080 6515 READING 299 0.954775
1413989099100 6515 READING 268 0.954067
1413989099121 6515 READING 297 0.952415
1413989099142 6515 READING 269 0.957784
1413989099171 6515 READING 297 0.896517
1413989099194 6516 READING 211 0.995559
1413989099387 6515 READING 272 0.985614
1413989099486 6516 READING 211 0.996207
1413989099691 6515 READING 295 0.973037
1413989099754 6516 READING 211 0.995320
1413989099962 6516 FUNCTION lru lambda h: 0.894823 * (h ** 0.0207988)
1413989099962 6515 FUNCTION lru lambda h: 0.266875 * (h ** 0.201449)
1413989099962 6516 RECOMMEND 284
1413989099962 6515 RECOMMEND 284
1413989099998 6516 READING 211 0.995055
1413989100009 6515 READING 273 0.983941
1413989100212 6516 READING 211 0.994457
1413989100427 6515 READING 292 0.981189
1413989100450 6516 READING 211 0.994373
1413989100683 6516 READING 210 0.994212
1413989100751 6515 READING 276 0.974746
1413989100914 6516 READING 211 0.993360
1413989101076 6515 READING 291 0.978837
1413989101236 6516 READING 211 0.996958
1413989101504 6515 READING 279 0.976212
1413989101582 6516 READING 211 0.998074
1413989101812 6515 READING 291 0.958168
1413989101863 6516 READING 211 0.997250
1413989102141 6516 READING 206 0.996363
1413989102161 6515 READING 281 0.961658
1413989102479 6516 READING 211 0.997718
1413989102618 6515 READING 289 0.971763
1413989102815 6516 READING 211 0.997546
1413989103061 6515 READING 290 0.966487
1413989103118 6516 READING 212 0.997278
1413989103410 6516 READING 207 0.997591
1413989103504 6515 READING 289 0.951339
1413989103697 6516 READING 211 0.997031
1413989103927 6516 READING 211 0.983388
1413989103929 6515 READING 290 0.964490
1413989104158 6516 READING 211 0.996835
1413989104257 6515 READING 290 0.931086
1413989104423 6516 READING 212 0.997372
1413989104580 6515 READING 291 0.929594
1413989104714 6516 READING 213 0.996462
1413989104977 6515 READING 290 0.938817
1413989105021 6516 READING 209 0.997624
1413989105288 6516 READING 212 0.996928
1413989105346 6515 READING 291 0.947586
1413989105617 6516 READING 212 0.997060
1413989105863 6515 READING 292 0.962459
1413989105878 6516 READING 213 0.997301
1413989106135 6516 READING 213 0.997120
1413989106209 6515 READING 292 0.943567
1413989106404 6516 READING 213 0.995260
1413989106536 6515 READING 293 0.971027
1413989106650 6516 READING 213 0.994207
1413989106857 6515 READING 293 0.949850
1413989106898 6516 READING 212 0.995471
1413989107159 6516 READING 212 0.995715
1413989107209 6515 READING 293 0.952871
1413989107478 6516 READING 212 0.996115
1413989107545 6515 READING 293 0.940677
1413989107754 6516 READING 211 0.995300
1413989108022 6516 READING 212 0.995098
1413989108056 6515 READING 292 0.953477
1413989108335 6516 READING 210 0.996034
1413989108439 6515 READING 292 0.942321
1413989108682 6516 READING 211 0.995987
1413989108928 6515 READING 291 0.971196
1413989108961 6516 READING 211 0.995385
1413989109216 6516 READING 211 0.994686
1413989109309 6515 READING 292 0.961131
1413989109461 6516 READING 211 0.994344
1413989109675 6516 READING 211 0.994303
1413989109893 6515 READING 291 0.974050
1413989109918 6516 READING 211 0.994437
1413989109962 6516 FUNCTION lru lambda h: 0.894644 * (h ** 0.0208501)
1413989109962 6515 FUNCTION lru lambda h: 0.256912 * (h ** 0.211282)
1413989109962 6516 RECOMMEND 284
1413989109962 6515 RECOMMEND 284
1413989110176 6516 READING 210 0.994415
1413989110220 6515 READING 284 0.918071
1413989110397 6516 READING 211 0.957528
1413989110732 6515 READING 290 0.952630
1413989110734 6516 READING 217 0.997142
1413989111047 6515 READING 290 0.930023
1413989111054 6516 READING 217 0.997127
1413989111321 6516 READING 217 0.996373
1413989111373 6515 READING 289 0.942977
1413989111612 6516 READING 212 0.996425
1413989111679 6515 READING 290 0.952511
1413989111957 6516 READING 217 0.996984
1413989112008 6515 READING 289 0.939358
1413989112269 6516 READING 217 0.996706
1413989112341 6515 READING 289 0.938448
1413989112554 6516 READING 218 0.997302
1413989112780 6515 READING 288 0.945256
1413989112857 6516 READING 214 0.997214
1413989113115 6516 READING 217 0.996764
1413989113204 6515 READING 284 0.943765
1413989113324 6516 READING 217 0.995402
1413989113519 6515 READING 288 0.931954
1413989113551 6516 READING 218 0.995252
1413989113818 6516 READING 218 0.997231
1413989113840 6515 READING 288 0.953410
1413989114118 6516 READING 218 0.997342
1413989114204 6515 READING 287 0.942475
1413989114405 6516 READING 218 0.997307
1413989114609 6515 READING 288 0.947883
1413989114677 6516 READING 219 0.997123
1413989114986 6516 READING 216 0.997104
1413989115047 6515 READING 287 0.949081
1413989115244 6516 READING 219 0.997497
1413989115454 6515 READING 287 0.936171
1413989115485 6516 READING 219 0.997030
1413989115733 6516 READING 220 0.994761
1413989115778 6515 READING 287 0.932332
1413989115972 6516 READING 220 0.995281
1413989116109 6515 READING 285 0.926139
1413989116219 6516 READING 218 0.995286
1413989116419 6515 READING 287 0.926815
1413989116464 6516 READING 218 0.994845
1413989116727 6515 READING 287 0.929618
1413989116780 6516 READING 218 0.996208
1413989117057 6516 READING 217 0.956163
1413989117057 6515 READING 286 0.956766
1413989117332 6516 READING 218 0.996932
1413989117452 6515 READING 286 0.936359
1413989117653 6516 READING 218 0.996347
1413989117789 6515 READING 286 0.923701
1413989117959 6516 READING 218 0.995919
1413989118101 6515 READING 284 0.919503
1413989118226 6516 READING 218 0.995987
1413989118417 6515 READING 286 0.931075
1413989118485 6516 READING 218 0.995530
1413989118700 6516 READING 218 0.994201
1413989118898 6516 READING 218 0.992715
1413989119148 6516 READING 218 0.991218
1413989119373 6515 READING 286 0.562946
1413989119446 6516 READING 218 0.995533
1413989119686 6516 READING 218 0.994766
1413989119957 6515 READING 280 0.984635
1413989119962 6516 FUNCTION lru lambda h: 0.897707 * (h ** 0.0199886)
1413989119963 6515 FUNCTION lru lambda h: 0.255246 * (h ** 0.212967)
1413989119963 6516 RECOMMEND 284
1413989119963 6515 RECOMMEND 284
1413989120046 6516 READING 218 0.997786
1413989120214 6515 READING 282 0.932978
1413989120338 6516 READING 218 0.997383
1413989120598 6516 READING 218 0.996468
1413989120676 6515 READING 284 0.950484
1413989120738 6515 READING 286 0.734987
1413989120811 6515 READING 286 0.778616
1413989120861 6515 READING 287 0.690560
1413989120908 6515 READING 289 0.673102
1413989120916 6516 READING 218 0.997406
1413989120965 6515 READING 289 0.592825
1413989121004 6515 READING 285 0.413547
1413989121039 6515 READING 292 0.440038
1413989121294 6516 READING 218 0.995523
1413989121383 6515 READING 292 0.047604
1413989121400 6515 READING 272 0.942303
1413989121415 6515 READING 292 0.936362
1413989121430 6515 READING 294 0.937466
1413989121445 6515 READING 294 0.935182
1413989121460 6515 READING 294 0.939719
1413989121481 6515 READING 293 0.648884
1413989121495 6515 READING 259 0.930885
1413989121517 6515 READING 294 0.700200
1413989121535 6515 READING 260 0.750215
1413989121558 6515 READING 293 0.654595
1413989121581 6515 READING 261 0.679995
1413989121600 6516 READING 218 0.997076
1413989121603 6515 READING 292 0.696552
1413989121621 6515 READING 262 0.944937
1413989121655 6515 READING 291 0.500000
1413989121673 6515 READING 263 0.948238
1413989121693 6515 READING 289 0.934925
1413989121711 6515 READING 264 0.948169
1413989121731 6515 READING 288 0.942622
1413989121757 6515 READING 266 0.930736
1413989121891 6516 READING 218 0.997478
1413989121929 6515 READING 287 0.967389
1413989122200 6516 READING 213 0.997909
1413989122400 6515 READING 268 0.989761
1413989122432 6516 READING 217 0.996354
1413989122661 6516 READING 217 0.996300
1413989122714 6515 READING 285 0.984342
1413989122901 6516 READING 217 0.997193
1413989123013 6515 READING 270 0.975169
1413989123189 6516 READING 218 0.997134
1413989123370 6515 READING 283 0.976492
1413989123483 6516 READING 219 0.997197
1413989123683 6515 READING 282 0.970341
1413989123762 6516 READING 215 0.997203
1413989123989 6515 READING 284 0.966352
1413989124090 6516 READING 218 0.996596
1413989124322 6515 READING 284 0.966381
1413989124365 6516 READING 218 0.996568
1413989124625 6516 READING 219 0.996439
1413989124819 6515 READING 286 0.969029
1413989124889 6516 READING 219 0.997504
1413989125118 6516 READING 219 0.994743
1413989125180 6515 READING 286 0.934704
1413989125362 6516 READING 219 0.994702
1413989125546 6515 READING 286 0.969530
1413989125629 6516 READING 218 0.996001
1413989125902 6516 READING 218 0.996117
1413989126005 6515 READING 286 0.972029
1413989126222 6516 READING 218 0.996247
1413989126320 6515 READING 286 0.945992
1413989126475 6516 READING 217 0.994708
1413989126644 6515 READING 287 0.940816
1413989126768 6516 READING 218 0.996048
1413989126963 6515 READING 287 0.932771
1413989127105 6516 READING 218 0.995256
1413989127291 6515 READING 288 0.926896
1413989127388 6516 READING 217 0.996328
1413989127599 6515 READING 289 0.923945
1413989127662 6516 READING 217 0.995431
1413989127914 6516 READING 217 0.994848
1413989127944 6515 READING 289 0.928188
1413989128111 6516 READING 217 0.994352
1413989128287 6515 READING 290 0.946161
1413989128340 6516 READING 217 0.993385
1413989128568 6516 READING 217 0.994228
1413989128615 6515 READING 290 0.937764
1413989128818 6516 READING 216 0.995217
1413989129052 6515 READING 291 0.946444
1413989129105 6516 READING 217 0.995345
1413989129460 6516 READING 218 0.998082
1413989129495 6515 READING 291 0.936315
1413989129749 6516 READING 218 0.996929
1413989129844 6515 READING 291 0.932915
1413989129963 6516 FUNCTION lru lambda h: 0.896854 * (h ** 0.0202278)
1413989129963 6515 FUNCTION lru lambda h: 0.0970487 * (h ** 0.385137)
1413989129963 6516 RECOMMEND 284
1413989129963 6515 RECOMMEND 284
1413989130030 6516 READING 218 0.996828
1413989130180 6515 READING 291 0.930850
1413989130374 6516 READING 218 0.997838
1413989130513 6515 READING 291 0.936834
1413989130718 6516 READING 218 0.997536
1413989131029 6516 READING 218 0.996545
1413989131031 6515 READING 282 0.960190
1413989131314 6516 READING 217 0.996769
1413989131432 6515 READING 290 0.939991
1413989131604 6516 READING 217 0.997179
1413989131748 6515 READING 282 0.927968
1413989131825 6516 READING 218 0.996011
1413989132048 6516 READING 214 0.996944
1413989132087 6515 READING 290 0.935578
1413989132309 6516 READING 218 0.996246
1413989132422 6515 READING 283 0.935851
1413989132598 6516 READING 218 0.996648
1413989132741 6515 READING 289 0.933242
1413989132901 6516 READING 218 0.997084
1413989133167 6516 READING 218 0.993633
1413989133177 6515 READING 283 0.932163
1413989133494 6516 READING 219 0.997832
1413989133624 6515 READING 289 0.950670
1413989133757 6516 READING 216 0.997318
1413989133967 6515 READING 283 0.936372
1413989134009 6516 READING 219 0.996644
1413989134268 6516 READING 219 0.994573
1413989134483 6515 READING 288 0.955380
1413989134501 6516 READING 219 0.995258
1413989134740 6516 READING 219 0.995256
1413989134833 6515 READING 283 0.929565
1413989134983 6516 READING 218 0.995068
1413989135175 6515 READING 288 0.928319
1413989135278 6516 READING 218 0.995728
1413989135572 6516 READING 217 0.996530
1413989135593 6515 READING 288 0.961203
1413989135836 6516 READING 218 0.995777
1413989136016 6515 READING 288 0.940499
1413989136146 6516 READING 217 0.995517
1413989136365 6515 READING 284 0.937477
1413989136468 6516 READING 217 0.996060
1413989136745 6516 READING 217 0.995482
1413989136793 6515 READING 287 0.947724
1413989137011 6516 READING 217 0.994894
1413989137228 6515 READING 284 0.945226
1413989137247 6516 READING 217 0.994976
1413989137444 6516 READING 217 0.994302
1413989137675 6515 READING 287 0.944801
1413989137687 6516 READING 217 0.995194
1413989137924 6516 READING 215 0.995119
1413989138016 6515 READING 287 0.925999
1413989138144 6516 READING 217 0.994073
1413989138361 6515 READING 287 0.928106
1413989138461 6516 READING 217 0.997163
1413989138782 6516 READING 217 0.996369
1413989138792 6515 READING 284 0.937047
1413989139043 6516 READING 217 0.996956
1413989139205 6515 READING 286 0.937305
1413989139319 6516 READING 216 0.996952
1413989139647 6516 READING 217 0.997823
1413989139744 6515 READING 286 0.954701
1413989139961 6516 READING 218 0.997317
1413989139963 6516 FUNCTION lru lambda h: 0.896763 * (h ** 0.0202533)
1413989139963 6515 FUNCTION lru lambda h: 0.0969984 * (h ** 0.385232)
1413989139963 6516 RECOMMEND 284
1413989139963 6515 RECOMMEND 284
1413989140078 6515 READING 286 0.921174
1413989140249 6516 READING 218 0.997414
1413989140423 6515 READING 284 0.953110
1413989140540 6516 READING 217 0.997380
1413989140781 6515 READING 286 0.932131
1413989140806 6516 READING 217 0.996890
1413989141010 6516 READING 218 0.996007
1413989141039 6515 READING 286 0.880852
1413989141229 6516 READING 214 0.996865
1413989141481 6516 READING 218 0.996976
1413989141758 6516 READING 218 0.996076
1413989142024 6515 READING 285 0.588068
1413989142098 6516 READING 218 0.997116
1413989142345 6516 READING 218 0.996141
1413989142600 6515 READING 289 0.986396
1413989142658 6516 READING 218 0.996672
1413989142902 6516 READING 219 0.997090
1413989142902 6515 READING 292 0.863580
1413989143133 6516 READING 220 0.996930
1413989143200 6515 READING 293 0.960792
1413989143267 6515 READING 296 0.832510
1413989143337 6515 READING 296 0.810679
1413989143382 6515 READING 295 0.639518
1413989143392 6516 READING 217 0.995238
1413989143450 6515 READING 296 0.621606
1413989143489 6515 READING 290 0.467495
1413989143531 6515 READING 296 0.439208
1413989143573 6515 READING 296 0.394064
1413989143613 6515 READING 286 0.438768
1413989143636 6516 READING 218 0.992701
1413989143637 6515 READING 296 0.672051
1413989143908 6516 READING 219 0.991990
1413989143953 6515 READING 279 0.055274
1413989143970 6515 READING 295 0.939273
1413989143986 6515 READING 297 0.943178
1413989144002 6515 READING 297 0.941085
1413989144025 6515 READING 298 0.710104
1413989144040 6515 READING 298 0.943306
1413989144057 6515 READING 265 0.939960
1413989144073 6515 READING 297 0.939877
1413989144090 6515 READING 266 0.943223
1413989144107 6515 READING 297 0.946052
1413989144126 6515 READING 267 0.901369
1413989144145 6515 READING 296 0.947872
1413989144160 6516 READING 218 0.994460
1413989144164 6515 READING 268 0.944954
1413989144184 6515 READING 294 0.950977
1413989144207 6515 READING 270 0.937035
1413989144231 6515 READING 293 0.901573
1413989144460 6515 READING 273 0.985926
1413989144468 6516 READING 218 0.996302
1413989144748 6516 READING 217 0.995536
1413989144839 6515 READING 292 0.977622
1413989145008 6516 READING 218 0.995075
1413989145151 6515 READING 274 0.984341
1413989145334 6516 READING 218 0.996288
1413989145449 6515 READING 291 0.986658
1413989145643 6516 READING 216 0.995815
1413989145839 6515 READING 277 0.977521
1413989145925 6516 READING 217 0.995405
1413989146158 6515 READING 290 0.956439
1413989146191 6516 READING 217 0.995151
1413989146454 6516 READING 217 0.995276
1413989146482 6515 READING 280 0.968311
1413989146656 6516 READING 217 0.993118
1413989146796 6515 READING 289 0.947299
1413989146894 6516 READING 217 0.993736
1413989147154 6516 READING 217 0.995625
1413989147220 6515 READING 289 0.968671
1413989147372 6516 READING 216 0.994555
1413989147653 6515 READING 288 0.950436
1413989147747 6516 READING 217 0.998081
1413989148073 6516 READING 217 0.997602
1413989148260 6515 READING 289 0.975202
1413989148355 6516 READING 217 0.996672
1413989148676 6516 READING 216 0.997557
1413989148856 6515 READING 289 0.964026
1413989149053 6516 READING 217 0.997710
1413989149142 6515 READING 289 0.959683
1413989149386 6516 READING 218 0.997660
1413989149534 6515 READING 289 0.954472
1413989149699 6516 READING 218 0.997510
1413989149830 6515 READING 290 0.938167
1413989149963 6516 FUNCTION lru lambda h: 0.896752 * (h ** 0.0202562)
1413989149963 6515 FUNCTION lru lambda h: 0.0949453 * (h ** 0.389459)
1413989149963 6516 RECOMMEND 284
1413989149963 6515 RECOMMEND 284
1413989150035 6516 READING 217 0.997733
1413989150120 6515 READING 289 0.916876
1413989150307 6516 READING 217 0.997140
1413989150416 6515 READING 290 0.916826
1413989150538 6516 READING 218 0.996921
1413989150745 6515 READING 290 0.939358
1413989150787 6516 READING 214 0.997037
1413989151073 6515 READING 291 0.958614
1413989151088 6516 READING 218 0.997466
1413989151390 6515 READING 291 0.939329
1413989151410 6516 READING 218 0.997295
1413989151692 6515 READING 291 0.923596
1413989151723 6516 READING 218 0.997547
1413989151992 6515 READING 290 0.928037
1413989152041 6516 READING 218 0.996844
1413989152304 6515 READING 291 0.937636
1413989152369 6516 READING 218 0.996197
1413989152618 6515 READING 290 0.931310
1413989152661 6516 READING 219 0.997429
1413989152926 6516 READING 220 0.996455
1413989152980 6515 READING 290 0.962317
1413989153176 6516 READING 217 0.995700
1413989153409 6516 READING 218 0.995475
1413989153453 6515 READING 289 0.969899
1413989153658 6516 READING 219 0.995147
1413989153913 6516 READING 218 0.980030
1413989153917 6515 READING 283 0.967829
1413989154211 6515 READING 290 0.935581
1413989154243 6516 READING 218 0.996147
1413989154494 6515 READING 283 0.917800
1413989154504 6516 READING 217 0.994935
1413989154775 6516 READING 218 0.995706
1413989154776 6515 READING 289 0.929301
1413989155081 6515 READING 283 0.937103
1413989155109 6516 READING 217 0.996193
1413989155387 6515 READING 289 0.937182
1413989155417 6516 READING 217 0.995371
1413989155676 6516 READING 217 0.994653
1413989155711 6515 READING 288 0.940600
1413989155940 6516 READING 217 0.995291
1413989156003 6515 READING 287 0.902783
1413989156151 6516 READING 217 0.994781
1413989156365 6516 READING 217 0.993713
1413989156385 6515 READING 288 0.953116
1413989156608 6516 READING 217 0.995821
1413989156768 6515 READING 287 0.935334
1413989156862 6516 READING 215 0.995013
1413989157122 6516 READING 217 0.995294
1413989157174 6515 READING 287 0.941655
1413989157490 6515 READING 287 0.932110
1413989157510 6516 READING 217 0.997950
1413989157812 6516 READING 217 0.997424
1413989157928 6515 READING 284 0.945766
1413989158093 6516 READING 217 0.996878
1413989158350 6515 READING 287 0.951205
1413989158443 6516 READING 217 0.997397
1413989158653 6515 READING 287 0.932679
1413989158812 6516 READING 217 0.997743
1413989159044 6515 READING 287 0.953149
1413989159150 6516 READING 218 0.997379
1413989159372 6515 READING 284 0.930118
1413989159463 6516 READING 218 0.997529
1413989159768 6515 READING 286 0.941959
1413989159792 6516 READING 217 0.996332
1413989159963 6516 FUNCTION lru lambda h: 0.896739 * (h ** 0.0202598)
1413989159963 6515 FUNCTION lru lambda h: 0.0942445 * (h ** 0.391183)
1413989159963 6516 RECOMMEND 284
1413989159963 6515 RECOMMEND 284
1413989160029 6516 READING 217 0.997085
1413989160069 6515 READING 286 0.920713
1413989160255 6516 READING 218 0.996029
1413989160504 6515 READING 286 0.948858
1413989160512 6516 READING 214 0.997203
1413989160814 6516 READING 218 0.996996
1413989160896 6515 READING 286 0.949415
1413989161129 6516 READING 218 0.997505
1413989161177 6515 READING 285 0.964811
1413989161437 6516 READING 218 0.997655
1413989161493 6515 READING 286 0.946771
1413989161779 6515 READING 286 0.913139
1413989161781 6516 READING 218 0.997536
1413989162071 6516 READING 218 0.997379
1413989162130 6515 READING 286 0.955189
1413989162349 6516 READING 219 0.996854
1413989162474 6515 READING 286 0.930985
1413989162638 6516 READING 220 0.996879
1413989162860 6515 READING 284 0.946965
1413989162876 6516 READING 219 0.995507
1413989163116 6516 READING 218 0.995090
1413989163172 6515 READING 285 0.927839
1413989163360 6516 READING 219 0.994614
1413989163484 6515 READING 285 0.921386
1413989163639 6516 READING 218 0.995817
1413989163774 6515 READING 285 0.928773
1413989163946 6516 READING 217 0.995973
1413989164090 6515 READING 284 0.927117
1413989164185 6516 READING 218 0.995192
1413989164477 6516 READING 218 0.995656
1413989164799 6516 READING 217 0.977373
1413989165113 6516 READING 217 0.993135
1413989165138 6515 READING 284 0.596556
1413989165384 6516 READING 217 0.994877
1413989165582 6515 READING 285 0.982057
1413989165641 6516 READING 217 0.995534
1413989165844 6516 READING 217 0.993787
1413989165893 6515 READING 289 0.886018
1413989166072 6516 READING 215 0.993680
1413989166181 6515 READING 289 0.912624
1413989166249 6515 READING 292 0.684496
1413989166305 6516 READING 217 0.995417
1413989166329 6515 READING 292 0.732301
1413989166368 6515 READING 292 0.540149
1413989166429 6515 READING 285 0.641136
1413989166471 6515 READING 288 0.491521
1413989166512 6515 READING 292 0.403537
1413989166551 6515 READING 293 0.404093
1413989166554 6516 READING 217 0.995052
1413989166573 6515 READING 280 0.709641
1413989166600 6515 READING 296 0.627632
1413989166869 6516 READING 218 0.996152
1413989167180 6515 READING 281 0.027114
1413989167196 6515 READING 294 0.933511
1413989167211 6515 READING 296 0.935806
1413989167226 6515 READING 297 0.933772
1413989167242 6515 READING 297 0.936865
1413989167247 6516 READING 213 0.997703
1413989167257 6515 READING 297 0.939432
1413989167272 6515 READING 266 0.932857
1413989167288 6515 READING 298 0.939861
1413989167303 6515 READING 267 0.937236
1413989167322 6515 READING 297 0.883573
1413989167338 6515 READING 268 0.930228
1413989167356 6515 READING 296 0.944919
1413989167374 6515 READING 270 0.938884
1413989167393 6515 READING 295 0.939000
1413989167412 6515 READING 271 0.944222
1413989167432 6515 READING 294 0.943630
1413989167457 6515 READING 272 0.925334
1413989167482 6515 READING 292 0.923038
1413989167515 6516 READING 218 0.996404
1413989167774 6516 READING 217 0.996978
1413989167785 6515 READING 274 0.987401
1413989168079 6515 READING 291 0.979633
1413989168098 6516 READING 217 0.997834
1413989168425 6516 READING 217 0.997429
1413989168484 6515 READING 276 0.982331
1413989168719 6516 READING 218 0.997369
1413989168890 6515 READING 290 0.977088
1413989168993 6516 READING 213 0.996548
1413989169197 6515 READING 279 0.973573
1413989169268 6516 READING 217 0.996866
1413989169485 6515 READING 289 0.964419
1413989169486 6516 READING 217 0.995835
1413989169701 6516 READING 217 0.996050
1413989169807 6515 READING 289 0.929476
1413989169955 6516 READING 218 0.996676
1413989169964 6516 FUNCTION lru lambda h: 0.896784 * (h ** 0.0202472)
1413989169964 6515 FUNCTION lru lambda h: 0.0968989 * (h ** 0.384679)
1413989169964 6516 RECOMMEND 284
1413989169964 6515 RECOMMEND 284
1413989170091 6515 READING 289 0.952064
1413989170232 6516 READING 219 0.995103
1413989170458 6515 READING 289 0.964312
1413989170518 6516 READING 215 0.997060
1413989170759 6515 READING 288 0.954980
1413989170764 6516 READING 218 0.996270
1413989171093 6516 READING 218 0.975025
1413989171094 6515 READING 289 0.967272
1413989171339 6516 READING 219 0.995820
1413989171570 6516 READING 219 0.995961
1413989171585 6515 READING 288 0.970583
1413989171824 6516 READING 219 0.994853
1413989171881 6515 READING 289 0.936924
1413989172074 6516 READING 219 0.994859
1413989172256 6515 READING 289 0.953667
1413989172307 6516 READING 218 0.995217
1413989172534 6515 READING 290 0.935409
1413989172553 6516 READING 218 0.994874
1413989172798 6515 READING 290 0.929228
1413989172855 6516 READING 218 0.995766
1413989173068 6515 READING 291 0.918919
1413989173139 6516 READING 217 0.995645
1413989173411 6516 READING 218 0.994625
1413989173451 6515 READING 291 0.925399
1413989173727 6516 READING 218 0.994300
1413989173796 6515 READING 291 0.947750
1413989174077 6516 READING 217 0.996275
1413989174277 6515 READING 291 0.946289
1413989174386 6516 READING 217 0.995780
1413989174672 6516 READING 217 0.993580
1413989174672 6515 READING 291 0.953842
1413989174907 6516 READING 217 0.994373
1413989175051 6515 READING 291 0.943053
1413989175105 6516 READING 217 0.993290
1413989175344 6515 READING 283 0.920157
1413989175346 6516 READING 215 0.994954
1413989175594 6516 READING 217 0.994050
1413989175650 6515 READING 291 0.924176
1413989175813 6516 READING 217 0.993676
1413989176030 6515 READING 291 0.965072
1413989176147 6516 READING 218 0.997756
1413989176397 6515 READING 290 0.946958
1413989176489 6516 READING 213 0.997244
1413989176703 6515 READING 283 0.928523
1413989176761 6516 READING 218 0.996618
1413989177003 6515 READING 290 0.954571
1413989177057 6516 READING 217 0.996987
1413989177287 6515 READING 290 0.920088
1413989177401 6516 READING 217 0.997579
1413989177563 6515 READING 289 0.938387
1413989177719 6516 READING 217 0.997537
1413989177908 6515 READING 284 0.932348
1413989178015 6516 READING 218 0.997455
1413989178224 6515 READING 289 0.921696
1413989178312 6516 READING 213 0.997410
1413989178507 6515 READING 284 0.919705
1413989178584 6516 READING 217 0.997293
1413989178798 6516 READING 217 0.995963
1413989178883 6515 READING 288 0.945993
1413989179032 6516 READING 217 0.996881
1413989179158 6515 READING 288 0.912949
1413989179297 6516 READING 218 0.997146
1413989179580 6516 READING 219 0.997417
1413989179621 6515 READING 287 0.963573
1413989179879 6515 READING 288 0.911879
1413989179885 6516 READING 215 0.996899
1413989179964 6516 FUNCTION lru lambda h: 0.896606 * (h ** 0.0202973)
1413989179964 6515 FUNCTION lru lambda h: 0.0957217 * (h ** 0.38753)
1413989179964 6516 RECOMMEND 284
1413989179964 6515 RECOMMEND 284
1413989180148 6516 READING 218 0.997376
1413989180184 6515 READING 287 0.925628
1413989180465 6516 READING 218 0.997518
1413989180574 6515 READING 287 0.947787
1413989180722 6516 READING 219 0.996937
1413989180924 6515 READING 287 0.933841
1413989180967 6516 READING 219 0.996820
1413989181227 6516 READING 219 0.995337
1413989181311 6515 READING 287 0.938448
1413989181473 6516 READING 219 0.994820
1413989181716 6516 READING 218 0.995049
1413989181799 6515 READING 286 0.958430
1413989181954 6516 READING 218 0.994041
1413989182171 6515 READING 287 0.945563
1413989182277 6516 READING 218 0.995055
1413989182552 6516 READING 217 0.996043
1413989182752 6515 READING 287 0.964824
1413989182837 6516 READING 218 0.995396
1413989183150 6515 READING 287 0.954567
1413989183153 6516 READING 216 0.996101
1413989183466 6516 READING 217 0.995682
1413989183530 6515 READING 286 0.939385
1413989183754 6516 READING 217 0.996049
1413989183900 6515 READING 286 0.943915
1413989184017 6516 READING 217 0.993885
1413989184220 6515 READING 286 0.930242
1413989184244 6516 READING 217 0.994803
1413989184447 6516 READING 217 0.993675
1413989184536 6515 READING 286 0.924155
1413989184688 6516 READING 217 0.994185
1413989184822 6515 READING 286 0.927033
1413989184958 6516 READING 216 0.995723
1413989185181 6516 READING 217 0.995727
1413989185181 6515 READING 286 0.931893
1413989185528 6516 READING 218 0.997294
1413989185555 6515 READING 285 0.943656
1413989185831 6516 READING 218 0.997527
1413989185895 6515 READING 286 0.932010
1413989186095 6516 READING 218 0.996691
1413989186174 6515 READING 286 0.925955
1413989186397 6516 READING 218 0.997340
1413989186456 6515 READING 286 0.927187
1413989186737 6516 READING 218 0.997509
1413989186740 6515 READING 286 0.926779
1413989187037 6515 READING 284 0.924926
1413989187041 6516 READING 218 0.983808
1413989187239 6515 READING 285 0.888716
1413989187328 6516 READING 218 0.997196
1413989187458 6515 READING 285 0.905839
1413989187640 6516 READING 213 0.997003
1413989187889 6516 READING 217 0.996096
1413989187916 6515 READING 285 0.951057
1413989188119 6516 READING 217 0.995820
1413989188347 6516 READING 217 0.996076
1413989188543 6515 READING 285 0.943988
1413989188623 6516 READING 218 0.996990
1413989188945 6516 READING 218 0.996348
1413989189043 6515 READING 287 0.407147
1413989189247 6516 READING 218 0.997164
1413989189461 6515 READING 266 0.975378
1413989189543 6516 READING 219 0.997344
1413989189570 6515 READING 269 0.949015
1413989189626 6515 READING 270 0.871554
1413989189690 6515 READING 272 0.867524
1413989189717 6515 READING 272 0.819837
1413989189786 6515 READING 276 0.675081
1413989189823 6515 READING 276 0.633612
1413989189833 6516 READING 216 0.996986
1413989189859 6515 READING 283 0.740319
1413989189897 6515 READING 284 0.677610
1413989189944 6515 READING 283 0.564415
1413989189964 6516 FUNCTION lru lambda h: 0.896669 * (h ** 0.0202796)
1413989189964 6515 FUNCTION lru lambda h: 0.098345 * (h ** 0.381006)
1413989189964 6516 RECOMMEND 284
1413989189964 6515 RECOMMEND 284
1413989189980 6515 READING 287 0.692957
1413989190017 6515 READING 281 0.703539
1413989190053 6515 READING 287 0.705128
1413989190085 6515 READING 284 0.804411
1413989190096 6516 READING 219 0.996798
1413989190112 6515 READING 288 0.959929
1413989190140 6515 READING 284 0.959933
1413989190167 6515 READING 289 0.959521
1413989190194 6515 READING 288 0.949709
1413989190221 6515 READING 260 0.959479
1413989190254 6515 READING 289 0.938910
1413989190272 6515 DEATH 953
1413989190339 6516 READING 219 0.997146
1413989190373 6516 DEATH 1126
