economemd
    total memory: 2446 MB
    timer interval: 10 s
    timer start state: running
    utility model: root

    caches:
        lru

    force utility function validity: yes
    make recommendations: yes
    equal recommendations: no

    reading receiver name: vengerov
    command receiver name: vengerov

    dump file: economemd.dump.log
    log file: /home/callum/economics_memory_code/dynamic_sizing/data/output/timerComparisonMany_2014_10_15_12_35_15/sub11_timerComparisonSingle/sub3_timeBenchmarkDaemon/daemon_run10_log.txt
    log readings: yes
    log functions: yes

PyOptimiser: initialising...
PyOptimiser: initialised
ReadingThread: starting
TimerThread: starting
CommandThread: starting
Recommendation: no clients; no recommendation
Recommendation: no clients; no recommendation
Reading from 4674: heap size 9 MB, throughput 0.986983
Clients: 1
Client 4674 has a minimum heap size of 12 MB
Reading from 4673: heap size 9 MB, throughput 0.992803
Clients: 2
Client 4673 has a minimum heap size of 1211 MB
Reading from 4673: heap size 9 MB, throughput 0.989347
Reading from 4674: heap size 9 MB, throughput 0.985742
Reading from 4673: heap size 9 MB, throughput 0.975818
Reading from 4673: heap size 9 MB, throughput 0.96654
Reading from 4674: heap size 11 MB, throughput 0.985889
Reading from 4673: heap size 11 MB, throughput 0.971028
Reading from 4674: heap size 11 MB, throughput 0.979748
Reading from 4673: heap size 11 MB, throughput 0.96101
Reading from 4674: heap size 15 MB, throughput 0.984978
Reading from 4673: heap size 17 MB, throughput 0.959575
Reading from 4673: heap size 17 MB, throughput 0.881322
Reading from 4674: heap size 15 MB, throughput 0.986921
Reading from 4673: heap size 30 MB, throughput 0.831944
Reading from 4673: heap size 31 MB, throughput 0.509368
Reading from 4674: heap size 24 MB, throughput 0.96302
Reading from 4673: heap size 34 MB, throughput 0.676202
Reading from 4673: heap size 46 MB, throughput 0.471687
Reading from 4673: heap size 47 MB, throughput 0.457244
Reading from 4674: heap size 30 MB, throughput 0.960475
Reading from 4673: heap size 50 MB, throughput 0.582522
Reading from 4673: heap size 73 MB, throughput 0.48226
Reading from 4674: heap size 36 MB, throughput 0.935153
Reading from 4674: heap size 42 MB, throughput 0.958979
Reading from 4673: heap size 73 MB, throughput 0.308459
Reading from 4673: heap size 100 MB, throughput 0.568378
Reading from 4673: heap size 100 MB, throughput 0.472636
Reading from 4674: heap size 43 MB, throughput 0.771426
Reading from 4673: heap size 101 MB, throughput 0.270995
Reading from 4673: heap size 104 MB, throughput 0.221384
Reading from 4674: heap size 46 MB, throughput 0.835703
Reading from 4674: heap size 52 MB, throughput 0.937771
Reading from 4674: heap size 52 MB, throughput 0.967297
Reading from 4673: heap size 107 MB, throughput 0.425801
Reading from 4673: heap size 140 MB, throughput 0.295244
Reading from 4673: heap size 144 MB, throughput 0.241551
Reading from 4674: heap size 61 MB, throughput 0.966361
Reading from 4673: heap size 146 MB, throughput 0.701711
Reading from 4673: heap size 154 MB, throughput 0.670256
Reading from 4674: heap size 61 MB, throughput 0.97253
Reading from 4673: heap size 156 MB, throughput 0.697378
Reading from 4674: heap size 73 MB, throughput 0.960046
Reading from 4674: heap size 77 MB, throughput 0.980054
Reading from 4673: heap size 159 MB, throughput 0.41214
Reading from 4673: heap size 198 MB, throughput 0.659516
Reading from 4673: heap size 203 MB, throughput 0.684012
Reading from 4674: heap size 87 MB, throughput 0.991246
Reading from 4673: heap size 207 MB, throughput 0.67234
Reading from 4673: heap size 211 MB, throughput 0.651753
Reading from 4673: heap size 219 MB, throughput 0.635478
Reading from 4673: heap size 222 MB, throughput 0.634128
Reading from 4673: heap size 233 MB, throughput 0.626032
Reading from 4673: heap size 239 MB, throughput 0.575157
Reading from 4674: heap size 88 MB, throughput 0.99424
Reading from 4673: heap size 246 MB, throughput 0.436523
Reading from 4673: heap size 289 MB, throughput 0.485902
Reading from 4673: heap size 230 MB, throughput 0.529985
Reading from 4674: heap size 97 MB, throughput 0.995942
Reading from 4673: heap size 279 MB, throughput 0.225613
Reading from 4673: heap size 277 MB, throughput 0.512885
Reading from 4673: heap size 321 MB, throughput 0.58066
Reading from 4673: heap size 324 MB, throughput 0.611811
Reading from 4673: heap size 315 MB, throughput 0.678095
Reading from 4674: heap size 99 MB, throughput 0.996573
Reading from 4673: heap size 320 MB, throughput 0.669748
Reading from 4673: heap size 321 MB, throughput 0.640192
Reading from 4673: heap size 324 MB, throughput 0.626677
Reading from 4673: heap size 326 MB, throughput 0.604525
Reading from 4673: heap size 333 MB, throughput 0.578943
Reading from 4673: heap size 338 MB, throughput 0.541873
Reading from 4673: heap size 345 MB, throughput 0.533464
Reading from 4674: heap size 107 MB, throughput 0.997096
Reading from 4673: heap size 349 MB, throughput 0.516079
Reading from 4674: heap size 108 MB, throughput 0.996567
Reading from 4673: heap size 356 MB, throughput 0.419911
Reading from 4673: heap size 404 MB, throughput 0.451899
Reading from 4673: heap size 409 MB, throughput 0.48942
Reading from 4673: heap size 406 MB, throughput 0.538987
Reading from 4674: heap size 114 MB, throughput 0.994834
Reading from 4673: heap size 408 MB, throughput 0.206698
Reading from 4673: heap size 452 MB, throughput 0.498096
Numeric result:
Recommendation: 2 clients, utility 0.91818:
    h1: 1235 MB (U(h) = 0.919886*h^0.0106158)
    h2: 1211 MB (U(h) = 0.918946*h^0.001)
Recommendation: 2 clients, utility 0.91818:
    h1: 1235 MB (U(h) = 0.919886*h^0.0106158)
    h2: 1211 MB (U(h) = 0.918946*h^0.001)
Reading from 4673: heap size 456 MB, throughput 0.534714
Reading from 4673: heap size 449 MB, throughput 0.563162
Reading from 4674: heap size 115 MB, throughput 0.995542
Reading from 4673: heap size 453 MB, throughput 0.558782
Reading from 4673: heap size 452 MB, throughput 0.542053
Reading from 4673: heap size 453 MB, throughput 0.571017
Reading from 4673: heap size 457 MB, throughput 0.517034
Reading from 4674: heap size 120 MB, throughput 0.996361
Reading from 4673: heap size 458 MB, throughput 0.335037
Reading from 4674: heap size 120 MB, throughput 0.996459
Reading from 4673: heap size 516 MB, throughput 0.515531
Reading from 4673: heap size 518 MB, throughput 0.542788
Reading from 4673: heap size 521 MB, throughput 0.567574
Reading from 4673: heap size 523 MB, throughput 0.548515
Reading from 4673: heap size 527 MB, throughput 0.570019
Reading from 4674: heap size 125 MB, throughput 0.996859
Reading from 4673: heap size 534 MB, throughput 0.566432
Reading from 4673: heap size 539 MB, throughput 0.504632
Reading from 4673: heap size 549 MB, throughput 0.50299
Reading from 4674: heap size 125 MB, throughput 0.996765
Reading from 4674: heap size 129 MB, throughput 0.996457
Reading from 4673: heap size 556 MB, throughput 0.318226
Reading from 4673: heap size 619 MB, throughput 0.465402
Reading from 4673: heap size 624 MB, throughput 0.512234
Reading from 4673: heap size 626 MB, throughput 0.532432
Reading from 4673: heap size 626 MB, throughput 0.559485
Reading from 4674: heap size 129 MB, throughput 0.996653
Reading from 4674: heap size 132 MB, throughput 0.994272
Reading from 4674: heap size 133 MB, throughput 0.992535
Reading from 4673: heap size 628 MB, throughput 0.261656
Reading from 4673: heap size 699 MB, throughput 0.796993
Reading from 4674: heap size 136 MB, throughput 0.994997
Reading from 4673: heap size 701 MB, throughput 0.816937
Reading from 4674: heap size 136 MB, throughput 0.996048
Reading from 4673: heap size 699 MB, throughput 0.827802
Reading from 4673: heap size 710 MB, throughput 0.760223
Reading from 4673: heap size 720 MB, throughput 0.660874
Reading from 4673: heap size 724 MB, throughput 0.633525
Reading from 4674: heap size 140 MB, throughput 0.9968
Numeric result:
Recommendation: 2 clients, utility 0.756416:
    h1: 1235 MB (U(h) = 0.892856*h^0.019669)
    h2: 1211 MB (U(h) = 0.731283*h^0.001)
Recommendation: 2 clients, utility 0.756416:
    h1: 1235 MB (U(h) = 0.892856*h^0.019669)
    h2: 1211 MB (U(h) = 0.731283*h^0.001)
Reading from 4674: heap size 140 MB, throughput 0.997134
Reading from 4673: heap size 724 MB, throughput 0.443071
Reading from 4673: heap size 730 MB, throughput 0.413853
Reading from 4674: heap size 143 MB, throughput 0.997549
Reading from 4673: heap size 791 MB, throughput 0.41956
Reading from 4673: heap size 794 MB, throughput 0.445279
Reading from 4673: heap size 798 MB, throughput 0.807306
Reading from 4673: heap size 798 MB, throughput 0.744749
Reading from 4673: heap size 797 MB, throughput 0.703954
Reading from 4674: heap size 143 MB, throughput 0.997797
Reading from 4673: heap size 799 MB, throughput 0.67683
Reading from 4674: heap size 146 MB, throughput 0.998046
Reading from 4674: heap size 146 MB, throughput 0.994513
Reading from 4673: heap size 803 MB, throughput 0.311004
Reading from 4674: heap size 148 MB, throughput 0.987267
Reading from 4673: heap size 879 MB, throughput 0.515445
Reading from 4673: heap size 882 MB, throughput 0.70331
Reading from 4673: heap size 886 MB, throughput 0.730834
Reading from 4674: heap size 148 MB, throughput 0.989102
Reading from 4673: heap size 892 MB, throughput 0.861388
Reading from 4673: heap size 896 MB, throughput 0.869005
Reading from 4673: heap size 899 MB, throughput 0.902149
Reading from 4673: heap size 764 MB, throughput 0.864388
Reading from 4673: heap size 874 MB, throughput 0.829623
Reading from 4674: heap size 154 MB, throughput 0.992747
Reading from 4673: heap size 769 MB, throughput 0.820476
Reading from 4673: heap size 864 MB, throughput 0.810798
Reading from 4673: heap size 774 MB, throughput 0.806915
Reading from 4673: heap size 857 MB, throughput 0.819235
Reading from 4673: heap size 773 MB, throughput 0.825502
Reading from 4673: heap size 852 MB, throughput 0.815571
Reading from 4674: heap size 154 MB, throughput 0.995113
Reading from 4673: heap size 857 MB, throughput 0.817268
Reading from 4673: heap size 848 MB, throughput 0.833081
Reading from 4673: heap size 853 MB, throughput 0.914503
Reading from 4674: heap size 159 MB, throughput 0.996086
Reading from 4674: heap size 160 MB, throughput 0.995981
Reading from 4673: heap size 852 MB, throughput 0.971947
Reading from 4673: heap size 855 MB, throughput 0.936562
Numeric result:
Recommendation: 2 clients, utility 0.603903:
    h1: 1160.1 MB (U(h) = 0.886966*h^0.0215828)
    h2: 1285.9 MB (U(h) = 0.492646*h^0.0239242)
Recommendation: 2 clients, utility 0.603903:
    h1: 1160.08 MB (U(h) = 0.886966*h^0.0215828)
    h2: 1285.92 MB (U(h) = 0.492646*h^0.0239242)
Reading from 4673: heap size 856 MB, throughput 0.907564
Reading from 4673: heap size 856 MB, throughput 0.876005
Reading from 4673: heap size 860 MB, throughput 0.854907
Reading from 4674: heap size 164 MB, throughput 0.996798
Reading from 4673: heap size 861 MB, throughput 0.837604
Reading from 4673: heap size 863 MB, throughput 0.830871
Reading from 4673: heap size 865 MB, throughput 0.829004
Reading from 4673: heap size 867 MB, throughput 0.82924
Reading from 4673: heap size 869 MB, throughput 0.831064
Reading from 4674: heap size 164 MB, throughput 0.997015
Reading from 4673: heap size 871 MB, throughput 0.864257
Reading from 4673: heap size 873 MB, throughput 0.875213
Reading from 4673: heap size 873 MB, throughput 0.865375
Reading from 4674: heap size 167 MB, throughput 0.996171
Reading from 4674: heap size 168 MB, throughput 0.991307
Reading from 4673: heap size 876 MB, throughput 0.695301
Reading from 4674: heap size 172 MB, throughput 0.99412
Reading from 4673: heap size 966 MB, throughput 0.673789
Reading from 4673: heap size 986 MB, throughput 0.716584
Reading from 4673: heap size 984 MB, throughput 0.74463
Reading from 4673: heap size 987 MB, throughput 0.74538
Reading from 4673: heap size 985 MB, throughput 0.757456
Reading from 4673: heap size 988 MB, throughput 0.726866
Reading from 4674: heap size 172 MB, throughput 0.995397
Reading from 4673: heap size 993 MB, throughput 0.731825
Reading from 4673: heap size 995 MB, throughput 0.718458
Reading from 4673: heap size 1006 MB, throughput 0.730785
Reading from 4673: heap size 1007 MB, throughput 0.720197
Reading from 4673: heap size 1020 MB, throughput 0.748936
Reading from 4674: heap size 177 MB, throughput 0.996447
Reading from 4674: heap size 177 MB, throughput 0.995224
Reading from 4673: heap size 1021 MB, throughput 0.944797
Reading from 4674: heap size 182 MB, throughput 0.987355
Reading from 4673: heap size 1038 MB, throughput 0.953846
Numeric result:
Recommendation: 2 clients, utility 0.884484:
    h1: 192.175 MB (U(h) = 0.885607*h^0.0220163)
    h2: 2253.82 MB (U(h) = 0.121178*h^0.258207)
Recommendation: 2 clients, utility 0.884484:
    h1: 192.175 MB (U(h) = 0.885607*h^0.0220163)
    h2: 2253.82 MB (U(h) = 0.121178*h^0.258207)
Reading from 4674: heap size 182 MB, throughput 0.98548
Reading from 4673: heap size 1040 MB, throughput 0.960327
Reading from 4674: heap size 186 MB, throughput 0.987831
Reading from 4674: heap size 186 MB, throughput 0.991291
Reading from 4674: heap size 190 MB, throughput 0.988703
Reading from 4673: heap size 1047 MB, throughput 0.950701
Reading from 4674: heap size 190 MB, throughput 0.992109
Reading from 4673: heap size 1050 MB, throughput 0.954481
Reading from 4674: heap size 197 MB, throughput 0.995318
Reading from 4674: heap size 187 MB, throughput 0.99674
Reading from 4673: heap size 1047 MB, throughput 0.952674
Reading from 4674: heap size 194 MB, throughput 0.997068
Reading from 4673: heap size 1052 MB, throughput 0.956352
Reading from 4674: heap size 185 MB, throughput 0.997512
Reading from 4674: heap size 190 MB, throughput 0.997609
Reading from 4673: heap size 1047 MB, throughput 0.95749
Numeric result:
Recommendation: 2 clients, utility 0.984928:
    h1: 149.978 MB (U(h) = 0.885174*h^0.0221483)
    h2: 2296.02 MB (U(h) = 0.0722124*h^0.339059)
Recommendation: 2 clients, utility 0.984928:
    h1: 149.983 MB (U(h) = 0.885174*h^0.0221483)
    h2: 2296.02 MB (U(h) = 0.0722124*h^0.339059)
Reading from 4674: heap size 192 MB, throughput 0.997506
Reading from 4673: heap size 1051 MB, throughput 0.959268
Reading from 4674: heap size 180 MB, throughput 0.997443
Reading from 4674: heap size 172 MB, throughput 0.997364
Reading from 4673: heap size 1054 MB, throughput 0.958374
Reading from 4674: heap size 164 MB, throughput 0.997115
Reading from 4673: heap size 1055 MB, throughput 0.958734
Reading from 4674: heap size 157 MB, throughput 0.99708
Reading from 4674: heap size 151 MB, throughput 0.996902
Reading from 4673: heap size 1060 MB, throughput 0.958572
Reading from 4674: heap size 146 MB, throughput 0.996814
Reading from 4674: heap size 149 MB, throughput 0.990936
Reading from 4673: heap size 1062 MB, throughput 0.959169
Reading from 4674: heap size 151 MB, throughput 0.987218
Reading from 4674: heap size 145 MB, throughput 0.99514
Numeric result:
Recommendation: 2 clients, utility 1.16367:
    h1: 110.875 MB (U(h) = 0.883805*h^0.022601)
    h2: 2335.12 MB (U(h) = 0.0295124*h^0.475981)
Recommendation: 2 clients, utility 1.16367:
    h1: 110.878 MB (U(h) = 0.883805*h^0.022601)
    h2: 2335.12 MB (U(h) = 0.0295124*h^0.475981)
Reading from 4674: heap size 151 MB, throughput 0.988976
Reading from 4674: heap size 145 MB, throughput 0.988603
Reading from 4673: heap size 1067 MB, throughput 0.951602
Reading from 4674: heap size 139 MB, throughput 0.987022
Reading from 4674: heap size 131 MB, throughput 0.991903
Reading from 4674: heap size 126 MB, throughput 0.994428
Reading from 4673: heap size 1070 MB, throughput 0.955156
Reading from 4674: heap size 121 MB, throughput 0.995607
Reading from 4674: heap size 117 MB, throughput 0.996025
Reading from 4673: heap size 1074 MB, throughput 0.958268
Reading from 4674: heap size 113 MB, throughput 0.996304
Reading from 4674: heap size 109 MB, throughput 0.996341
Reading from 4674: heap size 113 MB, throughput 0.996354
Reading from 4674: heap size 109 MB, throughput 0.994031
Reading from 4674: heap size 114 MB, throughput 0.993889
Reading from 4674: heap size 110 MB, throughput 0.993546
Reading from 4673: heap size 1079 MB, throughput 0.89294
Reading from 4674: heap size 115 MB, throughput 0.994967
Reading from 4674: heap size 111 MB, throughput 0.991589
Reading from 4674: heap size 107 MB, throughput 0.981121
Reading from 4673: heap size 1179 MB, throughput 0.949455
Reading from 4674: heap size 110 MB, throughput 0.989194
Numeric result:
Recommendation: 2 clients, utility 1.2272:
    h1: 103.789 MB (U(h) = 0.883747*h^0.022844)
    h2: 2342.21 MB (U(h) = 0.0228777*h^0.515522)
Recommendation: 2 clients, utility 1.2272:
    h1: 103.789 MB (U(h) = 0.883747*h^0.022844)
    h2: 2342.21 MB (U(h) = 0.0228777*h^0.515522)
Reading from 4674: heap size 113 MB, throughput 0.992101
Reading from 4674: heap size 112 MB, throughput 0.994655
Reading from 4673: heap size 1182 MB, throughput 0.962143
Reading from 4674: heap size 106 MB, throughput 0.996017
Reading from 4674: heap size 105 MB, throughput 0.996586
Reading from 4674: heap size 99 MB, throughput 0.996873
Reading from 4674: heap size 105 MB, throughput 0.996983
Reading from 4673: heap size 1191 MB, throughput 0.970667
Reading from 4674: heap size 99 MB, throughput 0.996773
Reading from 4674: heap size 104 MB, throughput 0.997129
Reading from 4674: heap size 98 MB, throughput 0.997435
Reading from 4673: heap size 1192 MB, throughput 0.973732
Reading from 4674: heap size 104 MB, throughput 0.997342
Reading from 4674: heap size 103 MB, throughput 0.997535
Reading from 4674: heap size 108 MB, throughput 0.995797
Reading from 4674: heap size 104 MB, throughput 0.992664
Reading from 4674: heap size 109 MB, throughput 0.98007
Reading from 4674: heap size 105 MB, throughput 0.979234
Reading from 4673: heap size 1191 MB, throughput 0.974877
Reading from 4674: heap size 103 MB, throughput 0.989137
Reading from 4674: heap size 108 MB, throughput 0.99341
Reading from 4674: heap size 104 MB, throughput 0.994718
Reading from 4674: heap size 101 MB, throughput 0.986948
Reading from 4673: heap size 1194 MB, throughput 0.973931
Numeric result:
Recommendation: 2 clients, utility 1.37327:
    h1: 86.8051 MB (U(h) = 0.884563*h^0.0228416)
    h2: 2359.19 MB (U(h) = 0.0112974*h^0.620787)
Recommendation: 2 clients, utility 1.37327:
    h1: 86.8055 MB (U(h) = 0.884563*h^0.0228416)
    h2: 2359.19 MB (U(h) = 0.0112974*h^0.620787)
Reading from 4674: heap size 108 MB, throughput 0.991723
Reading from 4674: heap size 104 MB, throughput 0.993733
Reading from 4674: heap size 100 MB, throughput 0.994545
Reading from 4673: heap size 1186 MB, throughput 0.972677
Reading from 4674: heap size 97 MB, throughput 0.995066
Reading from 4674: heap size 94 MB, throughput 0.994897
Reading from 4674: heap size 91 MB, throughput 0.994798
Reading from 4674: heap size 88 MB, throughput 0.994619
Reading from 4674: heap size 86 MB, throughput 0.98519
Reading from 4673: heap size 1133 MB, throughput 0.971354
Reading from 4674: heap size 89 MB, throughput 0.983703
Reading from 4674: heap size 86 MB, throughput 0.981564
Reading from 4674: heap size 89 MB, throughput 0.984591
Reading from 4674: heap size 86 MB, throughput 0.988135
Reading from 4673: heap size 1183 MB, throughput 0.96752
Reading from 4674: heap size 92 MB, throughput 0.992486
Reading from 4674: heap size 86 MB, throughput 0.99481
Reading from 4674: heap size 92 MB, throughput 0.995881
Reading from 4674: heap size 86 MB, throughput 0.99659
Reading from 4673: heap size 1187 MB, throughput 0.967788
Reading from 4674: heap size 92 MB, throughput 0.996768
Reading from 4674: heap size 86 MB, throughput 0.996855
Reading from 4674: heap size 92 MB, throughput 0.99697
Reading from 4674: heap size 86 MB, throughput 0.996908
Reading from 4674: heap size 91 MB, throughput 0.996944
Reading from 4673: heap size 1189 MB, throughput 0.966918
Numeric result:
Recommendation: 2 clients, utility 1.59766:
    h1: 69.6385 MB (U(h) = 0.886615*h^0.0225614)
    h2: 2376.36 MB (U(h) = 0.00412185*h^0.769889)
Recommendation: 2 clients, utility 1.59766:
    h1: 69.6385 MB (U(h) = 0.886615*h^0.0225614)
    h2: 2376.36 MB (U(h) = 0.00412185*h^0.769889)
Reading from 4674: heap size 86 MB, throughput 0.997121
Reading from 4674: heap size 85 MB, throughput 0.996817
Reading from 4674: heap size 80 MB, throughput 0.9968
Reading from 4674: heap size 80 MB, throughput 0.996852
Reading from 4674: heap size 76 MB, throughput 0.996401
Reading from 4673: heap size 1190 MB, throughput 0.96548
Reading from 4674: heap size 76 MB, throughput 0.996231
Reading from 4674: heap size 72 MB, throughput 0.996299
Reading from 4674: heap size 72 MB, throughput 0.996198
Reading from 4674: heap size 68 MB, throughput 0.996355
Reading from 4674: heap size 72 MB, throughput 0.993145
Reading from 4674: heap size 70 MB, throughput 0.990342
Reading from 4674: heap size 74 MB, throughput 0.988077
Reading from 4674: heap size 72 MB, throughput 0.985653
Reading from 4674: heap size 71 MB, throughput 0.973144
Reading from 4674: heap size 69 MB, throughput 0.973966
Reading from 4673: heap size 1193 MB, throughput 0.960584
Reading from 4674: heap size 74 MB, throughput 0.981218
Reading from 4674: heap size 73 MB, throughput 0.988986
Reading from 4674: heap size 71 MB, throughput 0.991752
Reading from 4674: heap size 69 MB, throughput 0.992559
Reading from 4674: heap size 73 MB, throughput 0.992776
Reading from 4674: heap size 72 MB, throughput 0.993227
Reading from 4674: heap size 70 MB, throughput 0.99308
Reading from 4673: heap size 1198 MB, throughput 0.960906
Reading from 4674: heap size 69 MB, throughput 0.993379
Reading from 4674: heap size 72 MB, throughput 0.993342
Reading from 4674: heap size 69 MB, throughput 0.983968
Reading from 4674: heap size 72 MB, throughput 0.982448
Reading from 4674: heap size 68 MB, throughput 0.981995
Reading from 4674: heap size 71 MB, throughput 0.981505
Reading from 4673: heap size 1203 MB, throughput 0.960087
Reading from 4674: heap size 67 MB, throughput 0.982668
Reading from 4674: heap size 70 MB, throughput 0.98508
Reading from 4674: heap size 65 MB, throughput 0.984495
Reading from 4674: heap size 69 MB, throughput 0.989189
Reading from 4674: heap size 71 MB, throughput 0.99225
Numeric result:
Recommendation: 2 clients, utility 1.69635:
    h1: 60.3184 MB (U(h) = 0.894736*h^0.021)
    h2: 2385.68 MB (U(h) = 0.0027238*h^0.830544)
Recommendation: 2 clients, utility 1.69635:
    h1: 60.3209 MB (U(h) = 0.894736*h^0.021)
    h2: 2385.68 MB (U(h) = 0.0027238*h^0.830544)
Reading from 4674: heap size 66 MB, throughput 0.994101
Reading from 4674: heap size 66 MB, throughput 0.994674
Reading from 4673: heap size 1209 MB, throughput 0.957082
Reading from 4674: heap size 63 MB, throughput 0.995301
Reading from 4674: heap size 63 MB, throughput 0.995365
Reading from 4674: heap size 60 MB, throughput 0.995137
Reading from 4674: heap size 61 MB, throughput 0.994908
Reading from 4674: heap size 58 MB, throughput 0.995182
Reading from 4674: heap size 61 MB, throughput 0.994995
Reading from 4674: heap size 58 MB, throughput 0.994906
Reading from 4674: heap size 61 MB, throughput 0.994883
Reading from 4673: heap size 1217 MB, throughput 0.95589
Reading from 4674: heap size 57 MB, throughput 0.995141
Reading from 4674: heap size 59 MB, throughput 0.994757
Reading from 4674: heap size 59 MB, throughput 0.994804
Reading from 4674: heap size 60 MB, throughput 0.995225
Reading from 4674: heap size 58 MB, throughput 0.995248
Reading from 4674: heap size 60 MB, throughput 0.995258
Reading from 4674: heap size 60 MB, throughput 0.99543
Reading from 4674: heap size 62 MB, throughput 0.995321
Reading from 4673: heap size 1223 MB, throughput 0.956759
Reading from 4674: heap size 59 MB, throughput 0.995575
Reading from 4674: heap size 61 MB, throughput 0.995408
Reading from 4674: heap size 59 MB, throughput 0.994961
Reading from 4674: heap size 60 MB, throughput 0.995036
Reading from 4674: heap size 60 MB, throughput 0.994365
Reading from 4674: heap size 62 MB, throughput 0.994492
Reading from 4674: heap size 60 MB, throughput 0.994915
Reading from 4674: heap size 61 MB, throughput 0.995185
Reading from 4673: heap size 1230 MB, throughput 0.954483
Reading from 4674: heap size 60 MB, throughput 0.995804
Reading from 4674: heap size 61 MB, throughput 0.995719
Reading from 4674: heap size 59 MB, throughput 0.995406
Reading from 4674: heap size 60 MB, throughput 0.995082
Reading from 4674: heap size 59 MB, throughput 0.99515
Reading from 4674: heap size 60 MB, throughput 0.995348
Reading from 4674: heap size 60 MB, throughput 0.995339
Reading from 4674: heap size 62 MB, throughput 0.995495
Reading from 4673: heap size 1234 MB, throughput 0.954909
Reading from 4674: heap size 60 MB, throughput 0.99545
Reading from 4674: heap size 61 MB, throughput 0.995286
Numeric result:
Recommendation: 2 clients, utility 1.7093:
    h1: 53.2989 MB (U(h) = 0.90574*h^0.0187092)
    h2: 2392.7 MB (U(h) = 0.00254355*h^0.839942)
Recommendation: 2 clients, utility 1.7093:
    h1: 53.2961 MB (U(h) = 0.90574*h^0.0187092)
    h2: 2392.7 MB (U(h) = 0.00254355*h^0.839942)
Reading from 4674: heap size 60 MB, throughput 0.995459
Reading from 4674: heap size 58 MB, throughput 0.994165
Reading from 4674: heap size 57 MB, throughput 0.976483
Reading from 4674: heap size 56 MB, throughput 0.975596
Reading from 4674: heap size 56 MB, throughput 0.969952
Reading from 4674: heap size 55 MB, throughput 0.970642
Reading from 4674: heap size 55 MB, throughput 0.928163
Reading from 4674: heap size 53 MB, throughput 0.941595
Reading from 4674: heap size 58 MB, throughput 0.953516
Reading from 4674: heap size 56 MB, throughput 0.960186
Reading from 4674: heap size 55 MB, throughput 0.969345
Reading from 4674: heap size 53 MB, throughput 0.976981
Reading from 4674: heap size 52 MB, throughput 0.972827
Reading from 4674: heap size 56 MB, throughput 0.978159
Reading from 4673: heap size 1241 MB, throughput 0.957435
Reading from 4674: heap size 52 MB, throughput 0.98467
Reading from 4674: heap size 55 MB, throughput 0.989446
Reading from 4674: heap size 51 MB, throughput 0.991763
Reading from 4674: heap size 54 MB, throughput 0.993276
Reading from 4674: heap size 51 MB, throughput 0.993448
Reading from 4674: heap size 54 MB, throughput 0.993871
Reading from 4674: heap size 51 MB, throughput 0.994243
Reading from 4674: heap size 53 MB, throughput 0.994271
Reading from 4674: heap size 53 MB, throughput 0.993406
Reading from 4674: heap size 55 MB, throughput 0.993892
Reading from 4673: heap size 1243 MB, throughput 0.958417
Reading from 4674: heap size 52 MB, throughput 0.994467
Reading from 4674: heap size 54 MB, throughput 0.994248
Reading from 4674: heap size 51 MB, throughput 0.993883
Reading from 4674: heap size 53 MB, throughput 0.993851
Reading from 4674: heap size 53 MB, throughput 0.99415
Reading from 4674: heap size 54 MB, throughput 0.994476
Reading from 4674: heap size 52 MB, throughput 0.994341
Reading from 4674: heap size 54 MB, throughput 0.994419
Reading from 4674: heap size 52 MB, throughput 0.994478
Reading from 4674: heap size 53 MB, throughput 0.994384
Reading from 4674: heap size 53 MB, throughput 0.994578
Reading from 4673: heap size 1250 MB, throughput 0.959784
Reading from 4674: heap size 55 MB, throughput 0.995205
Reading from 4674: heap size 53 MB, throughput 0.994871
Reading from 4674: heap size 52 MB, throughput 0.994761
Reading from 4674: heap size 54 MB, throughput 0.994758
Reading from 4674: heap size 53 MB, throughput 0.994757
Reading from 4674: heap size 55 MB, throughput 0.994646
Reading from 4674: heap size 53 MB, throughput 0.994617
Reading from 4674: heap size 53 MB, throughput 0.994227
Reading from 4674: heap size 55 MB, throughput 0.99471
Reading from 4674: heap size 54 MB, throughput 0.994699
Reading from 4673: heap size 1251 MB, throughput 0.958561
Reading from 4674: heap size 53 MB, throughput 0.994662
Reading from 4674: heap size 54 MB, throughput 0.994575
Reading from 4674: heap size 53 MB, throughput 0.994602
Reading from 4674: heap size 55 MB, throughput 0.994844
Numeric result:
Recommendation: 2 clients, utility 1.72987:
    h1: 48.4264 MB (U(h) = 0.912395*h^0.0172755)
    h2: 2397.57 MB (U(h) = 0.00228121*h^0.855251)
Recommendation: 2 clients, utility 1.72987:
    h1: 48.4294 MB (U(h) = 0.912395*h^0.0172755)
    h2: 2397.57 MB (U(h) = 0.00228121*h^0.855251)
Reading from 4674: heap size 54 MB, throughput 0.994947
Reading from 4674: heap size 53 MB, throughput 0.994944
Reading from 4674: heap size 52 MB, throughput 0.994925
Reading from 4674: heap size 51 MB, throughput 0.995043
Reading from 4674: heap size 50 MB, throughput 0.994537
Reading from 4674: heap size 49 MB, throughput 0.994564
Reading from 4674: heap size 49 MB, throughput 0.99446
Reading from 4674: heap size 48 MB, throughput 0.993009
Reading from 4674: heap size 48 MB, throughput 0.993308
Reading from 4674: heap size 50 MB, throughput 0.99384
Reading from 4674: heap size 49 MB, throughput 0.992821
Reading from 4674: heap size 48 MB, throughput 0.992484
Reading from 4674: heap size 48 MB, throughput 0.992262
Reading from 4674: heap size 50 MB, throughput 0.992773
Reading from 4674: heap size 49 MB, throughput 0.991962
Reading from 4674: heap size 49 MB, throughput 0.992231
Reading from 4674: heap size 48 MB, throughput 0.992533
Reading from 4674: heap size 48 MB, throughput 0.993562
Reading from 4673: heap size 1259 MB, throughput 0.927636
Reading from 4674: heap size 50 MB, throughput 0.993752
Reading from 4674: heap size 49 MB, throughput 0.994029
Reading from 4674: heap size 49 MB, throughput 0.993914
Reading from 4674: heap size 48 MB, throughput 0.993998
Reading from 4674: heap size 48 MB, throughput 0.993972
Reading from 4674: heap size 50 MB, throughput 0.994295
Reading from 4674: heap size 49 MB, throughput 0.99432
Reading from 4674: heap size 48 MB, throughput 0.993903
Reading from 4674: heap size 48 MB, throughput 0.993684
Reading from 4674: heap size 50 MB, throughput 0.993798
Reading from 4674: heap size 49 MB, throughput 0.99384
Reading from 4674: heap size 48 MB, throughput 0.993718
Reading from 4673: heap size 1370 MB, throughput 0.953449
Reading from 4674: heap size 48 MB, throughput 0.994248
Reading from 4674: heap size 50 MB, throughput 0.994239
Reading from 4674: heap size 49 MB, throughput 0.994003
Reading from 4674: heap size 48 MB, throughput 0.994467
Reading from 4674: heap size 48 MB, throughput 0.982514
Reading from 4674: heap size 50 MB, throughput 0.953077
Reading from 4674: heap size 49 MB, throughput 0.951
Reading from 4674: heap size 49 MB, throughput 0.943396
Reading from 4674: heap size 49 MB, throughput 0.939948
Reading from 4674: heap size 49 MB, throughput 0.912061
Reading from 4674: heap size 48 MB, throughput 0.928513
Reading from 4674: heap size 53 MB, throughput 0.947897
Reading from 4674: heap size 52 MB, throughput 0.937917
Reading from 4674: heap size 51 MB, throughput 0.940121
Reading from 4674: heap size 50 MB, throughput 0.934241
Reading from 4674: heap size 49 MB, throughput 0.989229
Reading from 4674: heap size 51 MB, throughput 0.981914
Reading from 4674: heap size 48 MB, throughput 0.988413
Reading from 4674: heap size 50 MB, throughput 0.990604
Reading from 4674: heap size 47 MB, throughput 0.990686
Reading from 4673: heap size 1373 MB, throughput 0.96636
Reading from 4674: heap size 50 MB, throughput 0.99209
Reading from 4674: heap size 47 MB, throughput 0.992604
Reading from 4674: heap size 49 MB, throughput 0.993001
Reading from 4674: heap size 46 MB, throughput 0.993379
Reading from 4674: heap size 48 MB, throughput 0.993397
Reading from 4674: heap size 46 MB, throughput 0.9926
Reading from 4674: heap size 48 MB, throughput 0.99295
Numeric result:
Recommendation: 2 clients, utility 1.75267:
    h1: 48.9013 MB (U(h) = 0.91036*h^0.017898)
    h2: 2397.1 MB (U(h) = 0.00194568*h^0.877354)
Recommendation: 2 clients, utility 1.75267:
    h1: 48.9007 MB (U(h) = 0.91036*h^0.017898)
    h2: 2397.1 MB (U(h) = 0.00194568*h^0.877354)
Reading from 4674: heap size 48 MB, throughput 0.99227
Reading from 4674: heap size 49 MB, throughput 0.993033
Reading from 4674: heap size 48 MB, throughput 0.993271
Reading from 4674: heap size 49 MB, throughput 0.992973
Reading from 4674: heap size 47 MB, throughput 0.993511
Reading from 4674: heap size 49 MB, throughput 0.993596
Reading from 4674: heap size 49 MB, throughput 0.993136
Reading from 4673: heap size 1376 MB, throughput 0.971572
Reading from 4674: heap size 51 MB, throughput 0.99372
Reading from 4674: heap size 49 MB, throughput 0.993918
Reading from 4674: heap size 49 MB, throughput 0.993725
Reading from 4674: heap size 48 MB, throughput 0.994013
Reading from 4674: heap size 49 MB, throughput 0.993683
Reading from 4674: heap size 48 MB, throughput 0.993697
Reading from 4674: heap size 49 MB, throughput 0.99361
Reading from 4674: heap size 49 MB, throughput 0.9928
Reading from 4674: heap size 51 MB, throughput 0.993349
Reading from 4674: heap size 50 MB, throughput 0.993636
Reading from 4674: heap size 50 MB, throughput 0.993935
Reading from 4674: heap size 50 MB, throughput 0.993739
Reading from 4674: heap size 49 MB, throughput 0.993489
Reading from 4673: heap size 1381 MB, throughput 0.973517
Reading from 4674: heap size 50 MB, throughput 0.993657
Reading from 4674: heap size 49 MB, throughput 0.993726
Reading from 4674: heap size 51 MB, throughput 0.993863
Reading from 4674: heap size 50 MB, throughput 0.99419
Reading from 4674: heap size 50 MB, throughput 0.994303
Reading from 4674: heap size 49 MB, throughput 0.99448
Reading from 4674: heap size 49 MB, throughput 0.99418
Reading from 4674: heap size 51 MB, throughput 0.994183
Reading from 4674: heap size 50 MB, throughput 0.994295
Reading from 4674: heap size 50 MB, throughput 0.993953
Reading from 4674: heap size 49 MB, throughput 0.993724
Reading from 4674: heap size 49 MB, throughput 0.993783
Reading from 4674: heap size 51 MB, throughput 0.993757
Reading from 4673: heap size 1383 MB, throughput 0.97405
Reading from 4674: heap size 50 MB, throughput 0.994128
Reading from 4674: heap size 50 MB, throughput 0.993892
Reading from 4674: heap size 49 MB, throughput 0.994116
Reading from 4674: heap size 49 MB, throughput 0.993962
Reading from 4674: heap size 51 MB, throughput 0.994288
Reading from 4674: heap size 50 MB, throughput 0.994386
Reading from 4674: heap size 50 MB, throughput 0.994157
Reading from 4674: heap size 49 MB, throughput 0.993974
Reading from 4674: heap size 49 MB, throughput 0.99346
Reading from 4674: heap size 51 MB, throughput 0.993636
Reading from 4674: heap size 50 MB, throughput 0.993769
Reading from 4674: heap size 50 MB, throughput 0.993607
Reading from 4674: heap size 49 MB, throughput 0.993751
Reading from 4674: heap size 49 MB, throughput 0.993748
Reading from 4674: heap size 51 MB, throughput 0.994136
Reading from 4674: heap size 50 MB, throughput 0.994238
Reading from 4674: heap size 50 MB, throughput 0.993874
Numeric result:
Recommendation: 2 clients, utility 1.77289:
    h1: 44.913 MB (U(h) = 0.915483*h^0.0167768)
    h2: 2401.09 MB (U(h) = 0.00168818*h^0.896901)
Recommendation: 2 clients, utility 1.77289:
    h1: 44.9131 MB (U(h) = 0.915483*h^0.0167768)
    h2: 2401.09 MB (U(h) = 0.00168818*h^0.896901)
Reading from 4674: heap size 49 MB, throughput 0.993934
Reading from 4674: heap size 49 MB, throughput 0.994125
Reading from 4674: heap size 48 MB, throughput 0.993957
Reading from 4674: heap size 48 MB, throughput 0.994063
Reading from 4674: heap size 47 MB, throughput 0.993644
Reading from 4674: heap size 47 MB, throughput 0.993532
Reading from 4674: heap size 46 MB, throughput 0.993383
Reading from 4674: heap size 46 MB, throughput 0.993425
Reading from 4674: heap size 45 MB, throughput 0.993305
Reading from 4674: heap size 45 MB, throughput 0.993071
Reading from 4674: heap size 47 MB, throughput 0.993119
Reading from 4674: heap size 46 MB, throughput 0.993322
Reading from 4674: heap size 46 MB, throughput 0.993088
Reading from 4674: heap size 45 MB, throughput 0.992946
Reading from 4674: heap size 45 MB, throughput 0.992546
Reading from 4674: heap size 47 MB, throughput 0.993182
Reading from 4674: heap size 46 MB, throughput 0.993527
Reading from 4674: heap size 46 MB, throughput 0.99355
Reading from 4674: heap size 45 MB, throughput 0.993571
Reading from 4674: heap size 45 MB, throughput 0.993236
Reading from 4674: heap size 47 MB, throughput 0.978512
Reading from 4674: heap size 46 MB, throughput 0.955703
Reading from 4674: heap size 46 MB, throughput 0.932979
Reading from 4674: heap size 46 MB, throughput 0.926437
Reading from 4674: heap size 46 MB, throughput 0.891528
Reading from 4674: heap size 45 MB, throughput 0.920348
Reading from 4674: heap size 49 MB, throughput 0.940777
Reading from 4674: heap size 49 MB, throughput 0.949573
Reading from 4674: heap size 48 MB, throughput 0.916334
Reading from 4674: heap size 47 MB, throughput 0.925421
Reading from 4674: heap size 47 MB, throughput 0.931381
Reading from 4674: heap size 47 MB, throughput 0.920708
Reading from 4674: heap size 45 MB, throughput 0.918797
Reading from 4674: heap size 46 MB, throughput 0.956306
Reading from 4674: heap size 44 MB, throughput 0.97179
Reading from 4674: heap size 46 MB, throughput 0.982553
Reading from 4674: heap size 43 MB, throughput 0.987292
Reading from 4674: heap size 45 MB, throughput 0.988988
Reading from 4674: heap size 42 MB, throughput 0.990381
Reading from 4674: heap size 44 MB, throughput 0.990868
Reading from 4674: heap size 44 MB, throughput 0.991166
Reading from 4674: heap size 47 MB, throughput 0.991639
Reading from 4674: heap size 44 MB, throughput 0.991871
Reading from 4674: heap size 46 MB, throughput 0.992599
Reading from 4674: heap size 44 MB, throughput 0.992413
Reading from 4674: heap size 45 MB, throughput 0.992461
Reading from 4674: heap size 43 MB, throughput 0.992778
Reading from 4674: heap size 45 MB, throughput 0.992911
Reading from 4674: heap size 45 MB, throughput 0.992797
Reading from 4674: heap size 47 MB, throughput 0.993149
Reading from 4674: heap size 45 MB, throughput 0.993191
Reading from 4674: heap size 45 MB, throughput 0.992969
Reading from 4674: heap size 44 MB, throughput 0.992846
Reading from 4674: heap size 45 MB, throughput 0.992843
Reading from 4674: heap size 44 MB, throughput 0.992891
Reading from 4674: heap size 45 MB, throughput 0.992724
Reading from 4674: heap size 45 MB, throughput 0.992439
Reading from 4674: heap size 47 MB, throughput 0.992947
Reading from 4674: heap size 46 MB, throughput 0.992739
Reading from 4674: heap size 45 MB, throughput 0.993125
Reading from 4674: heap size 45 MB, throughput 0.992798
Reading from 4674: heap size 44 MB, throughput 0.992572
Reading from 4674: heap size 45 MB, throughput 0.991664
Reading from 4674: heap size 44 MB, throughput 0.9921
Reading from 4674: heap size 47 MB, throughput 0.992889
Reading from 4674: heap size 46 MB, throughput 0.993129
Reading from 4674: heap size 46 MB, throughput 0.992909
Reading from 4674: heap size 45 MB, throughput 0.993035
Numeric result:
Recommendation: 2 clients, utility 1.77822:
    h1: 39.7235 MB (U(h) = 0.925037*h^0.0148057)
    h2: 2406.28 MB (U(h) = 0.00168818*h^0.896901)
Recommendation: 2 clients, utility 1.77822:
    h1: 39.7219 MB (U(h) = 0.925037*h^0.0148057)
    h2: 2406.28 MB (U(h) = 0.00168818*h^0.896901)
Reading from 4674: heap size 46 MB, throughput 0.991546
Reading from 4674: heap size 45 MB, throughput 0.99206
Reading from 4674: heap size 45 MB, throughput 0.992706
Reading from 4674: heap size 44 MB, throughput 0.99259
Reading from 4674: heap size 44 MB, throughput 0.992541
Reading from 4674: heap size 43 MB, throughput 0.992622
Reading from 4674: heap size 43 MB, throughput 0.992633
Reading from 4674: heap size 42 MB, throughput 0.992517
Reading from 4674: heap size 42 MB, throughput 0.99221
Reading from 4674: heap size 41 MB, throughput 0.991608
Reading from 4674: heap size 41 MB, throughput 0.991659
Reading from 4674: heap size 40 MB, throughput 0.991795
Reading from 4674: heap size 40 MB, throughput 0.991482
Reading from 4673: heap size 1378 MB, throughput 0.990228
Reading from 4674: heap size 42 MB, throughput 0.992119
Reading from 4674: heap size 41 MB, throughput 0.992159
Reading from 4674: heap size 41 MB, throughput 0.992153
Reading from 4674: heap size 40 MB, throughput 0.991762
Reading from 4674: heap size 40 MB, throughput 0.991637
Reading from 4674: heap size 42 MB, throughput 0.99205
Reading from 4674: heap size 41 MB, throughput 0.991961
Reading from 4674: heap size 41 MB, throughput 0.99161
Reading from 4674: heap size 40 MB, throughput 0.991658
Reading from 4674: heap size 40 MB, throughput 0.991559
Reading from 4674: heap size 42 MB, throughput 0.991724
Reading from 4674: heap size 41 MB, throughput 0.991887
Reading from 4674: heap size 41 MB, throughput 0.991495
Reading from 4674: heap size 40 MB, throughput 0.990979
Reading from 4674: heap size 40 MB, throughput 0.990414
Reading from 4674: heap size 42 MB, throughput 0.990962
Reading from 4674: heap size 41 MB, throughput 0.991015
Reading from 4674: heap size 41 MB, throughput 0.991388
Reading from 4674: heap size 40 MB, throughput 0.991624
Reading from 4674: heap size 40 MB, throughput 0.99164
Reading from 4674: heap size 42 MB, throughput 0.99179
Reading from 4674: heap size 41 MB, throughput 0.991963
Reading from 4674: heap size 41 MB, throughput 0.991713
Reading from 4674: heap size 40 MB, throughput 0.991629
Reading from 4674: heap size 40 MB, throughput 0.991271
Reading from 4674: heap size 42 MB, throughput 0.991773
Reading from 4674: heap size 41 MB, throughput 0.991712
Reading from 4674: heap size 41 MB, throughput 0.991609
Reading from 4674: heap size 40 MB, throughput 0.991607
Reading from 4674: heap size 40 MB, throughput 0.991442
Reading from 4674: heap size 42 MB, throughput 0.99191
Reading from 4674: heap size 41 MB, throughput 0.991899
Reading from 4674: heap size 41 MB, throughput 0.991785
Reading from 4674: heap size 40 MB, throughput 0.991522
Reading from 4674: heap size 40 MB, throughput 0.99147
Reading from 4674: heap size 42 MB, throughput 0.991662
Reading from 4674: heap size 41 MB, throughput 0.991848
Reading from 4674: heap size 41 MB, throughput 0.991538
Reading from 4674: heap size 40 MB, throughput 0.99146
Reading from 4674: heap size 40 MB, throughput 0.99122
Reading from 4674: heap size 42 MB, throughput 0.991433
Reading from 4674: heap size 41 MB, throughput 0.991272
Reading from 4674: heap size 41 MB, throughput 0.991024
Reading from 4674: heap size 40 MB, throughput 0.991182
Reading from 4674: heap size 40 MB, throughput 0.990703
Reading from 4674: heap size 42 MB, throughput 0.990891
Reading from 4674: heap size 41 MB, throughput 0.99153
Reading from 4674: heap size 41 MB, throughput 0.991662
Reading from 4674: heap size 40 MB, throughput 0.991488
Reading from 4674: heap size 40 MB, throughput 0.991129
Reading from 4674: heap size 42 MB, throughput 0.991586
Reading from 4674: heap size 41 MB, throughput 0.991734
Reading from 4674: heap size 41 MB, throughput 0.991618
Reading from 4674: heap size 40 MB, throughput 0.991625
Reading from 4674: heap size 40 MB, throughput 0.991555
Reading from 4674: heap size 42 MB, throughput 0.992218
Numeric result:
Recommendation: 2 clients, utility 1.78016:
    h1: 27.6412 MB (U(h) = 0.945614*h^0.0102099)
    h2: 2418.36 MB (U(h) = 0.00172808*h^0.893289)
Recommendation: 2 clients, utility 1.78016:
    h1: 27.6409 MB (U(h) = 0.945614*h^0.0102099)
    h2: 2418.36 MB (U(h) = 0.00172808*h^0.893289)
Reading from 4674: heap size 41 MB, throughput 0.991789
Reading from 4674: heap size 41 MB, throughput 0.979801
Reading from 4674: heap size 40 MB, throughput 0.945002
Reading from 4674: heap size 40 MB, throughput 0.917754
Reading from 4674: heap size 39 MB, throughput 0.930344
Reading from 4674: heap size 40 MB, throughput 0.940856
Reading from 4674: heap size 39 MB, throughput 0.946632
Reading from 4674: heap size 39 MB, throughput 0.936795
Reading from 4674: heap size 38 MB, throughput 0.944709
Reading from 4674: heap size 38 MB, throughput 0.927289
Reading from 4674: heap size 38 MB, throughput 0.908646
Reading from 4674: heap size 37 MB, throughput 0.989877
Reading from 4674: heap size 36 MB, throughput 0.93635
Reading from 4674: heap size 36 MB, throughput 0.944918
Reading from 4674: heap size 36 MB, throughput 0.937297
Reading from 4674: heap size 37 MB, throughput 0.932145
Reading from 4674: heap size 36 MB, throughput 0.940746
Reading from 4674: heap size 36 MB, throughput 0.939908
Reading from 4674: heap size 37 MB, throughput 0.945439
Reading from 4674: heap size 36 MB, throughput 0.952329
Reading from 4674: heap size 37 MB, throughput 0.971182
Reading from 4674: heap size 37 MB, throughput 0.978285
Reading from 4674: heap size 37 MB, throughput 0.984453
Reading from 4674: heap size 37 MB, throughput 0.986986
Reading from 4674: heap size 37 MB, throughput 0.987823
Reading from 4674: heap size 37 MB, throughput 0.988285
Reading from 4674: heap size 37 MB, throughput 0.988826
Reading from 4674: heap size 37 MB, throughput 0.989055
Reading from 4674: heap size 37 MB, throughput 0.988862
Reading from 4674: heap size 37 MB, throughput 0.988784
Reading from 4674: heap size 37 MB, throughput 0.988854
Reading from 4674: heap size 37 MB, throughput 0.988852
Reading from 4674: heap size 37 MB, throughput 0.988819
Reading from 4674: heap size 36 MB, throughput 0.989135
Reading from 4674: heap size 36 MB, throughput 0.98896
Reading from 4674: heap size 36 MB, throughput 0.988823
Reading from 4674: heap size 36 MB, throughput 0.989082
Reading from 4674: heap size 36 MB, throughput 0.989339
Reading from 4674: heap size 36 MB, throughput 0.989001
Reading from 4674: heap size 36 MB, throughput 0.98898
Reading from 4674: heap size 36 MB, throughput 0.988702
Reading from 4674: heap size 36 MB, throughput 0.988899
Reading from 4674: heap size 36 MB, throughput 0.988492
Reading from 4674: heap size 36 MB, throughput 0.989074
Reading from 4674: heap size 36 MB, throughput 0.98851
Reading from 4674: heap size 36 MB, throughput 0.98885
Reading from 4674: heap size 36 MB, throughput 0.989194
Reading from 4674: heap size 36 MB, throughput 0.989053
Reading from 4674: heap size 36 MB, throughput 0.989067
Reading from 4674: heap size 36 MB, throughput 0.988865
Reading from 4674: heap size 36 MB, throughput 0.989398
Reading from 4674: heap size 36 MB, throughput 0.983901
Reading from 4674: heap size 36 MB, throughput 0.984429
Reading from 4674: heap size 36 MB, throughput 0.984459
Reading from 4674: heap size 36 MB, throughput 0.985844
Reading from 4674: heap size 36 MB, throughput 0.987227
Reading from 4674: heap size 36 MB, throughput 0.987003
Reading from 4674: heap size 36 MB, throughput 0.986409
Reading from 4674: heap size 36 MB, throughput 0.98606
Reading from 4674: heap size 36 MB, throughput 0.985946
Reading from 4674: heap size 36 MB, throughput 0.987774
Reading from 4673: heap size 1382 MB, throughput 0.960428
Reading from 4674: heap size 36 MB, throughput 0.98877
Reading from 4674: heap size 36 MB, throughput 0.988899
Reading from 4674: heap size 36 MB, throughput 0.988824
Reading from 4674: heap size 36 MB, throughput 0.98889
Reading from 4674: heap size 36 MB, throughput 0.988852
Reading from 4674: heap size 36 MB, throughput 0.989062
Reading from 4674: heap size 36 MB, throughput 0.989068
Reading from 4674: heap size 36 MB, throughput 0.98873
Reading from 4674: heap size 36 MB, throughput 0.98952
Reading from 4674: heap size 36 MB, throughput 0.989657
Reading from 4674: heap size 36 MB, throughput 0.989449
Reading from 4674: heap size 36 MB, throughput 0.989335
Reading from 4674: heap size 36 MB, throughput 0.988624
Reading from 4674: heap size 36 MB, throughput 0.988847
Reading from 4674: heap size 36 MB, throughput 0.989163
Reading from 4674: heap size 36 MB, throughput 0.988574
Reading from 4674: heap size 36 MB, throughput 0.988525
Reading from 4674: heap size 36 MB, throughput 0.988834
Reading from 4674: heap size 36 MB, throughput 0.989127
Reading from 4674: heap size 36 MB, throughput 0.98913
Reading from 4674: heap size 36 MB, throughput 0.989166
Reading from 4674: heap size 36 MB, throughput 0.988868
Reading from 4674: heap size 36 MB, throughput 0.9888
Reading from 4674: heap size 36 MB, throughput 0.988546
Reading from 4674: heap size 36 MB, throughput 0.988861
Reading from 4674: heap size 36 MB, throughput 0.988899
Reading from 4674: heap size 36 MB, throughput 0.988992
Reading from 4674: heap size 36 MB, throughput 0.988788
Reading from 4674: heap size 36 MB, throughput 0.989229
Reading from 4674: heap size 36 MB, throughput 0.989801
Reading from 4674: heap size 36 MB, throughput 0.989407
Reading from 4673: heap size 1422 MB, throughput 0.992505
Reading from 4674: heap size 36 MB, throughput 0.990495
Reading from 4674: heap size 36 MB, throughput 0.990236
Reading from 4674: heap size 36 MB, throughput 0.990383
Reading from 4674: heap size 36 MB, throughput 0.990259
Reading from 4673: heap size 1467 MB, throughput 0.989796
Reading from 4674: heap size 36 MB, throughput 0.990648
Reading from 4674: heap size 36 MB, throughput 0.990041
Reading from 4674: heap size 36 MB, throughput 0.990142
Reading from 4673: heap size 1461 MB, throughput 0.981271
Reading from 4674: heap size 36 MB, throughput 0.990998
Numeric result:
Recommendation: 2 clients, utility 1.56549:
    h1: 43.248 MB (U(h) = 0.9307*h^0.0135153)
    h2: 2402.75 MB (U(h) = 0.00462427*h^0.750933)
Recommendation: 2 clients, utility 1.56549:
    h1: 43.2449 MB (U(h) = 0.9307*h^0.0135153)
    h2: 2402.76 MB (U(h) = 0.00462427*h^0.750933)
Reading from 4674: heap size 36 MB, throughput 0.990151
Reading from 4673: heap size 1467 MB, throughput 0.966705
Reading from 4674: heap size 36 MB, throughput 0.990883
Reading from 4674: heap size 38 MB, throughput 0.991241
Reading from 4673: heap size 1457 MB, throughput 0.951788
Reading from 4674: heap size 38 MB, throughput 0.991812
Reading from 4674: heap size 40 MB, throughput 0.991509
Reading from 4673: heap size 1463 MB, throughput 0.931633
Reading from 4674: heap size 40 MB, throughput 0.991891
Reading from 4674: heap size 42 MB, throughput 0.992161
Reading from 4673: heap size 1459 MB, throughput 0.917626
Reading from 4674: heap size 42 MB, throughput 0.992542
Reading from 4674: heap size 45 MB, throughput 0.993332
Reading from 4673: heap size 1466 MB, throughput 0.942128
Reading from 4674: heap size 44 MB, throughput 0.992746
Reading from 4674: heap size 44 MB, throughput 0.993256
Reading from 4674: heap size 43 MB, throughput 0.993095
Reading from 4674: heap size 43 MB, throughput 0.992873
Reading from 4674: heap size 45 MB, throughput 0.992896
Reading from 4674: heap size 44 MB, throughput 0.993221
Reading from 4674: heap size 44 MB, throughput 0.992978
Reading from 4674: heap size 43 MB, throughput 0.991037
Reading from 4674: heap size 43 MB, throughput 0.991766
Reading from 4674: heap size 45 MB, throughput 0.992332
Reading from 4674: heap size 45 MB, throughput 0.992889
Reading from 4673: heap size 1473 MB, throughput 0.984391
Reading from 4674: heap size 44 MB, throughput 0.993018
Reading from 4674: heap size 44 MB, throughput 0.992755
Reading from 4674: heap size 43 MB, throughput 0.992967
Reading from 4674: heap size 43 MB, throughput 0.992765
Reading from 4674: heap size 45 MB, throughput 0.993076
Reading from 4674: heap size 45 MB, throughput 0.992872
Reading from 4674: heap size 44 MB, throughput 0.992967
Reading from 4674: heap size 44 MB, throughput 0.992647
Reading from 4674: heap size 43 MB, throughput 0.992591
Reading from 4674: heap size 43 MB, throughput 0.992358
Reading from 4674: heap size 45 MB, throughput 0.992659
Reading from 4674: heap size 45 MB, throughput 0.993034
Reading from 4674: heap size 44 MB, throughput 0.992756
Reading from 4674: heap size 44 MB, throughput 0.99257
Reading from 4674: heap size 43 MB, throughput 0.992485
Reading from 4673: heap size 1480 MB, throughput 0.988538
Reading from 4674: heap size 43 MB, throughput 0.992818
Reading from 4674: heap size 45 MB, throughput 0.993066
Reading from 4674: heap size 45 MB, throughput 0.992781
Reading from 4674: heap size 44 MB, throughput 0.99317
Reading from 4674: heap size 44 MB, throughput 0.992842
Reading from 4674: heap size 43 MB, throughput 0.992788
Reading from 4674: heap size 43 MB, throughput 0.992702
Reading from 4674: heap size 45 MB, throughput 0.992769
Reading from 4674: heap size 45 MB, throughput 0.973114
Reading from 4674: heap size 44 MB, throughput 0.940517
Reading from 4674: heap size 44 MB, throughput 0.936554
Reading from 4674: heap size 44 MB, throughput 0.932743
Reading from 4674: heap size 44 MB, throughput 0.906679
Reading from 4674: heap size 43 MB, throughput 0.924278
Reading from 4674: heap size 44 MB, throughput 0.939388
Reading from 4674: heap size 44 MB, throughput 0.940704
Reading from 4674: heap size 43 MB, throughput 0.876029
Reading from 4674: heap size 43 MB, throughput 0.86236
Reading from 4674: heap size 43 MB, throughput 0.86111
Reading from 4674: heap size 40 MB, throughput 0.872253
Reading from 4674: heap size 45 MB, throughput 0.897658
Reading from 4674: heap size 42 MB, throughput 0.912427
Reading from 4674: heap size 44 MB, throughput 0.945696
Reading from 4674: heap size 41 MB, throughput 0.968745
Reading from 4674: heap size 45 MB, throughput 0.982786
Reading from 4674: heap size 43 MB, throughput 0.987747
Reading from 4673: heap size 1495 MB, throughput 0.98757
Reading from 4674: heap size 45 MB, throughput 0.988933
Reading from 4674: heap size 42 MB, throughput 0.99005
Reading from 4674: heap size 46 MB, throughput 0.990839
Reading from 4674: heap size 43 MB, throughput 0.991232
Reading from 4674: heap size 45 MB, throughput 0.990235
Reading from 4674: heap size 43 MB, throughput 0.990869
Reading from 4674: heap size 46 MB, throughput 0.991506
Reading from 4674: heap size 43 MB, throughput 0.991671
Reading from 4674: heap size 45 MB, throughput 0.991333
Reading from 4674: heap size 42 MB, throughput 0.991703
Reading from 4674: heap size 45 MB, throughput 0.991609
Numeric result:
Recommendation: 2 clients, utility 1.33964:
    h1: 60.4118 MB (U(h) = 0.927125*h^0.0142951)
    h2: 2385.59 MB (U(h) = 0.0168931*h^0.564508)
Recommendation: 2 clients, utility 1.33964:
    h1: 60.4106 MB (U(h) = 0.927125*h^0.0142951)
    h2: 2385.59 MB (U(h) = 0.0168931*h^0.564508)
Reading from 4674: heap size 43 MB, throughput 0.991861
Reading from 4674: heap size 45 MB, throughput 0.992148
Reading from 4674: heap size 47 MB, throughput 0.992653
Reading from 4674: heap size 47 MB, throughput 0.99292
Reading from 4674: heap size 50 MB, throughput 0.993507
Reading from 4673: heap size 1498 MB, throughput 0.986451
Reading from 4674: heap size 50 MB, throughput 0.993138
Reading from 4674: heap size 53 MB, throughput 0.993653
Reading from 4674: heap size 53 MB, throughput 0.993987
Reading from 4674: heap size 56 MB, throughput 0.994329
Reading from 4674: heap size 56 MB, throughput 0.993825
Reading from 4674: heap size 59 MB, throughput 0.994658
Reading from 4674: heap size 59 MB, throughput 0.994869
Reading from 4674: heap size 62 MB, throughput 0.995383
Reading from 4674: heap size 60 MB, throughput 0.995074
Reading from 4674: heap size 59 MB, throughput 0.995084
Reading from 4674: heap size 61 MB, throughput 0.995219
Reading from 4673: heap size 1493 MB, throughput 0.984691
Reading from 4674: heap size 60 MB, throughput 0.995584
Reading from 4674: heap size 63 MB, throughput 0.995623
Reading from 4674: heap size 61 MB, throughput 0.995699
Reading from 4674: heap size 60 MB, throughput 0.995667
Reading from 4674: heap size 59 MB, throughput 0.995383
Reading from 4674: heap size 62 MB, throughput 0.995366
Reading from 4674: heap size 60 MB, throughput 0.995403
Reading from 4674: heap size 59 MB, throughput 0.995466
Reading from 4674: heap size 62 MB, throughput 0.995611
Reading from 4674: heap size 61 MB, throughput 0.995478
Reading from 4673: heap size 1500 MB, throughput 0.983996
Reading from 4674: heap size 60 MB, throughput 0.995526
Reading from 4674: heap size 63 MB, throughput 0.995454
Reading from 4674: heap size 61 MB, throughput 0.995541
Reading from 4674: heap size 60 MB, throughput 0.995497
Reading from 4674: heap size 59 MB, throughput 0.995474
Reading from 4674: heap size 62 MB, throughput 0.995497
Reading from 4674: heap size 61 MB, throughput 0.995787
Reading from 4674: heap size 60 MB, throughput 0.995742
Reading from 4674: heap size 63 MB, throughput 0.995601
Reading from 4674: heap size 61 MB, throughput 0.995489
Reading from 4674: heap size 60 MB, throughput 0.994212
Reading from 4673: heap size 1483 MB, throughput 0.982337
Reading from 4674: heap size 59 MB, throughput 0.994426
Numeric result:
Recommendation: 2 clients, utility 1.2452:
    h1: 68.7017 MB (U(h) = 0.931667*h^0.013306)
    h2: 2377.3 MB (U(h) = 0.0352439*h^0.460431)
Recommendation: 2 clients, utility 1.2452:
    h1: 68.7017 MB (U(h) = 0.931667*h^0.013306)
    h2: 2377.3 MB (U(h) = 0.0352439*h^0.460431)
Reading from 4674: heap size 62 MB, throughput 0.994773
Reading from 4674: heap size 63 MB, throughput 0.995125
Reading from 4674: heap size 66 MB, throughput 0.995369
Reading from 4674: heap size 66 MB, throughput 0.994902
Reading from 4674: heap size 69 MB, throughput 0.995726
Reading from 4674: heap size 68 MB, throughput 0.995943
Reading from 4674: heap size 69 MB, throughput 0.995953
Reading from 4674: heap size 68 MB, throughput 0.996032
Reading from 4673: heap size 1493 MB, throughput 0.914072
Reading from 4674: heap size 69 MB, throughput 0.996272
Reading from 4674: heap size 68 MB, throughput 0.996109
Reading from 4674: heap size 69 MB, throughput 0.996104
Reading from 4674: heap size 68 MB, throughput 0.991776
Reading from 4674: heap size 69 MB, throughput 0.975501
Reading from 4674: heap size 68 MB, throughput 0.99
Reading from 4674: heap size 71 MB, throughput 0.973805
Reading from 4674: heap size 70 MB, throughput 0.959661
Reading from 4674: heap size 68 MB, throughput 0.969336
Reading from 4674: heap size 71 MB, throughput 0.970984
Reading from 4674: heap size 69 MB, throughput 0.977743
Reading from 4674: heap size 68 MB, throughput 0.979488
Reading from 4674: heap size 73 MB, throughput 0.984077
Reading from 4674: heap size 72 MB, throughput 0.982518
Reading from 4673: heap size 1486 MB, throughput 0.956774
Reading from 4674: heap size 71 MB, throughput 0.988164
Reading from 4674: heap size 68 MB, throughput 0.991724
Reading from 4674: heap size 71 MB, throughput 0.993638
Reading from 4674: heap size 67 MB, throughput 0.9947
Reading from 4674: heap size 70 MB, throughput 0.995214
Reading from 4674: heap size 66 MB, throughput 0.99554
Reading from 4674: heap size 68 MB, throughput 0.995761
Reading from 4674: heap size 68 MB, throughput 0.995327
Reading from 4674: heap size 72 MB, throughput 0.995894
Reading from 4673: heap size 1490 MB, throughput 0.96744
Reading from 4674: heap size 68 MB, throughput 0.996004
Reading from 4674: heap size 71 MB, throughput 0.995858
Reading from 4674: heap size 67 MB, throughput 0.995876
Reading from 4674: heap size 69 MB, throughput 0.995979
Reading from 4674: heap size 69 MB, throughput 0.995538
Numeric result:
Recommendation: 2 clients, utility 1.16843:
    h1: 83.9785 MB (U(h) = 0.93314*h^0.0130097)
    h2: 2362.02 MB (U(h) = 0.0689094*h^0.365918)
Recommendation: 2 clients, utility 1.16843:
    h1: 83.9785 MB (U(h) = 0.93314*h^0.0130097)
    h2: 2362.02 MB (U(h) = 0.0689094*h^0.365918)
Reading from 4674: heap size 73 MB, throughput 0.995892
Reading from 4674: heap size 73 MB, throughput 0.996241
Reading from 4674: heap size 76 MB, throughput 0.996453
Reading from 4674: heap size 73 MB, throughput 0.99621
Reading from 4673: heap size 1496 MB, throughput 0.969914
Reading from 4674: heap size 71 MB, throughput 0.996435
Reading from 4674: heap size 70 MB, throughput 0.996211
Reading from 4674: heap size 68 MB, throughput 0.996078
Reading from 4674: heap size 67 MB, throughput 0.995685
Reading from 4674: heap size 70 MB, throughput 0.995784
Reading from 4674: heap size 73 MB, throughput 0.995945
Reading from 4674: heap size 70 MB, throughput 0.996103
Reading from 4674: heap size 69 MB, throughput 0.995998
Reading from 4674: heap size 67 MB, throughput 0.995944
Reading from 4674: heap size 71 MB, throughput 0.996096
Reading from 4673: heap size 1498 MB, throughput 0.967163
Reading from 4674: heap size 69 MB, throughput 0.996281
Reading from 4674: heap size 68 MB, throughput 0.996088
Reading from 4674: heap size 66 MB, throughput 0.996098
Reading from 4674: heap size 65 MB, throughput 0.995781
Reading from 4674: heap size 68 MB, throughput 0.996024
Reading from 4674: heap size 72 MB, throughput 0.996216
Reading from 4674: heap size 69 MB, throughput 0.99626
Reading from 4674: heap size 68 MB, throughput 0.995989
Reading from 4674: heap size 66 MB, throughput 0.995688
Reading from 4674: heap size 70 MB, throughput 0.995902
Reading from 4673: heap size 1504 MB, throughput 0.972661
Reading from 4674: heap size 68 MB, throughput 0.996132
Reading from 4674: heap size 67 MB, throughput 0.996056
Reading from 4674: heap size 65 MB, throughput 0.995818
Reading from 4674: heap size 69 MB, throughput 0.995938
Reading from 4674: heap size 72 MB, throughput 0.996157
Reading from 4674: heap size 70 MB, throughput 0.996128
Reading from 4674: heap size 69 MB, throughput 0.996203
Numeric result:
Recommendation: 2 clients, utility 1.13886:
    h1: 90.5441 MB (U(h) = 0.93596*h^0.0124483)
    h2: 2355.46 MB (U(h) = 0.0930793*h^0.323836)
Recommendation: 2 clients, utility 1.13886:
    h1: 90.5437 MB (U(h) = 0.93596*h^0.0124483)
    h2: 2355.46 MB (U(h) = 0.0930793*h^0.323836)
Reading from 4674: heap size 67 MB, throughput 0.996172
Reading from 4674: heap size 66 MB, throughput 0.988958
Reading from 4674: heap size 70 MB, throughput 0.969508
Reading from 4674: heap size 71 MB, throughput 0.967765
Reading from 4674: heap size 72 MB, throughput 0.964227
Reading from 4674: heap size 79 MB, throughput 0.973726
Reading from 4673: heap size 1512 MB, throughput 0.966514
Reading from 4674: heap size 79 MB, throughput 0.974384
Reading from 4674: heap size 87 MB, throughput 0.979015
Reading from 4674: heap size 88 MB, throughput 0.988874
Reading from 4674: heap size 97 MB, throughput 0.986707
Reading from 4674: heap size 93 MB, throughput 0.982735
Reading from 4674: heap size 90 MB, throughput 0.984259
Reading from 4674: heap size 93 MB, throughput 0.987339
Reading from 4674: heap size 87 MB, throughput 0.991997
Reading from 4673: heap size 1519 MB, throughput 0.967029
Reading from 4674: heap size 97 MB, throughput 0.994825
Reading from 4674: heap size 91 MB, throughput 0.995961
Reading from 4674: heap size 94 MB, throughput 0.99626
Reading from 4674: heap size 89 MB, throughput 0.996674
Reading from 4674: heap size 97 MB, throughput 0.996917
Reading from 4674: heap size 91 MB, throughput 0.997184
Reading from 4673: heap size 1530 MB, throughput 0.966251
Reading from 4674: heap size 91 MB, throughput 0.997158
Reading from 4674: heap size 87 MB, throughput 0.997108
Reading from 4674: heap size 87 MB, throughput 0.996933
Reading from 4674: heap size 82 MB, throughput 0.99696
Reading from 4674: heap size 81 MB, throughput 0.996755
Reading from 4674: heap size 77 MB, throughput 0.996685
Reading from 4674: heap size 77 MB, throughput 0.996393
Reading from 4674: heap size 73 MB, throughput 0.996325
Numeric result:
Recommendation: 2 clients, utility 1.12829:
    h1: 95.8598 MB (U(h) = 0.934405*h^0.0127232)
    h2: 2350.14 MB (U(h) = 0.101171*h^0.311952)
Recommendation: 2 clients, utility 1.12829:
    h1: 95.8529 MB (U(h) = 0.934405*h^0.0127232)
    h2: 2350.15 MB (U(h) = 0.101171*h^0.311952)
Reading from 4673: heap size 1542 MB, throughput 0.965041
Reading from 4674: heap size 73 MB, throughput 0.996171
Reading from 4674: heap size 69 MB, throughput 0.99613
Reading from 4674: heap size 69 MB, throughput 0.99571
Reading from 4674: heap size 66 MB, throughput 0.995446
Reading from 4674: heap size 71 MB, throughput 0.995802
Reading from 4674: heap size 68 MB, throughput 0.995777
Reading from 4674: heap size 73 MB, throughput 0.995941
Reading from 4674: heap size 70 MB, throughput 0.996018
Reading from 4674: heap size 69 MB, throughput 0.995905
Reading from 4674: heap size 67 MB, throughput 0.995852
Reading from 4673: heap size 1552 MB, throughput 0.964705
Reading from 4674: heap size 71 MB, throughput 0.996031
Reading from 4674: heap size 69 MB, throughput 0.99576
Reading from 4674: heap size 73 MB, throughput 0.995801
Reading from 4674: heap size 70 MB, throughput 0.995826
Reading from 4674: heap size 69 MB, throughput 0.995666
Reading from 4674: heap size 72 MB, throughput 0.996057
Reading from 4674: heap size 71 MB, throughput 0.996062
Reading from 4674: heap size 69 MB, throughput 0.996123
Reading from 4674: heap size 68 MB, throughput 0.995955
Reading from 4674: heap size 66 MB, throughput 0.994725
Reading from 4673: heap size 1565 MB, throughput 0.964897
Reading from 4674: heap size 70 MB, throughput 0.995514
Reading from 4674: heap size 74 MB, throughput 0.995443
Reading from 4674: heap size 79 MB, throughput 0.982062
Reading from 4674: heap size 78 MB, throughput 0.978552
Reading from 4674: heap size 79 MB, throughput 0.97447
Reading from 4674: heap size 86 MB, throughput 0.97613
Reading from 4674: heap size 86 MB, throughput 0.976855
Reading from 4674: heap size 95 MB, throughput 0.987047
Reading from 4674: heap size 96 MB, throughput 0.991961
Reading from 4674: heap size 105 MB, throughput 0.991867
Reading from 4674: heap size 101 MB, throughput 0.98874
Reading from 4673: heap size 1572 MB, throughput 0.964353
Reading from 4674: heap size 97 MB, throughput 0.98623
Numeric result:
Recommendation: 2 clients, utility 1.12674:
    h1: 94.7215 MB (U(h) = 0.934961*h^0.0126476)
    h2: 2351.28 MB (U(h) = 0.0994511*h^0.31395)
Recommendation: 2 clients, utility 1.12674:
    h1: 94.7224 MB (U(h) = 0.934961*h^0.0126476)
    h2: 2351.28 MB (U(h) = 0.0994511*h^0.31395)
Reading from 4674: heap size 94 MB, throughput 0.993278
Reading from 4674: heap size 103 MB, throughput 0.992447
Reading from 4674: heap size 97 MB, throughput 0.99476
Reading from 4674: heap size 95 MB, throughput 0.995936
Reading from 4674: heap size 92 MB, throughput 0.996516
Reading from 4673: heap size 1582 MB, throughput 0.965627
Reading from 4674: heap size 90 MB, throughput 0.996979
Reading from 4674: heap size 90 MB, throughput 0.99684
Reading from 4674: heap size 85 MB, throughput 0.996936
Reading from 4674: heap size 85 MB, throughput 0.996658
Reading from 4674: heap size 80 MB, throughput 0.99676
Reading from 4674: heap size 81 MB, throughput 0.99639
Reading from 4674: heap size 76 MB, throughput 0.996502
Reading from 4674: heap size 76 MB, throughput 0.996225
Reading from 4674: heap size 72 MB, throughput 0.996385
Reading from 4673: heap size 1517 MB, throughput 0.964306
Reading from 4674: heap size 73 MB, throughput 0.996363
Reading from 4674: heap size 69 MB, throughput 0.996243
Reading from 4674: heap size 69 MB, throughput 0.99575
Reading from 4674: heap size 66 MB, throughput 0.995683
Reading from 4674: heap size 66 MB, throughput 0.995241
Reading from 4674: heap size 63 MB, throughput 0.995419
Reading from 4674: heap size 63 MB, throughput 0.995186
Reading from 4674: heap size 61 MB, throughput 0.99508
Reading from 4674: heap size 61 MB, throughput 0.994839
Reading from 4674: heap size 59 MB, throughput 0.99499
Reading from 4674: heap size 59 MB, throughput 0.994551
Reading from 4674: heap size 57 MB, throughput 0.994713
Reading from 4673: heap size 1581 MB, throughput 0.963941
Reading from 4674: heap size 57 MB, throughput 0.994467
Reading from 4674: heap size 55 MB, throughput 0.994084
Reading from 4674: heap size 59 MB, throughput 0.994193
Reading from 4674: heap size 62 MB, throughput 0.994758
Numeric result:
Recommendation: 2 clients, utility 1.12088:
    h1: 95.6412 MB (U(h) = 0.935726*h^0.0125213)
    h2: 2350.36 MB (U(h) = 0.103794*h^0.307742)
Recommendation: 2 clients, utility 1.12088:
    h1: 95.631 MB (U(h) = 0.935726*h^0.0125213)
    h2: 2350.37 MB (U(h) = 0.103794*h^0.307742)
Reading from 4674: heap size 61 MB, throughput 0.994864
Reading from 4674: heap size 60 MB, throughput 0.995057
Reading from 4674: heap size 59 MB, throughput 0.995057
Reading from 4674: heap size 58 MB, throughput 0.994838
Reading from 4674: heap size 57 MB, throughput 0.994662
Reading from 4674: heap size 56 MB, throughput 0.994451
Reading from 4674: heap size 60 MB, throughput 0.994634
Reading from 4674: heap size 63 MB, throughput 0.995042
Reading from 4674: heap size 62 MB, throughput 0.995265
Reading from 4674: heap size 61 MB, throughput 0.994948
Reading from 4673: heap size 1511 MB, throughput 0.964022
Reading from 4674: heap size 60 MB, throughput 0.995025
Reading from 4674: heap size 59 MB, throughput 0.99486
Reading from 4674: heap size 58 MB, throughput 0.994923
Reading from 4674: heap size 57 MB, throughput 0.994707
Reading from 4674: heap size 56 MB, throughput 0.994389
Reading from 4674: heap size 59 MB, throughput 0.971818
Reading from 4674: heap size 64 MB, throughput 0.959127
Reading from 4674: heap size 70 MB, throughput 0.964736
Reading from 4674: heap size 76 MB, throughput 0.965682
Reading from 4674: heap size 78 MB, throughput 0.971957
Reading from 4674: heap size 79 MB, throughput 0.973554
Reading from 4674: heap size 87 MB, throughput 0.980813
Reading from 4674: heap size 87 MB, throughput 0.988989
Reading from 4674: heap size 97 MB, throughput 0.989199
Reading from 4673: heap size 1580 MB, throughput 0.963686
Reading from 4674: heap size 93 MB, throughput 0.987981
Reading from 4674: heap size 95 MB, throughput 0.988286
Reading from 4674: heap size 95 MB, throughput 0.990033
Reading from 4674: heap size 103 MB, throughput 0.993619
Reading from 4674: heap size 98 MB, throughput 0.995489
Reading from 4674: heap size 95 MB, throughput 0.996359
Reading from 4674: heap size 95 MB, throughput 0.996678
Reading from 4673: heap size 1581 MB, throughput 0.9638
Reading from 4674: heap size 90 MB, throughput 0.996929
Reading from 4674: heap size 90 MB, throughput 0.996795
Reading from 4674: heap size 85 MB, throughput 0.996789
Numeric result:
Recommendation: 2 clients, utility 1.11608:
    h1: 100.642 MB (U(h) = 0.93326*h^0.0129971)
    h2: 2345.36 MB (U(h) = 0.107354*h^0.302902)
Recommendation: 2 clients, utility 1.11608:
    h1: 100.637 MB (U(h) = 0.93326*h^0.0129971)
    h2: 2345.36 MB (U(h) = 0.107354*h^0.302902)
Reading from 4674: heap size 85 MB, throughput 0.996711
Reading from 4674: heap size 80 MB, throughput 0.99676
Reading from 4674: heap size 80 MB, throughput 0.996602
Reading from 4674: heap size 76 MB, throughput 0.996543
Reading from 4674: heap size 76 MB, throughput 0.996357
Reading from 4674: heap size 72 MB, throughput 0.996263
Reading from 4673: heap size 1578 MB, throughput 0.961339
Reading from 4674: heap size 72 MB, throughput 0.996175
Reading from 4674: heap size 69 MB, throughput 0.996056
Reading from 4674: heap size 69 MB, throughput 0.995852
Reading from 4674: heap size 66 MB, throughput 0.995612
Reading from 4674: heap size 66 MB, throughput 0.995061
Reading from 4674: heap size 63 MB, throughput 0.995055
Reading from 4674: heap size 63 MB, throughput 0.99489
Reading from 4674: heap size 61 MB, throughput 0.994762
Reading from 4674: heap size 61 MB, throughput 0.99452
Reading from 4674: heap size 59 MB, throughput 0.9945
Reading from 4674: heap size 59 MB, throughput 0.994448
Reading from 4674: heap size 61 MB, throughput 0.994818
Reading from 4673: heap size 1579 MB, throughput 0.962143
Reading from 4674: heap size 61 MB, throughput 0.994932
Reading from 4674: heap size 59 MB, throughput 0.994924
Reading from 4674: heap size 59 MB, throughput 0.994435
Reading from 4674: heap size 62 MB, throughput 0.994653
Reading from 4674: heap size 61 MB, throughput 0.994732
Reading from 4674: heap size 60 MB, throughput 0.994922
Reading from 4674: heap size 59 MB, throughput 0.994812
Reading from 4674: heap size 58 MB, throughput 0.994533
Reading from 4674: heap size 57 MB, throughput 0.994396
Reading from 4674: heap size 60 MB, throughput 0.994863
Reading from 4674: heap size 60 MB, throughput 0.994827
Reading from 4674: heap size 63 MB, throughput 0.995274
Reading from 4674: heap size 62 MB, throughput 0.995361
Reading from 4674: heap size 61 MB, throughput 0.99511
Reading from 4673: heap size 1579 MB, throughput 0.962
Reading from 4674: heap size 60 MB, throughput 0.994807
Reading from 4674: heap size 64 MB, throughput 0.995089
Reading from 4674: heap size 62 MB, throughput 0.995064
Reading from 4674: heap size 61 MB, throughput 0.994691
Reading from 4674: heap size 65 MB, throughput 0.995078
Numeric result:
Recommendation: 2 clients, utility 1.1219:
    h1: 92.7914 MB (U(h) = 0.93629*h^0.0123777)
    h2: 2353.21 MB (U(h) = 0.0990578*h^0.313882)
Recommendation: 2 clients, utility 1.1219:
    h1: 92.7966 MB (U(h) = 0.93629*h^0.0123777)
    h2: 2353.2 MB (U(h) = 0.0990578*h^0.313882)
Client 4674 died
Clients: 1
Reading from 4673: heap size 1581 MB, throughput 0.959462
Reading from 4673: heap size 1631 MB, throughput 0.977211
Reading from 4673: heap size 1433 MB, throughput 0.983895
Recommendation: one client; give it all the memory
Reading from 4673: heap size 1613 MB, throughput 0.986001
Recommendation: one client; give it all the memory
Recommendation: one client; give it all the memory
Reading from 4673: heap size 1420 MB, throughput 0.995705
Reading from 4673: heap size 1621 MB, throughput 0.993778
Recommendation: one client; give it all the memory
Reading from 4673: heap size 1618 MB, throughput 0.988274
Reading from 4673: heap size 1610 MB, throughput 0.975522
Reading from 4673: heap size 1599 MB, throughput 0.951999
Reading from 4673: heap size 1564 MB, throughput 0.918544
Reading from 4673: heap size 1582 MB, throughput 0.875961
Reading from 4673: heap size 1582 MB, throughput 0.832622
Reading from 4673: heap size 1582 MB, throughput 0.822
Client 4673 died
Clients: 0
Recommendation: no clients; no recommendation
Recommendation: no clients; no recommendation
ReadingThread: finished
TimerThread: finished
CommandThread: finished
Main: All threads killed, cleaning up
