1412918087713 0 TOTAL_MEM 4904
1412918107751 9964 CREATION
1412918107751 9964 READING 9 0.989111
1412918107751 9964 MINHEAP 2
1412918107751 9964 MINHEAP 3
1412918107763 9963 CREATION
1412918107763 9963 READING 9 0.990442
1412918107763 9963 MINHEAP 2
1412918107763 9963 MINHEAP 1223
1412918107794 9964 READING 9 0.978500
1412918107818 9963 READING 9 0.982948
1412918107842 9964 READING 11 0.961031
1412918107847 9963 READING 9 0.959968
1412918107869 9963 READING 9 0.948448
1412918107911 9964 READING 11 0.976715
1412918107964 9963 READING 11 0.980689
1412918108148 9963 READING 11 0.976471
1412918108169 9964 READING 15 0.929712
1412918108268 9963 READING 17 0.958598
1412918108368 9964 READING 17 0.994006
1412918108427 9963 READING 17 0.541975
1412918108478 9964 READING 21 0.986523
1412918108629 9963 READING 30 0.970877
1412918108658 9964 READING 26 0.992444
1412918108803 9964 READING 27 0.990539
1412918108861 9963 READING 31 0.886574
1412918108930 9964 READING 27 0.992156
1412918109074 9964 READING 29 0.993151
1412918109149 9963 READING 34 0.459451
1412918109207 9964 READING 29 0.988369
1412918109255 9963 READING 47 0.886322
1412918109345 9963 READING 50 0.822287
1412918109361 9964 READING 32 0.992211
1412918109489 9964 READING 32 0.989162
1412918109658 9964 READING 36 0.991861
1412918109680 9963 READING 51 0.278005
1412918109756 9964 READING 36 0.984472
1412918109777 9963 READING 71 0.800962
1412918109873 9963 READING 72 0.734883
1412918109905 9964 READING 40 0.989753
1412918110035 9964 READING 40 0.976859
1412918110135 9964 READING 43 0.989101
1412918110223 9964 READING 43 0.982300
1412918110351 9963 READING 75 0.296291
1412918110374 9964 READING 47 0.992154
1412918110460 9963 READING 98 0.678556
1412918110539 9964 READING 47 0.993009
1412918110587 9963 READING 101 0.685858
1412918110756 9964 READING 50 0.994308
1412918110907 9963 READING 103 0.169947
1412918110914 9964 READING 51 0.972111
1412918111081 9963 READING 135 0.791708
1412918111095 9964 READING 55 0.994834
1412918111196 9963 READING 137 0.705632
1412918111226 9964 READING 55 0.991149
1412918111341 9963 READING 140 0.816119
1412918111413 9964 READING 59 0.994857
1412918111489 9963 READING 143 0.528833
1412918111508 9964 READING 59 0.985957
1412918111614 9964 READING 63 0.992342
1412918111657 9963 READING 150 0.795250
1412918111790 9964 READING 63 0.993086
1412918111821 9963 READING 154 0.580580
1412918111958 9964 READING 67 0.994902
1412918112181 9964 READING 67 0.993356
1412918112383 9964 READING 71 0.994985
1412918112402 9963 READING 157 0.152510
1412918112527 9964 READING 71 0.990181
1412918112557 9963 READING 196 0.591002
1412918112671 9963 READING 203 0.720426
1412918112703 9964 READING 74 0.994856
1412918112789 9963 READING 205 0.678095
1412918112836 9964 READING 74 0.989339
1412918112905 9963 READING 208 0.684955
1412918112982 9964 READING 77 0.993488
1412918113048 9963 READING 214 0.546077
1412918113150 9964 READING 77 0.990771
1412918113363 9964 READING 81 0.993993
1412918113565 9964 READING 81 0.994232
1412918113718 9963 READING 220 0.120492
1412918113722 9964 READING 84 0.993660
1412918113843 9964 READING 84 0.985532
1412918113872 9963 READING 260 0.625910
1412918113999 9964 READING 88 0.988764
1412918114037 9963 READING 267 0.664475
1412918114126 9964 READING 88 0.990740
1412918114236 9963 READING 268 0.620005
1412918114297 9964 READING 93 0.993820
1412918114442 9963 READING 271 0.634930
1412918114470 9964 READING 93 0.993239
1412918114585 9963 READING 277 0.616340
1412918114610 9964 READING 96 0.990964
1412918114745 9964 READING 97 0.991186
1412918114953 9964 READING 101 0.995274
1412918115094 9964 READING 101 0.991991
1412918115250 9964 READING 105 0.993317
1412918115303 9963 READING 282 0.136974
1412918115405 9964 READING 105 0.902354
1412918115453 9963 READING 326 0.579291
1412918115564 9964 READING 109 0.989062
1412918115593 9963 READING 333 0.603978
1412918115731 9963 READING 335 0.617639
1412918115732 9964 READING 109 0.992862
1412918115861 9963 READING 340 0.634672
1412918115920 9964 READING 118 0.993671
1412918116009 9963 READING 345 0.593746
1412918116083 9964 READING 119 0.993108
1412918116278 9964 READING 126 0.993706
1412918116463 9964 READING 127 0.985989
1412918116715 9964 READING 134 0.996243
1412918116763 9963 READING 351 0.114665
1412918116900 9964 READING 134 0.993000
1412918116929 9963 READING 398 0.464551
1412918117068 9963 READING 402 0.671110
1412918117091 9964 READING 140 0.992597
1412918117229 9963 READING 405 0.616814
1412918117279 9964 READING 141 0.993681
1412918117382 9963 READING 407 0.576916
1412918117462 9964 READING 146 0.991500
1412918117563 9963 READING 412 0.518815
1412918117632 9964 READING 147 0.992742
1412918117713 9964 FUNCTION lru lambda h: 0.962499 * (h ** 0.00627908)
1412918117713 9963 FUNCTION lru lambda h: 1.19738 * (h ** 0.001)
1412918117713 9964 RECOMMEND 2452
1412918117713 9963 RECOMMEND 2452
1412918117910 9964 READING 153 0.994709
1412918118270 9964 READING 153 0.995166
1412918118482 9963 READING 416 0.102604
1412918118492 9964 READING 159 0.995238
1412918118675 9964 READING 159 0.992881
1412918118697 9963 READING 472 0.390638
1412918118889 9964 READING 164 0.993041
1412918118890 9963 READING 477 0.555037
1412918119068 9963 READING 480 0.581478
1412918119154 9964 READING 164 0.994885
1412918119375 9964 READING 169 0.993155
1412918119679 9964 READING 170 0.994477
1412918120026 9964 READING 175 0.994561
1412918120038 9963 READING 484 0.115544
1412918120273 9963 READING 538 0.427467
1412918120275 9964 READING 176 0.994992
1412918120485 9963 READING 544 0.576593
1412918120505 9964 READING 181 0.993391
1412918120733 9963 READING 545 0.504325
1412918120734 9964 READING 181 0.993392
1412918120956 9963 READING 547 0.619592
1412918121029 9964 READING 187 0.995940
1412918121177 9963 READING 555 0.521558
1412918121280 9964 READING 187 0.993510
1412918121584 9964 READING 193 0.994093
1412918121911 9964 READING 193 0.993867
1412918122247 9964 READING 200 0.993702
1412918122451 9963 READING 563 0.094452
1412918122534 9964 READING 200 0.994708
1412918122744 9963 READING 630 0.370781
1412918122810 9964 READING 206 0.995813
1412918122938 9963 READING 644 0.636662
1412918123073 9964 READING 206 0.993357
1412918123169 9963 READING 645 0.521313
1412918123387 9964 READING 213 0.994274
1412918123405 9963 READING 647 0.503548
1412918123640 9964 READING 213 0.994195
1412918123985 9964 READING 220 0.993742
1412918124053 9963 READING 656 0.798147
1412918124263 9964 READING 220 0.994509
1412918124515 9964 READING 227 0.994962
1412918124664 9963 READING 661 0.805607
1412918124796 9964 READING 227 0.993693
1412918125059 9964 READING 234 0.994453
1412918125335 9964 READING 234 0.994451
1412918125581 9963 READING 672 0.844653
1412918125714 9964 READING 242 0.995647
1412918126168 9964 READING 242 0.996042
1412918127168 9964 READING 248 0.996333
1412918127713 9964 FUNCTION lru lambda h: 0.963157 * (h ** 0.00609873)
1412918127714 9963 FUNCTION lru lambda h: 1.14278 * (h ** 0.001)
1412918127714 9964 RECOMMEND 2452
1412918127714 9963 RECOMMEND 2452
1412918127774 9964 READING 249 0.995323
1412918127883 9963 READING 675 0.049655
1412918128105 9963 READING 757 0.198734
1412918128114 9964 READING 255 0.994155
1412918128308 9963 READING 773 0.544836
1412918128457 9963 READING 774 0.272913
1412918128471 9964 READING 255 0.993538
1412918128605 9963 READING 765 0.307151
1412918128836 9964 READING 263 0.987666
1412918129348 9964 READING 263 0.994640
1412918129690 9964 READING 272 0.995053
1412918130065 9964 READING 272 0.992463
1412918130416 9963 READING 664 0.024813
1412918130464 9964 READING 282 0.994574
1412918130630 9963 READING 843 0.238746
1412918130803 9964 READING 282 0.993135
1412918131137 9964 READING 292 0.990177
1412918131173 9963 READING 847 0.861234
1412918131337 9963 READING 847 0.525813
1412918131468 9964 READING 292 0.992842
1412918131497 9963 READING 849 0.460265
1412918131653 9963 READING 846 0.527322
1412918131809 9964 READING 304 0.994306
1412918132154 9964 READING 304 0.993300
1412918132723 9964 READING 314 0.995093
1412918133153 9964 READING 314 0.993520
1412918133276 9963 READING 849 0.190282
1412918133527 9964 READING 325 0.993286
1412918133554 9963 READING 930 0.501607
1412918133821 9963 READING 932 0.839331
1412918133904 9964 READING 325 0.994613
1412918134263 9964 READING 336 0.994957
1412918134766 9964 READING 336 0.995813
1412918134942 9963 READING 939 0.265615
1412918135099 9963 READING 1026 0.976872
1412918135213 9964 READING 346 0.995684
1412918135508 9963 READING 1031 0.927344
1412918135586 9964 READING 347 0.995179
1412918135726 9963 READING 832 0.848617
1412918135928 9963 READING 1017 0.794940
1412918135969 9964 READING 356 0.995287
1412918136121 9963 READING 842 0.827261
1412918136332 9963 READING 1005 0.802268
1412918136351 9964 READING 357 0.994981
1412918136541 9963 READING 847 0.831052
1412918136745 9964 READING 367 0.992931
1412918136751 9963 READING 993 0.852101
1412918136966 9963 READING 853 0.833305
1412918137140 9964 READING 367 0.994771
1412918137185 9963 READING 983 0.866572
1412918137408 9963 READING 859 0.846729
1412918137558 9964 READING 379 0.995684
1412918137645 9963 READING 974 0.837742
1412918137714 9964 FUNCTION lru lambda h: 0.966512 * (h ** 0.00521372)
1412918137714 9963 FUNCTION lru lambda h: 0.893812 * (h ** 0.001)
1412918137714 9964 RECOMMEND 2452
1412918137714 9963 RECOMMEND 2452
1412918137965 9964 READING 379 0.995045
1412918138352 9964 READING 360 0.994672
1412918138718 9964 READING 343 0.995493
1412918138818 9963 READING 865 0.981517
1412918139071 9964 READING 327 0.994695
1412918139429 9964 READING 312 0.994229
1412918139744 9964 READING 297 0.992661
1412918139885 9963 READING 970 0.954737
1412918140087 9964 READING 307 0.993550
1412918140097 9963 READING 975 0.743424
1412918140313 9963 READING 974 0.763312
1412918140431 9964 READING 317 0.992897
1412918140537 9963 READING 976 0.748246
1412918140774 9963 READING 975 0.749524
1412918140791 9964 READING 328 0.995034
1412918141009 9963 READING 977 0.750717
1412918141154 9964 READING 338 0.994615
1412918141252 9963 READING 977 0.774098
1412918141493 9963 READING 980 0.782461
1412918141502 9964 READING 323 0.994912
1412918141756 9963 READING 979 0.911081
1412918141848 9964 READING 307 0.994677
1412918142213 9963 READING 983 0.895518
1412918142224 9964 READING 293 0.994064
1412918142526 9964 READING 280 0.994007
1412918142649 9963 READING 979 0.899374
1412918142839 9964 READING 267 0.988937
1412918142888 9963 READING 985 0.706061
1412918143137 9963 READING 982 0.615013
1412918143143 9964 READING 276 0.994274
1412918143365 9963 READING 989 0.582811
1412918143458 9964 READING 287 0.994530
1412918143583 9963 READING 1015 0.633040
1412918143800 9963 READING 1020 0.641655
1412918143808 9964 READING 297 0.994729
1412918144025 9963 READING 1038 0.673503
1412918144130 9964 READING 283 0.994876
1412918144273 9963 READING 1038 0.606668
1412918144423 9964 READING 269 0.994096
1412918144535 9963 READING 1053 0.632495
1412918144707 9964 READING 257 0.994201
1412918144782 9963 READING 1054 0.674829
1412918145049 9963 READING 1071 0.664947
1412918145057 9964 READING 245 0.996105
1412918145316 9963 READING 1073 0.711598
1412918145333 9964 READING 233 0.994533
1412918145675 9964 READING 223 0.983326
1412918145951 9964 READING 232 0.992088
1412918146314 9964 READING 242 0.995014
1412918146631 9964 READING 251 0.994746
1412918146919 9964 READING 260 0.991983
1412918147315 9964 READING 270 0.994421
1412918147667 9964 READING 281 0.994185
1412918147714 9964 FUNCTION lru lambda h: 0.967951 * (h ** 0.00481977)
1412918147714 9963 FUNCTION lru lambda h: 0.422111 * (h ** 0.0320399)
1412918147714 9964 RECOMMEND 2452
1412918147714 9963 RECOMMEND 2452
1412918147986 9964 READING 268 0.983828
1412918148375 9964 READING 279 0.995738
1412918148389 9963 READING 1091 0.961936
1412918148712 9964 READING 291 0.993147
1412918149111 9964 READING 303 0.995207
1412918149463 9964 READING 314 0.995073
1412918149794 9964 READING 298 0.994686
1412918150109 9964 READING 285 0.994211
1412918150407 9964 READING 272 0.994555
1412918150694 9964 READING 259 0.994479
1412918150979 9964 READING 246 0.993097
1412918151093 9963 READING 1093 0.965087
1412918151281 9964 READING 236 0.994609
1412918151527 9964 READING 224 0.992093
1412918151775 9964 READING 214 0.917717
1412918151992 9964 READING 205 0.993402
1412918152224 9964 READING 217 0.994425
1412918152472 9964 READING 230 0.995004
1412918152734 9964 READING 242 0.995121
1412918153008 9964 READING 255 0.994560
1412918153302 9964 READING 269 0.994596
1412918153611 9964 READING 282 0.994979
1412918153933 9964 READING 298 0.994410
1412918153994 9963 READING 1101 0.962183
1412918154289 9964 READING 313 0.995265
1412918154655 9964 READING 329 0.994416
1412918155028 9964 READING 345 0.995136
1412918155418 9964 READING 358 0.994213
1412918155814 9964 READING 364 0.994901
1412918156214 9964 READING 364 0.993706
1412918156634 9964 READING 383 0.994519
1412918156825 9963 READING 1105 0.961388
1412918157074 9964 READING 383 0.995550
1412918157510 9964 READING 402 0.995459
1412918157714 9964 FUNCTION lru lambda h: 0.970225 * (h ** 0.0041742)
1412918157714 9963 FUNCTION lru lambda h: 0.226023 * (h ** 0.134182)
1412918157714 9964 RECOMMEND 2452
1412918157714 9963 RECOMMEND 2452
1412918157955 9964 READING 402 0.994209
1412918158421 9964 READING 422 0.995567
1412918158889 9964 READING 422 0.995130
1412918159385 9964 READING 443 0.995436
1412918159697 9963 READING 1103 0.965090
1412918159914 9964 READING 443 0.995216
1412918160427 9964 READING 465 0.995472
1412918160932 9964 READING 465 0.995412
1412918161474 9964 READING 487 0.995510
1412918162025 9964 READING 487 0.994192
1412918162585 9964 READING 510 0.995196
1412918162693 9963 READING 1109 0.967192
1412918163196 9964 READING 510 0.994928
1412918163785 9964 READING 536 0.994481
1412918164364 9964 READING 536 0.994721
1412918164976 9964 READING 563 0.995343
1412918165592 9964 READING 563 0.995090
1412918165754 9963 READING 1097 0.957692
1412918166325 9964 READING 591 0.996234
1412918166982 9964 READING 591 0.995317
1412918167654 9964 READING 619 0.995283
1412918167714 9964 FUNCTION lru lambda h: 0.976309 * (h ** 0.00307028)
1412918167714 9963 FUNCTION lru lambda h: 0.157329 * (h ** 0.192909)
1412918167714 9964 RECOMMEND 2452
1412918167714 9963 RECOMMEND 2452
1412918168326 9964 READING 619 0.995355
1412918168833 9963 READING 1105 0.960250
1412918169082 9964 READING 649 0.995662
1412918169800 9964 READING 649 0.994859
1412918170548 9964 READING 679 0.995606
1412918171291 9964 READING 679 0.995389
1412918172038 9963 READING 1095 0.962574
1412918172078 9964 READING 711 0.994520
1412918173514 9964 READING 711 0.997224
1412918174340 9964 READING 743 0.995579
1412918175166 9964 READING 745 0.993961
1412918175673 9963 READING 1100 0.968846
1412918176059 9964 READING 777 0.995707
1412918176914 9964 READING 777 0.995666
1412918177715 9964 FUNCTION lru lambda h: 0.975695 * (h ** 0.00315881)
1412918177715 9963 FUNCTION lru lambda h: 0.132974 * (h ** 0.220417)
1412918177715 9964 RECOMMEND 2452
1412918177715 9963 RECOMMEND 2452
1412918177814 9964 READING 813 0.994816
1412918178705 9964 READING 814 0.995848
1412918179053 9963 READING 1100 0.966534
1412918179676 9964 READING 852 0.995917
1412918180613 9964 READING 853 0.995015
1412918181594 9964 READING 892 0.996054
1412918182260 9963 READING 1102 0.958549
1412918182613 9964 READING 892 0.995524
1412918183633 9964 READING 933 0.995726
1412918184666 9964 READING 933 0.995455
1412918185477 9963 READING 1107 0.953931
1412918185765 9964 READING 976 0.995857
1412918186842 9964 READING 976 0.995449
1412918187715 9964 FUNCTION lru lambda h: 0.974633 * (h ** 0.00330561)
1412918187715 9963 FUNCTION lru lambda h: 0.128052 * (h ** 0.227931)
1412918187715 9964 RECOMMEND 2452
1412918187715 9963 RECOMMEND 2452
1412918187967 9964 READING 1021 0.996101
1412918188949 9963 READING 1108 0.961049
1412918189159 9964 READING 1021 0.995210
1412918190355 9964 READING 1067 0.995732
1412918191554 9964 READING 1067 0.995872
1412918192373 9963 READING 1113 0.960082
1412918192781 9964 READING 1115 0.995678
1412918194007 9964 READING 1116 0.995744
1412918195314 9964 READING 1166 0.996292
1412918195687 9963 READING 1116 0.969178
1412918196655 9964 READING 1166 0.995615
1412918197715 9964 FUNCTION lru lambda h: 0.974256 * (h ** 0.0033338)
1412918197715 9963 FUNCTION lru lambda h: 0.0631596 * (h ** 0.336766)
1412918197715 9964 RECOMMEND 2452
1412918197715 9963 RECOMMEND 2452
1412918198003 9964 READING 1217 0.995939
1412918199579 9964 READING 1217 0.995899
1412918201274 9963 READING 1122 0.562587
1412918201606 9964 READING 1271 0.997257
1412918203007 9964 READING 1271 0.995687
1412918204477 9964 READING 1322 0.996116
1412918204824 9963 READING 1216 0.952463
1412918205999 9964 READING 1323 0.995857
1412918207535 9964 READING 1378 0.996349
1412918207715 9964 FUNCTION lru lambda h: 0.974143 * (h ** 0.00331603)
1412918207715 9963 FUNCTION lru lambda h: 0.0410547 * (h ** 0.401596)
1412918207715 9964 RECOMMEND 2452
1412918207715 9963 RECOMMEND 2452
1412918208190 9963 READING 1224 0.976614
1412918209100 9964 READING 1378 0.995548
1412918210699 9964 READING 1436 0.996092
1412918211590 9963 READING 1224 0.970368
1412918212300 9964 READING 1436 0.995854
1412918213953 9964 READING 1498 0.995441
1412918215068 9963 READING 1221 0.974721
1412918215647 9964 READING 1498 0.995843
1412918217414 9964 READING 1565 0.995696
1412918217715 9964 FUNCTION lru lambda h: 0.974833 * (h ** 0.00317445)
1412918217715 9963 FUNCTION lru lambda h: 0.0389616 * (h ** 0.410738)
1412918217715 9964 RECOMMEND 2452
1412918217715 9963 RECOMMEND 2452
1412918218705 9963 READING 1224 0.976862
1412918219200 9964 READING 1565 0.996088
1412918221028 9964 READING 1632 0.996295
1412918222145 9963 READING 1215 0.966741
1412918222857 9964 READING 1633 0.996106
1412918224672 9964 READING 1636 0.996076
1412918225664 9963 READING 1220 0.963856
1412918226468 9964 READING 1636 0.995939
1412918227716 9964 FUNCTION lru lambda h: 0.975228 * (h ** 0.00308835)
1412918227716 9963 FUNCTION lru lambda h: 0.0235322 * (h ** 0.486722)
1412918227716 9964 RECOMMEND 2452
1412918227716 9963 RECOMMEND 2452
1412918228266 9964 READING 1636 0.996155
1412918229227 9963 READING 1214 0.969563
1412918230125 9964 READING 1635 0.996318
1412918231941 9964 READING 1636 0.996218
1412918232880 9963 READING 1217 0.964794
1412918233760 9964 READING 1636 0.996217
1412918235567 9964 READING 1636 0.995986
1412918236601 9963 READING 1221 0.968006
1412918237439 9964 READING 1634 0.996514
1412918237716 9964 FUNCTION lru lambda h: 0.975691 * (h ** 0.00300626)
1412918237716 9963 FUNCTION lru lambda h: 0.0124127 * (h ** 0.582386)
1412918237716 9964 RECOMMEND 2452
1412918237716 9963 RECOMMEND 2452
1412918239917 9964 READING 1635 0.997194
1412918240373 9963 READING 1221 0.972121
1412918241783 9964 READING 1635 0.996476
1412918243592 9964 READING 1636 0.996460
1412918244073 9963 READING 1226 0.967888
1412918245461 9964 READING 1636 0.996355
1412918247276 9964 READING 1636 0.996178
1412918247716 9964 FUNCTION lru lambda h: 0.975608 * (h ** 0.00302089)
1412918247716 9963 FUNCTION lru lambda h: 0.00934324 * (h ** 0.624778)
1412918247716 9964 RECOMMEND 2452
1412918247716 9963 RECOMMEND 2452
1412918247752 9963 READING 1229 0.959391
1412918249095 9964 READING 1636 0.996198
1412918250884 9964 READING 1635 0.996102
1412918251635 9963 READING 1233 0.964914
1412918252763 9964 READING 1636 0.996221
1412918254572 9964 READING 1637 0.996048
1412918255472 9963 READING 1238 0.957881
1412918256384 9964 READING 1637 0.995982
1412918257716 9964 FUNCTION lru lambda h: 0.975868 * (h ** 0.00297247)
1412918257716 9963 FUNCTION lru lambda h: 0.00689158 * (h ** 0.670384)
1412918257716 9964 RECOMMEND 2452
1412918257716 9963 RECOMMEND 2452
1412918258190 9964 READING 1637 0.996070
1412918259411 9963 READING 1242 0.959129
1412918260010 9964 READING 1637 0.995980
1412918261823 9964 READING 1637 0.996099
1412918263242 9963 READING 1248 0.961826
1412918263670 9964 READING 1637 0.996123
1412918265453 9964 READING 1637 0.995999
1412918267135 9963 READING 1256 0.954469
1412918267282 9964 READING 1637 0.996295
1412918267716 9964 FUNCTION lru lambda h: 0.975842 * (h ** 0.00297716)
1412918267716 9963 FUNCTION lru lambda h: 0.002255 * (h ** 0.834713)
1412918267717 9964 RECOMMEND 2452
1412918267717 9963 RECOMMEND 2452
1412918269084 9964 READING 1636 0.996037
1412918270882 9964 READING 1636 0.996218
1412918273530 9963 READING 1259 0.590391
1412918273697 9964 READING 1637 0.997512
1412918275510 9964 READING 1637 0.996051
1412918277321 9964 READING 1637 0.995920
1412918277542 9963 READING 1370 0.947339
1412918277717 9964 FUNCTION lru lambda h: 0.975848 * (h ** 0.00297611)
1412918277717 9963 FUNCTION lru lambda h: 0.00239093 * (h ** 0.825266)
1412918277717 9964 RECOMMEND 2452
1412918277717 9963 RECOMMEND 2452
1412918279194 9964 READING 1637 0.996123
1412918281017 9964 READING 1637 0.996064
1412918281697 9963 READING 1372 0.975500
1412918282858 9964 READING 1637 0.996081
1412918284664 9964 READING 1637 0.995938
1412918285721 9963 READING 1380 0.974742
1412918286500 9964 READING 1637 0.995937
1412918287717 9964 FUNCTION lru lambda h: 0.975883 * (h ** 0.00296986)
1412918287717 9963 FUNCTION lru lambda h: 0.00113376 * (h ** 0.933766)
1412918287717 9964 RECOMMEND 2452
1412918287717 9963 RECOMMEND 2452
1412918288306 9964 READING 1637 0.996104
1412918289885 9963 READING 1381 0.968667
1412918290110 9964 READING 1637 0.995979
1412918291909 9964 READING 1637 0.996080
1412918293697 9964 READING 1637 0.996022
1412918293848 9963 READING 1381 0.965987
1412918295486 9964 READING 1637 0.996032
1412918297251 9964 READING 1637 0.995946
1412918297717 9964 FUNCTION lru lambda h: 0.975881 * (h ** 0.00297024)
1412918297717 9963 FUNCTION lru lambda h: 0.001 * (h ** 0.998734)
1412918297717 9964 RECOMMEND 2452
1412918297717 9963 RECOMMEND 2452
1412918299028 9964 READING 1637 0.996086
1412918300803 9964 READING 1637 0.996010
1412918302576 9964 READING 1637 0.995986
1412918304350 9964 READING 1637 0.996036
1412918306128 9964 READING 1637 0.996007
1412918307717 9964 FUNCTION lru lambda h: 0.975877 * (h ** 0.00297099)
1412918307717 9963 FUNCTION lru lambda h: 0.001 * (h ** 0.998734)
1412918307717 9964 RECOMMEND 2452
1412918307717 9963 RECOMMEND 2452
1412918307910 9964 READING 1637 0.996159
1412918309687 9964 READING 1637 0.995913
1412918311461 9964 READING 1637 0.995878
1412918313226 9964 READING 1637 0.995884
1412918315785 9964 READING 1637 0.997305
1412918316981 9963 READING 1384 0.859854
1412918317718 9964 FUNCTION lru lambda h: 0.975775 * (h ** 0.00298901)
1412918317718 9963 FUNCTION lru lambda h: 0.001 * (h ** 0.999)
1412918317718 9964 RECOMMEND 2452
1412918317718 9963 RECOMMEND 2452
1412918317957 9964 READING 1637 0.996743
1412918319726 9964 READING 1637 0.995996
1412918321492 9964 READING 1637 0.995983
1412918323260 9964 READING 1637 0.996321
1412918325030 9964 READING 1637 0.996261
1412918326803 9964 READING 1637 0.996282
1412918327718 9964 FUNCTION lru lambda h: 0.975833 * (h ** 0.00297865)
1412918327718 9963 FUNCTION lru lambda h: 0.001 * (h ** 0.999)
1412918327718 9964 RECOMMEND 2452
1412918327718 9963 RECOMMEND 2452
1412918328590 9964 READING 1637 0.996419
1412918330359 9964 READING 1637 0.996320
1412918331713 9963 READING 1488 0.981944
1412918332176 9964 READING 1637 0.995997
1412918333939 9964 READING 1637 0.995902
1412918335702 9964 READING 1638 0.996105
1412918337003 9963 READING 1526 0.981337
1412918337529 9964 READING 1638 0.995130
1412918337587 9963 READING 1535 0.829528
1412918337718 9964 FUNCTION lru lambda h: 0.976049 * (h ** 0.0029352)
1412918337718 9963 FUNCTION lru lambda h: 0.001 * (h ** 0.999)
1412918337718 9964 RECOMMEND 2452
1412918337718 9963 RECOMMEND 2452
1412918337966 9963 READING 1540 0.654291
1412918338340 9963 READING 1558 0.650810
1412918338700 9963 READING 1577 0.682507
1412918339064 9963 READING 1608 0.715892
1412918339459 9963 READING 1620 0.671614
1412918339509 9964 READING 1637 0.996665
1412918340218 9963 READING 1655 0.871258
1412918341381 9964 READING 1637 0.996592
1412918343195 9964 READING 1637 0.996160
1412918344631 9963 READING 1661 0.968077
1412918345018 9964 READING 1637 0.996350
1412918346844 9964 READING 1637 0.996229
1412918347718 9964 FUNCTION lru lambda h: 0.976008 * (h ** 0.00294237)
1412918347718 9963 FUNCTION lru lambda h: 0.001 * (h ** 0.999)
1412918347718 9964 RECOMMEND 2452
1412918347718 9963 RECOMMEND 2452
1412918348662 9964 READING 1637 0.996331
1412918349079 9963 READING 1665 0.973320
1412918350484 9964 READING 1637 0.996312
1412918352295 9964 READING 1637 0.996025
1412918353543 9963 READING 1677 0.972723
1412918354122 9964 READING 1637 0.996140
1412918355926 9964 READING 1637 0.995966
1412918357718 9964 FUNCTION lru lambda h: 0.976044 * (h ** 0.00293597)
1412918357718 9963 FUNCTION lru lambda h: 0.001 * (h ** 0.999)
1412918357719 9964 RECOMMEND 2452
1412918357719 9963 RECOMMEND 2452
1412918357740 9964 READING 1637 0.996352
1412918358401 9963 READING 1671 0.969596
1412918359568 9964 READING 1637 0.996119
1412918361391 9964 READING 1637 0.996141
1412918363145 9963 READING 1684 0.969008
1412918363208 9964 READING 1637 0.996273
1412918365025 9964 READING 1637 0.996046
1412918366833 9964 READING 1637 0.996411
1412918367719 9964 FUNCTION lru lambda h: 0.97601 * (h ** 0.00294206)
1412918367719 9963 FUNCTION lru lambda h: 0.001 * (h ** 0.999)
1412918367719 9964 RECOMMEND 2452
1412918367719 9963 RECOMMEND 2452
1412918368143 9963 READING 1672 0.973894
1412918368667 9964 READING 1637 0.995893
1412918370500 9964 READING 1637 0.996052
1412918372326 9964 READING 1637 0.996215
1412918373302 9963 READING 1685 0.968827
1412918374154 9964 READING 1637 0.996094
1412918375956 9964 READING 1637 0.996159
1412918377719 9964 FUNCTION lru lambda h: 0.976031 * (h ** 0.00293824)
1412918377719 9963 FUNCTION lru lambda h: 0.001 * (h ** 0.999)
1412918377719 9964 RECOMMEND 2452
1412918377719 9963 RECOMMEND 2452
1412918377772 9964 READING 1637 0.996025
1412918378512 9963 READING 1693 0.979644
1412918379625 9964 READING 1637 0.995921
1412918381418 9964 READING 1637 0.996165
1412918383233 9964 READING 1637 0.994734
1412918384031 9963 READING 1695 0.975553
1412918385067 9964 READING 1637 0.995968
1412918386905 9964 READING 1637 0.996302
1412918387719 9964 FUNCTION lru lambda h: 0.976055 * (h ** 0.00293411)
1412918387719 9963 FUNCTION lru lambda h: 0.001 * (h ** 0.999)
1412918387719 9964 RECOMMEND 2452
1412918387719 9963 RECOMMEND 2452
1412918388765 9964 READING 1637 0.996337
1412918389655 9963 READING 1696 0.979728
1412918390858 9964 READING 1637 0.996850
1412918392792 9964 READING 1637 0.996387
1412918394626 9964 READING 1637 0.996122
1412918395092 9963 READING 1702 0.971981
1412918396469 9964 READING 1637 0.996216
1412918397719 9964 FUNCTION lru lambda h: 0.976013 * (h ** 0.00294149)
1412918397719 9963 FUNCTION lru lambda h: 0.001 * (h ** 0.999)
1412918397719 9964 RECOMMEND 2452
1412918397719 9963 RECOMMEND 2452
1412918398297 9964 READING 1637 0.995899
1412918400085 9964 READING 1637 0.996113
1412918401053 9963 READING 1690 0.976059
1412918401950 9964 READING 1637 0.996553
1412918403774 9964 READING 1637 0.995975
1412918405608 9964 READING 1637 0.996143
1412918406788 9963 READING 1699 0.973648
1412918407464 9964 READING 1637 0.996140
1412918407719 9964 FUNCTION lru lambda h: 0.976031 * (h ** 0.00293838)
1412918407720 9963 FUNCTION lru lambda h: 0.001 * (h ** 0.999)
1412918407720 9964 RECOMMEND 2452
1412918407720 9963 RECOMMEND 2452
1412918409273 9964 READING 1637 0.996282
1412918410652 9964 DEATH 345
1412918412774 9963 READING 1699 0.983075
1412918417720 9963 FUNCTION lru lambda h: 0.001 * (h ** 0.999)
1412918417720 9963 RECOMMEND 4904
1412918418862 9963 READING 1701 0.982239
1412918425270 9963 READING 1709 0.982463
1412918427720 9963 FUNCTION lru lambda h: 0.001 * (h ** 0.999)
1412918427720 9963 RECOMMEND 4904
1412918431373 9963 READING 1714 0.980955
1412918437720 9963 FUNCTION lru lambda h: 0.001 * (h ** 0.999)
1412918437720 9963 RECOMMEND 4904
1412918437926 9963 READING 1723 0.982358
1412918444936 9963 READING 1728 0.846477
1412918447720 9963 FUNCTION lru lambda h: 0.00105664 * (h ** 0.933201)
1412918447720 9963 RECOMMEND 4904
1412918451338 9963 READING 1704 0.996491
1412918457673 9963 READING 1708 0.995108
1412918457721 9963 FUNCTION lru lambda h: 0.00227448 * (h ** 0.826549)
1412918457721 9963 RECOMMEND 4904
1412918463835 9963 READING 1724 0.993405
1412918467721 9963 FUNCTION lru lambda h: 0.0269252 * (h ** 0.482837)
1412918467721 9963 RECOMMEND 4904
1412918470539 9963 READING 1730 0.992848
1412918477025 9963 READING 1729 0.991536
1412918477721 9963 FUNCTION lru lambda h: 0.0542293 * (h ** 0.386416)
1412918477721 9963 RECOMMEND 4904
1412918483892 9963 READING 1555 0.990908
1412918487721 9963 FUNCTION lru lambda h: 0.082056 * (h ** 0.329529)
1412918487721 9963 RECOMMEND 4904
1412918490700 9963 READING 1713 0.989538
1412918497721 9963 FUNCTION lru lambda h: 0.0971056 * (h ** 0.306588)
1412918497721 9963 RECOMMEND 4904
1412918507721 9963 FUNCTION lru lambda h: 0.0971056 * (h ** 0.306588)
1412918507722 9963 RECOMMEND 4904
1412918508831 9963 READING 1587 0.991861
1412918517722 9963 FUNCTION lru lambda h: 0.0927886 * (h ** 0.312965)
1412918517722 9963 RECOMMEND 4904
1412918527384 9963 READING 1694 0.995299
1412918527722 9963 FUNCTION lru lambda h: 0.144196 * (h ** 0.252841)
1412918527722 9963 RECOMMEND 4904
1412918528260 9963 READING 1716 0.887479
1412918528697 9963 READING 1696 0.806537
1412918529152 9963 READING 1729 0.785904
1412918529608 9963 READING 1763 0.813147
1412918530062 9963 READING 1783 0.851557
1412918530076 9963 DEATH 202
