F S UID        PID  PPID  C PRI  NI ADDR SZ WCHAN    RSS PSR STIME TTY          TIME CMD
4 S root         1     0  0  80   0 -  8480 poll_s  3196   0 Aug09 ?        00:00:00 /sbin/init
1 S root         2     0  0  80   0 -     0 kthrea     0   3 Aug09 ?        00:00:00 [kthreadd]
1 S root         3     2  0  80   0 -     0 smpboo     0   0 Aug09 ?        00:00:00 [ksoftirqd/0]
1 S root         5     2  0  60 -20 -     0 worker     0   0 Aug09 ?        00:00:00 [kworker/0:0H]
1 S root         7     2  0  80   0 -     0 rcu_gp     0   1 Aug09 ?        00:02:57 [rcu_sched]
1 S root         8     2  0  80   0 -     0 rcu_no     0   2 Aug09 ?        00:01:51 [rcuos/0]
1 S root         9     2  0  80   0 -     0 rcu_no     0   2 Aug09 ?        00:02:06 [rcuos/1]
1 S root        10     2  0  80   0 -     0 rcu_no     0   3 Aug09 ?        00:01:50 [rcuos/2]
1 S root        11     2  0  80   0 -     0 rcu_no     0   2 Aug09 ?        00:01:50 [rcuos/3]
1 S root        12     2  0  80   0 -     0 rcu_gp     0   0 Aug09 ?        00:00:00 [rcu_bh]
1 S root        13     2  0  80   0 -     0 rcu_no     0   0 Aug09 ?        00:00:00 [rcuob/0]
1 S root        14     2  0  80   0 -     0 rcu_no     0   0 Aug09 ?        00:00:00 [rcuob/1]
1 S root        15     2  0  80   0 -     0 rcu_no     0   0 Aug09 ?        00:00:00 [rcuob/2]
1 S root        16     2  0  80   0 -     0 rcu_no     0   0 Aug09 ?        00:00:00 [rcuob/3]
1 S root        17     2  0 -40   - -     0 smpboo     0   0 Aug09 ?        00:00:01 [migration/0]
5 S root        18     2  0 -40   - -     0 smpboo     0   0 Aug09 ?        00:00:00 [watchdog/0]
5 S root        19     2  0 -40   - -     0 smpboo     0   1 Aug09 ?        00:00:00 [watchdog/1]
1 S root        20     2  0 -40   - -     0 smpboo     0   1 Aug09 ?        00:00:01 [migration/1]
1 S root        21     2  0  80   0 -     0 smpboo     0   1 Aug09 ?        00:00:00 [ksoftirqd/1]
1 S root        23     2  0  60 -20 -     0 worker     0   1 Aug09 ?        00:00:00 [kworker/1:0H]
5 S root        24     2  0 -40   - -     0 smpboo     0   2 Aug09 ?        00:00:00 [watchdog/2]
1 S root        25     2  0 -40   - -     0 smpboo     0   2 Aug09 ?        00:00:01 [migration/2]
1 S root        26     2  0  80   0 -     0 smpboo     0   2 Aug09 ?        00:00:00 [ksoftirqd/2]
1 S root        27     2  0  80   0 -     0 worker     0   2 Aug09 ?        00:00:00 [kworker/2:0]
1 S root        28     2  0  60 -20 -     0 worker     0   2 Aug09 ?        00:00:00 [kworker/2:0H]
5 S root        29     2  0 -40   - -     0 smpboo     0   3 Aug09 ?        00:00:00 [watchdog/3]
1 S root        30     2  0 -40   - -     0 smpboo     0   3 Aug09 ?        00:00:01 [migration/3]
1 S root        31     2  0  80   0 -     0 smpboo     0   3 Aug09 ?        00:00:00 [ksoftirqd/3]
1 S root        32     2  0  80   0 -     0 worker     0   3 Aug09 ?        00:00:00 [kworker/3:0]
1 S root        33     2  0  60 -20 -     0 worker     0   3 Aug09 ?        00:00:00 [kworker/3:0H]
1 S root        34     2  0  60 -20 -     0 rescue     0   3 Aug09 ?        00:00:00 [khelper]
5 S root        35     2  0  80   0 -     0 devtmp     0   0 Aug09 ?        00:00:00 [kdevtmpfs]
1 S root        36     2  0  60 -20 -     0 rescue     0   3 Aug09 ?        00:00:00 [netns]
1 S root        37     2  0  60 -20 -     0 rescue     0   3 Aug09 ?        00:00:00 [writeback]
1 S root        38     2  0  60 -20 -     0 rescue     0   1 Aug09 ?        00:00:00 [kintegrityd]
1 S root        39     2  0  60 -20 -     0 rescue     0   1 Aug09 ?        00:00:00 [bioset]
1 S root        41     2  0  60 -20 -     0 rescue     0   2 Aug09 ?        00:00:00 [kblockd]
1 S root        42     2  0  60 -20 -     0 rescue     0   2 Aug09 ?        00:00:00 [ata_sff]
1 S root        43     2  0  80   0 -     0 hub_th     0   2 Aug09 ?        00:00:00 [khubd]
1 S root        44     2  0  60 -20 -     0 rescue     0   2 Aug09 ?        00:00:00 [md]
1 S root        45     2  0  60 -20 -     0 rescue     0   3 Aug09 ?        00:00:00 [devfreq_wq]
1 S root        46     2  0  80   0 -     0 worker     0   0 Aug09 ?        00:14:19 [kworker/0:1]
1 S root        48     2  0  80   0 -     0 watchd     0   0 Aug09 ?        00:00:00 [khungtaskd]
1 S root        49     2  0  80   0 -     0 kswapd     0   3 Aug09 ?        00:00:00 [kswapd0]
1 S root        50     2  0  85   5 -     0 ksm_sc     0   3 Aug09 ?        00:00:00 [ksmd]
1 S root        51     2  0  99  19 -     0 khugep     0   2 Aug09 ?        00:00:10 [khugepaged]
1 S root        52     2  0  80   0 -     0 fsnoti     0   3 Aug09 ?        00:00:00 [fsnotify_mark]
1 S root        53     2  0  80   0 -     0 ecrypt     0   3 Aug09 ?        00:00:00 [ecryptfs-kthrea]
1 S root        54     2  0  60 -20 -     0 rescue     0   3 Aug09 ?        00:00:00 [crypto]
1 S root        66     2  0  60 -20 -     0 rescue     0   3 Aug09 ?        00:00:00 [kthrotld]
1 S root        68     2  0  80   0 -     0 worker     0   1 Aug09 ?        00:00:00 [kworker/1:1]
1 S root        87     2  0  60 -20 -     0 rescue     0   1 Aug09 ?        00:00:00 [deferwq]
1 S root        88     2  0  60 -20 -     0 rescue     0   1 Aug09 ?        00:00:00 [charger_manager]
1 S root        94     2  0  80   0 -     0 worker     0   3 Aug09 ?        00:14:27 [kworker/3:1]
1 S root       136     2  0  60 -20 -     0 rescue     0   2 Aug09 ?        00:00:00 [kpsmoused]
1 S root       137     2  0  80   0 -     0 worker     0   0 Aug09 ?        00:00:00 [kworker/0:2]
1 S root       138     2  0  80   0 -     0 scsi_e     0   0 Aug09 ?        00:00:00 [scsi_eh_0]
1 S root       139     2  0  80   0 -     0 scsi_e     0   1 Aug09 ?        00:00:00 [scsi_eh_1]
1 S root       140     2  0  80   0 -     0 scsi_e     0   3 Aug09 ?        00:00:00 [scsi_eh_2]
1 S root       141     2  0  80   0 -     0 scsi_e     0   3 Aug09 ?        00:00:00 [scsi_eh_3]
1 S root       142     2  0  80   0 -     0 scsi_e     0   2 Aug09 ?        00:00:00 [scsi_eh_4]
1 S root       143     2  0  80   0 -     0 scsi_e     0   3 Aug09 ?        00:00:00 [scsi_eh_5]
1 S root       158     2  0  60 -20 -     0 rescue     0   0 Aug09 ?        00:00:00 [ttm_swap]
1 S root       174     2  0  80   0 -     0 worker     0   1 Aug09 ?        00:14:19 [kworker/1:2]
1 S root       175     2  0  80   0 -     0 worker     0   2 Aug09 ?        00:14:18 [kworker/2:1]
1 S root       191     2  0  60 -20 -     0 rescue     0   0 Aug09 ?        00:00:00 [kdmflush]
1 S root       192     2  0  60 -20 -     0 rescue     0   0 Aug09 ?        00:00:00 [bioset]
1 S root       194     2  0  60 -20 -     0 rescue     0   0 Aug09 ?        00:00:00 [kdmflush]
1 S root       195     2  0  60 -20 -     0 rescue     0   1 Aug09 ?        00:00:00 [bioset]
1 S root       286     2  0  80   0 -     0 kjourn     0   3 Aug09 ?        00:00:01 [jbd2/dm-0-8]
1 S root       287     2  0  60 -20 -     0 rescue     0   3 Aug09 ?        00:00:00 [ext4-rsv-conver]
1 S root       455     1  0  80   0 -  4869 poll_s   648   0 Aug09 ?        00:00:00 upstart-udev-bridge --daemon
5 S root       460     1  0  80   0 - 13003 ep_pol  2248   2 Aug09 ?        00:00:00 /lib/systemd/systemd-udevd --daemon
1 S root       523     2  0   9   - -     0 irq_th     0   0 Aug09 ?        00:00:00 [irq/46-mei_me]
1 S root       569     2  0  60 -20 -     0 rescue     0   2 Aug09 ?        00:00:00 [kvm-irqfd-clean]
1 S root       593     2  0  60 -20 -     0 rescue     0   1 Aug09 ?        00:00:00 [hd-audio0]
1 S root       598     2  0  60 -20 -     0 rescue     0   1 Aug09 ?        00:00:00 [kmpathd]
1 S root       599     2  0  60 -20 -     0 rescue     0   2 Aug09 ?        00:00:00 [kmpath_handlerd]
1 S root       658     1  0  80   0 -  3815 poll_s   680   0 Aug09 ?        00:00:00 upstart-socket-bridge --daemon
1 S root       775     2  0  60 -20 -     0 rescue     0   3 Aug09 ?        00:00:00 [ext4-rsv-conver]
4 S root       864     1  0  80   0 - 68176 poll_s  7840   0 Aug09 ?        00:00:01 smbd -F
1 S root       895     2  0  80   0 -     0 kaudit     0   3 Aug09 ?        00:00:00 [kauditd]
1 S root       901     1  0  80   0 -  3819 poll_s   636   0 Aug09 ?        00:00:00 upstart-file-bridge --daemon
5 S message+  1017     1  0  80   0 -  9893 ep_pol  1680   1 Aug09 ?        00:00:00 dbus-daemon --system --fork
5 S syslog    1019     1  0  80   0 - 63961 poll_s  1588   1 Aug09 ?        00:00:00 rsyslogd
4 S root      1041     1  0  80   0 - 82566 poll_s  4928   3 Aug09 ?        00:00:00 /usr/sbin/ModemManager
5 S avahi     1055     1  0  80   0 -  8319 poll_s  2528   0 Aug09 ?        00:01:39 avahi-daemon: running [Sulabesi.local]
1 S avahi     1057  1055  0  80   0 -  8056 unix_s   472   1 Aug09 ?        00:00:00 avahi-daemon: chroot helper
5 S root      1062     1  0  80   0 -  4823 poll_s  1460   2 Aug09 ?        00:00:00 /usr/sbin/bluetoothd
4 S root      1077     1  0  80   0 - 10863 ep_pol  1844   0 Aug09 ?        00:00:00 /lib/systemd/systemd-logind
5 S root      1081     2  0  70 -10 -     0 rfcomm     0   3 Aug09 ?        00:00:00 [krfcommd]
5 S root      1089     1  0  80   0 - 88099 poll_s  6724   0 Aug09 ?        00:00:01 NetworkManager
4 S root      1112     1  0  80   0 - 73631 poll_s  4200   2 Aug09 ?        00:00:00 /usr/lib/policykit-1/polkitd --no-debug
1 S root      1123     2  0  60 -20 -     0 worker     0   1 05:14 ?        00:00:00 [kworker/u9:2]
5 S root      1124   864  0  80   0 - 68176 poll_s  3904   2 Aug09 ?        00:00:00 smbd -F
4 S root      1381     1  0  80   0 -  3955 n_tty_   956   2 Aug09 tty4     00:00:00 /sbin/getty -8 38400 tty4
4 S root      1383     1  0  80   0 -  3955 n_tty_   952   2 Aug09 tty5     00:00:00 /sbin/getty -8 38400 tty5
4 S root      1390     1  0  80   0 -  3955 n_tty_   944   2 Aug09 tty2     00:00:00 /sbin/getty -8 38400 tty2
4 S root      1391     1  0  80   0 -  3955 n_tty_   948   2 Aug09 tty3     00:00:00 /sbin/getty -8 38400 tty3
4 S root      1394     1  0  80   0 -  3955 n_tty_   952   2 Aug09 tty6     00:00:00 /sbin/getty -8 38400 tty6
4 S root      1416     1  0  80   0 - 15341 poll_s  3040   2 Aug09 ?        00:00:00 /usr/sbin/sshd -D
1 S root      1463     1  0  80   0 -  5914 hrtime  1032   0 Aug09 ?        00:00:00 cron
4 S root      1465     1  0  80   0 - 18338 poll_s  3560   2 Aug09 ?        00:00:00 /usr/sbin/cups-browsed
4 S root      1469     1  0  80   0 - 33230 poll_s  4104   2 Aug09 ?        00:00:00 mdm
5 S root      1472     1  0  80   0 -  4797 hrtime   756   2 Aug09 ?        00:00:03 /usr/sbin/irqbalance
1 S root      1477     1  0  80   0 -  1092 poll_s   692   2 Aug09 ?        00:00:00 acpid -c /etc/acpi/events -s /var/run/acpid.socket
1 S dictd     1590     1  0  80   0 - 13072 inet_c  8880   1 Aug09 ?        00:00:00 dictd 1.12.1: 0/0
1 S kernoops  1608     1  0  80   0 -  9286 poll_s  1012   1 Aug09 ?        00:00:00 /usr/sbin/kerneloops
1 S root      1629     2  0  60 -20 -     0 rescue     0   2 Aug09 ?        00:00:00 [iprt]
5 S root      1684  1469  0  80   0 - 48315 pipe_w  4556   1 Aug09 ?        00:00:00 mdm
4 S root      1695  1684 20  80   0 - 54592 poll_s 31912   3 Aug09 tty8     05:03:55 /usr/bin/X :0 -audit 0 -auth /var/lib/mdm/:0.Xauth -nolisten tcp vt8
4 S root      1712     1  0  80   0 -  3955 n_tty_   952   3 Aug09 tty1     00:00:00 /sbin/getty -8 38400 tty1
4 S mdm       1727  1684 13  80   0 - 644217 poll_s 145556 2 Aug09 ?        03:16:04 /usr/lib/mdm/mdmwebkit
4 S root      1729  1089  0  80   0 -  2558 poll_s  3684   3 Aug09 ?        00:00:02 /sbin/dhclient -d -sf /usr/lib/NetworkManager/nm-dhcp-client.action -pf /run/sendsigs.omit.d/network-manager.dhclient-eth0.pid -lf /var/lib/NetworkManager/dhclient-f24521d9-586a-43e7-8ce6-19b826eefccf-eth0.lease -cf /var/lib/NetworkManager/dhclient-eth0.conf eth0
4 S nobody    1738  1089  0  80   0 -  7758 poll_s  1536   0 Aug09 ?        00:00:00 /usr/sbin/dnsmasq --no-resolv --keep-in-foreground --no-hosts --bind-interfaces --pid-file=/run/sendsigs.omit.d/network-manager.dnsmasq.pid --listen-address=127.0.1.1 --conf-file=/var/run/NetworkManager/dnsmasq.conf --cache-size=0 --proxy-dnssec --enable-dbus=org.freedesktop.NetworkManager.dnsmasq --conf-dir=/etc/NetworkManager/dnsmasq.d
5 S root      1884     1  0  80   0 - 47862 poll_s  2776   1 Aug09 ?        00:00:00 nmbd -D
1 S mdm       1915     1  0  80   0 -  6143 poll_s   588   0 Aug09 ?        00:00:00 dbus-launch --autolaunch=c5eecb21099843cdb66b8a3e53a16a25 --binary-syntax --close-stderr
1 S mdm       1919     1  0  80   0 -  9779 ep_pol  1008   0 Aug09 ?        00:00:00 //bin/dbus-daemon --fork --print-pid 5 --print-address 7 --session
4 S root      1992     1  0  80   0 - 18998 ep_pol  5016   1 Aug09 ?        00:00:00 /usr/sbin/cupsd -f
4 S colord    1996     1  0  80   0 - 77749 poll_s  8324   3 Aug09 ?        00:00:00 /usr/lib/colord/colord
4 S root      2012     1  0  80   0 - 525106 poll_s 4016   1 Aug09 ?        00:00:00 /usr/sbin/console-kit-daemon --no-daemon
1 S callum    2263     1  0  80   0 -  6800 poll_s  1572   2 Aug09 ?        00:00:00 SCREEN
0 S callum    2264  2263  0  80   0 - 11754 sigsus  6804   3 Aug09 pts/3    00:00:00 /bin/zsh
0 S callum    2405  2264  0  80   0 - 49525 futex_ 15092   1 Aug09 pts/3    00:00:06 ./cgroup_overhead_calculator ../../data/iterations_5m.csv 200
1 S root     11661     2  0  80   0 -     0 worker     0   3 07:27 ?        00:00:00 [kworker/u8:0]
1 S root     22467     2  0  60 -20 -     0 worker     0   0 Aug09 ?        00:00:00 [kworker/u9:0]
1 S root     25528     2  0  80   0 -     0 worker     0   1 10:17 ?        00:00:00 [kworker/u8:1]
0 R callum   25959  2405  0  80   0 -  4615 -       1304   0 10:22 pts/3    00:00:00 ps -elFww
