1412931422248 0 TOTAL_MEM 6130
1412931442289 13213 CREATION
1412931442289 13213 READING 9 0.989139
1412931442289 13213 MINHEAP 2
1412931442289 13213 MINHEAP 3
1412931442302 13212 CREATION
1412931442302 13212 READING 9 0.993119
1412931442302 13212 MINHEAP 2
1412931442302 13212 MINHEAP 1223
1412931442331 13213 READING 9 0.969783
1412931442347 13212 READING 9 0.972978
1412931442375 13212 READING 9 0.956344
1412931442379 13213 READING 11 0.977581
1412931442399 13212 READING 9 0.942240
1412931442445 13213 READING 11 0.972211
1412931442492 13212 READING 11 0.982571
1412931442642 13212 READING 11 0.986005
1412931442721 13212 READING 17 0.915897
1412931442728 13213 READING 15 0.928462
1412931442858 13212 READING 17 0.511842
1412931442903 13213 READING 17 0.990893
1412931443059 13213 READING 21 0.988233
1412931443066 13212 READING 30 0.958364
1412931443155 13212 READING 31 0.816653
1412931443258 13213 READING 25 0.992903
1412931443370 13213 READING 28 0.988291
1412931443396 13212 READING 35 0.382509
1412931443501 13213 READING 28 0.991645
1412931443530 13212 READING 48 0.934279
1412931443654 13213 READING 31 0.989075
1412931443721 13212 READING 49 0.889122
1412931443794 13213 READING 31 0.990506
1412931443917 13213 READING 34 0.987254
1412931444067 13213 READING 34 0.989295
1412931444124 13212 READING 52 0.193253
1412931444195 13213 READING 39 0.985709
1412931444249 13212 READING 76 0.870585
1412931444329 13213 READING 39 0.986164
1412931444475 13213 READING 43 0.990592
1412931444553 13212 READING 77 0.230863
1412931444615 13213 READING 43 0.986836
1412931444666 13212 READING 103 0.775481
1412931444760 13212 READING 103 0.663425
1412931444792 13213 READING 47 0.989537
1412931444863 13212 READING 105 0.664125
1412931444948 13212 READING 108 0.726304
1412931444956 13213 READING 47 0.991713
1412931445079 13213 READING 52 0.984453
1412931445226 13213 READING 52 0.987371
1412931445363 13213 READING 57 0.993432
1412931445507 13212 READING 111 0.268242
1412931445518 13213 READING 57 0.992442
1412931445652 13213 READING 61 0.990177
1412931445653 13212 READING 143 0.537854
1412931445743 13213 READING 61 0.988646
1412931445813 13212 READING 147 0.833640
1412931445881 13213 READING 65 0.990498
1412931445925 13212 READING 150 0.696029
1412931445990 13213 READING 65 0.990600
1412931446101 13213 READING 70 0.924501
1412931446133 13212 READING 159 0.778170
1412931446218 13213 READING 70 0.991096
1412931446284 13212 READING 161 0.710870
1412931446367 13213 READING 78 0.993590
1412931446609 13213 READING 78 0.994144
1412931446832 13212 READING 163 0.163288
1412931446852 13213 READING 85 0.996203
1412931446951 13212 READING 207 0.600593
1412931446961 13213 READING 86 0.991393
1412931447073 13212 READING 210 0.662713
1412931447121 13213 READING 92 0.993630
1412931447184 13212 READING 215 0.644008
1412931447305 13212 READING 218 0.647282
1412931447318 13213 READING 92 0.993326
1412931447420 13212 READING 226 0.589337
1412931447487 13213 READING 97 0.993759
1412931447545 13212 READING 230 0.671554
1412931447659 13213 READING 97 0.989038
1412931447685 13212 READING 240 0.472735
1412931447835 13213 READING 103 0.991819
1412931448056 13213 READING 103 0.992907
1412931448307 13213 READING 109 0.996341
1412931448343 13212 READING 247 0.082751
1412931448477 13213 READING 109 0.992541
1412931448523 13212 READING 291 0.542022
1412931448642 13212 READING 286 0.586115
1412931448649 13213 READING 114 0.994487
1412931448790 13213 READING 114 0.991536
1412931448994 13213 READING 119 0.992915
1412931449175 13213 READING 119 0.991641
1412931449216 13212 READING 291 0.105740
1412931449331 13213 READING 124 0.990386
1412931449373 13212 READING 327 0.590126
1412931449493 13212 READING 332 0.647214
1412931449522 13213 READING 124 0.994060
1412931449618 13212 READING 327 0.650643
1412931449677 13213 READING 129 0.990993
1412931449781 13212 READING 330 0.703724
1412931449832 13213 READING 129 0.991647
1412931449916 13212 READING 331 0.604563
1412931449985 13213 READING 135 0.993182
1412931450101 13212 READING 335 0.452268
1412931450156 13213 READING 135 0.991747
1412931450237 13212 READING 337 0.526541
1412931450326 13213 READING 141 0.993557
1412931450373 13212 READING 346 0.533205
1412931450497 13212 READING 350 0.482869
1412931450522 13213 READING 141 0.992220
1412931450625 13212 READING 357 0.501454
1412931450708 13213 READING 147 0.993406
1412931450975 13213 READING 147 0.995042
1412931451235 13213 READING 153 0.994985
1412931451410 13212 READING 364 0.080434
1412931451419 13213 READING 154 0.992354
1412931451569 13212 READING 414 0.394347
1412931451614 13213 READING 159 0.994453
1412931451701 13212 READING 410 0.574629
1412931451859 13213 READING 159 0.994283
1412931452135 13213 READING 164 0.994427
1412931452248 13213 FUNCTION lru lambda h: 0.957354 * (h ** 0.00763254)
1412931452249 13212 FUNCTION lru lambda h: 1.26571 * (h ** 0.001)
1412931452249 13213 RECOMMEND 3065
1412931452249 13212 RECOMMEND 3065
1412931452423 13213 READING 164 0.995072
1412931452577 13212 READING 363 0.087818
1412931452637 13213 READING 169 0.994878
1412931452797 13212 READING 460 0.374479
1412931452864 13213 READING 170 0.993184
1412931452952 13212 READING 464 0.542107
1412931453064 13213 READING 175 0.994245
1412931453097 13212 READING 460 0.588300
1412931453257 13212 READING 464 0.590906
1412931453270 13213 READING 175 0.992399
1412931453453 13212 READING 465 0.501797
1412931453529 13213 READING 181 0.995650
1412931453635 13212 READING 466 0.503438
1412931453748 13213 READING 181 0.991648
1412931453822 13212 READING 471 0.552218
1412931453960 13213 READING 187 0.993608
1412931454029 13212 READING 474 0.497538
1412931454240 13213 READING 187 0.992951
1412931454563 13213 READING 194 0.996071
1412931454834 13213 READING 194 0.992525
1412931455158 13212 READING 478 0.089112
1412931455188 13213 READING 201 0.994592
1412931455454 13213 READING 201 0.994034
1412931455476 13212 READING 539 0.405261
1412931455637 13212 READING 551 0.593553
1412931455720 13213 READING 208 0.994947
1412931455828 13212 READING 552 0.565313
1412931455987 13213 READING 209 0.992641
1412931456049 13212 READING 558 0.505248
1412931456240 13213 READING 215 0.990417
1412931456571 13213 READING 215 0.994271
1412931456899 13213 READING 223 0.994006
1412931457176 13212 READING 564 0.097575
1412931457228 13213 READING 223 0.995112
1412931457482 13212 READING 629 0.352677
1412931457495 13213 READING 231 0.994439
1412931457707 13212 READING 635 0.475876
1412931457768 13213 READING 231 0.993491
1412931457953 13212 READING 636 0.446988
1412931458067 13213 READING 239 0.992413
1412931458169 13212 READING 640 0.466304
1412931458393 13213 READING 239 0.994892
1412931458735 13213 READING 247 0.995704
1412931459038 13213 READING 248 0.994815
1412931459443 13213 READING 255 0.996053
1412931460186 13213 READING 256 0.997027
1412931460749 13213 READING 264 0.996489
1412931460803 13212 READING 647 0.289763
1412931461038 13213 READING 264 0.992992
1412931461327 13213 READING 270 0.992084
1412931461561 13212 READING 720 0.724216
1412931461668 13213 READING 271 0.994236
1412931462039 13213 READING 280 0.994632
1412931462249 13213 FUNCTION lru lambda h: 0.962045 * (h ** 0.00629334)
1412931462249 13212 FUNCTION lru lambda h: 1.32456 * (h ** 0.001)
1412931462249 13213 RECOMMEND 3065
1412931462249 13212 RECOMMEND 3065
1412931462303 13212 READING 720 0.885757
1412931462512 13213 READING 280 0.991776
1412931462537 13212 READING 730 0.545898
1412931462781 13212 READING 737 0.468617
1412931462844 13213 READING 290 0.988031
1412931462941 13212 READING 747 0.269725
1412931463113 13212 READING 755 0.244606
1412931463248 13212 READING 762 0.303444
1412931463282 13213 READING 290 0.994922
1412931463798 13213 READING 302 0.986806
1412931464216 13213 READING 302 0.994596
1412931464620 13213 READING 315 0.993027
1412931464743 13212 READING 755 0.031421
1412931465001 13213 READING 316 0.993917
1412931465311 13212 READING 842 0.694748
1412931465393 13213 READING 329 0.994760
1412931465524 13212 READING 841 0.663628
1412931465770 13213 READING 329 0.993161
1412931466243 13213 READING 342 0.995495
1412931466710 13213 READING 342 0.994781
1412931467101 13212 READING 842 0.046084
1412931467210 13213 READING 354 0.994487
1412931467315 13212 READING 938 0.369531
1412931467461 13212 READING 939 0.908121
1412931467647 13212 READING 949 0.911083
1412931467649 13213 READING 354 0.995236
1412931467864 13212 READING 954 0.900125
1412931467976 13212 READING 955 0.786928
1412931468042 13213 READING 365 0.994911
1412931468226 13212 READING 957 0.913811
1412931468355 13212 READING 949 0.876261
1412931468437 13213 READING 366 0.995320
1412931468705 13212 READING 758 0.876030
1412931468841 13213 READING 378 0.995383
1412931468937 13212 READING 929 0.837763
1412931469098 13212 READING 804 0.708527
1412931469261 13212 READING 909 0.739508
1412931469263 13213 READING 378 0.994539
1412931469430 13212 READING 809 0.717433
1412931469604 13212 READING 896 0.747479
1412931469688 13213 READING 390 0.995104
1412931469781 13212 READING 814 0.732220
1412931469965 13212 READING 888 0.748910
1412931470110 13213 READING 390 0.993428
1412931470145 13212 READING 896 0.766028
1412931470336 13212 READING 882 0.774278
1412931470523 13212 READING 889 0.786298
1412931470553 13213 READING 402 0.995099
1412931470730 13212 READING 882 0.759525
1412931470987 13213 READING 402 0.994885
1412931471435 13213 READING 415 0.995937
1412931471857 13213 READING 395 0.995812
1412931472125 13212 READING 887 0.985482
1412931472249 13213 FUNCTION lru lambda h: 0.965494 * (h ** 0.00538767)
1412931472249 13212 FUNCTION lru lambda h: 0.703466 * (h ** 0.001)
1412931472249 13213 RECOMMEND 3065
1412931472249 13212 RECOMMEND 3065
1412931472315 13213 READING 375 0.994634
1412931472699 13213 READING 358 0.994395
1412931472777 13212 READING 884 0.898561
1412931472991 13212 READING 887 0.739623
1412931473080 13213 READING 341 0.994191
1412931473210 13212 READING 894 0.748846
1412931473433 13212 READING 896 0.731805
1412931473438 13213 READING 325 0.994084
1412931473668 13212 READING 905 0.733451
1412931473772 13213 READING 308 0.994687
1412931473889 13212 READING 905 0.777277
1412931474103 13213 READING 295 0.990789
1412931474133 13212 READING 914 0.759544
1412931474375 13212 READING 914 0.765931
1412931474440 13213 READING 306 0.994071
1412931474759 13212 READING 923 0.929199
1412931474816 13213 READING 317 0.993994
1412931475125 13212 READING 923 0.870161
1412931475245 13213 READING 327 0.995253
1412931475517 13212 READING 923 0.892343
1412931475601 13213 READING 313 0.994857
1412931475797 13212 READING 927 0.632194
1412931475948 13213 READING 298 0.993572
1412931476002 13212 READING 919 0.657223
1412931476300 13213 READING 284 0.993162
1412931476831 13213 READING 294 0.995095
1412931477902 13212 READING 934 0.066517
1412931478039 13213 READING 280 0.998566
1412931478169 13212 READING 1059 0.513611
1412931478361 13212 READING 1062 0.724276
1412931478391 13213 READING 267 0.995360
1412931478569 13212 READING 1062 0.714885
1412931478674 13213 READING 255 0.994471
1412931478786 13212 READING 1066 0.676515
1412931478937 13213 READING 242 0.994121
1412931479016 13212 READING 1074 0.699499
1412931479199 13213 READING 231 0.993724
1412931479241 13212 READING 1076 0.702961
1412931479459 13213 READING 221 0.993345
1412931479501 13212 READING 1092 0.675973
1412931479712 13213 READING 211 0.982819
1412931479750 13212 READING 1092 0.757988
1412931479999 13213 READING 221 0.992718
1412931480323 13213 READING 231 0.992732
1412931480745 13213 READING 241 0.995692
1412931481148 13213 READING 250 0.996144
1412931481495 13213 READING 239 0.993737
1412931481681 13212 READING 1107 0.964948
1412931481831 13213 READING 228 0.991847
1412931482086 13213 READING 217 0.991808
1412931482249 13213 FUNCTION lru lambda h: 0.966487 * (h ** 0.00510323)
1412931482249 13212 FUNCTION lru lambda h: 0.536368 * (h ** 0.001)
1412931482249 13213 RECOMMEND 3065
1412931482249 13212 RECOMMEND 3065
1412931482381 13213 READING 226 0.992807
1412931482640 13213 READING 235 0.993734
1412931482881 13213 READING 224 0.993867
1412931483125 13213 READING 213 0.993256
1412931483347 13213 READING 204 0.993244
1412931483591 13213 READING 194 0.991828
1412931483807 13213 READING 202 0.993345
1412931484013 13213 READING 193 0.993317
1412931484210 13213 READING 184 0.992716
1412931484396 13213 READING 176 0.993078
1412931484574 13213 READING 168 0.993277
1412931484682 13212 READING 1112 0.969756
1412931484780 13213 READING 160 0.994899
1412931484946 13213 READING 153 0.993755
1412931485101 13213 READING 147 0.991776
1412931485271 13213 READING 140 0.990410
1412931485424 13213 READING 146 0.990282
1412931485582 13213 READING 152 0.990951
1412931485752 13213 READING 159 0.989127
1412931485931 13213 READING 167 0.991309
1412931486120 13213 READING 174 0.991717
1412931486314 13213 READING 183 0.992217
1412931486515 13213 READING 191 0.991776
1412931486753 13213 READING 200 0.905240
1412931487111 13213 READING 210 0.995375
1412931487356 13213 READING 225 0.994166
1412931487549 13212 READING 1128 0.955218
1412931487617 13213 READING 239 0.994565
1412931487890 13213 READING 254 0.992488
1412931488180 13213 READING 270 0.993762
1412931488485 13213 READING 288 0.994501
1412931488813 13213 READING 304 0.994632
1412931489165 13213 READING 324 0.994453
1412931489541 13213 READING 342 0.994614
1412931489930 13213 READING 363 0.994391
1412931490341 13213 READING 376 0.995023
1412931490525 13212 READING 1130 0.963481
1412931490752 13213 READING 377 0.994200
1412931491185 13213 READING 398 0.994852
1412931491621 13213 READING 398 0.993422
1412931492082 13213 READING 421 0.995197
1412931492249 13213 FUNCTION lru lambda h: 0.975001 * (h ** 0.00329499)
1412931492249 13212 FUNCTION lru lambda h: 0.321061 * (h ** 0.0800743)
1412931492249 13213 RECOMMEND 3065
1412931492249 13212 RECOMMEND 3065
1412931492544 13213 READING 421 0.993965
1412931493025 13213 READING 444 0.994857
1412931493518 13213 READING 444 0.993164
1412931493551 13212 READING 1132 0.966584
1412931494043 13213 READING 469 0.995052
1412931494552 13213 READING 469 0.994555
1412931495093 13213 READING 497 0.995345
1412931495641 13213 READING 497 0.994829
1412931496232 13213 READING 524 0.994397
1412931496426 13212 READING 1137 0.961311
1412931496821 13213 READING 524 0.993834
1412931497427 13213 READING 553 0.994387
1412931498028 13213 READING 554 0.994066
1412931498672 13213 READING 585 0.994495
1412931499303 13213 READING 585 0.994561
1412931499665 13212 READING 1132 0.965294
1412931500004 13213 READING 618 0.994788
1412931500675 13213 READING 619 0.994935
1412931501393 13213 READING 653 0.994669
1412931502104 13213 READING 653 0.994733
1412931502250 13213 FUNCTION lru lambda h: 0.971116 * (h ** 0.00395596)
1412931502250 13212 FUNCTION lru lambda h: 0.256625 * (h ** 0.117401)
1412931502250 13213 RECOMMEND 3065
1412931502250 13212 RECOMMEND 3065
1412931502763 13212 READING 1138 0.957723
1412931502867 13213 READING 690 0.995173
1412931503619 13213 READING 690 0.995102
1412931504417 13213 READING 727 0.995014
1412931505206 13213 READING 728 0.995148
1412931506052 13212 READING 1143 0.958954
1412931506067 13213 READING 766 0.995772
1412931506943 13213 READING 767 0.995145
1412931507834 13213 READING 807 0.995175
1412931508739 13213 READING 807 0.994963
1412931509372 13212 READING 1144 0.966822
1412931509737 13213 READING 848 0.995580
1412931510672 13213 READING 849 0.995094
1412931511651 13213 READING 893 0.995223
1412931512250 13213 FUNCTION lru lambda h: 0.97168 * (h ** 0.003786)
1412931512250 13212 FUNCTION lru lambda h: 0.174097 * (h ** 0.180598)
1412931512250 13213 RECOMMEND 3065
1412931512250 13212 RECOMMEND 3065
1412931512530 13212 READING 1151 0.960712
1412931512672 13213 READING 893 0.995377
1412931513702 13213 READING 939 0.995314
1412931514735 13213 READING 939 0.995410
1412931515695 13212 READING 1153 0.963023
1412931515871 13213 READING 987 0.995409
1412931516964 13213 READING 987 0.995353
1412931518116 13213 READING 1037 0.995675
1412931518822 13212 READING 1159 0.961587
1412931519308 13213 READING 1037 0.995485
1412931520508 13213 READING 1089 0.995182
1412931521713 13213 READING 1089 0.995444
1412931522051 13212 READING 1163 0.968514
1412931522250 13213 FUNCTION lru lambda h: 0.972876 * (h ** 0.0035422)
1412931522250 13212 FUNCTION lru lambda h: 0.0989262 * (h ** 0.270322)
1412931522250 13213 RECOMMEND 3065
1412931522250 13212 RECOMMEND 3065
1412931523044 13213 READING 1144 0.995994
1412931524303 13213 READING 1144 0.995420
1412931525326 13212 READING 1169 0.962883
1412931525678 13213 READING 1201 0.995832
1412931526993 13213 READING 1201 0.995556
1412931528383 13213 READING 1260 0.995272
1412931528832 13212 READING 1174 0.964445
1412931529817 13213 READING 1260 0.995381
1412931531287 13213 READING 1322 0.995797
1412931532149 13212 READING 1179 0.953933
1412931532250 13213 FUNCTION lru lambda h: 0.974162 * (h ** 0.00328825)
1412931532250 13212 FUNCTION lru lambda h: 0.0689917 * (h ** 0.327017)
1412931532250 13213 RECOMMEND 3065
1412931532250 13212 RECOMMEND 3065
1412931532758 13213 READING 1323 0.995332
1412931534294 13213 READING 1388 0.995521
1412931535589 13212 READING 1185 0.955735
1412931535843 13213 READING 1388 0.995610
1412931537453 13213 READING 1457 0.996309
1412931539084 13212 READING 1191 0.977084
1412931540113 13213 READING 1457 0.997249
1412931541800 13213 READING 1521 0.996107
1412931542250 13213 FUNCTION lru lambda h: 0.975453 * (h ** 0.00305111)
1412931542250 13212 FUNCTION lru lambda h: 0.0404549 * (h ** 0.40843)
1412931542250 13213 RECOMMEND 3065
1412931542250 13212 RECOMMEND 3065
1412931542592 13212 READING 1195 0.961598
1412931543520 13213 READING 1525 0.995474
1412931545283 13213 READING 1591 0.995506
1412931546309 13212 READING 1201 0.957515
1412931547064 13213 READING 1591 0.995706
1412931548906 13213 READING 1666 0.995596
1412931549752 13212 READING 1203 0.955465
1412931550752 13213 READING 1666 0.995723
1412931552251 13213 FUNCTION lru lambda h: 0.976407 * (h ** 0.00286689)
1412931552251 13212 FUNCTION lru lambda h: 0.0257588 * (h ** 0.477504)
1412931552251 13213 RECOMMEND 3065
1412931552251 13212 RECOMMEND 3065
1412931552687 13213 READING 1745 0.995661
1412931553297 13212 READING 1209 0.955155
1412931554630 13213 READING 1745 0.995778
1412931556660 13213 READING 1829 0.994600
1412931558979 13212 READING 1210 0.569475
1412931559468 13213 READING 1829 0.996498
1412931561585 13213 READING 1915 0.995678
1412931562251 13213 FUNCTION lru lambda h: 0.977296 * (h ** 0.00269742)
1412931562251 13212 FUNCTION lru lambda h: 0.017174 * (h ** 0.537367)
1412931562251 13213 RECOMMEND 3065
1412931562251 13212 RECOMMEND 3065
1412931562540 13212 READING 1307 0.946599
1412931563729 13213 READING 1919 0.995658
1412931565948 13213 READING 2010 0.995847
1412931566229 13212 READING 1308 0.982394
1412931568182 13213 READING 2010 0.995898
1412931569828 13212 READING 1319 0.978758
1412931570446 13213 READING 2042 0.995422
1412931572251 13213 FUNCTION lru lambda h: 0.977986 * (h ** 0.00255996)
1412931572251 13212 FUNCTION lru lambda h: 0.00732163 * (h ** 0.664219)
1412931572251 13213 RECOMMEND 3065
1412931572251 13212 RECOMMEND 3065
1412931572739 13213 READING 2043 0.996057
1412931573577 13212 READING 1322 0.975137
1412931574999 13213 READING 2042 0.996174
1412931577232 13212 READING 1322 0.972110
1412931577239 13213 READING 2042 0.995584
1412931579483 13213 READING 2042 0.995897
1412931580940 13212 READING 1325 0.975871
1412931581779 13213 READING 2042 0.996078
1412931582251 13213 FUNCTION lru lambda h: 0.978038 * (h ** 0.00254754)
1412931582251 13212 FUNCTION lru lambda h: 0.00399877 * (h ** 0.753615)
1412931582251 13213 RECOMMEND 3065
1412931582251 13212 RECOMMEND 3065
1412931584048 13213 READING 2041 0.996190
1412931584600 13212 READING 1314 0.974003
1412931586322 13213 READING 2042 0.996085
1412931588448 13212 READING 1238 0.976181
1412931588605 13213 READING 2043 0.996127
1412931590840 13213 READING 2043 0.996090
1412931592251 13212 READING 1307 0.975167
1412931592251 13213 FUNCTION lru lambda h: 0.978108 * (h ** 0.00253178)
1412931592251 13212 FUNCTION lru lambda h: 0.00473397 * (h ** 0.729225)
1412931592251 13213 RECOMMEND 3065
1412931592251 13212 RECOMMEND 3065
1412931593129 13213 READING 2043 0.996183
1412931595371 13213 READING 2043 0.996125
1412931596172 13212 READING 1313 0.971751
1412931597678 13213 READING 2042 0.996225
1412931599944 13213 READING 2042 0.995460
1412931600036 13212 READING 1314 0.968174
1412931602252 13213 FUNCTION lru lambda h: 0.978131 * (h ** 0.00252749)
1412931602252 13212 FUNCTION lru lambda h: 0.00450604 * (h ** 0.73661)
1412931602252 13213 RECOMMEND 3065
1412931602252 13212 RECOMMEND 3065
1412931602258 13213 READING 2043 0.996237
1412931603847 13212 READING 1315 0.968014
1412931605378 13213 READING 2043 0.997204
1412931607628 13213 READING 2043 0.995894
1412931608080 13212 READING 1318 0.969832
1412931609943 13213 READING 2043 0.996131
1412931611904 13212 READING 1323 0.968553
1412931612252 13213 FUNCTION lru lambda h: 0.978121 * (h ** 0.00252942)
1412931612252 13212 FUNCTION lru lambda h: 0.00186355 * (h ** 0.865185)
1412931612252 13213 RECOMMEND 3065
1412931612252 13212 RECOMMEND 3065
1412931612268 13213 READING 2043 0.996230
1412931614549 13213 READING 2043 0.996188
1412931615881 13212 READING 1328 0.969103
1412931616864 13213 READING 2042 0.996270
1412931619136 13213 READING 2043 0.996091
1412931619892 13212 READING 1334 0.962717
1412931621445 13213 READING 2044 0.996178
1412931622252 13213 FUNCTION lru lambda h: 0.978163 * (h ** 0.00251841)
1412931622252 13212 FUNCTION lru lambda h: 0.00107919 * (h ** 0.944411)
1412931622252 13213 RECOMMEND 3065
1412931622252 13212 RECOMMEND 3065
1412931623699 13213 READING 2044 0.996083
1412931623877 13212 READING 1343 0.963463
1412931626005 13213 READING 2044 0.996207
1412931628224 13213 READING 2044 0.996190
1412931630438 13213 READING 2044 0.996022
1412931632252 13213 FUNCTION lru lambda h: 0.978173 * (h ** 0.00251667)
1412931632252 13212 FUNCTION lru lambda h: 0.001 * (h ** 0.990266)
1412931632252 13213 RECOMMEND 3065
1412931632252 13212 RECOMMEND 3065
1412931632656 13213 READING 2043 0.996127
1412931634880 13213 READING 2043 0.996056
1412931637096 13213 READING 2043 0.996150
1412931637988 13212 READING 1349 0.984403
1412931639366 13213 READING 2044 0.996370
1412931641598 13213 READING 2044 0.996120
1412931642252 13213 FUNCTION lru lambda h: 0.978166 * (h ** 0.00251786)
1412931642253 13212 FUNCTION lru lambda h: 0.001 * (h ** 0.999)
1412931642253 13213 RECOMMEND 3065
1412931642253 13212 RECOMMEND 3065
1412931643817 13213 READING 2044 0.996316
1412931646025 13213 READING 2044 0.996217
1412931648238 13213 READING 2044 0.996322
1412931650464 13213 READING 2044 0.996271
1412931652253 13213 FUNCTION lru lambda h: 0.978154 * (h ** 0.00252003)
1412931652253 13212 FUNCTION lru lambda h: 0.001 * (h ** 0.999)
1412931652253 13213 RECOMMEND 3065
1412931652253 13212 RECOMMEND 3065
1412931652695 13213 READING 2044 0.996391
1412931654401 13212 READING 1348 0.986651
1412931654953 13213 READING 2044 0.996245
1412931657159 13213 READING 2044 0.996166
1412931659364 13213 READING 2044 0.996054
1412931661574 13213 READING 2044 0.995960
1412931662018 13212 READING 1361 0.979593
1412931662253 13213 FUNCTION lru lambda h: 0.978182 * (h ** 0.00251499)
1412931662253 13212 FUNCTION lru lambda h: 0.001 * (h ** 0.999)
1412931662253 13213 RECOMMEND 3065
1412931662253 13212 RECOMMEND 3065
1412931662724 13212 READING 1365 0.796600
1412931664312 13212 READING 1392 0.222925
1412931664321 13213 READING 2044 0.996999
1412931664532 13212 READING 1478 0.979942
1412931664755 13212 READING 1523 0.968751
1412931664990 13212 READING 1545 0.964336
1412931665220 13212 READING 1550 0.990231
1412931665459 13212 READING 1554 0.990203
1412931665725 13212 READING 1560 0.974555
1412931666578 13213 READING 2044 0.996010
1412931668140 13212 READING 1546 0.990366
1412931668861 13213 READING 2044 0.996168
1412931671131 13213 READING 2044 0.996083
1412931671613 13212 READING 1261 0.991817
1412931672253 13213 FUNCTION lru lambda h: 0.97817 * (h ** 0.00251724)
1412931672253 13212 FUNCTION lru lambda h: 0.001 * (h ** 0.999)
1412931672253 13213 RECOMMEND 3065
1412931672253 13212 RECOMMEND 3065
1412931673401 13213 READING 2044 0.996110
1412931675321 13212 READING 1527 0.988760
1412931675686 13213 READING 2044 0.996079
1412931677970 13213 READING 2044 0.996135
1412931679033 13212 READING 1285 0.986960
1412931680255 13213 READING 2044 0.996067
1412931682253 13213 FUNCTION lru lambda h: 0.978177 * (h ** 0.00251595)
1412931682253 13212 FUNCTION lru lambda h: 0.001 * (h ** 0.999)
1412931682253 13213 RECOMMEND 3065
1412931682253 13212 RECOMMEND 3065
1412931682531 13213 READING 2044 0.996029
1412931682605 13212 READING 1500 0.982878
1412931684816 13213 READING 2044 0.996122
1412931686385 13212 READING 1308 0.981247
1412931687103 13213 READING 2044 0.996169
1412931689353 13213 READING 2044 0.996007
1412931690181 13212 READING 1474 0.977561
1412931691671 13213 READING 2044 0.996346
1412931692254 13213 FUNCTION lru lambda h: 0.978163 * (h ** 0.00251853)
1412931692254 13212 FUNCTION lru lambda h: 0.001 * (h ** 0.999)
1412931692254 13213 RECOMMEND 3065
1412931692254 13212 RECOMMEND 3065
1412931693943 13212 READING 1330 0.974873
1412931693944 13213 READING 2044 0.995879
1412931696206 13213 READING 2044 0.996105
1412931698055 13212 READING 1459 0.971175
1412931698467 13213 READING 2044 0.996211
1412931700819 13213 READING 2044 0.996318
1412931701885 13212 READING 1353 0.971205
1412931702254 13213 FUNCTION lru lambda h: 0.97816 * (h ** 0.00251904)
1412931702254 13212 FUNCTION lru lambda h: 0.001 * (h ** 0.999)
1412931702254 13213 RECOMMEND 3065
1412931702254 13212 RECOMMEND 3065
1412931703108 13213 READING 2044 0.996200
1412931705369 13213 READING 2044 0.996053
1412931705788 13212 READING 1461 0.963556
1412931707651 13213 READING 2044 0.996139
1412931709920 13213 READING 2044 0.995208
1412931709955 13212 READING 1465 0.966363
1412931712227 13213 READING 2044 0.996287
1412931712254 13213 FUNCTION lru lambda h: 0.978191 * (h ** 0.00251339)
1412931712254 13212 FUNCTION lru lambda h: 0.001 * (h ** 0.999)
1412931712254 13213 RECOMMEND 3065
1412931712254 13212 RECOMMEND 3065
1412931714180 13212 READING 1470 0.973469
1412931714512 13213 READING 2044 0.996181
1412931716775 13213 READING 2044 0.996044
1412931718278 13212 READING 1471 0.958723
1412931719039 13213 READING 2044 0.996157
1412931721310 13213 READING 2044 0.996059
1412931722254 13213 FUNCTION lru lambda h: 0.978178 * (h ** 0.00251576)
1412931722254 13212 FUNCTION lru lambda h: 0.00102975 * (h ** 0.946511)
1412931722254 13213 RECOMMEND 3065
1412931722254 13212 RECOMMEND 3065
1412931722363 13212 READING 1478 0.963655
1412931723598 13213 READING 2044 0.996298
1412931725860 13213 READING 2044 0.995987
1412931726793 13212 READING 1483 0.965703
1412931728158 13213 READING 2044 0.996407
1412931730767 13213 READING 2044 0.996700
1412931730999 13212 READING 1493 0.961043
1412931732254 13213 FUNCTION lru lambda h: 0.978129 * (h ** 0.00252454)
1412931732255 13212 FUNCTION lru lambda h: 0.001 * (h ** 0.986617)
1412931732255 13213 RECOMMEND 3065
1412931732255 13212 RECOMMEND 3065
1412931733065 13213 READING 2044 0.996437
1412931735176 13212 READING 1499 0.964545
1412931735408 13213 READING 2044 0.996497
1412931737671 13213 READING 2044 0.996148
1412931739561 13212 READING 1510 0.959518
1412931739939 13213 READING 2044 0.996144
1412931742205 13213 READING 2044 0.996139
1412931742255 13213 FUNCTION lru lambda h: 0.978166 * (h ** 0.00251799)
1412931742255 13212 FUNCTION lru lambda h: 0.00152105 * (h ** 0.891239)
1412931742255 13213 RECOMMEND 3065
1412931742255 13212 RECOMMEND 3065
1412931743348 13213 DEATH 320
1412931743805 13212 READING 1513 0.978255
1412931748383 13212 READING 1524 0.980118
1412931752255 13212 FUNCTION lru lambda h: 0.00830138 * (h ** 0.653746)
1412931752255 13212 RECOMMEND 6130
1412931753284 13212 READING 1525 0.980918
1412931758172 13212 READING 1534 0.980806
1412931762255 13212 FUNCTION lru lambda h: 0.0127808 * (h ** 0.593602)
1412931762255 13212 RECOMMEND 6130
1412931763078 13212 READING 1534 0.980253
1412931767927 13212 READING 1540 0.979197
1412931772255 13212 FUNCTION lru lambda h: 0.017777 * (h ** 0.547975)
1412931772255 13212 RECOMMEND 6130
1412931772984 13212 READING 1541 0.980197
1412931779149 13212 READING 1545 0.830805
1412931782255 13212 FUNCTION lru lambda h: 0.0169807 * (h ** 0.554064)
1412931782256 13212 RECOMMEND 6130
1412931784060 13212 READING 1588 0.996150
1412931788966 13212 READING 1584 0.994533
1412931792256 13212 FUNCTION lru lambda h: 0.0156742 * (h ** 0.565024)
1412931792256 13212 RECOMMEND 6130
1412931793894 13212 READING 1594 0.993303
1412931799112 13212 READING 1601 0.992403
1412931802256 13212 FUNCTION lru lambda h: 0.0135035 * (h ** 0.585439)
1412931802256 13212 RECOMMEND 6130
1412931804318 13212 READING 1602 0.990946
1412931809877 13212 READING 1588 0.990721
1412931812256 13212 FUNCTION lru lambda h: 0.010393 * (h ** 0.621786)
1412931812256 13212 RECOMMEND 6130
1412931815484 13212 READING 1446 0.989836
1412931819845 13212 READING 1570 0.985338
1412931822256 13212 FUNCTION lru lambda h: 0.00903583 * (h ** 0.641148)
1412931822256 13212 RECOMMEND 6130
1412931832257 13212 FUNCTION lru lambda h: 0.00903583 * (h ** 0.641148)
1412931832257 13212 RECOMMEND 6130
1412931842257 13212 FUNCTION lru lambda h: 0.00903583 * (h ** 0.641148)
1412931842257 13212 RECOMMEND 6130
1412931845090 13212 READING 1471 0.996937
1412931852037 13212 READING 1574 0.989219
1412931852257 13212 FUNCTION lru lambda h: 0.00885558 * (h ** 0.643916)
1412931852257 13212 RECOMMEND 6130
1412931852748 13212 READING 1575 0.861547
1412931853106 13212 READING 1555 0.788622
1412931853475 13212 READING 1597 0.769613
1412931853838 13212 READING 1626 0.792999
1412931854209 13212 READING 1643 0.771795
1412931854603 13212 READING 1680 0.838031
1412931854644 13212 DEATH 219
