1412266068386 0 TOTAL_MEM 2446
1412266088403 24380 CREATION
1412266088403 24380 READING 9 0.991080
1412266088403 24380 MINHEAP 2
1412266088403 24380 MINHEAP 12
1412266088436 24379 CREATION
1412266088436 24379 READING 9 0.992134
1412266088436 24379 MINHEAP 2
1412266088436 24379 MINHEAP 1211
1412266088500 24379 READING 9 0.988717
1412266088506 24380 READING 9 0.990874
1412266088526 24380 READING 9 0.985194
1412266088528 24379 READING 9 0.982449
1412266088552 24379 READING 9 0.968122
1412266088572 24380 READING 9 0.970155
1412266088647 24379 READING 11 0.980487
1412266088661 24380 READING 11 0.972083
1412266088743 24380 READING 11 0.978263
1412266088805 24379 READING 11 0.889296
1412266088906 24380 READING 16 0.979255
1412266088964 24379 READING 17 0.901403
1412266089094 24380 READING 16 0.981276
1412266089096 24379 READING 17 0.886068
1412266089252 24379 READING 30 0.777275
1412266089396 24379 READING 31 0.289110
1412266089568 24380 READING 24 0.985224
1412266089706 24379 READING 36 0.666713
1412266089819 24379 READING 47 0.419718
1412266089966 24380 READING 25 0.953984
1412266090051 24379 READING 50 0.585787
1412266090118 24379 READING 65 0.346873
1412266090296 24380 READING 40 0.898646
1412266090299 24379 READING 72 0.458488
1412266090407 24379 READING 88 0.292174
1412266090527 24380 READING 41 0.886722
1412266090534 24379 READING 96 0.385303
1412266090790 24380 READING 45 0.959697
1412266091052 24380 READING 46 0.974257
1412266091060 24379 READING 97 0.390719
1412266091205 24379 READING 132 0.389025
1412266091250 24380 READING 50 0.978654
1412266091560 24380 READING 51 0.982779
1412266091696 24379 READING 132 0.373685
1412266091809 24380 READING 58 0.978769
1412266091909 24379 READING 171 0.666524
1412266091987 24380 READING 58 0.978454
1412266092053 24379 READING 171 0.479069
1412266092186 24380 READING 64 0.974070
1412266092400 24380 READING 64 0.973302
1412266092508 24379 READING 173 0.481331
1412266092659 24379 READING 212 0.500856
1412266092809 24379 READING 220 0.532009
1412266092904 24380 READING 72 0.986388
1412266092969 24379 READING 221 0.124655
1412266093618 24379 READING 223 0.407191
1412266093797 24379 READING 273 0.089328
1412266093827 24380 READING 72 0.992454
1412266093961 24379 READING 279 0.716995
1412266094138 24379 READING 281 0.700515
1412266094532 24380 READING 79 0.988269
1412266094821 24379 READING 283 0.384825
1412266094988 24379 READING 341 0.685668
1412266095134 24379 READING 348 0.723887
1412266095160 24380 READING 80 0.990039
1412266095313 24379 READING 350 0.702530
1412266095466 24379 READING 353 0.729732
1412266095638 24379 READING 362 0.688286
1412266095784 24379 READING 366 0.647861
1412266095846 24380 READING 86 0.991491
1412266095941 24379 READING 380 0.634440
1412266096085 24379 READING 384 0.606167
1412266096232 24379 READING 396 0.582024
1412266096366 24379 READING 404 0.575019
1412266096573 24380 READING 87 0.951210
1412266097196 24379 READING 415 0.451007
1412266097217 24380 READING 93 0.955010
1412266097869 24379 READING 472 0.108076
1412266097869 24380 READING 93 0.972316
1412266098004 24379 READING 446 0.511768
1412266098116 24379 READING 524 0.592649
1412266098250 24379 READING 432 0.590359
1412266098387 24380 FUNCTION lru lambda h: 0.96074 * (h ** 0.00172748)
1412266098387 24379 FUNCTION lru lambda h: 0.783494 * (h ** 0.001)
1412266098388 24380 RECOMMEND 1235
1412266098388 24379 RECOMMEND 1211
1412266098401 24379 READING 513 0.593209
1412266098543 24379 READING 453 0.608750
1412266098639 24380 READING 97 0.978715
1412266098709 24379 READING 516 0.598582
1412266098885 24379 READING 518 0.560192
1412266099069 24379 READING 520 0.557882
1412266099251 24379 READING 524 0.530830
1412266099410 24380 READING 98 0.977189
1412266099461 24379 READING 529 0.468549
1412266100113 24380 READING 103 0.976846
1412266100488 24379 READING 533 0.362811
1412266100689 24379 READING 593 0.476841
1412266100810 24380 READING 103 0.970747
1412266100842 24379 READING 600 0.513879
1412266101029 24379 READING 602 0.530979
1412266101209 24379 READING 603 0.553684
1412266101367 24379 READING 607 0.544500
1412266101550 24379 READING 613 0.529019
1412266101723 24379 READING 619 0.540562
1412266101733 24380 READING 108 0.977307
1412266101896 24379 READING 625 0.522179
1412266102512 24380 READING 108 0.978856
1412266103214 24380 READING 111 0.975966
1412266103869 24380 READING 111 0.977296
1412266104198 24379 READING 632 0.339244
1412266104583 24380 READING 115 0.985480
1412266104838 24379 READING 696 0.799549
1412266105296 24380 READING 115 0.990526
1412266105401 24379 READING 703 0.832305
1412266105807 24379 READING 708 0.823896
1412266105959 24379 READING 716 0.749058
1412266106116 24380 READING 118 0.993741
1412266106197 24379 READING 721 0.719801
1412266106857 24380 READING 118 0.994975
1412266107547 24380 READING 121 0.995514
1412266107727 24379 READING 725 0.458573
1412266107902 24379 READING 791 0.458267
1412266108017 24379 READING 780 0.439595
1412266108118 24379 READING 787 0.449760
1412266108352 24380 READING 121 0.996240
1412266108388 24380 FUNCTION lru lambda h: 0.942368 * (h ** 0.00759029)
1412266108388 24379 FUNCTION lru lambda h: 0.587332 * (h ** 0.001)
1412266108389 24380 RECOMMEND 1235
1412266108389 24379 RECOMMEND 1211
1412266108614 24379 READING 785 0.791466
1412266108740 24379 READING 787 0.743213
1412266109142 24380 READING 123 0.996799
1412266109852 24380 READING 123 0.996755
1412266110192 24379 READING 783 0.302079
1412266110391 24379 READING 856 0.566129
1412266110604 24380 READING 125 0.996844
1412266110651 24379 READING 860 0.738916
1412266110828 24379 READING 862 0.778061
1412266111023 24379 READING 866 0.798898
1412266111409 24380 READING 125 0.997158
1412266112120 24379 READING 867 0.464690
1412266112212 24380 READING 127 0.997313
1412266112381 24379 READING 957 0.691881
1412266112700 24380 READING 127 0.995759
1412266112817 24380 READING 128 0.990545
1412266112856 24379 READING 959 0.798664
1412266113041 24379 READING 956 0.791195
1412266113237 24379 READING 830 0.767334
1412266113277 24380 READING 131 0.993291
1412266113445 24379 READING 950 0.775964
1412266113621 24379 READING 956 0.784202
1412266113731 24380 READING 138 0.993410
1412266113809 24379 READING 944 0.791931
1412266113985 24379 READING 950 0.806840
1412266114176 24379 READING 941 0.808111
1412266114357 24379 READING 946 0.829121
1412266114545 24379 READING 938 0.846738
1412266114680 24380 READING 138 0.996309
1412266114808 24379 READING 943 0.920923
1412266115586 24380 READING 144 0.997025
1412266116455 24380 READING 145 0.997173
1412266116500 24379 READING 943 0.973848
1412266116784 24379 READING 945 0.942245
1412266116985 24379 READING 945 0.910745
1412266117191 24379 READING 945 0.873383
1412266117405 24379 READING 946 0.859807
1412266117439 24380 READING 150 0.997661
1412266117613 24379 READING 948 0.847469
1412266117829 24379 READING 948 0.843599
1412266118049 24379 READING 951 0.841632
1412266118278 24379 READING 951 0.843729
1412266118389 24380 FUNCTION lru lambda h: 0.924582 * (h ** 0.0131233)
1412266118389 24379 FUNCTION lru lambda h: 0.409405 * (h ** 0.0525894)
1412266118390 24380 RECOMMEND 488
1412266118390 24379 RECOMMEND 1958
1412266118434 24380 READING 151 0.997582
1412266118631 24379 READING 954 0.871680
1412266119049 24379 READING 953 0.895560
1412266119277 24379 READING 956 0.881187
1412266119502 24380 READING 156 0.997853
1412266119532 24379 READING 958 0.819347
1412266119731 24379 READING 960 0.765065
1412266119926 24379 READING 981 0.740164
1412266120529 24380 READING 157 0.997115
1412266121503 24380 READING 161 0.996817
1412266121777 24379 READING 990 0.703619
1412266122033 24379 READING 1096 0.662121
1412266122225 24379 READING 1101 0.716723
1412266122422 24379 READING 1101 0.767381
1412266122558 24380 READING 161 0.997203
1412266122621 24379 READING 1106 0.785708
1412266122842 24379 READING 1105 0.789700
1412266123063 24379 READING 1110 0.787181
1412266123681 24380 READING 165 0.996757
1412266123768 24379 READING 1116 0.895068
1412266124872 24380 READING 166 0.997092
1412266125826 24379 READING 1118 0.946901
1412266126049 24380 READING 171 0.997187
1412266127114 24380 READING 171 0.997302
1412266127643 24379 READING 1129 0.958399
1412266128202 24380 READING 175 0.990250
1412266128390 24380 FUNCTION lru lambda h: 0.918498 * (h ** 0.0149519)
1412266128390 24379 FUNCTION lru lambda h: 0.344986 * (h ** 0.0884987)
1412266128391 24380 RECOMMEND 354
1412266128391 24379 RECOMMEND 2092
1412266129264 24380 READING 175 0.988952
1412266129480 24379 READING 1130 0.957374
1412266130389 24380 READING 180 0.993710
1412266131243 24380 READING 180 0.994554
1412266131369 24379 READING 1140 0.948942
1412266131859 24380 READING 183 0.989155
1412266132726 24380 READING 184 0.992062
1412266133932 24380 READING 190 0.994659
1412266134012 24379 READING 1145 0.877270
1412266135091 24380 READING 190 0.996237
1412266135853 24379 READING 1217 0.970894
1412266136301 24380 READING 195 0.996883
1412266137486 24380 READING 196 0.997015
1412266137728 24379 READING 1219 0.980100
1412266138391 24380 FUNCTION lru lambda h: 0.918044 * (h ** 0.0150808)
1412266138391 24379 FUNCTION lru lambda h: 0.152321 * (h ** 0.219955)
1412266138392 24380 RECOMMEND 157
1412266138392 24379 RECOMMEND 2289
1412266138724 24380 READING 201 0.997268
1412266139664 24379 READING 1232 0.983449
1412266139882 24380 READING 189 0.997661
1412266140976 24380 READING 180 0.997441
1412266141616 24379 READING 1236 0.983451
1412266142045 24380 READING 172 0.997268
1412266143080 24380 READING 164 0.997058
1412266143595 24379 READING 1238 0.982841
1412266144033 24380 READING 158 0.997080
1412266144922 24380 READING 152 0.996885
1412266145605 24379 READING 1240 0.981030
1412266145864 24380 READING 156 0.996775
1412266146822 24380 READING 160 0.984483
1412266147646 24379 READING 1230 0.979356
1412266147753 24380 READING 153 0.977172
1412266148392 24380 FUNCTION lru lambda h: 0.91712 * (h ** 0.0153438)
1412266148392 24379 FUNCTION lru lambda h: 0.0599762 * (h ** 0.365492)
1412266148393 24380 RECOMMEND 99
1412266148393 24379 RECOMMEND 2347
1412266148407 24380 READING 156 0.979481
1412266148754 24380 READING 148 0.982560
1412266149076 24380 READING 141 0.985006
1412266149751 24379 READING 1150 0.973751
1412266149911 24380 READING 134 0.979281
1412266150649 24380 READING 124 0.977808
1412266151346 24380 READING 119 0.987525
1412266151863 24379 READING 1220 0.973912
1412266152016 24380 READING 114 0.991895
1412266152651 24380 READING 110 0.994322
1412266153253 24380 READING 106 0.995161
1412266153827 24380 READING 102 0.995752
1412266153944 24379 READING 1227 0.971849
1412266154397 24380 READING 98 0.996076
1412266154970 24380 READING 101 0.995963
1412266155518 24380 READING 98 0.996026
1412266156088 24379 READING 1226 0.971815
1412266156103 24380 READING 101 0.996572
1412266156647 24380 READING 97 0.996505
1412266157227 24380 READING 100 0.990236
1412266157846 24380 READING 96 0.995203
1412266158245 24379 READING 1227 0.970095
1412266158393 24380 FUNCTION lru lambda h: 0.919486 * (h ** 0.0149366)
1412266158393 24379 FUNCTION lru lambda h: 0.0379866 * (h ** 0.435973)
1412266158394 24380 RECOMMEND 81
1412266158394 24379 RECOMMEND 2365
1412266158434 24380 READING 103 0.995349
1412266158980 24380 READING 99 0.996585
1412266159486 24380 READING 99 0.996991
1412266159966 24380 READING 92 0.997310
1412266160447 24379 READING 1230 0.969226
1412266160451 24380 READING 92 0.997346
1412266160902 24380 READING 87 0.997385
1412266161336 24380 READING 87 0.997148
1412266161750 24380 READING 82 0.997059
1412266162150 24380 READING 82 0.996642
1412266162532 24380 READING 78 0.996409
1412266162624 24379 READING 1233 0.965913
1412266162958 24380 READING 83 0.996604
1412266163347 24380 READING 78 0.996805
1412266163756 24380 READING 83 0.996762
1412266164146 24380 READING 79 0.996892
1412266164556 24380 READING 83 0.996936
1412266164805 24379 READING 1238 0.965090
1412266164973 24380 READING 79 0.996983
1412266165286 24380 READING 83 0.995639
1412266165434 24380 READING 81 0.990146
1412266165626 24380 READING 87 0.966290
1412266165776 24380 READING 83 0.970283
1412266165905 24380 READING 82 0.975355
1412266166034 24380 READING 81 0.977783
1412266166481 24380 READING 87 0.991657
1412266166910 24380 READING 84 0.993698
1412266167038 24379 READING 1244 0.962941
1412266167345 24380 READING 82 0.994539
1412266167747 24380 READING 80 0.994682
1412266168179 24380 READING 85 0.995073
1412266168394 24380 FUNCTION lru lambda h: 0.923358 * (h ** 0.0143867)
1412266168394 24379 FUNCTION lru lambda h: 0.0291457 * (h ** 0.476203)
1412266168395 24380 RECOMMEND 72
1412266168395 24379 RECOMMEND 2374
1412266168590 24380 READING 83 0.994935
1412266168990 24380 READING 80 0.994679
1412266169257 24379 READING 1251 0.962378
1412266169408 24380 READING 78 0.994787
1412266169776 24380 READING 76 0.994384
1412266170132 24380 READING 74 0.987361
1412266170478 24380 READING 72 0.987667
1412266170814 24380 READING 71 0.985839
1412266171170 24380 READING 74 0.984417
1412266171476 24379 READING 1257 0.960356
1412266171544 24380 READING 72 0.986422
1412266171887 24380 READING 70 0.986108
1412266172246 24380 READING 73 0.990362
1412266172594 24380 READING 75 0.993269
1412266172934 24380 READING 70 0.994888
1412266173290 24380 READING 76 0.995595
1412266173639 24380 READING 72 0.995986
1412266173743 24379 READING 1265 0.959671
1412266174031 24380 READING 77 0.996357
1412266174390 24380 READING 72 0.996603
1412266174731 24380 READING 73 0.996277
1412266175063 24380 READING 69 0.996338
1412266175411 24380 READING 74 0.996204
1412266175751 24380 READING 70 0.996457
1412266175969 24379 READING 1268 0.959017
1412266176123 24380 READING 75 0.996544
1412266176471 24380 READING 71 0.996112
1412266176834 24380 READING 76 0.996289
1412266177174 24380 READING 72 0.996415
1412266177540 24380 READING 76 0.996454
1412266177894 24380 READING 72 0.996494
1412266178238 24380 READING 72 0.996399
1412266178352 24379 READING 1275 0.960046
1412266178395 24380 FUNCTION lru lambda h: 0.928523 * (h ** 0.0134439)
1412266178395 24379 FUNCTION lru lambda h: 0.0214341 * (h ** 0.522811)
1412266178396 24380 RECOMMEND 61
1412266178396 24379 RECOMMEND 2385
1412266178596 24380 READING 69 0.996540
1412266178911 24380 READING 68 0.995999
1412266179217 24380 READING 66 0.995459
1412266179514 24380 READING 65 0.995015
1412266179804 24380 READING 63 0.995248
1412266180091 24380 READING 62 0.995593
1412266180360 24380 READING 60 0.995473
1412266180665 24380 READING 64 0.995649
1412266180726 24379 READING 1277 0.960249
1412266180948 24380 READING 61 0.995980
1412266181219 24380 READING 61 0.995823
1412266181505 24380 READING 63 0.995827
1412266181784 24380 READING 62 0.995672
1412266182059 24380 READING 60 0.994642
1412266182164 24380 READING 63 0.981274
1412266182254 24380 READING 62 0.981042
1412266182337 24380 READING 61 0.958577
1412266182442 24380 READING 60 0.968152
1412266182538 24380 READING 65 0.952995
1412266182627 24380 READING 63 0.961165
1412266182716 24380 READING 63 0.936547
1412266182844 24380 READING 61 0.957206
1412266183120 24380 READING 61 0.954621
1412266183193 24379 READING 1285 0.959914
1412266183391 24380 READING 60 0.970303
1412266183683 24380 READING 64 0.971676
1412266183964 24380 READING 62 0.973266
1412266184241 24380 READING 64 0.977064
1412266184513 24380 READING 60 0.985776
1412266184810 24380 READING 66 0.990785
1412266185094 24380 READING 62 0.993087
1412266185376 24380 READING 64 0.994145
1412266185670 24380 READING 60 0.994869
1412266185683 24379 READING 1286 0.959509
1412266185974 24380 READING 66 0.995446
1412266186253 24380 READING 62 0.995604
1412266186531 24380 READING 63 0.995618
1412266186801 24380 READING 60 0.995532
1412266187093 24380 READING 64 0.995725
1412266187370 24380 READING 61 0.995560
1412266187643 24380 READING 62 0.995013
1412266187905 24380 READING 59 0.995143
1412266188200 24379 READING 1293 0.959408
1412266188208 24380 READING 63 0.995320
1412266188396 24380 FUNCTION lru lambda h: 0.932874 * (h ** 0.0125827)
1412266188396 24379 FUNCTION lru lambda h: 0.0232201 * (h ** 0.511597)
1412266188397 24380 RECOMMEND 59
1412266188397 24379 RECOMMEND 2387
1412266188486 24380 READING 61 0.995611
1412266188756 24380 READING 61 0.995456
1412266189020 24380 READING 59 0.995507
1412266189301 24380 READING 62 0.995272
1412266189570 24380 READING 60 0.995354
1412266189834 24380 READING 60 0.995235
1412266190091 24380 READING 58 0.995233
1412266190363 24380 READING 62 0.994838
1412266190651 24380 READING 60 0.994901
1412266190728 24379 READING 1293 0.958418
1412266190935 24380 READING 60 0.995061
1412266191185 24380 READING 58 0.994924
1412266191457 24380 READING 61 0.995151
1412266191727 24380 READING 59 0.995203
1412266191984 24380 READING 59 0.995052
1412266192257 24380 READING 61 0.995471
1412266192525 24380 READING 60 0.995387
1412266192788 24380 READING 59 0.995470
1412266193066 24380 READING 62 0.995331
1412266193355 24380 READING 60 0.994357
1412266193402 24379 READING 1300 0.961256
1412266193629 24380 READING 60 0.994922
1412266193886 24380 READING 58 0.995241
1412266194156 24380 READING 61 0.995374
1412266194418 24380 READING 59 0.995199
1412266194676 24380 READING 58 0.994930
1412266194955 24380 READING 61 0.994773
1412266195218 24380 READING 60 0.994851
1412266195480 24380 READING 59 0.995194
1412266195761 24380 READING 61 0.995438
1412266196049 24380 READING 60 0.994849
1412266196064 24379 READING 1300 0.961014
1412266196315 24380 READING 59 0.995413
1412266196573 24380 READING 58 0.995287
1412266196849 24380 READING 61 0.995555
1412266197113 24380 READING 60 0.995267
1412266197376 24380 READING 59 0.995227
1412266197651 24380 READING 61 0.995489
1412266197933 24380 READING 60 0.995664
1412266198196 24380 READING 59 0.995670
1412266198397 24380 FUNCTION lru lambda h: 0.93553 * (h ** 0.0120481)
1412266198397 24379 FUNCTION lru lambda h: 0.0238136 * (h ** 0.508026)
1412266198398 24380 RECOMMEND 57
1412266198398 24379 RECOMMEND 2389
1412266198450 24380 READING 58 0.995336
1412266198700 24380 READING 57 0.995045
1412266198845 24379 READING 1306 0.958499
1412266198905 24380 READING 56 0.984080
1412266198991 24380 READING 59 0.963511
1412266199072 24380 READING 58 0.953512
1412266199219 24380 READING 57 0.993431
1412266199318 24380 READING 57 0.951560
1412266199400 24380 READING 56 0.962646
1412266199475 24380 READING 60 0.969175
1412266199554 24380 READING 58 0.973292
1412266199632 24380 READING 57 0.973902
1412266199809 24380 READING 57 0.985511
1412266200056 24380 READING 59 0.977495
1412266200300 24380 READING 57 0.980971
1412266200557 24380 READING 61 0.983206
1412266200809 24380 READING 58 0.988973
1412266201053 24380 READING 59 0.991641
1412266201293 24380 READING 56 0.993283
1412266201560 24380 READING 59 0.994406
1412266201596 24379 READING 1306 0.960359
1412266201806 24380 READING 56 0.994533
1412266202052 24380 READING 59 0.994971
1412266202296 24380 READING 56 0.995024
1412266202548 24380 READING 59 0.995241
1412266202793 24380 READING 57 0.995327
1412266203044 24380 READING 59 0.995342
1412266203288 24380 READING 57 0.995336
1412266203542 24380 READING 60 0.995134
1412266203790 24380 READING 57 0.995103
1412266204028 24380 READING 57 0.994962
1412266204260 24380 READING 55 0.995132
1412266204542 24380 READING 59 0.995147
1412266204803 24380 READING 57 0.995305
1412266205055 24380 READING 58 0.994599
1412266205292 24380 READING 56 0.994309
1412266205542 24380 READING 59 0.993938
1412266205789 24380 READING 57 0.993964
1412266206026 24380 READING 57 0.993859
1412266206275 24380 READING 59 0.993858
1412266206494 24379 READING 1311 0.939040
1412266206526 24380 READING 58 0.994685
1412266206769 24380 READING 57 0.994948
1412266207018 24380 READING 58 0.995304
1412266207271 24380 READING 57 0.995203
1412266207530 24380 READING 60 0.995286
1412266207787 24380 READING 58 0.995472
1412266208035 24380 READING 58 0.995292
1412266208278 24380 READING 56 0.995150
1412266208398 24380 FUNCTION lru lambda h: 0.937634 * (h ** 0.0116143)
1412266208398 24379 FUNCTION lru lambda h: 0.016812 * (h ** 0.558733)
1412266208399 24380 RECOMMEND 50
1412266208399 24379 RECOMMEND 2396
1412266208532 24380 READING 59 0.995250
1412266208780 24380 READING 58 0.995332
1412266209025 24380 READING 57 0.995727
1412266209269 24379 READING 1428 0.958759
1412266209287 24380 READING 56 0.995804
1412266209516 24380 READING 55 0.995582
1412266209741 24380 READING 54 0.995346
1412266209960 24380 READING 53 0.995213
1412266210167 24380 READING 52 0.994898
1412266210376 24380 READING 51 0.994989
1412266210580 24380 READING 51 0.994505
1412266210779 24380 READING 50 0.994309
1412266210979 24380 READING 50 0.994347
1412266211195 24380 READING 52 0.994348
1412266211402 24380 READING 51 0.994149
1412266211607 24380 READING 51 0.994091
1412266211807 24380 READING 50 0.994200
1412266211901 24379 READING 1425 0.971504
1412266212022 24380 READING 50 0.994585
1412266212234 24380 READING 52 0.994579
1412266212440 24380 READING 51 0.994489
1412266212644 24380 READING 51 0.994202
1412266212844 24380 READING 50 0.994126
1412266213042 24380 READING 50 0.994257
1412266213253 24380 READING 52 0.994320
1412266213460 24380 READING 51 0.994329
1412266213670 24380 READING 51 0.994772
1412266213869 24380 READING 50 0.994626
1412266214062 24380 READING 50 0.994213
1412266214278 24380 READING 52 0.994429
1412266214484 24380 READING 51 0.994307
1412266214656 24379 READING 1435 0.977640
1412266214704 24380 READING 51 0.994836
1412266214907 24380 READING 50 0.994743
1412266215106 24380 READING 50 0.994886
1412266215314 24380 READING 52 0.995042
1412266215523 24380 READING 51 0.994783
1412266215611 24380 READING 51 0.977891
1412266215681 24380 READING 50 0.969402
1412266215746 24380 READING 50 0.957247
1412266215804 24380 READING 50 0.962065
1412266215881 24380 READING 54 0.943937
1412266215958 24380 READING 53 0.958196
1412266216026 24380 READING 53 0.941890
1412266216084 24380 READING 52 0.947742
1412266216155 24380 READING 52 0.925572
1412266216203 24380 READING 51 0.912590
1412266216265 24380 READING 51 0.917027
1412266216443 24380 READING 50 0.946717
1412266216631 24380 READING 49 0.970389
1412266216827 24380 READING 52 0.977912
1412266217018 24380 READING 49 0.985908
1412266217210 24380 READING 51 0.989987
1412266217399 24380 READING 48 0.991900
1412266217483 24379 READING 1446 0.979289
1412266217609 24380 READING 51 0.992991
1412266217792 24380 READING 48 0.992903
1412266217977 24380 READING 50 0.993075
1412266218158 24380 READING 47 0.993253
1412266218339 24380 READING 49 0.993634
1412266218399 24380 FUNCTION lru lambda h: 0.91756 * (h ** 0.0162149)
1412266218399 24379 FUNCTION lru lambda h: 0.00754629 * (h ** 0.67445)
1412266218400 24380 RECOMMEND 57
1412266218400 24379 RECOMMEND 2389
1412266218520 24380 READING 49 0.993844
1412266218720 24380 READING 52 0.993938
1412266218919 24380 READING 52 0.993599
1412266219134 24380 READING 54 0.994193
1412266219352 24380 READING 54 0.993514
1412266219584 24380 READING 57 0.993668
1412266219819 24380 READING 57 0.994075
1412266220071 24380 READING 59 0.994660
1412266220334 24379 READING 1447 0.978430
1412266220343 24380 READING 57 0.995499
1412266220584 24380 READING 56 0.995466
1412266220827 24380 READING 58 0.995582
1412266221063 24380 READING 56 0.995765
1412266221319 24380 READING 59 0.995863
1412266221565 24380 READING 57 0.995754
1412266221805 24380 READING 57 0.995600
1412266222041 24380 READING 55 0.995564
1412266222290 24380 READING 58 0.995289
1412266222532 24380 READING 57 0.995442
1412266222780 24380 READING 58 0.994787
1412266223020 24380 READING 56 0.994764
1412266223189 24379 READING 1443 0.978289
1412266223297 24380 READING 59 0.995509
1412266223546 24380 READING 58 0.995511
1412266223791 24380 READING 57 0.994901
1412266224025 24380 READING 56 0.994911
1412266224292 24380 READING 59 0.995396
1412266224538 24380 READING 57 0.995446
1412266224777 24380 READING 56 0.995355
1412266225036 24380 READING 59 0.995451
1412266225286 24380 READING 58 0.995446
1412266225532 24380 READING 57 0.995514
1412266225791 24380 READING 59 0.995628
1412266226043 24380 READING 58 0.995559
1412266226287 24380 READING 57 0.995453
1412266226544 24380 READING 59 0.995609
1412266226798 24380 READING 58 0.995665
1412266227045 24380 READING 57 0.995767
1412266227286 24380 READING 56 0.995473
1412266227546 24380 READING 59 0.995359
1412266227796 24380 READING 58 0.995093
1412266228039 24380 READING 57 0.995019
1412266228302 24380 READING 59 0.995263
1412266228400 24380 FUNCTION lru lambda h: 0.92306 * (h ** 0.0150037)
1412266228400 24379 FUNCTION lru lambda h: 0.0052565 * (h ** 0.726339)
1412266228401 24380 RECOMMEND 50
1412266228401 24379 RECOMMEND 2396
1412266228555 24380 READING 58 0.995292
1412266228800 24380 READING 57 0.995169
1412266229039 24380 READING 56 0.995473
1412266229272 24380 READING 55 0.995402
1412266229491 24380 READING 54 0.995185
1412266229712 24380 READING 53 0.994833
1412266229923 24380 READING 52 0.994589
1412266230132 24380 READING 51 0.994864
1412266230335 24380 READING 51 0.994449
1412266230532 24380 READING 50 0.994280
1412266230733 24380 READING 50 0.994285
1412266230945 24380 READING 52 0.994244
1412266231147 24380 READING 51 0.994210
1412266231351 24380 READING 51 0.994098
1412266231552 24380 READING 50 0.993981
1412266231748 24380 READING 50 0.993858
1412266231961 24380 READING 52 0.994364
1412266232156 24380 READING 51 0.972157
1412266232230 24380 READING 51 0.958488
1412266232295 24380 READING 51 0.942413
1412266232351 24380 READING 50 0.936916
1412266232495 24380 READING 50 0.991782
1412266232577 24380 READING 49 0.955568
1412266232644 24380 READING 55 0.965913
1412266232713 24380 READING 53 0.969869
1412266232781 24380 READING 52 0.971916
1412266232843 24380 READING 51 0.969420
1412266232907 24380 READING 51 0.952401
1412266233026 24380 READING 50 0.954817
1412266233219 24380 READING 49 0.973713
1412266233420 24380 READING 51 0.978333
1412266233615 24380 READING 49 0.986054
1412266233809 24380 READING 51 0.989940
1412266234001 24380 READING 48 0.991735
1412266234194 24380 READING 51 0.992686
1412266234384 24380 READING 48 0.993131
1412266234571 24380 READING 50 0.993370
1412266234758 24380 READING 50 0.992505
1412266234973 24380 READING 53 0.993458
1412266235188 24380 READING 51 0.993676
1412266235392 24380 READING 51 0.994184
1412266235596 24380 READING 50 0.994540
1412266235801 24380 READING 52 0.994559
1412266235997 24380 READING 50 0.994647
1412266236200 24380 READING 51 0.994510
1412266236397 24380 READING 49 0.994359
1412266236595 24380 READING 50 0.994222
1412266236788 24380 READING 49 0.994170
1412266236983 24380 READING 50 0.994055
1412266237172 24380 READING 50 0.993940
1412266237408 24380 READING 52 0.994314
1412266237457 24379 READING 1447 0.987859
1412266237618 24380 READING 51 0.994371
1412266237820 24380 READING 50 0.994544
1412266238022 24380 READING 50 0.994422
1412266238220 24380 READING 49 0.994256
1412266238401 24380 FUNCTION lru lambda h: 0.930319 * (h ** 0.0134082)
1412266238401 24379 FUNCTION lru lambda h: 0.00525009 * (h ** 0.726525)
1412266238402 24380 RECOMMEND 44
1412266238402 24379 RECOMMEND 2402
1412266238420 24380 READING 51 0.994087
1412266238614 24380 READING 49 0.994198
1412266238810 24380 READING 49 0.994575
1412266239010 24380 READING 48 0.994482
1412266239196 24380 READING 48 0.994361
1412266239386 24380 READING 47 0.994109
1412266239565 24380 READING 47 0.994098
1412266239744 24380 READING 46 0.993679
1412266239914 24380 READING 46 0.993172
1412266240085 24380 READING 45 0.993220
1412266240252 24380 READING 45 0.993034
1412266240412 24380 READING 44 0.992694
1412266240574 24380 READING 44 0.992639
1412266240750 24380 READING 46 0.993356
1412266240928 24380 READING 46 0.993513
1412266241100 24380 READING 45 0.993603
1412266241264 24380 READING 45 0.993432
1412266241430 24380 READING 44 0.993381
1412266241586 24380 READING 44 0.993102
1412266241764 24380 READING 46 0.993303
1412266241939 24380 READING 46 0.993391
1412266242109 24380 READING 45 0.993050
1412266242274 24380 READING 45 0.992698
1412266242434 24380 READING 44 0.992656
1412266242598 24380 READING 44 0.992844
1412266242773 24380 READING 46 0.993136
1412266242947 24380 READING 46 0.992829
1412266243113 24380 READING 45 0.992705
1412266243283 24380 READING 45 0.992548
1412266243445 24380 READING 44 0.991933
1412266243602 24380 READING 44 0.992165
1412266243778 24380 READING 46 0.992884
1412266243955 24380 READING 46 0.993168
1412266244128 24380 READING 45 0.993182
1412266244292 24380 READING 45 0.993257
1412266244453 24380 READING 44 0.992328
1412266244614 24380 READING 44 0.992941
1412266244792 24380 READING 46 0.993054
1412266244965 24380 READING 46 0.992872
1412266245130 24380 READING 45 0.992672
1412266245299 24380 READING 45 0.993039
1412266245462 24380 READING 44 0.993342
1412266245618 24380 READING 44 0.993369
1412266245797 24380 READING 46 0.993265
1412266245970 24380 READING 46 0.993181
1412266246139 24380 READING 45 0.993157
1412266246303 24380 READING 45 0.993078
1412266246467 24380 READING 44 0.993074
1412266246627 24380 READING 44 0.993186
1412266246810 24380 READING 46 0.993612
1412266246981 24380 READING 46 0.993185
1412266247155 24380 READING 45 0.993292
1412266247322 24380 READING 45 0.993150
1412266247483 24380 READING 44 0.993026
1412266247643 24380 READING 44 0.992656
1412266247821 24380 READING 46 0.993563
1412266247996 24380 READING 46 0.993920
1412266248166 24380 READING 45 0.993793
1412266248328 24380 READING 45 0.993516
1412266248402 24380 FUNCTION lru lambda h: 0.937447 * (h ** 0.0118571)
1412266248402 24379 FUNCTION lru lambda h: 0.00525009 * (h ** 0.726525)
1412266248403 24380 RECOMMEND 39
1412266248403 24379 RECOMMEND 2407
1412266248494 24380 READING 44 0.993671
1412266248655 24380 READING 44 0.993866
1412266248738 24380 READING 43 0.971344
1412266248794 24380 READING 43 0.934453
1412266248842 24380 READING 42 0.918860
1412266248890 24380 READING 42 0.902208
1412266248933 24380 READING 42 0.916813
1412266248977 24380 READING 42 0.882508
1412266249047 24380 READING 41 0.917271
1412266249088 24380 READING 42 0.880053
1412266249133 24380 READING 40 0.872838
1412266249182 24380 READING 40 0.868540
1412266249217 24380 READING 40 0.878806
1412266249264 24380 READING 40 0.874886
1412266249303 24380 READING 40 0.885017
1412266249344 24380 READING 40 0.904260
1412266249395 24380 READING 41 0.929221
1412266249439 24380 READING 41 0.936721
1412266249537 24380 READING 41 0.963567
1412266249669 24380 READING 41 0.980775
1412266249802 24380 READING 41 0.986501
1412266249939 24380 READING 41 0.989307
1412266250071 24380 READING 41 0.990222
1412266250202 24380 READING 41 0.990791
1412266250332 24380 READING 41 0.990942
1412266250465 24380 READING 39 0.991054
1412266250601 24380 READING 41 0.991519
1412266250733 24380 READING 41 0.991174
1412266250890 24380 READING 41 0.991140
1412266250900 24379 READING 1425 0.990666
1412266251025 24380 READING 41 0.991272
1412266251157 24380 READING 41 0.991082
1412266251289 24380 READING 39 0.990782
1412266251421 24380 READING 40 0.990443
1412266251550 24380 READING 40 0.990387
1412266251679 24380 READING 40 0.990529
1412266251812 24380 READING 40 0.990871
1412266251945 24380 READING 40 0.991053
1412266252077 24380 READING 40 0.990793
1412266252207 24380 READING 39 0.990569
1412266252336 24380 READING 40 0.990744
1412266252472 24380 READING 40 0.991040
1412266252605 24380 READING 40 0.991025
1412266252735 24380 READING 40 0.991286
1412266252865 24380 READING 40 0.991048
1412266252999 24380 READING 40 0.991336
1412266253130 24380 READING 40 0.991486
1412266253260 24380 READING 40 0.991151
1412266253391 24380 READING 40 0.990990
1412266253526 24380 READING 40 0.990651
1412266253658 24380 READING 40 0.990981
1412266253789 24380 READING 39 0.990817
1412266253918 24380 READING 39 0.990743
1412266254048 24380 READING 39 0.990745
1412266254180 24380 READING 39 0.990725
1412266254311 24380 READING 39 0.990797
1412266254442 24380 READING 39 0.990536
1412266254572 24380 READING 39 0.990061
1412266254704 24380 READING 39 0.990692
1412266254836 24380 READING 39 0.990605
1412266254967 24380 READING 39 0.990477
1412266255097 24380 READING 39 0.990973
1412266255230 24380 READING 39 0.991149
1412266255362 24380 READING 39 0.991091
1412266255496 24380 READING 39 0.990974
1412266255625 24380 READING 39 0.990964
1412266255755 24380 READING 39 0.990785
1412266255887 24380 READING 39 0.991024
1412266256020 24380 READING 39 0.990995
1412266256148 24380 READING 39 0.990744
1412266256278 24380 READING 39 0.990370
1412266256408 24380 READING 39 0.990780
1412266256540 24380 READING 39 0.990909
1412266256671 24380 READING 39 0.990711
1412266256800 24380 READING 39 0.990756
1412266256930 24380 READING 39 0.990737
1412266257073 24380 READING 39 0.990270
1412266257211 24380 READING 39 0.991216
1412266257342 24380 READING 39 0.990761
1412266257480 24379 READING 1448 0.987651
1412266257501 24380 READING 39 0.991575
1412266257631 24380 READING 39 0.991234
1412266257757 24380 READING 39 0.991149
1412266257891 24380 READING 39 0.991215
1412266258040 24380 READING 39 0.987981
1412266258109 24379 READING 1455 0.978388
1412266258184 24380 READING 39 0.989971
1412266258317 24380 READING 39 0.990651
1412266258403 24380 FUNCTION lru lambda h: 0.961185 * (h ** 0.00665371)
1412266258403 24379 FUNCTION lru lambda h: 0.00378657 * (h ** 0.773235)
1412266258404 24380 RECOMMEND 21
1412266258404 24379 RECOMMEND 2425
1412266258465 24380 READING 39 0.990672
1412266258571 24379 READING 1476 0.955119
1412266258619 24380 READING 39 0.991622
1412266258744 24380 READING 38 0.991159
1412266258887 24380 READING 38 0.990982
1412266258906 24379 READING 1478 0.923281
1412266259010 24380 READING 37 0.990746
1412266259123 24380 READING 37 0.990467
1412266259239 24379 READING 1493 0.878010
1412266259255 24380 READING 36 0.990601
1412266259360 24380 READING 36 0.989591
1412266259486 24380 READING 35 0.988683
1412266259575 24379 READING 1493 0.821259
1412266259603 24380 READING 35 0.989535
1412266259700 24380 READING 34 0.989063
1412266259794 24380 READING 34 0.988355
1412266259902 24379 READING 1493 0.776392
1412266259912 24380 READING 34 0.989173
1412266260008 24380 READING 34 0.988545
1412266260100 24380 READING 34 0.988272
1412266260220 24380 READING 34 0.988437
1412266260224 24379 READING 1493 0.750036
1412266260315 24380 READING 34 0.987771
1412266260411 24380 READING 34 0.987952
1412266260528 24380 READING 34 0.988717
1412266260625 24380 READING 34 0.988257
1412266260718 24380 READING 34 0.984085
1412266260812 24380 READING 34 0.982491
1412266260905 24380 READING 34 0.982829
1412266261001 24380 READING 34 0.983368
1412266261100 24380 READING 34 0.983678
1412266261195 24380 READING 34 0.983635
1412266261259 24379 READING 1493 0.958362
1412266261292 24380 READING 34 0.986209
1412266261392 24380 READING 34 0.987326
1412266261489 24380 READING 34 0.987856
1412266261581 24380 READING 34 0.987883
1412266261679 24380 READING 34 0.988344
1412266261773 24380 READING 34 0.988107
1412266261869 24380 READING 34 0.987819
1412266261964 24380 READING 34 0.988160
1412266262057 24380 READING 34 0.988074
1412266262152 24380 READING 34 0.988355
1412266262244 24380 READING 34 0.987703
1412266262341 24380 READING 34 0.988085
1412266262433 24380 READING 34 0.987863
1412266262535 24380 READING 34 0.987798
1412266262635 24380 READING 34 0.986362
1412266262742 24380 READING 34 0.987674
1412266262849 24380 READING 34 0.987736
1412266262957 24380 READING 34 0.987899
1412266263054 24380 READING 34 0.987887
1412266263152 24380 READING 34 0.988256
1412266263231 24379 READING 1462 0.952223
1412266263257 24380 READING 34 0.988675
1412266263359 24380 READING 34 0.988497
1412266263447 24380 READING 34 0.987763
1412266263546 24380 READING 34 0.987532
1412266263634 24380 READING 34 0.987522
1412266263733 24380 READING 34 0.987814
1412266263824 24380 READING 34 0.987831
1412266263922 24380 READING 34 0.987769
1412266264013 24380 READING 34 0.987654
1412266264110 24380 READING 34 0.987424
1412266264203 24380 READING 34 0.987714
1412266264297 24380 READING 34 0.987213
1412266264390 24380 READING 34 0.987322
1412266264485 24380 READING 34 0.986446
1412266264577 24380 READING 34 0.986416
1412266264672 24380 READING 34 0.986994
1412266264764 24380 READING 34 0.987063
1412266264858 24380 READING 34 0.986605
1412266264952 24380 READING 34 0.986745
1412266265045 24380 READING 34 0.987020
1412266265144 24380 READING 34 0.987558
1412266265237 24380 READING 34 0.986978
1412266265332 24380 READING 34 0.986951
1412266265423 24380 READING 34 0.987168
1412266265467 24379 READING 1462 0.975741
1412266265533 24380 READING 34 0.988242
1412266265625 24380 READING 34 0.987790
1412266265748 24380 READING 34 0.988178
1412266265777 24380 READING 34 0.964744
1412266265807 24380 READING 34 0.940584
1412266265839 24380 READING 34 0.939635
1412266265933 24380 READING 35 0.988924
1412266265967 24380 READING 32 0.947582
1412266265997 24380 READING 33 0.939951
1412266266022 24380 READING 32 0.935591
1412266266050 24380 READING 33 0.935554
1412266266083 24380 READING 32 0.935045
1412266266120 24380 READING 33 0.942935
1412266266158 24380 READING 33 0.939801
1412266266189 24380 READING 33 0.938852
1412266266219 24380 READING 32 0.937293
1412266266246 24380 READING 33 0.930188
1412266266282 24380 READING 32 0.943349
1412266266311 24380 READING 33 0.937865
1412266266338 24380 READING 32 0.933277
1412266266379 24380 READING 33 0.944779
1412266266406 24380 READING 32 0.937926
1412266266435 24380 READING 33 0.938332
1412266266470 24380 READING 32 0.938581
1412266266508 24380 READING 33 0.948544
1412266266539 24380 READING 32 0.936216
1412266266609 24380 READING 33 0.959813
1412266266701 24380 READING 32 0.975865
1412266266794 24380 READING 33 0.982638
1412266266892 24380 READING 33 0.985942
1412266266986 24380 READING 33 0.987146
1412266267084 24380 READING 33 0.987785
1412266267179 24380 READING 33 0.987277
1412266267275 24380 READING 33 0.987866
1412266267371 24380 READING 33 0.988229
1412266267469 24380 READING 33 0.988509
1412266267563 24380 READING 33 0.988745
1412266267659 24380 READING 33 0.988890
1412266267734 24379 READING 1462 0.982949
1412266267766 24380 READING 33 0.989482
1412266267864 24380 READING 33 0.989272
1412266267960 24380 READING 33 0.988821
1412266268056 24380 READING 33 0.989028
1412266268149 24380 READING 33 0.988496
1412266268248 24380 READING 33 0.988373
1412266268343 24380 READING 33 0.988820
1412266268404 24380 FUNCTION lru lambda h: 0.954935 * (h ** 0.0080815)
1412266268404 24379 FUNCTION lru lambda h: 0.0062185 * (h ** 0.701325)
1412266268404 24380 RECOMMEND 28
1412266268404 24379 RECOMMEND 2418
1412266268438 24380 READING 32 0.988918
1412266268538 24380 READING 32 0.989138
1412266268635 24380 READING 32 0.989270
1412266268730 24380 READING 32 0.988421
1412266268824 24380 READING 32 0.987951
1412266268921 24380 READING 32 0.988054
1412266269013 24380 READING 32 0.988139
1412266269112 24380 READING 32 0.988661
1412266269205 24380 READING 32 0.988696
1412266269304 24380 READING 32 0.988529
1412266269395 24380 READING 32 0.987871
1412266269492 24380 READING 32 0.987874
1412266269581 24380 READING 32 0.987429
1412266269680 24380 READING 32 0.987948
1412266269771 24380 READING 32 0.987918
1412266269867 24380 READING 32 0.988261
1412266269974 24379 READING 1462 0.984350
1412266269981 24380 READING 32 0.989439
1412266270078 24380 READING 32 0.989162
1412266270171 24380 READING 32 0.988882
1412266270266 24380 READING 32 0.988070
1412266270359 24380 READING 32 0.988381
1412266270453 24380 READING 32 0.988249
1412266270551 24380 READING 32 0.988259
1412266270646 24380 READING 32 0.987518
1412266270741 24380 READING 32 0.988103
1412266270836 24380 READING 32 0.988332
1412266270929 24380 READING 32 0.988046
1412266271022 24380 READING 32 0.987885
1412266271117 24380 READING 32 0.987810
1412266271215 24380 READING 32 0.988442
1412266271316 24380 READING 32 0.988747
1412266271407 24380 READING 32 0.988274
1412266271503 24380 READING 32 0.988155
1412266271594 24380 READING 32 0.987563
1412266271691 24380 READING 32 0.988269
1412266271780 24380 READING 32 0.988479
1412266271877 24380 READING 32 0.988773
1412266271970 24380 READING 32 0.988472
1412266272067 24380 READING 32 0.988432
1412266272162 24380 READING 32 0.987989
1412266272214 24379 READING 1462 0.984338
1412266272277 24380 READING 32 0.989469
1412266272369 24380 READING 32 0.989185
1412266272463 24380 READING 32 0.988756
1412266272559 24380 READING 32 0.988259
1412266272655 24380 READING 32 0.988625
1412266272750 24380 READING 32 0.988081
1412266272844 24380 READING 32 0.987466
1412266272943 24380 READING 32 0.987088
1412266273044 24380 READING 32 0.988002
1412266273140 24380 READING 32 0.988413
1412266273235 24380 READING 32 0.988744
1412266273333 24380 READING 32 0.988638
1412266273448 24380 READING 32 0.989446
1412266273549 24380 READING 32 0.989200
1412266273645 24380 READING 32 0.988483
1412266273739 24380 READING 32 0.988501
1412266273829 24380 READING 32 0.987929
1412266273929 24380 READING 32 0.988548
1412266274020 24380 READING 32 0.988769
1412266274117 24380 READING 32 0.988182
1412266274206 24380 READING 32 0.987496
1412266274306 24380 READING 32 0.987825
1412266274395 24380 READING 32 0.987337
1412266274498 24380 READING 32 0.987656
1412266274518 24379 READING 1462 0.981524
1412266274593 24380 READING 32 0.987742
1412266274705 24380 READING 32 0.988918
1412266274796 24380 READING 32 0.987894
1412266274892 24380 READING 32 0.988276
1412266274984 24380 READING 32 0.988111
1412266275079 24380 READING 32 0.988448
1412266275172 24380 READING 32 0.988305
1412266275266 24380 READING 32 0.987972
1412266275359 24380 READING 32 0.987945
1412266275454 24380 READING 32 0.988629
1412266275548 24380 READING 32 0.988742
1412266275644 24380 READING 32 0.987908
1412266275736 24380 READING 32 0.988385
1412266275832 24380 READING 32 0.988550
1412266275925 24380 READING 32 0.988084
1412266276017 24380 READING 32 0.988028
1412266276115 24380 READING 32 0.988519
1412266276207 24380 READING 32 0.988116
1412266276302 24380 READING 32 0.988016
1412266276394 24380 READING 32 0.987944
1412266276490 24380 READING 32 0.987997
1412266276580 24380 READING 32 0.987993
1412266276685 24380 READING 32 0.988575
1412266276775 24380 READING 32 0.987856
1412266276841 24379 READING 1462 0.983473
1412266276888 24380 READING 32 0.988970
1412266276979 24380 READING 32 0.988623
1412266277077 24380 READING 32 0.988785
1412266277169 24380 READING 32 0.988333
1412266277268 24380 READING 32 0.988463
1412266277362 24380 READING 32 0.988250
1412266277464 24380 READING 32 0.988730
1412266277554 24380 READING 32 0.988235
1412266277650 24380 READING 32 0.988253
1412266277742 24380 READING 32 0.988239
1412266277840 24380 READING 32 0.988508
1412266277932 24380 READING 32 0.988260
1412266278028 24380 READING 32 0.988560
1412266278120 24380 READING 32 0.988226
1412266278216 24380 READING 32 0.988724
1412266278309 24380 READING 32 0.988346
1412266278404 24380 FUNCTION lru lambda h: 0.96031 * (h ** 0.00689498)
1412266278405 24379 FUNCTION lru lambda h: 0.00620256 * (h ** 0.701712)
1412266278405 24380 RECOMMEND 24
1412266278405 24379 RECOMMEND 2422
1412266278405 24380 READING 32 0.988431
1412266278498 24380 READING 32 0.987774
1412266278594 24380 READING 32 0.988379
1412266278696 24380 READING 32 0.988409
1412266278790 24380 READING 32 0.988670
1412266278884 24380 READING 32 0.988338
1412266278978 24380 READING 32 0.987647
1412266279070 24380 READING 32 0.987215
1412266279152 24379 READING 1462 0.983732
1412266279177 24380 READING 32 0.988368
1412266279270 24380 READING 32 0.987800
1412266279368 24380 READING 32 0.988254
1412266279460 24380 READING 32 0.987637
1412266279556 24380 READING 32 0.987937
1412266279650 24380 READING 32 0.987885
1412266279744 24380 READING 32 0.987741
1412266279836 24380 READING 32 0.987124
1412266279930 24380 READING 32 0.987434
1412266280023 24380 READING 32 0.987192
1412266280118 24380 READING 32 0.987412
1412266280212 24380 READING 32 0.987237
1412266280308 24380 READING 32 0.987472
1412266280402 24380 READING 32 0.987179
1412266280495 24380 READING 32 0.987181
1412266280595 24380 READING 32 0.987937
1412266280695 24380 READING 32 0.988303
1412266280789 24380 READING 32 0.988027
1412266280883 24380 READING 32 0.988155
1412266280978 24380 READING 32 0.988287
1412266281073 24380 READING 32 0.988178
1412266281166 24380 READING 32 0.988409
1412266281262 24380 READING 32 0.987936
1412266281369 24380 READING 32 0.989344
1412266281474 24379 READING 1462 0.987142
1412266281482 24380 READING 32 0.989651
1412266281576 24380 READING 32 0.988932
1412266281675 24380 READING 32 0.989055
1412266281767 24380 READING 32 0.988298
1412266281867 24380 READING 32 0.988939
1412266281959 24380 READING 32 0.988521
1412266282060 24380 READING 32 0.988970
1412266282151 24380 READING 32 0.988625
1412266282248 24380 READING 32 0.988621
1412266282338 24380 READING 32 0.988162
1412266282435 24380 READING 32 0.988072
1412266282526 24380 READING 32 0.987919
1412266282624 24380 READING 32 0.988157
1412266282727 24380 READING 32 0.986637
1412266282773 24380 READING 32 0.969077
1412266282804 24380 READING 32 0.949574
1412266282835 24380 READING 32 0.935655
1412266282867 24380 READING 33 0.934039
1412266282897 24380 READING 33 0.924079
1412266282930 24380 READING 33 0.931223
1412266282955 24380 READING 33 0.929924
1412266282982 24380 READING 33 0.934507
1412266283012 24380 READING 33 0.928116
1412266283047 24380 READING 33 0.938478
1412266283086 24380 READING 33 0.939623
1412266283114 24380 READING 33 0.935724
1412266283144 24380 READING 33 0.934200
1412266283172 24380 READING 33 0.931700
1412266283206 24380 READING 33 0.935941
1412266283234 24380 READING 33 0.917839
1412266283263 24380 READING 33 0.923520
1412266283303 24380 READING 33 0.937815
1412266283332 24380 READING 33 0.936523
1412266283359 24380 READING 33 0.939397
1412266283388 24380 READING 33 0.938178
1412266283419 24380 READING 33 0.941849
1412266283447 24380 READING 33 0.937923
1412266283495 24380 READING 33 0.954694
1412266283597 24380 READING 33 0.975493
1412266283690 24380 READING 33 0.981932
1412266283788 24380 READING 33 0.985006
1412266283856 24379 READING 1462 0.988282
1412266283893 24380 READING 33 0.987729
1412266283991 24380 READING 33 0.987964
1412266284091 24380 READING 33 0.988132
1412266284186 24380 READING 33 0.987680
1412266284278 24380 READING 33 0.987205
1412266284374 24380 READING 33 0.988141
1412266284466 24380 READING 33 0.988287
1412266284562 24380 READING 33 0.988505
1412266284656 24380 READING 33 0.988338
1412266284752 24380 READING 33 0.988225
1412266284850 24380 READING 33 0.988357
1412266284945 24380 READING 33 0.988225
1412266285040 24380 READING 33 0.988616
1412266285135 24380 READING 33 0.987956
1412266285230 24380 READING 33 0.988267
1412266285326 24380 READING 32 0.988698
1412266285421 24380 READING 32 0.988073
1412266285517 24380 READING 32 0.987419
1412266285613 24380 READING 32 0.987976
1412266285705 24380 READING 32 0.988076
1412266285802 24380 READING 32 0.988577
1412266285896 24380 READING 32 0.988524
1412266285992 24380 READING 32 0.988048
1412266286086 24380 READING 32 0.988257
1412266286182 24380 READING 32 0.988643
1412266286248 24379 READING 1462 0.989649
1412266286291 24380 READING 32 0.989105
1412266286386 24380 READING 32 0.989037
1412266286479 24380 READING 32 0.988658
1412266286576 24380 READING 32 0.988544
1412266286674 24380 READING 32 0.988698
1412266286769 24380 READING 32 0.988334
1412266286863 24380 READING 32 0.987970
1412266286958 24380 READING 32 0.988152
1412266287051 24380 READING 32 0.988419
1412266287148 24380 READING 32 0.988339
1412266287242 24380 READING 32 0.988450
1412266287337 24380 READING 32 0.988381
1412266287432 24380 READING 32 0.988556
1412266287528 24380 READING 32 0.988083
1412266287621 24380 READING 32 0.988115
1412266287718 24380 READING 32 0.988420
1412266287813 24380 READING 32 0.988174
1412266287906 24380 READING 32 0.987815
1412266288002 24380 READING 32 0.987933
1412266288094 24380 READING 32 0.987634
1412266288189 24380 READING 32 0.987776
1412266288282 24380 READING 32 0.988155
1412266288378 24380 READING 32 0.988273
1412266288405 24380 FUNCTION lru lambda h: 0.960184 * (h ** 0.00692271)
1412266288405 24379 FUNCTION lru lambda h: 0.0061927 * (h ** 0.701951)
1412266288406 24380 RECOMMEND 24
1412266288406 24379 RECOMMEND 2422
1412266288472 24380 READING 32 0.987533
1412266288573 24380 READING 32 0.971433
1412266288589 24379 READING 1462 0.989746
1412266288679 24380 READING 32 0.981071
1412266288774 24380 READING 32 0.984694
1412266288867 24380 READING 32 0.986618
1412266288963 24380 READING 32 0.987509
1412266289059 24380 READING 32 0.987832
1412266289155 24380 READING 32 0.988410
1412266289248 24380 READING 32 0.988401
1412266289342 24380 READING 32 0.988275
1412266289436 24380 READING 32 0.987463
1412266289532 24380 READING 32 0.987461
1412266289625 24380 READING 32 0.987441
1412266289723 24380 READING 32 0.987569
1412266289816 24380 READING 32 0.987503
1412266289914 24380 READING 32 0.988024
1412266290008 24380 READING 32 0.988171
1412266290102 24380 READING 32 0.987908
1412266290197 24380 READING 32 0.988279
1412266290290 24380 READING 32 0.988440
1412266290385 24380 READING 32 0.987973
1412266290479 24380 READING 32 0.988231
1412266290574 24380 READING 32 0.987795
1412266290667 24380 READING 32 0.988036
1412266290762 24380 READING 32 0.988333
1412266290855 24380 READING 32 0.987961
1412266290948 24380 READING 32 0.987642
1412266291003 24379 READING 1449 0.990221
1412266291054 24380 READING 32 0.988837
1412266291149 24380 READING 32 0.988642
1412266291243 24380 READING 32 0.987869
1412266291337 24380 READING 32 0.986934
1412266291434 24380 READING 32 0.987229
1412266291533 24380 READING 32 0.987949
1412266291627 24380 READING 32 0.988317
1412266291723 24380 READING 32 0.988330
1412266291816 24380 READING 32 0.988416
1412266291911 24380 READING 32 0.988657
1412266292004 24380 READING 32 0.988014
1412266292098 24380 READING 32 0.987647
1412266292193 24380 READING 32 0.988148
1412266292289 24380 READING 32 0.988447
1412266292382 24380 READING 32 0.987878
1412266292476 24380 READING 32 0.987765
1412266292570 24380 READING 32 0.987900
1412266292666 24380 READING 32 0.987549
1412266292760 24380 READING 32 0.987720
1412266292854 24380 READING 32 0.987615
1412266292948 24380 READING 32 0.987720
1412266293043 24380 READING 32 0.987902
1412266293135 24380 READING 32 0.987958
1412266293228 24380 READING 32 0.988336
1412266293323 24380 READING 32 0.987754
1412266293396 24379 READING 1207 0.988682
1412266293430 24380 READING 32 0.988236
1412266293525 24380 READING 32 0.988510
1412266293619 24380 READING 32 0.988414
1412266293714 24380 READING 32 0.988569
1412266293809 24380 READING 32 0.988490
1412266293903 24380 READING 32 0.988652
1412266293998 24380 READING 32 0.988286
1412266294093 24380 READING 32 0.987592
1412266294188 24380 READING 32 0.987412
1412266294281 24380 READING 32 0.987284
1412266294375 24380 READING 32 0.987788
1412266294470 24380 READING 32 0.987843
1412266294564 24380 READING 32 0.987669
1412266294659 24380 READING 32 0.987123
1412266294753 24380 READING 32 0.987535
1412266294845 24380 READING 32 0.987073
1412266294941 24380 READING 32 0.986904
1412266295033 24380 READING 32 0.987248
1412266295128 24380 READING 32 0.987494
1412266295220 24380 READING 32 0.987402
1412266295315 24380 READING 32 0.987878
1412266295406 24380 READING 32 0.987571
1412266295505 24380 READING 32 0.987671
1412266295597 24380 READING 32 0.987105
1412266295692 24380 READING 32 0.988016
1412266295785 24380 READING 32 0.987261
1412266295891 24379 READING 1416 0.987316
1412266295897 24380 READING 32 0.974584
1412266295992 24380 READING 32 0.980816
1412266296085 24380 READING 32 0.983975
1412266296180 24380 READING 32 0.985674
1412266296275 24380 READING 32 0.986814
1412266296369 24380 READING 32 0.987282
1412266296465 24380 READING 32 0.987339
1412266296558 24380 READING 32 0.987700
1412266296652 24380 READING 32 0.987769
1412266296746 24380 READING 32 0.987935
1412266296841 24380 READING 32 0.988119
1412266296936 24380 READING 32 0.987281
1412266297029 24380 READING 32 0.987747
1412266297126 24380 READING 32 0.987972
1412266297220 24380 READING 32 0.988009
1412266297314 24380 READING 32 0.988122
1412266297409 24380 READING 32 0.988291
1412266297505 24380 READING 32 0.988624
1412266297600 24380 READING 32 0.988526
1412266297695 24380 READING 32 0.988600
1412266297787 24380 READING 32 0.988268
1412266297882 24380 READING 32 0.988184
1412266297976 24380 READING 32 0.988476
1412266298070 24380 READING 32 0.988436
1412266298164 24380 READING 32 0.988611
1412266298258 24380 READING 32 0.988524
1412266298357 24379 READING 1228 0.985835
1412266298369 24380 READING 32 0.988461
1412266298406 24380 FUNCTION lru lambda h: 0.960245 * (h ** 0.00690934)
1412266298406 24379 FUNCTION lru lambda h: 0.00385315 * (h ** 0.769636)
1412266298407 24380 RECOMMEND 22
1412266298407 24379 RECOMMEND 2424
1412266298465 24380 READING 32 0.988221
1412266298560 24380 READING 32 0.988149
1412266298654 24380 READING 32 0.988269
1412266298749 24380 READING 32 0.987888
1412266298844 24380 READING 32 0.987915
1412266298938 24380 READING 32 0.987921
1412266299033 24380 READING 32 0.987566
1412266299128 24380 READING 32 0.987838
1412266299222 24380 READING 32 0.987365
1412266299316 24380 READING 32 0.987456
1412266299411 24380 READING 32 0.987510
1412266299526 24380 READING 32 0.987142
1412266299624 24380 READING 32 0.985843
1412266299650 24380 READING 32 0.973867
1412266299690 24380 READING 32 0.943421
1412266299722 24380 READING 33 0.937542
1412266299754 24380 READING 33 0.939306
1412266299786 24380 READING 33 0.940292
1412266299813 24380 READING 33 0.924763
1412266299840 24380 READING 33 0.927690
1412266299874 24380 READING 33 0.935775
1412266299909 24380 READING 33 0.933196
1412266299953 24380 READING 33 0.933894
1412266299988 24380 READING 33 0.936071
1412266300016 24380 READING 33 0.932686
1412266300045 24380 READING 33 0.929112
1412266300080 24380 READING 33 0.940632
1412266300106 24380 READING 33 0.931804
1412266300135 24380 READING 33 0.932981
1412266300170 24380 READING 33 0.943136
1412266300197 24380 READING 33 0.937664
1412266300225 24380 READING 33 0.940602
1412266300253 24380 READING 33 0.938404
1412266300283 24380 READING 33 0.940692
1412266300312 24380 READING 33 0.937174
1412266300383 24380 READING 33 0.959815
1412266300447 24380 READING 33 0.970476
1412266300543 24380 READING 33 0.980885
1412266300640 24380 READING 33 0.985220
1412266300735 24380 READING 33 0.986964
1412266300830 24380 READING 33 0.987468
1412266300918 24379 READING 1389 0.984237
1412266300939 24380 READING 33 0.988570
1412266301036 24380 READING 33 0.988657
1412266301129 24380 READING 33 0.988195
1412266301227 24380 READING 33 0.988639
1412266301317 24380 READING 33 0.988026
1412266301415 24380 READING 33 0.988705
1412266301510 24380 READING 33 0.988267
1412266301609 24380 READING 33 0.988402
1412266301701 24380 READING 33 0.987902
1412266301798 24380 READING 32 0.988539
1412266301890 24380 READING 32 0.987670
1412266301987 24380 READING 32 0.988451
1412266302080 24380 READING 32 0.987746
1412266302175 24380 READING 32 0.988308
1412266302268 24380 READING 32 0.988304
1412266302365 24380 READING 32 0.988354
1412266302457 24380 READING 32 0.988225
1412266302552 24380 READING 32 0.988440
1412266302647 24380 READING 32 0.988701
1412266302741 24380 READING 32 0.988167
1412266302837 24380 READING 32 0.988505
1412266302932 24380 READING 32 0.988739
1412266303027 24380 READING 32 0.988663
1412266303121 24380 READING 32 0.988141
1412266303216 24380 READING 32 0.988111
1412266303312 24380 READING 32 0.987856
1412266303422 24380 READING 32 0.988707
1412266303432 24379 READING 1248 0.982048
1412266303518 24380 READING 32 0.988476
1412266303613 24380 READING 32 0.988191
1412266303707 24380 READING 32 0.988095
1412266303803 24380 READING 32 0.988174
1412266303898 24380 READING 32 0.988081
1412266303993 24380 READING 32 0.988329
1412266304085 24380 READING 32 0.987858
1412266304181 24380 READING 32 0.987592
1412266304275 24380 READING 32 0.988058
1412266304372 24380 READING 32 0.988103
1412266304463 24380 READING 32 0.987719
1412266304560 24380 READING 32 0.988322
1412266304650 24380 READING 32 0.988186
1412266304747 24380 READING 32 0.988424
1412266304838 24380 READING 32 0.987983
1412266304935 24380 READING 32 0.988657
1412266305026 24380 READING 32 0.988521
1412266305122 24380 READING 32 0.988746
1412266305214 24380 READING 32 0.988618
1412266305309 24380 READING 32 0.988349
1412266305401 24380 READING 32 0.987786
1412266305493 24380 READING 32 0.988126
1412266305588 24380 READING 32 0.988440
1412266305681 24380 READING 32 0.988006
1412266305776 24380 READING 32 0.988091
1412266305868 24380 READING 32 0.987723
1412266305963 24380 READING 32 0.988292
1412266306028 24379 READING 1373 0.980520
1412266306078 24380 READING 32 0.989556
1412266306173 24380 READING 32 0.989135
1412266306264 24380 READING 32 0.987710
1412266306363 24380 READING 32 0.988410
1412266306453 24380 READING 32 0.987930
1412266306553 24380 READING 32 0.988603
1412266306645 24380 READING 32 0.988361
1412266306743 24380 READING 32 0.988265
1412266306833 24380 READING 32 0.987802
1412266306932 24380 READING 32 0.988293
1412266307021 24380 READING 32 0.987973
1412266307120 24380 READING 32 0.988116
1412266307211 24380 READING 32 0.988293
1412266307306 24380 READING 32 0.988750
1412266307400 24380 READING 32 0.988211
1412266307497 24380 READING 32 0.988264
1412266307590 24380 READING 32 0.988564
1412266307685 24380 READING 32 0.988120
1412266307776 24380 READING 32 0.988016
1412266307871 24380 READING 32 0.987827
1412266307964 24380 READING 32 0.987630
1412266308059 24380 READING 32 0.988079
1412266308155 24380 READING 32 0.988494
1412266308249 24380 READING 32 0.988007
1412266308351 24380 READING 32 0.988441
1412266308407 24380 FUNCTION lru lambda h: 0.960194 * (h ** 0.00692042)
1412266308407 24379 FUNCTION lru lambda h: 0.00317813 * (h ** 0.796967)
1412266308408 24380 RECOMMEND 21
1412266308408 24379 RECOMMEND 2425
1412266308448 24380 READING 32 0.988673
1412266308542 24380 READING 32 0.988620
1412266308629 24379 READING 1269 0.978138
1412266308659 24380 READING 32 0.989247
1412266308753 24380 READING 32 0.988885
1412266308850 24380 READING 32 0.988383
1412266308944 24380 READING 32 0.988121
1412266309038 24380 READING 32 0.988177
1412266309135 24380 READING 32 0.988093
1412266309228 24380 READING 32 0.988506
1412266309324 24380 READING 32 0.988812
1412266309415 24380 READING 32 0.988246
1412266309513 24380 READING 32 0.988311
1412266309604 24380 READING 32 0.988329
1412266309701 24380 READING 32 0.988323
1412266309792 24380 READING 32 0.987958
1412266309889 24380 READING 32 0.988415
1412266309977 24380 READING 32 0.987929
1412266310076 24380 READING 32 0.988549
1412266310165 24380 READING 32 0.988485
1412266310264 24380 READING 32 0.988914
1412266310357 24380 READING 32 0.988684
1412266310453 24380 READING 32 0.987691
1412266310543 24380 READING 32 0.988096
1412266310637 24380 READING 32 0.987896
1412266310730 24380 READING 32 0.988181
1412266310825 24380 READING 32 0.988059
1412266310919 24380 READING 32 0.987886
1412266311015 24380 READING 32 0.987951
1412266311107 24380 READING 32 0.987920
1412266311202 24380 READING 32 0.988023
1412266311288 24379 READING 1374 0.970917
1412266311324 24380 READING 32 0.989498
1412266311420 24380 READING 32 0.989397
1412266311513 24380 READING 32 0.988870
1412266311605 24380 READING 32 0.988254
1412266311699 24380 READING 32 0.988295
1412266311791 24380 READING 32 0.988335
1412266311886 24380 READING 32 0.988233
1412266311978 24380 READING 32 0.987716
1412266312075 24380 READING 32 0.988025
1412266312167 24380 READING 32 0.987392
1412266312263 24380 READING 32 0.988080
1412266312355 24380 READING 32 0.988084
1412266312452 24380 READING 32 0.988192
1412266312542 24380 READING 32 0.987377
1412266312640 24380 READING 32 0.988005
1412266312730 24380 READING 32 0.987319
1412266312830 24380 READING 32 0.988067
1412266312918 24380 READING 32 0.987737
1412266313015 24380 READING 32 0.987978
1412266313105 24380 READING 32 0.987570
1412266313200 24380 READING 32 0.987566
1412266313291 24380 READING 32 0.987445
1412266313384 24380 READING 32 0.987281
1412266313479 24380 READING 32 0.987960
1412266313573 24380 READING 32 0.987902
1412266313667 24380 READING 32 0.988194
1412266313760 24380 READING 32 0.987716
1412266313874 24380 READING 32 0.988794
1412266313904 24379 READING 1378 0.974264
1412266313970 24380 READING 32 0.988380
1412266314064 24380 READING 32 0.988392
1412266314157 24380 READING 32 0.988142
1412266314254 24380 READING 32 0.988033
1412266314352 24380 READING 32 0.987890
1412266314448 24380 READING 32 0.987971
1412266314541 24380 READING 32 0.987811
1412266314635 24380 READING 32 0.988175
1412266314729 24380 READING 32 0.988029
1412266314826 24380 READING 32 0.988094
1412266314918 24380 READING 32 0.987967
1412266315016 24380 READING 32 0.988119
1412266315108 24380 READING 32 0.987925
1412266315206 24380 READING 32 0.988029
1412266315297 24380 READING 32 0.987743
1412266315396 24380 READING 32 0.987865
1412266315486 24380 READING 32 0.987801
1412266315582 24380 READING 32 0.987670
1412266315675 24380 READING 32 0.987924
1412266315770 24380 READING 32 0.988321
1412266315864 24380 READING 32 0.988298
1412266315958 24380 READING 32 0.988157
1412266316051 24380 READING 32 0.987866
1412266316144 24380 READING 32 0.987906
1412266316240 24380 READING 32 0.987973
1412266316346 24380 READING 32 0.987213
1412266316387 24380 READING 32 0.963214
1412266316410 24380 READING 32 0.937305
1412266316445 24380 READING 32 0.937470
1412266316478 24380 READING 33 0.883785
1412266316538 24380 READING 33 0.928592
1412266316556 24379 READING 1382 0.970842
1412266316572 24380 READING 33 0.933516
1412266316595 24380 READING 33 0.929462
1412266316622 24380 READING 33 0.933529
1412266316654 24380 READING 33 0.932988
1412266316687 24380 READING 33 0.933786
1412266316724 24380 READING 33 0.938575
1412266316753 24380 READING 33 0.934856
1412266316784 24380 READING 33 0.936576
1412266316814 24380 READING 33 0.933922
1412266316848 24380 READING 33 0.942530
1412266316874 24380 READING 33 0.932450
1412266316903 24380 READING 33 0.934083
1412266316937 24380 READING 33 0.944231
1412266316963 24380 READING 33 0.937781
1412266316991 24380 READING 33 0.940140
1412266317020 24380 READING 33 0.940997
1412266317052 24380 READING 33 0.945035
1412266317078 24380 READING 33 0.934741
1412266317120 24380 READING 33 0.950638
1412266317218 24380 READING 33 0.974359
1412266317313 24380 READING 33 0.981935
1412266317408 24380 READING 33 0.985335
1412266317502 24380 READING 33 0.986642
1412266317598 24380 READING 33 0.987568
1412266317691 24380 READING 33 0.987481
1412266317788 24380 READING 33 0.988382
1412266317879 24380 READING 33 0.987907
1412266317976 24380 READING 33 0.988140
1412266318067 24380 READING 33 0.987753
1412266318165 24380 READING 33 0.988109
1412266318256 24380 READING 33 0.988066
1412266318353 24380 READING 33 0.988092
1412266318409 24380 FUNCTION lru lambda h: 0.953193 * (h ** 0.00846744)
1412266318409 24379 FUNCTION lru lambda h: 0.0042245 * (h ** 0.756525)
1412266318409 24380 RECOMMEND 27
1412266318409 24379 RECOMMEND 2419
1412266318447 24380 READING 33 0.988270
1412266318544 24380 READING 33 0.988608
1412266318637 24380 READING 33 0.987764
1412266318732 24380 READING 32 0.987408
1412266318826 24380 READING 32 0.987630
1412266318918 24380 READING 32 0.988140
1412266319013 24380 READING 32 0.988170
1412266319126 24380 READING 32 0.989033
1412266319168 24379 READING 1383 0.971360
1412266319227 24380 READING 32 0.988570
1412266319321 24380 READING 32 0.987990
1412266319415 24380 READING 32 0.988146
1412266319508 24380 READING 32 0.987992
1412266319603 24380 READING 32 0.987834
1412266319695 24380 READING 32 0.987634
1412266319793 24380 READING 32 0.987769
1412266319884 24380 READING 32 0.987791
1412266319982 24380 READING 32 0.988562
1412266320073 24380 READING 32 0.987874
1412266320172 24380 READING 32 0.988300
1412266320262 24380 READING 32 0.987475
1412266320361 24380 READING 32 0.988193
1412266320451 24380 READING 32 0.988201
1412266320550 24380 READING 32 0.988211
1412266320639 24380 READING 32 0.987605
1412266320739 24380 READING 32 0.988541
1412266320827 24380 READING 32 0.987509
1412266320927 24380 READING 32 0.987735
1412266321017 24380 READING 32 0.988068
1412266321115 24380 READING 32 0.988540
1412266321206 24380 READING 32 0.987892
1412266321301 24380 READING 32 0.988034
1412266321393 24380 READING 32 0.987417
1412266321488 24380 READING 32 0.988087
1412266321579 24380 READING 32 0.987526
1412266321674 24380 READING 32 0.987609
1412266321768 24380 READING 32 0.987950
1412266321876 24380 READING 32 0.986528
1412266321932 24379 READING 1389 0.970282
1412266321979 24380 READING 32 0.988134
1412266322073 24380 READING 32 0.988240
1412266322168 24380 READING 32 0.988511
1412266322261 24380 READING 32 0.988448
1412266322357 24380 READING 32 0.988181
1412266322449 24380 READING 32 0.987581
1412266322546 24380 READING 32 0.988292
1412266322638 24380 READING 32 0.988303
1412266322733 24380 READING 32 0.988422
1412266322826 24380 READING 32 0.988458
1412266322921 24380 READING 32 0.988236
1412266323014 24380 READING 32 0.988024
1412266323112 24380 READING 32 0.988155
1412266323204 24380 READING 32 0.988102
1412266323299 24380 READING 32 0.988262
1412266323391 24380 READING 32 0.988073
1412266323488 24380 READING 32 0.988212
1412266323579 24380 READING 32 0.988385
1412266323674 24380 READING 32 0.988347
1412266323768 24380 READING 32 0.988729
1412266323862 24380 READING 32 0.988513
1412266323956 24380 READING 32 0.987748
1412266324051 24380 READING 32 0.988352
1412266324146 24380 READING 32 0.988330
1412266324242 24380 READING 32 0.988612
1412266324335 24380 READING 32 0.988580
1412266324432 24380 READING 32 0.988330
1412266324548 24379 READING 1393 0.969054
1412266324549 24380 READING 32 0.989246
1412266324644 24380 READING 32 0.988547
1412266324739 24380 READING 32 0.988307
1412266324833 24380 READING 32 0.987077
1412266324928 24380 READING 32 0.987275
1412266325022 24380 READING 32 0.986803
1412266325124 24380 READING 32 0.987624
1412266325218 24380 READING 32 0.986675
1412266325314 24380 READING 32 0.987802
1412266325407 24380 READING 32 0.988037
1412266325504 24380 READING 32 0.988015
1412266325599 24380 READING 32 0.987952
1412266325693 24380 READING 32 0.987734
1412266325786 24380 READING 32 0.987727
1412266325885 24380 READING 32 0.988051
1412266325978 24380 READING 32 0.987899
1412266326074 24380 READING 32 0.988397
1412266326168 24380 READING 32 0.988073
1412266326262 24380 READING 32 0.987175
1412266326356 24380 READING 32 0.987432
1412266326451 24380 READING 32 0.987727
1412266326544 24380 READING 32 0.987558
1412266326639 24380 READING 32 0.987759
1412266326732 24380 READING 32 0.987391
1412266326828 24380 READING 32 0.988180
1412266326920 24380 READING 32 0.987908
1412266327016 24380 READING 32 0.988085
1412266327107 24380 READING 32 0.987811
1412266327203 24380 READING 32 0.987919
1412266327316 24380 READING 32 0.988569
1412266327338 24379 READING 1401 0.966120
1412266327414 24380 READING 32 0.988675
1412266327508 24380 READING 32 0.988504
1412266327603 24380 READING 32 0.988261
1412266327696 24380 READING 32 0.988377
1412266327791 24380 READING 32 0.988031
1412266327885 24380 READING 32 0.987925
1412266327980 24380 READING 32 0.988186
1412266328074 24380 READING 32 0.988288
1412266328169 24380 READING 32 0.988280
1412266328262 24380 READING 32 0.988115
1412266328357 24380 READING 32 0.987958
1412266328409 24380 FUNCTION lru lambda h: 0.960149 * (h ** 0.00693031)
1412266328409 24379 FUNCTION lru lambda h: 0.00433209 * (h ** 0.75272)
1412266328410 24380 RECOMMEND 22
1412266328410 24379 RECOMMEND 2424
1412266328451 24380 READING 32 0.987809
1412266328545 24380 READING 32 0.987617
1412266328641 24380 READING 32 0.988131
1412266328734 24380 READING 32 0.987812
1412266328829 24380 READING 32 0.987595
1412266328922 24380 READING 32 0.988077
1412266329017 24380 READING 32 0.988085
1412266329112 24380 READING 32 0.988553
1412266329208 24380 READING 32 0.988238
1412266329303 24380 READING 32 0.988078
1412266329396 24380 READING 32 0.988180
1412266329490 24380 READING 32 0.988061
1412266329583 24380 READING 32 0.988000
1412266329676 24380 READING 32 0.988025
1412266329773 24380 READING 32 0.987907
1412266329864 24380 READING 32 0.987731
1412266329974 24380 READING 32 0.988487
1412266330014 24379 READING 1408 0.961768
1412266330073 24380 READING 32 0.988204
1412266330168 24380 READING 32 0.988113
1412266330258 24380 READING 32 0.987993
1412266330354 24380 READING 32 0.988506
1412266330516 24380 READING 32 0.985333
1412266330613 24380 READING 34 0.987680
1412266330706 24380 READING 34 0.987987
1412266330802 24380 READING 34 0.988308
1412266330896 24380 READING 34 0.987948
1412266330990 24380 READING 34 0.987957
1412266331083 24380 READING 34 0.987821
1412266331177 24380 READING 34 0.987883
1412266331278 24380 READING 34 0.988819
1412266331371 24380 READING 34 0.988596
1412266331465 24380 READING 34 0.988497
1412266331558 24380 READING 34 0.988258
1412266331652 24380 READING 34 0.988002
1412266331746 24380 READING 34 0.987518
1412266331840 24380 READING 34 0.987416
1412266331934 24380 READING 34 0.984874
1412266332029 24380 READING 34 0.986742
1412266332124 24380 READING 34 0.987632
1412266332220 24380 READING 34 0.987730
1412266332312 24380 READING 34 0.988092
1412266332407 24380 READING 34 0.988358
1412266332502 24380 READING 34 0.988336
1412266332600 24380 READING 34 0.988497
1412266332705 24380 READING 34 0.986127
1412266332780 24379 READING 1418 0.962813
1412266332807 24380 READING 34 0.987583
1412266332899 24380 READING 34 0.987001
1412266332995 24380 READING 34 0.987377
1412266333087 24380 READING 34 0.987019
1412266333197 24380 READING 34 0.988130
1412266333237 24380 READING 34 0.962336
1412266333265 24380 READING 34 0.933451
1412266333298 24380 READING 34 0.928048
1412266333327 24380 READING 34 0.924333
1412266333358 24380 READING 34 0.932248
1412266333385 24380 READING 34 0.926291
1412266333411 24380 READING 34 0.929291
1412266333438 24380 READING 34 0.929901
1412266333470 24380 READING 34 0.936065
1412266333504 24380 READING 34 0.934391
1412266333542 24380 READING 34 0.940620
1412266333574 24380 READING 34 0.936789
1412266333600 24380 READING 34 0.929938
1412266333625 24380 READING 34 0.921261
1412266333664 24380 READING 34 0.938911
1412266333690 24380 READING 34 0.931655
1412266333716 24380 READING 34 0.931168
1412266333752 24380 READING 34 0.942996
1412266333778 24380 READING 34 0.935235
1412266333804 24380 READING 34 0.940380
1412266333832 24380 READING 34 0.937418
1412266333862 24380 READING 34 0.942307
1412266333889 24380 READING 34 0.932755
1412266333928 24380 READING 34 0.946586
1412266334023 24380 READING 34 0.972205
1412266334119 24380 READING 34 0.981267
1412266334211 24380 READING 34 0.984321
1412266334307 24380 READING 34 0.986667
1412266334401 24380 READING 34 0.986619
1412266334497 24380 READING 34 0.986807
1412266334592 24380 READING 34 0.987500
1412266334686 24380 READING 34 0.987423
1412266334780 24380 READING 34 0.987821
1412266334872 24380 READING 34 0.988023
1412266334967 24380 READING 34 0.988097
1412266335060 24380 READING 34 0.988127
1412266335157 24380 READING 34 0.988730
1412266335250 24380 READING 34 0.988223
1412266335348 24380 READING 34 0.988179
1412266335458 24380 READING 34 0.988403
1412266335490 24379 READING 1422 0.962944
1412266335560 24380 READING 34 0.988910
1412266335651 24380 READING 34 0.988454
1412266335749 24380 READING 34 0.988695
1412266335840 24380 READING 34 0.987539
1412266335938 24380 READING 34 0.988282
1412266336030 24380 READING 34 0.988519
1412266336126 24380 READING 34 0.988638
1412266336219 24380 READING 34 0.988312
1412266336314 24380 READING 34 0.987992
1412266336409 24380 READING 34 0.988084
1412266336505 24380 READING 34 0.988372
1412266336601 24380 READING 34 0.988396
1412266336695 24380 READING 34 0.987979
1412266336790 24380 READING 34 0.988109
1412266336884 24380 READING 34 0.987890
1412266336981 24380 READING 34 0.987307
1412266337075 24380 READING 34 0.987247
1412266337172 24380 READING 34 0.988022
1412266337265 24380 READING 34 0.988136
1412266337360 24380 READING 34 0.988361
1412266337454 24380 READING 34 0.987987
1412266337548 24380 READING 34 0.988302
1412266337642 24380 READING 34 0.987682
1412266337736 24380 READING 34 0.987998
1412266337832 24380 READING 34 0.987775
1412266337931 24380 READING 34 0.987873
1412266338025 24380 READING 34 0.988145
1412266338119 24380 READING 34 0.987876
1412266338213 24380 READING 34 0.987666
1412266338324 24380 READING 34 0.988680
1412266338388 24379 READING 1434 0.963633
1412266338410 24380 FUNCTION lru lambda h: 0.966213 * (h ** 0.00560474)
1412266338410 24379 FUNCTION lru lambda h: 0.00634443 * (h ** 0.698489)
1412266338411 24380 RECOMMEND 19
1412266338411 24379 RECOMMEND 2427
1412266338423 24380 READING 34 0.988650
1412266338516 24380 READING 33 0.987956
1412266338607 24380 READING 33 0.987907
1412266338700 24380 READING 33 0.987950
1412266338791 24380 READING 33 0.987811
1412266338882 24380 READING 33 0.987796
1412266338970 24380 READING 33 0.987930
1412266339062 24380 READING 33 0.988030
1412266339152 24380 READING 33 0.987768
1412266339241 24380 READING 33 0.987580
1412266339334 24380 READING 33 0.987345
1412266339428 24380 READING 33 0.987886
1412266339519 24380 READING 33 0.987524
1412266339610 24380 READING 33 0.987382
1412266339699 24380 READING 33 0.987096
1412266339792 24380 READING 33 0.987518
1412266339883 24380 READING 33 0.987855
1412266339974 24380 READING 33 0.987581
1412266340063 24380 READING 33 0.987112
1412266340156 24380 READING 33 0.987713
1412266340246 24380 READING 33 0.986817
1412266340336 24380 READING 33 0.987122
1412266340432 24380 READING 33 0.987832
1412266340521 24380 READING 33 0.987328
1412266340612 24380 READING 33 0.987359
1412266340702 24380 READING 33 0.987288
1412266340795 24380 READING 33 0.986682
1412266340887 24380 READING 33 0.986898
1412266340976 24380 READING 33 0.987661
1412266341069 24380 READING 33 0.987770
1412266341178 24380 READING 33 0.988098
1412266341237 24379 READING 1435 0.963753
1412266341276 24380 READING 33 0.988578
1412266341367 24380 READING 33 0.988071
1412266341455 24380 READING 33 0.987795
1412266341545 24380 READING 33 0.988191
1412266341634 24380 READING 33 0.987400
1412266341725 24380 READING 33 0.987806
1412266341816 24380 READING 33 0.987365
1412266341908 24380 READING 33 0.987575
1412266342004 24380 READING 33 0.987527
1412266342092 24380 READING 33 0.987610
1412266342185 24380 READING 33 0.987629
1412266342275 24380 READING 33 0.987986
1412266342368 24380 READING 33 0.987706
1412266342456 24380 READING 33 0.987626
1412266342550 24380 READING 33 0.987695
1412266342638 24380 READING 33 0.986966
1412266342734 24380 READING 33 0.987554
1412266342823 24380 READING 33 0.987000
1412266342914 24380 READING 33 0.987651
1412266343005 24380 READING 33 0.987529
1412266343097 24380 READING 33 0.988017
1412266343188 24380 READING 33 0.987125
1412266343276 24380 READING 33 0.987410
1412266343369 24380 READING 33 0.987226
1412266343457 24380 READING 33 0.986934
1412266343550 24380 READING 33 0.987192
1412266343639 24380 READING 33 0.987590
1412266343733 24380 READING 33 0.987991
1412266343822 24380 READING 33 0.986550
1412266343917 24380 READING 33 0.987016
1412266344007 24380 READING 33 0.986814
1412266344101 24380 READING 33 0.986646
1412266344193 24379 READING 1447 0.965737
1412266344211 24380 READING 33 0.988346
1412266344302 24380 READING 33 0.987813
1412266344394 24380 READING 33 0.987820
1412266344483 24380 READING 33 0.987653
1412266344575 24380 READING 33 0.988009
1412266344662 24380 READING 33 0.987122
1412266344756 24380 READING 33 0.987508
1412266344845 24380 READING 33 0.987209
1412266344937 24380 READING 33 0.986818
1412266345025 24380 READING 33 0.986720
1412266345118 24380 READING 33 0.986784
1412266345205 24380 READING 33 0.986599
1412266345296 24380 READING 33 0.986739
1412266345387 24380 READING 33 0.986943
1412266345479 24380 READING 33 0.987367
1412266345570 24380 READING 33 0.987409
1412266345659 24380 READING 33 0.987275
1412266345751 24380 READING 33 0.987760
1412266345842 24380 READING 33 0.987793
1412266345936 24380 READING 33 0.987477
1412266346028 24380 READING 33 0.987783
1412266346122 24380 READING 33 0.987640
1412266346209 24380 READING 33 0.986348
1412266346301 24380 READING 33 0.987077
1412266346388 24380 READING 33 0.987371
1412266346480 24380 READING 33 0.987738
1412266346569 24380 READING 33 0.987857
1412266346663 24380 READING 33 0.987666
1412266346753 24380 READING 33 0.987503
1412266346845 24380 READING 33 0.987776
1412266346936 24380 READING 33 0.987779
1412266347024 24380 READING 33 0.987937
1412266347131 24379 READING 1447 0.965358
1412266347141 24380 READING 33 0.988954
1412266347232 24380 READING 33 0.987794
1412266347324 24380 READING 33 0.988027
1412266347408 24380 READING 33 0.987340
1412266347501 24380 READING 33 0.987509
1412266347588 24380 READING 33 0.987412
1412266347683 24380 READING 33 0.987736
1412266347767 24380 READING 33 0.986632
1412266347860 24380 READING 33 0.986869
1412266347956 24380 READING 33 0.987621
1412266348050 24380 READING 33 0.987852
1412266348139 24380 READING 33 0.987917
1412266348232 24380 READING 33 0.988203
1412266348321 24380 READING 33 0.988053
1412266348409 24380 READING 33 0.987855
1412266348411 24380 FUNCTION lru lambda h: 0.966223 * (h ** 0.00560269)
1412266348411 24379 FUNCTION lru lambda h: 0.00639432 * (h ** 0.697345)
1412266348412 24380 RECOMMEND 19
1412266348412 24379 RECOMMEND 2427
1412266348500 24380 READING 33 0.988078
1412266348591 24380 READING 33 0.987413
1412266348681 24380 READING 33 0.987141
1412266348768 24380 READING 33 0.986913
1412266348861 24380 READING 33 0.987227
1412266348949 24380 READING 33 0.987072
1412266349042 24380 READING 33 0.987053
1412266349127 24380 READING 33 0.986294
1412266349223 24380 READING 33 0.987047
1412266349310 24380 READING 33 0.987328
1412266349403 24380 READING 33 0.987790
1412266349492 24380 READING 33 0.987370
1412266349584 24380 READING 33 0.987609
1412266349673 24380 READING 33 0.987048
1412266349765 24380 READING 33 0.987305
1412266349862 24380 READING 33 0.986730
1412266351118 24379 READING 1457 0.965966
1412266352409 24380 DEATH 1612
1412266353832 24379 READING 1559 0.979018
1412266356673 24379 READING 1563 0.985160
1412266358412 24379 FUNCTION lru lambda h: 0.00371207 * (h ** 0.773022)
1412266358412 24379 RECOMMEND 2446
1412266359536 24379 READING 1570 0.987139
1412266362459 24379 READING 1574 0.987283
1412266365357 24379 READING 1578 0.986249
1412266368412 24379 FUNCTION lru lambda h: 0.00634402 * (h ** 0.697439)
1412266368412 24379 RECOMMEND 2446
1412266378412 24379 FUNCTION lru lambda h: 0.00634402 * (h ** 0.697439)
1412266378412 24379 RECOMMEND 2446
1412266379701 24379 READING 1564 0.991357
1412266388412 24379 FUNCTION lru lambda h: 0.00936433 * (h ** 0.64292)
1412266388412 24379 RECOMMEND 2446
1412266394134 24379 READING 1573 0.992631
1412266395035 24379 READING 1580 0.988313
1412266395541 24379 READING 1594 0.974723
1412266395841 24379 READING 1538 0.955065
1412266396147 24379 READING 1535 0.924584
1412266396437 24379 READING 1564 0.882366
1412266396727 24379 READING 1564 0.836212
1412266397022 24379 READING 1564 0.798557
1412266397309 24379 READING 1564 0.801100
1412266397344 24379 DEATH 218
