===== DaCapo 9.12 avrora starting warmup 1 =====
===== DaCapo 9.12 avrora completed warmup 1 in 21209 msec =====
===== DaCapo 9.12 avrora starting warmup 2 =====
===== DaCapo 9.12 avrora completed warmup 2 in 19047 msec =====
===== DaCapo 9.12 avrora starting warmup 3 =====
===== DaCapo 9.12 avrora completed warmup 3 in 19147 msec =====
===== DaCapo 9.12 avrora starting warmup 4 =====
===== DaCapo 9.12 avrora completed warmup 4 in 19303 msec =====
===== DaCapo 9.12 avrora starting warmup 5 =====
===== DaCapo 9.12 avrora completed warmup 5 in 19259 msec =====
===== DaCapo 9.12 avrora starting warmup 6 =====
===== DaCapo 9.12 avrora completed warmup 6 in 19526 msec =====
===== DaCapo 9.12 avrora starting warmup 7 =====
===== DaCapo 9.12 avrora completed warmup 7 in 18584 msec =====
===== DaCapo 9.12 avrora starting warmup 8 =====
===== DaCapo 9.12 avrora completed warmup 8 in 18433 msec =====
===== DaCapo 9.12 avrora starting warmup 9 =====
===== DaCapo 9.12 avrora completed warmup 9 in 19048 msec =====
===== DaCapo 9.12 avrora starting warmup 10 =====
===== DaCapo 9.12 avrora completed warmup 10 in 19049 msec =====
===== DaCapo 9.12 avrora starting warmup 11 =====
===== DaCapo 9.12 avrora completed warmup 11 in 18423 msec =====
===== DaCapo 9.12 avrora starting warmup 12 =====
===== DaCapo 9.12 avrora completed warmup 12 in 19231 msec =====
===== DaCapo 9.12 avrora starting warmup 13 =====
===== DaCapo 9.12 avrora completed warmup 13 in 18981 msec =====
===== DaCapo 9.12 avrora starting warmup 14 =====
===== DaCapo 9.12 avrora completed warmup 14 in 18654 msec =====
===== DaCapo 9.12 avrora starting warmup 15 =====
===== DaCapo 9.12 avrora completed warmup 15 in 18400 msec =====
===== DaCapo 9.12 avrora starting warmup 16 =====
===== DaCapo 9.12 avrora completed warmup 16 in 18719 msec =====
===== DaCapo 9.12 avrora starting warmup 17 =====
===== DaCapo 9.12 avrora completed warmup 17 in 18836 msec =====
===== DaCapo 9.12 avrora starting warmup 18 =====
===== DaCapo 9.12 avrora completed warmup 18 in 18975 msec =====
===== DaCapo 9.12 avrora starting warmup 19 =====
===== DaCapo 9.12 avrora completed warmup 19 in 19060 msec =====
===== DaCapo 9.12 avrora starting warmup 20 =====
===== DaCapo 9.12 avrora completed warmup 20 in 19241 msec =====
===== DaCapo 9.12 avrora starting warmup 21 =====
===== DaCapo 9.12 avrora completed warmup 21 in 18999 msec =====
===== DaCapo 9.12 avrora starting warmup 22 =====
===== DaCapo 9.12 avrora completed warmup 22 in 19101 msec =====
===== DaCapo 9.12 avrora starting warmup 23 =====
===== DaCapo 9.12 avrora completed warmup 23 in 19272 msec =====
===== DaCapo 9.12 avrora starting warmup 24 =====
===== DaCapo 9.12 avrora completed warmup 24 in 18401 msec =====
===== DaCapo 9.12 avrora starting warmup 25 =====
===== DaCapo 9.12 avrora completed warmup 25 in 18788 msec =====
===== DaCapo 9.12 avrora starting warmup 26 =====
===== DaCapo 9.12 avrora completed warmup 26 in 18845 msec =====
===== DaCapo 9.12 avrora starting warmup 27 =====
===== DaCapo 9.12 avrora completed warmup 27 in 19498 msec =====
===== DaCapo 9.12 avrora starting warmup 28 =====
===== DaCapo 9.12 avrora completed warmup 28 in 18052 msec =====
===== DaCapo 9.12 avrora starting warmup 29 =====
===== DaCapo 9.12 avrora completed warmup 29 in 18498 msec =====
===== DaCapo 9.12 avrora starting warmup 30 =====
===== DaCapo 9.12 avrora completed warmup 30 in 19634 msec =====
===== DaCapo 9.12 avrora starting warmup 31 =====
===== DaCapo 9.12 avrora completed warmup 31 in 17714 msec =====
===== DaCapo 9.12 avrora starting warmup 32 =====
===== DaCapo 9.12 avrora completed warmup 32 in 18605 msec =====
===== DaCapo 9.12 avrora starting warmup 33 =====
===== DaCapo 9.12 avrora completed warmup 33 in 18478 msec =====
===== DaCapo 9.12 avrora starting warmup 34 =====
===== DaCapo 9.12 avrora completed warmup 34 in 18417 msec =====
===== DaCapo 9.12 avrora starting warmup 35 =====
===== DaCapo 9.12 avrora completed warmup 35 in 18773 msec =====
===== DaCapo 9.12 avrora starting warmup 36 =====
===== DaCapo 9.12 avrora completed warmup 36 in 18751 msec =====
===== DaCapo 9.12 avrora starting warmup 37 =====
===== DaCapo 9.12 avrora completed warmup 37 in 18892 msec =====
===== DaCapo 9.12 avrora starting warmup 38 =====
===== DaCapo 9.12 avrora completed warmup 38 in 18896 msec =====
===== DaCapo 9.12 avrora starting warmup 39 =====
===== DaCapo 9.12 avrora completed warmup 39 in 18110 msec =====
===== DaCapo 9.12 avrora starting warmup 40 =====
===== DaCapo 9.12 avrora completed warmup 40 in 19043 msec =====
===== DaCapo 9.12 avrora starting warmup 41 =====
===== DaCapo 9.12 avrora completed warmup 41 in 18832 msec =====
===== DaCapo 9.12 avrora starting warmup 42 =====
===== DaCapo 9.12 avrora completed warmup 42 in 19371 msec =====
===== DaCapo 9.12 avrora starting warmup 43 =====
===== DaCapo 9.12 avrora completed warmup 43 in 18732 msec =====
===== DaCapo 9.12 avrora starting warmup 44 =====
===== DaCapo 9.12 avrora completed warmup 44 in 18853 msec =====
===== DaCapo 9.12 avrora starting warmup 45 =====
===== DaCapo 9.12 avrora completed warmup 45 in 19567 msec =====
===== DaCapo 9.12 avrora starting warmup 46 =====
===== DaCapo 9.12 avrora completed warmup 46 in 18524 msec =====
===== DaCapo 9.12 avrora starting warmup 47 =====
===== DaCapo 9.12 avrora completed warmup 47 in 18365 msec =====
===== DaCapo 9.12 avrora starting warmup 48 =====
===== DaCapo 9.12 avrora completed warmup 48 in 19289 msec =====
===== DaCapo 9.12 avrora starting warmup 49 =====
===== DaCapo 9.12 avrora completed warmup 49 in 18454 msec =====
===== DaCapo 9.12 avrora starting warmup 50 =====
===== DaCapo 9.12 avrora completed warmup 50 in 19236 msec =====
===== DaCapo 9.12 avrora starting warmup 51 =====
===== DaCapo 9.12 avrora completed warmup 51 in 18966 msec =====
===== DaCapo 9.12 avrora starting warmup 52 =====
===== DaCapo 9.12 avrora completed warmup 52 in 19236 msec =====
===== DaCapo 9.12 avrora starting warmup 53 =====
===== DaCapo 9.12 avrora completed warmup 53 in 18993 msec =====
===== DaCapo 9.12 avrora starting warmup 54 =====
===== DaCapo 9.12 avrora completed warmup 54 in 18899 msec =====
===== DaCapo 9.12 avrora starting warmup 55 =====
===== DaCapo 9.12 avrora completed warmup 55 in 19157 msec =====
===== DaCapo 9.12 avrora starting warmup 56 =====
===== DaCapo 9.12 avrora completed warmup 56 in 18958 msec =====
===== DaCapo 9.12 avrora starting warmup 57 =====
===== DaCapo 9.12 avrora completed warmup 57 in 18618 msec =====
===== DaCapo 9.12 avrora starting warmup 58 =====
===== DaCapo 9.12 avrora completed warmup 58 in 19014 msec =====
===== DaCapo 9.12 avrora starting warmup 59 =====
===== DaCapo 9.12 avrora completed warmup 59 in 18857 msec =====
===== DaCapo 9.12 avrora starting warmup 60 =====
===== DaCapo 9.12 avrora completed warmup 60 in 18547 msec =====
===== DaCapo 9.12 avrora starting warmup 61 =====
===== DaCapo 9.12 avrora completed warmup 61 in 18869 msec =====
===== DaCapo 9.12 avrora starting warmup 62 =====
===== DaCapo 9.12 avrora completed warmup 62 in 18470 msec =====
===== DaCapo 9.12 avrora starting warmup 63 =====
===== DaCapo 9.12 avrora completed warmup 63 in 19341 msec =====
===== DaCapo 9.12 avrora starting warmup 64 =====
