===== DaCapo 9.12 avrora starting warmup 1 =====
===== DaCapo 9.12 avrora completed warmup 1 in 20717 msec =====
===== DaCapo 9.12 avrora starting warmup 2 =====
===== DaCapo 9.12 avrora completed warmup 2 in 19108 msec =====
===== DaCapo 9.12 avrora starting warmup 3 =====
===== DaCapo 9.12 avrora completed warmup 3 in 19086 msec =====
===== DaCapo 9.12 avrora starting warmup 4 =====
===== DaCapo 9.12 avrora completed warmup 4 in 18584 msec =====
===== DaCapo 9.12 avrora starting warmup 5 =====
===== DaCapo 9.12 avrora completed warmup 5 in 18323 msec =====
===== DaCapo 9.12 avrora starting warmup 6 =====
===== DaCapo 9.12 avrora completed warmup 6 in 18698 msec =====
===== DaCapo 9.12 avrora starting warmup 7 =====
===== DaCapo 9.12 avrora completed warmup 7 in 19077 msec =====
===== DaCapo 9.12 avrora starting warmup 8 =====
===== DaCapo 9.12 avrora completed warmup 8 in 18699 msec =====
===== DaCapo 9.12 avrora starting warmup 9 =====
===== DaCapo 9.12 avrora completed warmup 9 in 18532 msec =====
===== DaCapo 9.12 avrora starting warmup 10 =====
===== DaCapo 9.12 avrora completed warmup 10 in 18764 msec =====
===== DaCapo 9.12 avrora starting warmup 11 =====
===== DaCapo 9.12 avrora completed warmup 11 in 18998 msec =====
===== DaCapo 9.12 avrora starting warmup 12 =====
===== DaCapo 9.12 avrora completed warmup 12 in 18896 msec =====
===== DaCapo 9.12 avrora starting warmup 13 =====
===== DaCapo 9.12 avrora completed warmup 13 in 18777 msec =====
===== DaCapo 9.12 avrora starting warmup 14 =====
===== DaCapo 9.12 avrora completed warmup 14 in 18688 msec =====
===== DaCapo 9.12 avrora starting warmup 15 =====
===== DaCapo 9.12 avrora completed warmup 15 in 18419 msec =====
===== DaCapo 9.12 avrora starting warmup 16 =====
===== DaCapo 9.12 avrora completed warmup 16 in 18638 msec =====
===== DaCapo 9.12 avrora starting warmup 17 =====
===== DaCapo 9.12 avrora completed warmup 17 in 19015 msec =====
===== DaCapo 9.12 avrora starting warmup 18 =====
===== DaCapo 9.12 avrora completed warmup 18 in 18635 msec =====
===== DaCapo 9.12 avrora starting warmup 19 =====
===== DaCapo 9.12 avrora completed warmup 19 in 18479 msec =====
===== DaCapo 9.12 avrora starting warmup 20 =====
===== DaCapo 9.12 avrora completed warmup 20 in 18414 msec =====
===== DaCapo 9.12 avrora starting warmup 21 =====
===== DaCapo 9.12 avrora completed warmup 21 in 18525 msec =====
===== DaCapo 9.12 avrora starting warmup 22 =====
===== DaCapo 9.12 avrora completed warmup 22 in 18896 msec =====
===== DaCapo 9.12 avrora starting warmup 23 =====
===== DaCapo 9.12 avrora completed warmup 23 in 18502 msec =====
===== DaCapo 9.12 avrora starting warmup 24 =====
===== DaCapo 9.12 avrora completed warmup 24 in 18929 msec =====
===== DaCapo 9.12 avrora starting warmup 25 =====
===== DaCapo 9.12 avrora completed warmup 25 in 18522 msec =====
===== DaCapo 9.12 avrora starting warmup 26 =====
===== DaCapo 9.12 avrora completed warmup 26 in 18927 msec =====
===== DaCapo 9.12 avrora starting warmup 27 =====
===== DaCapo 9.12 avrora completed warmup 27 in 18751 msec =====
===== DaCapo 9.12 avrora starting warmup 28 =====
===== DaCapo 9.12 avrora completed warmup 28 in 18515 msec =====
===== DaCapo 9.12 avrora starting warmup 29 =====
===== DaCapo 9.12 avrora completed warmup 29 in 19053 msec =====
===== DaCapo 9.12 avrora starting warmup 30 =====
===== DaCapo 9.12 avrora completed warmup 30 in 18741 msec =====
===== DaCapo 9.12 avrora starting warmup 31 =====
===== DaCapo 9.12 avrora completed warmup 31 in 18342 msec =====
===== DaCapo 9.12 avrora starting warmup 32 =====
===== DaCapo 9.12 avrora completed warmup 32 in 18637 msec =====
===== DaCapo 9.12 avrora starting warmup 33 =====
===== DaCapo 9.12 avrora completed warmup 33 in 19219 msec =====
===== DaCapo 9.12 avrora starting warmup 34 =====
===== DaCapo 9.12 avrora completed warmup 34 in 18989 msec =====
===== DaCapo 9.12 avrora starting warmup 35 =====
===== DaCapo 9.12 avrora completed warmup 35 in 18917 msec =====
===== DaCapo 9.12 avrora starting warmup 36 =====
===== DaCapo 9.12 avrora completed warmup 36 in 18960 msec =====
===== DaCapo 9.12 avrora starting warmup 37 =====
===== DaCapo 9.12 avrora completed warmup 37 in 18686 msec =====
===== DaCapo 9.12 avrora starting warmup 38 =====
===== DaCapo 9.12 avrora completed warmup 38 in 18592 msec =====
===== DaCapo 9.12 avrora starting warmup 39 =====
===== DaCapo 9.12 avrora completed warmup 39 in 19270 msec =====
===== DaCapo 9.12 avrora starting warmup 40 =====
===== DaCapo 9.12 avrora completed warmup 40 in 18591 msec =====
===== DaCapo 9.12 avrora starting warmup 41 =====
===== DaCapo 9.12 avrora completed warmup 41 in 18737 msec =====
===== DaCapo 9.12 avrora starting warmup 42 =====
===== DaCapo 9.12 avrora completed warmup 42 in 18652 msec =====
===== DaCapo 9.12 avrora starting warmup 43 =====
===== DaCapo 9.12 avrora completed warmup 43 in 18930 msec =====
===== DaCapo 9.12 avrora starting warmup 44 =====
===== DaCapo 9.12 avrora completed warmup 44 in 19143 msec =====
===== DaCapo 9.12 avrora starting warmup 45 =====
===== DaCapo 9.12 avrora completed warmup 45 in 18672 msec =====
===== DaCapo 9.12 avrora starting warmup 46 =====
===== DaCapo 9.12 avrora completed warmup 46 in 19460 msec =====
===== DaCapo 9.12 avrora starting warmup 47 =====
===== DaCapo 9.12 avrora completed warmup 47 in 18721 msec =====
===== DaCapo 9.12 avrora starting warmup 48 =====
===== DaCapo 9.12 avrora completed warmup 48 in 18746 msec =====
===== DaCapo 9.12 avrora starting warmup 49 =====
===== DaCapo 9.12 avrora completed warmup 49 in 18215 msec =====
===== DaCapo 9.12 avrora starting warmup 50 =====
===== DaCapo 9.12 avrora completed warmup 50 in 18198 msec =====
===== DaCapo 9.12 avrora starting warmup 51 =====
===== DaCapo 9.12 avrora completed warmup 51 in 18768 msec =====
===== DaCapo 9.12 avrora starting warmup 52 =====
===== DaCapo 9.12 avrora completed warmup 52 in 18318 msec =====
===== DaCapo 9.12 avrora starting warmup 53 =====
===== DaCapo 9.12 avrora completed warmup 53 in 18504 msec =====
===== DaCapo 9.12 avrora starting warmup 54 =====
===== DaCapo 9.12 avrora completed warmup 54 in 18830 msec =====
===== DaCapo 9.12 avrora starting warmup 55 =====
===== DaCapo 9.12 avrora completed warmup 55 in 18826 msec =====
===== DaCapo 9.12 avrora starting warmup 56 =====
===== DaCapo 9.12 avrora completed warmup 56 in 18420 msec =====
===== DaCapo 9.12 avrora starting warmup 57 =====
===== DaCapo 9.12 avrora completed warmup 57 in 18848 msec =====
===== DaCapo 9.12 avrora starting warmup 58 =====
===== DaCapo 9.12 avrora completed warmup 58 in 18715 msec =====
===== DaCapo 9.12 avrora starting warmup 59 =====
===== DaCapo 9.12 avrora completed warmup 59 in 18835 msec =====
===== DaCapo 9.12 avrora starting warmup 60 =====
===== DaCapo 9.12 avrora completed warmup 60 in 18624 msec =====
===== DaCapo 9.12 avrora starting warmup 61 =====
===== DaCapo 9.12 avrora completed warmup 61 in 18705 msec =====
===== DaCapo 9.12 avrora starting warmup 62 =====
===== DaCapo 9.12 avrora completed warmup 62 in 18292 msec =====
===== DaCapo 9.12 avrora starting warmup 63 =====
===== DaCapo 9.12 avrora completed warmup 63 in 18799 msec =====
===== DaCapo 9.12 avrora starting warmup 64 =====
