F S UID        PID  PPID  C PRI  NI ADDR SZ WCHAN  STIME TTY          TIME CMD
4 S root         1     0  0  80   0 -  5895 poll_s  2013 ?        00:00:00 /sbin/init
1 S root         2     0  0  80   0 -     0 kthrea  2013 ?        00:00:00 [kthreadd]
1 S root         3     2  0 -40   - -     0 migrat  2013 ?        00:00:00 [migration/0]
1 S root         4     2  0  80   0 -     0 ksofti  2013 ?        00:00:07 [ksoftirqd/0]
1 S root         5     2  0 -40   - -     0 cpu_st  2013 ?        00:00:00 [migration/0]
5 S root         6     2  0 -40   - -     0 watchd  2013 ?        00:00:03 [watchdog/0]
1 S root         7     2  0 -40   - -     0 migrat  2013 ?        00:00:00 [migration/1]
1 S root         8     2  0 -40   - -     0 cpu_st  2013 ?        00:00:00 [migration/1]
1 S root         9     2  0  80   0 -     0 ksofti  2013 ?        00:00:06 [ksoftirqd/1]
5 S root        10     2  0 -40   - -     0 watchd  2013 ?        00:00:03 [watchdog/1]
1 S root        11     2  0 -40   - -     0 migrat  2013 ?        00:00:00 [migration/2]
1 S root        12     2  0 -40   - -     0 cpu_st  2013 ?        00:00:00 [migration/2]
1 S root        13     2  0  80   0 -     0 ksofti  2013 ?        00:00:18 [ksoftirqd/2]
5 S root        14     2  0 -40   - -     0 watchd  2013 ?        00:00:03 [watchdog/2]
1 S root        15     2  0 -40   - -     0 migrat  2013 ?        00:00:00 [migration/3]
1 S root        16     2  0 -40   - -     0 cpu_st  2013 ?        00:00:00 [migration/3]
1 S root        17     2  0  80   0 -     0 ksofti  2013 ?        00:00:04 [ksoftirqd/3]
5 S root        18     2  0 -40   - -     0 watchd  2013 ?        00:00:03 [watchdog/3]
1 S root        19     2  0  80   0 -     0 worker  2013 ?        00:02:59 [events/0]
1 S root        20     2  0  80   0 -     0 worker  2013 ?        00:01:32 [events/1]
1 S root        21     2  0  80   0 -     0 worker  2013 ?        00:01:47 [events/2]
1 S root        22     2  0  80   0 -     0 worker  2013 ?        00:02:00 [events/3]
1 S root        23     2  0  80   0 -     0 worker  2013 ?        00:00:00 [cgroup]
1 S root        24     2  0  80   0 -     0 worker  2013 ?        00:00:00 [khelper]
1 S root        25     2  0  80   0 -     0 worker  2013 ?        00:00:00 [netns]
1 S root        26     2  0  80   0 -     0 async_  2013 ?        00:00:00 [async/mgr]
1 S root        27     2  0  80   0 -     0 worker  2013 ?        00:00:00 [pm]
1 S root        28     2  0  80   0 -     0 bdi_sy  2013 ?        00:00:13 [sync_supers]
1 S root        29     2  0  80   0 -     0 bdi_fo  2013 ?        00:00:12 [bdi-default]
1 S root        30     2  0  80   0 -     0 worker  2013 ?        00:00:00 [kintegrityd/0]
1 S root        31     2  0  80   0 -     0 worker  2013 ?        00:00:00 [kintegrityd/1]
1 S root        32     2  0  80   0 -     0 worker  2013 ?        00:00:00 [kintegrityd/2]
1 S root        33     2  0  80   0 -     0 worker  2013 ?        00:00:00 [kintegrityd/3]
1 S root        34     2  0  80   0 -     0 worker  2013 ?        00:00:01 [kblockd/0]
1 S root        35     2  0  80   0 -     0 worker  2013 ?        00:00:01 [kblockd/1]
1 S root        36     2  0  80   0 -     0 worker  2013 ?        00:00:47 [kblockd/2]
1 S root        37     2  0  80   0 -     0 worker  2013 ?        00:00:00 [kblockd/3]
1 S root        38     2  0  80   0 -     0 worker  2013 ?        00:00:00 [kacpid]
1 S root        39     2  0  80   0 -     0 worker  2013 ?        00:00:00 [kacpi_notify]
1 S root        40     2  0  80   0 -     0 worker  2013 ?        00:00:00 [kacpi_hotplug]
1 S root        41     2  0  80   0 -     0 worker  2013 ?        00:00:00 [ata/0]
1 S root        42     2  0  80   0 -     0 worker  2013 ?        00:00:00 [ata/1]
1 S root        43     2  0  80   0 -     0 worker  2013 ?        00:00:00 [ata/2]
1 S root        44     2  0  80   0 -     0 worker  2013 ?        00:00:00 [ata/3]
1 S root        45     2  0  80   0 -     0 worker  2013 ?        00:00:00 [ata_aux]
1 S root        46     2  0  80   0 -     0 worker  2013 ?        00:00:00 [ksuspend_usbd]
5 S root        47     2  0  80   0 -     0 hub_th  2013 ?        00:00:00 [khubd]
1 S root        48     2  0  80   0 -     0 serio_  2013 ?        00:00:00 [kseriod]
1 S root        49     2  0  80   0 -     0 worker  2013 ?        00:00:00 [md/0]
1 S root        50     2  0  80   0 -     0 worker  2013 ?        00:00:00 [md/1]
1 S root        51     2  0  80   0 -     0 worker  2013 ?        00:00:00 [md/2]
1 S root        52     2  0  80   0 -     0 worker  2013 ?        00:00:00 [md/3]
1 S root        53     2  0  80   0 -     0 worker  2013 ?        00:00:00 [md_misc/0]
1 S root        54     2  0  80   0 -     0 worker  2013 ?        00:00:00 [md_misc/1]
1 S root        55     2  0  80   0 -     0 worker  2013 ?        00:00:00 [md_misc/2]
1 S root        56     2  0  80   0 -     0 worker  2013 ?        00:00:00 [md_misc/3]
1 S root        57     2  0  80   0 -     0 watchd  2013 ?        00:00:01 [khungtaskd]
1 S root        58     2  0  80   0 -     0 kswapd  2013 ?        00:00:01 [kswapd0]
1 S root        59     2  0  85   5 -     0 ksm_sc  2013 ?        00:00:00 [ksmd]
1 S root        60     2  0  99  19 -     0 khugep  2013 ?        00:00:23 [khugepaged]
1 S root        61     2  0  80   0 -     0 worker  2013 ?        00:00:00 [aio/0]
1 S root        62     2  0  80   0 -     0 worker  2013 ?        00:00:00 [aio/1]
1 S root        63     2  0  80   0 -     0 worker  2013 ?        00:00:00 [aio/2]
1 S root        64     2  0  80   0 -     0 worker  2013 ?        00:00:00 [aio/3]
1 S root        65     2  0  80   0 -     0 worker  2013 ?        00:00:00 [crypto/0]
1 S root        66     2  0  80   0 -     0 worker  2013 ?        00:00:00 [crypto/1]
1 S root        67     2  0  80   0 -     0 worker  2013 ?        00:00:00 [crypto/2]
1 S root        68     2  0  80   0 -     0 worker  2013 ?        00:00:00 [crypto/3]
1 S root        73     2  0  80   0 -     0 worker  2013 ?        00:00:00 [kthrotld/0]
1 S root        74     2  0  80   0 -     0 worker  2013 ?        00:00:00 [kthrotld/1]
1 S root        75     2  0  80   0 -     0 worker  2013 ?        00:00:00 [kthrotld/2]
1 S root        76     2  0  80   0 -     0 worker  2013 ?        00:00:00 [kthrotld/3]
1 S root        78     2  0  80   0 -     0 worker  2013 ?        00:00:00 [kpsmoused]
1 S root        79     2  0  80   0 -     0 worker  2013 ?        00:00:00 [usbhid_resumer]
1 S root       109     2  0  80   0 -     0 worker  2013 ?        00:00:00 [kstriped]
1 S root       135     2  0  80   0 -     0 worker  2013 ?        00:01:12 [i915]
1 S root       137     2  0  75  -5 -     0 slow_w  2013 ?        00:00:00 [kslowd000]
1 S root       138     2  0  75  -5 -     0 slow_w  2013 ?        00:00:00 [kslowd001]
1 S root       327     2  0  80   0 -     0 scsi_e  2013 ?        00:00:00 [scsi_eh_0]
1 S root       328     2  0  80   0 -     0 scsi_e  2013 ?        00:10:14 [scsi_eh_1]
1 S root       329     2  0  80   0 -     0 scsi_e  2013 ?        00:00:00 [scsi_eh_2]
1 S root       330     2  0  80   0 -     0 scsi_e  2013 ?        00:00:00 [scsi_eh_3]
1 S root       331     2  0  80   0 -     0 scsi_e  2013 ?        00:00:00 [scsi_eh_4]
1 S root       332     2  0  80   0 -     0 scsi_e  2013 ?        00:00:00 [scsi_eh_5]
1 S root       426     2  0  80   0 -     0 kjourn  2013 ?        00:00:50 [jbd2/sda1-8]
1 S root       427     2  0  80   0 -     0 worker  2013 ?        00:00:00 [ext4-dio-unwrit]
1 S root       428     2  0  80   0 -     0 worker  2013 ?        00:00:00 [ext4-dio-unwrit]
1 S root       429     2  0  80   0 -     0 worker  2013 ?        00:00:00 [ext4-dio-unwrit]
1 S root       430     2  0  80   0 -     0 worker  2013 ?        00:00:00 [ext4-dio-unwrit]
1 S root       483     2  0  80   0 -     0 kaudit  2013 ?        00:00:00 [kauditd]
5 S root       528     1  0  76  -4 -  2796 poll_s  2013 ?        00:00:00 /sbin/udevd -d
1 S root       744     2  0  80   0 -     0 worker  2013 ?        00:00:17 [hd-audio0]
1 S root      1495     2  0  80   0 -     0 kjourn  2013 ?        00:00:00 [jbd2/sda3-8]
1 S root      1496     2  0  80   0 -     0 worker  2013 ?        00:00:00 [ext4-dio-unwrit]
1 S root      1497     2  0  80   0 -     0 worker  2013 ?        00:00:00 [ext4-dio-unwrit]
1 S root      1498     2  0  80   0 -     0 worker  2013 ?        00:00:00 [ext4-dio-unwrit]
1 S root      1499     2  0  80   0 -     0 worker  2013 ?        00:00:00 [ext4-dio-unwrit]
1 S root      1781     1  0  80   0 -  3340 poll_s  2013 ?        00:00:38 /sbin/dhclient -1 -q -cf /etc/dhcp/dhclient-em1.conf -lf /var/lib/dhclient/dhclient-em1.leases -pf /var/run/dhclient-em1.pid em1
5 S root      1827     1  0  80   0 -  2600 poll_s  2013 ?        00:00:00 /sbin/portreserve
5 S root      1834     1  0  80   0 - 64967 poll_s  2013 ?        00:00:01 /sbin/rsyslogd -i /var/run/syslogd.pid -c 5
5 S root      1846     1  0  80   0 -  2705 hrtime  2013 ?        00:02:05 irqbalance
5 S rpc       1860     1  0  80   0 -  4760 poll_s  2013 ?        00:02:28 rpcbind
5 S dbus      1870     1  0  80   0 -  6687 poll_s  2013 ?        00:00:04 dbus-daemon --system
5 S rpcuser   1888     1  0  80   0 -  6462 poll_s  2013 ?        00:00:00 rpc.statd
5 S root      1922     2  0  80   0 -     0 worker  2013 ?        00:00:01 [rpciod/0]
5 S root      1923     2  0  80   0 -     0 worker  2013 ?        00:00:00 [rpciod/1]
5 S root      1924     2  0  80   0 -     0 worker  2013 ?        00:00:26 [rpciod/2]
5 S root      1925     2  0  80   0 -     0 worker  2013 ?        00:00:00 [rpciod/3]
1 S root      1929     1  0  80   0 -  6814 ep_pol  2013 ?        00:00:00 rpc.idmapd
5 S root      1943     1  0  80   0 - 53901 poll_s  2013 ?        00:00:17 /usr/sbin/ypbind
1 S root      1996     1  0  80   0 -  1020 poll_s  2013 ?        00:00:00 /usr/sbin/acpid
5 S 68        2005     1  0  80   0 - 10797 poll_s  2013 ?        00:00:13 hald
0 S root      2006  2005  0  80   0 -  5082 poll_s  2013 ?        00:00:00 hald-runner
0 S root      2050  2006  0  80   0 -  5610 poll_s  2013 ?        00:00:00 /usr/libexec/hald-addon-generic-backlight
0 S root      2052  2006  0  80   0 -  5612 poll_s  2013 ?        00:00:04 hald-addon-input: Listening on /dev/input/event4 /dev/input/event10 /dev/input/event0 /dev/input/event3 /dev/input/event1
0 S root      2056  2006  0  80   0 -  5611 poll_s  2013 ?        00:14:41 hald-addon-storage: polling /dev/sr0 (every 2 sec)
4 S 68        2057  2006  0  80   0 -  4484 unix_s  2013 ?        00:00:00 hald-addon-acpi: listening on acpid socket /var/run/acpid.socket
5 S root      2080     1  0  80   0 - 169045 rt_sig 2013 ?        00:01:01 automount --pid-file /var/run/autofs.pid
5 S nscd      2099     1  0  80   0 - 258935 ep_pol 2013 ?        00:00:12 /usr/sbin/nscd
1 S root      2157     1  0  80   0 -  1218 poll_s  2013 ?        00:00:00 /usr/sbin/mcelog --daemon
5 S root      2169     1  0  80   0 - 16166 poll_s  2013 ?        00:00:06 /usr/sbin/sshd
5 S root      2177     1  0  80   0 -  6216 poll_s  2013 ?        00:00:00 xinetd -stayalive -pidfile /var/run/xinetd.pid
5 S ntp       2185     1  0  80   0 -  6240 poll_s  2013 ?        00:00:03 ntpd -u ntp:ntp -p /var/run/ntpd.pid -g
4 S qmails    2197     1  0  80   0 -   511 poll_s  2013 ?        00:00:00 qmail-send
4 S qmaill    2215  2197  0  80   0 -   503 pipe_w  2013 ?        00:00:00 splogger qmail
0 S root      2216  2197  0  80   0 -   504 poll_s  2013 ?        00:00:00 qmail-lspawn ./Mailbox
4 S qmailr    2217  2197  0  80   0 -   503 poll_s  2013 ?        00:00:00 qmail-rspawn
4 S qmailq    2218  2197  0  80   0 -   501 pipe_w  2013 ?        00:00:00 qmail-clean
5 S root      2222     1  0  80   0 - 27643 poll_s  2013 ?        00:00:00 /usr/sbin/abrtd
1 S root      2230     1  0  80   0 - 28840 hrtime  2013 ?        00:00:04 crond
5 S root      2241     1  0  80   0 -  4954 hrtime  2013 ?        00:00:00 /usr/sbin/atd
1 S root      2263     1  0  80   0 - 15565 ep_pol  2013 ?        00:00:06 /usr/sbin/certmonger -S -p /var/run/certmonger.pid
4 S root      2286     1  0  80   0 - 33602 poll_s  2013 ?        00:00:00 /usr/sbin/gdm-binary -nodaemon
4 S root      2292     1  0  80   0 -  1016 n_tty_  2013 tty2     00:00:00 /sbin/mingetty /dev/tty2
4 S root      2294     1  0  80   0 -  1016 n_tty_  2013 tty3     00:00:00 /sbin/mingetty /dev/tty3
4 S root      2296     1  0  80   0 -  1016 n_tty_  2013 tty4     00:00:00 /sbin/mingetty /dev/tty4
4 S root      2298     1  0  80   0 -  1016 n_tty_  2013 tty5     00:00:00 /sbin/mingetty /dev/tty5
4 S root      2301     1  0  80   0 -  1016 n_tty_  2013 tty6     00:00:00 /sbin/mingetty /dev/tty6
4 S root      2351     1  0  80   0 - 521832 poll_s 2013 ?        00:00:01 /usr/sbin/console-kit-daemon --no-daemon
4 S root      2433     1  0  80   0 - 12528 poll_s  2013 ?        00:00:00 /usr/libexec/devkit-power-daemon
4 S root      2500     1  0  80   0 - 44969 poll_s  2013 ?        00:00:01 /usr/libexec/polkit-1/polkitd
4 S rtkit     2516     1  0  81   1 - 41641 poll_s  2013 ?        00:01:02 /usr/libexec/rtkit-daemon
0 S 1102374p  3175     1  0  80   0 - 210151 poll_s Jan23 ?       00:00:00 /usr/libexec/e-calendar-factory
5 S root      4023   528  0  78  -2 -  2795 poll_s Jan23 ?        00:00:00 /sbin/udevd -d
5 S root      4024   528  0  78  -2 -  2795 poll_s Jan23 ?        00:00:00 /sbin/udevd -d
0 S 1101982m  4234     1  0  80   0 - 210126 poll_s Jan23 ?       00:00:00 /usr/libexec/e-calendar-factory
0 S 1101795m  4609     1  0  80   0 - 210183 poll_s Jan13 ?       00:00:00 /usr/libexec/e-calendar-factory
0 S 2092370t  5391     1  0  80   0 - 210183 poll_s Jan16 ?       00:00:00 /usr/libexec/e-calendar-factory
0 S 1102115m  5850     1  0  80   0 - 210177 poll_s Jan13 ?       00:00:00 /usr/libexec/e-calendar-factory
0 S 2092370t  7286     1  0  80   0 - 226562 poll_s Jan21 ?       00:00:00 /usr/libexec/e-calendar-factory
0 S 1102115m  7412     1  0  80   0 - 210178 poll_s Jan16 ?       00:00:00 /usr/libexec/e-calendar-factory
0 S 1102140j  8249     1  0  80   0 - 210125 poll_s Jan13 ?       00:00:00 /usr/libexec/e-calendar-factory
0 S 1102103l  9040     1  0  80   0 - 210125 poll_s Jan21 ?       00:00:00 /usr/libexec/e-calendar-factory
0 S 2092370t 11670     1  0  80   0 - 210177 poll_s Jan24 ?       00:00:00 /usr/libexec/e-calendar-factory
1 S root     13915     2  0  80   0 -     0 bdi_wr 06:52 ?        00:00:00 [flush-8:0]
0 S 2092370t 14626     1  0  80   0 - 210178 poll_s Jan24 ?       00:00:00 /usr/libexec/e-calendar-factory
0 S 1106098b 15276     1  0  80   0 - 210178 poll_s Jan24 ?       00:00:00 /usr/libexec/e-calendar-factory
1 S callumc  15389     1  0  80   0 - 29816 poll_s 11:11 ?        00:00:00 SCREEN -d -m bash -l -- bash_stub distribute_run --email cjcameron7@gmail.com --senderConfig economics_memory_code/email.conf --name UtilitySpace 2014_01_26_11_02_02 callum@CallumPC 28 38 economics_memory_code/fixed_time/utilitySpace_remoteHarness.py 20m 5 economics_memory_code/fixed_time/utilitySpace_20m_avrora_20m_large_1_sunflow_20m_large_3_callum@CallumPC_2014_01_26_11_02_02 --benchmark avrora 20m large 1 909 --benchmark sunflow 20m large 3 991
0 S callumc  15390 15389  0  80   0 - 27040 wait   11:11 pts/0    00:00:00 bash -l -- bash_stub distribute_run --email cjcameron7@gmail.com --senderConfig economics_memory_code/email.conf --name UtilitySpace 2014_01_26_11_02_02 callum@CallumPC 28 38 economics_memory_code/fixed_time/utilitySpace_remoteHarness.py 20m 5 economics_memory_code/fixed_time/utilitySpace_20m_avrora_20m_large_1_sunflow_20m_large_3_callum@CallumPC_2014_01_26_11_02_02 --benchmark avrora 20m large 1 909 --benchmark sunflow 20m large 3 991
0 S callumc  15413 15390  2  80   0 - 45854 wait   11:11 pts/0    00:00:00 python /users/staff/callumc/linuxconfig/LinuxBin/distribute_run --email cjcameron7@gmail.com --senderConfig economics_memory_code/email.conf --name UtilitySpace 2014_01_26_11_02_02 callum@CallumPC 28 38 economics_memory_code/fixed_time/utilitySpace_remoteHarness.py 20m 5 economics_memory_code/fixed_time/utilitySpace_20m_avrora_20m_large_1_sunflow_20m_large_3_callum@CallumPC_2014_01_26_11_02_02 --benchmark avrora 20m large 1 909 --benchmark sunflow 20m large 3 991
0 S callumc  15416 15413  3  80   0 - 46184 wait   11:11 pts/0    00:00:00 python economics_memory_code/fixed_time/utilitySpace_remoteHarness.py 20m 5 economics_memory_code/fixed_time/utilitySpace_20m_avrora_20m_large_1_sunflow_20m_large_3_callum@CallumPC_2014_01_26_11_02_02 --benchmark avrora 20m large 1 909 --benchmark sunflow 20m large 3 991
0 S callumc  15421 15416  0  80   0 - 27038 wait   11:11 pts/0    00:00:00 /bin/bash /users/staff/callumc/economics_memory_code/machineInfo.sh economics_memory_code/fixed_time/utilitySpace_20m_avrora_20m_large_1_sunflow_20m_large_3_callum@CallumPC_2014_01_26_11_02_02
0 R callumc  15443 15421  0  80   0 - 27335 -      11:11 pts/0    00:00:00 ps -elf
0 S root     16419  2286  0  80   0 - 41307 poll_s Jan24 ?        00:00:00 /usr/libexec/gdm-simple-slave --display-id /org/gnome/DisplayManager/Display1
4 S root     16421 16419  0  80   0 - 25010 poll_s Jan24 tty7     00:00:07 /usr/bin/Xorg :0 -br -verbose -audit 4 -auth /var/run/gdm/auth-for-gdm-kbSWYt/database -nolisten tcp
1 S gdm      16440     1  0  80   0 -  4537 poll_s Jan24 ?        00:00:00 /usr/bin/dbus-launch --exit-with-session
1 S gdm      16441     1  0  80   0 -  4964 poll_s Jan24 ?        00:00:00 /bin/dbus-daemon --fork --print-pid 5 --print-address 7 --session
4 S gdm      16442 16419  0  80   0 - 67453 poll_s Jan24 ?        00:00:00 /usr/bin/gnome-session --autostart=/usr/share/gdm/autostart/LoginWindow/
0 S gdm      16445     1  0  80   0 - 33471 poll_s Jan24 ?        00:00:00 /usr/libexec/gconfd-2
0 S gdm      16448 16442  0  80   0 - 29625 poll_s Jan24 ?        00:00:00 /usr/libexec/at-spi-registryd
1 S gdm      16450     1  0  80   0 - 92411 poll_s Jan24 ?        00:01:08 /usr/libexec/gnome-settings-daemon --gconf-prefix=/apps/gdm/simple-greeter/settings-manager-plugins
0 S gdm      16452     1  0  80   0 - 89680 poll_s Jan24 ?        00:00:00 /usr/libexec/bonobo-activation-server --ac-activate --ior-output-fd=12
0 S gdm      16459     1  0  80   0 - 33826 poll_s Jan24 ?        00:00:00 /usr/libexec/gvfsd
0 S gdm      16460 16442  0  80   0 - 76320 poll_s Jan24 ?        00:00:00 metacity
0 S gdm      16461 16442  0  80   0 - 68605 poll_s Jan24 ?        00:00:01 gnome-power-manager
0 S gdm      16463 16442  0  80   0 - 62206 poll_s Jan24 ?        00:00:00 /usr/libexec/polkit-gnome-authentication-agent-1
0 S gdm      16464 16442  0  80   0 - 100913 poll_s Jan24 ?       00:00:02 /usr/libexec/gdm-simple-greeter
1 S gdm      16474     1  0  69 -11 - 107441 poll_s Jan24 ?       00:00:00 /usr/bin/pulseaudio --start --log-target=syslog
4 S root     16478 16419  0  80   0 - 45436 poll_s Jan24 ?        00:00:00 pam: gdm-password
0 S 2092370t 17124     1  0  80   0 - 210184 poll_s Jan20 ?       00:00:00 /usr/libexec/e-calendar-factory
0 S 1102115m 17368     1  0  80   0 - 210178 poll_s Jan14 ?       00:00:00 /usr/libexec/e-calendar-factory
1 S root     17876     2  0  80   0 -     0 worker  2013 ?        00:00:13 [nfsiod]
0 S 2092370t 18588     1  0  80   0 - 226561 poll_s Jan17 ?       00:00:00 /usr/libexec/e-calendar-factory
0 S 1102115m 19529     1  0  80   0 - 210184 poll_s Jan14 ?       00:00:00 /usr/libexec/e-calendar-factory
0 S 2092370t 19644     1  0  80   0 - 210183 poll_s Jan17 ?       00:00:00 /usr/libexec/e-calendar-factory
0 S 1102115m 20104     1  0  80   0 - 210178 poll_s Jan14 ?       00:00:00 /usr/libexec/e-calendar-factory
0 T 1007358m 21650     1  0  90  10 - 79602 signal Jan22 ?        00:00:03 /usr/libexec/gnome-screensaver/slideshow --location=/usr/share/backgrounds/cosmos
0 S 2092370t 21939     1  0  80   0 - 210178 poll_s Jan22 ?       00:00:00 /usr/libexec/e-calendar-factory
0 S 2092370t 22986     1  0  80   0 - 210178 poll_s Jan17 ?       00:00:00 /usr/libexec/e-calendar-factory
0 S 1003492c 23828     1  0  80   0 - 210153 poll_s Jan20 ?       00:00:00 /usr/libexec/e-calendar-factory
0 S 1103834s 24506     1  0  80   0 - 226509 poll_s Jan17 ?       00:00:00 /usr/libexec/e-calendar-factory
1 S root     31730     2  0  80   0 -     0 svc_re Jan20 ?        00:00:00 [lockd]
0 S 1007358m 31928     1  0  80   0 - 226582 poll_s Jan20 ?       00:00:00 /usr/libexec/e-calendar-factory
4 S root     32253     1  0  80   0 - 13990 poll_s Jan10 ?        00:00:43 /usr/libexec/udisks-daemon
1 S root     32254 32253  0  80   0 - 11277 poll_s Jan10 ?        00:00:00 udisks-daemon: not polling any devices
0 S imm      32286     1  0  80   0 - 226535 poll_s Jan10 ?       00:00:00 /usr/libexec/e-calendar-factory
