1413043683675 0 TOTAL_MEM 1490
1413043704649 10047 CREATION
1413043704649 10047 READING 9 0.998643
1413043704649 10047 MINHEAP 2
1413043704649 10047 MINHEAP 276
1413043704750 10048 CREATION
1413043704750 10048 READING 9 0.999155
1413043704750 10048 MINHEAP 2
1413043704750 10048 MINHEAP 22
1413043705000 10048 READING 9 0.996503
1413043705069 10047 READING 9 0.996917
1413043705100 10048 READING 9 0.991669
1413043705171 10048 READING 9 0.989069
1413043705225 10047 READING 9 0.993661
1413043705238 10048 READING 9 0.986298
1413043705247 10047 READING 9 0.962438
1413043705273 10048 READING 9 0.974198
1413043705328 10048 READING 10 0.983770
1413043705363 10048 READING 10 0.965992
1413043705403 10047 READING 9 0.994008
1413043705468 10047 READING 9 0.981977
1413043705487 10048 READING 12 0.990593
1413043705534 10047 READING 10 0.982273
1413043705553 10047 READING 10 0.877299
1413043705579 10047 READING 12 0.929294
1413043705610 10047 READING 12 0.907074
1413043705693 10047 READING 15 0.673999
1413043705767 10047 READING 19 0.977120
1413043705810 10047 READING 22 0.876323
1413043705918 10047 READING 23 0.392187
1413043705983 10047 READING 34 0.902315
1413043706037 10047 READING 35 0.895348
1413043706163 10047 READING 39 0.456916
1413043706226 10047 READING 49 0.859934
1413043706279 10047 READING 52 0.884153
1413043706472 10047 READING 53 0.196240
1413043706523 10047 READING 76 0.822639
1413043706584 10047 READING 76 0.831174
1413043706637 10047 READING 80 0.866128
1413043706889 10047 READING 80 0.166102
1413043706969 10047 READING 112 0.815186
1413043707034 10047 READING 112 0.780092
1413043707092 10047 READING 113 0.810409
1413043707164 10047 READING 116 0.846052
1413043707187 10048 READING 12 0.999017
1413043707408 10048 READING 15 0.991787
1413043707456 10047 READING 117 0.166952
1413043707549 10047 READING 150 0.630675
1413043707614 10048 READING 15 0.970613
1413043707645 10047 READING 152 0.586054
1413043707722 10047 READING 153 0.722896
1413043707767 10048 READING 18 0.976355
1413043707813 10047 READING 159 0.733152
1413043707846 10048 READING 19 0.973653
1413043707893 10047 READING 161 0.735233
1413043708207 10048 READING 25 0.991015
1413043708236 10047 READING 163 0.178735
1413043708332 10047 READING 204 0.672857
1413043708425 10047 READING 210 0.726619
1413043708510 10048 READING 25 0.872388
1413043708880 10047 READING 210 0.885170
1413043708911 10048 READING 38 0.994786
1413043709082 10048 READING 38 0.974911
1413043709295 10048 READING 44 0.993435
1413043709399 10047 READING 210 0.902707
1413043709638 10048 READING 44 0.962838
1413043709669 10047 READING 216 0.837223
1413043709769 10047 READING 224 0.440771
1413043709803 10048 READING 53 0.986925
1413043709913 10047 READING 227 0.727229
1413043709941 10048 READING 53 0.982938
1413043710105 10048 READING 66 0.939110
1413043710148 10047 READING 231 0.776135
1413043710281 10047 READING 232 0.666769
1413043710295 10048 READING 66 0.988908
1413043710471 10047 READING 237 0.783503
1413043710622 10047 READING 238 0.791038
1413043710813 10047 READING 241 0.817589
1413043710977 10047 READING 242 0.728654
1413043711014 10048 READING 82 0.895356
1413043711101 10047 READING 242 0.532147
1413043711209 10047 READING 247 0.624034
1413043711345 10047 READING 252 0.623042
1413043711459 10048 READING 87 0.973726
1413043712032 10048 READING 99 0.942948
1413043712309 10047 READING 253 0.074027
1413043712435 10047 READING 289 0.661844
1413043712638 10048 READING 103 0.801227
1413043712674 10047 READING 291 0.971422
1413043712995 10048 READING 127 0.975879
1413043713061 10047 READING 295 0.965199
1413043713135 10047 READING 296 0.814036
1413043713212 10047 READING 294 0.832809
1413043713289 10047 READING 296 0.837697
1413043713372 10047 READING 294 0.825927
1413043713525 10047 READING 296 0.828036
1413043713677 10047 FUNCTION lru lambda h: 0.897166 * (h ** 0.001)
1413043713677 10048 FUNCTION lru lambda h: 1.05353 * (h ** 0.001)
1413043713677 10047 RECOMMEND 745
1413043713677 10048 RECOMMEND 745
1413043713689 10047 READING 297 0.910985
1413043713760 10048 READING 128 0.994285
1413043713792 10048 READING 139 0.860538
1413043713797 10047 READING 298 0.767372
1413043713882 10047 READING 301 0.687079
1413043713894 10048 READING 140 0.264206
1413043713924 10048 READING 166 0.962603
1413043713959 10048 READING 166 0.970361
1413043713963 10047 READING 301 0.659065
1413043713996 10048 READING 183 0.967032
1413043714035 10048 READING 184 0.970839
1413043714043 10047 READING 306 0.707958
1413043714149 10047 READING 307 0.552543
1413043714191 10048 READING 202 0.994292
1413043714237 10047 READING 314 0.717741
1413043714290 10048 READING 203 0.987805
1413043714329 10047 READING 314 0.715707
1413043714407 10048 READING 218 0.989930
1413043715481 10047 READING 321 0.961673
1413043715556 10048 READING 220 0.998587
1413043715915 10048 READING 231 0.996259
1413043716766 10047 READING 322 0.966971
1413043716980 10048 READING 233 0.998798
1413043717752 10048 READING 240 0.998744
1413043717981 10047 READING 326 0.976983
1413043718020 10048 READING 242 0.996357
1413043718742 10048 READING 247 0.998435
1413043719063 10048 READING 249 0.996274
1413043719367 10047 READING 328 0.978939
1413043719958 10048 READING 254 0.998325
1413043720008 10048 READING 254 0.973100
1413043720057 10048 READING 259 0.979538
1413043720110 10048 READING 259 0.974162
1413043720171 10048 READING 269 0.976790
1413043720351 10048 READING 269 0.992958
1413043720515 10048 READING 281 0.993764
1413043720733 10047 READING 328 0.977791
1413043721489 10048 READING 283 0.998699
1413043721923 10047 READING 330 0.972758
1413043722495 10048 READING 291 0.998677
1413043723330 10048 READING 293 0.998439
1413043723538 10047 READING 326 0.979109
1413043723677 10047 FUNCTION lru lambda h: 0.732742 * (h ** 0.001)
1413043723677 10048 FUNCTION lru lambda h: 0.954841 * (h ** 0.001)
1413043723677 10047 RECOMMEND 745
1413043723677 10048 RECOMMEND 745
1413043723764 10048 READING 300 0.995893
1413043724226 10048 READING 301 0.997940
1413043724954 10047 READING 329 0.975838
1413043725066 10048 READING 305 0.998624
1413043725130 10048 READING 306 0.984263
1413043725194 10048 READING 311 0.983298
1413043725262 10048 READING 311 0.985743
1413043725437 10048 READING 321 0.994020
1413043725614 10048 READING 321 0.994623
1413043726326 10047 READING 329 0.976019
1413043726637 10048 READING 330 0.999149
1413043727671 10047 READING 330 0.973552
1413043727773 10048 READING 330 0.998845
1413043728412 10048 READING 336 0.998617
1413043729051 10047 READING 333 0.974486
1413043729108 10048 READING 338 0.998685
1413043729416 10048 READING 343 0.997246
1413043730091 10048 READING 343 0.998083
1413043730164 10048 READING 347 0.984349
1413043730241 10048 READING 347 0.985297
1413043730427 10048 READING 355 0.994828
1413043731087 10047 READING 333 0.686401
1413043731319 10048 READING 355 0.998819
1413043731938 10048 READING 363 0.998199
1413043732470 10047 READING 372 0.966413
1413043733273 10048 READING 365 0.999277
1413043733677 10047 FUNCTION lru lambda h: 0.692295 * (h ** 0.001)
1413043733677 10048 FUNCTION lru lambda h: 0.912446 * (h ** 0.00904038)
1413043733677 10047 RECOMMEND 745
1413043733677 10048 RECOMMEND 745
1413043733731 10047 READING 373 0.981565
1413043733853 10048 READING 370 0.998255
1413043734269 10048 READING 370 0.997532
1413043734969 10048 READING 375 0.998216
1413043735017 10047 READING 372 0.980402
1413043735047 10048 READING 375 0.987356
1413043735131 10048 READING 379 0.987295
1413043735318 10048 READING 379 0.994199
1413043736218 10048 READING 389 0.998680
1413043737114 10047 READING 374 0.984956
1413043737339 10047 READING 372 0.899491
1413043737452 10047 READING 373 0.804711
1413043737517 10048 READING 390 0.999168
1413043737567 10047 READING 379 0.797202
1413043737678 10047 READING 383 0.817029
1413043738009 10047 READING 391 0.958898
1413043738338 10048 READING 397 0.998902
1413043739033 10048 READING 398 0.998313
1413043739611 10047 READING 393 0.989202
1413043739692 10048 READING 403 0.998547
1413043739773 10048 READING 403 0.987823
1413043739861 10048 READING 407 0.988064
1413043740046 10048 READING 407 0.994806
1413043740905 10048 READING 417 0.998848
1413043741361 10047 READING 395 0.987659
1413043742046 10048 READING 418 0.998764
1413043742936 10048 READING 425 0.998774
1413043743139 10047 READING 398 0.989258
1413043743604 10048 READING 426 0.998608
1413043743677 10047 FUNCTION lru lambda h: 0.611859 * (h ** 0.029508)
1413043743677 10048 FUNCTION lru lambda h: 0.893668 * (h ** 0.0143779)
1413043743677 10047 RECOMMEND 745
1413043743677 10048 RECOMMEND 745
1413043744147 10048 READING 431 0.998377
1413043744223 10048 READING 431 0.985855
1413043744343 10048 READING 436 0.992274
1413043744556 10048 READING 436 0.995069
1413043745028 10047 READING 397 0.983156
1413043745605 10048 READING 446 0.998945
1413043746874 10048 READING 446 0.999081
1413043746957 10047 READING 400 0.985587
1413043747545 10048 READING 453 0.998554
1413043748199 10048 READING 454 0.998545
1413043748277 10048 READING 459 0.986310
1413043748377 10048 READING 459 0.990407
1413043748562 10048 READING 469 0.993914
1413043748852 10047 READING 398 0.980171
1413043749513 10048 READING 469 0.998809
1413043750526 10047 READING 400 0.983927
1413043750580 10048 READING 479 0.998771
1413043751300 10048 READING 481 0.998528
1413043751944 10048 READING 487 0.998369
1413043752026 10048 READING 487 0.988981
1413043752190 10048 READING 493 0.993736
1413043752489 10047 READING 402 0.985768
1413043752804 10048 READING 493 0.998583
1413043753676 10048 READING 502 0.998757
1413043753677 10047 FUNCTION lru lambda h: 0.585191 * (h ** 0.0408288)
1413043753678 10048 FUNCTION lru lambda h: 0.8844 * (h ** 0.0169261)
1413043753678 10047 RECOMMEND 745
1413043753678 10048 RECOMMEND 745
1413043754260 10047 READING 402 0.982390
1413043754430 10048 READING 504 0.998837
1413043754942 10048 READING 510 0.997894
1413043755316 10048 READING 510 0.997483
1413043755426 10048 READING 516 0.990889
1413043755620 10048 READING 516 0.994617
1413043756101 10047 READING 404 0.981914
1413043756752 10048 READING 525 0.999040
1413043757569 10048 READING 525 0.998306
1413043757920 10047 READING 405 0.981818
1413043758048 10048 READING 526 0.997995
1413043758413 10048 READING 526 0.997123
1413043758513 10048 READING 526 0.988100
1413043758701 10048 READING 526 0.994708
1413043759706 10048 READING 526 0.998876
1413043759790 10047 READING 407 0.987982
1413043759973 10047 READING 407 0.857426
1413043760121 10047 READING 406 0.804642
1413043760277 10047 READING 409 0.725047
1413043760527 10048 READING 526 0.998398
1413043761038 10048 READING 526 0.997863
1413043761320 10047 READING 418 0.980152
1413043761377 10048 READING 526 0.997063
1413043761474 10048 READING 526 0.990292
1413043761656 10048 READING 526 0.994704
1413043762665 10048 READING 526 0.999005
1413043763375 10047 READING 419 0.990053
1413043763418 10048 READING 526 0.998875
1413043763678 10047 FUNCTION lru lambda h: 0.55182 * (h ** 0.0556209)
1413043763678 10048 FUNCTION lru lambda h: 0.88159 * (h ** 0.0176796)
1413043763678 10047 RECOMMEND 745
1413043763678 10048 RECOMMEND 745
1413043763935 10048 READING 526 0.998083
1413043764351 10048 READING 526 0.997147
1413043764445 10048 READING 526 0.984869
1413043764613 10048 READING 526 0.995055
1413043765458 10048 READING 526 0.998677
1413043765591 10047 READING 425 0.990245
1413043766076 10048 READING 526 0.998440
1413043766700 10048 READING 526 0.998403
1413043767041 10048 READING 526 0.996126
1413043767130 10048 READING 526 0.989471
1413043767296 10048 READING 526 0.995007
1413043767570 10047 READING 427 0.988148
1413043768122 10048 READING 526 0.998890
1413043768693 10048 READING 526 0.998458
1413043769355 10048 READING 526 0.998578
1413043769679 10048 READING 526 0.997063
1413043769766 10048 READING 526 0.988030
1413043769921 10048 READING 526 0.992962
1413043770120 10047 READING 429 0.990697
1413043770630 10048 READING 526 0.998653
1413043771123 10048 READING 526 0.997986
1413043771803 10048 READING 526 0.998687
1413043772125 10048 READING 526 0.996761
1413043772174 10047 READING 431 0.984678
1413043772221 10048 READING 526 0.987330
1413043772378 10048 READING 526 0.993913
1413043773074 10048 READING 526 0.998674
1413043773551 10048 READING 526 0.997854
1413043773678 10047 FUNCTION lru lambda h: 0.529241 * (h ** 0.0660006)
1413043773678 10048 FUNCTION lru lambda h: 0.881626 * (h ** 0.01767)
1413043773678 10047 RECOMMEND 745
1413043773678 10048 RECOMMEND 745
1413043774237 10048 READING 526 0.998399
1413043774273 10047 READING 431 0.982571
1413043774604 10048 READING 526 0.996716
1413043774693 10048 READING 526 0.989896
1413043774870 10048 READING 526 0.993518
1413043775540 10048 READING 526 0.998423
1413043776044 10048 READING 526 0.997684
1413043776428 10047 READING 433 0.986196
1413043776710 10048 READING 526 0.998532
1413043776974 10048 READING 526 0.996260
1413043777062 10048 READING 526 0.986959
1413043777218 10048 READING 526 0.992909
1413043777862 10048 READING 526 0.998172
1413043778371 10048 READING 526 0.998105
1413043778840 10047 READING 434 0.987211
1413043779034 10048 READING 526 0.998005
1413043779301 10048 READING 526 0.996154
1413043779388 10048 READING 526 0.989569
1413043779537 10048 READING 526 0.993204
1413043780166 10048 READING 526 0.998507
1413043780658 10048 READING 526 0.998080
1413043781295 10048 READING 526 0.998593
1413043781579 10048 READING 526 0.996107
1413043781609 10047 READING 435 0.990933
1413043781672 10048 READING 526 0.990431
1413043781820 10048 READING 526 0.993533
1413043782421 10048 READING 526 0.998381
1413043782533 10047 READING 438 0.970342
1413043782691 10047 READING 438 0.860680
1413043782847 10047 READING 442 0.881206
1413043782935 10048 READING 526 0.998029
1413043783573 10048 READING 526 0.998390
1413043783678 10047 FUNCTION lru lambda h: 0.510366 * (h ** 0.0749701)
1413043783678 10048 FUNCTION lru lambda h: 0.881593 * (h ** 0.017679)
1413043783678 10047 RECOMMEND 745
1413043783678 10048 RECOMMEND 745
1413043783912 10048 READING 526 0.996152
1413043783999 10047 READING 444 0.983177
1413043784002 10048 READING 526 0.990328
1413043784151 10048 READING 526 0.993701
1413043784725 10048 READING 526 0.998414
1413043785275 10048 READING 526 0.998090
1413043785885 10048 READING 526 0.998531
1413043786201 10048 READING 526 0.996220
1413043786288 10048 READING 526 0.988839
1413043786419 10047 READING 452 0.991291
1413043786441 10048 READING 526 0.993262
1413043787007 10048 READING 526 0.998309
1413043787572 10048 READING 526 0.998096
1413043788156 10048 READING 526 0.998351
1413043788488 10048 READING 526 0.997212
1413043788574 10048 READING 526 0.988143
1413043788725 10048 READING 526 0.993061
1413043788868 10047 READING 453 0.990504
1413043789284 10048 READING 526 0.998041
1413043789867 10048 READING 526 0.998157
1413043790433 10048 READING 526 0.998314
1413043790785 10048 READING 526 0.997373
1413043790871 10048 READING 526 0.989140
1413043791021 10048 READING 526 0.992779
1413043791254 10047 READING 454 0.990297
1413043791563 10048 READING 526 0.998231
1413043792157 10048 READING 526 0.998093
1413043792710 10048 READING 526 0.998427
1413043793127 10048 READING 526 0.997383
1413043793214 10048 READING 526 0.988519
1413043793363 10048 READING 526 0.993048
1413043793678 10047 FUNCTION lru lambda h: 0.494708 * (h ** 0.0825749)
1413043793678 10048 FUNCTION lru lambda h: 0.881782 * (h ** 0.0176283)
1413043793678 10047 RECOMMEND 745
1413043793678 10048 RECOMMEND 745
1413043793814 10047 READING 456 0.988967
1413043793889 10048 READING 526 0.998239
1413043794461 10048 READING 526 0.998317
1413043795017 10048 READING 526 0.998021
1413043795411 10048 READING 526 0.996635
1413043795503 10048 READING 526 0.989830
1413043795651 10048 READING 526 0.992367
1413043796163 10048 READING 526 0.998263
1413043796477 10047 READING 455 0.990001
1413043796723 10048 READING 526 0.998314
1413043797288 10048 READING 526 0.998281
1413043797698 10048 READING 526 0.997618
1413043797784 10048 READING 526 0.988749
1413043797932 10048 READING 526 0.993792
1413043798431 10048 READING 526 0.998013
1413043798883 10047 READING 457 0.986243
1413043798989 10048 READING 526 0.998137
1413043799563 10048 READING 526 0.998233
1413043799985 10048 READING 526 0.997798
1413043800072 10048 READING 526 0.987645
1413043800218 10048 READING 526 0.993972
1413043800703 10048 READING 526 0.997481
1413043801242 10048 READING 526 0.998017
1413043801549 10047 READING 458 0.988279
1413043801826 10048 READING 526 0.997276
1413043802298 10048 READING 526 0.997474
1413043802383 10048 READING 526 0.988251
1413043802528 10048 READING 526 0.992869
1413043803002 10048 READING 526 0.997937
1413043803487 10048 READING 526 0.998000
1413043803679 10047 FUNCTION lru lambda h: 0.481485 * (h ** 0.089157)
1413043803679 10048 FUNCTION lru lambda h: 0.881634 * (h ** 0.017668)
1413043803679 10047 RECOMMEND 745
1413043803679 10048 RECOMMEND 745
1413043804069 10048 READING 526 0.998324
1413043804266 10047 READING 459 0.992754
1413043804538 10048 READING 526 0.996985
1413043804550 10047 READING 461 0.888512
1413043804627 10048 READING 526 0.987959
1413043804740 10047 READING 462 0.829484
1413043804773 10048 READING 526 0.992999
1413043805259 10048 READING 526 0.998068
1413043805438 10047 READING 469 0.978962
1413043805700 10048 READING 526 0.997850
1413043806317 10048 READING 526 0.998593
1413043806816 10048 READING 526 0.997907
1413043806903 10048 READING 526 0.989488
1413043807035 10048 READING 526 0.992290
1413043807449 10048 READING 526 0.997820
1413043807889 10047 READING 470 0.992366
1413043807962 10048 READING 526 0.997943
1413043808577 10048 READING 526 0.998440
1413043809100 10048 READING 526 0.998178
1413043809185 10048 READING 526 0.987627
1413043809308 10048 READING 526 0.991897
1413043809720 10048 READING 526 0.997581
1413043810233 10048 READING 526 0.998270
1413043810594 10047 READING 475 0.992116
1413043810833 10048 READING 526 0.998276
1413043811299 10048 READING 526 0.997496
1413043811519 10048 READING 526 0.995550
1413043811625 10048 READING 526 0.990934
1413043812047 10048 READING 526 0.997827
1413043812556 10048 READING 526 0.998142
1413043813130 10048 READING 526 0.997261
1413043813472 10047 READING 477 0.991266
1413043813560 10048 READING 526 0.997803
1413043813679 10047 FUNCTION lru lambda h: 0.466756 * (h ** 0.096629)
1413043813679 10048 FUNCTION lru lambda h: 0.881603 * (h ** 0.0176763)
1413043813679 10047 RECOMMEND 745
1413043813679 10048 RECOMMEND 745
1413043813796 10048 READING 526 0.996082
1413043813896 10048 READING 526 0.990633
1413043814060 10048 READING 526 0.994421
1413043814820 10048 READING 526 0.998782
1413043815390 10048 READING 526 0.997007
1413043815813 10048 READING 526 0.997506
1413043816061 10048 READING 526 0.994259
1413043816157 10048 READING 526 0.990687
1413043816327 10048 READING 526 0.994941
1413043816591 10047 READING 477 0.990362
1413043817095 10048 READING 526 0.998179
1413043817674 10048 READING 526 0.997395
1413043818099 10048 READING 526 0.997843
1413043818349 10048 READING 526 0.995386
1413043818436 10048 READING 526 0.988861
1413043818604 10048 READING 526 0.993514
1413043819359 10047 READING 480 0.988644
1413043819363 10048 READING 526 0.998745
1413043819929 10048 READING 526 0.996522
1413043820361 10048 READING 526 0.997601
1413043820653 10048 READING 526 0.996307
1413043820743 10048 READING 526 0.985669
1413043820902 10048 READING 526 0.993867
1413043821669 10048 READING 526 0.998693
1413043822170 10048 READING 526 0.998285
1413043822387 10047 READING 481 0.989560
1413043822662 10048 READING 526 0.997811
1413043822919 10048 READING 526 0.996217
1413043823007 10048 READING 526 0.988583
1413043823160 10048 READING 526 0.993136
1413043823679 10047 FUNCTION lru lambda h: 0.360148 * (h ** 0.142768)
1413043823679 10048 FUNCTION lru lambda h: 0.881787 * (h ** 0.017627)
1413043823679 10047 RECOMMEND 745
1413043823679 10048 RECOMMEND 745
1413043823854 10048 READING 526 0.998587
1413043824377 10048 READING 526 0.998240
1413043824905 10048 READING 526 0.998144
1413043825155 10048 READING 526 0.996337
1413043825242 10048 READING 526 0.989578
1413043825322 10047 READING 482 0.985222
1413043825398 10048 READING 526 0.994006
1413043826088 10048 READING 526 0.998613
1413043826504 10047 READING 482 0.982001
1413043826585 10048 READING 526 0.997893
1413043826693 10047 READING 486 0.895300
1413043827121 10047 READING 490 0.968467
1413043827155 10048 READING 526 0.998376
1413043827415 10048 READING 526 0.996258
1413043827502 10048 READING 526 0.988845
1413043827659 10048 READING 526 0.993481
1413043828341 10048 READING 526 0.998266
1413043828822 10048 READING 526 0.997714
1413043829433 10048 READING 526 0.998091
1413043829711 10048 READING 526 0.996221
1413043829798 10048 READING 526 0.987205
1413043829954 10048 READING 526 0.993631
1413043830256 10047 READING 491 0.993752
1413043830622 10048 READING 526 0.998543
1413043831066 10048 READING 526 0.997169
1413043831726 10048 READING 526 0.998620
1413043831977 10048 READING 526 0.995536
1413043832068 10048 READING 526 0.988610
1413043832220 10048 READING 526 0.993660
1413043832883 10048 READING 526 0.998488
1413043833212 10047 READING 494 0.992106
1413043833327 10048 READING 526 0.997603
1413043833679 10047 FUNCTION lru lambda h: 0.187638 * (h ** 0.256737)
1413043833679 10048 FUNCTION lru lambda h: 0.881633 * (h ** 0.0176682)
1413043833679 10047 RECOMMEND 745
1413043833679 10048 RECOMMEND 745
1413043833997 10048 READING 526 0.998501
1413043834252 10048 READING 526 0.995943
1413043834338 10048 READING 526 0.987601
1413043834491 10048 READING 526 0.993944
1413043835141 10048 READING 526 0.998493
1413043835602 10048 READING 526 0.997478
1413043836271 10047 READING 496 0.991828
1413043836272 10048 READING 526 0.998633
1413043836522 10048 READING 526 0.996473
1413043836608 10048 READING 526 0.989510
1413043836761 10048 READING 526 0.992459
1413043837399 10048 READING 526 0.998359
1413043837875 10048 READING 526 0.998059
1413043838537 10048 READING 526 0.998558
1413043838824 10048 READING 526 0.995541
1413043838912 10048 READING 526 0.988347
1413043839062 10048 READING 526 0.992881
1413043839430 10047 READING 495 0.990316
1413043839683 10048 READING 526 0.998361
1413043840186 10048 READING 526 0.997977
1413043840819 10048 READING 526 0.998449
1413043841102 10048 READING 526 0.996671
1413043841189 10048 READING 526 0.988861
1413043841339 10048 READING 526 0.993530
1413043841929 10048 READING 526 0.998375
1413043842409 10047 READING 497 0.989954
1413043842452 10048 READING 526 0.998227
1413043843072 10048 READING 526 0.998532
1413043843373 10048 READING 526 0.996369
1413043843459 10048 READING 526 0.988405
1413043843609 10048 READING 526 0.992785
1413043843679 10047 FUNCTION lru lambda h: 0.103869 * (h ** 0.358384)
1413043843680 10048 FUNCTION lru lambda h: 0.881793 * (h ** 0.0176254)
1413043843680 10047 RECOMMEND 745
1413043843680 10048 RECOMMEND 745
1413043844183 10048 READING 526 0.997768
1413043844721 10048 READING 526 0.997959
1413043845258 10047 READING 497 0.988592
1413043845330 10048 READING 526 0.998518
1413043845642 10048 READING 526 0.996371
1413043845728 10048 READING 526 0.987722
1413043845876 10048 READING 526 0.994020
1413043846428 10048 READING 526 0.998308
1413043846973 10048 READING 526 0.998278
1413043847553 10048 READING 526 0.998261
1413043847910 10048 READING 526 0.996150
1413043848001 10048 READING 526 0.989184
1413043848157 10048 READING 526 0.993942
1413043848381 10047 READING 498 0.991477
1413043848678 10047 READING 501 0.933688
1413043848731 10048 READING 526 0.998436
1413043848883 10047 READING 502 0.896932
1413043849304 10048 READING 526 0.998395
1413043849855 10048 READING 526 0.998357
1413043850209 10048 READING 526 0.997347
1413043850297 10048 READING 526 0.989287
1413043850446 10048 READING 526 0.993780
1413043850977 10048 READING 526 0.998210
1413043851078 10047 READING 507 0.991719
1413043851564 10048 READING 526 0.998193
1413043852091 10048 READING 526 0.998302
1413043852458 10048 READING 526 0.997473
1413043852547 10048 READING 526 0.989611
1413043852697 10048 READING 526 0.992679
1413043853220 10048 READING 526 0.997851
1413043853680 10047 FUNCTION lru lambda h: 0.0514377 * (h ** 0.477392)
1413043853680 10048 FUNCTION lru lambda h: 0.881682 * (h ** 0.0176551)
1413043853680 10047 RECOMMEND 745
1413043853680 10048 RECOMMEND 745
1413043853785 10048 READING 526 0.998328
1413043854327 10048 READING 526 0.998370
1413043854419 10047 READING 509 0.993297
1413043854712 10048 READING 526 0.997091
1413043854799 10048 READING 526 0.988631
1413043854954 10048 READING 526 0.994267
1413043855465 10048 READING 526 0.997988
1413043856016 10048 READING 526 0.998349
1413043856574 10048 READING 526 0.998207
1413043857008 10048 READING 526 0.997242
1413043857095 10048 READING 526 0.989061
1413043857241 10048 READING 526 0.992883
1413043857733 10048 READING 526 0.997794
1413043857890 10047 READING 511 0.992890
1413043858265 10048 READING 526 0.998339
1413043858834 10048 READING 526 0.998068
1413043859268 10048 READING 526 0.997860
1413043859350 10048 READING 502 0.988166
1413043859484 10048 READING 513 0.992293
1413043859890 10048 READING 525 0.997564
1413043860403 10048 READING 526 0.998248
1413043860789 10047 READING 513 0.990785
1413043861005 10048 READING 526 0.998284
1413043861512 10048 READING 526 0.998189
1413043861595 10048 READING 502 0.989811
1413043861696 10048 READING 512 0.988726
1413043862117 10048 READING 526 0.997163
1413043862622 10048 READING 526 0.998226
1413043863181 10048 READING 526 0.998242
1413043863604 10048 READING 526 0.997154
1413043863680 10047 FUNCTION lru lambda h: 0.0269107 * (h ** 0.585979)
1413043863680 10048 FUNCTION lru lambda h: 0.881414 * (h ** 0.0177267)
1413043863680 10047 RECOMMEND 745
1413043863680 10048 RECOMMEND 745
1413043863839 10048 READING 526 0.994934
1413043863937 10048 READING 526 0.988685
1413043864005 10047 READING 511 0.990672
1413043864109 10048 READING 526 0.993655
1413043864872 10048 READING 526 0.998757
1413043865438 10048 READING 526 0.997321
1413043865867 10048 READING 526 0.997548
1413043866117 10048 READING 526 0.996215
1413043866206 10048 READING 526 0.989060
1413043866372 10048 READING 526 0.993970
1413043867126 10048 READING 526 0.998765
1413043867285 10047 READING 513 0.989867
1413043867691 10048 READING 526 0.998159
1413043868099 10048 READING 526 0.997734
1413043868345 10048 READING 502 0.996162
1413043868423 10048 READING 479 0.986584
1413043868568 10048 READING 491 0.991910
1413043869199 10048 READING 504 0.998545
1413043869656 10048 READING 515 0.997997
1413043870293 10048 READING 524 0.998524
1413043870386 10047 READING 515 0.993535
1413043870545 10048 READING 500 0.995998
1413043870630 10048 READING 508 0.987231
1413043870666 10047 READING 516 0.912022
1413043870786 10048 READING 521 0.993539
1413043870882 10047 READING 516 0.937954
1413043871359 10048 READING 526 0.998416
1413043871898 10048 READING 526 0.997409
1413043872485 10048 READING 526 0.998303
1413043872797 10048 READING 502 0.996925
1413043872877 10048 READING 479 0.986825
1413043873015 10048 READING 491 0.993489
1413043873495 10048 READING 503 0.997966
1413043873680 10047 FUNCTION lru lambda h: 0.0334317 * (h ** 0.549297)
1413043873680 10048 FUNCTION lru lambda h: 0.879148 * (h ** 0.0183369)
1413043873680 10047 RECOMMEND 745
1413043873680 10048 RECOMMEND 745
1413043873924 10048 READING 513 0.997920
1413043874051 10047 READING 518 0.993326
1413043874531 10048 READING 523 0.998608
1413043875063 10048 READING 499 0.997504
1413043875143 10048 READING 476 0.988212
1413043875223 10048 READING 486 0.988581
1413043875374 10048 READING 499 0.993095
1413043876053 10048 READING 513 0.998614
1413043876526 10048 READING 524 0.997841
1413043877122 10048 READING 526 0.998233
1413043877374 10048 READING 502 0.996174
1413043877453 10048 READING 479 0.988100
1413043877580 10047 READING 523 0.992855
1413043877602 10048 READING 491 0.993076
1413043878167 10048 READING 503 0.998019
1413043878708 10048 READING 513 0.998130
1413043879263 10048 READING 523 0.998220
1413043879595 10048 READING 499 0.997184
1413043879676 10048 READING 476 0.988130
1413043879818 10048 READING 487 0.993103
1413043880202 10048 READING 498 0.996331
1413043880710 10048 READING 509 0.998117
1413043881188 10047 READING 524 0.994425
1413043881283 10048 READING 519 0.998132
1413043881675 10048 READING 495 0.997400
1413043881909 10048 READING 472 0.996325
1413043881986 10048 READING 451 0.984282
1413043882127 10048 READING 462 0.992210
1413043882688 10048 READING 475 0.998208
1413043883226 10048 READING 485 0.997881
1413043883680 10047 FUNCTION lru lambda h: 0.0239465 * (h ** 0.604445)
1413043883680 10048 FUNCTION lru lambda h: 0.769998 * (h ** 0.0413)
1413043883681 10047 RECOMMEND 745
1413043883681 10048 RECOMMEND 745
1413043883723 10048 READING 495 0.998223
1413043884124 10048 READING 472 0.997405
1413043884199 10048 READING 451 0.987277
1413043884280 10048 READING 461 0.988674
1413043884423 10048 READING 474 0.992946
1413043884644 10047 READING 523 0.992036
1413043885083 10048 READING 488 0.998680
1413043885518 10048 READING 499 0.997691
1413043886158 10048 READING 509 0.998483
1413043886411 10048 READING 486 0.996083
1413043886487 10048 READING 464 0.987973
1413043886625 10048 READING 475 0.992492
1413043887092 10048 READING 487 0.997656
1413043887520 10048 READING 497 0.997673
1413043887795 10047 READING 526 0.988137
1413043888089 10048 READING 507 0.998196
1413043888461 10048 READING 484 0.997310
1413043888693 10048 READING 462 0.995376
1413043888765 10048 READING 441 0.984658
1413043888901 10048 READING 452 0.992067
1413043889421 10048 READING 465 0.998287
1413043889912 10048 READING 475 0.998198
1413043890408 10048 READING 485 0.998164
1413043890844 10048 READING 463 0.997948
1413043890916 10048 READING 442 0.986267
1413043890990 10048 READING 453 0.986431
1413043891130 10048 READING 467 0.992714
1413043891466 10047 READING 528 0.994039
1413043891699 10048 READING 481 0.998221
1413043892215 10048 READING 493 0.997932
1413043892443 10047 READING 529 0.976904
1413043892669 10047 READING 529 0.911105
1413043892742 10048 READING 503 0.998073
1413043893110 10048 READING 480 0.996879
1413043893185 10048 READING 458 0.986244
1413043893275 10048 READING 470 0.988472
1413043893425 10048 READING 484 0.992894
1413043893681 10047 FUNCTION lru lambda h: 0.0328573 * (h ** 0.551489)
1413043893681 10048 FUNCTION lru lambda h: 0.969392 * (h ** 0.00425874)
1413043893681 10047 RECOMMEND 745
1413043893681 10048 RECOMMEND 745
1413043894163 10048 READING 499 0.998694
1413043894638 10048 READING 511 0.997952
1413043894916 10047 READING 532 0.991629
1413043895172 10048 READING 521 0.998106
1413043895423 10048 READING 497 0.995486
1413043895503 10048 READING 475 0.987173
1413043895646 10048 READING 487 0.992751
1413043896212 10048 READING 500 0.998332
1413043896749 10048 READING 511 0.997960
1413043897266 10048 READING 487 0.998206
1413043897629 10048 READING 465 0.997437
1413043897700 10048 READING 444 0.980268
1413043897783 10048 READING 457 0.987301
1413043897928 10048 READING 472 0.993085
1413043898588 10048 READING 487 0.998506
1413043898667 10047 READING 539 0.993675
1413043899025 10048 READING 500 0.997891
1413043899666 10048 READING 511 0.998579
1413043899913 10048 READING 488 0.994771
1413043899991 10048 READING 466 0.986092
1413043900132 10048 READING 478 0.992584
1413043900617 10048 READING 492 0.997944
1413043901117 10048 READING 503 0.997434
1413043901674 10048 READING 514 0.998410
1413043902180 10048 READING 490 0.997108
1413043902258 10048 READING 468 0.988001
1413043902339 10048 READING 479 0.986038
1413043902486 10048 READING 493 0.993385
1413043902730 10047 READING 540 0.993609
1413043903155 10048 READING 508 0.998613
1413043903590 10048 READING 520 0.997698
1413043903681 10047 FUNCTION lru lambda h: 0.0228727 * (h ** 0.610641)
1413043903681 10048 FUNCTION lru lambda h: 0.96826 * (h ** 0.00438384)
1413043903681 10047 RECOMMEND 745
1413043903681 10048 RECOMMEND 745
1413043904234 10048 READING 526 0.998394
1413043904484 10048 READING 502 0.995577
1413043904565 10048 READING 479 0.988301
1413043904709 10048 READING 491 0.992671
1413043905261 10048 READING 504 0.997386
1413043905831 10048 READING 515 0.998409
1413043906275 10047 READING 539 0.991869
1413043906324 10048 READING 491 0.998138
1413043906710 10048 READING 469 0.997567
1413043906784 10048 READING 447 0.986759
1413043906861 10048 READING 458 0.986446
1413043907004 10048 READING 472 0.992636
1413043907660 10048 READING 486 0.998487
1413043908090 10048 READING 498 0.997721
1413043908718 10048 READING 508 0.998513
1413043908969 10048 READING 485 0.995960
1413043909044 10048 READING 463 0.986884
1413043909187 10048 READING 475 0.992519
1413043909663 10048 READING 488 0.997903
1413043909946 10047 READING 541 0.991303
1413043910091 10048 READING 499 0.997791
1413043910615 10048 READING 476 0.998173
1413043911010 10048 READING 454 0.997164
1413043911271 10048 READING 434 0.995783
1413043911339 10048 READING 414 0.986445
1413043911469 10048 READING 425 0.991569
1413043911834 10048 READING 436 0.997479
1413043912249 10048 READING 446 0.997745
1413043912626 10048 READING 426 0.997524
1413043913150 10048 READING 407 0.997922
1413043913482 10048 READING 389 0.996777
1413043913542 10048 READING 372 0.984994
1413043913604 10048 READING 381 0.984462
1413043913681 10047 FUNCTION lru lambda h: 0.0287006 * (h ** 0.573202)
1413043913681 10048 FUNCTION lru lambda h: 0.986066 * (h ** 0.0013826)
1413043913681 10047 RECOMMEND 745
1413043913681 10048 RECOMMEND 745
1413043913727 10048 READING 394 0.991994
1413043913820 10048 READING 406 0.989543
1413043914157 10047 READING 543 0.995397
1413043914458 10048 READING 420 0.998607
1413043914858 10048 READING 431 0.997091
1413043915160 10047 READING 543 0.974040
1413043915382 10048 READING 442 0.997890
1413043915394 10047 READING 543 0.920295
1413043915723 10048 READING 422 0.997051
1413043915787 10048 READING 403 0.986299
1413043915854 10048 READING 413 0.985647
1413043915991 10048 READING 427 0.992874
1413043916489 10048 READING 440 0.997664
1413043916884 10048 READING 452 0.997566
1413043917393 10048 READING 463 0.998095
1413043917780 10048 READING 442 0.997224
1413043918016 10048 READING 422 0.996254
1413043918081 10048 READING 403 0.983347
1413043918144 10047 READING 546 0.991231
1413043918207 10048 READING 414 0.992099
1413043918308 10048 READING 426 0.991097
1413043918969 10048 READING 439 0.998577
1413043919379 10048 READING 450 0.997787
1413043919926 10048 READING 430 0.998255
1413043920287 10048 READING 410 0.996709
1413043920350 10048 READING 392 0.984512
1413043920415 10048 READING 402 0.985221
1413043920547 10048 READING 416 0.991268
1413043921014 10048 READING 429 0.997482
1413043921409 10048 READING 441 0.997481
1413043921804 10047 READING 552 0.993212
1413043921882 10048 READING 452 0.998084
1413043922342 10048 READING 431 0.997934
1413043922572 10048 READING 412 0.995964
1413043922635 10048 READING 393 0.984929
1413043922702 10048 READING 404 0.986541
1413043922834 10048 READING 417 0.991797
1413043923391 10048 READING 430 0.998267
1413043923681 10047 FUNCTION lru lambda h: 0.0250189 * (h ** 0.595063)
1413043923681 10048 FUNCTION lru lambda h: 0.882135 * (h ** 0.0195017)
1413043923681 10047 RECOMMEND 745
1413043923681 10048 RECOMMEND 745
1413043923867 10048 READING 442 0.997756
1413043924307 10048 READING 452 0.997754
1413043924610 10048 READING 431 0.996723
1413043924838 10048 READING 412 0.995677
1413043924902 10048 READING 393 0.985335
1413043925029 10048 READING 404 0.991822
1413043925122 10048 READING 415 0.990242
1413043925561 10047 READING 553 0.992869
1413043925769 10048 READING 428 0.998657
1413043926183 10048 READING 438 0.997646
1413043926679 10048 READING 419 0.998108
1413043927024 10048 READING 400 0.997176
1413043927087 10048 READING 382 0.984879
1413043927151 10048 READING 392 0.983854
1413043927279 10048 READING 405 0.992969
1413043927640 10048 READING 418 0.997376
1413043928103 10048 READING 429 0.997781
1413043928421 10048 READING 439 0.996762
1413043928966 10048 READING 419 0.998415
1413043929295 10048 READING 400 0.996805
1413043929360 10048 READING 382 0.982828
1413043929426 10048 READING 393 0.984559
1413043929555 10048 READING 407 0.991104
1413043930024 10048 READING 421 0.997114
1413043930038 10047 READING 552 0.938023
1413043930415 10048 READING 433 0.997625
1413043930809 10048 READING 444 0.997547
1413043931339 10048 READING 424 0.997955
1413043931584 10048 READING 405 0.996232
1413043931646 10048 READING 387 0.984314
1413043931711 10048 READING 398 0.983992
1413043931841 10048 READING 411 0.992259
1413043932341 10048 READING 425 0.998080
1413043932723 10048 READING 437 0.997406
1413043933222 10048 READING 448 0.997989
1413043933601 10048 READING 428 0.997581
1413043933647 10047 READING 580 0.996209
1413043933682 10047 FUNCTION lru lambda h: 0.0205091 * (h ** 0.627021)
1413043933682 10048 FUNCTION lru lambda h: 0.853975 * (h ** 0.0248406)
1413043933682 10047 RECOMMEND 745
1413043933682 10048 RECOMMEND 745
1413043933832 10048 READING 409 0.996005
1413043933894 10048 READING 390 0.982870
1413043933972 10048 READING 401 0.988342
1413043934094 10048 READING 414 0.992510
1413043934684 10048 READING 427 0.998406
1413043935158 10048 READING 438 0.997840
1413043935554 10048 READING 419 0.997686
1413043935823 10048 READING 400 0.996357
1413043936048 10048 READING 382 0.995377
1413043936106 10048 READING 365 0.982286
1413043936172 10048 READING 375 0.984417
1413043936295 10048 READING 388 0.990887
1413043936505 10047 READING 580 0.992676
1413043936799 10047 READING 582 0.930041
1413043936820 10048 READING 402 0.998069
1413043937241 10048 READING 414 0.997939
1413043937661 10048 READING 424 0.997758
1413043937742 10047 READING 581 0.983386
1413043938042 10048 READING 405 0.997188
1413043938292 10048 READING 387 0.995616
1413043938351 10048 READING 370 0.983975
1413043938414 10048 READING 381 0.984063
1413043938540 10048 READING 394 0.991891
1413043939027 10048 READING 408 0.997820
1413043939397 10048 READING 419 0.997446
1413043939881 10048 READING 430 0.997477
1413043940297 10048 READING 410 0.997278
1413043940526 10048 READING 392 0.995817
1413043940586 10048 READING 374 0.984796
1413043940650 10048 READING 385 0.984935
1413043940780 10048 READING 398 0.993196
1413043941255 10048 READING 410 0.997141
1413043941635 10048 READING 422 0.997634
1413043941766 10047 READING 584 0.994492
1413043942034 10048 READING 403 0.997477
1413043942494 10048 READING 385 0.997950
1413043942760 10048 READING 368 0.995590
1413043942818 10048 READING 352 0.980080
1413043942877 10048 READING 363 0.984032
1413043942998 10048 READING 376 0.991450
1413043943083 10048 READING 390 0.986285
1413043943682 10047 FUNCTION lru lambda h: 0.0208582 * (h ** 0.623239)
1413043943682 10048 FUNCTION lru lambda h: 0.841716 * (h ** 0.0273054)
1413043943682 10047 RECOMMEND 745
1413043943682 10048 RECOMMEND 745
1413043943714 10048 READING 405 0.998143
1413043944149 10048 READING 418 0.996670
1413043944591 10048 READING 429 0.997103
1413043945005 10048 READING 440 0.997552
1413043945073 10048 READING 420 0.983018
1413043945146 10048 READING 433 0.986858
1413043945285 10048 READING 448 0.993264
1413043945634 10047 READING 585 0.993266
1413043945808 10048 READING 462 0.998075
1413043946299 10048 READING 475 0.997152
1413043946741 10048 READING 453 0.997750
1413043947075 10048 READING 433 0.997046
1413043947356 10048 READING 413 0.996238
1413043947420 10048 READING 395 0.981705
1413043947533 10048 READING 407 0.988366
1413043947635 10048 READING 420 0.989615
1413043948280 10048 READING 435 0.998527
1413043948702 10048 READING 447 0.996711
1413043949238 10048 READING 458 0.998275
1413043949564 10048 READING 438 0.996894
1413043949632 10048 READING 418 0.985129
1413043949704 10048 READING 430 0.984217
1413043949845 10048 READING 445 0.992635
1413043949949 10047 READING 587 0.993406
1413043950421 10048 READING 460 0.998336
1413043950940 10048 READING 472 0.997964
1413043951379 10048 READING 451 0.997947
1413043951656 10048 READING 430 0.996527
1413043951856 10048 READING 411 0.992431
1413043951922 10048 READING 392 0.983850
1413043952050 10048 READING 404 0.986087
1413043952421 10048 READING 419 0.997464
1413043952883 10048 READING 431 0.997989
1413043953200 10048 READING 442 0.997120
1413043953682 10047 FUNCTION lru lambda h: 0.159077 * (h ** 0.2922)
1413043953682 10048 FUNCTION lru lambda h: 0.819639 * (h ** 0.031705)
1413043953682 10047 RECOMMEND 745
1413043953682 10048 RECOMMEND 745
1413043953751 10048 READING 422 0.998199
1413043953947 10047 READING 589 0.991622
1413043954050 10048 READING 403 0.996719
1413043954112 10048 READING 385 0.983595
1413043954178 10048 READING 396 0.983297
1413043954308 10048 READING 410 0.992984
1413043954772 10048 READING 424 0.997866
1413043955156 10048 READING 436 0.997475
1413043955555 10048 READING 417 0.996488
1413043956032 10048 READING 398 0.997987
1413043956305 10048 READING 381 0.995407
1413043956366 10048 READING 364 0.972222
1413043956428 10048 READING 378 0.984174
1413043956551 10048 READING 393 0.992370
1413043956915 10048 READING 408 0.997391
1413043957374 10048 READING 422 0.997940
1413043957689 10048 READING 433 0.996831
1413043958213 10048 READING 414 0.998156
1413043958436 10047 READING 590 0.994949
1413043958523 10048 READING 395 0.996879
1413043958583 10048 READING 378 0.982804
1413043958646 10048 READING 389 0.984316
1413043958772 10048 READING 403 0.991221
1413043959137 10048 READING 417 0.997463
1413043959465 10047 READING 592 0.977329
1413043959597 10048 READING 429 0.998013
1413043959723 10047 READING 594 0.936143
1413043959924 10048 READING 440 0.997120
1413043960486 10048 READING 420 0.998161
1413043960762 10048 READING 401 0.995576
1413043960825 10048 READING 383 0.983990
1413043960889 10048 READING 394 0.978174
1413043961024 10048 READING 410 0.992444
1413043961495 10048 READING 425 0.997947
1413043961891 10048 READING 438 0.997604
1413043962395 10048 READING 449 0.998172
1413043962802 10048 READING 429 0.997309
1413043963037 10048 READING 409 0.995745
1413043963100 10048 READING 391 0.982534
1413043963168 10048 READING 402 0.984730
1413043963302 10048 READING 417 0.992913
1413043963682 10047 FUNCTION lru lambda h: 0.169677 * (h ** 0.281204)
1413043963682 10048 FUNCTION lru lambda h: 0.782905 * (h ** 0.0392505)
1413043963682 10047 RECOMMEND 745
1413043963682 10048 RECOMMEND 745
1413043963731 10047 READING 603 0.994053
1413043963873 10048 READING 431 0.998297
1413043964359 10048 READING 443 0.998127
1413043964751 10048 READING 423 0.997671
1413043965074 10048 READING 404 0.997183
1413043965322 10048 READING 386 0.995638
1413043965381 10048 READING 369 0.982850
1413043965443 10048 READING 380 0.984050
1413043965573 10048 READING 393 0.992153
1413043966090 10048 READING 407 0.997970
1413043966508 10048 READING 418 0.997676
1413043966931 10048 READING 400 0.997450
1413043967314 10048 READING 382 0.997583
1413043967535 10048 READING 365 0.995603
1413043967593 10048 READING 349 0.984166
1413043967651 10048 READING 359 0.981043
1413043967772 10048 READING 372 0.991732
1413043967813 10047 READING 602 0.991203
1413043967866 10048 READING 385 0.989577
1413043968493 10048 READING 399 0.998360
1413043968906 10048 READING 411 0.997030
1413043969363 10048 READING 421 0.997464
1413043969610 10048 READING 402 0.996173
1413043969812 10048 READING 384 0.994792
1413043969875 10048 READING 367 0.983686
1413043969975 10048 READING 378 0.990986
1413043970068 10048 READING 390 0.990035
1413043970663 10048 READING 402 0.998400
1413043971120 10048 READING 413 0.997387
1413043971464 10048 READING 395 0.997158
1413043971804 10048 READING 377 0.997013
1413043972027 10048 READING 361 0.995614
1413043972085 10048 READING 345 0.973594
1413043972106 10047 READING 603 0.992385
1413043972155 10048 READING 357 0.986679
1413043972276 10048 READING 371 0.992450
1413043972640 10048 READING 385 0.997489
1413043973025 10048 READING 397 0.997312
1413043973402 10048 READING 407 0.997606
1413043973683 10047 FUNCTION lru lambda h: 0.167093 * (h ** 0.283496)
1413043973683 10048 FUNCTION lru lambda h: 0.727694 * (h ** 0.0516387)
1413043973683 10047 RECOMMEND 745
1413043973683 10048 RECOMMEND 745
1413043973877 10048 READING 389 0.997973
1413043974117 10048 READING 372 0.994377
1413043974330 10048 READING 355 0.995470
1413043974384 10048 READING 340 0.981657
1413043974442 10048 READING 350 0.982485
1413043974568 10048 READING 363 0.992666
1413043975033 10048 READING 376 0.996809
1413043975395 10048 READING 388 0.997259
1413043975691 10048 READING 398 0.996463
1413043976217 10048 READING 380 0.977072
1413043976243 10047 READING 605 0.990651
1413043976542 10048 READING 395 0.996966
1413043976609 10048 READING 408 0.985534
1413043976678 10048 READING 423 0.984976
1413043976815 10048 READING 440 0.993106
1413043977325 10048 READING 456 0.998179
1413043977806 10048 READING 470 0.997664
1413043978289 10048 READING 483 0.997712
1413043978622 10048 READING 461 0.996931
1413043978837 10048 READING 440 0.995566
1413043978905 10048 READING 420 0.985582
1413043979036 10048 READING 431 0.993412
1413043979503 10048 READING 443 0.997737
1413043979879 10048 READING 423 0.997075
1413043980246 10048 READING 404 0.997202
1413043980716 10048 READING 386 0.997888
1413043980763 10047 READING 609 0.993577
1413043980991 10048 READING 369 0.995789
1413043981046 10048 READING 353 0.982206
1413043981105 10048 READING 363 0.983143
1413043981224 10048 READING 376 0.992589
1413043981303 10048 READING 388 0.988046
1413043981748 10047 READING 611 0.975781
1413043981912 10048 READING 402 0.998272
1413043982177 10047 READING 611 0.964625
1413043982356 10048 READING 414 0.997816
1413043982732 10048 READING 396 0.997415
1413043983024 10048 READING 378 0.996348
1413043983269 10048 READING 362 0.994901
1413043983323 10048 READING 346 0.982065
1413043983382 10048 READING 356 0.979555
1413043983505 10048 READING 371 0.991550
1413043983683 10047 FUNCTION lru lambda h: 0.276421 * (h ** 0.202103)
1413043983683 10048 FUNCTION lru lambda h: 0.743491 * (h ** 0.0480971)
1413043983683 10047 RECOMMEND 745
1413043983683 10048 RECOMMEND 745
1413043983953 10048 READING 385 0.997853
1413043984330 10048 READING 397 0.997480
1413043984644 10048 READING 408 0.996706
1413043985145 10048 READING 390 0.997834
1413043985478 10048 READING 373 0.996659
1413043985536 10048 READING 356 0.981982
1413043985596 10048 READING 367 0.979271
1413043985697 10048 READING 382 0.990894
1413043985796 10048 READING 396 0.988526
1413043986308 10047 READING 614 0.994132
1413043986399 10048 READING 412 0.998285
1413043986868 10048 READING 425 0.997615
1413043987287 10048 READING 437 0.997783
1413043987558 10048 READING 417 0.996609
1413043987786 10048 READING 399 0.995793
1413043987847 10048 READING 381 0.983806
1413043987961 10048 READING 392 0.991523
1413043988053 10048 READING 404 0.987795
1413043988692 10048 READING 418 0.998465
1413043989122 10048 READING 429 0.997305
1413043989553 10048 READING 410 0.997553
1413043989800 10048 READING 391 0.995854
1413043990019 10048 READING 374 0.994863
1413043990079 10048 READING 357 0.984168
1413043990145 10048 READING 368 0.983656
1413043990268 10048 READING 381 0.990217
1413043990648 10047 READING 617 0.993967
1413043990794 10048 READING 394 0.997707
1413043991145 10048 READING 406 0.996260
1413043991637 10048 READING 417 0.998097
1413043992019 10048 READING 399 0.996235
1413043992121 10048 DEATH 815
1413043993683 10047 FUNCTION lru lambda h: 0.522488 * (h ** 0.0996715)
1413043993683 10047 RECOMMEND 1490
1413043995455 10047 READING 619 0.994834
1413044000011 10047 READING 620 0.994224
1413044003683 10047 FUNCTION lru lambda h: 0.486504 * (h ** 0.111131)
1413044003683 10047 RECOMMEND 1490
1413044004043 10047 READING 621 0.995904
1413044004364 10047 READING 623 0.950242
1413044004521 10047 DEATH 201
