economemd
    total memory: 576 MB
    timer interval: 10 s
    timer start state: running
    utility model: root

    caches:
        lru

    force utility function validity: yes
    make recommendations: yes
    equal recommendations: yes

    reading receiver name: simple
    command receiver name: simple

    dump file: economemd.dump.log
    log file: /home/callum/economics_memory_code/dynamic_sizing/data/output/timerComparisonMany_2014_10_07_10_29_12/sub35_timerComparisonSingle/sub2_timeBenchmarkDaemonEqual/daemon_run02_log.txt
    log readings: yes
    log functions: yes

PyOptimiser: initialising...
PyOptimiser: initialised
ReadingThread: starting
CommandThread: starting
TimerThread: starting
Recommendation: no clients; no recommendation
Recommendation: no clients; no recommendation
Reading from 13820: heap size 9 MB, throughput 0.998777
Clients: 1
Client 13820 has a minimum heap size of 12 MB
Reading from 13819: heap size 9 MB, throughput 0.999038
Clients: 2
Client 13819 has a minimum heap size of 276 MB
Reading from 13820: heap size 9 MB, throughput 0.996937
Reading from 13820: heap size 9 MB, throughput 0.984228
Reading from 13819: heap size 9 MB, throughput 0.996579
Reading from 13819: heap size 9 MB, throughput 0.989434
Reading from 13819: heap size 9 MB, throughput 0.941745
Reading from 13820: heap size 9 MB, throughput 0.997392
Reading from 13819: heap size 9 MB, throughput 0.994426
Reading from 13819: heap size 9 MB, throughput 0.9771
Reading from 13819: heap size 12 MB, throughput 0.972864
Reading from 13819: heap size 12 MB, throughput 0.918371
Reading from 13819: heap size 16 MB, throughput 0.943389
Reading from 13820: heap size 9 MB, throughput 0.996335
Reading from 13819: heap size 17 MB, throughput 0.701294
Reading from 13819: heap size 25 MB, throughput 0.952747
Reading from 13820: heap size 9 MB, throughput 0.992921
Reading from 13820: heap size 10 MB, throughput 0.971376
Reading from 13820: heap size 10 MB, throughput 0.970048
Reading from 13819: heap size 26 MB, throughput 0.294846
Reading from 13820: heap size 12 MB, throughput 0.967719
Reading from 13819: heap size 39 MB, throughput 0.939036
Reading from 13819: heap size 39 MB, throughput 0.93888
Reading from 13819: heap size 39 MB, throughput 0.337815
Reading from 13819: heap size 53 MB, throughput 0.836734
Reading from 13820: heap size 12 MB, throughput 0.993802
Reading from 13819: heap size 55 MB, throughput 0.246414
Reading from 13819: heap size 72 MB, throughput 0.914663
Reading from 13820: heap size 14 MB, throughput 0.989979
Reading from 13819: heap size 73 MB, throughput 0.895143
Reading from 13819: heap size 74 MB, throughput 0.842083
Reading from 13820: heap size 15 MB, throughput 0.987352
Reading from 13819: heap size 74 MB, throughput 0.160779
Reading from 13819: heap size 99 MB, throughput 0.718733
Reading from 13819: heap size 100 MB, throughput 0.779863
Reading from 13819: heap size 101 MB, throughput 0.818388
Reading from 13819: heap size 103 MB, throughput 0.739331
Reading from 13819: heap size 105 MB, throughput 0.670749
Reading from 13820: heap size 19 MB, throughput 0.992579
Reading from 13819: heap size 106 MB, throughput 0.235724
Reading from 13819: heap size 137 MB, throughput 0.71412
Reading from 13819: heap size 138 MB, throughput 0.798231
Reading from 13819: heap size 139 MB, throughput 0.762711
Reading from 13819: heap size 140 MB, throughput 0.718187
Reading from 13819: heap size 143 MB, throughput 0.639356
Reading from 13819: heap size 146 MB, throughput 0.684674
Reading from 13819: heap size 149 MB, throughput 0.597096
Reading from 13820: heap size 19 MB, throughput 0.958301
Reading from 13819: heap size 151 MB, throughput 0.531992
Reading from 13819: heap size 157 MB, throughput 0.526978
Reading from 13819: heap size 160 MB, throughput 0.516918
Reading from 13820: heap size 28 MB, throughput 0.988418
Reading from 13820: heap size 29 MB, throughput 0.992001
Reading from 13819: heap size 166 MB, throughput 0.0901598
Reading from 13819: heap size 204 MB, throughput 0.3704
Reading from 13820: heap size 36 MB, throughput 0.97125
Reading from 13819: heap size 204 MB, throughput 0.630095
Reading from 13819: heap size 199 MB, throughput 0.821259
Reading from 13820: heap size 36 MB, throughput 0.992193
Reading from 13819: heap size 202 MB, throughput 0.854877
Reading from 13820: heap size 42 MB, throughput 0.990596
Reading from 13820: heap size 42 MB, throughput 0.990064
Reading from 13819: heap size 201 MB, throughput 0.926798
Reading from 13819: heap size 201 MB, throughput 0.83476
Reading from 13819: heap size 203 MB, throughput 0.522088
Reading from 13820: heap size 50 MB, throughput 0.996184
Reading from 13819: heap size 205 MB, throughput 0.500927
Reading from 13820: heap size 50 MB, throughput 0.990855
Reading from 13820: heap size 59 MB, throughput 0.984799
Reading from 13820: heap size 59 MB, throughput 0.987709
Reading from 13819: heap size 208 MB, throughput 0.113065
Reading from 13820: heap size 72 MB, throughput 0.990823
Reading from 13819: heap size 243 MB, throughput 0.422707
Reading from 13819: heap size 242 MB, throughput 0.834187
Reading from 13819: heap size 244 MB, throughput 0.792348
Reading from 13819: heap size 243 MB, throughput 0.771015
Reading from 13819: heap size 244 MB, throughput 0.773832
Reading from 13819: heap size 245 MB, throughput 0.836059
Reading from 13820: heap size 72 MB, throughput 0.916932
Reading from 13819: heap size 245 MB, throughput 0.757775
Reading from 13819: heap size 251 MB, throughput 0.792854
Reading from 13819: heap size 251 MB, throughput 0.785122
Reading from 13819: heap size 251 MB, throughput 0.663841
Reading from 13819: heap size 253 MB, throughput 0.853269
Reading from 13819: heap size 256 MB, throughput 0.980493
Reading from 13819: heap size 257 MB, throughput 0.949884
Reading from 13819: heap size 257 MB, throughput 0.85254
Reading from 13819: heap size 259 MB, throughput 0.384597
Reading from 13819: heap size 262 MB, throughput 0.868329
Reading from 13819: heap size 261 MB, throughput 0.868917
Reading from 13820: heap size 87 MB, throughput 0.998905
Reading from 13819: heap size 262 MB, throughput 0.925965
Reading from 13819: heap size 264 MB, throughput 0.916654
Reading from 13819: heap size 267 MB, throughput 0.808067
Equal recommendation: 288 MB each
Equal recommendation: 288 MB each
Reading from 13819: heap size 268 MB, throughput 0.00592079
Equal recommendation: 288 MB each
Equal recommendation: 288 MB each
Reading from 13820: heap size 87 MB, throughput 0.975992
Reading from 13820: heap size 96 MB, throughput 0.991798
Reading from 13820: heap size 96 MB, throughput 0.937206
Reading from 13820: heap size 109 MB, throughput 0.966142
Reading from 13820: heap size 109 MB, throughput 0.932618
Equal recommendation: 288 MB each
Reading from 13820: heap size 129 MB, throughput 0.997821
Reading from 13820: heap size 129 MB, throughput 0.989973
Reading from 13820: heap size 148 MB, throughput 0.994584
Reading from 13820: heap size 149 MB, throughput 0.973127
Reading from 13820: heap size 171 MB, throughput 0.99335
Reading from 13820: heap size 171 MB, throughput 0.998521
Reading from 13820: heap size 192 MB, throughput 0.986922
Reading from 13819: heap size 273 MB, throughput 0.754472
Reading from 13819: heap size 275 MB, throughput 0.922406
Reading from 13820: heap size 194 MB, throughput 0.99826
Reading from 13819: heap size 282 MB, throughput 0.560922
Reading from 13819: heap size 284 MB, throughput 0.924013
Reading from 13819: heap size 291 MB, throughput 0.928803
Equal recommendation: 288 MB each
Equal recommendation: 288 MB each
Equal recommendation: 288 MB each
Reading from 13820: heap size 204 MB, throughput 0.889532
Equal recommendation: 288 MB each
Reading from 13820: heap size 205 MB, throughput 0.997652
Equal recommendation: 288 MB each
Reading from 13820: heap size 205 MB, throughput 0.996277
Equal recommendation: 288 MB each
Reading from 13819: heap size 292 MB, throughput 0.814563
Reading from 13819: heap size 328 MB, throughput 0.713712
Equal recommendation: 288 MB each
Reading from 13819: heap size 286 MB, throughput 0.861282
Reading from 13819: heap size 329 MB, throughput 0.570623
Reading from 13819: heap size 291 MB, throughput 0.627278
Reading from 13820: heap size 205 MB, throughput 0.950435
Reading from 13819: heap size 321 MB, throughput 0.8674
Reading from 13819: heap size 294 MB, throughput 0.327772
Equal recommendation: 288 MB each
Reading from 13819: heap size 315 MB, throughput 0.939565
Equal recommendation: 288 MB each
Equal recommendation: 288 MB each
Reading from 13819: heap size 294 MB, throughput 0.0395061
Equal recommendation: 288 MB each
Reading from 13819: heap size 311 MB, throughput 0.966047
Reading from 13819: heap size 293 MB, throughput 0.810559
Reading from 13819: heap size 307 MB, throughput 0.959964
Equal recommendation: 288 MB each
Reading from 13819: heap size 292 MB, throughput 0.5617
Reading from 13819: heap size 303 MB, throughput 0.922501
Reading from 13819: heap size 292 MB, throughput 0.620466
Reading from 13819: heap size 302 MB, throughput 0.935146
Reading from 13819: heap size 293 MB, throughput 0.840379
Reading from 13819: heap size 301 MB, throughput 0.887734
Reading from 13819: heap size 301 MB, throughput 0.976985
Reading from 13819: heap size 301 MB, throughput 0.930491
Equal recommendation: 288 MB each
Reading from 13819: heap size 294 MB, throughput 0.923803
Reading from 13819: heap size 300 MB, throughput 0.782998
Reading from 13819: heap size 300 MB, throughput 0.263478
Reading from 13819: heap size 332 MB, throughput 0.946244
Reading from 13819: heap size 337 MB, throughput 0.937814
Reading from 13819: heap size 338 MB, throughput 0.87826
Reading from 13819: heap size 312 MB, throughput 0.855522
Reading from 13819: heap size 333 MB, throughput 0.769569
Reading from 13819: heap size 311 MB, throughput 0.271407
Reading from 13819: heap size 329 MB, throughput 0.60229
Reading from 13819: heap size 310 MB, throughput 0.760608
Reading from 13819: heap size 326 MB, throughput 0.666808
Reading from 13819: heap size 309 MB, throughput 0.953958
Reading from 13819: heap size 323 MB, throughput 0.994176
Reading from 13819: heap size 325 MB, throughput 0.993124
Equal recommendation: 288 MB each
Reading from 13819: heap size 326 MB, throughput 0.982118
Reading from 13820: heap size 204 MB, throughput 0.953267
Reading from 13819: heap size 288 MB, throughput 0.983181
Reading from 13819: heap size 325 MB, throughput 0.983833
Reading from 13819: heap size 291 MB, throughput 0.930281
Equal recommendation: 288 MB each
Reading from 13819: heap size 321 MB, throughput 0.944396
Reading from 13819: heap size 294 MB, throughput 0.927833
Reading from 13819: heap size 317 MB, throughput 0.861209
Reading from 13819: heap size 297 MB, throughput 0.798387
Reading from 13819: heap size 314 MB, throughput 0.877705
Reading from 13819: heap size 300 MB, throughput 0.801943
Equal recommendation: 288 MB each
Reading from 13819: heap size 313 MB, throughput 0.868296
Reading from 13820: heap size 205 MB, throughput 0.861091
Reading from 13819: heap size 314 MB, throughput 0.946985
Reading from 13819: heap size 313 MB, throughput 0.916284
Reading from 13820: heap size 205 MB, throughput 0.998906
Reading from 13819: heap size 314 MB, throughput 0.966109
Reading from 13819: heap size 314 MB, throughput 0.963468
Reading from 13820: heap size 206 MB, throughput 0.998647
Reading from 13819: heap size 315 MB, throughput 0.958315
Reading from 13819: heap size 315 MB, throughput 0.96674
Reading from 13820: heap size 206 MB, throughput 0.98682
Reading from 13819: heap size 315 MB, throughput 0.542163
Reading from 13820: heap size 206 MB, throughput 0.998549
Reading from 13819: heap size 315 MB, throughput 0.934945
Reading from 13820: heap size 206 MB, throughput 0.9855
Reading from 13819: heap size 304 MB, throughput 0.98116
Reading from 13820: heap size 206 MB, throughput 0.998632
Reading from 13819: heap size 315 MB, throughput 0.958506
Equal recommendation: 288 MB each
Reading from 13819: heap size 304 MB, throughput 0.974079
Reading from 13820: heap size 205 MB, throughput 0.998943
Reading from 13819: heap size 314 MB, throughput 0.954534
Reading from 13819: heap size 304 MB, throughput 0.975912
Reading from 13820: heap size 206 MB, throughput 0.999037
Reading from 13819: heap size 313 MB, throughput 0.97664
Reading from 13820: heap size 207 MB, throughput 0.998911
Reading from 13819: heap size 313 MB, throughput 0.908771
Reading from 13819: heap size 312 MB, throughput 0.971776
Reading from 13820: heap size 207 MB, throughput 0.998544
Reading from 13819: heap size 304 MB, throughput 0.91633
Reading from 13820: heap size 206 MB, throughput 0.998959
Reading from 13819: heap size 311 MB, throughput 0.746439
Reading from 13819: heap size 312 MB, throughput 0.95555
Reading from 13820: heap size 206 MB, throughput 0.998704
Equal recommendation: 288 MB each
Equal recommendation: 288 MB each
Equal recommendation: 288 MB each
Equal recommendation: 288 MB each
Equal recommendation: 288 MB each
Equal recommendation: 288 MB each
Reading from 13819: heap size 312 MB, throughput 0.00104562
Equal recommendation: 288 MB each
Reading from 13819: heap size 312 MB, throughput 0.874041
Reading from 13819: heap size 316 MB, throughput 0.772473
Reading from 13819: heap size 318 MB, throughput 0.52573
Reading from 13819: heap size 319 MB, throughput 0.893099
Reading from 13819: heap size 319 MB, throughput 0.570528
Reading from 13819: heap size 319 MB, throughput 0.743582
Reading from 13819: heap size 287 MB, throughput 0.839064
Reading from 13819: heap size 319 MB, throughput 0.844658
Reading from 13819: heap size 288 MB, throughput 0.509032
Reading from 13819: heap size 314 MB, throughput 0.990031
Reading from 13819: heap size 290 MB, throughput 0.793222
Reading from 13819: heap size 312 MB, throughput 0.963522
Reading from 13819: heap size 293 MB, throughput 0.932953
Reading from 13819: heap size 308 MB, throughput 0.954277
Reading from 13819: heap size 296 MB, throughput 0.963881
Equal recommendation: 288 MB each
Reading from 13819: heap size 308 MB, throughput 0.59038
Reading from 13820: heap size 207 MB, throughput 0.995444
Reading from 13819: heap size 292 MB, throughput 0.965757
Reading from 13819: heap size 305 MB, throughput 0.971143
Reading from 13820: heap size 207 MB, throughput 0.829476
Reading from 13819: heap size 294 MB, throughput 0.979643
Reading from 13819: heap size 304 MB, throughput 0.976698
Reading from 13820: heap size 203 MB, throughput 0.985757
Reading from 13819: heap size 305 MB, throughput 0.955303
Reading from 13819: heap size 304 MB, throughput 0.949626
Reading from 13820: heap size 205 MB, throughput 0.992741
Reading from 13819: heap size 305 MB, throughput 0.934745
Reading from 13819: heap size 304 MB, throughput 0.97717
Reading from 13819: heap size 305 MB, throughput 0.831885
Reading from 13819: heap size 305 MB, throughput 0.770074
Reading from 13820: heap size 204 MB, throughput 0.362644
Reading from 13819: heap size 306 MB, throughput 0.907421
Reading from 13819: heap size 307 MB, throughput 0.863076
Equal recommendation: 288 MB each
Reading from 13820: heap size 206 MB, throughput 0.998793
Reading from 13819: heap size 307 MB, throughput 0.881589
Reading from 13819: heap size 307 MB, throughput 0.927004
Reading from 13820: heap size 206 MB, throughput 0.998407
Reading from 13819: heap size 307 MB, throughput 0.88137
Reading from 13819: heap size 307 MB, throughput 0.891709
Reading from 13820: heap size 206 MB, throughput 0.999058
Reading from 13819: heap size 307 MB, throughput 0.931893
Reading from 13820: heap size 207 MB, throughput 0.998879
Reading from 13819: heap size 306 MB, throughput 0.982015
Reading from 13819: heap size 307 MB, throughput 0.98008
Reading from 13820: heap size 203 MB, throughput 0.998996
Reading from 13819: heap size 306 MB, throughput 0.969257
Reading from 13819: heap size 298 MB, throughput 0.972926
Reading from 13820: heap size 206 MB, throughput 0.998482
Reading from 13819: heap size 306 MB, throughput 0.973306
Reading from 13819: heap size 298 MB, throughput 0.969109
Reading from 13820: heap size 206 MB, throughput 0.998512
Reading from 13819: heap size 304 MB, throughput 0.976696
Reading from 13820: heap size 206 MB, throughput 0.999012
Reading from 13819: heap size 305 MB, throughput 0.7647
Equal recommendation: 288 MB each
Reading from 13819: heap size 294 MB, throughput 0.987223
Reading from 13819: heap size 294 MB, throughput 0.96956
Reading from 13819: heap size 294 MB, throughput 0.908845
Reading from 13819: heap size 278 MB, throughput 0.838459
Reading from 13819: heap size 292 MB, throughput 0.793581
Reading from 13819: heap size 294 MB, throughput 0.804143
Reading from 13819: heap size 295 MB, throughput 0.804114
Reading from 13820: heap size 207 MB, throughput 0.998985
Reading from 13819: heap size 296 MB, throughput 0.777904
Reading from 13819: heap size 296 MB, throughput 0.791811
Reading from 13819: heap size 297 MB, throughput 0.800059
Reading from 13819: heap size 297 MB, throughput 0.778838
Reading from 13819: heap size 297 MB, throughput 0.811785
Reading from 13819: heap size 297 MB, throughput 0.730086
Reading from 13819: heap size 297 MB, throughput 0.954231
Reading from 13819: heap size 296 MB, throughput 0.984291
Reading from 13820: heap size 208 MB, throughput 0.993714
Reading from 13819: heap size 297 MB, throughput 0.9901
Reading from 13820: heap size 207 MB, throughput 0.97644
Reading from 13819: heap size 297 MB, throughput 0.989904
Reading from 13819: heap size 298 MB, throughput 0.988347
Reading from 13820: heap size 205 MB, throughput 0.997157
Reading from 13819: heap size 297 MB, throughput 0.989229
Reading from 13819: heap size 265 MB, throughput 0.986462
Reading from 13820: heap size 205 MB, throughput 0.998201
Reading from 13819: heap size 297 MB, throughput 0.988729
Reading from 13819: heap size 268 MB, throughput 0.984266
Reading from 13820: heap size 206 MB, throughput 0.998492
Reading from 13819: heap size 295 MB, throughput 0.982318
Reading from 13819: heap size 272 MB, throughput 0.984497
Reading from 13820: heap size 206 MB, throughput 0.996786
Reading from 13819: heap size 291 MB, throughput 0.977768
Reading from 13819: heap size 275 MB, throughput 0.976537
Reading from 13820: heap size 206 MB, throughput 0.99848
Reading from 13819: heap size 291 MB, throughput 0.980788
Reading from 13819: heap size 278 MB, throughput 0.982482
Reading from 13820: heap size 206 MB, throughput 0.998196
Reading from 13819: heap size 290 MB, throughput 0.979053
Equal recommendation: 288 MB each
Reading from 13819: heap size 290 MB, throughput 0.974136
Reading from 13820: heap size 206 MB, throughput 0.996866
Reading from 13819: heap size 290 MB, throughput 0.971269
Reading from 13819: heap size 290 MB, throughput 0.979276
Reading from 13819: heap size 290 MB, throughput 0.97481
Reading from 13820: heap size 206 MB, throughput 0.99798
Reading from 13819: heap size 290 MB, throughput 0.977941
Reading from 13819: heap size 289 MB, throughput 0.974981
Reading from 13820: heap size 206 MB, throughput 0.998009
Reading from 13819: heap size 290 MB, throughput 0.958017
Reading from 13819: heap size 290 MB, throughput 0.975018
Reading from 13820: heap size 206 MB, throughput 0.996874
Reading from 13819: heap size 281 MB, throughput 0.972456
Reading from 13819: heap size 289 MB, throughput 0.968914
Reading from 13820: heap size 206 MB, throughput 0.985083
Reading from 13819: heap size 289 MB, throughput 0.975124
Reading from 13819: heap size 289 MB, throughput 0.97185
Reading from 13820: heap size 203 MB, throughput 0.997813
Reading from 13819: heap size 282 MB, throughput 0.974302
Reading from 13819: heap size 289 MB, throughput 0.97668
Reading from 13820: heap size 205 MB, throughput 0.997842
Reading from 13819: heap size 282 MB, throughput 0.980617
Reading from 13820: heap size 205 MB, throughput 0.995582
Reading from 13819: heap size 288 MB, throughput 0.932215
Equal recommendation: 288 MB each
Reading from 13820: heap size 206 MB, throughput 0.977705
Reading from 13819: heap size 282 MB, throughput 0.981192
Reading from 13819: heap size 288 MB, throughput 0.973678
Reading from 13820: heap size 206 MB, throughput 0.997861
Reading from 13819: heap size 288 MB, throughput 0.956306
Reading from 13820: heap size 205 MB, throughput 0.994326
Reading from 13819: heap size 289 MB, throughput 0.720135
Reading from 13819: heap size 313 MB, throughput 0.98428
Reading from 13820: heap size 206 MB, throughput 0.998257
Reading from 13819: heap size 317 MB, throughput 0.971233
Reading from 13819: heap size 305 MB, throughput 0.918371
Reading from 13819: heap size 317 MB, throughput 0.84165
Equal recommendation: 288 MB each
Reading from 13819: heap size 317 MB, throughput 0.00530433
Equal recommendation: 288 MB each
Reading from 13820: heap size 205 MB, throughput 0.957242
Reading from 13820: heap size 205 MB, throughput 0.997356
Reading from 13820: heap size 206 MB, throughput 0.998491
Reading from 13819: heap size 315 MB, throughput 0.414598
Reading from 13819: heap size 319 MB, throughput 0.980721
Reading from 13819: heap size 319 MB, throughput 0.97795
Reading from 13820: heap size 204 MB, throughput 0.998058
Reading from 13819: heap size 321 MB, throughput 0.953784
Reading from 13819: heap size 321 MB, throughput 0.97863
Reading from 13819: heap size 322 MB, throughput 0.970164
Reading from 13820: heap size 206 MB, throughput 0.998054
Equal recommendation: 288 MB each
Reading from 13819: heap size 323 MB, throughput 0.948223
Reading from 13819: heap size 323 MB, throughput 0.966187
Reading from 13819: heap size 323 MB, throughput 0.950063
Reading from 13819: heap size 323 MB, throughput 0.981303
Reading from 13820: heap size 206 MB, throughput 0.998158
Reading from 13820: heap size 206 MB, throughput 0.998246
Equal recommendation: 288 MB each
Equal recommendation: 288 MB each
Equal recommendation: 288 MB each
Reading from 13819: heap size 323 MB, throughput 0.0406609
Equal recommendation: 288 MB each
Equal recommendation: 288 MB each
Reading from 13820: heap size 206 MB, throughput 0.937947
Reading from 13820: heap size 207 MB, throughput 0.912136
Reading from 13820: heap size 207 MB, throughput 0.824903
Equal recommendation: 288 MB each
Equal recommendation: 288 MB each
Reading from 13820: heap size 207 MB, throughput 0.98963
Reading from 13820: heap size 207 MB, throughput 0.942241
Reading from 13820: heap size 205 MB, throughput 0.998186
Equal recommendation: 288 MB each
Reading from 13820: heap size 206 MB, throughput 0.998574
Reading from 13820: heap size 206 MB, throughput 0.997991
Reading from 13820: heap size 204 MB, throughput 0.997842
Reading from 13820: heap size 206 MB, throughput 0.783933
Reading from 13819: heap size 323 MB, throughput 0.987513
Reading from 13819: heap size 324 MB, throughput 0.98136
Reading from 13820: heap size 206 MB, throughput 0.97604
Reading from 13819: heap size 325 MB, throughput 0.983679
Reading from 13820: heap size 206 MB, throughput 0.994043
Reading from 13819: heap size 325 MB, throughput 0.94692
Reading from 13819: heap size 284 MB, throughput 0.954966
Reading from 13820: heap size 206 MB, throughput 0.996095
Reading from 13819: heap size 327 MB, throughput 0.781603
Equal recommendation: 288 MB each
Reading from 13819: heap size 287 MB, throughput 0.968996
Reading from 13820: heap size 206 MB, throughput 0.981288
Reading from 13819: heap size 325 MB, throughput 0.859792
Reading from 13819: heap size 291 MB, throughput 0.912172
Reading from 13820: heap size 206 MB, throughput 0.990449
Reading from 13819: heap size 318 MB, throughput 0.907285
Reading from 13819: heap size 293 MB, throughput 0.740926
Reading from 13820: heap size 206 MB, throughput 0.981025
Reading from 13819: heap size 313 MB, throughput 0.909091
Reading from 13820: heap size 206 MB, throughput 0.962881
Reading from 13819: heap size 295 MB, throughput 0.694358
Reading from 13819: heap size 311 MB, throughput 0.825864
Reading from 13820: heap size 206 MB, throughput 0.991008
Reading from 13820: heap size 206 MB, throughput 0.978185
Reading from 13819: heap size 297 MB, throughput 0.943786
Reading from 13819: heap size 310 MB, throughput 0.896519
Reading from 13820: heap size 205 MB, throughput 0.996611
Reading from 13819: heap size 298 MB, throughput 0.930042
Reading from 13819: heap size 309 MB, throughput 0.968951
Reading from 13819: heap size 298 MB, throughput 0.95804
Reading from 13819: heap size 308 MB, throughput 0.948934
Equal recommendation: 288 MB each
Reading from 13819: heap size 298 MB, throughput 0.969169
Reading from 13819: heap size 307 MB, throughput 0.94318
Reading from 13820: heap size 206 MB, throughput 0.342632
Reading from 13819: heap size 298 MB, throughput 0.928154
Reading from 13819: heap size 306 MB, throughput 0.944066
Reading from 13820: heap size 206 MB, throughput 0.998515
Reading from 13819: heap size 298 MB, throughput 0.907098
Reading from 13819: heap size 305 MB, throughput 0.956484
Reading from 13820: heap size 206 MB, throughput 0.994218
Reading from 13820: heap size 207 MB, throughput 0.912389
Equal recommendation: 288 MB each
Reading from 13820: heap size 203 MB, throughput 0.995136
Reading from 13820: heap size 206 MB, throughput 0.963424
Reading from 13820: heap size 206 MB, throughput 0.999264
Reading from 13820: heap size 207 MB, throughput 0.922566
Equal recommendation: 288 MB each
Reading from 13819: heap size 305 MB, throughput 0.0403094
Reading from 13820: heap size 204 MB, throughput 0.998548
Reading from 13819: heap size 287 MB, throughput 0.849051
Reading from 13820: heap size 207 MB, throughput 0.98668
Reading from 13819: heap size 288 MB, throughput 0.982575
Reading from 13819: heap size 290 MB, throughput 0.986958
Reading from 13820: heap size 207 MB, throughput 0.988097
Reading from 13819: heap size 291 MB, throughput 0.993481
Reading from 13819: heap size 291 MB, throughput 0.988587
Reading from 13820: heap size 207 MB, throughput 0.999085
Reading from 13819: heap size 272 MB, throughput 0.986924
Reading from 13819: heap size 291 MB, throughput 0.98192
Reading from 13819: heap size 275 MB, throughput 0.985528
Reading from 13819: heap size 289 MB, throughput 0.976406
Reading from 13820: heap size 207 MB, throughput 0.998933
Reading from 13819: heap size 278 MB, throughput 0.960998
Reading from 13819: heap size 289 MB, throughput 0.977505
Reading from 13820: heap size 207 MB, throughput 0.921732
Reading from 13820: heap size 208 MB, throughput 0.998001
Reading from 13819: heap size 288 MB, throughput 0.730027
Equal recommendation: 288 MB each
Reading from 13820: heap size 207 MB, throughput 0.996118
Reading from 13820: heap size 207 MB, throughput 0.868508
Reading from 13819: heap size 284 MB, throughput 0.0857189
Reading from 13820: heap size 207 MB, throughput 0.974381
Reading from 13820: heap size 207 MB, throughput 0.995301
Reading from 13820: heap size 206 MB, throughput 0.98625
Equal recommendation: 288 MB each
Reading from 13820: heap size 207 MB, throughput 0.99226
Reading from 13820: heap size 208 MB, throughput 0.998967
Reading from 13820: heap size 205 MB, throughput 0.998789
Reading from 13820: heap size 207 MB, throughput 0.993858
Reading from 13819: heap size 288 MB, throughput 0.976932
Reading from 13819: heap size 292 MB, throughput 0.526918
Reading from 13819: heap size 296 MB, throughput 0.319742
Reading from 13820: heap size 207 MB, throughput 0.99903
Reading from 13819: heap size 297 MB, throughput 0.175463
Reading from 13819: heap size 297 MB, throughput 0.450473
Reading from 13819: heap size 301 MB, throughput 0.077951
Equal recommendation: 288 MB each
Reading from 13820: heap size 207 MB, throughput 0.89513
Equal recommendation: 288 MB each
Equal recommendation: 288 MB each
Reading from 13819: heap size 304 MB, throughput 0.00116053
Reading from 13819: heap size 313 MB, throughput 0.980896
Reading from 13819: heap size 316 MB, throughput 0.666978
Reading from 13819: heap size 317 MB, throughput 0.972621
Reading from 13819: heap size 317 MB, throughput 0.973008
Reading from 13819: heap size 316 MB, throughput 0.970957
Reading from 13819: heap size 273 MB, throughput 0.974087
Reading from 13819: heap size 317 MB, throughput 0.974447
Reading from 13819: heap size 274 MB, throughput 0.97755
Reading from 13819: heap size 316 MB, throughput 0.981158
Reading from 13819: heap size 277 MB, throughput 0.997935
Reading from 13819: heap size 313 MB, throughput 0.991926
Reading from 13819: heap size 278 MB, throughput 0.990917
Reading from 13819: heap size 310 MB, throughput 0.989479
Reading from 13819: heap size 282 MB, throughput 0.834615
Reading from 13820: heap size 208 MB, throughput 0.997353
Reading from 13819: heap size 308 MB, throughput 0.989495
Reading from 13819: heap size 286 MB, throughput 0.985247
Reading from 13819: heap size 306 MB, throughput 0.89461
Reading from 13819: heap size 290 MB, throughput 0.926974
Reading from 13819: heap size 304 MB, throughput 0.968318
Reading from 13819: heap size 304 MB, throughput 0.849073
Reading from 13820: heap size 209 MB, throughput 0.953786
Reading from 13819: heap size 304 MB, throughput 0.974572
Equal recommendation: 288 MB each
Reading from 13820: heap size 209 MB, throughput 0.935259
Reading from 13819: heap size 304 MB, throughput 0.979418
Reading from 13819: heap size 304 MB, throughput 0.964105
Reading from 13819: heap size 305 MB, throughput 0.924998
Reading from 13820: heap size 206 MB, throughput 0.934338
Reading from 13819: heap size 305 MB, throughput 0.969509
Reading from 13820: heap size 207 MB, throughput 0.987559
Reading from 13819: heap size 306 MB, throughput 0.9555
Reading from 13819: heap size 306 MB, throughput 0.973859
Reading from 13819: heap size 307 MB, throughput 0.879244
Reading from 13820: heap size 207 MB, throughput 0.999103
Reading from 13819: heap size 307 MB, throughput 0.889194
Reading from 13819: heap size 307 MB, throughput 0.97457
Reading from 13820: heap size 207 MB, throughput 0.986357
Reading from 13819: heap size 307 MB, throughput 0.964355
Reading from 13819: heap size 307 MB, throughput 0.973886
Reading from 13820: heap size 208 MB, throughput 0.998942
Reading from 13819: heap size 306 MB, throughput 0.970963
Reading from 13819: heap size 307 MB, throughput 0.954832
Reading from 13819: heap size 306 MB, throughput 0.975564
Reading from 13820: heap size 205 MB, throughput 0.978088
Reading from 13819: heap size 296 MB, throughput 0.946704
Reading from 13819: heap size 305 MB, throughput 0.940115
Reading from 13820: heap size 207 MB, throughput 0.992861
Equal recommendation: 288 MB each
Reading from 13819: heap size 296 MB, throughput 0.978525
Reading from 13820: heap size 207 MB, throughput 0.998437
Reading from 13819: heap size 305 MB, throughput 0.982879
Reading from 13819: heap size 296 MB, throughput 0.976624
Reading from 13819: heap size 303 MB, throughput 0.97136
Reading from 13820: heap size 208 MB, throughput 0.998687
Reading from 13819: heap size 296 MB, throughput 0.969283
Reading from 13819: heap size 302 MB, throughput 0.963825
Reading from 13820: heap size 206 MB, throughput 0.999088
Reading from 13819: heap size 296 MB, throughput 0.979975
Reading from 13819: heap size 301 MB, throughput 0.9661
Reading from 13820: heap size 208 MB, throughput 0.998855
Reading from 13819: heap size 295 MB, throughput 0.969829
Reading from 13819: heap size 300 MB, throughput 0.976354
Reading from 13820: heap size 208 MB, throughput 0.998999
Reading from 13819: heap size 301 MB, throughput 0.980678
Reading from 13820: heap size 209 MB, throughput 0.978195
Reading from 13819: heap size 302 MB, throughput 0.948283
Reading from 13819: heap size 302 MB, throughput 0.921343
Reading from 13819: heap size 303 MB, throughput 0.875181
Reading from 13819: heap size 305 MB, throughput 0.152098
Reading from 13820: heap size 209 MB, throughput 0.947693
Reading from 13819: heap size 290 MB, throughput 0.927491
Reading from 13819: heap size 295 MB, throughput 0.816295
Reading from 13819: heap size 295 MB, throughput 0.8631
Reading from 13819: heap size 296 MB, throughput 0.855733
Reading from 13819: heap size 296 MB, throughput 0.877524
Reading from 13819: heap size 270 MB, throughput 0.878189
Reading from 13819: heap size 296 MB, throughput 0.883492
Reading from 13819: heap size 270 MB, throughput 0.876664
Reading from 13819: heap size 295 MB, throughput 0.870479
Reading from 13819: heap size 271 MB, throughput 0.878295
Reading from 13819: heap size 294 MB, throughput 0.880911
Reading from 13819: heap size 272 MB, throughput 0.886425
Reading from 13819: heap size 293 MB, throughput 0.882653
Reading from 13819: heap size 275 MB, throughput 0.984597
Reading from 13820: heap size 206 MB, throughput 0.998031
Reading from 13819: heap size 292 MB, throughput 0.986459
Equal recommendation: 288 MB each
Reading from 13819: heap size 276 MB, throughput 0.980706
Reading from 13819: heap size 290 MB, throughput 0.989445
Reading from 13819: heap size 290 MB, throughput 0.991372
Reading from 13819: heap size 288 MB, throughput 0.989596
Reading from 13819: heap size 289 MB, throughput 0.985489
Reading from 13819: heap size 285 MB, throughput 0.984443
Reading from 13819: heap size 274 MB, throughput 0.980297
Reading from 13819: heap size 285 MB, throughput 0.981568
Reading from 13820: heap size 206 MB, throughput 0.287192
Reading from 13819: heap size 286 MB, throughput 0.971074
Reading from 13819: heap size 286 MB, throughput 0.982301
Reading from 13819: heap size 286 MB, throughput 0.977799
Reading from 13820: heap size 210 MB, throughput 0.999031
Reading from 13819: heap size 287 MB, throughput 0.970295
Reading from 13819: heap size 287 MB, throughput 0.97855
Reading from 13820: heap size 209 MB, throughput 0.998902
Reading from 13819: heap size 288 MB, throughput 0.980507
Reading from 13819: heap size 289 MB, throughput 0.974589
Reading from 13820: heap size 209 MB, throughput 0.99815
Reading from 13819: heap size 290 MB, throughput 0.976445
Reading from 13819: heap size 290 MB, throughput 0.979617
Reading from 13819: heap size 290 MB, throughput 0.973963
Reading from 13820: heap size 209 MB, throughput 0.99886
Reading from 13819: heap size 291 MB, throughput 0.973853
Equal recommendation: 288 MB each
Reading from 13819: heap size 291 MB, throughput 0.979014
Reading from 13820: heap size 209 MB, throughput 0.998429
Reading from 13819: heap size 291 MB, throughput 0.976313
Reading from 13819: heap size 291 MB, throughput 0.974348
Reading from 13820: heap size 209 MB, throughput 0.998897
Reading from 13819: heap size 291 MB, throughput 0.973283
Reading from 13819: heap size 291 MB, throughput 0.970403
Reading from 13820: heap size 210 MB, throughput 0.99797
Reading from 13819: heap size 291 MB, throughput 0.976384
Reading from 13819: heap size 291 MB, throughput 0.974933
Reading from 13819: heap size 284 MB, throughput 0.971661
Reading from 13820: heap size 207 MB, throughput 0.998378
Reading from 13819: heap size 291 MB, throughput 0.968188
Reading from 13819: heap size 291 MB, throughput 0.979878
Reading from 13820: heap size 210 MB, throughput 0.998901
Reading from 13819: heap size 290 MB, throughput 0.9721
Reading from 13819: heap size 290 MB, throughput 0.973752
Reading from 13820: heap size 210 MB, throughput 0.998884
Reading from 13819: heap size 289 MB, throughput 0.972682
Reading from 13819: heap size 290 MB, throughput 0.974477
Reading from 13820: heap size 210 MB, throughput 0.996586
Reading from 13819: heap size 289 MB, throughput 0.647078
Reading from 13820: heap size 210 MB, throughput 0.985239
Reading from 13819: heap size 285 MB, throughput 0.991366
Reading from 13820: heap size 208 MB, throughput 0.995583
Equal recommendation: 288 MB each
Reading from 13819: heap size 288 MB, throughput 0.992205
Reading from 13819: heap size 290 MB, throughput 0.985407
Reading from 13820: heap size 210 MB, throughput 0.998311
Reading from 13819: heap size 291 MB, throughput 0.981585
Reading from 13819: heap size 277 MB, throughput 0.984593
Reading from 13820: heap size 209 MB, throughput 0.998089
Reading from 13819: heap size 291 MB, throughput 0.967316
Reading from 13819: heap size 291 MB, throughput 0.945151
Reading from 13819: heap size 295 MB, throughput 0.902644
Equal recommendation: 288 MB each
Reading from 13819: heap size 295 MB, throughput 0.00379611
Equal recommendation: 288 MB each
Equal recommendation: 288 MB each
Reading from 13820: heap size 209 MB, throughput 0.939413
Equal recommendation: 288 MB each
Reading from 13820: heap size 208 MB, throughput 0.992391
Reading from 13820: heap size 209 MB, throughput 0.963571
Equal recommendation: 288 MB each
Reading from 13820: heap size 209 MB, throughput 0.985117
Reading from 13820: heap size 209 MB, throughput 0.998322
Reading from 13820: heap size 209 MB, throughput 0.998431
Reading from 13820: heap size 206 MB, throughput 0.998135
Reading from 13820: heap size 208 MB, throughput 0.998345
Reading from 13820: heap size 208 MB, throughput 0.9098
Reading from 13820: heap size 209 MB, throughput 0.967598
Equal recommendation: 288 MB each
Reading from 13819: heap size 292 MB, throughput 0.753757
Reading from 13819: heap size 295 MB, throughput 0.940623
Reading from 13819: heap size 299 MB, throughput 0.948384
Reading from 13819: heap size 302 MB, throughput 0.928625
Reading from 13819: heap size 303 MB, throughput 0.581281
Reading from 13820: heap size 209 MB, throughput 0.97426
Equal recommendation: 288 MB each
Reading from 13820: heap size 208 MB, throughput 0.98357
Reading from 13820: heap size 209 MB, throughput 0.987676
Reading from 13820: heap size 209 MB, throughput 0.998127
Reading from 13819: heap size 305 MB, throughput 0.064031
Reading from 13819: heap size 314 MB, throughput 0.97353
Reading from 13819: heap size 315 MB, throughput 0.972327
Reading from 13819: heap size 315 MB, throughput 0.963981
Reading from 13819: heap size 316 MB, throughput 0.969191
Reading from 13819: heap size 315 MB, throughput 0.969262
Reading from 13819: heap size 269 MB, throughput 0.971524
Reading from 13820: heap size 206 MB, throughput 0.993097
Reading from 13819: heap size 315 MB, throughput 0.964834
Reading from 13819: heap size 270 MB, throughput 0.973308
Reading from 13819: heap size 313 MB, throughput 0.973066
Equal recommendation: 288 MB each
Reading from 13819: heap size 273 MB, throughput 0.997874
Reading from 13820: heap size 208 MB, throughput 0.997833
Reading from 13819: heap size 310 MB, throughput 0.985731
Reading from 13819: heap size 275 MB, throughput 0.988014
Reading from 13820: heap size 208 MB, throughput 0.998217
Reading from 13819: heap size 308 MB, throughput 0.985149
Reading from 13819: heap size 279 MB, throughput 0.984638
Reading from 13820: heap size 208 MB, throughput 0.994992
Reading from 13819: heap size 304 MB, throughput 0.98901
Reading from 13819: heap size 281 MB, throughput 0.980961
Reading from 13819: heap size 301 MB, throughput 0.98036
Reading from 13820: heap size 209 MB, throughput 0.981122
Reading from 13819: heap size 284 MB, throughput 0.983858
Reading from 13819: heap size 301 MB, throughput 0.97939
Reading from 13820: heap size 210 MB, throughput 0.998047
Reading from 13819: heap size 287 MB, throughput 0.984902
Reading from 13819: heap size 300 MB, throughput 0.965461
Reading from 13819: heap size 300 MB, throughput 0.982128
Reading from 13820: heap size 210 MB, throughput 0.99809
Reading from 13819: heap size 300 MB, throughput 0.980956
Reading from 13819: heap size 300 MB, throughput 0.978947
Reading from 13820: heap size 209 MB, throughput 0.996885
Reading from 13819: heap size 300 MB, throughput 0.982975
Reading from 13819: heap size 301 MB, throughput 0.972939
Reading from 13819: heap size 301 MB, throughput 0.973795
Reading from 13820: heap size 209 MB, throughput 0.982916
Equal recommendation: 288 MB each
Reading from 13819: heap size 301 MB, throughput 0.9642
Reading from 13819: heap size 301 MB, throughput 0.96823
Reading from 13820: heap size 210 MB, throughput 0.996812
Reading from 13819: heap size 301 MB, throughput 0.973568
Reading from 13819: heap size 300 MB, throughput 0.972614
Reading from 13819: heap size 301 MB, throughput 0.978481
Reading from 13820: heap size 210 MB, throughput 0.998038
Reading from 13819: heap size 301 MB, throughput 0.965635
Reading from 13820: heap size 210 MB, throughput 0.976395
Reading from 13819: heap size 291 MB, throughput 0.921336
Reading from 13820: heap size 210 MB, throughput 0.92779
Reading from 13819: heap size 299 MB, throughput 0.973965
Reading from 13819: heap size 300 MB, throughput 0.975154
Reading from 13819: heap size 299 MB, throughput 0.966024
Reading from 13820: heap size 208 MB, throughput 0.99059
Reading from 13819: heap size 291 MB, throughput 0.966205
Reading from 13819: heap size 298 MB, throughput 0.96966
Reading from 13819: heap size 298 MB, throughput 0.967575
Reading from 13820: heap size 209 MB, throughput 0.997538
Reading from 13819: heap size 297 MB, throughput 0.975141
Reading from 13819: heap size 291 MB, throughput 0.969603
Reading from 13820: heap size 209 MB, throughput 0.997765
Reading from 13819: heap size 296 MB, throughput 0.975406
Reading from 13819: heap size 297 MB, throughput 0.971899
Reading from 13820: heap size 209 MB, throughput 0.997939
Reading from 13819: heap size 296 MB, throughput 0.971701
Reading from 13819: heap size 291 MB, throughput 0.9717
Equal recommendation: 288 MB each
Reading from 13819: heap size 295 MB, throughput 0.970622
Reading from 13820: heap size 210 MB, throughput 0.998207
Reading from 13819: heap size 295 MB, throughput 0.899566
Reading from 13819: heap size 294 MB, throughput 0.97198
Reading from 13820: heap size 210 MB, throughput 0.998178
Reading from 13819: heap size 295 MB, throughput 0.963915
Reading from 13819: heap size 294 MB, throughput 0.949268
Reading from 13820: heap size 210 MB, throughput 0.997664
Reading from 13819: heap size 291 MB, throughput 0.686265
Reading from 13819: heap size 293 MB, throughput 0.980802
Reading from 13819: heap size 297 MB, throughput 0.952208
Reading from 13820: heap size 210 MB, throughput 0.997747
Reading from 13819: heap size 297 MB, throughput 0.961527
Reading from 13819: heap size 289 MB, throughput 0.886243
Reading from 13819: heap size 296 MB, throughput 0.846789
Reading from 13819: heap size 286 MB, throughput 0.773752
Reading from 13819: heap size 294 MB, throughput 0.720812
Reading from 13819: heap size 296 MB, throughput 0.631657
Reading from 13819: heap size 300 MB, throughput 0.628272
Reading from 13819: heap size 302 MB, throughput 0.649404
Reading from 13819: heap size 302 MB, throughput 0.650091
Reading from 13819: heap size 289 MB, throughput 0.717251
Reading from 13819: heap size 302 MB, throughput 0.763816
Reading from 13819: heap size 282 MB, throughput 0.0850529
Reading from 13819: heap size 301 MB, throughput 0.964777
Reading from 13819: heap size 303 MB, throughput 0.758296
Reading from 13819: heap size 303 MB, throughput 0.935136
Reading from 13819: heap size 304 MB, throughput 0.956674
Reading from 13819: heap size 304 MB, throughput 0.960523
Reading from 13819: heap size 267 MB, throughput 0.961364
Reading from 13819: heap size 303 MB, throughput 0.968927
Reading from 13819: heap size 267 MB, throughput 0.969773
Reading from 13819: heap size 302 MB, throughput 0.958971
Reading from 13819: heap size 269 MB, throughput 0.971017
Reading from 13819: heap size 301 MB, throughput 0.935011
Reading from 13819: heap size 272 MB, throughput 0.969426
Reading from 13820: heap size 209 MB, throughput 0.986034
Reading from 13819: heap size 299 MB, throughput 0.993189
Reading from 13819: heap size 272 MB, throughput 0.994013
Reading from 13819: heap size 297 MB, throughput 0.987552
Reading from 13820: heap size 209 MB, throughput 0.997818
Reading from 13819: heap size 275 MB, throughput 0.98804
Reading from 13819: heap size 293 MB, throughput 0.985545
Reading from 13819: heap size 278 MB, throughput 0.985264
Reading from 13820: heap size 210 MB, throughput 0.997318
Reading from 13819: heap size 293 MB, throughput 0.98602
Reading from 13819: heap size 281 MB, throughput 0.98114
Reading from 13819: heap size 292 MB, throughput 0.980742
Reading from 13819: heap size 282 MB, throughput 0.977726
Reading from 13820: heap size 210 MB, throughput 0.997986
Reading from 13819: heap size 291 MB, throughput 0.985564
Equal recommendation: 288 MB each
Reading from 13819: heap size 291 MB, throughput 0.972684
Reading from 13819: heap size 291 MB, throughput 0.960686
Reading from 13820: heap size 210 MB, throughput 0.997415
Reading from 13819: heap size 292 MB, throughput 0.974147
Reading from 13820: heap size 210 MB, throughput 0.932137
Reading from 13819: heap size 292 MB, throughput 0.973031
Reading from 13819: heap size 292 MB, throughput 0.976863
Reading from 13820: heap size 209 MB, throughput 0.995968
Reading from 13819: heap size 293 MB, throughput 0.975912
Reading from 13819: heap size 293 MB, throughput 0.973059
Reading from 13819: heap size 293 MB, throughput 0.979416
Reading from 13820: heap size 210 MB, throughput 0.99786
Reading from 13819: heap size 293 MB, throughput 0.982019
Reading from 13819: heap size 293 MB, throughput 0.970843
Reading from 13819: heap size 293 MB, throughput 0.956547
Reading from 13820: heap size 209 MB, throughput 0.997143
Reading from 13819: heap size 293 MB, throughput 0.969918
Reading from 13819: heap size 285 MB, throughput 0.97007
Reading from 13819: heap size 293 MB, throughput 0.970135
Reading from 13820: heap size 209 MB, throughput 0.996572
Reading from 13819: heap size 285 MB, throughput 0.97885
Reading from 13819: heap size 293 MB, throughput 0.977753
Reading from 13819: heap size 292 MB, throughput 0.975662
Reading from 13820: heap size 209 MB, throughput 0.997161
Reading from 13819: heap size 291 MB, throughput 0.973346
Reading from 13819: heap size 286 MB, throughput 0.971686
Reading from 13819: heap size 291 MB, throughput 0.978357
Reading from 13820: heap size 209 MB, throughput 0.998158
Reading from 13819: heap size 286 MB, throughput 0.972705
Reading from 13819: heap size 291 MB, throughput 0.964649
Reading from 13819: heap size 286 MB, throughput 0.971976
Equal recommendation: 288 MB each
Reading from 13820: heap size 210 MB, throughput 0.998095
Reading from 13819: heap size 290 MB, throughput 0.96956
Reading from 13819: heap size 286 MB, throughput 0.978792
Reading from 13819: heap size 290 MB, throughput 0.979881
Reading from 13820: heap size 210 MB, throughput 0.997775
Reading from 13819: heap size 290 MB, throughput 0.97099
Reading from 13819: heap size 289 MB, throughput 0.979304
Reading from 13819: heap size 289 MB, throughput 0.97148
Reading from 13820: heap size 210 MB, throughput 0.997879
Reading from 13819: heap size 288 MB, throughput 0.977433
Reading from 13819: heap size 289 MB, throughput 0.970002
Reading from 13819: heap size 289 MB, throughput 0.963798
Reading from 13820: heap size 208 MB, throughput 0.997688
Reading from 13819: heap size 289 MB, throughput 0.976887
Reading from 13819: heap size 288 MB, throughput 0.960807
Reading from 13819: heap size 288 MB, throughput 0.972511
Reading from 13820: heap size 209 MB, throughput 0.989902
Reading from 13819: heap size 287 MB, throughput 0.973675
Reading from 13819: heap size 288 MB, throughput 0.96498
Reading from 13819: heap size 286 MB, throughput 0.964981
Reading from 13820: heap size 209 MB, throughput 0.997909
Reading from 13819: heap size 288 MB, throughput 0.959797
Reading from 13819: heap size 289 MB, throughput 0.97055
Reading from 13819: heap size 287 MB, throughput 0.961508
Reading from 13820: heap size 210 MB, throughput 0.997842
Reading from 13819: heap size 289 MB, throughput 0.97977
Reading from 13819: heap size 289 MB, throughput 0.984642
Reading from 13820: heap size 210 MB, throughput 0.985877
Reading from 13819: heap size 290 MB, throughput 0.462172
Reading from 13820: heap size 210 MB, throughput 0.970748
Reading from 13819: heap size 271 MB, throughput 0.985355
Reading from 13819: heap size 274 MB, throughput 0.953368
Equal recommendation: 288 MB each
Reading from 13819: heap size 275 MB, throughput 0.959292
Reading from 13819: heap size 276 MB, throughput 0.909319
Reading from 13819: heap size 277 MB, throughput 0.80336
Reading from 13819: heap size 276 MB, throughput 0.758031
Equal recommendation: 288 MB each
Reading from 13819: heap size 280 MB, throughput 0.00240102
Equal recommendation: 288 MB each
Reading from 13820: heap size 210 MB, throughput 0.745498
Equal recommendation: 288 MB each
Reading from 13819: heap size 284 MB, throughput 0.472082
Reading from 13819: heap size 286 MB, throughput 0.983973
Reading from 13819: heap size 291 MB, throughput 0.408096
Reading from 13819: heap size 292 MB, throughput 0.733361
Reading from 13820: heap size 209 MB, throughput 0.99924
Reading from 13819: heap size 292 MB, throughput 0.991479
Reading from 13820: heap size 210 MB, throughput 0.988642
Equal recommendation: 288 MB each
Reading from 13820: heap size 210 MB, throughput 0.896226
Reading from 13820: heap size 210 MB, throughput 0.998149
Reading from 13820: heap size 210 MB, throughput 0.949685
Reading from 13820: heap size 210 MB, throughput 0.928495
Reading from 13820: heap size 210 MB, throughput 0.838292
Reading from 13819: heap size 280 MB, throughput 0.0507928
Reading from 13819: heap size 309 MB, throughput 0.979082
Reading from 13819: heap size 311 MB, throughput 0.974211
Reading from 13819: heap size 312 MB, throughput 0.973872
Reading from 13819: heap size 312 MB, throughput 0.971169
Reading from 13819: heap size 311 MB, throughput 0.978873
Reading from 13819: heap size 280 MB, throughput 0.989271
Reading from 13820: heap size 210 MB, throughput 0.99882
Reading from 13819: heap size 311 MB, throughput 0.994839
Reading from 13819: heap size 281 MB, throughput 0.970904
Equal recommendation: 288 MB each
Reading from 13819: heap size 310 MB, throughput 0.977114
Reading from 13820: heap size 209 MB, throughput 0.993115
Reading from 13819: heap size 285 MB, throughput 0.988395
Reading from 13819: heap size 309 MB, throughput 0.974762
Reading from 13820: heap size 209 MB, throughput 0.998809
Reading from 13819: heap size 288 MB, throughput 0.95048
Reading from 13819: heap size 303 MB, throughput 0.986625
Reading from 13820: heap size 209 MB, throughput 0.988805
Reading from 13819: heap size 290 MB, throughput 0.753694
Reading from 13819: heap size 302 MB, throughput 0.983651
Reading from 13819: heap size 292 MB, throughput 0.916435
Reading from 13820: heap size 209 MB, throughput 0.999195
Reading from 13819: heap size 302 MB, throughput 0.916515
Reading from 13819: heap size 302 MB, throughput 0.969357
Reading from 13819: heap size 302 MB, throughput 0.94626
Reading from 13819: heap size 302 MB, throughput 0.972524
Reading from 13819: heap size 303 MB, throughput 0.977671
Reading from 13819: heap size 303 MB, throughput 0.971093
Reading from 13819: heap size 303 MB, throughput 0.901493
Reading from 13819: heap size 304 MB, throughput 0.958679
Client 13820 died
Clients: 1
Reading from 13819: heap size 304 MB, throughput 0.971715
Reading from 13819: heap size 304 MB, throughput 0.9726
Reading from 13819: heap size 304 MB, throughput 0.978283
Reading from 13819: heap size 304 MB, throughput 0.964821
Recommendation: one client; give it all the memory
Reading from 13819: heap size 303 MB, throughput 0.975991
Reading from 13819: heap size 304 MB, throughput 0.977365
Reading from 13819: heap size 305 MB, throughput 0.97074
Reading from 13819: heap size 305 MB, throughput 0.978498
Reading from 13819: heap size 306 MB, throughput 0.972998
Reading from 13819: heap size 306 MB, throughput 0.930784
Reading from 13819: heap size 308 MB, throughput 0.95273
Reading from 13819: heap size 308 MB, throughput 0.966828
Reading from 13819: heap size 310 MB, throughput 0.925737
Reading from 13819: heap size 310 MB, throughput 0.968496
Reading from 13819: heap size 313 MB, throughput 0.974559
Reading from 13819: heap size 313 MB, throughput 0.957224
Reading from 13819: heap size 316 MB, throughput 0.925289
Reading from 13819: heap size 316 MB, throughput 0.971317
Reading from 13819: heap size 319 MB, throughput 0.970961
Reading from 13819: heap size 320 MB, throughput 0.963136
Reading from 13819: heap size 322 MB, throughput 0.985457
Recommendation: one client; give it all the memory
Reading from 13819: heap size 323 MB, throughput 0.973195
Reading from 13819: heap size 326 MB, throughput 0.911824
Reading from 13819: heap size 328 MB, throughput 0.816061
Reading from 13819: heap size 331 MB, throughput 0.761384
Reading from 13819: heap size 335 MB, throughput 0.723697
Reading from 13819: heap size 345 MB, throughput 0.192327
Reading from 13819: heap size 343 MB, throughput 0.987869
Reading from 13819: heap size 351 MB, throughput 0.980358
Reading from 13819: heap size 353 MB, throughput 0.981936
Reading from 13819: heap size 361 MB, throughput 0.981012
Reading from 13819: heap size 362 MB, throughput 0.994907
Reading from 13819: heap size 365 MB, throughput 0.995083
Reading from 13819: heap size 367 MB, throughput 0.992774
Reading from 13819: heap size 366 MB, throughput 0.99247
Reading from 13819: heap size 368 MB, throughput 0.990887
Reading from 13819: heap size 364 MB, throughput 0.989623
Reading from 13819: heap size 367 MB, throughput 0.991732
Recommendation: one client; give it all the memory
Reading from 13819: heap size 365 MB, throughput 0.989319
Reading from 13819: heap size 367 MB, throughput 0.987743
Reading from 13819: heap size 369 MB, throughput 0.986798
Reading from 13819: heap size 369 MB, throughput 0.985696
Reading from 13819: heap size 372 MB, throughput 0.983801
Reading from 13819: heap size 373 MB, throughput 0.98091
Reading from 13819: heap size 376 MB, throughput 0.981726
Reading from 13819: heap size 378 MB, throughput 0.981072
Reading from 13819: heap size 380 MB, throughput 0.978933
Recommendation: one client; give it all the memory
Reading from 13819: heap size 371 MB, throughput 0.978031
Reading from 13819: heap size 376 MB, throughput 0.987194
Reading from 13819: heap size 348 MB, throughput 0.973256
Reading from 13819: heap size 376 MB, throughput 0.873259
Reading from 13819: heap size 374 MB, throughput 0.789362
Reading from 13819: heap size 365 MB, throughput 0.752781
Reading from 13819: heap size 353 MB, throughput 0.752644
Reading from 13819: heap size 368 MB, throughput 0.758179
Reading from 13819: heap size 368 MB, throughput 0.763406
Reading from 13819: heap size 368 MB, throughput 0.779158
Reading from 13819: heap size 368 MB, throughput 0.957306
Reading from 13819: heap size 368 MB, throughput 0.828776
Reading from 13819: heap size 354 MB, throughput 0.994631
Reading from 13819: heap size 354 MB, throughput 0.994598
Reading from 13819: heap size 354 MB, throughput 0.992949
Reading from 13819: heap size 354 MB, throughput 0.991828
Reading from 13819: heap size 354 MB, throughput 0.98906
Reading from 13819: heap size 354 MB, throughput 0.991574
Recommendation: one client; give it all the memory
Reading from 13819: heap size 298 MB, throughput 0.99022
Reading from 13819: heap size 353 MB, throughput 0.987443
Reading from 13819: heap size 352 MB, throughput 0.989714
Reading from 13819: heap size 346 MB, throughput 0.986398
Reading from 13819: heap size 350 MB, throughput 0.987633
Reading from 13819: heap size 344 MB, throughput 0.98231
Reading from 13819: heap size 347 MB, throughput 0.980063
Reading from 13819: heap size 346 MB, throughput 0.98432
Reading from 13819: heap size 347 MB, throughput 0.985017
Reading from 13819: heap size 350 MB, throughput 0.980264
Recommendation: one client; give it all the memory
Reading from 13819: heap size 350 MB, throughput 0.980208
Reading from 13819: heap size 354 MB, throughput 0.980145
Reading from 13819: heap size 355 MB, throughput 0.975061
Reading from 13819: heap size 360 MB, throughput 0.973166
Reading from 13819: heap size 360 MB, throughput 0.981305
Reading from 13819: heap size 368 MB, throughput 0.901945
Reading from 13819: heap size 358 MB, throughput 0.790108
Reading from 13819: heap size 355 MB, throughput 0.781673
Reading from 13819: heap size 346 MB, throughput 0.778917
Reading from 13819: heap size 353 MB, throughput 0.762527
Reading from 13819: heap size 354 MB, throughput 0.77554
Reading from 13819: heap size 354 MB, throughput 0.835534
Reading from 13819: heap size 354 MB, throughput 0.972095
Reading from 13819: heap size 354 MB, throughput 0.988949
Reading from 13819: heap size 354 MB, throughput 0.990344
Reading from 13819: heap size 354 MB, throughput 0.991591
Reading from 13819: heap size 354 MB, throughput 0.989939
Reading from 13819: heap size 352 MB, throughput 0.9878
Recommendation: one client; give it all the memory
Reading from 13819: heap size 353 MB, throughput 0.988535
Reading from 13819: heap size 351 MB, throughput 0.986094
Reading from 13819: heap size 353 MB, throughput 0.986341
Reading from 13819: heap size 348 MB, throughput 0.983271
Reading from 13819: heap size 351 MB, throughput 0.984955
Reading from 13819: heap size 347 MB, throughput 0.981807
Reading from 13819: heap size 350 MB, throughput 0.984045
Reading from 13819: heap size 350 MB, throughput 0.982845
Reading from 13819: heap size 351 MB, throughput 0.978232
Reading from 13819: heap size 354 MB, throughput 0.977801
Recommendation: one client; give it all the memory
Reading from 13819: heap size 354 MB, throughput 0.842856
Reading from 13819: heap size 377 MB, throughput 0.99469
Reading from 13819: heap size 377 MB, throughput 0.992962
Reading from 13819: heap size 383 MB, throughput 0.992929
Reading from 13819: heap size 383 MB, throughput 0.991939
Reading from 13819: heap size 380 MB, throughput 0.984158
Reading from 13819: heap size 383 MB, throughput 0.890821
Reading from 13819: heap size 379 MB, throughput 0.83369
Reading from 13819: heap size 378 MB, throughput 0.83259
Reading from 13819: heap size 373 MB, throughput 0.79819
Reading from 13819: heap size 361 MB, throughput 0.804442
Reading from 13819: heap size 369 MB, throughput 0.777548
Client 13819 died
Clients: 0
Recommendation: no clients; no recommendation
Recommendation: no clients; no recommendation
ReadingThread: finished
TimerThread: finished
CommandThread: finished
Main: All threads killed, cleaning up
