MemTotal:       16318588 kB
MemFree:        15414984 kB
Buffers:          123628 kB
Cached:           509576 kB
SwapCached:            0 kB
Active:           353348 kB
Inactive:         355824 kB
Active(anon):      76772 kB
Inactive(anon):      748 kB
Active(file):     276576 kB
Inactive(file):   355076 kB
Unevictable:           0 kB
Mlocked:               0 kB
SwapTotal:      16728060 kB
SwapFree:       16728060 kB
Dirty:               448 kB
Writeback:             0 kB
AnonPages:         75968 kB
Mapped:            17100 kB
Shmem:              1552 kB
Slab:              61668 kB
SReclaimable:      43060 kB
SUnreclaim:        18608 kB
KernelStack:        1568 kB
PageTables:         3032 kB
NFS_Unstable:          0 kB
Bounce:                0 kB
WritebackTmp:          0 kB
CommitLimit:    24887352 kB
Committed_AS:     235292 kB
VmallocTotal:   34359738367 kB
VmallocUsed:      370636 kB
VmallocChunk:   34359363072 kB
HardwareCorrupted:     0 kB
AnonHugePages:     51200 kB
HugePages_Total:       0
HugePages_Free:        0
HugePages_Rsvd:        0
HugePages_Surp:        0
Hugepagesize:       2048 kB
DirectMap4k:       68544 kB
DirectMap2M:    16592896 kB
