economemd
    total memory: 2428 MB
    timer interval: 10 s
    timer start state: running
    utility model: root

    caches:
        lru

    force utility function validity: yes
    make recommendations: yes
    equal recommendations: no

    reading receiver name: vengerov
    command receiver name: vengerov

    dump file: economemd.dump.log
    log file: /home/callum/economics_memory_code/dynamic_sizing/data/output/timerComparisonMany_2014_10_15_12_35_15/sub16_timerComparisonSingle/sub3_timeBenchmarkDaemon/daemon_run06_log.txt
    log readings: yes
    log functions: yes

PyOptimiser: initialising...
PyOptimiser: initialised
ReadingThread: starting
TimerThread: starting
CommandThread: starting
Recommendation: no clients; no recommendation
Recommendation: no clients; no recommendation
Reading from 19639: heap size 9 MB, throughput 0.990051
Clients: 1
Client 19639 has a minimum heap size of 3 MB
Reading from 19638: heap size 9 MB, throughput 0.989883
Clients: 2
Client 19638 has a minimum heap size of 1211 MB
Reading from 19639: heap size 9 MB, throughput 0.987369
Reading from 19638: heap size 9 MB, throughput 0.9861
Reading from 19639: heap size 9 MB, throughput 0.975935
Reading from 19638: heap size 9 MB, throughput 0.978755
Reading from 19639: heap size 9 MB, throughput 0.965471
Reading from 19638: heap size 9 MB, throughput 0.969289
Reading from 19639: heap size 11 MB, throughput 0.97416
Reading from 19638: heap size 11 MB, throughput 0.936239
Reading from 19639: heap size 11 MB, throughput 0.985636
Reading from 19638: heap size 11 MB, throughput 0.952945
Reading from 19638: heap size 17 MB, throughput 0.944979
Reading from 19638: heap size 17 MB, throughput 0.876891
Reading from 19639: heap size 16 MB, throughput 0.977926
Reading from 19638: heap size 30 MB, throughput 0.741152
Reading from 19639: heap size 16 MB, throughput 0.959591
Reading from 19638: heap size 31 MB, throughput 0.261167
Reading from 19639: heap size 24 MB, throughput 0.967239
Reading from 19639: heap size 24 MB, throughput 0.976884
Reading from 19639: heap size 33 MB, throughput 0.983725
Reading from 19638: heap size 35 MB, throughput 0.645052
Reading from 19638: heap size 48 MB, throughput 0.379241
Reading from 19639: heap size 33 MB, throughput 0.989476
Reading from 19639: heap size 48 MB, throughput 0.991813
Reading from 19638: heap size 49 MB, throughput 0.419128
Reading from 19639: heap size 48 MB, throughput 0.993754
Reading from 19638: heap size 64 MB, throughput 0.313891
Reading from 19638: heap size 69 MB, throughput 0.27043
Reading from 19639: heap size 71 MB, throughput 0.994923
Reading from 19639: heap size 67 MB, throughput 0.994727
Reading from 19638: heap size 70 MB, throughput 0.404827
Reading from 19639: heap size 64 MB, throughput 0.994264
Reading from 19638: heap size 98 MB, throughput 0.594225
Reading from 19639: heap size 62 MB, throughput 0.993352
Reading from 19639: heap size 59 MB, throughput 0.992916
Reading from 19639: heap size 59 MB, throughput 0.993462
Reading from 19638: heap size 98 MB, throughput 0.395481
Reading from 19639: heap size 55 MB, throughput 0.993512
Reading from 19638: heap size 129 MB, throughput 0.759369
Reading from 19639: heap size 53 MB, throughput 0.993023
Reading from 19638: heap size 129 MB, throughput 0.661668
Reading from 19639: heap size 51 MB, throughput 0.992815
Reading from 19639: heap size 49 MB, throughput 0.99071
Reading from 19638: heap size 131 MB, throughput 0.37121
Reading from 19639: heap size 48 MB, throughput 0.991845
Reading from 19639: heap size 46 MB, throughput 0.991289
Reading from 19638: heap size 134 MB, throughput 0.354908
Reading from 19639: heap size 44 MB, throughput 0.990929
Reading from 19639: heap size 44 MB, throughput 0.989659
Reading from 19639: heap size 41 MB, throughput 0.987411
Reading from 19639: heap size 41 MB, throughput 0.988916
Reading from 19639: heap size 39 MB, throughput 0.988748
Reading from 19639: heap size 38 MB, throughput 0.988072
Reading from 19639: heap size 47 MB, throughput 0.988296
Reading from 19638: heap size 135 MB, throughput 0.522752
Reading from 19639: heap size 57 MB, throughput 0.990809
Reading from 19638: heap size 172 MB, throughput 0.417656
Reading from 19639: heap size 55 MB, throughput 0.991938
Reading from 19638: heap size 175 MB, throughput 0.290848
Reading from 19639: heap size 53 MB, throughput 0.991194
Reading from 19638: heap size 177 MB, throughput 0.0229216
Reading from 19639: heap size 51 MB, throughput 0.991612
Reading from 19638: heap size 185 MB, throughput 0.735142
Reading from 19639: heap size 49 MB, throughput 0.99064
Reading from 19639: heap size 47 MB, throughput 0.990141
Reading from 19638: heap size 187 MB, throughput 0.693028
Reading from 19639: heap size 45 MB, throughput 0.988747
Reading from 19639: heap size 44 MB, throughput 0.986614
Reading from 19639: heap size 53 MB, throughput 0.989784
Reading from 19639: heap size 51 MB, throughput 0.988807
Reading from 19639: heap size 49 MB, throughput 0.988744
Reading from 19639: heap size 53 MB, throughput 0.990299
Reading from 19638: heap size 190 MB, throughput 0.416957
Reading from 19639: heap size 50 MB, throughput 0.989633
Reading from 19639: heap size 48 MB, throughput 0.987318
Reading from 19638: heap size 236 MB, throughput 0.651195
Reading from 19639: heap size 52 MB, throughput 0.98758
Reading from 19638: heap size 240 MB, throughput 0.65325
Reading from 19639: heap size 57 MB, throughput 0.988417
Reading from 19639: heap size 57 MB, throughput 0.987599
Reading from 19638: heap size 245 MB, throughput 0.637869
Reading from 19638: heap size 248 MB, throughput 0.612244
Reading from 19639: heap size 68 MB, throughput 0.992612
Reading from 19638: heap size 256 MB, throughput 0.632123
Reading from 19639: heap size 65 MB, throughput 0.992789
Reading from 19639: heap size 62 MB, throughput 0.992521
Reading from 19638: heap size 260 MB, throughput 0.52767
Reading from 19639: heap size 60 MB, throughput 0.989128
Reading from 19638: heap size 270 MB, throughput 0.491422
Reading from 19639: heap size 58 MB, throughput 0.989555
Reading from 19639: heap size 56 MB, throughput 0.987515
Reading from 19638: heap size 277 MB, throughput 0.470813
Reading from 19639: heap size 66 MB, throughput 0.987968
Reading from 19639: heap size 67 MB, throughput 0.990407
Reading from 19639: heap size 64 MB, throughput 0.990199
Reading from 19639: heap size 62 MB, throughput 0.990602
Reading from 19639: heap size 59 MB, throughput 0.992566
Reading from 19639: heap size 57 MB, throughput 0.991514
Reading from 19639: heap size 55 MB, throughput 0.988656
Reading from 19639: heap size 53 MB, throughput 0.987379
Reading from 19639: heap size 62 MB, throughput 0.987859
Reading from 19639: heap size 74 MB, throughput 0.98877
Reading from 19638: heap size 285 MB, throughput 0.341705
Reading from 19639: heap size 77 MB, throughput 0.989148
Reading from 19638: heap size 337 MB, throughput 0.523563
Reading from 19639: heap size 77 MB, throughput 0.989668
Reading from 19638: heap size 277 MB, throughput 0.576467
Reading from 19639: heap size 74 MB, throughput 0.969838
Reading from 19639: heap size 88 MB, throughput 0.978397
Reading from 19638: heap size 333 MB, throughput 0.551632
Reading from 19638: heap size 335 MB, throughput 0.632651
Reading from 19639: heap size 91 MB, throughput 0.987901
Reading from 19639: heap size 91 MB, throughput 0.988037
Reading from 19639: heap size 108 MB, throughput 0.990766
Reading from 19639: heap size 108 MB, throughput 0.991845
Reading from 19638: heap size 339 MB, throughput 0.331969
Reading from 19639: heap size 128 MB, throughput 0.993054
Reading from 19638: heap size 392 MB, throughput 0.519438
Reading from 19639: heap size 122 MB, throughput 0.993245
Reading from 19638: heap size 387 MB, throughput 0.565733
Reading from 19639: heap size 116 MB, throughput 0.993186
Reading from 19638: heap size 391 MB, throughput 0.613378
Reading from 19639: heap size 112 MB, throughput 0.99336
Reading from 19638: heap size 392 MB, throughput 0.595702
Reading from 19639: heap size 107 MB, throughput 0.992601
Reading from 19638: heap size 393 MB, throughput 0.542526
Reading from 19639: heap size 102 MB, throughput 0.992117
Reading from 19639: heap size 98 MB, throughput 0.990447
Reading from 19638: heap size 395 MB, throughput 0.512427
Reading from 19639: heap size 94 MB, throughput 0.991062
Reading from 19638: heap size 402 MB, throughput 0.505458
Reading from 19639: heap size 90 MB, throughput 0.99238
Numeric result:
Recommendation: 2 clients, utility 0.689992:
    h1: 1217 MB (U(h) = 0.959976*h^0.00723068)
    h2: 1211 MB (U(h) = 0.677941*h^0.001)
Recommendation: 2 clients, utility 0.689992:
    h1: 1217 MB (U(h) = 0.959976*h^0.00723068)
    h2: 1211 MB (U(h) = 0.677941*h^0.001)
Reading from 19639: heap size 86 MB, throughput 0.989635
Reading from 19638: heap size 407 MB, throughput 0.492242
Reading from 19639: heap size 82 MB, throughput 0.988545
Reading from 19638: heap size 414 MB, throughput 0.482543
Reading from 19639: heap size 79 MB, throughput 0.990154
Reading from 19639: heap size 76 MB, throughput 0.989542
Reading from 19639: heap size 73 MB, throughput 0.992597
Reading from 19639: heap size 70 MB, throughput 0.992403
Reading from 19639: heap size 67 MB, throughput 0.984482
Reading from 19639: heap size 64 MB, throughput 0.986504
Reading from 19639: heap size 72 MB, throughput 0.977506
Reading from 19639: heap size 81 MB, throughput 0.986416
Reading from 19638: heap size 422 MB, throughput 0.335003
Reading from 19639: heap size 90 MB, throughput 0.967837
Reading from 19638: heap size 480 MB, throughput 0.464811
Reading from 19639: heap size 100 MB, throughput 0.978063
Reading from 19638: heap size 480 MB, throughput 0.511383
Reading from 19639: heap size 112 MB, throughput 0.984376
Reading from 19639: heap size 123 MB, throughput 0.98671
Reading from 19638: heap size 484 MB, throughput 0.48497
Reading from 19639: heap size 123 MB, throughput 0.989594
Reading from 19639: heap size 137 MB, throughput 0.992947
Reading from 19639: heap size 137 MB, throughput 0.990892
Reading from 19639: heap size 151 MB, throughput 0.99346
Reading from 19638: heap size 483 MB, throughput 0.232786
Reading from 19639: heap size 152 MB, throughput 0.994112
Reading from 19638: heap size 548 MB, throughput 0.458474
Reading from 19639: heap size 145 MB, throughput 0.99328
Reading from 19638: heap size 539 MB, throughput 0.510463
Reading from 19639: heap size 138 MB, throughput 0.989264
Reading from 19638: heap size 544 MB, throughput 0.544819
Reading from 19639: heap size 152 MB, throughput 0.989715
Reading from 19638: heap size 545 MB, throughput 0.526323
Reading from 19639: heap size 167 MB, throughput 0.991306
Reading from 19638: heap size 550 MB, throughput 0.517464
Reading from 19639: heap size 169 MB, throughput 0.991509
Reading from 19638: heap size 555 MB, throughput 0.546301
Reading from 19639: heap size 169 MB, throughput 0.992272
Reading from 19638: heap size 565 MB, throughput 0.523612
Reading from 19639: heap size 187 MB, throughput 0.99269
Reading from 19638: heap size 571 MB, throughput 0.542523
Reading from 19639: heap size 179 MB, throughput 0.972815
Reading from 19639: heap size 186 MB, throughput 0.982398
Reading from 19639: heap size 179 MB, throughput 0.971489
Reading from 19639: heap size 170 MB, throughput 0.978072
Reading from 19638: heap size 580 MB, throughput 0.337093
Reading from 19639: heap size 163 MB, throughput 0.98371
Reading from 19638: heap size 650 MB, throughput 0.440502
Reading from 19639: heap size 155 MB, throughput 0.98774
Reading from 19639: heap size 148 MB, throughput 0.988272
Reading from 19638: heap size 657 MB, throughput 0.478458
Reading from 19639: heap size 164 MB, throughput 0.98924
Reading from 19638: heap size 658 MB, throughput 0.652619
Reading from 19639: heap size 184 MB, throughput 0.987763
Reading from 19639: heap size 184 MB, throughput 0.990179
Reading from 19639: heap size 185 MB, throughput 0.990662
Reading from 19638: heap size 662 MB, throughput 0.774885
Reading from 19639: heap size 205 MB, throughput 0.991412
Reading from 19639: heap size 205 MB, throughput 0.991452
Reading from 19638: heap size 660 MB, throughput 0.771065
Reading from 19639: heap size 227 MB, throughput 0.992114
Reading from 19639: heap size 216 MB, throughput 0.985012
Reading from 19639: heap size 208 MB, throughput 0.996119
Reading from 19638: heap size 671 MB, throughput 0.817769
Reading from 19638: heap size 672 MB, throughput 0.725101
Reading from 19638: heap size 691 MB, throughput 0.632675
Reading from 19639: heap size 226 MB, throughput 0.996144
Reading from 19639: heap size 228 MB, throughput 0.996258
Reading from 19639: heap size 228 MB, throughput 0.995189
Numeric result:
Recommendation: 2 clients, utility 0.523916:
    h1: 1217 MB (U(h) = 0.973366*h^0.00342813)
    h2: 1211 MB (U(h) = 0.521585*h^0.001)
Recommendation: 2 clients, utility 0.523916:
    h1: 1217 MB (U(h) = 0.973366*h^0.00342813)
    h2: 1211 MB (U(h) = 0.521585*h^0.001)
Reading from 19639: heap size 244 MB, throughput 0.995915
Reading from 19639: heap size 244 MB, throughput 0.995861
Reading from 19639: heap size 262 MB, throughput 0.996285
Reading from 19638: heap size 702 MB, throughput 0.455029
Reading from 19638: heap size 774 MB, throughput 0.435042
Reading from 19639: heap size 262 MB, throughput 0.995208
Reading from 19638: heap size 759 MB, throughput 0.388592
Reading from 19639: heap size 281 MB, throughput 0.995418
Reading from 19639: heap size 281 MB, throughput 0.995841
Reading from 19638: heap size 659 MB, throughput 0.113445
Reading from 19638: heap size 844 MB, throughput 0.239673
Reading from 19638: heap size 847 MB, throughput 0.270552
Reading from 19639: heap size 302 MB, throughput 0.99545
Reading from 19638: heap size 851 MB, throughput 0.335274
Reading from 19639: heap size 302 MB, throughput 0.992357
Reading from 19639: heap size 325 MB, throughput 0.993576
Reading from 19638: heap size 852 MB, throughput 0.0895815
Reading from 19639: heap size 325 MB, throughput 0.994485
Reading from 19638: heap size 952 MB, throughput 0.702902
Reading from 19638: heap size 958 MB, throughput 0.717117
Reading from 19639: heap size 352 MB, throughput 0.994886
Reading from 19638: heap size 958 MB, throughput 0.720805
Reading from 19638: heap size 960 MB, throughput 0.706711
Reading from 19638: heap size 950 MB, throughput 0.69104
Reading from 19638: heap size 757 MB, throughput 0.701385
Reading from 19639: heap size 353 MB, throughput 0.992054
Reading from 19638: heap size 939 MB, throughput 0.873345
Reading from 19638: heap size 760 MB, throughput 0.844847
Reading from 19639: heap size 382 MB, throughput 0.993741
Reading from 19638: heap size 928 MB, throughput 0.873596
Reading from 19638: heap size 760 MB, throughput 0.841074
Reading from 19639: heap size 382 MB, throughput 0.993485
Reading from 19638: heap size 918 MB, throughput 0.869297
Reading from 19638: heap size 767 MB, throughput 0.855843
Reading from 19638: heap size 903 MB, throughput 0.847106
Reading from 19639: heap size 413 MB, throughput 0.994506
Reading from 19638: heap size 770 MB, throughput 0.866473
Reading from 19638: heap size 894 MB, throughput 0.816219
Reading from 19639: heap size 413 MB, throughput 0.994995
Reading from 19638: heap size 900 MB, throughput 0.761791
Reading from 19638: heap size 892 MB, throughput 0.72353
Reading from 19638: heap size 814 MB, throughput 0.699439
Reading from 19639: heap size 446 MB, throughput 0.995368
Reading from 19638: heap size 887 MB, throughput 0.706946
Reading from 19638: heap size 892 MB, throughput 0.716363
Reading from 19638: heap size 883 MB, throughput 0.722914
Reading from 19639: heap size 447 MB, throughput 0.995076
Reading from 19638: heap size 888 MB, throughput 0.732306
Reading from 19638: heap size 877 MB, throughput 0.740893
Reading from 19638: heap size 883 MB, throughput 0.734608
Reading from 19639: heap size 482 MB, throughput 0.995437
Reading from 19638: heap size 875 MB, throughput 0.756521
Reading from 19638: heap size 880 MB, throughput 0.0352605
Reading from 19639: heap size 482 MB, throughput 0.995472
Reading from 19638: heap size 876 MB, throughput 0.359239
Reading from 19639: heap size 519 MB, throughput 0.99559
Reading from 19639: heap size 519 MB, throughput 0.995728
Numeric result:
Recommendation: 2 clients, utility 0.501499:
    h1: 785.378 MB (U(h) = 0.971809*h^0.0038223)
    h2: 1642.62 MB (U(h) = 0.47417*h^0.00798909)
Recommendation: 2 clients, utility 0.501499:
    h1: 785.728 MB (U(h) = 0.971809*h^0.0038223)
    h2: 1642.27 MB (U(h) = 0.47417*h^0.00798909)
Reading from 19638: heap size 879 MB, throughput 0.958195
Reading from 19639: heap size 558 MB, throughput 0.995655
Reading from 19638: heap size 881 MB, throughput 0.775054
Reading from 19638: heap size 885 MB, throughput 0.881297
Reading from 19639: heap size 558 MB, throughput 0.995329
Reading from 19638: heap size 892 MB, throughput 0.830972
Reading from 19638: heap size 897 MB, throughput 0.784152
Reading from 19638: heap size 904 MB, throughput 0.758931
Reading from 19639: heap size 600 MB, throughput 0.99481
Reading from 19638: heap size 906 MB, throughput 0.725575
Reading from 19638: heap size 914 MB, throughput 0.73389
Reading from 19638: heap size 915 MB, throughput 0.737462
Reading from 19638: heap size 924 MB, throughput 0.741917
Reading from 19639: heap size 600 MB, throughput 0.994792
Reading from 19638: heap size 924 MB, throughput 0.824514
Reading from 19638: heap size 930 MB, throughput 0.814462
Reading from 19639: heap size 648 MB, throughput 0.994887
Reading from 19638: heap size 931 MB, throughput 0.851543
Reading from 19638: heap size 930 MB, throughput 0.795086
Reading from 19638: heap size 932 MB, throughput 0.731231
Reading from 19639: heap size 648 MB, throughput 0.995341
Reading from 19639: heap size 700 MB, throughput 0.996263
Reading from 19639: heap size 700 MB, throughput 0.996596
Reading from 19638: heap size 915 MB, throughput 0.674147
Reading from 19638: heap size 1035 MB, throughput 0.50287
Reading from 19638: heap size 1036 MB, throughput 0.541787
Reading from 19638: heap size 1040 MB, throughput 0.576783
Reading from 19639: heap size 750 MB, throughput 0.995303
Reading from 19638: heap size 1040 MB, throughput 0.581731
Reading from 19638: heap size 1044 MB, throughput 0.563997
Reading from 19638: heap size 1047 MB, throughput 0.550866
Reading from 19638: heap size 1050 MB, throughput 0.544874
Reading from 19639: heap size 752 MB, throughput 0.995367
Reading from 19638: heap size 1060 MB, throughput 0.536485
Reading from 19638: heap size 1062 MB, throughput 0.52583
Reading from 19638: heap size 1079 MB, throughput 0.559612
Reading from 19639: heap size 809 MB, throughput 0.995547
Numeric result:
Recommendation: 2 clients, utility 0.747328:
    h1: 34.0944 MB (U(h) = 0.972401*h^0.00368071)
    h2: 2393.91 MB (U(h) = 0.101575*h^0.258422)
Recommendation: 2 clients, utility 0.747328:
    h1: 34.0964 MB (U(h) = 0.972401*h^0.00368071)
    h2: 2393.9 MB (U(h) = 0.101575*h^0.258422)
Reading from 19638: heap size 1080 MB, throughput 0.826238
Reading from 19639: heap size 768 MB, throughput 0.981143
Reading from 19639: heap size 805 MB, throughput 0.959347
Reading from 19639: heap size 808 MB, throughput 0.97648
Reading from 19638: heap size 1099 MB, throughput 0.925546
Reading from 19639: heap size 814 MB, throughput 0.98586
Reading from 19639: heap size 813 MB, throughput 0.984386
Reading from 19638: heap size 1101 MB, throughput 0.916659
Reading from 19639: heap size 813 MB, throughput 0.988687
Reading from 19639: heap size 813 MB, throughput 0.992282
Reading from 19638: heap size 1117 MB, throughput 0.74768
Reading from 19639: heap size 813 MB, throughput 0.994954
Reading from 19639: heap size 813 MB, throughput 0.995511
Reading from 19638: heap size 1161 MB, throughput 0.955436
Reading from 19639: heap size 813 MB, throughput 0.995857
Reading from 19639: heap size 813 MB, throughput 0.995966
Numeric result:
Recommendation: 2 clients, utility 0.705624:
    h1: 15.8779 MB (U(h) = 0.983661*h^0.00121529)
    h2: 2412.12 MB (U(h) = 0.169814*h^0.184572)
Recommendation: 2 clients, utility 0.705624:
    h1: 15.8823 MB (U(h) = 0.983661*h^0.00121529)
    h2: 2412.12 MB (U(h) = 0.169814*h^0.184572)
Reading from 19638: heap size 1170 MB, throughput 0.968518
Reading from 19639: heap size 813 MB, throughput 0.995402
Reading from 19639: heap size 812 MB, throughput 0.996021
Reading from 19638: heap size 1177 MB, throughput 0.972403
Reading from 19639: heap size 813 MB, throughput 0.995814
Reading from 19639: heap size 813 MB, throughput 0.996017
Reading from 19639: heap size 814 MB, throughput 0.995121
Reading from 19638: heap size 1190 MB, throughput 0.974466
Reading from 19639: heap size 814 MB, throughput 0.995541
Reading from 19639: heap size 814 MB, throughput 0.995697
Reading from 19638: heap size 1191 MB, throughput 0.9692
Reading from 19639: heap size 814 MB, throughput 0.995944
Reading from 19639: heap size 814 MB, throughput 0.995957
Reading from 19638: heap size 1189 MB, throughput 0.963916
Reading from 19639: heap size 814 MB, throughput 0.996029
Reading from 19639: heap size 813 MB, throughput 0.996006
Numeric result:
Recommendation: 2 clients, utility 0.848165:
    h1: 8.79772 MB (U(h) = 0.984102*h^0.00118659)
    h2: 2419.2 MB (U(h) = 0.0676501*h^0.326288)
Recommendation: 2 clients, utility 0.848165:
    h1: 8.79774 MB (U(h) = 0.984102*h^0.00118659)
    h2: 2419.2 MB (U(h) = 0.0676501*h^0.326288)
Reading from 19638: heap size 1194 MB, throughput 0.964142
Reading from 19639: heap size 813 MB, throughput 0.995972
Reading from 19639: heap size 814 MB, throughput 0.996063
Reading from 19638: heap size 1184 MB, throughput 0.96693
Reading from 19639: heap size 814 MB, throughput 0.996615
Reading from 19639: heap size 814 MB, throughput 0.996381
Reading from 19638: heap size 1190 MB, throughput 0.96022
Reading from 19639: heap size 814 MB, throughput 0.996257
Reading from 19639: heap size 814 MB, throughput 0.996115
Reading from 19639: heap size 814 MB, throughput 0.996077
Reading from 19638: heap size 1191 MB, throughput 0.957673
Reading from 19639: heap size 814 MB, throughput 0.996081
Reading from 19639: heap size 814 MB, throughput 0.995972
Reading from 19638: heap size 1192 MB, throughput 0.957185
Reading from 19639: heap size 814 MB, throughput 0.996152
Reading from 19639: heap size 814 MB, throughput 0.996105
Numeric result:
Recommendation: 2 clients, utility 0.949796:
    h1: 6.87441 MB (U(h) = 0.98407*h^0.00119383)
    h2: 2421.13 MB (U(h) = 0.0363728*h^0.420455)
Recommendation: 2 clients, utility 0.949796:
    h1: 6.87447 MB (U(h) = 0.98407*h^0.00119383)
    h2: 2421.13 MB (U(h) = 0.0363728*h^0.420455)
Reading from 19638: heap size 1196 MB, throughput 0.9541
Reading from 19639: heap size 814 MB, throughput 0.996111
Reading from 19639: heap size 814 MB, throughput 0.996036
Reading from 19639: heap size 814 MB, throughput 0.996078
Reading from 19638: heap size 1200 MB, throughput 0.951403
Reading from 19639: heap size 814 MB, throughput 0.996156
Reading from 19639: heap size 814 MB, throughput 0.996075
Reading from 19638: heap size 1205 MB, throughput 0.946015
Reading from 19639: heap size 814 MB, throughput 0.995935
Reading from 19639: heap size 814 MB, throughput 0.995927
Reading from 19639: heap size 814 MB, throughput 0.996023
Reading from 19638: heap size 1212 MB, throughput 0.939335
Reading from 19639: heap size 814 MB, throughput 0.995976
Reading from 19639: heap size 814 MB, throughput 0.995683
Reading from 19638: heap size 1219 MB, throughput 0.936784
Reading from 19639: heap size 814 MB, throughput 0.99597
Numeric result:
Recommendation: 2 clients, utility 1.11002:
    h1: 5.16812 MB (U(h) = 0.984089*h^0.00118961)
    h2: 2422.83 MB (U(h) = 0.0145885*h^0.557701)
Recommendation: 2 clients, utility 1.11002:
    h1: 5.16806 MB (U(h) = 0.984089*h^0.00118961)
    h2: 2422.83 MB (U(h) = 0.0145885*h^0.557701)
Reading from 19639: heap size 814 MB, throughput 0.996
Reading from 19639: heap size 814 MB, throughput 0.995869
Reading from 19638: heap size 1227 MB, throughput 0.934467
Reading from 19639: heap size 814 MB, throughput 0.995995
Reading from 19639: heap size 814 MB, throughput 0.995945
Reading from 19638: heap size 1237 MB, throughput 0.931424
Reading from 19639: heap size 814 MB, throughput 0.996044
Reading from 19639: heap size 814 MB, throughput 0.996022
Reading from 19639: heap size 814 MB, throughput 0.996049
Reading from 19638: heap size 1242 MB, throughput 0.937748
Reading from 19639: heap size 814 MB, throughput 0.99628
Reading from 19639: heap size 814 MB, throughput 0.996114
Reading from 19639: heap size 814 MB, throughput 0.996102
Reading from 19638: heap size 1253 MB, throughput 0.935815
Reading from 19639: heap size 814 MB, throughput 0.996052
Numeric result:
Recommendation: 2 clients, utility 1.23816:
    h1: 4.37064 MB (U(h) = 0.984072*h^0.0011935)
    h2: 2423.63 MB (U(h) = 0.00722873*h^0.661825)
Recommendation: 2 clients, utility 1.23816:
    h1: 4.37065 MB (U(h) = 0.984072*h^0.0011935)
    h2: 2423.63 MB (U(h) = 0.00722873*h^0.661825)
Reading from 19639: heap size 814 MB, throughput 0.995888
Reading from 19638: heap size 1256 MB, throughput 0.936201
Reading from 19639: heap size 814 MB, throughput 0.995909
Reading from 19639: heap size 814 MB, throughput 0.995962
Reading from 19639: heap size 814 MB, throughput 0.996634
Reading from 19638: heap size 1266 MB, throughput 0.93303
Reading from 19639: heap size 814 MB, throughput 0.996387
Reading from 19639: heap size 814 MB, throughput 0.996225
Reading from 19639: heap size 814 MB, throughput 0.995333
Reading from 19638: heap size 1268 MB, throughput 0.939581
Reading from 19639: heap size 814 MB, throughput 0.995769
Reading from 19639: heap size 813 MB, throughput 0.995861
Reading from 19638: heap size 1278 MB, throughput 0.940542
Reading from 19639: heap size 814 MB, throughput 0.995959
Reading from 19639: heap size 814 MB, throughput 0.995979
Numeric result:
Recommendation: 2 clients, utility 1.42725:
    h1: 3.57105 MB (U(h) = 0.984091*h^0.00118927)
    h2: 2424.43 MB (U(h) = 0.00268095*h^0.807336)
Recommendation: 2 clients, utility 1.42725:
    h1: 3.57138 MB (U(h) = 0.984091*h^0.00118927)
    h2: 2424.43 MB (U(h) = 0.00268095*h^0.807336)
Reading from 19639: heap size 814 MB, throughput 0.995582
Reading from 19638: heap size 1279 MB, throughput 0.941295
Reading from 19639: heap size 814 MB, throughput 0.995964
Reading from 19639: heap size 814 MB, throughput 0.99601
Reading from 19639: heap size 814 MB, throughput 0.996036
Reading from 19638: heap size 1288 MB, throughput 0.942079
Reading from 19639: heap size 814 MB, throughput 0.995974
Reading from 19639: heap size 814 MB, throughput 0.995919
Reading from 19639: heap size 814 MB, throughput 0.995936
Reading from 19638: heap size 1289 MB, throughput 0.941255
Reading from 19639: heap size 815 MB, throughput 0.99603
Reading from 19639: heap size 815 MB, throughput 0.99601
Reading from 19639: heap size 815 MB, throughput 0.995944
Reading from 19639: heap size 815 MB, throughput 0.995658
Reading from 19638: heap size 1298 MB, throughput 0.942383
Numeric result:
Recommendation: 2 clients, utility 1.55723:
    h1: 3.33965 MB (U(h) = 0.983894*h^0.0012402)
    h2: 2424.66 MB (U(h) = 0.00141635*h^0.900413)
Recommendation: 2 clients, utility 1.55723:
    h1: 3.33965 MB (U(h) = 0.983894*h^0.0012402)
    h2: 2424.66 MB (U(h) = 0.00141635*h^0.900413)
Reading from 19639: heap size 815 MB, throughput 0.995721
Reading from 19639: heap size 815 MB, throughput 0.995775
Reading from 19639: heap size 815 MB, throughput 0.995909
Reading from 19638: heap size 1298 MB, throughput 0.9431
Reading from 19639: heap size 815 MB, throughput 0.995968
Reading from 19639: heap size 815 MB, throughput 0.995853
Reading from 19639: heap size 815 MB, throughput 0.995712
Reading from 19638: heap size 1308 MB, throughput 0.943467
Reading from 19639: heap size 815 MB, throughput 0.995849
Reading from 19639: heap size 815 MB, throughput 0.995912
Reading from 19639: heap size 814 MB, throughput 0.995948
Reading from 19639: heap size 814 MB, throughput 0.996143
Numeric result:
Recommendation: 2 clients, utility 1.49689:
    h1: 3.52756 MB (U(h) = 0.983881*h^0.00124328)
    h2: 2424.47 MB (U(h) = 0.00194794*h^0.854452)
Recommendation: 2 clients, utility 1.49689:
    h1: 3.52776 MB (U(h) = 0.983881*h^0.00124328)
    h2: 2424.47 MB (U(h) = 0.00194794*h^0.854452)
Reading from 19639: heap size 814 MB, throughput 0.996956
Reading from 19638: heap size 1308 MB, throughput 0.916078
Reading from 19639: heap size 814 MB, throughput 0.996803
Reading from 19639: heap size 815 MB, throughput 0.996278
Reading from 19639: heap size 815 MB, throughput 0.995941
Reading from 19638: heap size 1427 MB, throughput 0.936158
Reading from 19639: heap size 815 MB, throughput 0.996034
Reading from 19639: heap size 815 MB, throughput 0.99587
Reading from 19639: heap size 815 MB, throughput 0.995796
Reading from 19639: heap size 815 MB, throughput 0.995749
Reading from 19638: heap size 1427 MB, throughput 0.953965
Reading from 19639: heap size 815 MB, throughput 0.995731
Reading from 19639: heap size 815 MB, throughput 0.995762
Reading from 19639: heap size 815 MB, throughput 0.995733
Numeric result:
Recommendation: 2 clients, utility 1.50089:
    h1: 3.54007 MB (U(h) = 0.983836*h^0.0012534)
    h2: 2424.46 MB (U(h) = 0.00189399*h^0.858402)
Recommendation: 2 clients, utility 1.50089:
    h1: 3.54008 MB (U(h) = 0.983836*h^0.0012534)
    h2: 2424.46 MB (U(h) = 0.00189399*h^0.858402)
Reading from 19638: heap size 1442 MB, throughput 0.959457
Reading from 19639: heap size 815 MB, throughput 0.995735
Reading from 19639: heap size 814 MB, throughput 0.995653
Reading from 19639: heap size 814 MB, throughput 0.995672
Reading from 19638: heap size 1446 MB, throughput 0.963141
Reading from 19639: heap size 814 MB, throughput 0.995743
Reading from 19639: heap size 814 MB, throughput 0.995741
Reading from 19639: heap size 814 MB, throughput 0.995396
Reading from 19639: heap size 814 MB, throughput 0.99553
Reading from 19638: heap size 1450 MB, throughput 0.963342
Reading from 19639: heap size 814 MB, throughput 0.995642
Reading from 19639: heap size 814 MB, throughput 0.995535
Reading from 19639: heap size 814 MB, throughput 0.995684
Reading from 19639: heap size 814 MB, throughput 0.995766
Reading from 19638: heap size 1453 MB, throughput 0.963096
Numeric result:
Recommendation: 2 clients, utility 1.6065:
    h1: 3.17406 MB (U(h) = 0.983924*h^0.0012335)
    h2: 2424.83 MB (U(h) = 0.00105387*h^0.942339)
Recommendation: 2 clients, utility 1.6065:
    h1: 3.17403 MB (U(h) = 0.983924*h^0.0012335)
    h2: 2424.83 MB (U(h) = 0.00105387*h^0.942339)
Reading from 19639: heap size 814 MB, throughput 0.995821
Reading from 19639: heap size 814 MB, throughput 0.995506
Reading from 19639: heap size 814 MB, throughput 0.995609
Reading from 19638: heap size 1444 MB, throughput 0.96098
Reading from 19639: heap size 814 MB, throughput 0.995637
Reading from 19639: heap size 814 MB, throughput 0.995464
Reading from 19639: heap size 814 MB, throughput 0.995693
Reading from 19639: heap size 814 MB, throughput 0.995777
Reading from 19639: heap size 814 MB, throughput 0.995799
Reading from 19639: heap size 814 MB, throughput 0.99577
Reading from 19639: heap size 814 MB, throughput 0.995763
Reading from 19639: heap size 814 MB, throughput 0.99584
Numeric result:
Recommendation: 2 clients, utility 1.89358:
    h1: 3.08857 MB (U(h) = 0.983914*h^0.00123566)
    h2: 2424.91 MB (U(h) = 0.001*h^0.970168)
Recommendation: 2 clients, utility 1.89358:
    h1: 3.0885 MB (U(h) = 0.983914*h^0.00123566)
    h2: 2424.91 MB (U(h) = 0.001*h^0.970168)
Reading from 19639: heap size 814 MB, throughput 0.995743
Reading from 19639: heap size 814 MB, throughput 0.995952
Reading from 19639: heap size 814 MB, throughput 0.99601
Reading from 19639: heap size 814 MB, throughput 0.996079
Reading from 19639: heap size 814 MB, throughput 0.996039
Reading from 19639: heap size 814 MB, throughput 0.995922
Reading from 19639: heap size 814 MB, throughput 0.995907
Reading from 19639: heap size 814 MB, throughput 0.995937
Reading from 19639: heap size 814 MB, throughput 0.996094
Reading from 19639: heap size 814 MB, throughput 0.995971
Reading from 19639: heap size 814 MB, throughput 0.995834
Reading from 19639: heap size 814 MB, throughput 0.995798
Numeric result:
Recommendation: 2 clients, utility 1.89358:
    h1: 3.09139 MB (U(h) = 0.983909*h^0.00123681)
    h2: 2424.91 MB (U(h) = 0.001*h^0.970168)
Recommendation: 2 clients, utility 1.89358:
    h1: 3.09137 MB (U(h) = 0.983909*h^0.00123681)
    h2: 2424.91 MB (U(h) = 0.001*h^0.970168)
Reading from 19639: heap size 814 MB, throughput 0.994991
Reading from 19638: heap size 1451 MB, throughput 0.983344
Reading from 19639: heap size 815 MB, throughput 0.995465
Reading from 19639: heap size 815 MB, throughput 0.995575
Reading from 19639: heap size 814 MB, throughput 0.995695
Reading from 19639: heap size 814 MB, throughput 0.995713
Reading from 19639: heap size 814 MB, throughput 0.995795
Reading from 19639: heap size 814 MB, throughput 0.995862
Reading from 19639: heap size 814 MB, throughput 0.995944
Reading from 19639: heap size 814 MB, throughput 0.995735
Reading from 19639: heap size 814 MB, throughput 0.995641
Reading from 19639: heap size 814 MB, throughput 0.99557
Numeric result:
Recommendation: 2 clients, utility 2.29538:
    h1: 3 MB (U(h) = 0.983943*h^0.00122929)
    h2: 2425 MB (U(h) = 0.001*h^0.994855)
Recommendation: 2 clients, utility 2.29538:
    h1: 3 MB (U(h) = 0.983943*h^0.00122929)
    h2: 2425 MB (U(h) = 0.001*h^0.994855)
Reading from 19639: heap size 815 MB, throughput 0.995665
Reading from 19639: heap size 815 MB, throughput 0.995699
Reading from 19639: heap size 815 MB, throughput 0.995675
Reading from 19639: heap size 815 MB, throughput 0.995616
Reading from 19639: heap size 814 MB, throughput 0.995682
Reading from 19639: heap size 814 MB, throughput 0.996017
Reading from 19639: heap size 814 MB, throughput 0.995884
Reading from 19638: heap size 1420 MB, throughput 0.985638
Reading from 19639: heap size 814 MB, throughput 0.995915
Reading from 19639: heap size 814 MB, throughput 0.996039
Reading from 19639: heap size 814 MB, throughput 0.995921
Reading from 19639: heap size 814 MB, throughput 0.99594
Numeric result:
Recommendation: 2 clients, utility 2.37068:
    h1: 3.00149 MB (U(h) = 0.983911*h^0.0012365)
    h2: 2425 MB (U(h) = 0.001*h^0.999)
Recommendation: 2 clients, utility 2.37068:
    h1: 3.0015 MB (U(h) = 0.983911*h^0.0012365)
    h2: 2425 MB (U(h) = 0.001*h^0.999)
Reading from 19639: heap size 814 MB, throughput 0.995924
Reading from 19639: heap size 814 MB, throughput 0.995961
Reading from 19639: heap size 814 MB, throughput 0.995624
Reading from 19638: heap size 1453 MB, throughput 0.981168
Reading from 19638: heap size 1470 MB, throughput 0.965309
Reading from 19639: heap size 814 MB, throughput 0.996005
Reading from 19638: heap size 1492 MB, throughput 0.937636
Reading from 19639: heap size 814 MB, throughput 0.996492
Reading from 19638: heap size 1441 MB, throughput 0.953331
Reading from 19638: heap size 1498 MB, throughput 0.903623
Reading from 19638: heap size 1498 MB, throughput 0.921229
Reading from 19639: heap size 815 MB, throughput 0.996613
Reading from 19638: heap size 1498 MB, throughput 0.941736
Reading from 19638: heap size 1498 MB, throughput 0.959759
Reading from 19639: heap size 815 MB, throughput 0.995984
Reading from 19638: heap size 1498 MB, throughput 0.976535
Reading from 19639: heap size 815 MB, throughput 0.995638
Reading from 19639: heap size 815 MB, throughput 0.995687
Reading from 19638: heap size 1498 MB, throughput 0.983042
Reading from 19639: heap size 815 MB, throughput 0.995835
Reading from 19639: heap size 815 MB, throughput 0.995731
Numeric result:
Recommendation: 2 clients, utility 2.37062:
    h1: 3.02037 MB (U(h) = 0.983876*h^0.00124428)
    h2: 2424.98 MB (U(h) = 0.001*h^0.999)
Recommendation: 2 clients, utility 2.37062:
    h1: 3.02036 MB (U(h) = 0.983876*h^0.00124428)
    h2: 2424.98 MB (U(h) = 0.001*h^0.999)
Reading from 19639: heap size 815 MB, throughput 0.995744
Reading from 19638: heap size 1498 MB, throughput 0.980875
Reading from 19639: heap size 815 MB, throughput 0.995732
Reading from 19639: heap size 815 MB, throughput 0.995689
Reading from 19638: heap size 1498 MB, throughput 0.977731
Reading from 19639: heap size 815 MB, throughput 0.995787
Reading from 19639: heap size 815 MB, throughput 0.995792
Reading from 19639: heap size 815 MB, throughput 0.995695
Reading from 19638: heap size 1498 MB, throughput 0.97446
Reading from 19639: heap size 815 MB, throughput 0.99565
Reading from 19639: heap size 815 MB, throughput 0.995749
Reading from 19639: heap size 815 MB, throughput 0.991563
Reading from 19638: heap size 1498 MB, throughput 0.975193
Reading from 19639: heap size 815 MB, throughput 0.99378
Reading from 19639: heap size 815 MB, throughput 0.994693
Numeric result:
Recommendation: 2 clients, utility 2.37088:
    h1: 3 MB (U(h) = 0.98402*h^0.00121189)
    h2: 2425 MB (U(h) = 0.001*h^0.999)
Recommendation: 2 clients, utility 2.37088:
    h1: 3 MB (U(h) = 0.98402*h^0.00121189)
    h2: 2425 MB (U(h) = 0.001*h^0.999)
Reading from 19638: heap size 1244 MB, throughput 0.975028
Reading from 19639: heap size 815 MB, throughput 0.99522
Reading from 19639: heap size 815 MB, throughput 0.995464
Reading from 19639: heap size 815 MB, throughput 0.995599
Reading from 19638: heap size 1476 MB, throughput 0.974192
Reading from 19639: heap size 815 MB, throughput 0.995696
Reading from 19639: heap size 815 MB, throughput 0.995799
Reading from 19639: heap size 815 MB, throughput 0.995812
Reading from 19638: heap size 1267 MB, throughput 0.972078
Reading from 19639: heap size 815 MB, throughput 0.995794
Reading from 19639: heap size 815 MB, throughput 0.995747
Reading from 19638: heap size 1446 MB, throughput 0.967672
Reading from 19639: heap size 815 MB, throughput 0.995756
Reading from 19639: heap size 815 MB, throughput 0.99571
Reading from 19639: heap size 815 MB, throughput 0.995681
Numeric result:
Recommendation: 2 clients, utility 2.37063:
    h1: 3.0174 MB (U(h) = 0.983882*h^0.00124305)
    h2: 2424.98 MB (U(h) = 0.001*h^0.999)
Recommendation: 2 clients, utility 2.37063:
    h1: 3.0174 MB (U(h) = 0.983882*h^0.00124305)
    h2: 2424.98 MB (U(h) = 0.001*h^0.999)
Reading from 19638: heap size 1289 MB, throughput 0.964329
Reading from 19639: heap size 815 MB, throughput 0.995697
Reading from 19639: heap size 815 MB, throughput 0.995824
Reading from 19639: heap size 815 MB, throughput 0.995723
Reading from 19638: heap size 1425 MB, throughput 0.963208
Reading from 19639: heap size 815 MB, throughput 0.995797
Reading from 19639: heap size 815 MB, throughput 0.995787
Reading from 19638: heap size 1313 MB, throughput 0.969577
Reading from 19639: heap size 815 MB, throughput 0.99755
Reading from 19639: heap size 815 MB, throughput 0.99685
Reading from 19639: heap size 815 MB, throughput 0.99632
Reading from 19638: heap size 1424 MB, throughput 0.961749
Reading from 19639: heap size 814 MB, throughput 0.996102
Reading from 19639: heap size 814 MB, throughput 0.995848
Numeric result:
Recommendation: 2 clients, utility 2.37052:
    h1: 3.04929 MB (U(h) = 0.983823*h^0.00125621)
    h2: 2424.95 MB (U(h) = 0.001*h^0.999)
Recommendation: 2 clients, utility 2.37052:
    h1: 3.04931 MB (U(h) = 0.983823*h^0.00125621)
    h2: 2424.95 MB (U(h) = 0.001*h^0.999)
Reading from 19639: heap size 814 MB, throughput 0.995837
Reading from 19638: heap size 1430 MB, throughput 0.959083
Reading from 19639: heap size 814 MB, throughput 0.995878
Reading from 19639: heap size 814 MB, throughput 0.995817
Reading from 19639: heap size 814 MB, throughput 0.995755
Reading from 19638: heap size 1436 MB, throughput 0.955716
Reading from 19639: heap size 814 MB, throughput 0.995846
Reading from 19639: heap size 814 MB, throughput 0.995816
Reading from 19639: heap size 815 MB, throughput 0.995796
Reading from 19639: heap size 815 MB, throughput 0.995409
Reading from 19638: heap size 1436 MB, throughput 0.95481
Reading from 19639: heap size 814 MB, throughput 0.995667
Reading from 19639: heap size 814 MB, throughput 0.995814
Reading from 19639: heap size 814 MB, throughput 0.995677
Numeric result:
Recommendation: 2 clients, utility 2.37069:
    h1: 3 MB (U(h) = 0.983917*h^0.00123511)
    h2: 2425 MB (U(h) = 0.001*h^0.999)
Recommendation: 2 clients, utility 2.37069:
    h1: 3 MB (U(h) = 0.983917*h^0.00123511)
    h2: 2425 MB (U(h) = 0.001*h^0.999)
Reading from 19638: heap size 1444 MB, throughput 0.946798
Reading from 19639: heap size 814 MB, throughput 0.995707
Reading from 19639: heap size 813 MB, throughput 0.995718
Reading from 19639: heap size 814 MB, throughput 0.995647
Reading from 19638: heap size 1448 MB, throughput 0.945836
Reading from 19639: heap size 814 MB, throughput 0.995883
Reading from 19639: heap size 814 MB, throughput 0.995838
Reading from 19639: heap size 815 MB, throughput 0.995831
Reading from 19638: heap size 1459 MB, throughput 0.948693
Reading from 19639: heap size 815 MB, throughput 0.995815
Reading from 19639: heap size 815 MB, throughput 0.995824
Reading from 19639: heap size 815 MB, throughput 0.995771
Reading from 19639: heap size 815 MB, throughput 0.995421
Reading from 19638: heap size 1466 MB, throughput 0.945219
Reading from 19639: heap size 815 MB, throughput 0.995535
Numeric result:
Recommendation: 2 clients, utility 1.60144:
    h1: 3.20293 MB (U(h) = 0.983938*h^0.00123044)
    h2: 2424.8 MB (U(h) = 0.00114284*h^0.931532)
Recommendation: 2 clients, utility 1.60144:
    h1: 3.20286 MB (U(h) = 0.983938*h^0.00123044)
    h2: 2424.8 MB (U(h) = 0.00114284*h^0.931532)
Reading from 19639: heap size 815 MB, throughput 0.995615
Reading from 19639: heap size 815 MB, throughput 0.995668
Reading from 19638: heap size 1480 MB, throughput 0.946962
Reading from 19639: heap size 815 MB, throughput 0.99568
Reading from 19639: heap size 815 MB, throughput 0.995744
Reading from 19639: heap size 815 MB, throughput 0.995716
Reading from 19638: heap size 1484 MB, throughput 0.944675
Reading from 19639: heap size 815 MB, throughput 0.995789
Reading from 19639: heap size 815 MB, throughput 0.995827
Reading from 19639: heap size 815 MB, throughput 0.996311
Reading from 19639: heap size 815 MB, throughput 0.99615
Reading from 19638: heap size 1498 MB, throughput 0.950365
Reading from 19639: heap size 814 MB, throughput 0.996072
Reading from 19639: heap size 814 MB, throughput 0.995928
Numeric result:
Recommendation: 2 clients, utility 1.415:
    h1: 4.06682 MB (U(h) = 0.983878*h^0.00124394)
    h2: 2423.93 MB (U(h) = 0.00444369*h^0.741409)
Recommendation: 2 clients, utility 1.415:
    h1: 4.06689 MB (U(h) = 0.983878*h^0.00124394)
    h2: 2423.93 MB (U(h) = 0.00444369*h^0.741409)
Reading from 19639: heap size 814 MB, throughput 0.995738
Reading from 19638: heap size 1500 MB, throughput 0.941825
Reading from 19639: heap size 814 MB, throughput 0.99571
Reading from 19639: heap size 814 MB, throughput 0.99568
Reading from 19639: heap size 814 MB, throughput 0.995718
Reading from 19639: heap size 814 MB, throughput 0.99576
Reading from 19638: heap size 1515 MB, throughput 0.944327
Reading from 19639: heap size 814 MB, throughput 0.995773
Reading from 19639: heap size 814 MB, throughput 0.995741
Reading from 19639: heap size 814 MB, throughput 0.995767
Reading from 19638: heap size 1516 MB, throughput 0.942808
Reading from 19639: heap size 814 MB, throughput 0.995826
Reading from 19639: heap size 814 MB, throughput 0.995812
Reading from 19639: heap size 814 MB, throughput 0.995746
Numeric result:
Recommendation: 2 clients, utility 1.39484:
    h1: 4.14964 MB (U(h) = 0.983892*h^0.00124062)
    h2: 2423.85 MB (U(h) = 0.0049911*h^0.72466)
Recommendation: 2 clients, utility 1.39484:
    h1: 4.14963 MB (U(h) = 0.983892*h^0.00124062)
    h2: 2423.85 MB (U(h) = 0.0049911*h^0.72466)
Reading from 19639: heap size 814 MB, throughput 0.995765
Reading from 19638: heap size 1531 MB, throughput 0.945439
Reading from 19639: heap size 814 MB, throughput 0.995845
Reading from 19639: heap size 814 MB, throughput 0.995809
Reading from 19639: heap size 814 MB, throughput 0.99584
Reading from 19639: heap size 814 MB, throughput 0.995827
Reading from 19638: heap size 1532 MB, throughput 0.948339
Reading from 19639: heap size 814 MB, throughput 0.995868
Reading from 19639: heap size 814 MB, throughput 0.995753
Reading from 19639: heap size 814 MB, throughput 0.995695
Reading from 19639: heap size 814 MB, throughput 0.995745
Reading from 19638: heap size 1548 MB, throughput 0.948176
Reading from 19639: heap size 814 MB, throughput 0.995955
Reading from 19639: heap size 814 MB, throughput 0.995878
Numeric result:
Recommendation: 2 clients, utility 1.39577:
    h1: 4.11098 MB (U(h) = 0.983884*h^0.00124249)
    h2: 2423.89 MB (U(h) = 0.00469559*h^0.732578)
Recommendation: 2 clients, utility 1.39577:
    h1: 4.11103 MB (U(h) = 0.983884*h^0.00124249)
    h2: 2423.89 MB (U(h) = 0.00469559*h^0.732578)
Reading from 19639: heap size 814 MB, throughput 0.995798
Reading from 19639: heap size 814 MB, throughput 0.99584
Reading from 19639: heap size 814 MB, throughput 0.996394
Reading from 19638: heap size 1549 MB, throughput 0.940427
Reading from 19639: heap size 814 MB, throughput 0.996529
Reading from 19639: heap size 814 MB, throughput 0.996179
Reading from 19639: heap size 814 MB, throughput 0.995912
Reading from 19639: heap size 814 MB, throughput 0.995808
Reading from 19638: heap size 1606 MB, throughput 0.967628
Reading from 19639: heap size 814 MB, throughput 0.996193
Reading from 19639: heap size 814 MB, throughput 0.996191
Reading from 19639: heap size 814 MB, throughput 0.996
Numeric result:
Recommendation: 2 clients, utility 1.42243:
    h1: 3.93364 MB (U(h) = 0.983866*h^0.00124663)
    h2: 2424.07 MB (U(h) = 0.00362491*h^0.768215)
Recommendation: 2 clients, utility 1.42243:
    h1: 3.93367 MB (U(h) = 0.983866*h^0.00124663)
    h2: 2424.07 MB (U(h) = 0.00362491*h^0.768215)
Reading from 19638: heap size 1411 MB, throughput 0.975861
Reading from 19639: heap size 814 MB, throughput 0.99589
Reading from 19639: heap size 814 MB, throughput 0.997915
Reading from 19639: heap size 814 MB, throughput 0.997916
Reading from 19639: heap size 814 MB, throughput 0.989863
Reading from 19639: heap size 814 MB, throughput 0.994508
Reading from 19639: heap size 814 MB, throughput 0.995237
Reading from 19638: heap size 1592 MB, throughput 0.976044
Reading from 19639: heap size 814 MB, throughput 0.995391
Reading from 19639: heap size 814 MB, throughput 0.995461
Reading from 19639: heap size 814 MB, throughput 0.995553
Reading from 19639: heap size 814 MB, throughput 0.995654
Reading from 19638: heap size 1595 MB, throughput 0.974632
Reading from 19639: heap size 814 MB, throughput 0.995685
Reading from 19639: heap size 814 MB, throughput 0.995706
Reading from 19639: heap size 814 MB, throughput 0.995737
Numeric result:
Recommendation: 2 clients, utility 1.47292:
    h1: 3.61811 MB (U(h) = 0.9839*h^0.001239)
    h2: 2424.38 MB (U(h) = 0.00231509*h^0.830221)
Recommendation: 2 clients, utility 1.47292:
    h1: 3.6181 MB (U(h) = 0.9839*h^0.001239)
    h2: 2424.38 MB (U(h) = 0.00231509*h^0.830221)
Reading from 19639: heap size 814 MB, throughput 0.995749
Reading from 19638: heap size 1584 MB, throughput 0.972744
Reading from 19639: heap size 814 MB, throughput 0.995718
Reading from 19639: heap size 814 MB, throughput 0.995646
Reading from 19639: heap size 814 MB, throughput 0.995635
Reading from 19639: heap size 814 MB, throughput 0.995603
Reading from 19638: heap size 1590 MB, throughput 0.968949
Reading from 19639: heap size 814 MB, throughput 0.995099
Reading from 19639: heap size 814 MB, throughput 0.99394
Reading from 19639: heap size 814 MB, throughput 0.992915
Reading from 19639: heap size 814 MB, throughput 0.994414
Reading from 19639: heap size 814 MB, throughput 0.995052
Reading from 19639: heap size 814 MB, throughput 0.995401
Reading from 19639: heap size 814 MB, throughput 0.995538
Numeric result:
Recommendation: 2 clients, utility 1.51693:
    h1: 3.37574 MB (U(h) = 0.983939*h^0.00123005)
    h2: 2424.62 MB (U(h) = 0.00157465*h^0.88345)
Recommendation: 2 clients, utility 1.51693:
    h1: 3.37586 MB (U(h) = 0.983939*h^0.00123005)
    h2: 2424.62 MB (U(h) = 0.00157465*h^0.88345)
Reading from 19639: heap size 814 MB, throughput 0.995622
Client 19639 died
Clients: 1
Recommendation: one client; give it all the memory
Reading from 19638: heap size 1577 MB, throughput 0.987471
Recommendation: one client; give it all the memory
Reading from 19638: heap size 1586 MB, throughput 0.989134
Reading from 19638: heap size 1535 MB, throughput 0.986555
Reading from 19638: heap size 1464 MB, throughput 0.977232
Reading from 19638: heap size 1527 MB, throughput 0.960063
Recommendation: one client; give it all the memory
Reading from 19638: heap size 1543 MB, throughput 0.931913
Reading from 19638: heap size 1543 MB, throughput 0.89199
Reading from 19638: heap size 1543 MB, throughput 0.846388
Reading from 19638: heap size 1543 MB, throughput 0.807624
Reading from 19638: heap size 1543 MB, throughput 0.783347
Client 19638 died
Clients: 0
Recommendation: no clients; no recommendation
Recommendation: no clients; no recommendation
TimerThread: finished
ReadingThread: finished
CommandThread: finished
Main: All threads killed, cleaning up
