MemTotal:       16388228 kB
MemFree:        12929912 kB
Buffers:          673564 kB
Cached:          2187052 kB
SwapCached:            0 kB
Active:          1567904 kB
Inactive:        1444896 kB
Active(anon):     153024 kB
Inactive(anon):      348 kB
Active(file):    1414880 kB
Inactive(file):  1444548 kB
Unevictable:           0 kB
Mlocked:               0 kB
SwapTotal:      16728060 kB
SwapFree:       16728060 kB
Dirty:               144 kB
Writeback:             0 kB
AnonPages:        152036 kB
Mapped:            16828 kB
Shmem:              1192 kB
Slab:             308652 kB
SReclaimable:     288664 kB
SUnreclaim:        19988 kB
KernelStack:        1576 kB
PageTables:         3280 kB
NFS_Unstable:          0 kB
Bounce:                0 kB
WritebackTmp:          0 kB
CommitLimit:    24922172 kB
Committed_AS:     311856 kB
VmallocTotal:   34359738367 kB
VmallocUsed:      114436 kB
VmallocChunk:   34359598892 kB
HardwareCorrupted:     0 kB
AnonHugePages:    129024 kB
HugePages_Total:       0
HugePages_Free:        0
HugePages_Rsvd:        0
HugePages_Surp:        0
Hugepagesize:       2048 kB
DirectMap4k:       82884 kB
DirectMap2M:    16648192 kB
